step,run,get,set,free,run_up_to_step
0,0.0132119655609,0.00123000144958,0.00123500823975,0.000104904174805,0.0143101215363
1,0.00363898277283,0.00125813484192,0.00118494033813,0.000102996826172,0.0133159160614
2,0.00317406654358,0.00113296508789,0.00120210647583,0.000102996826172,0.0138840675354
3,0.00295090675354,0.0011248588562,0.00119113922119,0.000104904174805,0.0138559341431
4,0.00330996513367,0.00124597549438,0.00123906135559,0.000108957290649,0.0153849124908
5,0.00336599349976,0.00106191635132,0.0012309551239,0.000102043151855,0.016695022583
6,0.00291681289673,0.00123000144958,0.00113296508789,0.000101089477539,0.0161838531494
7,0.00287580490112,0.00114488601685,0.00114917755127,0.000100135803223,0.0205700397491
8,0.00297403335571,0.00113296508789,0.00125193595886,0.00010085105896,0.0190041065216
9,0.00297880172729,0.0011739730835,0.00113201141357,0.000114917755127,0.0369410514832
10,0.00316786766052,0.00115919113159,0.00123810768127,0.000113964080811,0.019807100296
11,0.00328803062439,0.00116205215454,0.00116801261902,0.000107049942017,0.0199611186981
12,0.00292491912842,0.00115203857422,0.0013530254364,0.000102996826172,0.020455121994
13,0.00306797027588,0.00114798545837,0.00117993354797,0.000104904174805,0.0215198993683
14,0.0029149055481,0.00112199783325,0.00117182731628,0.000103950500488,0.021369934082
15,0.00309109687805,0.00122880935669,0.00118589401245,0.000100135803223,0.0235319137573
16,0.00319528579712,0.00111985206604,0.00115990638733,0.000102043151855,0.0253889560699
17,0.00287294387817,0.0012149810791,0.00111293792725,9.98973846436e-05,0.0233879089355
18,0.00302481651306,0.00111317634583,0.00135588645935,0.000116109848022,0.0237739086151
19,0.00284004211426,0.00127387046814,0.00122594833374,0.000113010406494,0.0253119468689
20,0.00279211997986,0.00124382972717,0.00118398666382,0.000108957290649,0.025808095932
21,0.0029718875885,0.00117301940918,0.00117611885071,0.000102996826172,0.0265069007874
22,0.00299096107483,0.00114798545837,0.00132894515991,0.000105857849121,0.0281980037689
23,0.00284576416016,0.00111794471741,0.00117897987366,0.000103950500488,0.0299470424652
24,0.00348424911499,0.00111889839172,0.00129389762878,0.000102043151855,0.0286650657654
25,0.00289511680603,0.00129079818726,0.00117206573486,0.000101804733276,0.0288491249084
26,0.00292110443115,0.00124597549438,0.00118398666382,0.000102996826172,0.0311880111694
27,0.00492286682129,0.00139403343201,0.00119686126709,0.00011682510376,0.0302619934082
28,0.00327610969543,0.00117802619934,0.0011899471283,0.000208854675293,0.030914068222
29,0.00292706489563,0.00120806694031,0.00123190879822,0.000119209289551,0.0358250141144
30,0.00327396392822,0.00116610527039,0.00120687484741,0.000116109848022,0.0330438613892
31,0.0028338432312,0.00116491317749,0.00120711326599,0.000101804733276,0.0332050323486
32,0.00281095504761,0.00115299224854,0.0011579990387,0.000102996826172,0.033586025238
33,0.00283694267273,0.0011260509491,0.00112104415894,0.000105142593384,0.0361940860748
34,0.00288009643555,0.00108194351196,0.00110793113708,0.000103950500488,0.0364158153534
35,0.00286197662354,0.00117111206055,0.00126910209656,0.000116109848022,0.0350549221039
36,0.00303316116333,0.00136494636536,0.00115489959717,0.000108957290649,0.0431370735168
37,0.00286912918091,0.00119113922119,0.00112509727478,0.000108003616333,0.104238033295
38,0.00288891792297,0.00137495994568,0.00122499465942,0.000104904174805,0.0389158725739
39,0.00291013717651,0.00115203857422,0.00114488601685,0.000112056732178,0.0392088890076
40,0.00282716751099,0.00114917755127,0.00111484527588,0.000102996826172,0.0395810604095
41,0.00294995307922,0.00118708610535,0.00111889839172,0.000102043151855,0.0401890277863
42,0.00332903862,0.00116896629333,0.00123000144958,0.000103950500488,0.0481638908386
43,0.00374007225037,0.00106596946716,0.00126910209656,0.000120878219604,0.0491549968719
44,0.0028817653656,0.00126194953918,0.00113391876221,0.000109195709229,0.0431780815125
45,0.00307607650757,0.00120711326599,0.00114297866821,0.000111103057861,0.0434019565582
46,0.00282526016235,0.00115013122559,0.00114798545837,0.000111103057861,0.0434520244598
47,0.00280499458313,0.00112891197205,0.00122714042664,0.000114917755127,0.0431110858917
48,0.00284290313721,0.00112199783325,0.00116610527039,0.000123977661133,0.0439741611481
49,0.00286602973938,0.00131916999817,0.00120401382446,0.000105857849121,0.0446040630341
50,0.00281810760498,0.00113987922668,0.00122404098511,0.0001060962677,0.0456080436707
51,0.00284218788147,0.00122904777527,0.00115084648132,0.000112056732178,0.0859041213989
52,0.00284886360168,0.00122594833374,0.00121402740479,0.000110864639282,0.0501210689545
53,0.00347208976746,0.00136280059814,0.00117492675781,0.000106811523438,0.0481421947479
54,0.00293111801147,0.0011568069458,0.00113701820374,0.00010085105896,0.0488591194153
55,0.00350594520569,0.00120687484741,0.00132703781128,0.000104904174805,0.048773765564
56,0.00318789482117,0.00115513801575,0.00120306015015,0.000110864639282,0.0497040748596
57,0.0057361125946,0.00128602981567,0.00123310089111,0.000113010406494,0.108125925064
58,0.00285601615906,0.00142097473145,0.00116014480591,0.000108003616333,0.0509209632874
59,0.00294399261475,0.0014009475708,0.00126314163208,0.000107049942017,0.0523657798767
60,0.00285792350769,0.00134301185608,0.00129294395447,0.000102996826172,0.057422876358
61,0.00282216072083,0.00118112564087,0.00116491317749,0.000106811523438,0.0529098510742
62,0.00293397903442,0.00113296508789,0.00113701820374,0.0001060962677,0.0548000335693
63,0.00287413597107,0.00116515159607,0.00122690200806,0.000102996826172,0.0587749481201
64,0.0678367614746,0.00132608413696,0.00124788284302,0.000116109848022,0.0549559593201
65,0.0028669834137,0.00122499465942,0.00127506256104,0.000111103057861,0.0582280158997
66,0.00294613838196,0.00119185447693,0.00117897987366,0.000108957290649,0.0570471286774
67,0.00280380249023,0.00125813484192,0.00117707252502,0.0001060962677,0.0583319664001
68,0.00285887718201,0.00133109092712,0.00109791755676,0.000102996826172,0.0579438209534
69,0.00283098220825,0.00110292434692,0.00133395195007,0.00010085105896,0.058333158493
70,0.00289583206177,0.00128507614136,0.00129795074463,0.000113010406494,0.138412952423
71,0.00296306610107,0.0012469291687,0.00113797187805,0.000111103057861,0.0599219799042
72,0.00289106369019,0.00125503540039,0.00124001502991,0.000108957290649,0.0633480548859
73,0.00290584564209,0.00126194953918,0.00115704536438,0.000107049942017,0.0655150413513
74,0.00295996665955,0.0012800693512,0.00118494033813,0.000104188919067,0.0661199092865
75,0.00450086593628,0.00113201141357,0.00138306617737,0.000125885009766,0.0700490474701
76,0.00303602218628,0.00147700309753,0.00126910209656,0.000123023986816,0.139887809753
77,0.00301194190979,0.0013108253479,0.00112390518188,0.000110864639282,0.0644190311432
78,0.00291895866394,0.00124287605286,0.00133013725281,0.000108003616333,0.0723428726196
79,0.00285005569458,0.00133800506592,0.0012481212616,0.000104904174805,0.0733301639557
80,0.00287413597107,0.00112295150757,0.00115489959717,0.000107049942017,0.0722639560699
81,0.00419807434082,0.00112080574036,0.00129413604736,0.000107049942017,0.0761349201202
82,0.00299286842346,0.0013530254364,0.00121808052063,0.000117063522339,0.137239217758
83,0.00307703018188,0.00149416923523,0.00133991241455,0.000112056732178,0.0741539001465
84,0.00352787971497,0.00140619277954,0.00122594833374,0.000111103057861,0.069128036499
85,0.0028657913208,0.00119090080261,0.00119400024414,0.000105857849121,0.0693831443787
86,0.00285887718201,0.00117588043213,0.00134491920471,0.000130176544189,0.0758168697357
87,0.00314283370972,0.00128102302551,0.0012149810791,0.000112056732178,0.0784499645233
88,0.00308299064636,0.00126218795776,0.00123691558838,0.000109910964966,0.0752749443054
89,0.00306415557861,0.00118899345398,0.00114917755127,0.000111818313599,0.0736119747162
90,0.00296473503113,0.00116491317749,0.00110602378845,0.000104904174805,0.0748229026794
91,0.00311303138733,0.00111985206604,0.00125503540039,0.000108003616333,0.0734629631042
92,0.00285005569458,0.00148606300354,0.00134992599487,0.000300884246826,0.151897907257
93,0.00312399864197,0.00129318237305,0.00122809410095,0.000113010406494,0.0753481388092
94,0.00284004211426,0.00121092796326,0.00122284889221,0.000137090682983,0.0763790607452
95,0.00450229644775,0.00134301185608,0.0012309551239,0.000107049942017,0.0767440795898
96,0.00284004211426,0.00117301940918,0.00136780738831,0.000123023986816,0.081127166748
97,0.00316596031189,0.00127696990967,0.00123882293701,0.000114917755127,0.0791690349579
98,0.00416493415833,0.00124406814575,0.00122499465942,0.000113964080811,0.081239938736
99,0.00290203094482,0.00136303901672,0.00117707252502,0.000107049942017,0.0835568904877
