step,run,get,set,free,run_up_to_step
0,0.00361514091492,0.00403594970703,0.00361609458923,0.000509023666382,0.00439310073853
1,0.00265097618103,0.003830909729,0.00377798080444,0.000534057617188,0.00504589080811
2,0.00270628929138,0.00388598442078,0.00362706184387,0.00052285194397,0.00607490539551
3,0.00262403488159,0.00378203392029,0.00360703468323,0.000524997711182,0.00680708885193
4,0.00257897377014,0.00389885902405,0.00383591651917,0.000545024871826,0.00753593444824
5,0.00264191627502,0.00388813018799,0.00378608703613,0.000534057617188,0.00895094871521
6,0.00278878211975,0.0039279460907,0.00381398200989,0.000530004501343,0.00937390327454
7,0.00324773788452,0.00401282310486,0.0038480758667,0.000560998916626,0.0113770961761
8,0.00271797180176,0.00397300720215,0.00380396842957,0.000536918640137,0.0107679367065
9,0.00256514549255,0.00401616096497,0.00373601913452,0.000537872314453,0.011794090271
10,0.00258088111877,0.00400996208191,0.00365996360779,0.000530004501343,0.0126969814301
11,0.00263094902039,0.00407314300537,0.0038321018219,0.000545978546143,0.0136620998383
12,0.00266599655151,0.00398898124695,0.00378513336182,0.000545978546143,0.0143859386444
13,0.00300097465515,0.00396800041199,0.00379204750061,0.000547885894775,0.0153698921204
14,0.00298571586609,0.00393295288086,0.00394797325134,0.000550985336304,0.016881942749
15,0.00278687477112,0.00432300567627,0.00389790534973,0.000562906265259,0.0240650177002
16,0.00277996063232,0.00428795814514,0.00384593009949,0.000564098358154,0.018089056015
17,0.00267696380615,0.00411105155945,0.00379085540771,0.000560998916626,0.0182428359985
18,0.00300002098083,0.00398921966553,0.00382018089294,0.000550985336304,0.0193691253662
19,0.00306105613708,0.00394797325134,0.00394797325134,0.000594139099121,0.0239260196686
20,0.00266814231873,0.00386714935303,0.00376105308533,0.000550031661987,0.0283420085907
21,0.00289487838745,0.00393199920654,0.00428199768066,0.000607967376709,0.0218570232391
22,0.002760887146,0.00444293022156,0.0040431022644,0.000586032867432,0.0338671207428
23,0.00260305404663,0.00428605079651,0.00388193130493,0.000570774078369,0.0239250659943
24,0.00310587882996,0.0043089389801,0.00410199165344,0.000583171844482,0.0246720314026
25,0.00281381607056,0.0042359828949,0.00394701957703,0.000572919845581,0.0254509449005
26,0.00316619873047,0.00429606437683,0.00395178794861,0.000576019287109,0.026554107666
27,0.00449991226196,0.00475311279297,0.00438499450684,0.000623941421509,0.0324599742889
28,0.00489115715027,0.00448799133301,0.0043580532074,0.000631809234619,0.0396649837494
29,0.00451707839966,0.00483798980713,0.00429201126099,0.000633001327515,0.0368101596832
30,0.00436401367188,0.00443816184998,0.004399061203,0.000632047653198,0.0356981754303
31,0.00319480895996,0.00455904006958,0.00401902198792,0.000571012496948,0.0386738777161
32,0.00293588638306,0.00427603721619,0.00407218933105,0.000566005706787,0.0336701869965
33,0.00264286994934,0.0040500164032,0.00393509864807,0.00056004524231,0.0327868461609
34,0.00309324264526,0.00398802757263,0.00433301925659,0.000622987747192,0.0397319793701
35,0.00264501571655,0.00460600852966,0.00401592254639,0.000613927841187,0.0334100723267
36,0.00267291069031,0.00448107719421,0.00406193733215,0.000617980957031,0.0345189571381
37,0.00272583961487,0.00431990623474,0.00394320487976,0.000564098358154,0.0360009670258
38,0.00272512435913,0.00413799285889,0.00377607345581,0.000536918640137,0.0366189479828
39,0.00273990631104,0.00393581390381,0.00431513786316,0.00092601776123,0.0430059432983
40,0.00305199623108,0.00387692451477,0.00463104248047,0.000801086425781,0.0461840629578
41,0.00275182723999,0.00468993186951,0.00404810905457,0.000602006912231,0.0387921333313
42,0.00529909133911,0.00449800491333,0.00386905670166,0.000566959381104,0.0413069725037
43,0.0026957988739,0.0045850276947,0.00382900238037,0.000569105148315,0.0403859615326
44,0.00258708000183,0.00437903404236,0.00393605232239,0.000571012496948,0.041620016098
45,0.00333499908447,0.00413298606873,0.00384306907654,0.000558853149414,0.0418119430542
46,0.00272011756897,0.0041868686676,0.00467705726624,0.000657081604004,0.112951993942
47,0.00260996818542,0.00466799736023,0.00417399406433,0.000607013702393,0.0438120365143
48,0.00299096107483,0.00447487831116,0.00373482704163,0.00055718421936,0.0517370700836
49,0.00277090072632,0.00433087348938,0.00385189056396,0.00056004524231,0.0510931015015
50,0.00266790390015,0.00406408309937,0.00364995002747,0.000530004501343,0.0456459522247
51,0.00270628929138,0.00399208068848,0.00382900238037,0.000526905059814,0.0529930591583
52,0.00270104408264,0.00488805770874,0.00423407554626,0.00062108039856,0.121123075485
53,0.00273704528809,0.0046329498291,0.00421404838562,0.000619888305664,0.049311876297
54,0.00259494781494,0.00464391708374,0.00394988059998,0.000602960586548,0.0558378696442
55,0.00260710716248,0.00442004203796,0.00386714935303,0.000573873519897,0.050085067749
56,0.00363898277283,0.00427508354187,0.00389385223389,0.000576019287109,0.0589010715485
57,0.00270009040833,0.00412607192993,0.00376391410828,0.000548124313354,0.0586550235748
58,0.00274705886841,0.00473284721375,0.00426316261292,0.000637054443359,0.0959501266479
59,0.00982809066772,0.00468802452087,0.00408601760864,0.000611066818237,0.0542678833008
60,0.0025749206543,0.00437188148499,0.00369310379028,0.000546932220459,0.0544471740723
61,0.00277209281921,0.00412082672119,0.00365400314331,0.000528812408447,0.0723738670349
62,0.00263404846191,0.00406408309937,0.00383806228638,0.000553131103516,0.0561740398407
63,0.00279688835144,0.00386595726013,0.00375699996948,0.00053596496582,0.0659730434418
64,0.0031590461731,0.00435090065002,0.00399780273438,0.000585079193115,0.132683992386
65,0.00260782241821,0.00425910949707,0.00393414497375,0.000572919845581,0.0582947731018
66,0.00279092788696,0.00424695014954,0.00369215011597,0.000550985336304,0.0867550373077
67,0.00255703926086,0.00416398048401,0.00387716293335,0.00056004524231,0.065838098526
68,0.00280499458313,0.00410199165344,0.00385594367981,0.000555992126465,0.0605888366699
69,0.00286412239075,0.00402808189392,0.00375509262085,0.000551223754883,0.0676119327545
70,0.00268006324768,0.00436186790466,0.0042679309845,0.00064492225647,0.139662027359
71,0.00259590148926,0.00430011749268,0.00397896766663,0.000571012496948,0.0688149929047
72,0.0027060508728,0.00417995452881,0.00389003753662,0.000563859939575,0.0640821456909
73,0.00273108482361,0.00410795211792,0.00378704071045,0.00055193901062,0.0714371204376
74,0.0710220336914,0.00485992431641,0.0041389465332,0.000623941421509,0.0657680034637
75,0.00342988967896,0.00428605079651,0.00401496887207,0.000607967376709,0.0899140834808
76,0.00278377532959,0.00425100326538,0.00373792648315,0.000861883163452,0.0673611164093
77,0.00258612632751,0.00413298606873,0.00383591651917,0.000566005706787,0.0681169033051
78,0.00281810760498,0.0040979385376,0.0038480758667,0.000565052032471,0.0755848884583
79,0.00275111198425,0.00402688980103,0.00466084480286,0.000612020492554,0.0811769962311
80,0.00289583206177,0.00449299812317,0.0040500164032,0.000597953796387,0.0779550075531
81,0.00275421142578,0.00436186790466,0.0038628578186,0.000574111938477,0.0713210105896
82,0.00266695022583,0.0042200088501,0.00389719009399,0.000579833984375,0.0724720954895
83,0.00276398658752,0.00417995452881,0.00376605987549,0.000574827194214,0.079530954361
84,0.0027220249176,0.00406408309937,0.00374794006348,0.000566005706787,0.102783918381
85,0.00262212753296,0.00452303886414,0.00404500961304,0.000606060028076,0.150094985962
86,0.00270199775696,0.00446820259094,0.004075050354,0.000590085983276,0.076003074646
87,0.00287008285522,0.00424814224243,0.0039210319519,0.000582933425903,0.0833330154419
88,0.00279092788696,0.00414204597473,0.00386691093445,0.000581979751587,0.0841197967529
89,0.00284004211426,0.0046329498291,0.00517106056213,0.00112390518188,0.150782108307
90,0.00397419929504,0.00531196594238,0.00489282608032,0.00108194351196,0.106928825378
91,0.00391101837158,0.00486207008362,0.00639009475708,0.0017728805542,0.100173950195
92,0.00517916679382,0.0055251121521,0.005450963974,0.00117802619934,0.11970281601
93,0.00480508804321,0.00691413879395,0.00618505477905,0.0014169216156,0.196128129959
94,0.00453329086304,0.00622701644897,0.00606608390808,0.00142908096313,0.118191957474
95,0.00275206565857,0.00427293777466,0.00383496284485,0.00057315826416,0.089663028717
96,0.00458002090454,0.00513219833374,0.00553417205811,0.00132393836975,0.0856969356537
97,0.00274085998535,0.00389695167542,0.00361895561218,0.00053596496582,0.116744041443
98,0.00268888473511,0.0234670639038,0.00579595565796,0.00131106376648,0.152277946472
99,0.00474810600281,0.00582885742188,0.00439620018005,0.000757932662964,0.123074054718
