step,run,get,set,free,run_up_to_step
0,0.00715804100037,0.00579500198364,0.00547790527344,0.000511884689331,0.00863003730774
1,0.0107161998749,0.00575494766235,0.00551605224609,0.000531911849976,0.0139248371124
2,0.0081090927124,0.0056619644165,0.00555801391602,0.000566005706787,0.0153489112854
3,0.0104558467865,0.00582098960876,0.00559091567993,0.000530004501343,0.0201880931854
4,0.00634288787842,0.00597405433655,0.00599002838135,0.000534057617188,0.0216429233551
5,0.00570583343506,0.00604701042175,0.00601506233215,0.000583171844482,0.0232031345367
6,0.0100350379944,0.00598096847534,0.00583386421204,0.000570058822632,0.0291380882263
7,0.00868082046509,0.00595116615295,0.00563287734985,0.000566005706787,0.0297689437866
8,0.0104398727417,0.00561285018921,0.00552797317505,0.000541925430298,0.0346169471741
9,0.00607299804688,0.00578188896179,0.00570702552795,0.000530004501343,0.0368900299072
10,0.0407190322876,0.00616192817688,0.00602412223816,0.000616073608398,0.038017988205
11,0.0100259780884,0.00579500198364,0.00583791732788,0.00056004524231,0.0425631999969
12,0.00734305381775,0.00605392456055,0.00559401512146,0.000587940216064,0.0452299118042
13,0.0101130008698,0.00578808784485,0.00551295280457,0.000533103942871,0.0494990348816
14,0.00603890419006,0.00572299957275,0.00619292259216,0.000674962997437,0.0495519638062
15,0.0061559677124,0.00630807876587,0.00579595565796,0.000710964202881,0.0527379512787
16,0.0107009410858,0.00621485710144,0.00576996803284,0.00058388710022,0.0579640865326
17,0.00775790214539,0.00600385665894,0.00551199913025,0.000539779663086,0.0595049858093
18,0.0103800296783,0.00622797012329,0.0062141418457,0.00061297416687,0.107445001602
19,0.00649809837341,0.00592279434204,0.00599002838135,0.000595808029175,0.0656869411469
20,0.00621318817139,0.0061719417572,0.00564694404602,0.000572919845581,0.0624499320984
21,0.00974321365356,0.00567007064819,0.00543808937073,0.000542879104614,0.0652949810028
22,0.00727105140686,0.00568199157715,0.0064160823822,0.000647068023682,0.0717182159424
23,0.0100109577179,0.00653505325317,0.00620293617249,0.000598907470703,0.0779759883881
24,0.00703501701355,0.00637006759644,0.00645899772644,0.000951051712036,0.0790169239044
25,0.005774974823,0.00611996650696,0.00589299201965,0.000575065612793,0.0777699947357
26,0.0113039016724,0.0059289932251,0.00629210472107,0.000655174255371,0.0874540805817
27,0.00748205184937,0.0066659450531,0.00616598129272,0.000609159469604,0.0886509418488
28,0.0100979804993,0.00617599487305,0.00623488426208,0.000817060470581,0.0906460285187
29,0.00617599487305,0.0062849521637,0.00548696517944,0.000564098358154,0.0946068763733
30,0.00606393814087,0.00570607185364,0.00637888908386,0.000693082809448,0.0948209762573
31,0.0098831653595,0.00669693946838,0.00621509552002,0.000686883926392,0.0994420051575
32,0.00754380226135,0.00662183761597,0.00583100318909,0.000627994537354,0.101498842239
33,0.0101459026337,0.00599694252014,0.00540399551392,0.000600099563599,0.1089220047
34,0.00572299957275,0.0057578086853,0.00560188293457,0.000656127929688,0.107354164124
35,0.00609493255615,0.00651788711548,0.00622701644897,0.000615119934082,0.163586139679
36,0.0103559494019,0.00652003288269,0.00609993934631,0.000675201416016,0.115831851959
37,0.00700092315674,0.00609612464905,0.00593709945679,0.000580072402954,0.116402864456
38,0.0100910663605,0.00597500801086,0.00554800033569,0.000550985336304,0.119799137115
39,0.00627994537354,0.00697112083435,0.00585007667542,0.000650882720947,0.495122909546
40,0.00638389587402,0.00674200057983,0.00626611709595,0.000711917877197,0.124388933182
41,0.010330915451,0.00634288787842,0.00593209266663,0.000655174255371,0.130489826202
42,0.00782704353333,0.00596594810486,0.00564193725586,0.00055980682373,0.130733013153
43,0.0574750900269,0.00690793991089,0.00608706474304,0.000619173049927,0.132416009903
44,0.00573301315308,0.00634288787842,0.00608396530151,0.000684976577759,0.220238924026
45,0.00622701644897,0.0066249370575,0.00627493858337,0.000599145889282,0.136739015579
46,0.0101137161255,0.00644707679749,0.00615787506104,0.000598907470703,0.141283035278
47,0.00811314582825,0.00609302520752,0.00676608085632,0.000692129135132,0.143711805344
48,0.00949287414551,0.0065610408783,0.00625395774841,0.000635147094727,0.142508029938
49,0.0061559677124,0.00633502006531,0.00605797767639,0.000624895095825,0.142723083496
50,0.00696516036987,0.0055730342865,0.0057270526886,0.000748872756958,0.132688999176
51,0.117214918137,0.00462198257446,0.00438380241394,0.000470161437988,0.104467868805
52,0.00791215896606,0.00634098052979,0.00421619415283,0.000452995300293,0.124143838882
53,0.0104839801788,0.0041069984436,0.0040979385376,0.000435829162598,0.142245054245
54,0.00582122802734,0.00386190414429,0.00391697883606,0.00039005279541,0.110502004623
55,0.00437998771667,0.00466990470886,0.00408601760864,0.00046706199646,0.158512115479
56,0.00877499580383,0.00470900535583,0.00390887260437,0.000405788421631,0.133512020111
57,0.00749492645264,0.0058650970459,0.00567007064819,0.000596046447754,0.145672082901
58,0.010350227356,0.00699281692505,0.0063750743866,0.000787019729614,0.21444606781
59,0.00646209716797,0.00632500648499,0.00611019134521,0.00072193145752,0.17946600914
60,0.0066876411438,0.00627899169922,0.00557589530945,0.00060510635376,0.179509878159
61,0.00953006744385,0.0050950050354,0.00676608085632,0.000641107559204,0.182532072067
62,0.00800514221191,0.00653696060181,0.00635099411011,0.000704050064087,0.182945013046
63,0.0104260444641,0.00656700134277,0.00622892379761,0.000633001327515,0.185939073563
64,0.00599098205566,0.00601983070374,0.00573110580444,0.00061297416687,0.188889980316
65,0.00628113746643,0.00700211524963,0.00630903244019,0.000808954238892,0.24577999115
66,0.0106639862061,0.00610995292664,0.00584292411804,0.000698804855347,0.201706886292
67,0.00747203826904,0.00549292564392,0.00564098358154,0.000577211380005,0.193707942963
68,0.0102097988129,0.00690388679504,0.00621700286865,0.000751972198486,0.237370014191
69,0.00618600845337,0.00610494613647,0.00583410263062,0.000694036483765,0.21660399437
70,0.00610089302063,0.00549507141113,0.00582790374756,0.000648021697998,0.214278936386
71,0.0111818313599,0.00544214248657,0.00735092163086,0.00068998336792,0.214002132416
72,0.00835013389587,0.00657296180725,0.00589513778687,0.000794887542725,0.218252182007
73,0.0108559131622,0.00588488578796,0.00562882423401,0.000600099563599,0.221014022827
74,0.00624585151672,0.00743198394775,0.0063898563385,0.000825166702271,0.255907058716
75,0.00581121444702,0.00607395172119,0.00601100921631,0.000671148300171,0.223342180252
76,0.0105760097504,0.00545215606689,0.00583410263062,0.000733137130737,0.23139500618
77,0.0076379776001,0.00741386413574,0.00616312026978,0.000699043273926,0.270075082779
78,0.0100109577179,0.00587511062622,0.00555181503296,0.000677108764648,0.232083082199
79,0.0058798789978,0.00568389892578,0.00740814208984,0.000711917877197,0.230350017548
80,0.00578689575195,0.00684213638306,0.00628304481506,0.000716924667358,0.237772941589
81,0.0102169513702,0.00629091262817,0.00627708435059,0.000622034072876,0.228911161423
82,0.00897121429443,0.00652098655701,0.00652098655701,0.000728130340576,0.271754026413
83,0.0097119808197,0.00636315345764,0.00613808631897,0.00068998336792,0.236532926559
84,0.00612902641296,0.00591206550598,0.0060248374939,0.000689029693604,0.237947940826
85,0.00607919692993,0.00706386566162,0.00578379631042,0.000645875930786,0.280986070633
86,0.0101010799408,0.00660419464111,0.006352186203,0.000921964645386,0.247220039368
87,0.00747084617615,0.00516605377197,0.00587487220764,0.00060510635376,0.24640083313
88,0.00941109657288,0.00640821456909,0.00637984275818,0.000806093215942,0.290123939514
89,0.00598883628845,0.00609302520752,0.00610589981079,0.000612020492554,0.257839202881
90,0.00544404983521,0.00558590888977,0.00695586204529,0.000748157501221,0.251044034958
91,0.0101671218872,0.00670886039734,0.0062210559845,0.000664949417114,0.260660171509
92,0.00837969779968,0.00622296333313,0.00606203079224,0.000669956207275,0.262909889221
93,0.0102918148041,0.00691986083984,0.0063488483429,0.000945806503296,0.303198099136
94,0.00672388076782,0.00656795501709,0.00613403320312,0.000617980957031,0.266899108887
95,0.00619411468506,0.00601196289062,0.00663805007935,0.000715017318726,0.262756109238
96,0.0102770328522,0.00631189346313,0.00599193572998,0.000703096389771,0.275262117386
97,0.00746703147888,0.00592803955078,0.00586199760437,0.000571012496948,0.272966861725
98,0.00986433029175,0.00668692588806,0.0063419342041,0.000634908676147,0.312133073807
99,0.00624895095825,0.00579214096069,0.00586700439453,0.000623941421509,0.284955024719
