step,run,get,set,free,run_up_to_step
0,0.0253930091858,0.0296499729156,0.0305149555206,0.00568914413452,0.0273191928864
1,0.0258059501648,0.0264370441437,0.0278868675232,0.0056619644165,0.0300800800323
2,0.0179617404938,0.0263860225677,0.0271220207214,0.0057270526886,0.0401039123535
3,0.0248839855194,0.027163028717,0.0311591625214,0.00654315948486,0.0394349098206
4,0.017627954483,0.0269148349762,0.0282249450684,0.00582098960876,0.0477819442749
5,0.0173571109772,0.0268678665161,0.0292620658875,0.00574803352356,0.0429229736328
6,0.0238997936249,0.026349067688,0.0288259983063,0.00575399398804,0.0465610027313
7,0.0176029205322,0.0255560874939,0.0277850627899,0.00587296485901,0.0520980358124
8,0.023943901062,0.026880979538,0.0292048454285,0.00592994689941,0.0520210266113
9,0.0173759460449,0.0269341468811,0.0537340641022,0.00601410865784,0.0599200725555
10,0.0241670608521,0.0263509750366,0.0290560722351,0.00606489181519,0.0601239204407
11,0.0189259052277,0.0278358459473,0.0301959514618,0.00651502609253,0.0698680877686
12,0.0195798873901,0.0288140773773,0.0318191051483,0.00666689872742,0.0674901008606
13,0.0351650714874,0.030965089798,0.0295069217682,0.00625085830688,0.191196918488
14,0.0246751308441,0.0294330120087,0.0285630226135,0.00597286224365,0.095263004303
15,0.0439460277557,0.02849817276,0.0285978317261,0.00625801086426,0.1213722229
16,0.0167009830475,0.027126789093,0.0295569896698,0.00641798973083,0.0757398605347
17,0.0170950889587,0.0272390842438,0.029406785965,0.00628995895386,0.102304935455
18,0.0170760154724,0.0268847942352,0.0290269851685,0.00626015663147,0.161455869675
19,0.0175039768219,0.0272588729858,0.0292720794678,0.00631904602051,0.0849611759186
20,0.0167388916016,0.0269649028778,0.0282280445099,0.00622200965881,0.0872821807861
21,0.0256249904633,0.0276529788971,0.0302879810333,0.00665211677551,0.144956111908
22,0.0254108905792,0.0261499881744,0.028892993927,0.00587296485901,0.221810102463
23,0.0218510627747,0.0262970924377,0.028018951416,0.00577998161316,0.107560873032
24,0.0232570171356,0.0263690948486,0.0290420055389,0.00585794448853,0.136630058289
25,0.0233981609344,0.0261399745941,0.0286011695862,0.00592517852783,0.130958795547
26,0.0171689987183,0.0264849662781,0.0292088985443,0.00597095489502,0.10408782959
27,0.0261700153351,0.0260820388794,0.0279769897461,0.00596189498901,0.109191179276
28,0.0308933258057,0.0265121459961,0.0281920433044,0.00585794448853,0.145810127258
29,0.0350980758667,0.0273051261902,0.0287761688232,0.00604295730591,0.144767999649
30,0.0163450241089,0.0270109176636,0.0283310413361,0.00588011741638,0.260608196259
31,0.0170340538025,0.0258929729462,0.0281660556793,0.00583696365356,0.16922211647
32,0.0180239677429,0.0265331268311,0.0279550552368,0.00687694549561,0.141339063644
33,0.0306987762451,0.0263199806213,0.0361211299896,0.0069260597229,0.157876968384
34,0.0264642238617,0.0268449783325,0.0288360118866,0.00589084625244,0.134761095047
35,0.016284942627,0.0264060497284,0.028548002243,0.0060179233551,0.164694070816
36,0.0235900878906,0.0268008708954,0.0286469459534,0.00582194328308,0.180933952332
37,0.0309352874756,0.0267598628998,0.0276079177856,0.00578594207764,0.144083976746
38,0.243599891663,0.0252780914307,0.0280780792236,0.00598096847534,0.281477928162
39,0.0213630199432,0.0264809131622,0.0273628234863,0.00590109825134,0.165202140808
40,0.044527053833,0.0253639221191,0.0281550884247,0.0058159828186,0.152843952179
41,0.0269329547882,0.0261580944061,0.028195142746,0.00581502914429,0.198390960693
42,0.263532876968,0.025731086731,0.0278158187866,0.00570797920227,0.195791959763
43,0.0252890586853,0.0263350009918,0.0280787944794,0.00576710700989,0.183266162872
44,0.0245931148529,0.0306799411774,0.0282759666443,0.00585198402405,0.190853118896
45,0.0332429409027,0.0265979766846,0.0283279418945,0.00590109825134,0.185431003571
46,0.0515651702881,0.0259809494019,0.0282759666443,0.00578093528748,0.350896835327
47,0.037672996521,0.0260620117188,0.0283269882202,0.00580310821533,0.23548913002
48,0.0357191562653,0.0262961387634,0.0285639762878,0.00578808784485,0.185119152069
49,0.0215530395508,0.0257930755615,0.029000043869,0.00663304328918,0.227904081345
50,0.0373551845551,0.0256559848785,0.0294368267059,0.00578284263611,0.195539951324
51,0.0399823188782,0.0254158973694,0.0282700061798,0.00582385063171,0.186593055725
52,0.0345361232758,0.0264699459076,0.033830165863,0.00689697265625,0.246731042862
53,0.0507979393005,0.0265100002289,0.0282709598541,0.00578808784485,0.217175006866
54,0.0804839134216,0.0283119678497,0.0287549495697,0.00583696365356,0.578996896744
55,0.0177321434021,0.0262460708618,0.0284759998322,0.00577902793884,0.22422504425
56,0.179430007935,0.0262041091919,0.0274798870087,0.00575399398804,0.210788011551
57,0.0666620731354,0.025673866272,0.0283939838409,0.00587296485901,0.222601890564
58,0.0626239776611,0.0266830921173,0.0284459590912,0.00618505477905,0.263645887375
59,0.0264430046082,0.0265061855316,0.02849817276,0.00588989257812,0.327268123627
60,0.0290539264679,0.0272629261017,0.0287590026855,0.0068690776825,0.306003093719
61,0.0398721694946,0.02645611763,0.0283868312836,0.00576996803284,0.225157976151
62,0.0404760837555,0.026083946228,0.0286340713501,0.00580906867981,0.406982898712
63,0.0487442016602,0.0282690525055,0.0281839370728,0.00581884384155,0.282783031464
64,0.0449867248535,0.0267269611359,0.0272810459137,0.00580096244812,0.238095998764
65,0.0359361171722,0.0259301662445,0.0291640758514,0.00696992874146,0.278258085251
66,0.0638530254364,0.0263750553131,0.0283679962158,0.00581812858582,0.286977052689
67,0.126477956772,0.026417016983,0.0283570289612,0.00584697723389,0.312361001968
68,0.0410771369934,0.0271480083466,0.0281901359558,0.00580406188965,0.696644067764
69,0.048259973526,0.0271718502045,0.0282340049744,0.00585913658142,0.269526958466
70,0.045401096344,0.0263721942902,0.0280070304871,0.00590014457703,0.474958896637
71,0.0466370582581,0.0261008739471,0.0285749435425,0.00630307197571,0.234606981277
72,0.0492587089539,0.0266208648682,0.0566861629486,0.0074667930603,0.255764007568
73,0.0423099994659,0.0263209342957,0.0300688743591,0.00644993782043,0.322170972824
74,0.0436451435089,0.0273098945618,0.0287380218506,0.00654101371765,0.377723932266
75,0.0414190292358,0.0308158397675,0.0330710411072,0.00709581375122,0.410882949829
76,0.0228497982025,0.0274670124054,0.0288980007172,0.00612497329712,0.273231983185
77,0.0258581638336,0.0279591083527,0.0294458866119,0.00678992271423,0.290024995804
78,0.0243861675262,0.0258641242981,0.0284388065338,0.00581407546997,0.498430013657
79,0.0683360099792,0.0259461402893,0.0282108783722,0.00587296485901,0.640735864639
80,0.0323147773743,0.030161857605,0.0279579162598,0.00620412826538,0.316427946091
81,0.0341598987579,0.0267159938812,0.0284700393677,0.00677990913391,0.262800931931
82,0.0296318531036,0.0265829563141,0.0284669399261,0.00661301612854,0.342768907547
83,0.0392179489136,0.0266909599304,0.0289568901062,0.00657892227173,0.288272857666
84,0.0243971347809,0.0263519287109,0.028627872467,0.00658488273621,0.320543050766
85,0.0364921092987,0.0256750583649,0.0283379554749,0.00603795051575,0.376697063446
86,0.0210139751434,0.0264451503754,0.0310568809509,0.00589179992676,0.29096698761
87,0.0246138572693,0.026832818985,0.0273411273956,0.00663995742798,0.327715873718
88,0.0283629894257,0.0261340141296,0.0535929203033,0.00572800636292,0.28838801384
89,0.321047067642,0.0270099639893,0.0288519859314,0.00636911392212,0.336482048035
90,0.0245900154114,0.0257799625397,0.02792096138,0.00573992729187,0.321293115616
91,0.016441822052,0.0269010066986,0.0275771617889,0.00673317909241,0.334024906158
92,0.0216457843781,0.0270848274231,0.0275428295135,0.00577402114868,0.315699100494
93,0.0176329612732,0.0259430408478,0.0284290313721,0.0059289932251,0.567158937454
94,0.023234128952,0.0262439250946,0.0279638767242,0.00599598884583,0.310973882675
95,0.0361309051514,0.0311789512634,0.0283179283142,0.00670289993286,0.470476865768
96,0.0235619544983,0.0261161327362,0.0286619663239,0.00631308555603,0.324187040329
97,0.0158360004425,0.026064157486,0.0292549133301,0.00685596466064,0.415625095367
98,0.0586080551147,0.0258920192719,0.0284810066223,0.00581908226013,0.323241949081
99,0.0263431072235,0.0254330635071,0.0287590026855,0.00579500198364,0.423966884613
