step,run,get,set,free,run_up_to_step
0,0.00974798202515,0.00502800941467,0.00483012199402,0.000410079956055,0.010195016861
1,0.00744676589966,0.00479102134705,0.00481295585632,0.000415802001953,0.0121068954468
2,0.0158998966217,0.00487089157104,0.00485992431641,0.000418901443481,0.0147771835327
3,0.00838088989258,0.00497198104858,0.00501203536987,0.000424861907959,0.0179688930511
4,0.00756812095642,0.00475215911865,0.00480389595032,0.000424861907959,0.0184190273285
5,0.00703501701355,0.00485014915466,0.00506210327148,0.000458955764771,0.0303950309753
6,0.00857067108154,0.00494003295898,0.00498700141907,0.000444173812866,0.0243110656738
7,0.0125601291656,0.00487303733826,0.00495600700378,0.000539064407349,0.0361800193787
8,0.00795602798462,0.0048828125,0.00487995147705,0.000432968139648,0.03586602211
9,0.00781488418579,0.00491499900818,0.00485396385193,0.000427961349487,0.0384480953217
10,0.00725102424622,0.00488805770874,0.00498294830322,0.000454902648926,0.0594589710236
11,0.00791192054749,0.00497698783875,0.00523281097412,0.000638961791992,0.0353560447693
12,0.0114860534668,0.00527191162109,0.0049159526825,0.000534057617188,0.0416219234467
13,0.00801467895508,0.00502610206604,0.00508499145508,0.000434160232544,0.0467009544373
14,0.00777101516724,0.00483107566833,0.00488901138306,0.000434875488281,0.0459508895874
15,0.00773906707764,0.00485587120056,0.00499105453491,0.000427007675171,0.0546169281006
16,0.00760889053345,0.00513911247253,0.00507283210754,0.000502824783325,0.0902199745178
17,0.0141928195953,0.00507402420044,0.00518989562988,0.000642061233521,0.0419139862061
18,0.00809121131897,0.00497508049011,0.00501704216003,0.000446081161499,0.0575869083405
19,0.00770998001099,0.00493216514587,0.00480604171753,0.000445127487183,0.0525879859924
20,0.00779604911804,0.00499796867371,0.00494194030762,0.000460147857666,0.0581529140472
21,0.00757193565369,0.00478100776672,0.00524520874023,0.000552892684937,0.0502390861511
22,0.0147778987885,0.00518608093262,0.00508713722229,0.000467777252197,0.057315826416
23,0.00824689865112,0.0050790309906,0.00487613677979,0.000477075576782,0.0751430988312
24,0.00784516334534,0.00502610206604,0.00483298301697,0.000443935394287,0.0633959770203
25,0.00857615470886,0.00475215911865,0.00516605377197,0.000473022460938,0.0664439201355
26,0.00887203216553,0.00537896156311,0.00502800941467,0.000463962554932,0.0678780078888
27,0.0151629447937,0.00531005859375,0.00508189201355,0.000543832778931,0.078675031662
28,0.00851511955261,0.00513696670532,0.00495600700378,0.000466108322144,0.0658679008484
29,0.00880980491638,0.00491189956665,0.00488901138306,0.000451803207397,0.075690984726
30,0.0506429672241,0.00547194480896,0.00518894195557,0.000483989715576,0.0854918956757
31,0.00767803192139,0.00523614883423,0.00512099266052,0.000491142272949,0.0817279815674
32,0.0112709999084,0.00533604621887,0.00518894195557,0.000473022460938,0.0934748649597
33,0.00833797454834,0.00535106658936,0.00509405136108,0.000473976135254,0.0927510261536
34,0.00754809379578,0.00502586364746,0.0048520565033,0.000441074371338,0.0890600681305
35,0.0090639591217,0.00477600097656,0.00489211082458,0.000601053237915,0.0839910507202
36,0.00822305679321,0.00540804862976,0.00522184371948,0.000475883483887,0.106384992599
37,0.0120677947998,0.00545787811279,0.00521087646484,0.000478029251099,0.099592924118
38,0.00843811035156,0.00514388084412,0.00503492355347,0.000461101531982,0.107511043549
39,0.00720405578613,0.00479483604431,0.0049569606781,0.00049901008606,0.115432024002
40,0.00756788253784,0.00566411018372,0.00521397590637,0.000499963760376,0.104197978973
41,0.0075991153717,0.00539708137512,0.00529980659485,0.00048303604126,0.13257598877
42,0.0126569271088,0.00526881217957,0.0052490234375,0.000666856765747,0.115216016769
43,0.00753808021545,0.00467705726624,0.00482511520386,0.000427961349487,0.12869811058
44,0.00778198242188,0.00569295883179,0.00512409210205,0.000494003295898,0.152454853058
45,0.00726366043091,0.0054190158844,0.00541687011719,0.000617027282715,0.120429992676
46,0.00748085975647,0.00522708892822,0.00514698028564,0.000690937042236,0.133949041367
47,0.010528087616,0.00525617599487,0.00535488128662,0.000459909439087,0.128022193909
48,0.0697419643402,0.00576496124268,0.00540089607239,0.000576972961426,0.132653951645
49,0.00792908668518,0.00503492355347,0.00504803657532,0.00047492980957,0.213824987411
50,0.00780200958252,0.00536203384399,0.00622081756592,0.000557899475098,0.109936952591
51,0.00770807266235,0.00515103340149,0.00513315200806,0.000445127487183,0.133643865585
52,0.010852098465,0.00494003295898,0.00496196746826,0.000460863113403,0.12464094162
53,0.00891423225403,0.00528216362,0.00521302223206,0.000537872314453,0.139999866486
54,0.00781178474426,0.00520896911621,0.00509905815125,0.00049901008606,0.157676935196
55,0.00739598274231,0.0050790309906,0.00516796112061,0.000474214553833,0.151921987534
56,0.0079710483551,0.005038022995,0.00513291358948,0.000481128692627,0.13093495369
57,0.013640165329,0.00488686561584,0.00548791885376,0.000566005706787,0.143337011337
58,0.00892305374146,0.00530195236206,0.00526094436646,0.000540018081665,0.148623943329
59,0.00830626487732,0.00520992279053,0.00513005256653,0.000464916229248,0.161576032639
60,0.00815415382385,0.00510001182556,0.00504207611084,0.000468969345093,0.150294065475
61,0.00896096229553,0.00505995750427,0.00490093231201,0.000435829162598,0.139467000961
62,0.0133728981018,0.00537705421448,0.00519514083862,0.000484943389893,0.232133865356
63,0.00842928886414,0.00529193878174,0.00546312332153,0.000735998153687,0.167984008789
64,0.00777697563171,0.0051531791687,0.0050151348114,0.000463008880615,0.155530929565
65,0.00764513015747,0.00486898422241,0.00492191314697,0.000461101531982,0.179988861084
66,0.00829815864563,0.00524115562439,0.00449299812317,0.000669002532959,0.207379102707
67,0.0142369270325,0.00532197952271,0.00585699081421,0.000709056854248,0.170526981354
68,0.00786280632019,0.00495982170105,0.00471305847168,0.00047492980957,0.149610996246
69,0.0593378543854,0.0059700012207,0.0056791305542,0.000855207443237,0.177515029907
70,0.00904297828674,0.0055410861969,0.00542712211609,0.00078821182251,0.190325975418
71,0.00778102874756,0.0052661895752,0.00485801696777,0.000563144683838,0.190451145172
72,0.0154609680176,0.00499796867371,0.00493001937866,0.000483989715576,0.175911903381
73,0.00822401046753,0.00556802749634,0.00575304031372,0.000777959823608,0.255314826965
74,0.00892114639282,0.00538396835327,0.00517392158508,0.000489950180054,0.172549962997
75,0.00789284706116,0.00521612167358,0.00503706932068,0.000478982925415,0.180014848709
76,0.00808882713318,0.00502300262451,0.00494003295898,0.000528812408447,0.193372964859
77,0.0153641700745,0.00547289848328,0.00543308258057,0.000720024108887,0.243282079697
78,0.00876593589783,0.00526309013367,0.00501489639282,0.000468015670776,0.180979013443
79,0.00761795043945,0.00480890274048,0.00487112998962,0.000464916229248,0.201126098633
80,0.0432059764862,0.00569796562195,0.00540900230408,0.00049090385437,0.190851926804
81,0.00876617431641,0.00530099868774,0.00542902946472,0.000491142272949,0.23016500473
82,0.0110430717468,0.00517702102661,0.0050048828125,0.000469923019409,0.220466136932
83,0.00876903533936,0.00490784645081,0.00481796264648,0.00041389465332,0.191790103912
84,0.00808310508728,0.00542902946472,0.00525403022766,0.000486850738525,0.220916032791
85,0.00773310661316,0.00538110733032,0.00516581535339,0.000482082366943,0.219845056534
86,0.00744819641113,0.00503706932068,0.00495600700378,0.000464916229248,0.209672927856
87,0.052453994751,0.00551104545593,0.00520491600037,0.000504016876221,0.216965913773
88,0.00872993469238,0.00512290000916,0.0050687789917,0.000463008880615,0.238415956497
89,0.00773906707764,0.00495982170105,0.00478005409241,0.000427961349487,0.225894927979
90,0.00780320167542,0.00471305847168,0.00588583946228,0.000587940216064,0.226561069489
91,0.00953197479248,0.00505304336548,0.00510215759277,0.000499963760376,0.354905843735
92,0.0164999961853,0.00517392158508,0.00515198707581,0.00200200080872,0.256941080093
93,0.0074200630188,0.00420117378235,0.0049250125885,0.000529050827026,0.202748060226
94,0.0068051815033,0.00447797775269,0.00513887405396,0.000612020492554,0.253800868988
95,0.00729608535767,0.00517201423645,0.00505900382996,0.000458002090454,0.22428393364
96,0.0078911781311,0.00502705574036,0.00499486923218,0.000465154647827,0.222179889679
97,0.0163650512695,0.00547814369202,0.00534296035767,0.000493049621582,0.30494594574
98,0.00797009468079,0.00532102584839,0.00523591041565,0.000490188598633,0.27218413353
99,0.00782608985901,0.00496816635132,0.00527095794678,0.000580072402954,0.217060804367
