step,run,get,set,free,run_up_to_step
0,0.014004945755,0.027153968811,0.0251839160919,0.00486898422241,0.0151619911194
1,0.0110821723938,0.0298039913177,0.0262157917023,0.00482201576233,0.01811003685
2,0.00983691215515,0.025689125061,0.0259079933167,0.00492191314697,0.0213379859924
3,0.00807595252991,0.0265519618988,0.0262749195099,0.00497198104858,0.0229179859161
4,0.00660514831543,0.0272290706635,0.0266242027283,0.00498509407043,0.0247418880463
5,0.00701212882996,0.026969909668,0.0271620750427,0.00504493713379,0.0521070957184
6,0.00620079040527,0.0251669883728,0.0264580249786,0.00503993034363,0.0727541446686
7,0.00603699684143,0.0257279872894,0.0262680053711,0.00502896308899,0.0392360687256
8,0.00617003440857,0.0293459892273,0.0269460678101,0.00503492355347,0.032478094101
9,0.00882172584534,0.0275070667267,0.0267360210419,0.00506901741028,0.0418539047241
10,0.00687718391418,0.027275800705,0.0272719860077,0.00513982772827,0.0359580516815
11,0.0133831501007,0.0277750492096,0.027174949646,0.00514507293701,0.0383388996124
12,0.00622510910034,0.028153181076,0.0272698402405,0.00519490242004,0.0453159809113
13,0.00637125968933,0.0268568992615,0.0269718170166,0.00510001182556,0.132395982742
14,0.0061399936676,0.0267970561981,0.0330140590668,0.0066089630127,0.0443780422211
15,0.014986038208,0.0351679325104,0.0358030796051,0.00758600234985,0.0527150630951
16,0.00916290283203,0.0321011543274,0.044506072998,0.0115587711334,0.0738339424133
17,0.00780606269836,0.0433828830719,0.0423259735107,0.00805711746216,0.067058801651
18,0.00767803192139,0.0415160655975,0.0288579463959,0.00538492202759,0.0745320320129
19,0.00520086288452,0.0303719043732,0.0465879440308,0.00884699821472,0.0589778423309
20,0.00505495071411,0.0283279418945,0.0274820327759,0.00516605377197,0.0542640686035
21,0.00720715522766,0.0369830131531,0.0277519226074,0.00688695907593,0.061742067337
22,0.00735402107239,0.033725976944,0.0287311077118,0.00538897514343,0.0799479484558
23,0.00497889518738,0.0295679569244,0.0283939838409,0.00528502464294,0.0594489574432
24,0.00503301620483,0.0297439098358,0.0286769866943,0.00529813766479,0.0610430240631
25,0.0647280216217,0.029217004776,0.028538942337,0.00531005859375,0.0641841888428
26,0.00498819351196,0.0284478664398,0.0283360481262,0.00541400909424,0.0726170539856
27,0.00505924224854,0.0293388366699,0.0282580852509,0.00556397438049,0.0732340812683
28,0.00555276870728,0.0299298763275,0.0291318893433,0.00558495521545,0.0764479637146
29,0.00519609451294,0.0330879688263,0.0290329456329,0.00558185577393,0.0710880756378
30,0.00503921508789,0.0310389995575,0.049633026123,0.00908303260803,0.0725259780884
31,0.0171072483063,0.0803620815277,0.0331690311432,0.00550699234009,0.0875949859619
32,0.010862827301,0.0323917865753,0.0297899246216,0.0058228969574,0.0834810733795
33,0.00506401062012,0.0308418273926,0.0294840335846,0.00556397438049,0.0845777988434
34,0.0113942623138,0.0305640697479,0.0298929214478,0.00550508499146,0.0977010726929
35,0.00524806976318,0.0304319858551,0.0298688411713,0.00582194328308,0.0872769355774
36,0.00502920150757,0.0301849842072,0.0331408977509,0.00584506988525,0.116400957108
37,0.00632309913635,0.0322029590607,0.0307588577271,0.00594806671143,0.0924639701843
38,0.00508809089661,0.0316209793091,0.0300691127777,0.00593900680542,0.0870749950409
39,0.00502586364746,0.0315570831299,0.0300579071045,0.00575804710388,0.0882248878479
40,0.00503182411194,0.0313990116119,0.030121088028,0.0056619644165,0.0963840484619
41,0.00509786605835,0.0310690402985,0.0299279689789,0.00584292411804,0.099319934845
42,0.00579714775085,0.0321619510651,0.031975030899,0.00606918334961,0.0930399894714
43,0.00550174713135,0.0320100784302,0.0310039520264,0.00591683387756,0.0956499576569
44,0.00489068031311,0.0344610214233,0.0293879508972,0.00598692893982,0.102824926376
45,0.00482702255249,0.0308830738068,0.0494449138641,0.00574707984924,0.100800037384
46,0.0143840312958,0.0303559303284,0.0291211605072,0.00536799430847,0.0989391803741
47,0.00477814674377,0.0299320220947,0.0278940200806,0.0055091381073,0.0999209880829
48,0.00466108322144,0.0308361053467,0.0298178195953,0.00585508346558,0.186487913132
49,0.00465989112854,0.0316801071167,0.0299351215363,0.005784034729,0.104336023331
50,0.00481081008911,0.0350918769836,0.0360839366913,0.0070321559906,0.10546708107
51,0.00496196746826,0.0325689315796,0.0304660797119,0.00592088699341,0.121119022369
52,0.00542902946472,0.0345149040222,0.0291860103607,0.00542497634888,0.115475177765
53,0.00438213348389,0.031641960144,0.0295031070709,0.00574612617493,0.116156101227
54,0.00446510314941,0.0313100814819,0.0296881198883,0.0057520866394,0.11782002449
55,0.00433707237244,0.0315010547638,0.0298290252686,0.00578784942627,0.119363069534
56,0.00430202484131,0.0306429862976,0.0286591053009,0.00557208061218,0.129870176315
57,0.00430202484131,0.0313889980316,0.0318558216095,0.00596690177917,0.202120065689
58,0.00456809997559,0.0304620265961,0.0293519496918,0.00549793243408,0.123445034027
59,0.00431680679321,0.0302951335907,0.0290169715881,0.00541186332703,0.125380992889
60,0.0046591758728,0.0324370861053,0.0280010700226,0.00550580024719,0.131628036499
61,0.00464701652527,0.0299150943756,0.0284910202026,0.00530195236206,0.127817869186
62,0.00461411476135,0.0294270515442,0.0277290344238,0.00535106658936,0.1231341362
63,0.00430417060852,0.0302438735962,0.0304410457611,0.00607705116272,0.248054027557
64,0.00433707237244,0.0315518379211,0.0296769142151,0.00576496124268,0.133371829987
65,0.00455594062805,0.0312559604645,0.0292770862579,0.00590205192566,0.137867927551
66,0.00440287590027,0.0310969352722,0.029865026474,0.00566411018372,0.129947185516
67,0.0044322013855,0.0540299415588,0.0304999351501,0.00589513778687,0.220909118652
68,0.00431513786316,0.0314500331879,0.0294330120087,0.00562906265259,0.13956785202
69,0.00425219535828,0.0308737754822,0.0293748378754,0.0055730342865,0.148406028748
70,0.00427913665771,0.0296120643616,0.0289130210876,0.00553488731384,0.14356303215
71,0.00436282157898,0.0296361446381,0.0286400318146,0.00544404983521,0.143375873566
72,0.00444984436035,0.0310962200165,0.0299470424652,0.00565600395203,0.228266954422
73,0.00438904762268,0.0307228565216,0.0290880203247,0.00555300712585,0.142864942551
74,0.00615072250366,0.0318281650543,0.0286908149719,0.00550508499146,0.152102947235
75,0.00490021705627,0.0295150279999,0.0280020236969,0.00544095039368,0.357793807983
76,0.00420808792114,0.0296239852905,0.0330169200897,0.00547194480896,0.150866985321
77,0.00495004653931,0.0314178466797,0.0304918289185,0.00558805465698,0.16228890419
78,0.00638508796692,0.0369069576263,0.035355091095,0.0070469379425,0.174329996109
79,0.00704789161682,0.0450301170349,0.0467898845673,0.00879597663879,0.216793060303
80,0.00776505470276,0.0432479381561,0.0408840179443,0.008052110672,0.231863021851
81,0.130246162415,0.0439388751984,0.031005859375,0.0059540271759,0.21470618248
82,0.00624895095825,0.0439710617065,0.0576689243317,0.00593209266663,0.170647859573
83,0.00618577003479,0.0419580936432,0.0420649051666,0.00816893577576,0.165956020355
84,0.00438117980957,0.0309081077576,0.0288069248199,0.00548911094666,0.178210020065
85,0.00424718856812,0.0302600860596,0.0287928581238,0.00553107261658,0.189190864563
86,0.00432300567627,0.0319809913635,0.0310220718384,0.00593900680542,0.245065927505
87,0.00443601608276,0.0314929485321,0.0302250385284,0.0058228969574,0.175223827362
88,0.00455594062805,0.0309238433838,0.0290770530701,0.00561285018921,0.177441120148
89,0.00431704521179,0.0328149795532,0.0503211021423,0.00546598434448,0.175753831863
90,0.00436496734619,0.0296339988708,0.0336780548096,0.00553107261658,0.187139034271
91,0.00436091423035,0.0318379402161,0.0298211574554,0.0060760974884,0.178357124329
92,0.0046968460083,0.0314440727234,0.0292348861694,0.00560212135315,0.177788972855
93,0.00456595420837,0.0364818572998,0.0303699970245,0.0060179233551,0.182783842087
94,0.00456714630127,0.0318291187286,0.0361890792847,0.00591897964478,0.179968118668
95,0.00441384315491,0.0325019359589,0.030308008194,0.00578713417053,0.188369989395
96,0.00441288948059,0.0321600437164,0.0295519828796,0.00568699836731,0.183695077896
97,0.00459003448486,0.0326771736145,0.0302400588989,0.00585103034973,0.206950902939
98,0.00447297096252,0.0303201675415,0.0288329124451,0.00556087493896,0.188395023346
99,0.00480103492737,0.0333199501038,0.0317919254303,0.00627398490906,0.287046194077
