step,run,get,set,free,run_up_to_step
0,0.104497909546,0.0469870567322,0.0493700504303,0.00934910774231,0.112766981125
1,0.0377490520477,0.042652130127,0.0471920967102,0.0094850063324,0.143418073654
2,0.0472300052643,0.0444118976593,0.049485206604,0.0107409954071,0.168577194214
3,0.0243439674377,0.0439350605011,0.04918384552,0.00945901870728,0.187773942947
4,0.0238869190216,0.0455350875854,0.0536088943481,0.00980401039124,0.208402872086
5,0.0234718322754,0.043258190155,0.0508210659027,0.00938391685486,0.22575712204
6,0.0234038829803,0.0425090789795,0.0473909378052,0.00944113731384,0.252080917358
7,0.0484082698822,0.0438649654388,0.0494928359985,0.0105981826782,0.319278001785
8,0.023540019989,0.044440984726,0.0492579936981,0.00968790054321,0.336892127991
9,0.0234041213989,0.0443689823151,0.0477781295776,0.009605884552,0.524657964706
10,0.0298869609833,0.0444490909576,0.0516319274902,0.010400056839,0.374820947647
11,0.0239219665527,0.045881986618,0.0489730834961,0.0102097988129,0.3760638237
12,0.0246391296387,0.0449810028076,0.0488657951355,0.00982594490051,0.432208061218
13,0.0254530906677,0.044527053833,0.0482070446014,0.009526014328,0.418428182602
14,0.0483958721161,0.044625043869,0.0470290184021,0.00965094566345,0.491865158081
15,0.0311341285706,0.043967962265,0.0494458675385,0.00957703590393,0.50376200676
16,0.0384459495544,0.0436570644379,0.0499980449677,0.009929895401,0.580907821655
17,0.0351150035858,0.0432188510895,0.0489549636841,0.0104670524597,0.572687864304
18,0.024050951004,0.0461339950562,0.048602104187,0.00955891609192,0.566686868668
19,0.024258852005,0.0453689098358,0.0505421161652,0.012825012207,0.582312107086
20,0.0235908031464,0.0454099178314,0.0481069087982,0.00952005386353,0.632885932922
21,0.0572917461395,0.0484800338745,0.0475130081177,0.0113391876221,0.681611061096
22,0.0297951698303,0.0447759628296,0.047749042511,0.00946688652039,0.701627969742
23,0.0235068798065,0.0445220470428,0.0485420227051,0.00990414619446,0.703416109085
24,0.0248069763184,0.0458080768585,0.0479869842529,0.00956702232361,0.81406378746
25,0.0243709087372,0.0448892116547,0.0522718429565,0.0130112171173,0.749320983887
26,0.0248160362244,0.0486319065094,0.0516309738159,0.00982880592346,0.767538070679
27,0.025408744812,0.047914981842,0.0506598949432,0.0097279548645,0.776216983795
28,0.0345637798309,0.0488169193268,0.0530228614807,0.0106320381165,0.836071014404
29,0.0464820861816,0.0484211444855,0.0520079135895,0.0111699104309,0.861878871918
30,0.037670135498,0.0493478775024,0.0514628887177,0.0100319385529,0.881957054138
31,0.0346579551697,0.0479929447174,0.0489549636841,0.00967907905579,0.911592960358
32,0.0248908996582,0.0462248325348,0.0470108985901,0.0105729103088,0.965531826019
33,0.0247168540955,0.0440449714661,0.046480178833,0.00949287414551,0.964087963104
34,0.0245180130005,0.0464770793915,0.0509219169617,0.0116279125214,1.24694490433
35,0.0549259185791,0.0471799373627,0.0503978729248,0.00973200798035,1.0412838459
36,0.023725271225,0.0497028827667,0.0514459609985,0.0115008354187,1.03828692436
37,0.0321261882782,0.0462110042572,0.0483849048615,0.0106229782104,1.04829788208
38,0.0235662460327,0.0446629524231,0.0500249862671,0.0120668411255,1.10251903534
39,0.0239338874817,0.0453410148621,0.0486328601837,0.0110878944397,1.08379006386
40,0.0246770381927,0.0455031394958,0.0483801364899,0.0130879878998,1.12823605537
41,0.0257978439331,0.0496320724487,0.0509350299835,0.0098659992218,1.45928692818
42,0.0523989200592,0.0464189052582,0.0509510040283,0.0108668804169,1.23022508621
43,0.0241451263428,0.0462129116058,0.049106836319,0.0108218193054,1.23874282837
44,0.0244431495667,0.0458381175995,0.0490069389343,0.00960516929626,1.26596689224
45,0.0239839553833,0.0457038879395,0.0492050647736,0.0108921527863,1.29269886017
46,0.0269858837128,0.0481379032135,0.0477230548859,0.0102288722992,1.29918003082
47,0.026077747345,0.0467069149017,0.0546691417694,0.011794090271,1.33215808868
48,0.0451598167419,0.0501270294189,0.0527091026306,0.010360956192,1.78120994568
49,0.0247077941895,0.047404050827,0.0532288551331,0.0113830566406,1.39811706543
50,0.0456490516663,0.0488657951355,0.0520498752594,0.0101058483124,1.46551203728
51,0.0247859954834,0.048367023468,0.0505599975586,0.0106818675995,1.43659591675
52,0.0314211845398,0.0518848896027,0.0496411323547,0.011342048645,1.44610309601
53,0.0253040790558,0.0458860397339,0.0496609210968,0.011589050293,1.48696994781
54,0.0255088806152,0.0518519878387,0.0525550842285,0.0103130340576,1.48072099686
55,0.0241370201111,0.0473780632019,0.0521450042725,0.0101630687714,1.51856803894
56,0.024570941925,0.0470769405365,0.0501260757446,0.0116920471191,1.53372693062
57,0.0533459186554,0.0450921058655,0.0482017993927,0.011106967926,1.5576338768
58,0.0249543190002,0.0451369285583,0.0481901168823,0.0105199813843,1.60387182236
59,0.0243771076202,0.0438170433044,0.0471889972687,0.0108799934387,1.63096094131
60,0.0248939990997,0.0428740978241,0.0468130111694,0.00955700874329,1.65647411346
61,0.0240759849548,0.0425319671631,0.057110786438,0.0111298561096,1.64960289001
62,0.0437159538269,0.0492990016937,0.0521340370178,0.0109570026398,1.66275906563
63,0.0252139568329,0.0477111339569,0.0498712062836,0.0111680030823,1.67557287216
64,0.0489017963409,0.0455341339111,0.0488069057465,0.0107550621033,1.74403309822
65,0.0240852832794,0.0445489883423,0.0490159988403,0.0110030174255,1.76281499863
66,0.0244128704071,0.0464169979095,0.0481810569763,0.0111467838287,1.82947778702
67,0.0244410037994,0.0434069633484,0.0566251277924,0.0114061832428,1.79044485092
68,0.025032043457,0.0503640174866,0.0532999038696,0.0107090473175,1.81721496582
69,0.0284881591797,0.0516121387482,0.0581970214844,0.0139410495758,1.88105511665
70,0.0245888233185,0.046089887619,0.0491139888763,0.0111219882965,1.988478899
71,0.0564060211182,0.0466251373291,0.0483989715576,0.0112359523773,1.97522711754
72,0.039617061615,0.0431458950043,0.0482449531555,0.0106329917908,1.94080805779
73,0.024445772171,0.0445601940155,0.0601558685303,0.0116012096405,1.95145606995
74,0.0242369174957,0.0505459308624,0.0531890392303,0.0115201473236,1.9868619442
75,0.0252449512482,0.0493271350861,0.0516889095306,0.0119099617004,1.99374294281
76,0.0242671966553,0.0480651855469,0.0494160652161,0.0101969242096,2.01398205757
77,0.0247666835785,0.0446410179138,0.0494010448456,0.0110640525818,2.01792788506
78,0.0473339557648,0.0434658527374,0.0464029312134,0.00942802429199,2.09709596634
79,0.0243968963623,0.051481962204,0.0569388866425,0.0101971626282,2.87753105164
80,0.0243108272552,0.0492670536041,0.0576238632202,0.0111649036407,2.13222384453
81,0.0247271060944,0.0478241443634,0.0513758659363,0.0103380680084,2.13757395744
82,0.024658203125,0.0455420017242,0.049724817276,0.0122640132904,2.17471790314
83,0.0244889259338,0.0443429946899,0.0478420257568,0.0095808506012,2.14304709435
84,0.0243039131165,0.0446901321411,0.0471580028534,0.00951814651489,2.19887495041
85,0.0537028312683,0.0573220252991,0.0549030303955,0.0103061199188,2.74823689461
86,0.0241689682007,0.0493679046631,0.051109790802,0.00988602638245,2.26790308952
87,0.0246260166168,0.0464820861816,0.049113035202,0.0113430023193,2.29759907722
88,0.0246229171753,0.0447330474854,0.0478210449219,0.00950407981873,2.28457593918
89,0.0327298641205,0.0514891147614,0.0469951629639,0.00979804992676,2.58578085899
90,0.0244560241699,0.0527050495148,0.0579149723053,0.0103569030762,2.83797001839
91,0.0260310173035,0.0519092082977,0.0515921115875,0.00998187065125,2.45265007019
92,0.0474629402161,0.0482399463654,0.0491449832916,0.00973796844482,2.38876795769
93,0.0241351127625,0.0441560745239,0.0477907657623,0.00951194763184,2.39282894135
94,0.0243668556213,0.0442109107971,0.0472700595856,0.00991106033325,2.4248239994
95,0.0244648456573,0.0530829429626,0.0581860542297,0.0104460716248,2.95968103409
96,0.0247280597687,0.0501260757446,0.0526740550995,0.0102610588074,2.49681997299
97,0.0250120162964,0.0477430820465,0.0511109828949,0.0104808807373,2.53581786156
98,0.0242841243744,0.0450098514557,0.0477290153503,0.00989317893982,2.53189277649
99,0.0300960540771,0.0435998439789,0.0468888282776,0.00943303108215,2.5339140892
