step,run,get,set,free,run_up_to_step
0,0.0305681228638,0.00942206382751,0.00916600227356,0.000970125198364,0.0386509895325
1,0.0228247642517,0.00931096076965,0.00942587852478,0.00118207931519,0.0467488765717
2,0.0190849304199,0.00950622558594,0.00837993621826,0.000998020172119,0.0563428401947
3,0.0123670101166,0.00914311408997,0.00948405265808,0.000962972640991,0.0616710186005
4,0.0119202136993,0.00959897041321,0.00940299034119,0.000992059707642,0.0633590221405
5,0.00878810882568,0.00941181182861,0.00903105735779,0.000704050064087,0.0911240577698
6,0.00596380233765,0.00953507423401,0.00941205024719,0.00116586685181,0.0696518421173
7,0.0167961120605,0.00921702384949,0.00941801071167,0.00104284286499,0.0834159851074
8,0.0125241279602,0.00978398323059,0.00906991958618,0.000967025756836,0.0811550617218
9,0.0259561538696,0.00933504104614,0.0091700553894,0.00134515762329,0.104704141617
10,0.0194089412689,0.00959587097168,0.00911283493042,0.00103902816772,0.117743015289
11,0.0127940177917,0.00951790809631,0.00868010520935,0.000874996185303,0.120512008667
12,0.0114121437073,0.0100979804993,0.00593900680542,0.000720024108887,0.156545877457
13,0.00724601745605,0.00614094734192,0.00602984428406,0.000633955001831,0.0814549922943
14,0.00906205177307,0.00903487205505,0.00899410247803,0.000900983810425,0.123188972473
15,0.00800275802612,0.0102641582489,0.00963997840881,0.00109004974365,0.171014070511
16,0.00590109825134,0.00937294960022,0.0095329284668,0.000999927520752,0.134485006332
17,0.00504970550537,0.00968194007874,0.00906109809875,0.000841856002808,0.131036996841
18,0.00520014762878,0.010507106781,0.00986313819885,0.000983953475952,0.181704044342
19,0.00589370727539,0.0097451210022,0.00973105430603,0.00124287605286,0.137151002884
20,0.0132327079773,0.00941109657288,0.00959396362305,0.001131772995,0.149101018906
21,0.0105471611023,0.010293006897,0.00953197479248,0.000953912734985,0.155263185501
22,0.0241289138794,0.00960803031921,0.0103950500488,0.00117206573486,0.160071134567
23,0.0224730968475,0.00946092605591,0.0097770690918,0.00105500221252,0.184345960617
24,0.0154139995575,0.00984406471252,0.00972509384155,0.000878095626831,0.192680120468
25,0.0136110782623,0.00932693481445,0.009272813797,0.000828981399536,0.194748878479
26,0.0101807117462,0.0096321105957,0.00956892967224,0.00110387802124,0.322802066803
27,0.0168390274048,0.00967216491699,0.009761095047,0.000984907150269,0.211658000946
28,0.0134251117706,0.00994300842285,0.0102119445801,0.00118207931519,0.215025186539
29,0.0253763198853,0.0094940662384,0.00986909866333,0.000998020172119,0.228418827057
30,0.018935918808,0.00936603546143,0.00949311256409,0.00104212760925,0.248020887375
31,0.0119018554688,0.00963115692139,0.00997519493103,0.00121593475342,0.254265069962
32,0.0122117996216,0.0102307796478,0.00917887687683,0.00128698348999,0.253032922745
33,0.0105700492859,0.00928997993469,0.00956296920776,0.00115418434143,0.258717060089
34,0.00959396362305,0.00992894172668,0.00684595108032,0.000752925872803,0.26170706749
35,0.00756001472473,0.0100920200348,0.0100939273834,0.00137090682983,0.264302968979
36,0.00589108467102,0.0102400779724,0.00976610183716,0.000992059707642,0.259954214096
37,0.00530385971069,0.0103311538696,0.0104050636292,0.00127387046814,0.301780939102
38,0.00513100624084,0.0104238986969,0.00968909263611,0.00135588645935,0.263328075409
39,0.00518989562988,0.0103209018707,0.01051902771,0.00121903419495,0.266077041626
40,0.0146470069885,0.0100769996643,0.00982880592346,0.00106191635132,0.281981945038
41,0.009281873703,0.0056459903717,0.0073139667511,0.0010449886322,0.263878107071
42,0.022234916687,0.00826597213745,0.0104908943176,0.00133013725281,0.267194032669
43,0.0187969207764,0.00650119781494,0.00636506080627,0.00085711479187,0.233999013901
44,0.015547990799,0.00893807411194,0.00869297981262,0.00119495391846,0.220899105072
45,0.00953197479248,0.00766396522522,0.0104341506958,0.00128793716431,0.250197887421
46,0.0104579925537,0.00953602790833,0.0109059810638,0.00154495239258,0.338743925095
47,0.0175111293793,0.00961995124817,0.0100140571594,0.00112509727478,0.345641851425
48,0.0138919353485,0.00892996788025,0.011442899704,0.00133585929871,0.346181869507
49,0.0272679328918,0.00963091850281,0.00964593887329,0.00137090682983,0.380706071854
50,0.0214018821716,0.00919485092163,0.00946092605591,0.000935792922974,0.38553404808
51,0.0133030414581,0.0106887817383,0.00996613502502,0.0013120174408,0.439578056335
52,0.0115633010864,0.00894403457642,0.0103919506073,0.00119996070862,0.408109903336
53,0.0106229782104,0.0101101398468,0.00990700721741,0.00146007537842,0.540148973465
54,0.00967407226562,0.0103409290314,0.0106430053711,0.00145578384399,0.400415897369
55,0.00768613815308,0.0102689266205,0.0101289749146,0.00139379501343,0.427250862122
56,0.00619196891785,0.010222196579,0.0102679729462,0.00111103057861,0.394571065903
57,0.00508308410645,0.0123400688171,0.0099790096283,0.00124907493591,0.391587018967
58,0.00496983528137,0.00943279266357,0.00914716720581,0.00102305412292,0.39821600914
59,0.00510096549988,0.0106229782104,0.00976586341858,0.00105595588684,0.431385040283
60,0.0146448612213,0.0106499195099,0.00994992256165,0.000982999801636,0.411078929901
61,0.0112619400024,0.0096390247345,0.0109128952026,0.00144100189209,0.408430099487
62,0.0247991085052,0.0100860595703,0.0102159976959,0.00112700462341,0.424703836441
63,0.0230240821838,0.00948405265808,0.00945782661438,0.00094199180603,0.446636915207
64,0.0156619548798,0.0110728740692,0.0101001262665,0.00123119354248,0.48509979248
65,0.0125510692596,0.00940799713135,0.00952386856079,0.00095009803772,0.460149049759
66,0.0104758739471,0.011757850647,0.0102880001068,0.00147795677185,0.482923984528
67,0.0168581008911,0.00815892219543,0.00961685180664,0.00101208686829,0.475769996643
68,0.0132150650024,0.0100688934326,0.00968289375305,0.00136280059814,0.505084037781
69,0.0261633396149,0.00873899459839,0.00971484184265,0.00106382369995,0.502633094788
70,0.0459420681,0.010901927948,0.00951194763184,0.00108909606934,0.504708051682
71,0.0123820304871,0.00890588760376,0.00879311561584,0.000830888748169,0.516842842102
72,0.0110301971436,0.0101389884949,0.0100729465485,0.00122904777527,0.535418987274
73,0.0103640556335,0.00896286964417,0.00906705856323,0.000876903533936,0.52450299263
74,0.00929307937622,0.00989603996277,0.00941514968872,0.00100207328796,0.542984962463
75,0.00656604766846,0.00845789909363,0.00896883010864,0.000911951065063,0.529010057449
76,0.00626993179321,0.0113499164581,0.0100522041321,0.00137591362,0.760095119476
77,0.00559306144714,0.010890007019,0.0107178688049,0.00143694877625,0.52772808075
78,0.00363707542419,0.00657105445862,0.00871205329895,0.000838041305542,0.491214036942
79,0.00503206253052,0.0106520652771,0.0105590820312,0.00136113166809,0.478761196136
80,0.0149698257446,0.0102300643921,0.0100920200348,0.00109887123108,0.548460960388
81,0.0110828876495,0.0101890563965,0.0100739002228,0.001296043396,0.547151088715
82,0.023738861084,0.00985598564148,0.00969004631042,0.0010712146759,0.582561969757
83,0.023285150528,0.00969815254211,0.00987386703491,0.00114297866821,0.571012020111
84,0.0147249698639,0.00913190841675,0.00958299636841,0.00102782249451,0.581417798996
85,0.0125398635864,0.0105419158936,0.0100739002228,0.00124192237854,0.590806007385
86,0.010409116745,0.00959587097168,0.00986194610596,0.00131607055664,0.585798978806
87,0.0169978141785,0.00935006141663,0.00992798805237,0.00119686126709,0.629617929459
88,0.0138652324677,0.00949001312256,0.0100820064545,0.00110816955566,0.617879867554
89,0.0271279811859,0.00924301147461,0.00994896888733,0.0011899471283,0.63650894165
90,0.0193810462952,0.00873398780823,0.010626077652,0.000994920730591,0.626055002213
91,0.0121829509735,0.00946402549744,0.00955700874329,0.00105714797974,0.655480861664
92,0.0115759372711,0.00979590415955,0.00964713096619,0.0011351108551,0.668857097626
93,0.0119440555573,0.00900506973267,0.00904703140259,0.000926971435547,0.650022029877
94,0.00986909866333,0.0107049942017,0.0108060836792,0.00159502029419,0.88839006424
95,0.00697374343872,0.0109241008759,0.0107991695404,0.00132989883423,0.661665916443
96,0.00614213943481,0.0113439559937,0.0107190608978,0.00130796432495,0.655441045761
97,0.00550699234009,0.0125360488892,0.0108051300049,0.00146102905273,0.687685966492
98,0.00519394874573,0.0101799964905,0.0102689266205,0.00126695632935,0.652037143707
99,0.00563621520996,0.012326002121,0.0104641914368,0.00142002105713,0.68622303009
