step,run,get,set,free,run_up_to_step
0,0.15407705307,0.287362098694,0.292822122574,0.0288641452789,0.153173208237
1,0.0716667175293,0.277876853943,0.200956106186,0.0356979370117,0.291877985001
2,0.0837068557739,0.259521961212,0.302397012711,0.0440759658813,0.184729099274
3,0.0881509780884,0.271475076675,0.314101219177,0.039635181427,0.281764030457
4,0.145133018494,0.266324996948,0.295701980591,0.0395479202271,0.436612129211
5,0.0698380470276,0.279107093811,0.331275939941,0.0438249111176,0.307567119598
6,0.140437841415,0.281540870667,0.312706947327,0.0375390052795,0.391743898392
7,0.170157909393,0.271112918854,0.280314922333,0.0334548950195,0.614161014557
8,0.102421760559,0.292502880096,0.342636823654,0.0435049533844,0.47887301445
9,0.15774512291,0.331225156784,0.304410934448,0.0429000854492,0.545768022537
10,0.152101039886,0.282579183578,0.34401011467,0.041109085083,0.781728982925
11,0.152016878128,0.292834043503,0.240498065948,0.0341560840607,0.698096990585
12,0.177076101303,0.291061162949,0.360634088516,0.0404200553894,0.874557971954
13,0.162942171097,0.294002056122,0.335554122925,0.0407750606537,1.06270003319
14,0.154417037964,0.311701059341,0.319535017014,0.0436639785767,0.964621067047
15,0.17494392395,0.301331043243,0.291186094284,0.0432391166687,0.919664859772
16,0.168812036514,0.307651996613,0.346773147583,0.0450849533081,1.43139410019
17,0.174118041992,0.287860155106,0.319365978241,0.0320720672607,1.31692218781
18,0.199645042419,0.29060292244,0.322442054749,0.0320131778717,1.47463393211
19,0.225429058075,0.292479038239,0.347802877426,0.0339648723602,1.77133584023
20,0.175158977509,0.311386108398,0.240570068359,0.0445199012756,1.97984886169
21,0.234121799469,0.294668912888,0.273693084717,0.0318439006805,1.66644716263
22,0.227375268936,0.313850879669,0.336993932724,0.0455079078674,1.98798108101
23,0.227865934372,0.320039987564,0.339254140854,0.045352935791,2.89775109291
24,0.225026130676,0.317888021469,0.351116895676,0.0460360050201,2.63577389717
25,0.223331212997,0.310170888901,0.347318172455,0.0521709918976,2.69085788727
26,0.23252415657,0.312121868134,0.339529037476,0.0453691482544,2.80007314682
27,0.217373132706,0.316600084305,0.341525793076,0.0469408035278,3.18283390999
28,0.236487150192,0.330374002457,0.365772008896,0.0554540157318,3.12620401382
29,0.227523088455,0.314978837967,0.344173192978,0.045893907547,4.04547405243
30,0.853191137314,0.326397895813,0.360691070557,0.0504698753357,3.41081309319
31,0.240526199341,0.313061952591,0.345587968826,0.0435988903046,3.5182030201
32,0.278682947159,0.314116001129,0.350908994675,0.0411961078644,3.88033699989
33,0.249973058701,0.31339597702,0.357479810715,0.0474770069122,4.30964899063
34,0.285609960556,0.329231977463,0.352860212326,0.0453310012817,4.1837348938
35,0.317424058914,0.316508054733,0.356447935104,0.0475811958313,4.38501691818
36,0.267405986786,0.321811914444,0.344260215759,0.047425031662,5.51240491867
37,0.304563045502,0.314190864563,0.34937286377,0.0486640930176,4.7179620266
38,0.537492752075,0.315838098526,0.369937896729,0.0394570827484,5.31962585449
39,0.306291103363,0.33122587204,0.346841096878,0.0465259552002,5.42969512939
40,0.653833150864,0.32103395462,0.342905044556,0.0490870475769,6.42570710182
41,0.357447147369,0.315144062042,0.347288131714,0.0476341247559,6.11270499229
42,0.323184013367,0.318778038025,0.352752923965,0.0478820800781,6.42426109314
43,0.365460157394,0.320786952972,0.346763134003,0.046049118042,6.37231302261
44,0.332611083984,0.322600841522,0.347743988037,0.0485949516296,7.12875294685
45,0.352385997772,0.321577072144,0.364800930023,0.0489420890808,7.38496899605
46,0.396012067795,0.319920063019,0.378090858459,0.0559051036835,7.31630897522
47,0.491593837738,0.335777997971,0.356994867325,0.0443360805511,7.54830408096
48,0.391494989395,0.323553085327,0.346675872803,0.0465219020844,7.89419412613
49,0.379615068436,0.325357913971,0.355662107468,0.0492367744446,8.30887508392
50,0.428220033646,0.339809894562,0.347296953201,0.0490930080414,8.74727511406
51,0.353191137314,0.326184034348,0.358893871307,0.0462758541107,9.52011489868
52,0.409615039825,0.320905923843,0.389662027359,0.0468029975891,9.22918200493
53,0.351940155029,0.322772026062,0.354883909225,0.0463011264801,9.3971760273
54,0.365334749222,0.320663928986,0.344326972961,0.0446991920471,9.66882801056
55,0.305665969849,0.325525045395,0.352049827576,0.0492599010468,9.9219789505
56,0.345835924149,0.319302082062,0.354543924332,0.0492730140686,10.5084528923
57,0.37734413147,0.323161125183,0.352602958679,0.0476019382477,11.1110608578
58,0.392089128494,0.318046808243,0.360846996307,0.0465569496155,11.2708170414
59,0.396620035172,0.356812953949,0.348781824112,0.0497810840607,11.5391540527
60,0.421703100204,0.324620008469,0.365237951279,0.0530941486359,12.0709679127
61,0.364320039749,0.320246934891,0.347841978073,0.0432648658752,11.7898848057
62,0.419806241989,0.323170900345,0.364649057388,0.049421787262,12.7947759628
63,0.396956920624,0.319047927856,0.34370803833,0.0491859912872,12.788038969
64,0.428734302521,0.31785607338,0.357506990433,0.0475730895996,13.3477749825
65,0.445292949677,0.321901082993,0.354380130768,0.0468201637268,13.7539288998
66,0.394783973694,0.322741985321,0.348525047302,0.0497250556946,14.0423059464
67,0.453407049179,0.326592922211,0.341382980347,0.0486679077148,14.6972699165
68,0.423717021942,0.317975997925,0.343572854996,0.0481450557709,14.9816949368
69,0.462850093842,0.321391105652,0.339642047882,0.0477969646454,15.2896630764
70,0.456588983536,0.321941137314,0.346187114716,0.0468800067902,15.4647789001
71,0.506603956223,0.31160902977,0.36678314209,0.0455420017242,15.7472600937
72,0.418616771698,0.32879281044,0.356019020081,0.0605800151825,16.5179898739
73,0.496385812759,0.342138051987,0.374128103256,0.0553040504456,16.2118787766
74,0.462276697159,0.318505048752,0.35747885704,0.0450029373169,17.1944320202
75,0.46005988121,0.32181596756,0.34629201889,0.0490441322327,17.6481750011
76,0.490401029587,0.323981046677,0.360299110413,0.0448789596558,18.0188188553
77,0.487700939178,0.326463937759,0.354928016663,0.0497939586639,19.2856209278
78,0.52734708786,0.360371112823,0.349704027176,0.0494790077209,19.2535710335
79,0.50989985466,0.321219921112,0.356067895889,0.0473530292511,19.7739331722
80,0.505569934845,0.332494974136,0.367395877838,0.048660993576,20.266051054
81,0.456651926041,0.318205118179,0.350117206573,0.0495889186859,21.0130369663
82,0.492336988449,0.318480968475,0.3422498703,0.0486600399017,21.3112637997
83,0.494154930115,0.322270870209,0.357867002487,0.047816991806,21.1757171154
84,0.506927013397,0.322368860245,0.351112127304,0.0480120182037,22.08852005
85,0.51146697998,0.31602191925,0.370007991791,0.0484712123871,22.7872669697
86,0.492281913757,0.313086986542,0.37712597847,0.0397968292236,22.7452199459
87,0.516673088074,0.322615861893,0.39989900589,0.0419960021973,23.2341201305
88,0.506328821182,0.325393915176,0.374848127365,0.0423099994659,23.5538270473
89,0.584522247314,0.323616981506,0.365979909897,0.042937040329,24.1558408737
90,0.544075012207,0.323481082916,0.381045103073,0.0444719791412,24.5165219307
91,0.532422065735,0.329339981079,0.396618127823,0.042741060257,25.1401588917
92,0.547044038773,0.32238984108,0.360225915909,0.0466470718384,25.6754419804
93,0.5499958992,0.327132940292,0.360990047455,0.0489621162415,26.6631779671
94,0.52442908287,0.322957038879,0.349095106125,0.0501849651337,27.0093700886
95,0.575400114059,0.319528102875,0.359890937805,0.0493638515472,27.2796938419
96,0.507251024246,0.319658041,0.358428955078,0.0586531162262,27.9614109993
97,0.525682687759,0.31730389595,0.351912021637,0.0445539951324,29.2262108326
98,0.570254087448,0.34831905365,0.353748083115,0.0508840084076,28.8857319355
99,0.52153801918,0.320336103439,0.358169078827,0.0483849048615,29.6870269775
