step,run,get,set,free,run_up_to_step
0,0.0121850967407,0.0152730941772,0.0159440040588,0.0013599395752,0.0130050182343
1,0.00861716270447,0.0146069526672,0.0161130428314,0.00132203102112,0.0151171684265
2,0.00889205932617,0.014701128006,0.0163760185242,0.00147604942322,0.0175089836121
3,0.00905013084412,0.0147061347961,0.0180280208588,0.00153398513794,0.0207650661469
4,0.00953841209412,0.0149440765381,0.0173859596252,0.00151085853577,0.0223641395569
5,0.00928807258606,0.0149030685425,0.016361951828,0.00138902664185,0.0247941017151
6,0.00930619239807,0.0149741172791,0.0162909030914,0.00137901306152,0.0295181274414
7,0.00944828987122,0.0150220394135,0.0176889896393,0.00136303901672,0.0294280052185
8,0.00955200195312,0.0151190757751,0.0175461769104,0.00159502029419,0.0333318710327
9,0.0102360248566,0.0154979228973,0.0173561573029,0.00142502784729,0.0355610847473
10,0.00955271720886,0.015084028244,0.0172500610352,0.00144505500793,0.0392570495605
11,0.0102388858795,0.0151460170746,0.0167939662933,0.00145292282104,0.0407381057739
12,0.00989317893982,0.0152308940887,0.0168812274933,0.00139999389648,0.0429430007935
13,0.023885011673,0.0147910118103,0.0174069404602,0.0014660358429,0.0551900863647
14,0.00947594642639,0.015016078949,0.0171279907227,0.00143003463745,0.063894033432
15,0.00951886177063,0.0151507854462,0.0166909694672,0.00138187408447,0.0611400604248
16,0.0097918510437,0.0156280994415,0.0168380737305,0.00144386291504,0.0666630268097
17,0.00897407531738,0.0154819488525,0.0170447826385,0.00158405303955,0.0640511512756
18,0.00947499275208,0.0151288509369,0.0180809497833,0.00157189369202,0.0735158920288
19,0.00914192199707,0.0154190063477,0.0170140266418,0.00149297714233,0.0747900009155
20,0.00939321517944,0.0153048038483,0.0173680782318,0.00149297714233,0.0742769241333
21,0.013111114502,0.0155549049377,0.0173201560974,0.00156688690186,0.0793039798737
22,0.00900316238403,0.0154359340668,0.017040014267,0.00150084495544,0.0816788673401
23,0.00866889953613,0.016261100769,0.0177021026611,0.0018470287323,0.0851261615753
24,0.0103719234467,0.0158860683441,0.0167741775513,0.00149011611938,0.0824921131134
25,0.00856995582581,0.0149841308594,0.0176019668579,0.00163006782532,0.0827248096466
26,0.00905513763428,0.015743970871,0.0179879665375,0.00166797637939,0.0872910022736
27,0.00911903381348,0.0158228874207,0.0191781520844,0.00204801559448,0.172302961349
28,0.00934600830078,0.0169038772583,0.0172550678253,0.00169992446899,0.092581987381
29,0.0117580890656,0.0152289867401,0.0168039798737,0.00141096115112,0.0928070545197
30,0.00836992263794,0.0151000022888,0.0165901184082,0.00138592720032,0.0975391864777
31,0.00926399230957,0.0156300067902,0.0180730819702,0.00169587135315,0.098326921463
32,0.00951600074768,0.0167179107666,0.0178949832916,0.00174999237061,0.101313114166
33,0.00895309448242,0.016223192215,0.0176949501038,0.00165200233459,0.102741956711
34,0.126102924347,0.0162827968597,0.0176000595093,0.00176286697388,0.104156970978
35,0.00865602493286,0.0155510902405,0.0171780586243,0.00158309936523,0.10022187233
36,0.0110630989075,0.0153999328613,0.0171449184418,0.00155901908875,0.108979940414
37,0.00841498374939,0.0155260562897,0.0174200534821,0.00158500671387,0.112616062164
38,0.00891709327698,0.0158429145813,0.0189960002899,0.00180292129517,0.186159849167
39,0.00861477851868,0.0201380252838,0.0202000141144,0.00218987464905,0.114666938782
40,0.00840592384338,0.0200750827789,0.0194289684296,0.00214600563049,0.113399028778
41,0.00894093513489,0.0200328826904,0.0191991329193,0.00213408470154,0.114969015121
42,0.0112822055817,0.0197410583496,0.0198841094971,0.00214600563049,0.248775959015
43,0.00832605361938,0.0203659534454,0.0192937850952,0.00208282470703,0.119944095612
44,0.0101361274719,0.0205130577087,0.0186989307404,0.00211906433105,0.125936031342
45,0.00850224494934,0.0207109451294,0.0195288658142,0.00211882591248,0.124858856201
46,0.00893616676331,0.0206129550934,0.0200171470642,0.00217986106873,0.230067014694
47,0.0111298561096,0.0205678939819,0.0201320648193,0.00230598449707,0.131448030472
48,0.00841808319092,0.0208089351654,0.0195479393005,0.00217080116272,0.13273692131
49,0.0082950592041,0.0205700397491,0.0224709510803,0.00302886962891,0.135755062103
50,0.00833368301392,0.020359992981,0.0195331573486,0.00223302841187,0.138617038727
51,0.00867199897766,0.0205500125885,0.0198700428009,0.00215196609497,0.143832921982
52,0.00864505767822,0.0207331180573,0.0191979408264,0.00214886665344,0.143424987793
53,0.00868701934814,0.0207619667053,0.0198519229889,0.00226283073425,0.246809959412
54,0.00928401947021,0.0211710929871,0.0194799900055,0.00221991539001,0.146040916443
55,0.00868082046509,0.0207748413086,0.020369052887,0.00248384475708,0.150224208832
56,0.0133640766144,0.0204019546509,0.0231649875641,0.00367784500122,0.149868965149
57,0.00865817070007,0.0211629867554,0.0196011066437,0.00224494934082,0.155070066452
58,0.0087559223175,0.0211470127106,0.0191450119019,0.00217199325562,0.156034946442
59,0.00869297981262,0.0207200050354,0.01921916008,0.00218892097473,0.16103386879
60,0.00866007804871,0.0217468738556,0.0217049121857,0.00262403488159,0.263244867325
61,0.00871610641479,0.02117395401,0.0196788311005,0.00223684310913,0.162702083588
62,0.00858592987061,0.0214700698853,0.0192348957062,0.00216197967529,0.168390989304
63,0.0088632106781,0.020929813385,0.02330493927,0.00309991836548,0.171708106995
64,0.00891804695129,0.022036075592,0.0194380283356,0.00224709510803,0.172981977463
65,0.00902986526489,0.0213041305542,0.0169310569763,0.00264310836792,0.177311182022
66,0.00893211364746,0.017972946167,0.0251460075378,0.00195407867432,0.176795005798
67,0.0104238986969,0.0427849292755,0.02578997612,0.00391292572021,0.18860912323
68,0.0151371955872,0.0426731109619,0.0255391597748,0.00362300872803,0.188048124313
69,0.00756883621216,0.0397171974182,0.0431089401245,0.00951385498047,0.19202709198
70,0.0229182243347,0.0426959991455,0.0255091190338,0.00381994247437,0.216040849686
71,0.00768899917603,0.0399491786957,0.0265839099884,0.00364804267883,0.202674865723
72,0.00767803192139,0.0389220714569,0.0241260528564,0.00351595878601,0.198429107666
73,0.00823783874512,0.042249917984,0.0263090133667,0.00389194488525,0.355808973312
74,0.00697088241577,0.0157659053802,0.0181322097778,0.00156998634338,264.135993004
75,0.00739908218384,0.0152039527893,0.0179419517517,0.00188279151917,276.079736948
76,0.00710678100586,0.0171039104462,0.0187201499939,0.00186491012573,0.228312969208
77,0.00718426704407,0.0172510147095,0.0180239677429,0.00188398361206,0.227184057236
78,0.00816917419434,0.0178511142731,0.0185179710388,0.00183916091919,0.234415054321
79,0.0076310634613,0.0253291130066,0.029865026474,0.00538396835327,1.3442299366
80,0.00705981254578,0.0147459506989,0.0163099765778,0.00130486488342,323.208547115
81,0.00711297988892,0.0142960548401,0.0163629055023,0.00144791603088,0.223931074142
82,0.00747799873352,0.02681016922,0.0297701358795,0.00533509254456,1.87531614304
83,0.00782108306885,0.0581459999084,0.0352189540863,0.00543785095215,0.246392011642
84,0.00769591331482,0.0593681335449,0.0321879386902,0.00545787811279,0.253440141678
85,0.00736689567566,0.0153951644897,0.0169570446014,0.00157499313354,356.322960138
86,0.00739908218384,0.0151219367981,0.016496181488,0.00136089324951,0.251634120941
87,0.00729179382324,0.0149891376495,0.0161340236664,0.00142192840576,381.826954126
88,0.00715517997742,0.0143120288849,0.01615691185,0.00149703025818,0.276765108109
89,0.00743103027344,0.015340089798,0.0165100097656,0.00137495994568,0.262913942337
90,0.00720191001892,0.0142819881439,0.0164570808411,0.0014169216156,0.256053209305
91,0.00771903991699,0.0159361362457,0.0175671577454,0.00161290168762,370.815866947
92,0.00726795196533,0.0258119106293,0.0286328792572,0.00541090965271,1.68540906906
93,0.00712203979492,0.0154039859772,0.0196118354797,0.00207591056824,336.186356783
94,0.0070538520813,0.0150420665741,0.0162489414215,0.00154399871826,400.419830084
95,0.00723195075989,0.0143728256226,0.0163049697876,0.00134301185608,0.266412973404
96,0.00706195831299,0.0151450634003,0.0180201530457,0.00155878067017,391.136232853
97,0.00717782974243,0.0141758918762,0.0163869857788,0.00133490562439,0.275843143463
98,0.00720691680908,0.0149350166321,0.0179340839386,0.00162291526794,353.482597828
99,0.00731492042542,0.0155980587006,0.0174469947815,0.00137090682983,0.285850048065
