step,run,get,set,free,run_up_to_step
0,0.00321412086487,0.00370502471924,0.0035228729248,0.000351905822754,0.00536298751831
1,0.00327301025391,0.00212502479553,0.00366306304932,0.000349044799805,0.00524806976318
2,0.0029616355896,0.0035719871521,0.00369191169739,0.000359058380127,0.00509595870972
3,0.00310277938843,0.00369715690613,0.00360107421875,0.00032901763916,0.00618410110474
4,0.00412106513977,0.00370121002197,0.00413012504578,0.000434160232544,0.00644993782043
5,0.00404286384583,0.00287318229675,0.00336194038391,0.000345945358276,0.00809192657471
6,0.00474405288696,0.00357913970947,0.00386095046997,0.000389814376831,0.00873517990112
7,0.00299191474915,0.00358295440674,0.00372195243835,0.000366926193237,0.00882482528687
8,0.00314807891846,0.00360083580017,0.00396394729614,0.000379085540771,0.0100400447845
9,0.00316786766052,0.00368595123291,0.00331616401672,0.000382900238037,0.0105550289154
10,0.00371384620667,0.00373411178589,0.00341606140137,0.000369071960449,0.011922121048
11,0.00305891036987,0.00372004508972,0.00383496284485,0.000375986099243,0.0236620903015
12,0.00358295440674,0.00419402122498,0.00374507904053,0.000343084335327,0.0148010253906
13,0.00329113006592,0.00374388694763,0.00340390205383,0.000408887863159,0.0138521194458
14,0.00359606742859,0.00371408462524,0.00371217727661,0.000370025634766,0.0144522190094
15,0.00414490699768,0.00371789932251,0.00371503829956,0.000333070755005,0.0170571804047
16,0.00296068191528,0.00352907180786,0.003751039505,0.000356912612915,0.0171749591827
17,0.00295209884644,0.00347018241882,0.00406217575073,0.000411033630371,0.0178627967834
18,0.00329685211182,0.00403594970703,0.00385808944702,0.000363826751709,0.0186550617218
19,0.00497603416443,0.00388407707214,0.0036289691925,0.000377178192139,0.0193049907684
20,0.00380373001099,0.00402498245239,0.00370097160339,0.000289916992188,0.0200440883636
21,0.00388312339783,0.00368809700012,0.0037899017334,0.00026798248291,0.0207860469818
22,0.0030369758606,0.00378012657166,0.00403499603271,0.000415086746216,0.0210762023926
23,0.00318169593811,0.00398993492126,0.0032320022583,0.000419855117798,0.0242648124695
24,0.00452399253845,0.00345706939697,0.0036039352417,0.000357151031494,0.0248520374298
25,0.00291299819946,0.00384211540222,0.00408101081848,0.000416040420532,0.024445772171
26,0.00308895111084,0.00385499000549,0.00395512580872,0.000370979309082,0.0245749950409
27,0.00324892997742,0.003662109375,0.00354814529419,0.000440120697021,0.0274119377136
28,0.00336384773254,0.00365400314331,0.00378704071045,0.000358104705811,0.0272250175476
29,0.00437998771667,0.00360298156738,0.00372815132141,0.000370025634766,0.0278010368347
30,0.00296592712402,0.00365781784058,0.00382804870605,0.000370025634766,0.0302438735962
31,0.00409412384033,0.00389719009399,0.00387096405029,0.000369071960449,0.0304279327393
32,0.00330495834351,0.00333499908447,0.00430607795715,0.000392913818359,0.0311460494995
33,0.0031361579895,0.00341105461121,0.00408697128296,0.000380039215088,0.0303299427032
34,0.00410914421082,0.00384902954102,0.00364708900452,0.000302076339722,0.030531167984
35,0.0034019947052,0.00382995605469,0.00332403182983,0.000453948974609,0.0323460102081
36,0.00300097465515,0.00363492965698,0.00376105308533,0.00037693977356,0.0341589450836
37,0.00351619720459,0.00382494926453,0.00379920005798,0.000335931777954,0.0349400043488
38,0.00328087806702,0.00356888771057,0.00359106063843,0.00036096572876,0.0353391170502
39,0.00485777854919,0.00377178192139,0.00394701957703,0.000388145446777,0.0979290008545
40,0.0040340423584,0.00412607192993,0.00514388084412,0.000470161437988,0.0364949703217
41,0.0032069683075,0.00376200675964,0.00379991531372,0.000434160232544,0.0363590717316
42,0.00420784950256,0.00358700752258,0.00367116928101,0.000355958938599,0.0394530296326
43,0.00299978256226,0.00344300270081,0.00365900993347,0.000339984893799,0.0378451347351
44,0.00261807441711,0.00333595275879,0.00412511825562,0.000446796417236,0.0388419628143
45,0.0039210319519,0.00416302680969,0.00413084030151,0.000440835952759,0.0417537689209
46,0.00360298156738,0.00409913063049,0.00381302833557,0.000383138656616,0.0443370342255
47,0.00402092933655,0.00376200675964,0.00292015075684,0.000356912612915,0.0429799556732
48,0.00293302536011,0.00359797477722,0.00379920005798,0.000339984893799,0.0421459674835
49,0.004075050354,0.00348997116089,0.00378203392029,0.000331878662109,0.0430798530579
50,0.00465703010559,0.00416684150696,0.00414299964905,0.000409841537476,0.107422113419
51,0.00354504585266,0.00440502166748,0.00419116020203,0.000471115112305,0.0502860546112
52,0.00328278541565,0.00432515144348,0.00378012657166,0.000360012054443,0.048152923584
53,0.00297498703003,0.00362491607666,0.00229215621948,0.000239133834839,0.0455951690674
54,0.00258994102478,0.00210309028625,0.00229215621948,0.000252962112427,0.0300841331482
55,0.00305271148682,0.00280404090881,0.00257396697998,0.000272989273071,0.0745890140533
56,0.00302767753601,0.00258803367615,0.00319886207581,0.000419139862061,0.0315780639648
57,0.00309777259827,0.00398087501526,0.00376510620117,0.000419855117798,0.0525898933411
58,0.00306725502014,0.00359106063843,0.00361084938049,0.000361919403076,0.0540239810944
59,0.00377988815308,0.00386810302734,0.0044059753418,0.000399827957153,0.0523478984833
60,0.0035388469696,0.00418496131897,0.00405502319336,0.000375986099243,0.054291009903
61,0.00293493270874,0.00389218330383,0.00314378738403,0.00045108795166,0.0542240142822
62,0.00343704223633,0.00365400314331,0.00372505187988,0.000353097915649,0.0558497905731
63,0.00289011001587,0.00350499153137,0.00365495681763,0.000353813171387,0.0584931373596
64,0.00297904014587,0.00359487533569,0.00437712669373,0.000404834747314,0.0579571723938
65,0.00386381149292,0.00364398956299,0.00416898727417,0.000651121139526,0.116613149643
66,0.0035400390625,0.00440502166748,0.00378203392029,0.000333070755005,0.0616908073425
67,0.00375986099243,0.00363898277283,0.00376796722412,0.000504970550537,0.0563440322876
68,0.00306916236877,0.00380110740662,0.00352120399475,0.000360012054443,0.0589928627014
69,0.00338077545166,0.00399398803711,0.00385403633118,0.000385046005249,0.0618069171906
70,0.00386786460876,0.00402498245239,0.00442099571228,0.00039005279541,0.0632801055908
71,0.0032639503479,0.00417590141296,0.0040111541748,0.000389099121094,0.0601258277893
72,0.00311422348022,0.00384306907654,0.00409889221191,0.000424861907959,0.0647010803223
73,0.00343179702759,0.00412011146545,0.0037670135498,0.000366926193237,0.058935880661
74,0.00406098365784,0.00328397750854,0.00454998016357,0.000425100326538,0.0623018741608
75,0.00371789932251,0.00431394577026,0.00377583503723,0.000399827957153,0.0687580108643
76,0.00420689582825,0.00438618659973,0.00428986549377,0.000632047653198,0.0648369789124
77,0.00315284729004,0.00416398048401,0.00401592254639,0.000445127487183,0.0688109397888
78,0.00301694869995,0.00334310531616,0.00370717048645,0.000441074371338,0.072028875351
79,0.00319194793701,0.00411009788513,0.00433897972107,0.000415086746216,0.122625112534
80,0.00374507904053,0.00423288345337,0.00400996208191,0.000418901443481,0.0680050849915
81,0.00330090522766,0.00342106819153,0.00407004356384,0.000366926193237,0.0745329856873
82,0.00437808036804,0.00313115119934,0.00333619117737,0.000462055206299,0.0725870132446
83,0.00291585922241,0.00366187095642,0.00379610061646,0.000377893447876,0.0749118328094
84,0.00330305099487,0.0043671131134,0.00419783592224,0.00039005279541,0.067638874054
85,0.0039529800415,0.00407814979553,0.00405716896057,0.000378131866455,0.0746958255768
86,0.00304698944092,0.00368309020996,0.00392985343933,0.000361204147339,0.0743358135223
87,0.00336694717407,0.00361204147339,0.00366497039795,0.000350952148438,0.0724859237671
88,0.00317811965942,0.00422716140747,0.00412487983704,0.000400066375732,0.134100198746
89,0.003986120224,0.00407099723816,0.00396800041199,0.00037407875061,0.082554101944
90,0.0054337978363,0.00326490402222,0.00382494926453,0.000354051589966,0.0791189670563
91,0.00293231010437,0.00359797477722,0.00368595123291,0.000334024429321,0.0752611160278
92,0.0031270980835,0.00418186187744,0.00423407554626,0.0003981590271,0.122673988342
93,0.00331091880798,0.00420999526978,0.00416994094849,0.000379085540771,0.0793588161469
94,0.00468111038208,0.00415897369385,0.00400400161743,0.000370025634766,0.0813219547272
95,0.00379014015198,0.0035719871521,0.002601146698,0.000406980514526,0.0831308364868
96,0.0055730342865,0.0029559135437,0.00277304649353,0.000285148620605,0.073765039444
97,0.00314807891846,0.00279808044434,0.00285196304321,0.000362157821655,0.073853969574
98,0.00266480445862,0.00248789787292,0.0038731098175,0.000370025634766,0.0605299472809
99,0.00436496734619,0.00372695922852,0.00233793258667,0.000231981277466,0.0591788291931
