step,run,get,set,free,run_up_to_step
0,0.0240800380707,0.0058581829071,0.00481605529785,0.000697135925293,0.0260558128357
1,0.00407314300537,0.00485992431641,0.00528979301453,0.00110101699829,0.0232329368591
2,0.00424480438232,0.00540208816528,0.00537800788879,0.00113701820374,0.0323359966278
3,0.00346994400024,0.00529909133911,0.00514101982117,0.000774145126343,0.0281119346619
4,0.00360703468323,0.00528693199158,0.00522589683533,0.000779867172241,0.0264301300049
5,0.00335216522217,0.00532197952271,0.00500702857971,0.000749111175537,0.0278968811035
6,0.00320219993591,0.0050950050354,0.00498795509338,0.000761985778809,0.0579130649567
7,0.00335383415222,0.00523591041565,0.00507092475891,0.00074315071106,0.0297210216522
8,0.00373911857605,0.00554895401001,0.00545811653137,0.000868082046509,0.0402450561523
9,0.00322890281677,0.00523900985718,0.00493407249451,0.000736951828003,0.0512449741364
10,0.00335597991943,0.00521779060364,0.00506496429443,0.000758171081543,0.0334098339081
11,0.00378823280334,0.00532078742981,0.00496292114258,0.000774145126343,0.289916992188
12,0.00318002700806,0.00524497032166,0.00510787963867,0.000761032104492,0.0361979007721
13,0.00326204299927,0.00526094436646,0.00497102737427,0.000754117965698,0.0746500492096
14,0.0034511089325,0.00530910491943,0.00510811805725,0.000786066055298,0.0451891422272
15,0.00338506698608,0.00539302825928,0.00492596626282,0.000742197036743,0.0387918949127
16,0.00336408615112,0.00534701347351,0.00520801544189,0.000784158706665,0.0398020744324
17,0.00999617576599,0.00534701347351,0.00501108169556,0.000757932662964,0.0411179065704
18,0.00339007377625,0.00536704063416,0.00518894195557,0.000772953033447,0.0471520423889
19,0.00337409973145,0.00523781776428,0.00511693954468,0.00076699256897,0.0442011356354
20,0.00364089012146,0.00557899475098,0.00541591644287,0.000807046890259,0.0441069602966
21,0.00343704223633,0.00540494918823,0.00519490242004,0.000781059265137,0.0456800460815
22,0.0033221244812,0.00548005104065,0.00539016723633,0.000814914703369,0.393882036209
23,0.00319695472717,0.00547313690186,0.00521993637085,0.000787973403931,0.0478661060333
24,0.00332283973694,0.00536799430847,0.00510501861572,0.000784873962402,0.0546019077301
25,0.00329208374023,0.00530195236206,0.00510597229004,0.00078296661377,0.0493829250336
26,0.00323724746704,0.00524806976318,0.00566983222961,0.000867128372192,0.0570349693298
27,0.00316524505615,0.00567007064819,0.00527095794678,0.000814199447632,0.0524380207062
28,0.00317716598511,0.00557899475098,0.00525212287903,0.000791072845459,0.0527369976044
29,0.00335717201233,0.0056631565094,0.00538992881775,0.000820159912109,0.0539028644562
30,0.00342488288879,0.00570392608643,0.00528502464294,0.000823974609375,0.061539888382
31,0.00324273109436,0.0054349899292,0.00513601303101,0.000797986984253,0.0834741592407
32,0.00323700904846,0.00536799430847,0.00567698478699,0.000880002975464,0.0574479103088
33,0.00328779220581,0.0059130191803,0.00538015365601,0.000844955444336,0.0586431026459
34,0.0034122467041,0.00586891174316,0.0052478313446,0.000816106796265,0.0665090084076
35,0.00328993797302,0.00561094284058,0.00524520874023,0.000802993774414,0.0634911060333
36,0.003497838974,0.00543594360352,0.00512409210205,0.000793933868408,0.0682890415192
37,0.00337886810303,0.00528192520142,0.00601696968079,0.000933885574341,0.0622091293335
38,0.00328016281128,0.00606489181519,0.00571322441101,0.00103282928467,0.0650210380554
39,0.0048680305481,0.00731015205383,0.00671315193176,0.00139212608337,0.100826978683
40,0.00469493865967,0.00696277618408,0.00581908226013,0.00110006332397,0.0717329978943
41,0.00345396995544,0.00581097602844,0.00525212287903,0.000807046890259,0.082633972168
42,0.00326704978943,0.00610995292664,0.00541615486145,0.000832796096802,0.0741579532623
43,0.00330400466919,0.00556612014771,0.00512194633484,0.000781059265137,0.0754761695862
44,0.00328016281128,0.00552201271057,0.00513505935669,0.000782012939453,0.0774691104889
45,0.00357985496521,0.00607514381409,0.00559210777283,0.00088906288147,0.122755050659
46,0.00333714485168,0.00591278076172,0.00552606582642,0.00091814994812,0.0804920196533
47,0.00451421737671,0.0056209564209,0.00516796112061,0.000790119171143,0.0802478790283
48,0.00350904464722,0.00535011291504,0.00508308410645,0.000792980194092,0.0813438892365
49,0.00365781784058,0.00620412826538,0.00583696365356,0.000917911529541,0.0750839710236
50,0.00375032424927,0.00607013702393,0.00561690330505,0.000916004180908,0.0824620723724
51,0.00430583953857,0.00577712059021,0.00533890724182,0.000862836837769,0.0843741893768
52,0.00333499908447,0.00550484657288,0.0051851272583,0.000772953033447,0.0858609676361
53,0.00372719764709,0.00538206100464,0.00497913360596,0.000763893127441,0.107574939728
54,0.00333118438721,0.00619792938232,0.00574111938477,0.00088906288147,0.143351078033
55,0.00342988967896,0.0060760974884,0.00564813613892,0.000895023345947,0.0887050628662
56,0.00341486930847,0.00579500198364,0.00532197952271,0.00081992149353,0.083832025528
57,0.00325584411621,0.00539302825928,0.00501203536987,0.000781059265137,0.0942559242249
58,0.00332903862,0.00528407096863,0.00506687164307,0.000775098800659,0.0847749710083
59,0.00337195396423,0.00589895248413,0.00554203987122,0.000874996185303,0.231440067291
60,0.00388193130493,0.00587701797485,0.00541090965271,0.000878095626831,0.0956628322601
61,0.00322699546814,0.00572109222412,0.00530195236206,0.000826120376587,0.0957329273224
62,0.0033130645752,0.00548195838928,0.00511908531189,0.000797986984253,0.08860206604
63,0.00334072113037,0.00523996353149,0.00598001480103,0.000908136367798,0.0959901809692
64,0.00325179100037,0.00586795806885,0.00531506538391,0.000822067260742,0.101444005966
65,0.00386333465576,0.0058810710907,0.00536608695984,0.000826835632324,0.145260095596
66,0.00389981269836,0.00569891929626,0.00525403022766,0.000817060470581,0.0994851589203
67,0.00328016281128,0.00566697120667,0.00526094436646,0.00081205368042,0.100191116333
68,0.00369000434875,0.00551605224609,0.00504183769226,0.000784873962402,0.101836919785
69,0.00356912612915,0.00596499443054,0.00538206100464,0.000864028930664,0.167993068695
70,0.0101232528687,0.00594902038574,0.00553011894226,0.000897884368896,0.0982739925385
71,0.00338792800903,0.0057361125946,0.00517010688782,0.000839948654175,0.10449886322
72,0.00327372550964,0.0055468082428,0.00506591796875,0.000788927078247,0.106796979904
73,0.00344300270081,0.00544381141663,0.0051441192627,0.000777006149292,0.106884002686
74,0.0034282207489,0.00585913658142,0.00543308258057,0.000846147537231,0.165367126465
75,0.00373578071594,0.00605392456055,0.00555205345154,0.000866174697876,0.113583087921
76,0.00350618362427,0.00586795806885,0.00534605979919,0.000852108001709,0.104518890381
77,0.00338816642761,0.00544309616089,0.00507998466492,0.000781059265137,0.110666036606
78,0.0676529407501,0.00617790222168,0.00559306144714,0.000886917114258,0.105533838272
79,0.00418019294739,0.00703406333923,0.0066499710083,0.00145697593689,0.115552902222
80,0.00473999977112,0.00672388076782,0.00643801689148,0.0015811920166,0.137259960175
81,0.00573396682739,0.00748896598816,0.00760889053345,0.00181603431702,0.152025938034
82,0.005450963974,0.00732398033142,0.00737714767456,0.00173997879028,0.191936016083
83,0.00561189651489,0.00853800773621,0.0112199783325,0.00313782691956,0.25168299675
84,0.00385689735413,0.00595688819885,0.0052170753479,0.00082802772522,0.128298044205
85,0.00517225265503,0.00743198394775,0.00722789764404,0.00164103507996,0.145821809769
86,0.00381803512573,0.00563597679138,0.00508594512939,0.000799894332886,0.115584135056
87,0.00410962104797,0.00556683540344,0.00746083259583,0.00176000595093,0.184391975403
88,0.00348711013794,0.00625514984131,0.00573110580444,0.00092601776123,0.252512931824
89,0.00351881980896,0.00603985786438,0.00550317764282,0.000900983810425,0.126883983612
90,0.00362110137939,0.00559711456299,0.00520610809326,0.00084400177002,0.126796960831
91,0.00354981422424,0.00542902946472,0.00504517555237,0.000762939453125,0.121958971024
92,0.00449991226196,0.0075991153717,0.00727987289429,0.00151515007019,0.227120161057
93,0.0223648548126,0.00593209266663,0.00546407699585,0.000878095626831,0.149471998215
94,0.00335192680359,0.00574111938477,0.00523400306702,0.000836849212646,0.130841970444
95,0.00356483459473,0.00558710098267,0.00510787963867,0.000802993774414,0.131294965744
96,0.00343894958496,0.00520896911621,0.00604391098022,0.000931978225708,0.126425981522
97,0.00375318527222,0.00635004043579,0.00562906265259,0.00091290473938,0.135040998459
98,0.00384092330933,0.00632691383362,0.0055251121521,0.000913143157959,0.138303995132
99,0.00344967842102,0.00563383102417,0.00519895553589,0.000817060470581,0.348326206207
