step,run,get,set,free,run_up_to_step
0,0.0615739822388,0.0376980304718,0.0372660160065,0.0069751739502,0.0645980834961
1,0.0481951236725,0.0350871086121,0.0386030673981,0.00809192657471,0.116193056107
2,0.0558860301971,0.0352399349213,0.0385529994965,0.00772404670715,0.226297140121
3,0.0476050376892,0.037593126297,0.0360088348389,0.00711798667908,0.199904918671
4,0.0506789684296,0.0588381290436,0.0356569290161,0.00703191757202,0.236401081085
5,0.0468409061432,0.035434961319,0.0396099090576,0.0315480232239,0.285516023636
6,0.0515730381012,0.037162065506,0.0358638763428,0.00708794593811,0.377712011337
7,0.0567750930786,0.0337390899658,0.0595769882202,0.00706911087036,0.380486965179
8,0.0627980232239,0.0349180698395,0.0369608402252,0.00850796699524,0.880898952484
9,0.0505871772766,0.0363240242004,0.0365078449249,0.0070960521698,0.470818042755
10,0.0501770973206,0.0377759933472,0.0366489887238,0.00886797904968,0.497318983078
11,0.0577311515808,0.03502202034,0.0361540317535,0.00925898551941,0.562379837036
12,0.0538041591644,0.0367422103882,0.0344309806824,0.00717091560364,1.00858998299
13,0.0494821071625,0.0347571372986,0.0384449958801,0.0081479549408,0.661375045776
14,0.0504140853882,0.0332090854645,0.0372941493988,0.00704193115234,0.715050935745
15,0.0488829612732,0.0332019329071,0.0369849205017,0.00782012939453,1.10890007019
16,0.0537991523743,0.0373070240021,0.0356330871582,0.00705909729004,0.783800125122
17,0.0496079921722,0.0352590084076,0.0358560085297,0.00714111328125,0.824067115784
18,0.0552940368652,0.0391960144043,0.0355000495911,0.00701808929443,1.31506204605
19,0.0576069355011,0.0373349189758,0.0376851558685,0.00756001472473,0.979448080063
20,0.0500149726868,0.0357429981232,0.0378460884094,0.00770998001099,0.979439973831
21,0.0533359050751,0.035315990448,0.0343658924103,0.00742220878601,1.0320789814
22,0.0495359897614,0.0345528125763,0.0339970588684,0.00742316246033,1.49725294113
23,0.0498809814453,0.0353429317474,0.035031080246,0.00701594352722,1.07635402679
24,0.050066947937,0.0346038341522,0.0353178977966,0.00842785835266,1.22919297218
25,0.0499820709229,0.0350639820099,0.0345211029053,0.00715303421021,1.18555593491
26,0.0559740066528,0.0355479717255,0.0355439186096,0.00760698318481,1.28468489647
27,0.0496888160706,0.0351090431213,0.0350239276886,0.00775384902954,1.83915400505
28,0.0514440536499,0.0352690219879,0.0355560779572,0.00760006904602,1.47684621811
29,0.0546450614929,0.0351848602295,0.0361061096191,0.00736999511719,1.4725060463
30,0.0562360286713,0.0345101356506,0.0419499874115,0.00784111022949,1.95373415947
31,0.0597999095917,0.0354499816895,0.0400350093842,0.00812101364136,1.56126189232
32,0.0503249168396,0.0355360507965,0.0366480350494,0.00826501846313,1.5387160778
33,0.0500841140747,0.0352020263672,0.0401420593262,0.00893306732178,1.50470495224
34,0.0498349666595,0.0367600917816,0.0359570980072,0.00704288482666,1.58881902695
35,0.057021856308,0.0366702079773,0.0360479354858,0.00773096084595,1.63018488884
36,0.0502700805664,0.0350329875946,0.0365920066833,0.00748610496521,1.65890288353
37,0.0492348670959,0.0355830192566,0.0354170799255,0.00803112983704,2.12763595581
38,0.0493230819702,0.0347521305084,0.0344228744507,0.00703811645508,1.75141191483
39,0.0595440864563,0.0366468429565,0.0365998744965,0.00782799720764,1.8174059391
40,0.0517492294312,0.035187959671,0.0574729442596,0.00706195831299,2.39587593079
41,0.0529401302338,0.0349838733673,0.0341770648956,0.00706911087036,1.99514484406
42,0.0568749904633,0.0342679023743,0.0351181030273,0.00790500640869,2.47003889084
43,0.0853891372681,0.0402610301971,0.0349459648132,0.00705409049988,1.95052886009
44,0.0556039810181,0.0361111164093,0.0378570556641,0.00945210456848,2.04577302933
45,0.0494160652161,0.038801908493,0.0351600646973,0.0070378780365,2.10391020775
46,0.0541739463806,0.0395390987396,0.0344228744507,0.00707077980042,2.12065911293
47,0.0518198013306,0.0358939170837,0.0344729423523,0.00801706314087,2.90541601181
48,0.0575749874115,0.0365839004517,0.0342798233032,0.00810599327087,2.16543483734
49,0.0498390197754,0.0345511436462,0.0383229255676,0.00940704345703,2.66811609268
50,0.0487987995148,0.0408029556274,0.0341501235962,0.00708293914795,2.42007493973
51,0.0559000968933,0.0370669364929,0.0395340919495,0.00888204574585,2.36224389076
52,0.0497391223907,0.036071062088,0.0361649990082,0.00710606575012,2.5073120594
53,0.055162191391,0.0376660823822,0.0364592075348,0.00750780105591,2.43397116661
54,0.0492289066315,0.0347769260406,0.0340001583099,0.00856685638428,2.97156214714
55,0.0758650302887,0.0427930355072,0.0358839035034,0.00708293914795,2.67852115631
56,0.0496761798859,0.034854888916,0.0340189933777,0.00786304473877,2.599807024
57,0.0500829219818,0.0388879776001,0.0350570678711,0.00697898864746,2.69205284119
58,0.0492401123047,0.034786939621,0.0361979007721,0.00771594047546,3.15256690979
59,0.0559849739075,0.0357730388641,0.0342879295349,0.00905179977417,2.77999901772
60,0.0508661270142,0.0403170585632,0.0339639186859,0.00707101821899,2.80245709419
61,0.0491278171539,0.0346620082855,0.0351469516754,0.00857210159302,3.43046402931
62,0.049357175827,0.035336971283,0.0361211299896,0.00745892524719,2.91712212563
63,0.0563321113586,0.034558057785,0.0340640544891,0.00867819786072,3.44376707077
64,0.0510122776031,0.0395028591156,0.0385179519653,0.00786185264587,3.13516998291
65,0.0494010448456,0.0592339038849,0.0365409851074,0.00712394714355,3.41693496704
66,0.07785820961,0.0351121425629,0.0362010002136,0.00701498985291,3.05625414848
67,0.0494558811188,0.0371251106262,0.0343689918518,0.0083909034729,3.71845984459
68,0.0496120452881,0.0354509353638,0.0351350307465,0.00710391998291,3.17099308968
69,0.0507700443268,0.0356659889221,0.0389370918274,0.0102088451385,3.74953913689
70,0.0587921142578,0.0354890823364,0.0341839790344,0.00701904296875,3.14840888977
71,0.0573649406433,0.0350179672241,0.0355470180511,0.00700306892395,3.46972107887
72,0.0542981624603,0.0380818843842,0.0351319313049,0.00800681114197,3.31380701065
73,0.049859046936,0.0353350639343,0.0356121063232,0.00848579406738,3.29604887962
74,0.0494899749756,0.035982131958,0.0342490673065,0.00701189041138,3.43755292892
75,0.0574028491974,0.0395839214325,0.0349869728088,0.00700306892395,3.5820350647
76,0.0516180992126,0.0349690914154,0.0359890460968,0.00767993927002,3.65139007568
77,0.0510227680206,0.0349609851837,0.0353591442108,0.00699687004089,3.68446588516
78,0.0492608547211,0.034744977951,0.0349409580231,0.00732517242432,4.10001707077
79,0.0507299900055,0.036003112793,0.0362279415131,0.00708794593811,3.84941697121
80,0.0492949485779,0.0355160236359,0.0361058712006,0.00706315040588,4.16345596313
81,0.0496108531952,0.0351998806,0.0349638462067,0.00701498985291,3.72153806686
82,0.058760881424,0.0344569683075,0.0353689193726,0.00792098045349,4.25760197639
83,0.051952123642,0.0354399681091,0.0350229740143,0.00703597068787,3.86532497406
84,0.0501980781555,0.0354869365692,0.0886399745941,0.0104930400848,4.14694499969
85,0.0538890361786,0.0363359451294,0.0342040061951,0.00701403617859,3.89918518066
86,0.0497450828552,0.034698009491,0.0358529090881,0.00883078575134,4.58462405205
87,0.0494389533997,0.0351929664612,0.0355679988861,0.00737309455872,4.09628295898
88,0.0491390228271,0.0346610546112,0.0345921516418,0.00831913948059,4.57278895378
89,0.0578019618988,0.0352029800415,0.0373511314392,0.00829291343689,4.04957199097
90,0.0629589557648,0.0356018543243,0.0360019207001,0.00773811340332,4.51054501534
91,0.057715177536,0.0351240634918,0.0382418632507,0.00804400444031,4.77718710899
92,0.0516521930695,0.0369369983673,0.0362730026245,0.0073299407959,4.31258296967
93,0.0502960681915,0.035383939743,0.0683469772339,0.00725984573364,4.92247796059
94,0.0494701862335,0.035383939743,0.0360670089722,0.00702881813049,4.42320799828
95,0.0567679405212,0.0351469516754,0.0380120277405,0.00730395317078,5.13228607178
96,0.0605149269104,0.0353639125824,0.0386900901794,0.00702404975891,4.36022186279
97,0.0508658885956,0.0357410907745,0.0352380275726,0.00930404663086,5.19007515907
98,0.0508382320404,0.0356509685516,0.0359199047089,0.00705599784851,4.59761714935
99,0.0556409358978,0.0354430675507,0.0357880592346,0.00890684127808,5.11994600296
