step,run,get,set,free,run_up_to_step
0,0.122072935104,0.0132069587708,0.0133140087128,0.0026650428772,0.0974841117859
1,0.0933649539948,0.0132699012756,0.0133159160614,0.00250101089478,0.188362836838
2,0.0911509990692,0.0121819972992,0.0128810405731,0.00266814231873,0.309345006943
3,0.0910999774933,0.0126140117645,0.0128870010376,0.00285196304321,0.390573978424
4,0.0907421112061,0.0124859809875,0.0124611854553,0.0027871131897,0.468634843826
5,0.097776889801,0.012904882431,0.0124928951263,0.00282192230225,0.565668106079
6,0.0903952121735,0.0116128921509,0.0125648975372,0.00282907485962,0.63711810112
7,0.0925328731537,0.0129351615906,0.0149350166321,0.00359416007996,0.769598960876
8,0.0905091762543,0.0125350952148,0.0126020908356,0.00290703773499,0.819149971008
9,0.090313911438,0.0125539302826,0.0131750106812,0.00337386131287,0.911299943924
10,0.0921521186829,0.011687040329,0.0129981040955,0.00280499458313,1.00725007057
11,0.0903017520905,0.0126051902771,0.012729883194,0.00292611122131,1.11107897758
12,0.0906300544739,0.0129380226135,0.012736082077,0.00299215316772,1.22140908241
13,0.0901098251343,0.0128808021545,0.0127859115601,0.00300908088684,1.89701008797
14,0.0935640335083,0.0126929283142,0.012766122818,0.00360703468323,1.39001607895
15,0.115365028381,0.0129561424255,0.0127408504486,0.003005027771,1.48898911476
16,0.0901081562042,0.0126259326935,0.013044834137,0.00312304496765,1.58671712875
17,0.0906519889832,0.0125980377197,0.0128169059753,0.00313997268677,2.02049803734
18,0.0895607471466,0.0130081176758,0.0132970809937,0.00336599349976,1.75349593163
19,0.0900142192841,0.0131239891052,0.0125749111176,0.00284004211426,1.83619499207
20,0.122181892395,0.011607170105,0.0158460140228,0.00292086601257,2.24420189857
21,0.0900459289551,0.0130198001862,0.0132260322571,0.00281596183777,2.03124809265
22,0.0901627540588,0.0128808021545,0.0131039619446,0.0036461353302,2.13817596436
23,0.089772939682,0.0129380226135,0.0126020908356,0.00283288955688,2.21189713478
24,0.0898699760437,0.0130300521851,0.0126259326935,0.00292110443115,2.29887104034
25,0.0906889438629,0.0130031108856,0.0124790668488,0.00325202941895,2.39587903023
26,0.0939128398895,0.0129330158234,0.012531042099,0.00284004211426,2.47856402397
27,0.121676206589,0.0126399993896,0.0124990940094,0.00285291671753,2.5483019352
28,0.0890438556671,0.0115311145782,0.0127999782562,0.00300097465515,2.9993929863
29,0.115024089813,0.0123407840729,0.0125939846039,0.00302290916443,3.08328914642
30,0.0900118350983,0.0130488872528,0.0127999782562,0.00348281860352,2.85289502144
31,0.0897431373596,0.0129561424255,0.012501001358,0.0028440952301,2.91027593613
32,0.0928409099579,0.0126960277557,0.0125319957733,0.00279998779297,3.00985813141
33,0.0912418365479,0.0127708911896,0.0125160217285,0.00285506248474,3.12676501274
34,0.0905940532684,0.0129511356354,0.0125889778137,0.00283885002136,3.21130299568
35,0.0899729728699,0.012925863266,0.0131788253784,0.00331616401672,3.32742500305
36,0.0975968837738,0.0128388404846,0.012923002243,0.00280714035034,3.74879693985
37,0.0893371105194,0.0117061138153,0.0125911235809,0.00286602973938,3.92439603806
38,0.0909838676453,0.0130231380463,0.0125629901886,0.00300097465515,3.56149196625
39,0.0885269641876,0.0114560127258,0.013482093811,0.00326895713806,3.98966503143
40,0.0922532081604,0.0127477645874,0.0132920742035,0.00356197357178,3.79150605202
41,0.0879950523376,0.0115821361542,0.0125648975372,0.0027928352356,4.21261692047
42,0.0910499095917,0.0130920410156,0.0127308368683,0.00347089767456,3.9178841114
43,0.0962951183319,0.0133631229401,0.0133211612701,0.00279808044434,4.01519203186
44,0.0937969684601,0.0125827789307,0.0124881267548,0.00281500816345,4.44453692436
45,0.0906281471252,0.0130569934845,0.0138208866119,0.00301814079285,4.23901796341
46,0.109740972519,0.0133788585663,0.0131840705872,0.00304198265076,4.79650092125
47,0.10487985611,0.0131258964539,0.0125739574432,0.00283694267273,4.667760849
48,0.0888569355011,0.0118958950043,0.0131850242615,0.00296592712402,4.93281006813
49,0.0921199321747,0.0125050544739,0.0132172107697,0.00295305252075,4.8439950943
50,0.0891230106354,0.0115151405334,0.0130848884583,0.00280284881592,5.11880397797
51,0.0896668434143,0.0126259326935,0.0127000808716,0.0028247833252,5.15939998627
52,0.125443935394,0.0129568576813,0.0130519866943,0.00324606895447,4.86986780167
53,0.0886580944061,0.011482000351,0.0141129493713,0.00333905220032,5.18198394775
54,0.0906031131744,0.0127358436584,0.0128588676453,0.002849817276,5.42634797096
55,0.0917990207672,0.0118789672852,0.012797832489,0.00334095954895,5.50344204903
56,0.0971219539642,0.0125060081482,0.0127909183502,0.00283098220825,5.62547492981
57,0.0912749767303,0.0130310058594,0.0132591724396,0.00363898277283,5.25782513618
58,0.0916080474854,0.0115401744843,0.0125398635864,0.00291299819946,5.73591208458
59,0.10359287262,0.0130169391632,0.0125269889832,0.00288581848145,5.48556303978
60,0.090078830719,0.0115041732788,0.0124869346619,0.00282907485962,5.88102889061
61,0.0881540775299,0.0114588737488,0.0126810073853,0.00290393829346,6.12587213516
62,0.0887582302094,0.01154088974,0.0129821300507,0.00283813476562,6.22213602066
63,0.0890262126923,0.0115349292755,0.0130150318146,0.00282096862793,6.29039406776
64,0.150341749191,0.0115749835968,0.0126070976257,0.00302696228027,6.3711400032
65,0.0902981758118,0.0125620365143,0.0133030414581,0.00281715393066,6.39756393433
66,0.0998709201813,0.0129919052124,0.0128889083862,0.0028350353241,6.57223296165
67,0.0893938541412,0.011559009552,0.012629032135,0.00283885002136,6.6151778698
68,0.0900809764862,0.0127010345459,0.0134088993073,0.00293803215027,6.64254617691
69,0.118365049362,0.0118498802185,0.0127580165863,0.0028190612793,6.95093798637
70,0.0900292396545,0.0126609802246,0.013121843338,0.00286197662354,7.02678704262
71,0.090959072113,0.012748003006,0.0132920742035,0.00284600257874,6.99151802063
72,0.0897099971771,0.0116939544678,0.0126509666443,0.00288486480713,7.15313196182
73,0.528146982193,0.0124499797821,0.0131189823151,0.00305390357971,6.7823600769
74,0.0932629108429,0.013277053833,0.0126559734344,0.00281715393066,7.00834703445
75,0.0919828414917,0.0119271278381,0.0130109786987,0.00285387039185,7.2346971035
76,0.0890369415283,0.0115609169006,0.012946844101,0.00287890434265,7.35523605347
77,0.093817949295,0.0121309757233,0.0130181312561,0.00287294387817,7.77812790871
78,0.094043970108,0.0128948688507,0.0127589702606,0.00297594070435,7.59945893288
79,0.0898268222809,0.0115537643433,0.0127639770508,0.00292205810547,7.55747413635
80,0.0930840969086,0.0129811763763,0.0134069919586,0.00288510322571,8.04143381119
81,0.0899789333344,0.0116078853607,0.012748003006,0.00285696983337,8.02601194382
82,0.0899589061737,0.0117270946503,0.0132849216461,0.003005027771,7.75668406487
83,0.104120969772,0.0125730037689,0.0125629901886,0.00304102897644,8.30908513069
84,0.0986258983612,0.0114891529083,0.0125818252563,0.00285291671753,8.22535300255
85,0.0913081169128,0.0114459991455,0.0127170085907,0.00283598899841,8.36527705193
86,0.0911440849304,0.0119018554688,0.0131130218506,0.00301694869995,8.25889992714
87,0.0927700996399,0.0126650333405,0.0125088691711,0.00283193588257,8.81986308098
88,0.0893108844757,0.0116670131683,0.0128021240234,0.00282502174377,8.47030687332
89,0.0901308059692,0.0116229057312,0.0135869979858,0.00305104255676,8.98442006111
90,0.0917699337006,0.0118200778961,0.0125439167023,0.00298190116882,8.47587609291
91,0.0909147262573,0.0115602016449,0.0128870010376,0.0028989315033,8.80236506462
92,0.0908303260803,0.0125820636749,0.0126569271088,0.00302505493164,9.51020312309
93,0.0930819511414,0.0114741325378,0.0129330158234,0.00284004211426,8.84007716179
94,0.0978498458862,0.0118060112,0.0131990909576,0.00317788124084,9.37096714973
95,0.0914990901947,0.0129799842834,0.0129640102386,0.00301003456116,8.82612895966
96,0.0920610427856,0.0125811100006,0.0125679969788,0.00283312797546,9.34295701981
97,0.0898048877716,0.0118141174316,0.0125269889832,0.00279593467712,9.60866904259
98,0.0939900875092,0.0123121738434,0.0133020877838,0.00289702415466,9.66584706306
99,0.0964541435242,0.0124809741974,0.0129828453064,0.00288701057434,9.58704710007
