step,run,get,set,free,run_up_to_step
0,0.00876498222351,0.00123596191406,0.00120902061462,0.000153064727783,0.00393486022949
1,0.00250506401062,0.0011990070343,0.0011670589447,0.000153064727783,0.00415897369385
2,0.00231504440308,0.00121283531189,0.00112414360046,0.000150918960571,0.0116698741913
3,0.00237894058228,0.00121212005615,0.00122404098511,0.000152826309204,0.0113379955292
4,0.0023717880249,0.0012059211731,0.00122094154358,0.000152826309204,0.00621795654297
5,0.00968194007874,0.00121808052063,0.0012469291687,0.000151872634888,0.00682711601257
6,0.0023512840271,0.00127291679382,0.00119590759277,0.000150918960571,0.0075249671936
7,0.00266885757446,0.00120496749878,0.00116801261902,0.000150918960571,0.0152041912079
8,0.00247693061829,0.00115203857422,0.00116205215454,0.000155925750732,0.0266270637512
9,0.00257802009583,0.00121808052063,0.00115704536438,0.000155925750732,0.00964713096619
10,0.0024049282074,0.00123620033264,0.00114607810974,0.000154972076416,0.0102269649506
11,0.00239586830139,0.00120782852173,0.0011260509491,0.0001540184021,0.017627954483
12,0.00237703323364,0.00116801261902,0.00114488601685,0.0001540184021,0.0310640335083
13,0.00238990783691,0.0011670589447,0.00117611885071,0.0001540184021,0.0367820262909
14,0.00255799293518,0.0011739730835,0.00120401382446,0.000154972076416,0.0134289264679
15,0.002436876297,0.00127387046814,0.00111103057861,0.000151872634888,0.0203149318695
16,0.00242710113525,0.00117301940918,0.00117111206055,0.000153064727783,0.0324380397797
17,0.00270295143127,0.00120806694031,0.00118684768677,0.000152826309204,0.0220987796783
18,0.00941014289856,0.0011510848999,0.00111103057861,0.000151872634888,0.0181350708008
19,0.0022599697113,0.00117993354797,0.00110292434692,0.000153064727783,0.0413510799408
20,0.0028669834137,0.00129795074463,0.00118279457092,0.000158071517944,0.0644409656525
21,0.00273895263672,0.00124216079712,0.00118207931519,0.000170946121216,0.0245189666748
22,0.00239086151123,0.00113081932068,0.00121212005615,0.000156164169312,0.0247888565063
23,0.00234007835388,0.00113296508789,0.00113296508789,0.0001540184021,0.0197188854218
24,0.00239396095276,0.00120902061462,0.00113701820374,0.000155210494995,0.0262639522552
25,0.00244092941284,0.00120401382446,0.00113201141357,0.000152826309204,0.0268771648407
26,0.0028350353241,0.00118517875671,0.00117492675781,0.000155925750732,0.0306761264801
27,0.00236296653748,0.00111889839172,0.0011670589447,0.000151872634888,0.0224659442902
28,0.0105149745941,0.00120401382446,0.00110006332397,0.000153064727783,0.0223519802094
29,0.0177118778229,0.00135493278503,0.00116086006165,0.000159978866577,0.0291540622711
30,0.00226998329163,0.0011842250824,0.00123810768127,0.000168085098267,0.0376319885254
31,0.00943517684937,0.00124883651733,0.00121116638184,0.000163078308105,0.0282008647919
32,0.00238394737244,0.00119304656982,0.00115489959717,0.000153779983521,0.0255901813507
33,0.00243282318115,0.00121879577637,0.00119709968567,0.000162839889526,0.0390491485596
34,0.00235199928284,0.00117301940918,0.00131297111511,0.000163078308105,0.0320558547974
35,0.00244998931885,0.00124597549438,0.00115299224854,0.000153064727783,0.0264251232147
36,0.00250601768494,0.00123596191406,0.00144195556641,0.000196933746338,0.0275590419769
37,0.00279521942139,0.00128507614136,0.00119805335999,0.000171899795532,0.0288989543915
38,0.0024139881134,0.00128412246704,0.00119304656982,0.000158071517944,0.0298070907593
39,0.0025532245636,0.00127100944519,0.00118780136108,0.000154972076416,0.0300421714783
40,0.00341582298279,0.00133299827576,0.00113201141357,0.000153064727783,0.0306398868561
41,0.00268793106079,0.00122594833374,0.0011191368103,0.000152826309204,0.0359308719635
42,0.00393390655518,0.00118494033813,0.00119495391846,0.0001540184021,0.0324759483337
43,0.00244188308716,0.00127005577087,0.00121092796326,0.000151872634888,0.0324540138245
44,0.00241589546204,0.00143814086914,0.00122499465942,0.000159978866577,0.106611013412
45,0.0027379989624,0.00122690200806,0.0011579990387,0.000157117843628,0.0341579914093
46,0.00229501724243,0.00139689445496,0.00122404098511,0.000159025192261,0.0352578163147
47,0.00230622291565,0.00126576423645,0.00113201141357,0.000157117843628,0.0436661243439
48,0.00304913520813,0.00117206573486,0.00116920471191,0.000154972076416,0.0493190288544
49,0.00246500968933,0.00124406814575,0.00119495391846,0.000154972076416,0.045884847641
50,0.00265693664551,0.00120091438293,0.00118494033813,0.000151872634888,0.0487031936646
51,0.00255608558655,0.00144195556641,0.00134897232056,0.000163078308105,0.131738901138
52,0.00247097015381,0.00133800506592,0.00120496749878,0.000157117843628,0.0534520149231
53,0.00246691703796,0.00127696990967,0.00123500823975,0.000156164169312,0.046324968338
54,0.00247526168823,0.00117206573486,0.00112199783325,0.0001540184021,0.0468509197235
55,0.00258374214172,0.00120496749878,0.00124788284302,0.000152826309204,0.0547089576721
56,0.0023500919342,0.00127291679382,0.00158905982971,0.000200033187866,0.0480978488922
57,0.00244903564453,0.00151205062866,0.00123381614685,0.000157833099365,0.049103975296
58,0.00251030921936,0.00135087966919,0.00118494033813,0.000156879425049,0.0569899082184
59,0.00249314308167,0.00133109092712,0.00113892555237,0.000154972076416,0.0502460002899
60,0.00242328643799,0.00127983093262,0.00118017196655,0.000154972076416,0.0475001335144
61,0.00281381607056,0.0012640953064,0.00130081176758,0.00016713142395,0.0563929080963
62,0.00247502326965,0.00126504898071,0.00117301940918,0.000154972076416,0.0559170246124
63,0.00999212265015,0.00145101547241,0.00116395950317,0.000159978866577,0.145532846451
64,0.00243401527405,0.00142312049866,0.00119686126709,0.000158071517944,0.0603911876678
65,0.00247097015381,0.00135183334351,0.00125694274902,0.000156879425049,0.0550990104675
66,0.00906801223755,0.00132322311401,0.00123882293701,0.000154972076416,0.0598680973053
67,0.00249409675598,0.00117492675781,0.00119304656982,0.0001540184021,0.0612099170685
68,0.00240588188171,0.00128698348999,0.00152206420898,0.000195980072021,0.0841360092163
69,0.00256395339966,0.00155591964722,0.00133585929871,0.000160932540894,0.0594379901886
70,0.0025360584259,0.00135517120361,0.00117778778076,0.000157117843628,0.0627579689026
71,0.00249195098877,0.00137996673584,0.00122380256653,0.000155925750732,0.0739200115204
72,0.00264096260071,0.00124382972717,0.00111889839172,0.0001540184021,0.0633411407471
73,0.00245189666748,0.00115299224854,0.00116014480591,0.000153064727783,0.066015958786
74,0.0100638866425,0.00126695632935,0.00124597549438,0.000152111053467,0.0949809551239
75,0.00256204605103,0.00141310691833,0.00126194953918,0.000166177749634,0.288594007492
76,0.00239992141724,0.00137519836426,0.00116086006165,0.000156879425049,0.0568740367889
77,0.00290894508362,0.00144410133362,0.00126099586487,0.000162124633789,0.0876128673553
78,0.00255966186523,0.00136494636536,0.00126695632935,0.0001540184021,0.0838689804077
79,0.0024881362915,0.00122714042664,0.00119805335999,0.000152826309204,0.0743498802185
80,0.00630879402161,0.00117301940918,0.00141000747681,0.000185012817383,0.0754768848419
81,0.00268721580505,0.00142383575439,0.0011899471283,0.000158071517944,0.0746939182281
82,0.00976300239563,0.00136208534241,0.00125479698181,0.000157117843628,0.104851961136
83,0.00233697891235,0.00131797790527,0.0012321472168,0.000154972076416,0.0826380252838
84,0.00312209129333,0.0012481212616,0.00118112564087,0.000153064727783,0.0706460475922
85,0.00249361991882,0.00170803070068,0.00134301185608,0.000166893005371,0.155174016953
86,0.0027220249176,0.00135898590088,0.00136399269104,0.000217914581299,0.0733418464661
87,0.00760889053345,0.00137495994568,0.00123500823975,0.000160932540894,0.0843319892883
88,0.00265693664551,0.00135183334351,0.00117611885071,0.000163078308105,0.335029840469
89,0.00307989120483,0.0012469291687,0.00116109848022,0.000159978866577,0.0816369056702
90,0.00303101539612,0.00180602073669,0.00136113166809,0.00017786026001,0.0877630710602
91,0.00315189361572,0.00161910057068,0.00140285491943,0.000182867050171,0.0976490974426
92,0.00302195549011,0.00156116485596,0.00126695632935,0.000156164169312,0.106641054153
93,0.00238299369812,0.00131392478943,0.00122904777527,0.000157117843628,0.0822620391846
94,0.00246095657349,0.00116014480591,0.00118494033813,0.000153064727783,0.0834369659424
95,0.0025429725647,0.00157904624939,0.00118684768677,0.000159978866577,0.190299034119
96,0.00241112709045,0.00143098831177,0.00116300582886,0.000157833099365,0.0849411487579
97,0.00245404243469,0.00137710571289,0.00142908096313,0.000176191329956,0.0766959190369
98,0.00298500061035,0.00141310691833,0.00132417678833,0.000169992446899,0.106793880463
99,0.0029730796814,0.00118708610535,0.00116610527039,0.000153064727783,0.0858869552612
