step,run,get,set,free,run_up_to_step
0,0.00707578659058,0.0210499763489,0.0196490287781,0.00367093086243,0.00802707672119
1,0.00354719161987,0.0187609195709,0.0193328857422,0.00384783744812,0.0113899707794
2,0.0108330249786,0.0187160968781,0.0196747779846,0.00376915931702,0.0165991783142
3,0.00449109077454,0.0191211700439,0.0207710266113,0.0038959980011,0.0181391239166
4,0.00620579719543,0.0196459293365,0.0203020572662,0.00440311431885,0.0211780071259
5,0.00520873069763,0.0195889472961,0.0227999687195,0.00432085990906,0.0235221385956
6,0.00428509712219,0.0197529792786,0.0209381580353,0.00409913063049,0.023227930069
7,0.00373697280884,0.0203900337219,0.0213901996613,0.00422191619873,0.0240840911865
8,0.00374698638916,0.0201539993286,0.0328600406647,0.00428795814514,0.0250699520111
9,0.00393176078796,0.0201318264008,0.0209739208221,0.00404095649719,0.0259280204773
10,0.0127582550049,0.0204548835754,0.0223410129547,0.00464010238647,0.0365488529205
11,0.00679111480713,0.0204410552979,0.0230147838593,0.00469303131104,0.0372741222382
12,0.00694394111633,0.0206251144409,0.0217521190643,0.0042781829834,0.0388948917389
13,0.00654888153076,0.0210180282593,0.0219972133636,0.00420999526978,0.0409319400787
14,0.00643181800842,0.0206949710846,0.0218110084534,0.00419282913208,0.0463399887085
15,0.00660490989685,0.0213260650635,0.022656917572,0.0042769908905,0.0646419525146
16,0.006502866745,0.0209720134735,0.0228219032288,0.00429582595825,0.0466279983521
17,0.00669479370117,0.0212390422821,0.0225458145142,0.00416994094849,0.0601890087128
18,0.00659322738647,0.0212588310242,0.0416581630707,0.00440096855164,0.0508780479431
19,0.00654006004333,0.0216789245605,0.0227749347687,0.00450992584229,0.0517380237579
20,0.00717377662659,0.0218760967255,0.0225739479065,0.00437998771667,0.0532910823822
21,0.00690317153931,0.0212299823761,0.0242540836334,0.00431990623474,0.0562632083893
22,0.00712299346924,0.0213420391083,0.022362947464,0.00429797172546,0.0559020042419
23,0.00703716278076,0.0213980674744,0.0231280326843,0.00434899330139,0.0567920207977
24,0.00865387916565,0.0218200683594,0.0224409103394,0.00440406799316,0.0601489543915
25,0.00382089614868,0.0217988491058,0.0228731632233,0.00436305999756,0.0611820220947
26,0.00957417488098,0.0214381217957,0.0226359367371,0.00440883636475,0.0615148544312
27,0.00462508201599,0.0216150283813,0.0226590633392,0.00444889068604,0.0634450912476
28,0.00464797019958,0.0216588973999,0.0232799053192,0.00454306602478,0.0639100074768
29,0.00400114059448,0.022078037262,0.0238678455353,0.00447797775269,0.0650959014893
30,0.00390124320984,0.0205338001251,0.0213730335236,0.00419807434082,0.0879058837891
31,0.0083019733429,0.0205330848694,0.0213139057159,0.00422620773315,0.0698490142822
32,0.00730872154236,0.0201981067657,0.0215508937836,0.00425696372986,0.0708558559418
33,0.011449098587,0.0205471515656,0.0216121673584,0.00429391860962,0.0815589427948
34,0.0109610557556,0.0206639766693,0.0217049121857,0.00435495376587,0.0814368724823
35,0.00549173355103,0.0203111171722,0.0215060710907,0.00429201126099,0.0839149951935
36,0.00564694404602,0.0216391086578,0.0229599475861,0.00473093986511,0.0867159366608
37,0.00402593612671,0.0200309753418,0.0210058689117,0.00415515899658,0.0846331119537
38,0.00408291816711,0.0205149650574,0.0215909481049,0.00430607795715,0.135054826736
39,0.00532388687134,0.0205268859863,0.0216619968414,0.00437712669373,0.0856518745422
40,0.00759983062744,0.0206639766693,0.0214431285858,0.00453400611877,0.0896489620209
41,0.00728034973145,0.0209648609161,0.0220959186554,0.00496196746826,0.147432088852
42,0.00621485710144,0.0206129550934,0.0218551158905,0.00460696220398,0.0954990386963
43,0.00606775283813,0.0199959278107,0.0210859775543,0.00417804718018,0.0930759906769
44,0.00726628303528,0.0211710929871,0.0217339992523,0.00436496734619,0.151170969009
45,0.00642609596252,0.0208730697632,0.021754026413,0.00447607040405,0.0961430072784
46,0.00609874725342,0.020788192749,0.0213370323181,0.00465202331543,0.0967738628387
47,0.00758695602417,0.0210659503937,0.021427154541,0.00441813468933,0.160862922668
48,0.00606513023376,0.0203759670258,0.0217289924622,0.00440192222595,0.0999100208282
49,0.00624585151672,0.0216889381409,0.0239231586456,0.00476312637329,0.109530210495
50,0.00616407394409,0.0207540988922,0.0218100547791,0.00447916984558,0.103467941284
51,0.00688123703003,0.0232050418854,0.0216600894928,0.00427794456482,0.127377986908
52,0.00646901130676,0.0214869976044,0.0220139026642,0.00460696220398,0.140189170837
53,0.00639986991882,0.020781993866,0.021714925766,0.00435280799866,0.106600046158
54,0.0063009262085,0.0205991268158,0.0216491222382,0.00456380844116,0.107255935669
55,0.00654196739197,0.0214719772339,0.0223488807678,0.00457119941711,0.109844207764
56,0.0092408657074,0.0207209587097,0.0216629505157,0.0045120716095,0.112807035446
57,0.0143687725067,0.0213799476624,0.0227088928223,0.00461220741272,0.159058094025
58,0.00481510162354,0.02108502388,0.0214951038361,0.00433802604675,0.124049901962
59,0.00493311882019,0.0204589366913,0.0212938785553,0.00426506996155,0.125410079956
60,0.00645422935486,0.0208759307861,0.0223391056061,0.0047619342804,0.214452981949
61,0.00396633148193,0.0206480026245,0.0216059684753,0.00439500808716,0.128288030624
62,0.00408911705017,0.0204148292542,0.023313999176,0.00445199012756,0.13153219223
63,0.00389671325684,0.0209450721741,0.0218648910522,0.00437808036804,0.133517980576
64,0.0040488243103,0.0208010673523,0.0215258598328,0.00455403327942,0.130069971085
65,0.0104629993439,0.0212671756744,0.0465610027313,0.00459814071655,0.175431013107
66,0.0078489780426,0.0208802223206,0.0218269824982,0.00483512878418,0.280694961548
67,0.00699687004089,0.0207347869873,0.024276971817,0.00472402572632,0.143455028534
68,0.0068953037262,0.0218591690063,0.022097826004,0.0044801235199,0.144283056259
69,0.00667500495911,0.0207288265228,0.0221858024597,0.00446081161499,0.147072076797
70,0.00661873817444,0.0217139720917,0.0225579738617,0.00447797775269,0.185356140137
71,0.00660300254822,0.0210349559784,0.0223450660706,0.00434517860413,0.158625125885
72,0.00916123390198,0.0221581459045,0.0232968330383,0.00457286834717,0.21878695488
73,0.00402307510376,0.0213098526001,0.0223059654236,0.00463914871216,0.153506040573
74,0.00665712356567,0.0212731361389,0.0219089984894,0.00468587875366,0.176523923874
75,0.0054132938385,0.0221009254456,0.0224199295044,0.00457692146301,0.162473917007
76,0.00432705879211,0.0212609767914,0.0222868919373,0.00475001335144,0.159998178482
77,0.00825810432434,0.0216519832611,0.0226440429688,0.00454688072205,0.202561855316
78,0.00798797607422,0.0216760635376,0.0221309661865,0.00451397895813,0.16331911087
79,0.00734901428223,0.0207500457764,0.0245261192322,0.0046648979187,0.164211034775
80,0.00758504867554,0.0219748020172,0.0225989818573,0.00462913513184,0.166760921478
81,0.0083441734314,0.021360874176,0.0221621990204,0.00472807884216,0.168523073196
82,0.0076367855072,0.0223801136017,0.023766040802,0.00486588478088,0.171656131744
83,0.0076539516449,0.0216450691223,0.0230031013489,0.00507688522339,0.172190904617
84,0.00794816017151,0.022912979126,0.0234849452972,0.00490188598633,0.216711044312
85,0.00800585746765,0.0221378803253,0.0228219032288,0.00477695465088,0.173929929733
86,0.00810790061951,0.0240428447723,0.0255749225616,0.00516390800476,0.219047784805
87,0.00893592834473,0.0226111412048,0.0233330726624,0.00468707084656,0.179473876953
88,0.0106027126312,0.0213360786438,0.0220079421997,0.00451993942261,0.180751085281
89,0.0102598667145,0.0220890045166,0.0231199264526,0.00461101531982,0.231928110123
90,0.00683999061584,0.0214459896088,0.022420167923,0.00462889671326,0.195202112198
91,0.00683498382568,0.0222361087799,0.0231781005859,0.00463485717773,0.256447076797
92,0.00666379928589,0.0214109420776,0.0226259231567,0.0045280456543,0.191447019577
93,0.00670289993286,0.0228028297424,0.0232338905334,0.00489020347595,0.224921941757
94,0.00893306732178,0.021210193634,0.0223829746246,0.00452089309692,0.198306083679
95,0.0110039710999,0.0212199687958,0.0217020511627,0.00436401367188,0.22323012352
96,0.0112669467926,0.0215580463409,0.0227031707764,0.0046169757843,0.205223083496
97,0.00531792640686,0.0209460258484,0.0235760211945,0.00440192222595,0.204434156418
98,0.00421190261841,0.0219049453735,0.0235259532928,0.00482797622681,0.246492862701
99,0.00439715385437,0.0233221054077,0.0225098133087,0.00468492507935,0.214130878448
