step,run,get,set,free,run_up_to_step
0,0.106637954712,0.0164039134979,0.014867067337,0.0023021697998,0.0453388690948
1,0.0244448184967,0.0135118961334,0.0129539966583,0.00233888626099,0.0331118106842
2,0.0236210823059,0.0133202075958,0.0131211280823,0.00227403640747,0.0424749851227
3,0.0240609645844,0.013277053833,0.0140120983124,0.00245094299316,0.0386400222778
4,0.0401616096497,0.0136091709137,0.0138649940491,0.00248599052429,0.0512280464172
5,0.0267648696899,0.0136408805847,0.0131640434265,0.00243496894836,0.0667259693146
6,0.0195631980896,0.0135650634766,0.0130717754364,0.00252795219421,0.0963039398193
7,0.0357658863068,0.0132699012756,0.013683795929,0.00248003005981,0.0669040679932
8,0.0280742645264,0.0134980678558,0.0137610435486,0.00250291824341,0.105684041977
9,0.0257022380829,0.0134851932526,0.013414144516,0.00264000892639,0.0919508934021
10,0.0207078456879,0.0129179954529,0.0137000083923,0.00250196456909,0.0904181003571
11,0.0309631824493,0.0134601593018,0.0130231380463,0.00245690345764,0.111353874207
12,0.0351960659027,0.0130050182343,0.0134670734406,0.0026741027832,0.445934057236
13,0.0242381095886,0.0135297775269,0.0134971141815,0.00273203849792,0.124887943268
14,0.0523300170898,0.0132818222046,0.0132858753204,0.00267386436462,0.134042024612
15,0.03626704216,0.0131731033325,0.0137889385223,0.00278091430664,0.192923069
16,0.0251278877258,0.013277053833,0.0130369663239,0.00273203849792,0.293815851212
17,0.0283598899841,0.0133311748505,0.0135409832001,0.0028350353241,0.151939868927
18,0.0265960693359,0.0133140087128,0.0134179592133,0.00278401374817,0.158939123154
19,0.0287380218506,0.0135369300842,0.0134189128876,0.00268888473511,0.183615922928
20,0.26863694191,0.0134799480438,0.0139260292053,0.00303816795349,0.242656946182
21,0.0281839370728,0.0129029750824,0.0134179592133,0.00296902656555,0.191207170486
22,0.042918920517,0.0131788253784,0.0131378173828,0.00277900695801,0.249253034592
23,0.0436098575592,0.0131721496582,0.0133512020111,0.00299501419067,0.267270088196
24,0.062038898468,0.0133159160614,0.0129499435425,0.00292491912842,0.342447042465
25,0.0525121688843,0.0124800205231,0.0136120319366,0.00347208976746,0.333357095718
26,0.0308568477631,0.0134391784668,0.0133798122406,0.00290703773499,0.294826984406
27,0.0470762252808,0.0132460594177,0.0136070251465,0.00292205810547,0.352458000183
28,0.0454387664795,0.0128190517426,0.013473033905,0.00299000740051,0.559434175491
29,0.0338180065155,0.0133838653564,0.0132310390472,0.00293588638306,0.349416017532
30,0.0852959156036,0.0132880210876,0.0131328105927,0.00305795669556,0.415498971939
31,0.0595779418945,0.0131781101227,0.0131471157074,0.00297117233276,0.421507120132
32,0.0432629585266,0.0129170417786,0.013053894043,0.00306606292725,0.457203865051
33,0.16924905777,0.013090133667,0.0131449699402,0.00326800346375,1.66730690002
34,0.0360560417175,0.0141470432281,0.0136489868164,0.00304198265076,0.525842189789
35,0.105072975159,0.0134708881378,0.0134859085083,0.00291800498962,0.557183027267
36,0.0804927349091,0.0123028755188,0.0136690139771,0.0030210018158,0.601980924606
37,0.0524191856384,0.014769077301,0.0134999752045,0.00351405143738,1.06009888649
38,0.0501091480255,0.0124771595001,0.0130400657654,0.00293588638306,0.655406951904
39,0.0532619953156,0.0133829116821,0.0138318538666,0.00370621681213,0.633013010025
40,0.0492622852325,0.013209104538,0.0133490562439,0.00343298912048,0.673993110657
41,0.0390999317169,0.0134348869324,0.0130589008331,0.00302004814148,0.663320064545
42,0.0582687854767,0.0124561786652,0.0136368274689,0.00356721878052,1.10771894455
43,0.0614900588989,0.0124959945679,0.0136179924011,0.00301098823547,0.888618946075
44,0.0358579158783,0.0132920742035,0.013491153717,0.00323295593262,0.796453952789
45,0.0489809513092,0.01349401474,0.0129280090332,0.00296401977539,1.29323101044
46,0.0317251682281,0.0130248069763,0.0151989459991,0.00359082221985,1.3247718811
47,0.0833623409271,0.0143058300018,0.0135459899902,0.00333905220032,0.894391059875
48,0.0418729782104,0.0135269165039,0.0131778717041,0.00300312042236,1.21802306175
49,0.0441250801086,0.0133209228516,0.0132641792297,0.0029411315918,1.47109508514
50,0.0377950668335,0.0133669376373,0.0138909816742,0.00325989723206,0.877853870392
51,0.0410778522491,0.0133211612701,0.0133130550385,0.00302410125732,0.900327205658
52,0.0455243587494,0.0132839679718,0.0135109424591,0.00304794311523,0.949920892715
53,0.566268920898,0.0133190155029,0.0136351585388,0.00329804420471,1.01373505592
54,0.0251979827881,0.0133938789368,0.0131039619446,0.0031578540802,1.20520496368
55,0.0384356975555,0.0134379863739,0.0141410827637,0.0036768913269,0.947556972504
56,0.0330059528351,0.0133330821991,0.01389503479,0.00323987007141,1.00565814972
57,0.0297148227692,0.0134861469269,0.0130279064178,0.00294303894043,1.03241896629
58,0.0509970188141,0.013454914093,0.0144720077515,0.00420498847961,1.10122704506
59,0.0705432891846,0.0135600566864,0.0133371353149,0.00311183929443,1.14264798164
60,0.0373802185059,0.013622045517,0.0139448642731,0.00356197357178,1.02163100243
61,0.0253791809082,0.0132460594177,0.0166368484497,0.00359606742859,1.14625501633
62,0.0301878452301,0.0135309696198,0.0130097866058,0.0031201839447,1.13277196884
63,0.0513150691986,0.0129799842834,0.0135130882263,0.00304388999939,1.88409304619
64,0.0634486675262,0.0134789943695,0.0130541324615,0.00311088562012,1.52697491646
65,0.0409340858459,0.0130989551544,0.0135488510132,0.00326585769653,1.6459300518
66,0.039665222168,0.0135049819946,0.0152068138123,0.00329089164734,1.33494615555
67,0.0480399131775,0.0134460926056,0.013023853302,0.00297021865845,1.23248291016
68,0.0326309204102,0.0131258964539,0.0138812065125,0.00294613838196,2.00189590454
69,0.665568113327,0.0151700973511,0.0180861949921,0.00368499755859,1.23215794563
70,0.0381429195404,0.0134670734406,0.0139939785004,0.00309705734253,1.21826100349
71,0.0884399414062,0.0138099193573,0.013592004776,0.00323104858398,1.29361486435
72,0.0538930892944,0.0133559703827,0.0138330459595,0.00293493270874,1.16555595398
73,0.0442287921906,0.0134210586548,0.0130081176758,0.00292992591858,1.1422560215
74,0.066887140274,0.0128960609436,0.0133049488068,0.00292801856995,1.89283514023
75,0.0595338344574,0.0133638381958,0.0137710571289,0.00293898582458,1.28093385696
76,0.0473039150238,0.0135200023651,0.0135169029236,0.00386309623718,1.21651005745
77,0.0367748737335,0.0135281085968,0.0138878822327,0.00299501419067,1.44399690628
78,0.0351159572601,0.0132100582123,0.0137329101562,0.00295400619507,1.16641402245
79,0.0361330509186,0.0135469436646,0.0137319564819,0.00363802909851,1.3332760334
80,0.0893812179565,0.0133261680603,0.0159721374512,0.0037899017334,2.15638804436
81,0.0479669570923,0.0135819911957,0.0137581825256,0.00315618515015,1.32732820511
82,0.0533547401428,0.0131049156189,0.0138440132141,0.00313901901245,2.11248707771
83,0.479062318802,0.0136930942535,0.0134451389313,0.00291705131531,1.222001791
84,0.178852081299,0.0131390094757,0.0139849185944,0.00316596031189,2.12259483337
85,0.0292830467224,0.0135359764099,0.0131380558014,0.00295615196228,1.6471529007
86,0.0554027557373,0.0132479667664,0.0136430263519,0.00299501419067,1.96651887894
87,0.0599420070648,0.0134449005127,0.0130159854889,0.0029890537262,1.45849013329
88,0.0263671875,0.0128228664398,0.0131928920746,0.00307393074036,2.33244609833
89,0.0442409515381,0.0132949352264,0.0139830112457,0.00320100784302,1.81210803986
90,0.0347921848297,0.0133509635925,0.0144019126892,0.00321006774902,1.47892189026
91,0.0629768371582,0.0129578113556,0.0134389400482,0.00296401977539,2.36679911613
92,0.29510307312,0.0133280754089,0.0138611793518,0.00305199623108,2.38807415962
93,0.0494101047516,0.0153031349182,0.013857126236,0.00321817398071,2.01905107498
94,0.0431482791901,0.0133769512177,0.0137631893158,0.00306296348572,2.21059608459
95,0.0309472084045,0.0134019851685,0.0139219760895,0.00343012809753,2.07060289383
96,0.0408642292023,0.0134360790253,0.0135090351105,0.00357007980347,1.62425613403
97,0.0399641990662,0.0132968425751,0.0147540569305,0.0038480758667,1.70066809654
98,0.0604791641235,0.0134720802307,0.0137660503387,0.00294017791748,1.52537608147
99,0.0407729148865,0.0129969120026,0.0135049819946,0.00292992591858,2.19987893105
