step,run,get,set,free,run_up_to_step
0,0.0215289592743,0.0261099338531,0.0266709327698,0.00241994857788,0.0222229957581
1,0.0130879878998,0.0258169174194,0.0271120071411,0.00273299217224,0.02751994133
2,0.0129163265228,0.0245890617371,0.0257370471954,0.00265908241272,0.0254728794098
3,0.0136640071869,0.0253200531006,0.0284509658813,0.0039210319519,0.035010099411
4,0.0144062042236,0.0264120101929,0.0283751487732,0.00270199775696,0.0345029830933
5,0.0129551887512,0.0256259441376,0.0280640125275,0.00291609764099,0.0385320186615
6,0.0168609619141,0.0258619785309,0.0277349948883,0.00298190116882,0.0374500751495
7,0.0122308731079,0.0239748954773,0.0266032218933,0.00277018547058,0.0386140346527
8,0.014034986496,0.0251770019531,0.0270841121674,0.00287699699402,0.0455570220947
9,0.0136387348175,0.0256450176239,0.0268888473511,0.00293898582458,0.0390288829803
10,0.0119910240173,0.0252480506897,0.0278298854828,0.00306797027588,0.0398421287537
11,0.0132591724396,0.0255389213562,0.0276250839233,0.0028178691864,0.0424389839172
12,0.0118658542633,0.0253200531006,0.0276920795441,0.00276303291321,0.0407021045685
13,0.0125930309296,0.0258369445801,0.0285098552704,0.00307679176331,0.0440058708191
14,0.0132110118866,0.0258700847626,0.0286469459534,0.00314998626709,0.0481379032135
15,0.0588161945343,0.0253179073334,0.0281159877777,0.00296688079834,0.0503959655762
16,0.0124728679657,0.0252561569214,0.0279800891876,0.00306916236877,0.0549719333649
17,0.0122199058533,0.0244219303131,0.0278980731964,0.00293493270874,0.0569429397583
18,0.0135719776154,0.0258400440216,0.0290789604187,0.00290203094482,0.0607061386108
19,0.0129768848419,0.0248069763184,0.0284819602966,0.00278186798096,0.0611479282379
20,0.0125699043274,0.0257389545441,0.0281729698181,0.00278997421265,0.0592188835144
21,0.0130391120911,0.0266060829163,0.0286870002747,0.00312113761902,0.0626180171967
22,0.0129239559174,0.0259230136871,0.0291948318481,0.0031681060791,0.0856900215149
23,0.0137088298798,0.0259258747101,0.0292580127716,0.00298690795898,0.0685200691223
24,0.0138611793518,0.0273089408875,0.0301117897034,0.00324702262878,0.086991071701
25,0.0121541023254,0.0254831314087,0.0290768146515,0.00336098670959,0.0674338340759
26,0.0130982398987,0.0264420509338,0.0286140441895,0.00309300422668,0.0720398426056
27,0.0127620697021,0.0263750553131,0.0293610095978,0.00322890281677,0.0954358577728
28,0.0136182308197,0.0272109508514,0.0293109416962,0.0032901763916,0.0762751102448
29,0.0137782096863,0.0272529125214,0.0295078754425,0.00328803062439,0.097088098526
30,0.0123403072357,0.0265278816223,0.0276529788971,0.00318598747253,0.0805571079254
31,0.014564037323,0.0267450809479,0.029632806778,0.00353002548218,0.0820679664612
32,0.0140459537506,0.0268270969391,0.0299818515778,0.00335884094238,0.113914012909
33,0.0129880905151,0.0280621051788,0.0288560390472,0.00305199623108,0.0864868164062
34,0.0141739845276,0.02587890625,0.0293900966644,0.00319194793701,0.138792037964
35,0.0127248764038,0.0259227752686,0.0319077968597,0.00370907783508,0.114448070526
36,0.013571023941,0.0265209674835,0.0321640968323,0.00305008888245,0.0922141075134
37,0.012011051178,0.0254189968109,0.0274851322174,0.00306606292725,0.110446929932
38,0.0136280059814,0.0274450778961,0.0300290584564,0.00331711769104,0.0917689800262
39,0.012188911438,0.0259418487549,0.0288970470428,0.00368404388428,0.0927131175995
40,0.0128057003021,0.0281908512115,0.0292031764984,0.00321698188782,0.115901947021
41,0.0155658721924,0.0262207984924,0.0273368358612,0.00309300422668,0.0940809249878
42,0.0129699707031,0.0278940200806,0.0281159877777,0.00344610214233,0.0966069698334
43,0.02099609375,0.0257968902588,0.0289978981018,0.00332403182983,0.124773979187
44,0.0125579833984,0.0271010398865,0.0282549858093,0.00360298156738,0.101969003677
45,0.0142900943756,0.0271201133728,0.0305089950562,0.00403594970703,0.128573894501
46,0.0129277706146,0.0274910926819,0.0306749343872,0.00371384620667,0.106482982635
47,0.0131008625031,0.0285279750824,0.029452085495,0.0037829875946,0.134639024734
48,0.0528600215912,0.0288660526276,0.0292649269104,0.00355291366577,0.350805044174
49,0.0228831768036,0.0273361206055,0.0291838645935,0.00339007377625,0.110390901566
50,0.0227839946747,0.0296680927277,0.0310230255127,0.00389194488525,0.117634057999
51,0.015200138092,0.0262820720673,0.0299680233002,0.00336194038391,0.263802051544
52,0.024533033371,0.0272040367126,0.0289311408997,0.0033540725708,0.124922037125
53,0.0115580558777,0.0180940628052,0.0291731357574,0.00428915023804,0.147284984589
54,0.0209090709686,0.0267999172211,0.0294218063354,0.0034658908844,0.144819021225
55,0.0135772228241,0.0274200439453,0.0289108753204,0.00311398506165,0.280119895935
56,0.0129849910736,0.0272059440613,0.0291121006012,0.00428915023804,0.123172998428
57,0.0193421840668,0.0272030830383,0.0290451049805,0.00330305099487,0.371108055115
58,0.0136961936951,0.0275528430939,0.0286228656769,0.00309491157532,0.126424074173
59,0.0132510662079,0.0267808437347,0.0292620658875,0.00364899635315,0.402196884155
60,0.0129690170288,0.0269911289215,0.0306220054626,0.00333118438721,0.128744125366
61,0.0128538608551,0.026948928833,0.0287821292877,0.00331807136536,0.131801128387
62,0.0132448673248,0.0272660255432,0.0315730571747,0.00383901596069,0.173892021179
63,0.0142860412598,0.0278239250183,0.0240340232849,0.00238513946533,0.133094072342
64,0.0135440826416,0.0277450084686,0.0296370983124,0.0040910243988,0.158243179321
65,0.0191712379456,0.026214838028,0.0239598751068,0.00231790542603,0.160382986069
66,0.0138161182404,0.0266318321228,0.0296819210052,0.00339198112488,0.139657020569
67,0.0137178897858,0.0288898944855,0.0305759906769,0.00363802909851,0.153726816177
68,0.0156722068787,0.0278849601746,0.0308599472046,0.00353693962097,0.253999948502
69,0.0283689498901,0.0275619029999,0.0293130874634,0.00371503829956,0.162806034088
70,0.0221772193909,0.0276110172272,0.0294229984283,0.00344610214233,0.178970813751
71,0.0131962299347,0.0271790027618,0.0299129486084,0.00357389450073,0.190989971161
72,0.014643907547,0.0276868343353,0.028342962265,0.0035707950592,0.165405988693
73,0.0134398937225,0.0275981426239,0.0287630558014,0.00336098670959,0.179004907608
74,0.049859046936,0.0277168750763,0.0293757915497,0.00364112854004,0.161368131638
75,0.0142183303833,0.027223110199,0.0291740894318,0.00309300422668,0.163960933685
76,0.0254929065704,0.0274231433868,0.0293140411377,0.003741979599,0.325570106506
77,0.0141718387604,0.0275280475616,0.0281748771667,0.00352001190186,0.16327214241
78,0.0134000778198,0.0279040336609,0.0288698673248,0.00368690490723,0.17006111145
79,0.0254399776459,0.0278418064117,0.0295600891113,0.00365400314331,0.19149518013
80,0.0544457435608,0.0281760692596,0.0295901298523,0.00382709503174,0.162558078766
81,0.0209457874298,0.0275239944458,0.0290679931641,0.00351095199585,0.174883127213
82,0.0243101119995,0.0277578830719,0.0297160148621,0.00378799438477,0.210722208023
83,0.04336810112,0.0295069217682,0.0302238464355,0.00373911857605,0.21285200119
84,0.0193710327148,0.0275020599365,0.0293049812317,0.00362300872803,0.197235822678
85,0.0283720493317,0.0282108783722,0.0286769866943,0.00335693359375,0.335619926453
86,0.131293773651,0.0286679267883,0.030266046524,0.00374603271484,0.160043001175
87,0.0112929344177,0.0189890861511,0.0295960903168,0.00357604026794,0.217767953873
88,0.0141179561615,0.0273220539093,0.0297040939331,0.00359916687012,0.218617916107
89,0.0301609039307,0.0279500484467,0.0298700332642,0.00358009338379,0.245151996613
90,0.0131008625031,0.0274939537048,0.0298960208893,0.00323891639709,0.201949119568
91,0.0132539272308,0.0278789997101,0.0292799472809,0.00353288650513,0.196063995361
92,0.0322768688202,0.02467918396,0.0300719738007,0.00372099876404,0.23625087738
93,0.0233261585236,0.0272550582886,0.0293049812317,0.00339603424072,0.19889998436
94,0.0200979709625,0.0276188850403,0.0295569896698,0.00357913970947,0.201347112656
95,0.0221302509308,0.0282809734344,0.0323209762573,0.00382995605469,0.226731061935
96,0.528683900833,0.0275549888611,0.0309410095215,0.00368213653564,0.206707954407
97,0.0200002193451,0.0282981395721,0.0297908782959,0.00383901596069,0.23272395134
98,0.0133299827576,0.0288989543915,0.0306391716003,0.00386810302734,0.247437953949
99,0.0138099193573,0.0285339355469,0.0301539897919,0.00368690490723,0.247580051422
