step,run,get,set,free,run_up_to_step
0,0.00263595581055,0.00260305404663,0.00231719017029,0.00031304359436,0.00442504882812
1,0.00282096862793,0.00241804122925,0.0024471282959,0.000309944152832,0.0048999786377
2,0.00323486328125,0.00250720977783,0.00243186950684,0.000319957733154,0.00502896308899
3,0.0029399394989,0.00241208076477,0.00236082077026,0.000320911407471,0.00538086891174
4,0.00289702415466,0.00241589546204,0.00237894058228,0.000311851501465,0.00595998764038
5,0.0028829574585,0.00243997573853,0.00241804122925,0.000316858291626,0.00639891624451
6,0.00238108634949,0.00243806838989,0.00235295295715,0.00031304359436,0.00639700889587
7,0.00284695625305,0.00242209434509,0.00233006477356,0.000325918197632,0.00715899467468
8,0.00255393981934,0.00232100486755,0.00229406356812,0.000318050384521,0.038537979126
9,0.00262022018433,0.0025098323822,0.00232887268066,0.000327110290527,0.00886487960815
10,0.00260400772095,0.00234913825989,0.00240087509155,0.000319957733154,0.00919795036316
11,0.00299191474915,0.00242877006531,0.00228714942932,0.000334024429321,0.00900793075562
12,0.00262999534607,0.0024471282959,0.00236821174622,0.000312089920044,0.00973415374756
13,0.00209617614746,0.00242614746094,0.00224494934082,0.000329971313477,0.00980520248413
14,0.00244808197021,0.00241494178772,0.00222516059875,0.000312089920044,0.0100929737091
15,0.00209593772888,0.00246214866638,0.00235295295715,0.000314950942993,0.010910987854
16,0.00207591056824,0.00236201286316,0.0021641254425,0.000308990478516,0.0117599964142
17,0.00238490104675,0.00252890586853,0.00233197212219,0.000322103500366,0.0444049835205
18,0.0020592212677,0.00252103805542,0.00239992141724,0.000319957733154,0.0125930309296
19,0.00241279602051,0.00257611274719,0.00232601165771,0.00031590461731,0.0130228996277
20,0.00223016738892,0.00254106521606,0.00224614143372,0.00031304359436,0.0138130187988
21,0.0033700466156,0.00244188308716,0.00230002403259,0.000327825546265,0.0346031188965
22,0.0022029876709,0.00238299369812,0.00230407714844,0.000312805175781,0.0142509937286
23,0.00209903717041,0.00237894058228,0.00242185592651,0.000322103500366,0.0148901939392
24,0.00220894813538,0.00259304046631,0.0023410320282,0.000338077545166,0.0612549781799
25,0.00217914581299,0.00259208679199,0.002445936203,0.000325202941895,0.0158648490906
26,0.0026228427887,0.00247120857239,0.0023729801178,0.000321865081787,0.0165030956268
27,0.0021378993988,0.00247192382812,0.00241494178772,0.000321865081787,0.017758846283
28,0.00207805633545,0.00254797935486,0.00232291221619,0.000318050384521,0.0173788070679
29,0.00253677368164,0.00248599052429,0.00226306915283,0.00031590461731,0.0180690288544
30,0.00211000442505,0.00242590904236,0.00231194496155,0.000317811965942,0.0182859897614
31,0.00225496292114,0.00267505645752,0.00239300727844,0.000325918197632,0.0620119571686
32,0.00269484519958,0.00267100334167,0.00239992141724,0.000319957733154,0.0195569992065
33,0.0023090839386,0.00257205963135,0.00227403640747,0.000314950942993,0.0200710296631
34,0.00269198417664,0.00248789787292,0.0023980140686,0.000329971313477,0.0320971012115
35,0.00221014022827,0.00240397453308,0.00228691101074,0.00031304359436,0.0208568572998
36,0.00277185440063,0.0226838588715,0.00246214866638,0.000319004058838,0.0328660011292
37,0.00222110748291,0.0027220249176,0.00239014625549,0.00032901763916,0.0551598072052
38,0.00248193740845,0.00266003608704,0.00226998329163,0.000321865081787,0.0222539901733
39,0.00258088111877,0.00274801254272,0.00231599807739,0.000327110290527,0.023934841156
40,0.00202178955078,0.00263285636902,0.00237798690796,0.000324964523315,0.0234248638153
41,0.002277135849,0.00261402130127,0.002366065979,0.000319957733154,0.0245718955994
42,0.0026490688324,0.00270318984985,0.00225186347961,0.000319957733154,0.0250110626221
43,0.00266289710999,0.00253105163574,0.00225400924683,0.000319004058838,0.0246222019196
44,0.00234794616699,0.00267910957336,0.0023729801178,0.000320196151733,0.0251500606537
45,0.00211095809937,0.00271606445312,0.00242590904236,0.000330924987793,0.0767939090729
46,0.00219702720642,0.00268602371216,0.00232696533203,0.000323057174683,0.026909828186
47,0.0023832321167,0.00248908996582,0.00225687026978,0.000316858291626,0.0270531177521
48,0.00225925445557,0.00243902206421,0.00232601165771,0.000311851501465,0.0276999473572
49,0.00219988822937,0.00230097770691,0.00235795974731,0.000313997268677,0.0275099277496
50,0.00204396247864,0.00243401527405,0.00244688987732,0.000311136245728,0.02774310112
51,0.00211095809937,0.00311183929443,0.00239109992981,0.000334024429321,0.130604028702
52,0.00215101242065,0.0028510093689,0.00258207321167,0.000329971313477,0.0299248695374
53,0.00232696533203,0.00264596939087,0.00232410430908,0.000319957733154,0.0317468643188
54,0.00208592414856,0.00244498252869,0.00231218338013,0.000311851501465,0.0302259922028
55,0.00224781036377,0.0023820400238,0.00222897529602,0.000309944152832,0.0307021141052
56,0.00225687026978,0.00252199172974,0.00241899490356,0.000320911407471,0.0306189060211
57,0.0028600692749,0.00296497344971,0.00245404243469,0.000339031219482,0.101389169693
58,0.00211596488953,0.00295400619507,0.00254511833191,0.000329971313477,0.0354509353638
59,0.00214719772339,0.00272703170776,0.00239896774292,0.000324010848999,0.0329780578613
60,0.00242471694946,0.00248694419861,0.00227093696594,0.000314950942993,0.0340950489044
61,0.00209808349609,0.00236892700195,0.00223994255066,0.000312089920044,0.0339579582214
62,0.00207614898682,0.00230407714844,0.00294280052185,0.000388145446777,0.0342488288879
63,0.00204181671143,0.0028018951416,0.00257992744446,0.00032901763916,0.0351719856262
64,0.00238800048828,0.0259218215942,0.0024471282959,0.000322818756104,0.0484158992767
65,0.00216102600098,0.00254893302917,0.00225400924683,0.000317096710205,0.0360968112946
66,0.00210285186768,0.00235509872437,0.0022931098938,0.000312089920044,0.0372869968414
67,0.00209999084473,0.00246500968933,0.00317907333374,0.000381946563721,0.0353169441223
68,0.00230693817139,0.00255298614502,0.00242209434509,0.000334978103638,0.160552978516
69,0.00220417976379,0.00277805328369,0.00251412391663,0.000328063964844,0.0375978946686
70,0.00223278999329,0.00269818305969,0.00247502326965,0.000326156616211,0.0375599861145
71,0.00197792053223,0.00256991386414,0.00237584114075,0.000318050384521,0.0375971794128
72,0.00240707397461,0.00255799293518,0.0031840801239,0.000386953353882,0.0379610061646
73,0.0020489692688,0.00272512435913,0.00250601768494,0.000335931777954,0.0397119522095
74,0.00253582000732,0.00279808044434,0.00242018699646,0.000324010848999,0.0396139621735
75,0.00226378440857,0.00263094902039,0.00231289863586,0.000319957733154,0.040619134903
76,0.0020580291748,0.00255393981934,0.00243401527405,0.000334978103638,0.0462920665741
77,0.0602910518646,0.00328397750854,0.00246214866638,0.000347852706909,0.0400898456573
78,0.00227093696594,0.00275683403015,0.00241112709045,0.000330924987793,0.0425319671631
79,0.0021710395813,0.00277519226074,0.00239109992981,0.000323057174683,0.0423450469971
80,0.00240707397461,0.00270795822144,0.00245809555054,0.000323057174683,0.0440480709076
81,0.00213599205017,0.00245904922485,0.0023410320282,0.000316143035889,0.0432550907135
82,0.00219392776489,0.00316882133484,0.00254392623901,0.000340938568115,0.101670026779
83,0.00206804275513,0.00273585319519,0.0024790763855,0.000339984893799,0.0449509620667
84,0.00212502479553,0.00274109840393,0.00243210792542,0.000322818756104,0.0452630519867
85,0.00208687782288,0.00262308120728,0.00229406356812,0.000316858291626,0.0454580783844
86,0.0021538734436,0.00242304801941,0.00222897529602,0.000324010848999,0.0454149246216
87,0.00235414505005,0.00302696228027,0.00263214111328,0.000347852706909,0.103700876236
88,0.00210976600647,0.00282907485962,0.00270009040833,0.000335931777954,0.0475149154663
89,0.00217890739441,0.00271797180176,0.00239896774292,0.000326156616211,0.0485138893127
90,0.00223803520203,0.00236797332764,0.00226998329163,0.00031590461731,0.0472829341888
91,0.00215101242065,0.00321006774902,0.00255012512207,0.000356197357178,0.0954570770264
92,0.00225806236267,0.00282216072083,0.00235509872437,0.000326871871948,0.0489621162415
93,0.00229287147522,0.00274395942688,0.00229692459106,0.000324964523315,0.0500907897949
94,0.00229692459106,0.00265717506409,0.0023341178894,0.000320911407471,0.0505499839783
95,0.00248599052429,0.00246405601501,0.00231599807739,0.00031590461731,0.0493619441986
96,0.00223588943481,0.00321507453918,0.00254416465759,0.000339031219482,0.108849048615
97,0.00213503837585,0.00286293029785,0.00245904922485,0.000336885452271,0.0515909194946
98,0.00234293937683,0.00285911560059,0.00237703323364,0.000334978103638,0.0518589019775
99,0.00219893455505,0.002436876297,0.0023398399353,0.000317096710205,0.0534651279449
