step,run,get,set,free,run_up_to_step
0,0.00321102142334,0.00114512443542,0.00124907493591,0.000159978866577,0.00382089614868
1,0.00285077095032,0.00120282173157,0.00115084648132,0.00015115737915,0.00398707389832
2,0.0260741710663,0.00134587287903,0.00132703781128,0.000234127044678,0.00642108917236
3,0.00348019599915,0.00128102302551,0.00134992599487,0.000232934951782,0.0302600860596
4,0.00541710853577,0.00130820274353,0.00135707855225,0.000247001647949,0.00767707824707
5,0.00504302978516,0.00121092796326,0.00139284133911,0.000226020812988,0.00937986373901
6,0.00344705581665,0.00132489204407,0.00127387046814,0.000233173370361,0.00787711143494
7,0.00347495079041,0.00133299827576,0.00131607055664,0.000210046768188,0.00836992263794
8,0.00351905822754,0.00128602981567,0.00137209892273,0.000353097915649,0.0444529056549
9,0.00339674949646,0.00136089324951,0.00105595588684,0.000136852264404,0.00961518287659
10,0.00533509254456,0.00122714042664,0.00119400024414,0.000176906585693,0.00979280471802
11,0.00298190116882,0.00113081932068,0.00107002258301,0.000136852264404,0.00984597206116
12,0.00200605392456,0.00101804733276,0.00103783607483,0.000134944915771,0.00983905792236
13,0.0027449131012,0.00106501579285,0.00109601020813,0.000140905380249,0.00919699668884
14,0.0025200843811,0.00106287002563,0.00109696388245,0.000185012817383,0.0100069046021
15,0.00378704071045,0.00104117393494,0.00111079216003,0.0001380443573,0.00985407829285
16,0.0021870136261,0.00105810165405,0.00110793113708,0.000155925750732,0.0216338634491
17,0.00189590454102,0.00112104415894,0.00104904174805,0.000139951705933,0.0102050304413
18,0.00190281867981,0.00107717514038,0.00108003616333,0.000140905380249,0.0105020999908
19,0.00229930877686,0.00105381011963,0.00106310844421,0.000141859054565,0.010901927948
20,0.00185585021973,0.001051902771,0.00101613998413,0.000139951705933,0.0112869739532
21,0.00186991691589,0.00105786323547,0.00103712081909,0.000138998031616,0.011766910553
22,0.00194096565247,0.00104093551636,0.00104188919067,0.0001380443573,0.0122740268707
23,0.00245690345764,0.00104212760925,0.00105094909668,0.000136852264404,0.0303089618683
24,0.00187182426453,0.00111508369446,0.00103211402893,0.000139951705933,0.0492031574249
25,0.00199294090271,0.00108098983765,0.0010302066803,0.000139951705933,0.0204389095306
26,0.00215411186218,0.00107908248901,0.00108194351196,0.000140190124512,0.0143098831177
27,0.00193190574646,0.0010621547699,0.00107884407043,0.000142097473145,0.0146219730377
28,0.00185990333557,0.00110006332397,0.00106120109558,0.000140190124512,0.0151059627533
29,0.00217819213867,0.00105595588684,0.00105595588684,0.000139951705933,0.0153789520264
30,0.00185394287109,0.00103116035461,0.00100302696228,0.000135898590088,0.015576839447
31,0.00206279754639,0.00105094909668,0.00128293037415,0.000157833099365,0.0164260864258
32,0.00210094451904,0.00113010406494,0.00104212760925,0.000142097473145,0.0236649513245
33,0.003093957901,0.00114107131958,0.00109314918518,0.000144004821777,0.0175659656525
34,0.00253891944885,0.0010449886322,0.00103688240051,0.000143051147461,0.0178699493408
35,0.00242686271667,0.00104808807373,0.00110387802124,0.000144004821777,0.0179901123047
36,0.00261783599854,0.00107598304749,0.00109100341797,0.000142097473145,0.0186219215393
37,0.00219988822937,0.00107502937317,0.00106310844421,0.000149011611938,0.0310440063477
38,0.0148050785065,0.00105619430542,0.00106287002563,0.000139951705933,0.0194721221924
39,0.00198006629944,0.00106883049011,0.00120997428894,0.000159025192261,0.0197842121124
40,0.00198721885681,0.00113391876221,0.00114703178406,0.000147104263306,0.027498960495
41,0.00259304046631,0.00110292434692,0.00107598304749,0.000144004821777,0.026801109314
42,0.00195407867432,0.00113105773926,0.00114488601685,0.000144004821777,0.0217900276184
43,0.00260877609253,0.00105500221252,0.0010998249054,0.000142812728882,0.0215709209442
44,0.00204706192017,0.00106596946716,0.00101184844971,0.000140905380249,0.0219261646271
45,0.00186586380005,0.00107097625732,0.00106287002563,0.000141143798828,0.0225670337677
46,0.00187206268311,0.00103092193604,0.00116610527039,0.0001540184021,0.0224969387054
47,0.00205874443054,0.00114703178406,0.00110006332397,0.000144958496094,0.0400059223175
48,0.00205492973328,0.0010941028595,0.00103521347046,0.000141859054565,0.0233850479126
49,0.00226378440857,0.000988960266113,0.00103306770325,0.000141143798828,0.023756980896
50,0.00210285186768,0.00106191635132,0.00104689598083,0.0001380443573,0.0244228839874
51,0.00191497802734,0.00108408927917,0.00106501579285,0.000137090682983,0.0331039428711
52,0.00274014472961,0.00121212005615,0.001140832901,0.000146150588989,0.0927679538727
53,0.00207328796387,0.00114107131958,0.00109314918518,0.000144004821777,0.0261538028717
54,0.00224375724792,0.00106596946716,0.00107407569885,0.000144004821777,0.026211977005
55,0.00201892852783,0.00105595588684,0.00104188919067,0.000141143798828,0.0265200138092
56,0.00202393531799,0.00103902816772,0.00109696388245,0.000137805938721,0.026862859726
57,0.0020227432251,0.0010838508606,0.00135087966919,0.000162124633789,0.0342509746552
58,0.00208902359009,0.00122213363647,0.00110411643982,0.000147104263306,0.028470993042
59,0.00196981430054,0.00118589401245,0.00110292434692,0.000143051147461,0.0286190509796
60,0.00240278244019,0.00114512443542,0.0010871887207,0.000141859054565,0.0289001464844
61,0.00208282470703,0.00106382369995,0.00106287002563,0.000143051147461,0.0294559001923
62,0.0029981136322,0.00102615356445,0.00102019309998,0.000146150588989,0.0382719039917
63,0.071475982666,0.00129890441895,0.00111818313599,0.000144958496094,0.0381329059601
64,0.00209808349609,0.00116491317749,0.0011248588562,0.000143051147461,0.0377130508423
65,0.00225520133972,0.0011420249939,0.00102496147156,0.000140905380249,0.037602186203
66,0.00189018249512,0.00110197067261,0.00100803375244,0.000138998031616,0.031457901001
67,0.00207924842834,0.00107502937317,0.00104403495789,0.000139951705933,0.0513010025024
68,0.00267004966736,0.0012481212616,0.00119519233704,0.000167846679688,0.0458688735962
69,0.00262904167175,0.0010769367218,0.00109314918518,0.000141143798828,0.0407829284668
70,0.00289607048035,0.00134181976318,0.00118803977966,0.000147819519043,0.130934000015
71,0.00188088417053,0.00111198425293,0.00112509727478,0.000144958496094,0.110909223557
72,0.00195980072021,0.00114917755127,0.00109505653381,0.000144004821777,0.0336210727692
73,0.00198006629944,0.00106000900269,0.0010769367218,0.000140905380249,0.0389320850372
74,0.00201177597046,0.00103116035461,0.00104212760925,0.000139951705933,0.0343999862671
75,0.00189304351807,0.00104093551636,0.00104713439941,0.0001380443573,0.0345611572266
76,0.00187993049622,0.0012640953064,0.00111794471741,0.000146865844727,0.0994689464569
77,0.00198888778687,0.00115489959717,0.00111293792725,0.000144004821777,0.0362110137939
78,0.00185990333557,0.00112390518188,0.0010781288147,0.000140905380249,0.0359618663788
79,0.00205612182617,0.00107789039612,0.00102519989014,0.000138998031616,0.0364551544189
80,0.00282883644104,0.00109505653381,0.00106596946716,0.000140905380249,0.041396856308
81,0.00213599205017,0.00131106376648,0.00112199783325,0.000147104263306,0.672096014023
82,0.00189232826233,0.00118589401245,0.00109004974365,0.000144958496094,0.0450949668884
83,0.00203204154968,0.00112795829773,0.00111413002014,0.000144004821777,0.0386729240417
84,0.00380492210388,0.00107407569885,0.00103902816772,0.000139951705933,0.0390532016754
85,0.00380802154541,0.00104999542236,0.00111103057861,0.000142812728882,0.0390319824219
86,0.00191903114319,0.00101804733276,0.00132918357849,0.000159978866577,0.0392220020294
87,0.00192999839783,0.00116896629333,0.00107288360596,0.000141859054565,0.0409100055695
88,0.00189208984375,0.00119614601135,0.00103712081909,0.000140905380249,0.0654180049896
89,0.0021710395813,0.00111103057861,0.00104308128357,0.000139951705933,0.0411570072174
90,0.00285696983337,0.00110197067261,0.0010712146759,0.000141143798828,0.0416669845581
91,0.00194525718689,0.0010359287262,0.00102210044861,0.0001380443573,0.0415480136871
92,0.0074450969696,0.00127792358398,0.00114703178406,0.000148057937622,0.106673955917
93,0.00873780250549,0.00119686126709,0.00110006332397,0.000143051147461,0.0433201789856
94,0.00190687179565,0.00112009048462,0.00111103057861,0.000144004821777,0.0433239936829
95,0.00203514099121,0.00106906890869,0.000986099243164,0.000137090682983,0.0447800159454
96,0.00195789337158,0.00100207328796,0.000977993011475,0.0001380443573,0.0439419746399
97,0.00193119049072,0.00135493278503,0.00127696990967,0.000163793563843,0.0992090702057
98,0.00191378593445,0.00118803977966,0.00110006332397,0.000144004821777,0.0459389686584
99,0.00195407867432,0.00109505653381,0.00106906890869,0.000159978866577,0.0451560020447
