step,run,get,set,free,run_up_to_step
0,0.0878839492798,0.00859403610229,0.00799989700317,0.00121402740479,0.0894119739532
1,0.00607109069824,0.00789189338684,0.00853610038757,0.00131702423096,0.0907919406891
2,0.00671768188477,0.00800514221191,0.00799298286438,0.00132608413696,0.0933480262756
3,0.00693392753601,0.00828814506531,0.00832200050354,0.00124883651733,0.134254932404
4,0.0077121257782,0.00843286514282,0.00821399688721,0.00122904777527,0.137779951096
5,0.00655722618103,0.00782203674316,0.00855588912964,0.00144100189209,0.10197520256
6,0.00653409957886,0.00804495811462,0.00856685638428,0.00129294395447,0.114583969116
7,0.00648283958435,0.00797295570374,0.00892400741577,0.00148105621338,0.117166996002
8,0.00680494308472,0.00830602645874,0.00839304924011,0.00131511688232,0.110444068909
9,0.00661206245422,0.00809192657471,0.00822782516479,0.00127911567688,0.133842945099
10,0.0072329044342,0.00858521461487,0.00860190391541,0.00136613845825,0.146703958511
11,0.00745987892151,0.00818300247192,0.00870394706726,0.001296043396,0.139597177505
12,0.00650811195374,0.00858402252197,0.00856804847717,0.0013689994812,0.12135887146
13,0.00696587562561,0.00792503356934,0.00825691223145,0.00128102302551,0.125885009766
14,0.00667190551758,0.00876903533936,0.00860905647278,0.00142598152161,0.132771968842
15,0.00692701339722,0.00833296775818,0.00845789909363,0.00133800506592,0.130871772766
16,0.00672912597656,0.00813412666321,0.00957703590393,0.00159382820129,0.134496927261
17,0.00673484802246,0.00856614112854,0.00850081443787,0.0014750957489,0.147151947021
18,0.00665903091431,0.00792407989502,0.00930309295654,0.00154781341553,0.157248973846
19,0.00683903694153,0.00888895988464,0.00882697105408,0.00148105621338,0.141551971436
20,0.00925016403198,0.0108368396759,0.00836396217346,0.00138783454895,0.143491029739
21,0.00702214241028,0.00782489776611,0.00861382484436,0.00137090682983,0.239193916321
22,0.00634908676147,0.00786590576172,0.00846600532532,0.001305103302,0.157284975052
23,0.00692200660706,0.00818204879761,0.00859999656677,0.00137090682983,0.189299821854
24,0.00649905204773,0.00791501998901,0.00834703445435,0.00135493278503,0.151829957962
25,0.00666213035583,0.00814604759216,0.00860381126404,0.00144290924072,0.191143035889
26,0.00664305686951,0.00804996490479,0.00852394104004,0.00132393836975,0.159659147263
27,0.00685715675354,0.00808691978455,0.00873684883118,0.00150299072266,0.230241060257
28,0.00697612762451,0.00790309906006,0.00843691825867,0.00135278701782,0.164498806
29,0.00699806213379,0.00829410552979,0.00867891311646,0.00146198272705,0.208737850189
30,0.00763416290283,0.00810313224792,0.00819802284241,0.00138688087463,0.169147014618
31,0.00735473632812,0.00840210914612,0.00865697860718,0.00150394439697,0.211188077927
32,0.00677394866943,0.00822591781616,0.00837993621826,0.00135517120361,0.175483942032
33,0.00703001022339,0.00847601890564,0.00907111167908,0.00167298316956,0.199598073959
34,0.00719094276428,0.00828289985657,0.00857210159302,0.00149297714233,0.206262111664
35,0.00706386566162,0.00938296318054,0.00902199745178,0.00150799751282,0.223953008652
36,0.00698113441467,0.00813603401184,0.00878214836121,0.00142097473145,0.201493024826
37,0.00689125061035,0.0084011554718,0.00850296020508,0.00144600868225,0.227926015854
38,0.00709104537964,0.00802898406982,0.00826096534729,0.00139784812927,0.198391914368
39,0.00671315193176,0.0083909034729,0.0086498260498,0.00162220001221,0.231261014938
40,0.00753307342529,0.0080988407135,0.00837683677673,0.00136804580688,0.210947990417
41,0.00679492950439,0.00880908966064,0.00865411758423,0.00153112411499,0.236174106598
42,0.00696396827698,0.00829386711121,0.00835490226746,0.0015389919281,0.204298973083
43,0.00678706169128,0.0092568397522,0.00905919075012,0.00163793563843,0.23753118515
44,0.00679779052734,0.00832200050354,0.00874590873718,0.00161194801331,0.204563856125
45,0.00674295425415,0.00944209098816,0.00916910171509,0.00164604187012,0.209753036499
46,0.00673532485962,0.00847387313843,0.00881505012512,0.00160503387451,0.212880849838
47,0.00684499740601,0.0091290473938,0.00886297225952,0.00162196159363,0.235476016998
48,0.0136411190033,0.00831699371338,0.00849604606628,0.00148797035217,0.224984884262
49,0.00715589523315,0.00850391387939,0.00857901573181,0.00158214569092,0.254234075546
50,0.00745892524719,0.00807118415833,0.00826787948608,0.00155687332153,0.236201047897
51,0.00719809532166,0.00902891159058,0.00887799263,0.00165295600891,0.284107208252
52,0.00682163238525,0.00839614868164,0.00930881500244,0.00186514854431,0.229130983353
53,0.00671005249023,0.00874400138855,0.00874090194702,0.00155806541443,0.240501880646
54,0.00703406333923,0.00945496559143,0.00907588005066,0.00188088417053,0.262311935425
55,0.00612783432007,0.00838088989258,0.00833415985107,0.0014169216156,0.237885951996
56,0.00682020187378,0.00949692726135,0.00864315032959,0.00151896476746,0.270169019699
57,0.00686097145081,0.00790596008301,0.00829696655273,0.00137305259705,0.242075920105
58,0.00713419914246,0.00888395309448,0.00903391838074,0.00166296958923,0.269932031631
59,0.0319581031799,0.0091028213501,0.00880002975464,0.00166416168213,0.260585069656
60,0.00755310058594,0.00828099250793,0.00837302207947,0.00144290924072,0.252984046936
61,0.0137572288513,0.00837206840515,0.00856304168701,0.00157999992371,0.32653594017
62,0.00683903694153,0.00818109512329,0.00844621658325,0.0015709400177,0.256655931473
63,0.00692319869995,0.00869393348694,0.00897693634033,0.00167798995972,0.392095088959
64,0.00679588317871,0.00855302810669,0.0089750289917,0.00164103507996,0.262159824371
65,0.00668621063232,0.00836396217346,0.00891613960266,0.0016348361969,0.286662817001
66,0.00659584999084,0.0083270072937,0.00846481323242,0.00169801712036,0.262981176376
67,0.00712704658508,0.00898003578186,0.00878596305847,0.00170016288757,0.308412075043
68,0.00696015357971,0.00846815109253,0.00893402099609,0.00200700759888,0.270437002182
69,0.00689888000488,0.00907182693481,0.00899600982666,0.00166797637939,0.306832075119
70,0.00676321983337,0.00849509239197,0.00882482528687,0.00163793563843,0.301419019699
71,0.00720310211182,0.00820398330688,0.00872397422791,0.00163388252258,0.280853033066
72,0.0072500705719,0.00827503204346,0.00859999656677,0.00166392326355,0.309401035309
73,0.00716114044189,0.00882816314697,0.00869798660278,0.00171303749084,0.310090065002
74,0.00736212730408,0.00838708877563,0.00846481323242,0.00157713890076,0.288902997971
75,0.00687074661255,0.00863695144653,0.00864911079407,0.0016930103302,0.58522605896
76,0.00810694694519,0.0089099407196,0.00869798660278,0.00162696838379,0.308889865875
77,0.00697016716003,0.008455991745,0.008633852005,0.00183296203613,0.297016859055
78,0.00691986083984,0.00891017913818,0.00856304168701,0.00161790847778,0.378036975861
79,0.00691866874695,0.00803399085999,0.00814199447632,0.00142812728882,0.3004322052
80,0.00750422477722,0.00832891464233,0.0082859992981,0.00155711174011,0.333685874939
81,0.00824594497681,0.00849390029907,0.00883984565735,0.00160694122314,0.354405879974
82,0.00670003890991,0.00866198539734,0.00893807411194,0.00174713134766,0.519387960434
83,0.00713396072388,0.00855302810669,0.00867700576782,0.00175595283508,0.309026956558
84,0.00759816169739,0.0280530452728,0.00875902175903,0.00169777870178,0.312297105789
85,0.00684785842896,0.0084011554718,0.00927591323853,0.00187802314758,0.314144134521
86,0.00758600234985,0.00852513313293,0.00883793830872,0.00169110298157,0.318786859512
87,0.00681114196777,0.00873589515686,0.00900292396545,0.00175809860229,0.344105958939
88,0.00704789161682,0.00880002975464,0.00882411003113,0.00172805786133,0.34464597702
89,0.00701713562012,0.00830292701721,0.00867104530334,0.00175094604492,0.328855037689
90,0.00738167762756,0.00852608680725,0.00874710083008,0.00170302391052,0.354631900787
91,0.00726294517517,0.0081958770752,0.00949907302856,0.00193190574646,0.352521896362
92,0.00690579414368,0.00870394706726,0.00871586799622,0.00167894363403,0.3350918293
93,0.00671029090881,0.00906109809875,0.00887393951416,0.00177383422852,0.4069647789
94,0.00751900672913,0.00821113586426,0.00845098495483,0.00162696838379,0.366595983505
95,0.0070321559906,0.00854301452637,0.00846409797668,0.00165510177612,0.371296167374
96,0.00675106048584,0.00812983512878,0.00834703445435,0.00160598754883,0.349864006042
97,0.007563829422,0.00846195220947,0.00897002220154,0.00173091888428,0.39192199707
98,0.00754117965698,0.00857281684875,0.00876593589783,0.00183987617493,0.408556938171
99,0.00675487518311,0.00834512710571,0.00845384597778,0.00162887573242,0.353212118149
