step,run,get,set,free,run_up_to_step
0,0.0288650989532,0.0503771305084,0.0512809753418,0.00510096549988,0.0304789543152
1,0.0150952339172,0.04936003685,0.0524950027466,0.0051748752594,0.0317599773407
2,0.0166330337524,0.0490200519562,0.0521240234375,0.00531888008118,0.0348718166351
3,0.015068769455,0.0488998889923,0.0524220466614,0.00531601905823,0.0371129512787
4,0.0154180526733,0.0501260757446,0.0530021190643,0.00535798072815,0.038654088974
5,0.015337228775,0.0492289066315,0.0525901317596,0.00533509254456,0.0401608943939
6,0.0160670280457,0.04967212677,0.053966999054,0.00553607940674,0.0430469512939
7,0.0176391601562,0.0489869117737,0.0526921749115,0.00551104545593,0.0454661846161
8,0.0185861587524,0.0491051673889,0.0535168647766,0.00544905662537,0.0502479076385
9,0.0182490348816,0.0494868755341,0.0529401302338,0.00549411773682,0.053820848465
10,0.0178411006927,0.049989938736,0.0531380176544,0.00557589530945,0.0585169792175
11,0.0188450813293,0.0507910251617,0.0575189590454,0.00566506385803,0.0609879493713
12,0.0177581310272,0.050684928894,0.0547568798065,0.00575995445251,0.0638880729675
13,0.0173490047455,0.0511648654938,0.0553328990936,0.00583410263062,0.0649209022522
14,0.0174927711487,0.051059961319,0.0542559623718,0.00590491294861,0.067234992981
15,0.015851020813,0.0506460666656,0.0545339584351,0.00589108467102,0.0709331035614
16,0.0151679515839,0.0515131950378,0.0541679859161,0.00603795051575,0.0737969875336
17,0.0171887874603,0.0508182048798,0.0548429489136,0.00618100166321,0.0790340900421
18,0.01775598526,0.0488471984863,0.0538690090179,0.00573420524597,0.144931077957
19,0.0159783363342,0.0498690605164,0.0545401573181,0.00580501556396,0.0827898979187
20,0.0176939964294,0.0511009693146,0.0543968677521,0.00586295127869,0.0847680568695
21,0.0189561843872,0.0518550872803,0.0550360679626,0.00594019889832,0.0885150432587
22,0.0181140899658,0.0514919757843,0.0541009902954,0.00596714019775,0.086953163147
23,0.019394159317,0.0507321357727,0.0559968948364,0.00634002685547,0.0924379825592
24,0.0174860954285,0.0518939495087,0.0548598766327,0.00622415542603,0.0935189723969
25,0.0251030921936,0.0508959293365,0.050094127655,0.0062780380249,0.0991261005402
26,0.016453742981,0.0509910583496,0.0548300743103,0.00633502006531,0.102082967758
27,0.01615691185,0.0514328479767,0.0580670833588,0.00664305686951,0.102723121643
28,0.0156900882721,0.0517518520355,0.0561940670013,0.0063750743866,0.101144075394
29,0.0155441761017,0.0490510463715,0.053699016571,0.00675892829895,0.159368991852
30,0.0160341262817,0.0500512123108,0.0544259548187,0.00590014457703,0.110149860382
31,0.0146398544312,0.0502829551697,0.0551459789276,0.00595808029175,0.109956026077
32,0.0147287845612,0.050253868103,0.0544791221619,0.00580501556396,0.110346078873
33,0.0148279666901,0.0504767894745,0.0549628734589,0.0060179233551,0.133233070374
34,0.0146012306213,0.0512211322784,0.0550861358643,0.0061469078064,0.135761976242
35,0.0185701847076,0.0511431694031,0.0547471046448,0.00597500801086,0.135047912598
36,0.0158281326294,0.0515501499176,0.0545380115509,0.00609803199768,0.138758897781
37,0.0155508518219,0.0506711006165,0.0552568435669,0.00625205039978,0.139715194702
38,0.0175778865814,0.0514271259308,0.0545320510864,0.00628900527954,0.123805999756
39,0.0167922973633,0.0516698360443,0.0551640987396,0.00733304023743,0.127478122711
40,0.0178558826447,0.0504040718079,0.0538408756256,0.0058650970459,0.132272005081
41,0.0190269947052,0.0500519275665,0.0547270774841,0.00576496124268,0.136700153351
42,0.0172419548035,0.0498299598694,0.0541429519653,0.00569009780884,0.140037059784
43,0.0170969963074,0.0498349666595,0.0536530017853,0.00585508346558,0.141319990158
44,0.0159640312195,0.0500500202179,0.0539140701294,0.00579404830933,0.14425110817
45,0.016126871109,0.0497930049896,0.056431055069,0.00601005554199,0.148730993271
46,0.0148348808289,0.0506219863892,0.0574200153351,0.00608015060425,0.150521039963
47,0.0165309906006,0.0537610054016,0.0545868873596,0.00693202018738,0.154798984528
48,0.0144999027252,0.0504989624023,0.0561349391937,0.00583696365356,0.156153917313
49,0.0147848129272,0.0508379936218,0.054584980011,0.00584506988525,0.151577949524
50,0.0152189731598,0.0522739887238,0.0554568767548,0.00612616539001,0.155453920364
51,0.0157191753387,0.0512981414795,0.0593430995941,0.00620698928833,0.164966106415
52,0.0159859657288,0.0514550209045,0.0601618289948,0.00603795051575,0.164844989777
53,0.0195038318634,0.0542860031128,0.0543501377106,0.00709986686707,0.166158914566
54,0.0179870128632,0.0527498722076,0.0579261779785,0.00728416442871,0.187318086624
55,0.0199308395386,0.0519170761108,0.055016040802,0.00604915618896,0.192501068115
56,0.0178289413452,0.0515511035919,0.05490899086,0.00675511360168,0.196403026581
57,0.0167031288147,0.052031993866,0.0556559562683,0.00837397575378,0.21137714386
58,0.0170311927795,0.0520339012146,0.0567288398743,0.00649809837341,0.207393169403
59,0.0165762901306,0.0542900562286,0.0555019378662,0.00645112991333,0.200437068939
60,0.0161681175232,0.0524339675903,0.0558121204376,0.00713205337524,0.216125011444
61,0.0159182548523,0.0502460002899,0.055083990097,0.00627708435059,0.288441181183
62,0.0148417949677,0.0506839752197,0.055242061615,0.00607109069824,0.218996047974
63,0.0166380405426,0.0511860847473,0.0554149150848,0.00690293312073,0.21365904808
64,0.014454126358,0.0515940189362,0.0555019378662,0.0065610408783,0.214779138565
65,0.0150058269501,0.0533928871155,0.0562670230865,0.00686311721802,0.195909976959
66,0.0157039165497,0.0546238422394,0.055773973465,0.00773310661316,0.200237989426
67,0.0165240764618,0.0515961647034,0.0564529895782,0.00646591186523,0.204891204834
68,0.0167679786682,0.0519409179688,0.0549240112305,0.00697088241577,0.222481966019
69,0.0160059928894,0.0548119544983,0.0555579662323,0.00624299049377,0.228214979172
70,0.0160028934479,0.0528461933136,0.05677485466,0.00647115707397,0.22621512413
71,0.0190970897675,0.0503211021423,0.0552020072937,0.00619292259216,0.312222957611
72,0.0187368392944,0.0510029792786,0.054957151413,0.00604200363159,0.232439994812
73,0.018571138382,0.0506598949432,0.0548040866852,0.00736403465271,0.233852863312
74,0.0180640220642,0.0514771938324,0.0550808906555,0.00727009773254,0.242647886276
75,0.0171339511871,0.0518479347229,0.0554399490356,0.00708103179932,0.220907211304
76,0.0169930458069,0.0516748428345,0.0546538829803,0.00661683082581,0.221408843994
77,0.0186910629272,0.0519089698792,0.0562479496002,0.00631999969482,0.225143909454
78,0.015310049057,0.0515041351318,0.0560028553009,0.00675678253174,0.230309009552
79,0.0152261257172,0.051854133606,0.0544228553772,0.00766015052795,0.226504087448
80,0.0148310661316,0.052258014679,0.0543329715729,0.0062210559845,0.258842945099
81,0.0145611763,0.0516018867493,0.0552589893341,0.00623893737793,0.347163915634
82,0.0153076648712,0.0515751838684,0.0551469326019,0.00823593139648,0.517280817032
83,0.0157101154327,0.0542049407959,0.0555148124695,0.0067310333252,0.257087945938
84,0.0167939662933,0.0523290634155,0.0558891296387,0.00638198852539,0.261823177338
85,0.0162901878357,0.0519309043884,0.0554349422455,0.00768089294434,0.268126010895
86,0.0171139240265,0.0520439147949,0.0549829006195,0.00671482086182,0.27247095108
87,0.0173840522766,0.0521218776703,0.0551111698151,0.00698685646057,0.249620914459
88,0.0200238227844,0.0519502162933,0.0547580718994,0.00784182548523,0.254418849945
89,0.0179419517517,0.0510840415955,0.0541579723358,0.00608396530151,0.257038116455
90,0.0171778202057,0.0515429973602,0.0555198192596,0.0076310634613,0.287281990051
91,0.0173370838165,0.0510771274567,0.055675983429,0.00725388526917,0.361793994904
92,0.0166909694672,0.0545480251312,0.0560748577118,0.00707006454468,0.292196989059
93,0.0155339241028,0.052227973938,0.0560119152069,0.00638699531555,0.294537067413
94,0.0155289173126,0.0519080162048,0.0563380718231,0.00657606124878,0.293158054352
95,0.0148990154266,0.053004026413,0.0563390254974,0.00687098503113,0.294301986694
96,0.0145268440247,0.0522119998932,0.0568709373474,0.00688600540161,0.273858070374
97,0.0147659778595,0.054878950119,0.0591230392456,0.00814700126648,0.278296947479
98,0.0159659385681,0.0567498207092,0.0547280311584,0.00625514984131,0.27504992485
99,0.0149309635162,0.0519959926605,0.0547978878021,0.00608611106873,0.279627084732
