step,run,get,set,free,run_up_to_step
0,0.0113289356232,0.00115919113159,0.00114488601685,0.000139951705933,0.0226941108704
1,0.0106840133667,0.00110507011414,0.00119614601135,0.000149011611938,0.0200910568237
2,0.0113482475281,0.0011510848999,0.00120496749878,0.000144958496094,0.0204479694366
3,0.0178461074829,0.00108504295349,0.00117516517639,0.000150918960571,0.023955821991
4,0.00456714630127,0.00113010406494,0.00114893913269,0.000148057937622,0.015781879425
5,0.0112311840057,0.0010941028595,0.00118803977966,0.000158786773682,0.0207860469818
6,0.00367212295532,0.00116086006165,0.00118207931519,0.000144958496094,0.0199780464172
7,0.0186402797699,0.00111794471741,0.00115299224854,0.000144958496094,0.0679399967194
8,0.00368809700012,0.00112199783325,0.00111293792725,0.000139951705933,0.0327270030975
9,0.005038022995,0.00136995315552,0.00113296508789,0.000146150588989,0.0262379646301
10,0.0122709274292,0.00114893913269,0.00108218193054,0.000144958496094,0.0289862155914
11,0.00549101829529,0.00113010406494,0.0011248588562,0.000144958496094,0.0383129119873
12,0.00408792495728,0.0011088848114,0.00111198425293,0.000143051147461,0.0398509502411
13,0.0194098949432,0.00113892555237,0.00117516517639,0.000144004821777,0.311220169067
14,0.00352597236633,0.00109815597534,0.00112009048462,0.000142097473145,0.0970511436462
15,0.0111711025238,0.00119996070862,0.00115203857422,0.000141143798828,0.036257982254
16,0.00458097457886,0.00116205215454,0.00118613243103,0.000157117843628,0.0506491661072
17,0.00641798973083,0.00141596794128,0.00142788887024,0.000249862670898,0.0546221733093
18,0.00552606582642,0.00142192840576,0.00112009048462,0.000147819519043,0.0404908657074
19,0.00572109222412,0.00111413002014,0.0288090705872,0.000156879425049,0.0581028461456
20,0.00451111793518,0.001051902771,0.00110602378845,0.000141143798828,0.041396856308
21,0.00562810897827,0.0010838508606,0.00115609169006,0.000169038772583,0.0473520755768
22,0.0114231109619,0.00118494033813,0.00109505653381,0.00014591217041,0.0577111244202
23,0.00494790077209,0.00121402740479,0.00108909606934,0.000139951705933,0.0565168857574
24,0.00378918647766,0.00105595588684,0.00107789039612,0.00015115737915,0.0457119941711
25,0.010556936264,0.00112104415894,0.00105214118958,0.000141859054565,0.0607211589813
26,0.00997924804688,0.0012309551239,0.00127291679382,0.000157117843628,0.642035007477
27,0.00467014312744,0.00117611885071,0.00116300582886,0.000154972076416,0.0602049827576
28,0.00395512580872,0.00108194351196,0.00114107131958,0.000146150588989,0.0537989139557
29,0.0123958587646,0.0014340877533,0.00134086608887,0.000283002853394,0.0701420307159
30,0.00384712219238,0.00120687484741,0.0011739730835,0.000146865844727,0.136407136917
31,0.00331091880798,0.0011100769043,0.00110483169556,0.000147819519043,0.0602741241455
32,0.00365400314331,0.00113821029663,0.0011351108551,0.000149965286255,0.0629518032074
33,0.0172400474548,0.00107097625732,0.00108885765076,0.000142097473145,0.0872249603271
34,0.00419592857361,0.00122809410095,0.00122499465942,0.000149011611938,0.132400989532
35,0.00377678871155,0.00116300582886,0.00114893913269,0.000144004821777,0.0642950534821
36,0.00355505943298,0.0011260509491,0.00105905532837,0.000140905380249,0.069295167923
37,0.00357794761658,0.00107908248901,0.00110077857971,0.000144958496094,0.0782198905945
38,0.505535840988,0.00124216079712,0.0013370513916,0.000165939331055,0.0616810321808
39,0.00376105308533,0.00116777420044,0.00131702423096,0.000160932540894,0.0940330028534
40,0.0190641880035,0.00119400024414,0.00111699104309,0.000144958496094,0.189324855804
41,0.00349688529968,0.00103902816772,0.00103497505188,0.000142097473145,0.113398075104
42,0.00340700149536,0.00114989280701,0.00135898590088,0.000182867050171,0.0849740505219
43,0.00372815132141,0.00124406814575,0.00125503540039,0.00021505355835,0.0684220790863
44,0.00365519523621,0.0012731552124,0.00123715400696,0.000150203704834,0.0854270458221
45,0.00448393821716,0.00117897987366,0.00113296508789,0.000153064727783,0.0828149318695
46,0.00374603271484,0.00107598304749,0.00130105018616,0.000175952911377,0.080659866333
47,0.00354599952698,0.00110006332397,0.00111699104309,0.000148057937622,0.212560892105
48,0.00376510620117,0.00108098983765,0.00117611885071,0.000142812728882,0.0966408252716
49,0.0036301612854,0.00111508369446,0.0012218952179,0.000185012817383,0.0973010063171
50,0.0073139667511,0.00129103660583,0.00124287605286,0.000164031982422,0.0897037982941
51,0.00380516052246,0.0011510848999,0.00110912322998,0.000183820724487,0.10066485405
52,0.00391125679016,0.00110697746277,0.00110578536987,0.00014591217041,0.0969400405884
53,0.00370097160339,0.00131416320801,0.00122094154358,0.000151872634888,0.272719144821
54,0.00359535217285,0.0011739730835,0.00116395950317,0.000146150588989,0.110013008118
55,0.00744104385376,0.00112199783325,0.00111198425293,0.000144004821777,0.0749628543854
56,0.00318193435669,0.00111603736877,0.00128507614136,0.000173091888428,0.0857110023499
57,0.00365114212036,0.00121188163757,0.00119185447693,0.00014591217041,0.114978075027
58,0.0106198787689,0.00118803977966,0.00116395950317,0.000146150588989,0.0927031040192
59,0.019006729126,0.00108504295349,0.00129795074463,0.000170946121216,0.129745960236
60,0.00360584259033,0.00121808052063,0.00117588043213,0.000147819519043,0.112941026688
61,0.00454878807068,0.00121307373047,0.00119996070862,0.000146150588989,0.127571105957
62,0.00369119644165,0.000997066497803,0.00131106376648,0.00018310546875,0.115312099457
63,0.0181317329407,0.0012059211731,0.00116801261902,0.000148057937622,0.136559009552
64,0.0058479309082,0.00132083892822,0.00115299224854,0.000149965286255,0.111366033554
65,0.00400590896606,0.0011830329895,0.00125408172607,0.000180006027222,0.11408495903
66,0.00469470024109,0.00120115280151,0.00120115280151,0.000148057937622,0.135948896408
67,0.00336909294128,0.00113296508789,0.00112509727478,0.000145196914673,0.117965221405
68,0.00354695320129,0.00130605697632,0.0011990070343,0.000180959701538,0.969424009323
69,0.0128591060638,0.00117301940918,0.00109910964966,0.000144004821777,0.11018705368
70,0.00364089012146,0.00107908248901,0.00120377540588,0.000156164169312,0.132025957108
71,0.00372195243835,0.00129294395447,0.00124001502991,0.000150918960571,0.229894161224
72,0.0135178565979,0.00124716758728,0.00120806694031,0.000149965286255,0.148158073425
73,0.0036358833313,0.00102996826172,0.00106620788574,0.000192165374756,0.143435955048
74,0.0118081569672,0.00128102302551,0.00126910209656,0.000155925750732,0.23477101326
75,0.00375485420227,0.00115919113159,0.00117897987366,0.00015115737915,0.135390043259
76,0.00413203239441,0.00105094909668,0.0269210338593,0.000149011611938,0.145195007324
77,0.00379395484924,0.00134992599487,0.00122809410095,0.000150918960571,0.225576162338
78,0.00440216064453,0.00129199028015,0.00132989883423,0.000164031982422,0.144539833069
79,0.00356006622314,0.00107598304749,0.0010769367218,0.000142812728882,0.413219213486
80,0.0335178375244,0.0013279914856,0.00111699104309,0.000165939331055,0.258999109268
81,0.00337100028992,0.00115299224854,0.0011100769043,0.000180959701538,0.14103102684
82,0.00359487533569,0.00110197067261,0.00113701820374,0.000144004821777,0.164486169815
83,0.00370121002197,0.00114703178406,0.00128698348999,0.000179052352905,0.160279035568
84,0.00363779067993,0.00116586685181,0.0011842250824,0.000146865844727,0.192936897278
85,0.00363111495972,0.00111413002014,0.00119400024414,0.0001540184021,0.161978960037
86,0.00374889373779,0.00133395195007,0.00124311447144,0.000155925750732,0.445260047913
87,0.00563097000122,0.00117897987366,0.00119185447693,0.000148057937622,0.128535032272
88,0.0034761428833,0.00109505653381,0.00114703178406,0.000144958496094,0.159573078156
89,0.00363492965698,0.00126981735229,0.00118589401245,0.000149011611938,0.435549974442
90,0.003662109375,0.00112390518188,0.00112700462341,0.000157117843628,0.172031879425
91,0.00353717803955,0.0010678768158,0.00108194351196,0.000144004821777,0.136516809464
92,0.0112607479095,0.00127911567688,0.00124979019165,0.000150203704834,0.216095924377
93,0.00320792198181,0.00111699104309,0.00114297866821,0.000147104263306,0.16746711731
94,0.0108180046082,0.00126504898071,0.00119018554688,0.000148057937622,0.1934030056
95,0.00479102134705,0.00116896629333,0.00125980377197,0.000154972076416,0.167948007584
96,0.00389814376831,0.0010769367218,0.00125288963318,0.000186204910278,0.158627986908
97,0.00384616851807,0.00111317634583,0.00113391876221,0.000146150588989,0.17914891243
98,0.003662109375,0.00107598304749,0.00105690956116,0.000144004821777,0.170254945755
99,0.00392389297485,0.00125098228455,0.00124096870422,0.000159025192261,0.828688144684
