step,run,get,set,free,run_up_to_step
0,0.00418996810913,0.00379085540771,0.00370788574219,0.000495910644531,0.00531792640686
1,0.0107991695404,0.00344014167786,0.00391006469727,0.000500917434692,0.00631999969482
2,0.00547981262207,0.00340008735657,0.00390696525574,0.000597953796387,0.00843095779419
3,0.00354719161987,0.00347495079041,0.00401496887207,0.000519037246704,0.00991082191467
4,0.00360918045044,0.00340390205383,0.00396704673767,0.000504016876221,0.0114510059357
5,0.00474977493286,0.00330400466919,0.0037100315094,0.000498056411743,0.0131840705872
6,0.00364208221436,0.00335097312927,0.00404000282288,0.000604152679443,0.0146470069885
7,0.004065990448,0.00350093841553,0.00386714935303,0.000524997711182,0.0172979831696
8,0.00385689735413,0.00350594520569,0.00379109382629,0.000508785247803,0.0184679031372
9,0.00375199317932,0.00339007377625,0.0038640499115,0.000509977340698,0.0269749164581
10,0.00369787216187,0.0032970905304,0.00413608551025,0.000627994537354,0.0212690830231
11,0.0036461353302,0.00365996360779,0.00383901596069,0.00053596496582,0.0228250026703
12,0.0058970451355,0.00343489646912,0.00384616851807,0.00051212310791,0.0301220417023
13,0.00413823127747,0.00335097312927,0.003751039505,0.000503063201904,0.025759935379
14,0.00395798683167,0.00379300117493,0.00402116775513,0.000561952590942,0.0691199302673
15,0.00353288650513,0.00369596481323,0.00379395484924,0.000534057617188,0.0296609401703
16,0.00361108779907,0.00337505340576,0.00379419326782,0.00050687789917,0.0309300422668
17,0.00463795661926,0.00406002998352,0.00412678718567,0.000587940216064,0.0697700977325
18,0.00357890129089,0.00376796722412,0.0038640499115,0.00054407119751,0.0360128879547
19,0.00392389297485,0.00345587730408,0.00384116172791,0.000529050827026,0.0363779067993
20,0.003741979599,0.0033860206604,0.00433588027954,0.00064492225647,0.0376889705658
21,0.00380897521973,0.00387001037598,0.00392198562622,0.00056004524231,0.0400278568268
22,0.00423383712769,0.00353789329529,0.00389218330383,0.00052809715271,0.0410981178284
23,0.0109329223633,0.00343585014343,0.00451588630676,0.000693082809448,0.0422399044037
24,0.00388383865356,0.00387001037598,0.00389289855957,0.000574827194214,0.0515241622925
25,0.00381302833557,0.00378513336182,0.00387406349182,0.000548839569092,0.0524311065674
26,0.0036928653717,0.00329804420471,0.00371313095093,0.000532865524292,0.0541892051697
27,0.0118460655212,0.00339698791504,0.00430083274841,0.00067400932312,0.0483629703522
28,0.00379705429077,0.00380110740662,0.00387597084045,0.000573873519897,0.0582659244537
29,0.00414419174194,0.00348997116089,0.00383996963501,0.000538110733032,0.0660789012909
30,0.00399088859558,0.00400996208191,0.00405693054199,0.000636100769043,0.0961060523987
31,0.0040078163147,0.00359606742859,0.00388407707214,0.000684022903442,0.0706350803375
32,0.0110759735107,0.00327801704407,0.0045018196106,0.000710010528564,0.0572018623352
33,0.00390720367432,0.00483107566833,0.00466299057007,0.000783920288086,0.176043987274
34,0.00445604324341,0.00432395935059,0.00434279441833,0.000728845596313,0.0676250457764
35,0.0175158977509,0.00443005561829,0.00436806678772,0.000718832015991,0.0765900611877
36,0.00433611869812,0.00483393669128,0.00473785400391,0.000818967819214,0.133374929428
37,0.00442028045654,0.0042929649353,0.00431895256042,0.000678062438965,0.067587852478
38,0.00424313545227,0.00404691696167,0.00423312187195,0.000685930252075,0.0761001110077
39,0.00454497337341,0.00471687316895,0.00508785247803,0.000832080841064,0.0692148208618
40,0.00392699241638,0.00427317619324,0.00435304641724,0.00072193145752,0.0804388523102
41,0.00413203239441,0.00398182868958,0.00407409667969,0.000699043273926,0.0723588466644
42,0.0043249130249,0.00381588935852,0.00398802757263,0.000673055648804,0.0773091316223
43,0.00433826446533,0.00501704216003,0.00425601005554,0.000785112380981,0.275013923645
44,0.00419592857361,0.00375485420227,0.00399613380432,0.000693082809448,0.0861859321594
45,0.00496912002563,0.00356888771057,0.00481605529785,0.000847101211548,0.0847170352936
46,0.00400614738464,0.00387907028198,0.00405597686768,0.000673055648804,0.0829720497131
47,0.00433301925659,0.00357699394226,0.00398302078247,0.00066089630127,0.0896019935608
48,0.0041298866272,0.00493812561035,0.00411009788513,0.000766038894653,0.0842170715332
49,0.00395178794861,0.00365209579468,0.0039370059967,0.000675916671753,0.0925149917603
50,0.00379633903503,0.00352597236633,0.00462794303894,0.000899076461792,0.0865688323975
51,0.0115411281586,0.00386905670166,0.0040431022644,0.000699043273926,0.0907969474792
52,0.00444412231445,0.00356912612915,0.00479912757874,0.000948905944824,0.090047121048
53,0.00396728515625,0.00391697883606,0.00400114059448,0.000701904296875,0.0941948890686
54,0.00426888465881,0.00363993644714,0.00393509864807,0.000672101974487,0.100782155991
55,0.0461020469666,0.00474405288696,0.00437188148499,0.000792980194092,0.0945489406586
56,0.00384497642517,0.00385403633118,0.00403594970703,0.000704050064087,0.109043121338
57,0.00442600250244,0.00348901748657,0.00469493865967,0.000849962234497,0.322463035583
58,0.00397181510925,0.00385308265686,0.00432395935059,0.000846862792969,0.103247880936
59,0.00477409362793,0.00367093086243,0.00394988059998,0.000640869140625,0.128266096115
60,0.00518417358398,0.00505709648132,0.0046808719635,0.000962972640991,0.187976121902
61,0.00505232810974,0.00408387184143,0.00427794456482,0.00108098983765,0.142913103104
62,0.00994801521301,0.00368905067444,0.00670981407166,0.00105094909668,0.147570133209
63,0.00515198707581,0.00525283813477,0.00507497787476,0.00106692314148,0.163192987442
64,0.00527787208557,0.00458097457886,0.00462579727173,0.000880002975464,0.145479202271
65,0.00531911849976,0.00586986541748,0.00585508346558,0.00120997428894,0.210321187973
66,0.459449052811,0.00439381599426,0.00422191619873,0.000844955444336,0.146508932114
67,0.00425124168396,0.00365209579468,0.00450015068054,0.000906944274902,0.266322851181
68,0.00397300720215,0.00370407104492,0.00391912460327,0.000744819641113,0.126196146011
69,0.00383996963501,0.00364780426025,0.00397300720215,0.000783205032349,0.126999139786
70,0.00466203689575,0.00387287139893,0.00402402877808,0.000761985778809,0.170396089554
71,0.00407600402832,0.00348091125488,0.00399303436279,0.00075101852417,0.128448963165
72,0.00447177886963,0.00350093841553,0.00409483909607,0.000874042510986,0.131417989731
73,0.00395917892456,0.00357604026794,0.00395512580872,0.00074291229248,0.130007982254
74,0.00734210014343,0.00388193130493,0.00403690338135,0.000871896743774,0.155851125717
75,0.00464081764221,0.00348687171936,0.00384092330933,0.000739097595215,0.138839960098
76,0.00546288490295,0.00336408615112,0.00375890731812,0.000694990158081,0.341867923737
77,0.00423908233643,0.00368714332581,0.00396299362183,0.000768899917603,0.18914604187
78,0.00663590431213,0.00345611572266,0.003830909729,0.000726938247681,0.139785051346
79,0.00392198562622,0.00413584709167,0.00424385070801,0.000795125961304,0.311743021011
80,0.00576186180115,0.00382208824158,0.00406813621521,0.000792980194092,0.1615691185
81,0.00432801246643,0.00347900390625,0.00385284423828,0.000741004943848,0.311677932739
82,0.00620102882385,0.00401616096497,0.00395393371582,0.000810861587524,0.47368812561
83,0.00378489494324,0.00341200828552,0.00458788871765,0.000852108001709,0.165386915207
84,0.00413393974304,0.00367712974548,0.00401592254639,0.000797033309937,0.153575181961
85,0.00493574142456,0.00342392921448,0.00470018386841,0.000868082046509,0.148479938507
86,0.00394201278687,0.00366902351379,0.00394105911255,0.000771999359131,0.149579048157
87,0.00442004203796,0.00333595275879,0.00389385223389,0.000707864761353,0.158060073853
88,0.0119290351868,0.00545001029968,0.00518393516541,0.00125193595886,0.532810926437
89,0.0039210319519,0.00486397743225,0.00440382957458,0.000936985015869,0.164910078049
90,0.00522375106812,0.00533103942871,0.00516700744629,0.00115299224854,0.19518494606
91,0.00402498245239,0.00388383865356,0.00501394271851,0.00100898742676,0.171363115311
92,0.0115458965302,0.00395393371582,0.00416994094849,0.000874996185303,0.171404838562
93,0.00411009788513,0.00375819206238,0.00399613380432,0.00084114074707,0.163862943649
94,0.00576496124268,0.0060830116272,0.00432395935059,0.00102210044861,0.226025104523
95,0.00862812995911,0.00364804267883,0.00394821166992,0.000823020935059,0.183115005493
96,0.00430178642273,0.00424194335938,0.00420093536377,0.000838994979858,0.71857714653
97,0.00488185882568,0.0036449432373,0.0039758682251,0.000851154327393,0.177352905273
98,0.00415802001953,0.00357794761658,0.00429201126099,0.000926971435547,0.178544044495
99,0.00398683547974,0.00358009338379,0.00392413139343,0.000818014144897,0.176862001419
