step,run,get,set,free,run_up_to_step
0,0.00959300994873,0.00458908081055,0.00430798530579,0.00041389465332,0.0172100067139
1,0.00668787956238,0.00442385673523,0.00428795814514,0.00042200088501,0.01189494133
2,0.00682091712952,0.00447702407837,0.00456094741821,0.000427961349487,0.0141248703003
3,0.00679397583008,0.0045177936554,0.00471615791321,0.000519990921021,0.0228118896484
4,0.00749015808105,0.00461888313293,0.00449395179749,0.000440120697021,0.0192821025848
5,0.0132110118866,0.00449299812317,0.00451612472534,0.000426054000854,0.0219860076904
6,0.00649404525757,0.00450086593628,0.00458598136902,0.000464916229248,0.0309181213379
7,0.00650000572205,0.00433301925659,0.00451517105103,0.000422954559326,0.0264439582825
8,0.0135908126831,0.00468492507935,0.00486207008362,0.000461101531982,0.0698819160461
9,0.0064218044281,0.00462198257446,0.0048348903656,0.000434875488281,0.0441219806671
10,0.00657200813293,0.00446105003357,0.00467014312744,0.000447988510132,0.0405900478363
11,0.00656795501709,0.00453400611877,0.00455498695374,0.000431060791016,0.0451598167419
12,0.00621795654297,0.00483798980713,0.00503396987915,0.000653982162476,0.140086889267
13,0.00650525093079,0.00466895103455,0.00479888916016,0.000452041625977,0.0544011592865
14,0.00626397132874,0.00473880767822,0.0046329498291,0.000471115112305,0.0504488945007
15,0.00619196891785,0.00446105003357,0.00508403778076,0.000518798828125,0.0708260536194
16,0.00665211677551,0.00487995147705,0.00476288795471,0.000458955764771,0.0557260513306
17,0.0062518119812,0.00480508804321,0.00437188148499,0.000464916229248,0.0570361614227
18,0.019702911377,0.00456595420837,0.0045850276947,0.00042986869812,0.0810329914093
19,0.00640392303467,0.00442600250244,0.00512194633484,0.000638008117676,0.0676860809326
20,0.00636196136475,0.00496697425842,0.00478219985962,0.000473022460938,0.0649881362915
21,0.00644516944885,0.00453615188599,0.00458908081055,0.000437021255493,0.0734767913818
22,0.00653481483459,0.0044310092926,0.00529384613037,0.000512838363647,0.0630459785461
23,0.00703310966492,0.00498604774475,0.00498914718628,0.000643968582153,0.0715811252594
24,0.00667881965637,0.00458097457886,0.00446701049805,0.00046181678772,0.0793099403381
25,0.00653100013733,0.00449085235596,0.00460195541382,0.000425815582275,0.0762209892273
26,0.013335943222,0.00503993034363,0.00512886047363,0.000483989715576,0.1389939785
27,0.00717329978943,0.005047082901,0.00482296943665,0.000473022460938,0.0953731536865
28,0.0060498714447,0.00460290908813,0.00489401817322,0.00056791305542,0.0908408164978
29,0.00693511962891,0.00446605682373,0.00519204139709,0.000542879104614,0.298317193985
30,0.0121917724609,0.00497102737427,0.00501704216003,0.000467777252197,0.0944290161133
31,0.00674200057983,0.0050950050354,0.00476503372192,0.000514030456543,0.101546049118
32,0.00708603858948,0.00445699691772,0.0050950050354,0.000511169433594,0.0885438919067
33,0.0141401290894,0.00509691238403,0.00473618507385,0.00048303604126,0.0966339111328
34,0.00619888305664,0.00497508049011,0.00493884086609,0.000473022460938,0.116544008255
35,0.0137453079224,0.00481486320496,0.00454711914062,0.000526905059814,0.115974187851
36,0.00621604919434,0.00519180297852,0.00503206253052,0.000540971755981,0.177563905716
37,0.00619888305664,0.00482702255249,0.00476121902466,0.000460863113403,0.106781005859
38,0.00685000419617,0.00453996658325,0.00471115112305,0.000514984130859,0.325407981873
39,0.00636076927185,0.00448203086853,0.00465703010559,0.00043797492981,0.120020866394
40,0.00654196739197,0.00470590591431,0.00459313392639,0.000508069992065,0.120048046112
41,0.00692319869995,0.00463390350342,0.00477004051208,0.000443935394287,0.120673894882
42,0.0609979629517,0.00493192672729,0.00488305091858,0.000482082366943,0.10923910141
43,0.00655889511108,0.00471496582031,0.00481986999512,0.000468015670776,0.123033046722
44,0.007080078125,0.00436902046204,0.00471591949463,0.00050687789917,0.139380931854
45,0.00693392753601,0.00459909439087,0.00497388839722,0.000500917434692,0.162678003311
46,0.00714015960693,0.00483393669128,0.00496315956116,0.000580787658691,0.137857913971
47,0.00752305984497,0.00478410720825,0.00505423545837,0.000552892684937,0.125524044037
48,0.00699400901794,0.00443506240845,0.00515198707581,0.000524044036865,0.127451896667
49,0.00697183609009,0.00488805770874,0.00476789474487,0.00056004524231,0.129444122314
50,0.00696206092834,0.00459504127502,0.00479197502136,0.000452995300293,0.153977155685
51,0.0066659450531,0.00408506393433,0.00527882575989,0.00067400932312,0.221831083298
52,0.007169008255,0.00502300262451,0.00494694709778,0.000714063644409,0.363317966461
53,0.00839996337891,0.00461006164551,0.00489497184753,0.000685930252075,0.156630992889
54,0.00628018379211,0.00417399406433,0.00427079200745,0.000487089157104,0.303629159927
55,0.00907897949219,0.00493621826172,0.00492691993713,0.000483989715576,0.412312984467
56,0.00695586204529,0.00457191467285,0.0045759677887,0.000446081161499,0.162616968155
57,0.0133118629456,0.00486397743225,0.00489902496338,0.000581026077271,0.212860107422
58,0.0064811706543,0.00472903251648,0.00480389595032,0.000541925430298,0.174781799316
59,0.00697898864746,0.00440502166748,0.00517797470093,0.000550031661987,0.167209148407
60,0.00618720054626,0.00510597229004,0.00466203689575,0.00047779083252,0.164206027985
61,0.00644898414612,0.00428795814514,0.00514483451843,0.000549077987671,0.197060108185
62,0.00878310203552,0.00503706932068,0.00493907928467,0.000480175018311,0.177078962326
63,0.00712990760803,0.00462603569031,0.00449585914612,0.000499963760376,0.165472984314
64,0.00649094581604,0.0044641494751,0.00538206100464,0.000557899475098,0.166870832443
65,0.00775599479675,0.0050630569458,0.00491499900818,0.000478982925415,0.169487953186
66,0.00632691383362,0.00450491905212,0.00460600852966,0.000432968139648,0.237502813339
67,0.0143709182739,0.00491285324097,0.00493097305298,0.000482082366943,0.341640949249
68,0.00768208503723,0.00462412834167,0.00472497940063,0.000459909439087,0.195256948471
69,0.00676894187927,0.00457286834717,0.00478196144104,0.000439167022705,0.304579973221
70,0.00905990600586,0.00472402572632,0.00484299659729,0.000514984130859,0.217304944992
71,0.00683808326721,0.00462794303894,0.00441694259644,0.000447988510132,0.187684059143
72,0.00663805007935,0.0045371055603,0.00454592704773,0.000443935394287,0.218590974808
73,0.00639414787292,0.00474286079407,0.00476217269897,0.000591039657593,0.255498886108
74,0.0071656703949,0.00443005561829,0.00490593910217,0.00054407119751,0.195502996445
75,0.0133237838745,0.00495910644531,0.00515103340149,0.000631809234619,0.291116952896
76,0.00675201416016,0.00471305847168,0.0045759677887,0.000470876693726,0.21283698082
77,0.0132858753204,0.00442004203796,0.00469207763672,0.000440120697021,0.434128046036
78,0.00667500495911,0.00477290153503,0.00477004051208,0.000488042831421,0.259980916977
79,0.00653791427612,0.00473999977112,0.00483894348145,0.000453948974609,0.229774951935
80,0.00806307792664,0.00504994392395,0.00498604774475,0.000546932220459,0.346385002136
81,0.0135638713837,0.0048041343689,0.00484085083008,0.000470876693726,0.228343009949
82,0.0203359127045,0.00442719459534,0.00468301773071,0.000511884689331,0.233350992203
83,0.00650501251221,0.00490593910217,0.0049250125885,0.000493049621582,0.233556985855
84,0.0143768787384,0.00499391555786,0.00504207611084,0.000661134719849,0.547598838806
85,0.00635981559753,0.00504517555237,0.00511407852173,0.000541925430298,0.260154008865
86,0.0129327774048,0.00471591949463,0.0048680305481,0.000627040863037,0.228827953339
87,0.01460313797,0.00447702407837,0.00462698936462,0.000430107116699,0.248496055603
88,0.00672817230225,0.00476503372192,0.00481104850769,0.00049090385437,0.248543024063
89,0.0137259960175,0.00445318222046,0.00478887557983,0.000440120697021,0.248910903931
90,0.00642013549805,0.00494480133057,0.00499701499939,0.000546932220459,0.542194843292
91,0.0127539634705,0.00435090065002,0.00522184371948,0.000525951385498,0.289021015167
92,0.00676488876343,0.00499105453491,0.00482201576233,0.000475883483887,0.235305070877
93,0.00621891021729,0.00446200370789,0.00539493560791,0.000686168670654,0.257388830185
94,0.0069842338562,0.00460314750671,0.00465798377991,0.000477075576782,0.449923038483
95,0.00648403167725,0.00404191017151,0.00482106208801,0.000450849533081,0.233814001083
96,0.0070378780365,0.00484704971313,0.00490999221802,0.000473976135254,0.281737089157
97,0.445686101913,0.00454807281494,0.0049569606781,0.000560998916626,0.264503955841
98,0.0141570568085,0.00489711761475,0.00474905967712,0.000555038452148,0.3091340065
99,0.00730514526367,0.00465679168701,0.00477409362793,0.000436067581177,0.253669977188
