step,run,get,set,free,run_up_to_step
0,0.222951173782,0.0100200176239,0.0100409984589,0.00189518928528,0.227168083191
1,0.240033864975,0.00945901870728,0.0106389522552,0.00244498252869,0.443598031998
2,0.193307161331,0.00903415679932,0.00979900360107,0.00211715698242,0.671558856964
3,0.196494817734,0.0100719928741,0.00966000556946,0.00237393379211,0.792078971863
4,0.220423936844,0.0101208686829,0.0100791454315,0.00248312950134,1.14571118355
5,0.216045856476,0.00919914245605,0.0102200508118,0.0025360584259,1.21243095398
6,0.199980020523,0.00918483734131,0.0104789733887,0.00250291824341,1.43362903595
7,0.208779811859,0.0091700553894,0.0100548267365,0.00241303443909,1.69887518883
8,0.207461833954,0.0102100372314,0.0125579833984,0.00305485725403,1.88701820374
9,0.233029842377,0.0128500461578,0.0110960006714,0.0026478767395,2.72957587242
10,0.21156001091,0.00995707511902,0.0101230144501,0.00219321250916,2.38135099411
11,0.276814222336,0.0106439590454,0.0108199119568,0.00241112709045,2.96231985092
12,0.242551803589,0.00967383384705,0.0100920200348,0.0022349357605,2.70176315308
13,0.206479072571,0.00974416732788,0.0112400054932,0.00217580795288,3.06664395332
14,0.22005200386,0.010568857193,0.0102498531342,0.00272703170776,3.15449595451
15,0.201282024384,0.0113060474396,0.0105781555176,0.0025110244751,3.80230808258
16,0.19981098175,0.0104029178619,0.010409116745,0.00275588035583,4.17728185654
17,0.203172206879,0.009770154953,0.00984287261963,0.00216317176819,4.03473210335
18,0.199927091599,0.00957012176514,0.0102610588074,0.00234389305115,4.17885899544
19,0.243094205856,0.0103781223297,0.00994205474854,0.00217294692993,4.3016371727
20,0.216136217117,0.0116248130798,0.0107460021973,0.00267481803894,5.15538287163
21,0.221209049225,0.0110750198364,0.0105760097504,0.00251722335815,5.2331199646
22,0.199723958969,0.0137360095978,0.0113320350647,0.00313496589661,5.5352602005
23,0.217480182648,0.0167989730835,0.0119881629944,0.00379180908203,5.75524687767
24,0.20344209671,0.0109128952026,0.0130422115326,0.00245094299316,5.94967007637
25,0.205651044846,0.0112459659576,0.0123059749603,0.00234699249268,5.58066296577
26,0.201793909073,0.0101568698883,0.0103659629822,0.00231599807739,5.75396299362
27,0.205564022064,0.0104148387909,0.0266098976135,0.00312280654907,5.96952414513
28,0.200597047806,0.0103709697723,0.0105230808258,0.00237703323364,6.24206805229
29,0.225135803223,0.0126850605011,0.0107028484344,0.00270700454712,7.39947581291
30,0.213123083115,0.0103268623352,0.0105209350586,0.00236296653748,7.34581398964
31,0.214526176453,0.0121030807495,0.0121939182281,0.00262904167175,7.75948810577
32,0.221596002579,0.017275094986,0.0133671760559,0.0035879611969,7.49675798416
33,0.223562002182,0.0143568515778,0.0119807720184,0.0034761428833,7.7998521328
34,0.208528995514,0.0103390216827,0.0112299919128,0.00257396697998,8.53320789337
35,0.2022960186,0.00976204872131,0.00990414619446,0.00228786468506,7.80882692337
36,0.209592103958,0.0109870433807,0.0118968486786,0.00242614746094,9.38913798332
37,0.24134516716,0.0110130310059,0.0106539726257,0.00246000289917,8.68091797829
38,0.265449047089,0.0156738758087,0.0121250152588,0.0035228729248,8.99530315399
39,0.21487402916,0.0111920833588,0.0110349655151,0.00269818305969,9.25737094879
40,0.259813785553,0.0135900974274,0.0103809833527,0.00253391265869,9.72827911377
41,0.211750984192,0.0139579772949,0.0109689235687,0.00270390510559,10.1755950451
42,0.410060882568,0.0101599693298,0.0106329917908,0.00238704681396,9.94725704193
43,0.229943275452,0.0112609863281,0.012274980545,0.00303483009338,10.1163909435
44,0.203136205673,0.00988006591797,0.0135860443115,0.00229501724243,10.5283098221
45,0.198620080948,0.00978589057922,0.0104529857635,0.00240302085876,10.6652021408
46,0.215528964996,0.0118610858917,0.0128757953644,0.00250601768494,10.9002768993
47,0.195553064346,0.0105741024017,0.0104761123657,0.00239992141724,11.0530080795
48,0.194863080978,0.0101411342621,0.0105791091919,0.0028030872345,11.3526360989
49,0.240198135376,0.0121891498566,0.0204770565033,0.00350093841553,11.7830729485
50,0.222268819809,0.010468006134,0.0104701519012,0.00244784355164,11.2135891914
51,0.215897083282,0.0102589130402,0.0112059116364,0.00238609313965,12.065985918
52,0.196277141571,0.00981593132019,0.0108270645142,0.00225710868835,12.2588880062
53,0.188308238983,0.0118508338928,0.0118198394775,0.00257897377014,12.6080999374
54,0.187952041626,0.00990700721741,0.0103230476379,0.0023090839386,12.7322940826
55,0.19441986084,0.00994110107422,0.0146050453186,0.00238704681396,13.0016109943
56,0.19203209877,0.00951600074768,0.0103170871735,0.00235605239868,13.1313869953
57,0.196269035339,0.00983500480652,0.0100309848785,0.00238609313965,13.7600419521
58,0.193081140518,0.010036945343,0.0162560939789,0.00242900848389,13.6384539604
59,0.197174072266,0.00975298881531,0.0107419490814,0.00253796577454,13.5910549164
60,0.20564198494,0.0104811191559,0.0118029117584,0.00235295295715,14.2254838943
61,0.244641065598,0.0124580860138,0.0177681446075,0.00307607650757,14.3092000484
62,0.192978143692,0.0102019309998,0.010421037674,0.00257301330566,13.9861040115
63,0.203794002533,0.00974893569946,0.0101981163025,0.00227022171021,14.7685339451
64,0.296185970306,0.0109760761261,0.0138790607452,0.0024402141571,14.8395628929
65,0.192998886108,0.0118169784546,0.0128030776978,0.0033860206604,15.7605648041
66,0.228688955307,0.0117251873016,0.0107669830322,0.00273895263672,15.3520460129
67,0.193763971329,0.00978803634644,0.013571023941,0.00230383872986,15.9449470043
68,0.194376945496,0.0102791786194,0.0125470161438,0.0022189617157,15.8649060726
69,0.191051721573,0.00952887535095,0.0180439949036,0.00237703323364,16.1437427998
70,0.837532043457,0.0200929641724,0.0139248371124,0.00544691085815,16.0699279308
71,0.21383690834,0.0104961395264,0.015634059906,0.00265598297119,16.5396668911
72,0.19789481163,0.00960397720337,0.00986695289612,0.00221395492554,16.5694689751
73,0.190984010696,0.0101089477539,0.0160460472107,0.00248312950134,17.4544541836
74,0.22899889946,0.0093719959259,0.0132391452789,0.00256705284119,17.1551580429
75,0.213235139847,0.00988411903381,0.0114409923553,0.00258207321167,18.180492878
76,0.201417207718,0.0113098621368,0.0102350711823,0.00269603729248,17.6089270115
77,0.2164041996,0.0124151706696,0.01859998703,0.00312614440918,18.0186390877
78,0.202986955643,0.00958609580994,0.0100879669189,0.00225687026978,18.1812930107
79,0.198244810104,0.0100009441376,0.0103440284729,0.00241303443909,18.5427229404
80,0.207855939865,0.00998592376709,0.0120780467987,0.00255489349365,18.6201379299
81,0.197896957397,0.00940203666687,0.0166878700256,0.00332188606262,18.8915100098
82,0.214783191681,0.00946402549744,0.00982618331909,0.00255703926086,19.0216810703
83,0.214513778687,0.00966691970825,0.01895403862,0.00240898132324,19.3993599415
84,0.210057973862,0.0100269317627,0.0114679336548,0.00227093696594,19.082570076
85,0.212178945541,0.00923800468445,0.0122878551483,0.00220894813538,19.5437240601
86,0.208424091339,0.00937414169312,0.0132420063019,0.00223112106323,19.8063390255
87,0.213119268417,0.0093629360199,0.0182640552521,0.00222396850586,19.8269100189
88,0.207337141037,0.0095329284668,0.013062953949,0.00222706794739,20.4161431789
89,0.282456874847,0.0118570327759,0.0392689704895,0.00221300125122,20.3561401367
90,0.227476835251,0.0117189884186,0.0101220607758,0.00232791900635,20.7173969746
91,0.219371080399,0.00981497764587,0.0118060112,0.0021710395813,21.5250399113
92,0.238686084747,0.00921511650085,0.0101940631866,0.00242781639099,20.7158851624
93,0.207955121994,0.0091700553894,0.01322889328,0.00225305557251,21.8551549911
94,0.211931943893,0.00932002067566,0.0175909996033,0.00238394737244,22.6025390625
95,0.266335010529,0.0129120349884,0.0124959945679,0.0023500919342,21.1792240143
96,0.273479938507,0.0103778839111,0.0164799690247,0.00218915939331,21.7013521194
97,0.196743011475,0.00925183296204,0.0127990245819,0.00219011306763,23.0284538269
98,0.19579410553,0.00942087173462,0.0100028514862,0.00220513343811,22.8692150116
99,0.216245889664,0.00919008255005,0.0126550197601,0.00219416618347,23.2989060879
