step,run,get,set,free,run_up_to_step
0,0.0107200145721,0.00802111625671,0.00757002830505,0.00102710723877,0.012176990509
1,0.00507593154907,0.00720000267029,0.00728106498718,0.00103688240051,0.0155668258667
2,0.0055079460144,0.0075249671936,0.00730180740356,0.00102496147156,0.0130929946899
3,0.00508403778076,0.00755095481873,0.00761103630066,0.00105500221252,0.0135879516602
4,0.00498199462891,0.00726509094238,0.00744199752808,0.00104808807373,0.0156269073486
5,0.00539588928223,0.00750398635864,0.00740814208984,0.00102782249451,0.0163948535919
6,0.0054178237915,0.00767588615417,0.00761008262634,0.00106596946716,0.017284154892
7,0.00513911247253,0.0075831413269,0.00774312019348,0.00105309486389,0.0184581279755
8,0.00510096549988,0.00757098197937,0.00752806663513,0.00105977058411,0.0171749591827
9,0.0076150894165,0.00764417648315,0.00762486457825,0.00108289718628,0.0188829898834
10,0.00531816482544,0.00764107704163,0.00758194923401,0.00105690956116,0.0191941261292
11,0.00558471679688,0.00763416290283,0.00765895843506,0.00123310089111,0.021155834198
12,0.00486516952515,0.00775194168091,0.00780606269836,0.00110507011414,0.0470240116119
13,0.00499200820923,0.00751900672913,0.00756692886353,0.00107002258301,0.021201133728
14,0.00503206253052,0.00750994682312,0.0077760219574,0.00109505653381,0.0674290657043
15,0.00494790077209,0.0074520111084,0.00805282592773,0.00111794471741,0.0388870239258
16,0.00505805015564,0.00768184661865,0.00763988494873,0.00108194351196,0.0228309631348
17,0.00534605979919,0.00740885734558,0.00756406784058,0.00107407569885,0.0250799655914
18,0.00591397285461,0.00763988494873,0.00763201713562,0.00108885765076,0.024934053421
19,0.00540685653687,0.00755286216736,0.00760197639465,0.00108504295349,0.0251631736755
20,0.00529885292053,0.00749611854553,0.00756907463074,0.00108885765076,0.0317578315735
21,0.00506615638733,0.00752806663513,0.0075888633728,0.00107097625732,0.0269529819489
22,0.00519227981567,0.00773406028748,0.00759387016296,0.00109195709229,0.0304381847382
23,0.00503993034363,0.00757002830505,0.00767207145691,0.00109195709229,0.0294120311737
24,0.00515794754028,0.0077338218689,0.00754380226135,0.00111103057861,0.0277869701385
25,0.0108559131622,0.00762319564819,0.0075740814209,0.00110697746277,0.0301530361176
26,0.00509095191956,0.00769400596619,0.00756692886353,0.00107288360596,0.0297269821167
27,0.0051109790802,0.0077497959137,0.00772595405579,0.0010998249054,0.0301218032837
28,0.00537204742432,0.00756692886353,0.00769710540771,0.00110697746277,0.0400710105896
29,0.0051429271698,0.00758600234985,0.00752019882202,0.0010929107666,0.0313498973846
30,0.00521492958069,0.00806498527527,0.00788807868958,0.00114607810974,0.0365800857544
31,0.00684523582458,0.00753784179688,0.00765085220337,0.0011260509491,0.0820009708405
32,0.00523686408997,0.00776314735413,0.00766396522522,0.0010941028595,0.0330889225006
33,0.00708889961243,0.00769996643066,0.00785708427429,0.00114393234253,0.0338070392609
34,0.0101721286774,0.00758004188538,0.00769305229187,0.00112700462341,0.0367429256439
35,0.00708103179932,0.00755286216736,0.0083920955658,0.0013599395752,0.0429430007935
36,0.0070788860321,0.00771403312683,0.00777888298035,0.00117707252502,0.0361788272858
37,0.00518107414246,0.00798201560974,0.00780987739563,0.00116300582886,0.0376789569855
38,0.0228753089905,0.00799202919006,0.00802803039551,0.00121212005615,0.0377609729767
39,0.00563311576843,0.00787806510925,0.00790905952454,0.00119805335999,0.038938999176
40,0.00576591491699,0.00830101966858,0.00792694091797,0.00118684768677,0.0394239425659
41,0.00570774078369,0.00782799720764,0.00802493095398,0.00122499465942,0.0544581413269
42,0.00881600379944,0.00804305076599,0.00796818733215,0.00119090080261,0.0400791168213
43,0.00618720054626,0.00787496566772,0.00781512260437,0.00121283531189,0.0482859611511
44,0.0225849151611,0.00819396972656,0.00804495811462,0.00123119354248,0.0421779155731
45,0.00586700439453,0.00811004638672,0.00794792175293,0.00118494033813,0.0426030158997
46,0.00725889205933,0.00789499282837,0.00779604911804,0.00117206573486,0.0446519851685
47,0.0260379314423,0.0082311630249,0.00847220420837,0.001296043396,0.0526130199432
48,0.00521111488342,0.0079939365387,0.0084240436554,0.00124406814575,0.0442671775818
49,0.00530695915222,0.00815296173096,0.00803709030151,0.00126695632935,0.0454621315002
50,0.00685620307922,0.00823283195496,0.00820398330688,0.00140309333801,0.0454390048981
51,0.0056209564209,0.00854802131653,0.00849390029907,0.00136613845825,0.046238899231
52,0.00579404830933,0.00791907310486,0.00800800323486,0.00127816200256,0.0683829784393
53,0.00615096092224,0.00827312469482,0.00821113586426,0.0014021396637,0.0665299892426
54,0.00967288017273,0.00820016860962,0.00811290740967,0.0013279914856,0.0484838485718
55,0.00544595718384,0.00802993774414,0.00804710388184,0.00129199028015,0.0502960681915
56,0.00555777549744,0.00861191749573,0.0083441734314,0.00137996673584,0.0734539031982
57,0.00524592399597,0.00809717178345,0.00797390937805,0.00134110450745,0.0503299236298
58,0.00531697273254,0.00823378562927,0.00811100006104,0.00146889686584,0.051017999649
59,0.00756192207336,0.00823616981506,0.00801491737366,0.00129699707031,0.0700509548187
60,0.00547909736633,0.00860404968262,0.00832104682922,0.00135898590088,0.0783519744873
61,0.00514698028564,0.00799703598022,0.00802683830261,0.00131106376648,0.0534739494324
62,0.00778007507324,0.00835418701172,0.00800514221191,0.00131011009216,0.0584139823914
63,0.00512480735779,0.00780296325684,0.00789880752563,0.00127601623535,0.125777959824
64,0.005206823349,0.00778889656067,0.00767183303833,0.00123405456543,0.0546410083771
65,0.00553798675537,0.00777101516724,0.0077760219574,0.00128889083862,0.0559260845184
66,0.00518798828125,0.00787591934204,0.00778102874756,0.00127196311951,0.094465970993
67,0.0051600933075,0.00742411613464,0.00745701789856,0.0011420249939,0.0619459152222
68,0.00520777702332,0.00780916213989,0.00793695449829,0.00129199028015,0.0570921897888
69,0.00545287132263,0.00767016410828,0.00779509544373,0.00143313407898,0.0954468250275
70,0.00652289390564,0.0077588558197,0.00785613059998,0.00126886367798,0.0769829750061
71,0.0051589012146,0.0074348449707,0.00761198997498,0.0012788772583,0.0593349933624
72,0.00527596473694,0.0082151889801,0.00795698165894,0.00129199028015,0.0596840381622
73,0.00715899467468,0.00778698921204,0.00780200958252,0.00132489204407,0.079094171524
74,0.00529503822327,0.00824594497681,0.00804090499878,0.00130200386047,0.0914490222931
75,0.00516200065613,0.00755500793457,0.00770592689514,0.00137901306152,0.0621230602264
76,0.00525999069214,0.00782895088196,0.00786399841309,0.00136804580688,0.0795938968658
77,0.00635099411011,0.00805306434631,0.00782418251038,0.00129795074463,0.0800809860229
78,0.00527906417847,0.0076539516449,0.00751900672913,0.00115013122559,0.0647239685059
79,0.0053699016571,0.0078330039978,0.00792908668518,0.00130009651184,0.0641670227051
80,0.00636386871338,0.00753784179688,0.0077588558197,0.00129508972168,0.0819959640503
81,0.00520801544189,0.00747203826904,0.00858306884766,0.00144195556641,0.065306186676
82,0.00513482093811,0.00775694847107,0.00796484947205,0.00133490562439,0.0664410591125
83,0.005206823349,0.0078489780426,0.00787591934204,0.0013439655304,0.0835590362549
84,0.00512599945068,0.00795912742615,0.00803899765015,0.00134301185608,0.0858640670776
85,0.00552701950073,0.00762510299683,0.00768303871155,0.00125813484192,0.0755949020386
86,0.0057201385498,0.0080349445343,0.00805592536926,0.00136017799377,0.0689768791199
87,0.00521683692932,0.00785493850708,0.00792717933655,0.0013530254364,0.0924520492554
88,0.00600790977478,0.00752997398376,0.00932097434998,0.0015230178833,0.0704660415649
89,0.00581002235413,0.0078501701355,0.00793504714966,0.00154399871826,0.0712039470673
90,0.00737714767456,0.00829696655273,0.00811004638672,0.00142097473145,0.0900030136108
91,0.00532293319702,0.00834894180298,0.00801992416382,0.00140380859375,0.0904879570007
92,0.00687098503113,0.007493019104,0.00755000114441,0.00125002861023,0.0732140541077
93,0.00522589683533,0.00846886634827,0.00814509391785,0.00141501426697,0.0740370750427
94,0.0052797794342,0.00775384902954,0.00804209709167,0.00137400627136,0.158127069473
95,0.00535297393799,0.00765204429626,0.00846910476685,0.00149202346802,0.0752987861633
96,0.00512504577637,0.00785112380981,0.00805306434631,0.00142097473145,0.0757038593292
97,0.00560593605042,0.00824117660522,0.0080988407135,0.00139188766479,0.093701839447
98,0.00654792785645,0.00795912742615,0.00814318656921,0.00135111808777,0.119240999222
99,0.00719809532166,0.00761914253235,0.00777196884155,0.00133514404297,0.423853874207
