step,run,get,set,free,run_up_to_step
0,0.00369381904602,0.00209283828735,0.00200200080872,0.000259876251221,0.0114090442657
1,0.00305271148682,0.00192308425903,0.00194215774536,0.000258922576904,0.0132670402527
2,0.00305700302124,0.00193810462952,0.00190496444702,0.000257015228271,0.00709986686707
3,0.00303483009338,0.00174593925476,0.00195217132568,0.000258922576904,0.0230159759521
4,0.00376009941101,0.00213408470154,0.0021378993988,0.000281095504761,0.0212988853455
5,0.00337481498718,0.00192999839783,0.00207686424255,0.000261068344116,0.0176320075989
6,0.0100607872009,0.00192213058472,0.00201487541199,0.000256061553955,0.0196430683136
7,0.0100662708282,0.00190901756287,0.00192093849182,0.000262975692749,0.0209109783173
8,0.00403714179993,0.00200200080872,0.0019850730896,0.000265121459961,0.0219008922577
9,0.0030300617218,0.00189185142517,0.00203704833984,0.000262975692749,0.0244181156158
10,0.00303101539612,0.00193810462952,0.00194811820984,0.000256061553955,0.0240869522095
11,0.010605096817,0.00193095207214,0.00188899040222,0.000257015228271,0.0257251262665
12,0.00313997268677,0.00190496444702,0.00193905830383,0.000279188156128,0.0207149982452
13,0.00314021110535,0.00190401077271,0.00236797332764,0.000339031219482,0.0211660861969
14,0.00302004814148,0.00189590454102,0.00201797485352,0.00026798248291,0.0232489109039
15,0.0100359916687,0.0019109249115,0.00201392173767,0.000261068344116,0.0304639339447
16,0.0102031230927,0.00195384025574,0.00192499160767,0.000259160995483,0.0389170646667
17,0.0029821395874,0.0019748210907,0.00199604034424,0.000257015228271,0.039186000824
18,0.0109369754791,0.00205087661743,0.0020968914032,0.000275135040283,0.148066997528
19,0.00319075584412,0.00194311141968,0.00199317932129,0.000264167785645,0.0416541099548
20,0.0103330612183,0.0018630027771,0.00205087661743,0.000261068344116,0.0429120063782
21,0.00383305549622,0.00188398361206,0.00228190422058,0.000354051589966,0.0381219387054
22,0.0106320381165,0.00190806388855,0.00202107429504,0.000266790390015,0.0467970371246
23,0.00982809066772,0.00186991691589,0.00199913978577,0.000270843505859,0.0511960983276
24,0.00297594070435,0.00190401077271,0.00194787979126,0.000262022018433,0.0465228557587
25,0.0029718875885,0.00181984901428,0.00196695327759,0.000262975692749,0.0506269931793
26,0.00307703018188,0.00208806991577,0.00202584266663,0.000285863876343,0.118463993073
27,0.00298595428467,0.00188302993774,0.00216293334961,0.00029182434082,0.0505750179291
28,0.00300693511963,0.00191283226013,0.00209307670593,0.000258922576904,0.0544571876526
29,0.00304985046387,0.00186514854431,0.00193691253662,0.000268936157227,0.0421249866486
30,0.00301194190979,0.00204491615295,0.00203013420105,0.00026798248291,0.118586063385
31,0.00343894958496,0.00206208229065,0.00207591056824,0.000275135040283,0.0582621097565
32,0.00320410728455,0.00190591812134,0.00196290016174,0.000268936157227,0.0631968975067
33,0.00332689285278,0.00199198722839,0.00211906433105,0.000335931777954,0.0600318908691
34,0.0107462406158,0.00201296806335,0.00204086303711,0.000266790390015,0.0712668895721
35,0.00294399261475,0.00179505348206,0.00199007987976,0.000259876251221,0.0675950050354
36,0.00294208526611,0.00184893608093,0.00197696685791,0.000265121459961,0.0621268749237
37,0.0100629329681,0.00212788581848,0.00229096412659,0.000286102294922,0.13982796669
38,0.00313997268677,0.00182199478149,0.00197196006775,0.000267028808594,0.0641360282898
39,0.00313305854797,0.00183510780334,0.00195813179016,0.000260829925537,0.0603158473969
40,0.00289607048035,0.00198316574097,0.00214505195618,0.000335931777954,0.0656261444092
41,0.00290775299072,0.0019679069519,0.00201392173767,0.000269889831543,0.0628881454468
42,0.00292491912842,0.0018630027771,0.00195479393005,0.000264883041382,0.0680968761444
43,0.00295805931091,0.00186800956726,0.00216603279114,0.00033712387085,0.0739769935608
44,0.0096378326416,0.00199699401855,0.00200891494751,0.000268936157227,0.0717642307281
45,0.00299000740051,0.00183796882629,0.00196194648743,0.000262022018433,0.0675361156464
46,0.00293588638306,0.0018789768219,0.00225210189819,0.000333070755005,0.0680840015411
47,0.00290679931641,0.00199818611145,0.0019359588623,0.000270128250122,0.076238155365
48,0.0100491046906,0.00197291374207,0.00214314460754,0.000291109085083,0.0720829963684
49,0.00296306610107,0.00182104110718,0.00205993652344,0.000257015228271,0.0740249156952
50,0.00294613838196,0.00203609466553,0.00203990936279,0.000265836715698,0.143310070038
51,0.0028703212738,0.00201797485352,0.00193905830383,0.000268936157227,0.0858209133148
52,0.0029571056366,0.00191211700439,0.00205183029175,0.000270128250122,0.0772562026978
53,0.003005027771,0.00202608108521,0.00209379196167,0.000274896621704,0.138126850128
54,0.00304198265076,0.0020580291748,0.00208210945129,0.000272989273071,0.0915749073029
55,0.00298094749451,0.00205206871033,0.00199508666992,0.00026798248291,0.0757389068604
56,0.00506019592285,0.00205016136169,0.00215101242065,0.000275850296021,0.371716022491
57,0.00477623939514,0.00242304801941,0.00209999084473,0.000292062759399,0.0958480834961
58,0.0039758682251,0.00196313858032,0.00240802764893,0.000382900238037,0.10747885704
59,0.00367188453674,0.00229501724243,0.00211691856384,0.000273942947388,0.107036113739
60,0.00305795669556,0.00200200080872,0.00202012062073,0.000262975692749,0.0952291488647
61,0.00341534614563,0.00206899642944,0.00214099884033,0.000328779220581,0.093236207962
62,0.00306487083435,0.00212788581848,0.00195503234863,0.000265836715698,0.101859807968
63,0.00299119949341,0.00201082229614,0.00197601318359,0.000267028808594,0.0912139415741
64,0.0042519569397,0.00208711624146,0.0020899772644,0.000294923782349,0.14522600174
65,0.00306129455566,0.00196313858032,0.00192403793335,0.0002760887146,0.0943930149078
66,0.0029149055481,0.00200510025024,0.00214099884033,0.000335931777954,0.0951209068298
67,0.00308299064636,0.00214910507202,0.00210285186768,0.000279903411865,0.107779979706
68,0.00294971466064,0.00189900398254,0.00191116333008,0.0002601146698,0.0965299606323
69,0.0035138130188,0.00196695327759,0.0021448135376,0.000310897827148,0.108170032501
70,0.00931978225708,0.00212788581848,0.00219297409058,0.000282049179077,0.196210861206
71,0.00307106971741,0.00195097923279,0.00201392173767,0.00026798248291,0.105660915375
72,0.00302696228027,0.00184202194214,0.00216293334961,0.000347137451172,0.110707044601
73,0.00303173065186,0.00208401679993,0.002112865448,0.000281810760498,0.103433132172
74,0.00311088562012,0.00194501876831,0.00206589698792,0.000269889831543,0.104593038559
75,0.00311017036438,0.00231885910034,0.00204992294312,0.000277996063232,0.159223079681
76,0.0107510089874,0.00203108787537,0.0020809173584,0.000282049179077,0.107512950897
77,0.00306296348572,0.00199699401855,0.00207281112671,0.000276803970337,0.101250886917
78,0.00317096710205,0.00211310386658,0.00204300880432,0.0002760887146,0.183384180069
79,0.00304579734802,0.00208497047424,0.00199699401855,0.000274896621704,0.129658937454
80,0.0119678974152,0.00189208984375,0.00205588340759,0.000290870666504,0.13321685791
81,0.00311207771301,0.00226712226868,0.00214099884033,0.000282049179077,0.144011974335
82,0.0126299858093,0.00201797485352,0.00202322006226,0.000277042388916,0.141418933868
83,0.0028920173645,0.00197100639343,0.00206708908081,0.000283002853394,0.296767950058
84,0.0336668491364,0.00233602523804,0.00205779075623,0.00030779838562,0.171622991562
85,0.00302886962891,0.00197696685791,0.00201797485352,0.000280141830444,0.126482009888
86,0.0625667572021,0.00230288505554,0.00203919410706,0.00028395652771,0.130786895752
87,0.00367617607117,0.00213408470154,0.00211787223816,0.000293970108032,0.134921789169
88,0.0040500164032,0.00215983390808,0.00208497047424,0.000289916992188,0.133133888245
89,0.0104169845581,0.00192809104919,0.00203108787537,0.000275850296021,0.133442878723
90,0.00314712524414,0.00205492973328,0.00214195251465,0.000286102294922,0.1937520504
91,0.00311589241028,0.00195693969727,0.00200915336609,0.00026798248291,0.349560976028
92,0.00958895683289,0.00231099128723,0.0020649433136,0.000308990478516,0.199594974518
93,0.00306582450867,0.0020740032196,0.00222611427307,0.000289916992188,0.147873878479
94,0.00330018997192,0.00197505950928,0.00231409072876,0.000346899032593,0.148313999176
95,0.00303626060486,0.0020899772644,0.00209784507751,0.000280857086182,0.137428045273
96,0.0124349594116,0.00193405151367,0.00196194648743,0.000270843505859,0.144690036774
97,0.00314593315125,0.00211095809937,0.00216698646545,0.000280857086182,0.192326068878
98,0.00315093994141,0.00194907188416,0.00196099281311,0.000266075134277,0.135267972946
99,0.00455498695374,0.00209593772888,0.00209403038025,0.000283002853394,0.205691099167
