step,run,get,set,free,run_up_to_step
0,0.00442099571228,0.00382685661316,0.00375485420227,0.000368118286133,0.00517702102661
1,0.00391817092896,0.00373697280884,0.00381278991699,0.000366926193237,0.00582098960876
2,0.00338292121887,0.00387787818909,0.00379490852356,0.000367879867554,0.00733685493469
3,0.00333786010742,0.0038800239563,0.00366401672363,0.000303030014038,0.00718998908997
4,0.0041618347168,0.00389003753662,0.00322890281677,0.000432968139648,0.00929689407349
5,0.0034351348877,0.00396704673767,0.00374913215637,0.00040602684021,0.00994610786438
6,0.00366115570068,0.00395894050598,0.00348591804504,0.000241994857788,0.0107629299164
7,0.00313997268677,0.00390410423279,0.00377798080444,0.000369071960449,0.0116181373596
8,0.00334405899048,0.00382208824158,0.00386905670166,0.000424861907959,0.0297820568085
9,0.00347971916199,0.0037989616394,0.00398898124695,0.000361204147339,0.0128309726715
10,0.00315308570862,0.00383114814758,0.00397896766663,0.000394821166992,0.0139689445496
11,0.00714874267578,0.00366616249084,0.00395011901855,0.000355005264282,0.0171790122986
12,0.00554990768433,0.00376987457275,0.00403094291687,0.000381946563721,0.0200779438019
13,0.00575089454651,0.0039529800415,0.00401496887207,0.000391006469727,0.0201041698456
14,0.00560164451599,0.00381112098694,0.00387215614319,0.000375986099243,0.0226287841797
15,0.00534391403198,0.00385999679565,0.00384902954102,0.000373125076294,0.0231330394745
16,0.00625205039978,0.00380706787109,0.00389790534973,0.000369071960449,0.0229740142822
17,0.00543618202209,0.00400900840759,0.00410413742065,0.000436067581177,0.0257861614227
18,0.00532031059265,0.0038890838623,0.003986120224,0.000531196594238,0.0272200107574
19,0.00529909133911,0.00396919250488,0.00390815734863,0.0003821849823,0.0272288322449
20,0.00505685806274,0.00370812416077,0.00398707389832,0.000355005264282,0.0289390087128
21,0.00530290603638,0.0039370059967,0.00405216217041,0.000497817993164,0.0275211334229
22,0.00546598434448,0.00380301475525,0.00396299362183,0.000385046005249,0.0287339687347
23,0.00528311729431,0.00356602668762,0.00366497039795,0.000417947769165,0.0303862094879
24,0.00585794448853,0.00404500961304,0.00401306152344,0.000449895858765,0.0309340953827
25,0.00516390800476,0.0032479763031,0.00401306152344,0.000425100326538,0.0334649085999
26,0.00495409965515,0.0042200088501,0.00335502624512,0.000386953353882,0.0361359119415
27,0.00635886192322,0.00401902198792,0.00399017333984,0.000418186187744,0.0367789268494
28,0.00552010536194,0.00394916534424,0.00391006469727,0.000401973724365,0.0375521183014
29,0.00664305686951,0.00387811660767,0.0038800239563,0.000400066375732,0.0383858680725
30,0.00452780723572,0.00398993492126,0.00415682792664,0.000397205352783,0.0395090579987
31,0.00467801094055,0.0040590763092,0.00411009788513,0.000433206558228,0.0398080348969
32,0.00479102134705,0.00404191017151,0.00404691696167,0.000405073165894,0.0425250530243
33,0.00474691390991,0.00390887260437,0.00410199165344,0.000418901443481,0.0395231246948
34,0.00433802604675,0.00387620925903,0.00393414497375,0.000364065170288,0.0436229705811
35,0.00432300567627,0.00391006469727,0.00395917892456,0.000385999679565,0.0424699783325
36,0.00473427772522,0.00331807136536,0.00391507148743,0.000367879867554,0.0468490123749
37,0.00509810447693,0.00410199165344,0.00410199165344,0.000564098358154,0.0962409973145
38,0.00443887710571,0.00408315658569,0.00391507148743,0.000397920608521,0.0481288433075
39,0.00445079803467,0.00410509109497,0.00406408309937,0.00040602684021,0.045138835907
40,0.00446677207947,0.00398802757263,0.00393390655518,0.000385046005249,0.0487060546875
41,0.00480604171753,0.00396108627319,0.00398087501526,0.000381946563721,0.051167011261
42,0.00518202781677,0.00381708145142,0.00377202033997,0.000401973724365,0.0492858886719
43,0.00433707237244,0.00410079956055,0.00434398651123,0.000446081161499,0.0912008285522
44,0.00420022010803,0.0040590763092,0.00407385826111,0.00041389465332,0.0527329444885
45,0.00411295890808,0.00423216819763,0.00403094291687,0.00040602684021,0.0542550086975
46,0.00376391410828,0.00398302078247,0.00394701957703,0.000401973724365,0.057648897171
47,0.00438714027405,0.00340795516968,0.00367784500122,0.000272989273071,0.0582101345062
48,0.00433397293091,0.00375580787659,0.00389695167542,0.000414133071899,0.0555849075317
49,0.0552940368652,0.00440812110901,0.00431108474731,0.000518083572388,0.055871963501
50,0.0038959980011,0.0040819644928,0.00441193580627,0.000613927841187,0.0572118759155
51,0.00393605232239,0.00423812866211,0.00406384468079,0.000409841537476,0.0586791038513
52,0.00384712219238,0.00402307510376,0.00415086746216,0.000380992889404,0.0614449977875
53,0.00438284873962,0.00393509864807,0.00391507148743,0.000452995300293,0.0672600269318
54,0.00382089614868,0.00385594367981,0.00375008583069,0.000385046005249,0.0634069442749
55,0.00488924980164,0.00443410873413,0.00431704521179,0.000442981719971,0.0658180713654
56,0.00356793403625,0.00421118736267,0.00414395332336,0.000468969345093,0.0648698806763
57,0.00344896316528,0.00403094291687,0.00415992736816,0.000387907028198,0.0692539215088
58,0.00378584861755,0.00407600402832,0.00400495529175,0.000410079956055,0.069256067276
59,0.00452470779419,0.00366997718811,0.00388884544373,0.000375986099243,0.0717802047729
60,0.00353121757507,0.00389909744263,0.00392389297485,0.000453948974609,0.073194026947
61,0.00421214103699,0.00479388237,0.00432896614075,0.000410079956055,0.135572910309
62,0.00368189811707,0.00390791893005,0.00440216064453,0.000503063201904,0.0720241069794
63,0.00366401672363,0.00403714179993,0.00415706634521,0.000457048416138,0.0736680030823
64,0.00365090370178,0.00397396087646,0.00362610816956,0.000373125076294,0.0755190849304
65,0.00363898277283,0.00381398200989,0.00374484062195,0.000370025634766,0.0764789581299
66,0.00407004356384,0.0037670135498,0.00384998321533,0.000367164611816,0.0777010917664
67,0.00351405143738,0.00414896011353,0.00428199768066,0.000403881072998,0.206873893738
68,0.00361609458923,0.00424885749817,0.00403094291687,0.000411033630371,0.0785779953003
69,0.00366902351379,0.00421404838562,0.0041778087616,0.00043511390686,0.077488899231
70,0.00327587127686,0.00398898124695,0.00402498245239,0.000369787216187,0.0829789638519
71,0.00380396842957,0.00393795967102,0.00404500961304,0.000380992889404,0.0769288539886
72,0.00371384620667,0.00348210334778,0.00428485870361,0.000441074371338,0.079274892807
73,0.00330901145935,0.0042839050293,0.00354385375977,0.000473976135254,0.0847389698029
74,0.00358200073242,0.00439214706421,0.0040488243103,0.0003981590271,0.0848369598389
75,0.0038948059082,0.00420999526978,0.00413703918457,0.000407934188843,0.0867578983307
76,0.00347375869751,0.0040180683136,0.00401496887207,0.000416994094849,0.0861608982086
77,0.00320792198181,0.00380492210388,0.0037579536438,0.00036096572876,0.0871410369873
78,0.00325489044189,0.00406002998352,0.0041937828064,0.000443935394287,0.151279211044
79,0.00357294082642,0.00408601760864,0.00413608551025,0.000401973724365,0.0873401165009
80,0.0038731098175,0.00419807434082,0.00405192375183,0.000417947769165,0.0919740200043
81,0.00378322601318,0.00413298606873,0.003986120224,0.000393152236938,0.0942080020905
82,0.0034019947052,0.00375008583069,0.00447797775269,0.000441074371338,0.0934998989105
83,0.00352120399475,0.00410199165344,0.00427103042603,0.00040602684021,0.0945069789886
84,0.00341081619263,0.00424790382385,0.0041720867157,0.000412940979004,0.0969598293304
85,0.00345611572266,0.00396800041199,0.00385999679565,0.000365972518921,0.0952451229095
86,0.00327014923096,0.00361394882202,0.00373721122742,0.000346183776855,0.0962960720062
87,0.00390696525574,0.00411605834961,0.00413584709167,0.000496864318848,0.150733947754
88,0.00366806983948,0.00421977043152,0.0042929649353,0.000387907028198,0.0995709896088
89,0.00345015525818,0.00400400161743,0.00399684906006,0.000416040420532,0.0975461006165
90,0.00333881378174,0.00373697280884,0.00364804267883,0.000360012054443,0.0976049900055
91,0.00350069999695,0.00437688827515,0.0042769908905,0.000403165817261,0.149130105972
92,0.00351810455322,0.00425887107849,0.00402212142944,0.000394821166992,0.0985999107361
93,0.00377297401428,0.00405287742615,0.00414800643921,0.000394105911255,0.102975845337
94,0.00351285934448,0.00395107269287,0.00393509864807,0.000373125076294,0.104263067245
95,0.00347495079041,0.00438690185547,0.00449514389038,0.000514030456543,0.148458003998
96,0.00347781181335,0.00430607795715,0.0034339427948,0.000372171401978,0.101788043976
97,0.00352001190186,0.00384497642517,0.00397896766663,0.000375032424927,0.105973958969
98,0.00351095199585,0.00377988815308,0.00385999679565,0.000363826751709,0.111258029938
99,0.0046079158783,0.00370216369629,0.00314712524414,0.000313997268677,0.101002931595
