step,run,get,set,free,run_up_to_step
0,0.00230503082275,0.00239896774292,0.0023307800293,0.000311136245728,0.00336098670959
1,0.00201272964478,0.00233387947083,0.00231218338013,0.00030779838562,0.00352501869202
2,0.00199627876282,0.00221681594849,0.00227618217468,0.000306844711304,0.0040819644928
3,0.00217509269714,0.00232696533203,0.00224208831787,0.000308990478516,0.00450897216797
4,0.0024688243866,0.00223588943481,0.00219011306763,0.000308990478516,0.00497388839722
5,0.00212979316711,0.00218486785889,0.00227999687195,0.000309944152832,0.00583910942078
6,0.00235390663147,0.00225710868835,0.00223898887634,0.000308990478516,0.0057590007782
7,0.00217080116272,0.00223803520203,0.00242805480957,0.000345945358276,0.0207800865173
8,0.00201296806335,0.00229501724243,0.00220108032227,0.000312089920044,0.00673007965088
9,0.00214576721191,0.00237989425659,0.00224304199219,0.000313997268677,0.0168879032135
10,0.00249886512756,0.0023090839386,0.00232815742493,0.000324010848999,0.00772905349731
11,0.0024471282959,0.00224900245667,0.00228595733643,0.000309944152832,0.0084011554718
12,0.00204396247864,0.00222492218018,0.00221490859985,0.000311136245728,0.00850796699524
13,0.00513100624084,0.00222897529602,0.00216388702393,0.000311136245728,0.0092089176178
14,0.00205087661743,0.00223112106323,0.00231003761292,0.000309944152832,0.00981497764587
15,0.00205707550049,0.00221014022827,0.00254106521606,0.000377893447876,0.0100038051605
16,0.00209927558899,0.002445936203,0.00231313705444,0.000319004058838,0.0103681087494
17,0.00206685066223,0.00242710113525,0.00223016738892,0.000324964523315,0.0107498168945
18,0.00200128555298,0.00237107276917,0.00224804878235,0.000317096710205,0.0114719867706
19,0.00306296348572,0.00228595733643,0.00218391418457,0.000314950942993,0.0129070281982
20,0.00223898887634,0.00230312347412,0.00222396850586,0.000314950942993,0.0128870010376
21,0.00209498405457,0.00227403640747,0.0022349357605,0.00031304359436,0.0134110450745
22,0.00226593017578,0.00228190422058,0.00218200683594,0.000310897827148,0.0164408683777
23,0.00199794769287,0.00222897529602,0.00271701812744,0.000355958938599,0.0139608383179
24,0.00210309028625,0.00251507759094,0.00231289863586,0.000322103500366,0.0145280361176
25,0.00886678695679,0.00245404243469,0.0022611618042,0.000319004058838,0.0148100852966
26,0.00205779075623,0.00240612030029,0.00224709510803,0.000333070755005,0.0154328346252
27,0.00204682350159,0.00231695175171,0.00223588943481,0.000317096710205,0.0162670612335
28,0.00198411941528,0.00244307518005,0.00220894813538,0.000314950942993,0.0160689353943
29,0.00202488899231,0.00233101844788,0.00225591659546,0.00031304359436,0.0165858268738
30,0.00211191177368,0.00232195854187,0.0022029876709,0.000310182571411,0.0170629024506
31,0.00208210945129,0.00255608558655,0.00236487388611,0.000326871871948,0.0548610687256
32,0.00215005874634,0.00245499610901,0.00224995613098,0.000319957733154,0.0181589126587
33,0.00229907035828,0.0023980140686,0.00219988822937,0.000316143035889,0.0184488296509
34,0.00216817855835,0.00243496894836,0.00221300125122,0.000315189361572,0.0190181732178
35,0.00224304199219,0.00225400924683,0.00231695175171,0.000308990478516,0.0193648338318
36,0.00208687782288,0.00224590301514,0.00223803520203,0.000306129455566,0.019504070282
37,0.00266098976135,0.00217890739441,0.00291013717651,0.000358104705811,0.0197811126709
38,0.00255084037781,0.00270700454712,0.0029559135437,0.000364065170288,0.0247850418091
39,0.0020580291748,0.00259590148926,0.00233602523804,0.000323057174683,0.0214328765869
40,0.00266718864441,0.00261878967285,0.0024299621582,0.000328063964844,0.0244629383087
41,0.00219297409058,0.00254583358765,0.00224685668945,0.000337839126587,0.0226788520813
42,0.00209426879883,0.00243282318115,0.0022029876709,0.000319004058838,0.0229759216309
43,0.00206828117371,0.00223612785339,0.00215816497803,0.000308990478516,0.0239388942719
44,0.00211691856384,0.00223302841187,0.00296187400818,0.000360012054443,0.02365899086
45,0.00214123725891,0.00265622138977,0.00236988067627,0.000328063964844,0.0249757766724
46,0.00205278396606,0.00249886512756,0.00238990783691,0.000326156616211,0.0253171920776
47,0.00213384628296,0.0026159286499,0.00224804878235,0.000318050384521,0.0255999565125
48,0.00211691856384,0.00251889228821,0.00230407714844,0.000320911407471,0.0304911136627
49,0.00206685066223,0.002286195755,0.00220012664795,0.000311136245728,0.026083946228
50,0.00215911865234,0.00233888626099,0.00288796424866,0.000365972518921,0.0269939899445
51,0.00274300575256,0.00277304649353,0.00231385231018,0.000328063964844,0.0275280475616
52,0.00203704833984,0.00266098976135,0.00242304801941,0.000328063964844,0.0275659561157
53,0.00200510025024,0.00253200531006,0.0022280216217,0.000318050384521,0.0283541679382
54,0.00215983390808,0.00254988670349,0.00225305557251,0.000313997268677,0.0476620197296
55,0.0020318031311,0.00223183631897,0.00229406356812,0.000308036804199,0.028657913208
56,0.0647962093353,0.00310492515564,0.00242686271667,0.000338077545166,0.0288820266724
57,0.0020911693573,0.00277280807495,0.00229692459106,0.000346899032593,0.0306499004364
58,0.00215029716492,0.00269412994385,0.00227904319763,0.000323057174683,0.030277967453
59,0.00231790542603,0.00257682800293,0.00228881835938,0.000323057174683,0.0308499336243
60,0.00267720222473,0.00246787071228,0.00226593017578,0.000317096710205,0.0315878391266
61,0.00204491615295,0.00234508514404,0.00236582756042,0.000330924987793,0.0319528579712
62,0.00203609466553,0.00223803520203,0.00229501724243,0.000310897827148,0.0325310230255
63,0.00213599205017,0.00269198417664,0.00245499610901,0.000334024429321,0.104528188705
64,0.00227212905884,0.0026068687439,0.00242209434509,0.00032901763916,0.0341539382935
65,0.00226306915283,0.00244688987732,0.00226593017578,0.000319004058838,0.0343308448792
66,0.00250506401062,0.00230002403259,0.00223278999329,0.000312089920044,0.0340170860291
67,0.00210499763489,0.00222110748291,0.00285410881042,0.000355005264282,0.0339879989624
68,0.00220704078674,0.00246691703796,0.00234603881836,0.000325918197632,0.0978760719299
69,0.00231409072876,0.00246691703796,0.00232791900635,0.000322103500366,0.0351810455322
70,0.00241804122925,0.00245881080627,0.00223112106323,0.000318050384521,0.035637140274
71,0.00221276283264,0.00236010551453,0.00228404998779,0.000315189361572,0.0360360145569
72,0.00199580192566,0.00234389305115,0.00223278999329,0.000312089920044,0.0362110137939
73,0.00208115577698,0.00262880325317,0.00238394737244,0.000334978103638,0.0868060588837
74,0.00296425819397,0.00259900093079,0.00228214263916,0.000319957733154,0.0376060009003
75,0.00203514099121,0.0024049282074,0.00229811668396,0.000319004058838,0.038241147995
76,0.00245904922485,0.00250601768494,0.00225305557251,0.000320196151733,0.0452258586884
77,0.00207114219666,0.00232791900635,0.00219106674194,0.000317096710205,0.041738986969
78,0.00223207473755,0.00275301933289,0.00238919258118,0.00032901763916,0.0942080020905
79,0.00224208831787,0.00249290466309,0.00229811668396,0.000320196151733,0.0399618148804
80,0.00301384925842,0.00243496894836,0.00218296051025,0.000314950942993,0.0408668518066
81,0.00316691398621,0.00273180007935,0.002445936203,0.000318050384521,0.0412650108337
82,0.00240993499756,0.00220584869385,0.00214910507202,0.000308990478516,0.0413701534271
83,0.00241112709045,0.00266194343567,0.0024139881134,0.000326156616211,0.0980629920959
84,0.00212812423706,0.00252485275269,0.00232696533203,0.000319957733154,0.0427520275116
85,0.00208520889282,0.0024049282074,0.00226211547852,0.000314950942993,0.0432140827179
86,0.00209808349609,0.00222206115723,0.00221300125122,0.000310897827148,0.0432641506195
87,0.0022120475769,0.00268983840942,0.00243306159973,0.000324964523315,0.0863928794861
88,0.00202631950378,0.00251793861389,0.00230598449707,0.000320911407471,0.0447068214417
89,0.00214529037476,0.00239109992981,0.00224494934082,0.000317096710205,0.0450701713562
90,0.00209808349609,0.00220417976379,0.00223803520203,0.000308990478516,0.0457701683044
91,0.00257992744446,0.00270509719849,0.00241613388062,0.00032901763916,0.0450739860535
92,0.00222373008728,0.00251913070679,0.0023148059845,0.000323057174683,0.0463311672211
93,0.00211405754089,0.00246691703796,0.0023238658905,0.000317811965942,0.0470418930054
94,0.00200724601746,0.00220680236816,0.00223708152771,0.000311851501465,0.0673091411591
95,0.00268912315369,0.00229811668396,0.00270295143127,0.000355005264282,0.0505731105804
96,0.00200176239014,0.00260090827942,0.00245308876038,0.000324010848999,0.0483491420746
97,0.00248503684998,0.00246477127075,0.00225114822388,0.000318050384521,0.0488429069519
98,0.00211501121521,0.00244808197021,0.00220894813538,0.00031304359436,0.0486190319061
99,0.00204205513,0.00222206115723,0.00214791297913,0.000306844711304,0.0489828586578
