step,run,get,set,free,run_up_to_step
0,0.0299589633942,0.0127670764923,0.012423992157,0.00228190422058,0.032121181488
1,0.054114818573,0.0117890834808,0.0114212036133,0.00221085548401,0.0636520385742
2,0.0267989635468,0.0119450092316,0.0115780830383,0.00228190422058,0.08451795578
3,0.265263080597,0.0113070011139,0.011666059494,0.00228905677795,0.109779834747
4,0.0267779827118,0.0119380950928,0.0116457939148,0.00231790542603,0.132709980011
5,0.0273020267487,0.0124220848083,0.0118918418884,0.0024881362915,0.192831993103
6,0.0273771286011,0.0124201774597,0.0119550228119,0.00244307518005,0.184632062912
7,0.0270419120789,0.0122890472412,0.0118329524994,0.00240707397461,0.236754894257
8,0.313596010208,0.0116739273071,0.0125250816345,0.00268292427063,0.285923957825
9,0.0267930030823,0.0119259357452,0.0116159915924,0.00247597694397,0.274226903915
10,0.0273728370667,0.0117988586426,0.0123329162598,0.00246906280518,0.283987998962
11,0.0271909236908,0.0122420787811,0.012335062027,0.0025589466095,0.312503099442
12,0.0285139083862,0.0124979019165,0.0114998817444,0.00252079963684,0.372066020966
13,0.0273010730743,0.0116670131683,0.0136189460754,0.00365781784058,0.353214025497
14,0.0269048213959,0.01220703125,0.0121960639954,0.00251698493958,0.377653121948
15,0.0291550159454,0.0129840373993,0.0121641159058,0.00258302688599,0.406701087952
16,0.0305562019348,0.0139009952545,0.0119621753693,0.00272607803345,0.495635986328
17,0.0272662639618,0.0120429992676,0.0138468742371,0.00374293327332,0.547095060349
18,0.0271248817444,0.0125229358673,0.0119500160217,0.0025589466095,0.507680892944
19,0.0318319797516,0.0126941204071,0.0122089385986,0.00253796577454,0.513907909393
20,0.0305080413818,0.0121037960052,0.0115690231323,0.00258207321167,0.539106845856
21,0.0271759033203,0.0125970840454,0.0121719837189,0.00339698791504,0.567035913467
22,0.0541880130768,0.0123538970947,0.0121550559998,0.00289082527161,0.584714889526
23,0.0282866954803,0.0124800205231,0.0118308067322,0.00256299972534,0.628396034241
24,0.027646780014,0.0123970508575,0.0121450424194,0.00269198417664,0.667397022247
25,0.0273349285126,0.0117518901825,0.0125248432159,0.00344705581665,0.658483982086
26,0.0291531085968,0.0129330158234,0.0119860172272,0.00296306610107,0.719042062759
27,0.0330939292908,0.0137090682983,0.0119049549103,0.00273394584656,0.809144973755
28,0.0285909175873,0.0116860866547,0.0119349956512,0.00263094902039,0.744686841965
29,0.0287668704987,0.0124771595001,0.0121290683746,0.00269198417664,1.22428202629
30,0.0277700424194,0.0121219158173,0.0118379592896,0.00254607200623,0.826086044312
31,0.0274367332458,0.0122158527374,0.0122199058533,0.00253987312317,0.850307941437
32,0.0271778106689,0.0120210647583,0.0124170780182,0.00264310836792,0.869940042496
33,0.0314788818359,0.0116951465607,0.0120689868927,0.00305604934692,0.912708997726
34,0.0286071300507,0.0124599933624,0.0117490291595,0.00260281562805,0.92583489418
35,0.0282208919525,0.012001991272,0.0135250091553,0.00319695472717,0.983816146851
36,0.0283780097961,0.0118010044098,0.0118520259857,0.00309491157532,1.00515317917
37,0.0295910835266,0.0120859146118,0.0121421813965,0.00298500061035,1.36943602562
38,0.0283410549164,0.0129799842834,0.0121338367462,0.00275993347168,1.0057349205
39,0.0302159786224,0.0122501850128,0.0122921466827,0.00340604782104,1.08672308922
40,0.0308420658112,0.0129718780518,0.0127081871033,0.00287199020386,1.07980680466
41,0.0292568206787,0.0125660896301,0.0119700431824,0.00271201133728,1.08162808418
42,0.0395720005035,0.0137310028076,0.0123898983002,0.00332403182983,1.10398697853
43,0.027664899826,0.0123970508575,0.0122389793396,0.00311303138733,1.13883399963
44,0.031861782074,0.0130689144135,0.0126838684082,0.0027060508728,1.20526981354
45,0.0278739929199,0.012503862381,0.0124461650848,0.00270581245422,1.20977902412
46,0.0275011062622,0.0124521255493,0.012403011322,0.00256896018982,1.2212638855
47,0.0273871421814,0.0123989582062,0.0128297805786,0.00319504737854,1.26046991348
48,0.0276219844818,0.0124650001526,0.01202917099,0.00289607048035,1.30287909508
49,0.0275158882141,0.0124518871307,0.0120639801025,0.00295996665955,1.29181599617
50,0.483034849167,0.0121510028839,0.0123729705811,0.00264501571655,1.30255007744
51,0.0274648666382,0.0121610164642,0.0121221542358,0.00301504135132,1.33899188042
52,0.0296397209167,0.0122838020325,0.0121829509735,0.00277900695801,1.40098309517
53,0.0275502204895,0.0119421482086,0.0122859477997,0.00281500816345,1.77141404152
54,0.0294561386108,0.0125210285187,0.0124180316925,0.0025520324707,1.44888591766
55,0.0277910232544,0.0129899978638,0.0120232105255,0.00258493423462,1.56099390984
56,0.0276069641113,0.0122308731079,0.012494802475,0.00376582145691,1.48142886162
57,0.0297288894653,0.0126578807831,0.0127708911896,0.0032069683075,1.55990099907
58,0.0282769203186,0.012335062027,0.0128219127655,0.0028350353241,1.60634303093
59,0.0282349586487,0.0119481086731,0.0126910209656,0.00274586677551,1.87498903275
60,0.0274157524109,0.0120310783386,0.0122020244598,0.00268483161926,1.61899089813
61,0.0325438976288,0.0119519233704,0.0115320682526,0.00256609916687,1.62766218185
62,0.0278558731079,0.0117869377136,0.0118539333344,0.00254487991333,2.15229010582
63,0.0278489589691,0.0121009349823,0.0118069648743,0.00259113311768,1.69063091278
64,0.0312790870667,0.0119071006775,0.0117039680481,0.00261306762695,2.15534591675
65,0.0272009372711,0.0121080875397,0.0117700099945,0.00256085395813,1.73917078972
66,0.0274050235748,0.0117349624634,0.0117418766022,0.0025429725647,2.22315096855
67,0.0275068283081,0.0123431682587,0.012866973877,0.00305104255676,1.83869600296
68,0.0318691730499,0.0134429931641,0.0124659538269,0.00258183479309,1.85506701469
69,0.0280079841614,0.0123479366302,0.012316942215,0.00256204605103,1.85614085197
70,0.0270910263062,0.0123829841614,0.0128719806671,0.00295495986938,2.26466488838
71,0.0276319980621,0.0122170448303,0.0121448040009,0.00257611274719,1.9303958416
72,0.0306241512299,0.0136752128601,0.0129299163818,0.00256109237671,1.90386199951
73,0.027321100235,0.0117540359497,0.0124428272247,0.00254511833191,2.37601399422
74,0.0340461730957,0.0134999752045,0.0134270191193,0.00291395187378,2.02073001862
75,0.027113199234,0.0117988586426,0.0120759010315,0.00253915786743,2.33269286156
76,0.0348811149597,0.0137670040131,0.0125880241394,0.00275421142578,2.02428603172
77,0.0302670001984,0.0131611824036,0.0122950077057,0.00258088111877,2.43653893471
78,0.0509989261627,0.012265920639,0.0121560096741,0.00256109237671,2.05293393135
79,0.0295457839966,0.0121350288391,0.0124838352203,0.00338411331177,2.13919901848
80,0.0277769565582,0.0121989250183,0.0126891136169,0.00259304046631,2.09110689163
81,0.0300300121307,0.0125501155853,0.0122618675232,0.00256013870239,2.16921496391
82,0.0603837966919,0.0116968154907,0.0171291828156,0.00362420082092,2.63382220268
83,0.027734041214,0.0121309757233,0.0135469436646,0.00335884094238,2.17676115036
84,0.0274229049683,0.0130639076233,0.0123040676117,0.00256109237671,2.24048709869
85,0.0290100574493,0.0120871067047,0.0123300552368,0.00256896018982,2.2208571434
86,0.0271689891815,0.0117950439453,0.0120680332184,0.00261211395264,2.79961800575
87,0.0279891490936,0.0118880271912,0.0121231079102,0.00254201889038,2.32029891014
88,0.0275812149048,0.0118770599365,0.0124940872192,0.00284004211426,2.66676497459
89,0.0276689529419,0.0120701789856,0.0146069526672,0.00433897972107,2.35233092308
90,0.0273699760437,0.0123240947723,0.0123810768127,0.0026068687439,2.43095707893
91,0.0278220176697,0.0122358798981,0.0123839378357,0.00319600105286,2.39723706245
92,0.0274760723114,0.0126008987427,0.0125911235809,0.00263214111328,2.45045304298
93,0.0272269248962,0.0118820667267,0.0124540328979,0.00284290313721,2.82317399979
94,0.0276317596436,0.0122709274292,0.0122580528259,0.00277304649353,2.55731296539
95,0.0322058200836,0.0121338367462,0.0128688812256,0.00325417518616,2.56996798515
96,0.0444650650024,0.0122430324554,0.0122361183167,0.00256109237671,2.59871697426
97,0.0277841091156,0.0119640827179,0.0144889354706,0.00317811965942,2.87466621399
98,0.0281331539154,0.0122220516205,0.0134809017181,0.00298595428467,2.56456494331
99,0.0283117294312,0.0123031139374,0.0127048492432,0.00280690193176,3.19591188431
