step,run,get,set,free,run_up_to_step
0,0.0621829032898,0.0241060256958,0.0241041183472,0.00505709648132,0.281278848648
1,0.0285761356354,0.0244741439819,0.0232231616974,0.00467085838318,0.0741000175476
2,0.040952205658,0.0220119953156,0.0234959125519,0.00463080406189,0.302749872208
3,0.0365898609161,0.0216829776764,0.0229308605194,0.00448107719421,0.0763139724731
4,0.0419528484344,0.0211699008942,0.0242400169373,0.0047459602356,0.0634069442749
5,0.0344398021698,0.0233960151672,0.0230529308319,0.00462102890015,0.087033033371
6,0.041412115097,0.0216529369354,0.0234339237213,0.00453114509583,0.0831279754639
7,0.275315999985,0.0224370956421,0.0228190422058,0.00459122657776,0.0841019153595
8,0.0261619091034,0.0214850902557,0.0230951309204,0.00459313392639,0.211889982224
9,0.0298140048981,0.0223898887634,0.0235869884491,0.00459098815918,0.166138887405
10,0.0305593013763,0.02170586586,0.0226278305054,0.00464487075806,0.0898501873016
11,0.029618024826,0.0217158794403,0.023236989975,0.00456404685974,0.100125789642
12,0.0284440517426,0.0219151973724,0.0247550010681,0.00555205345154,0.0932261943817
13,0.0254468917847,0.0226891040802,0.0226850509644,0.00457382202148,0.0957050323486
14,0.0343940258026,0.0227718353271,0.0228650569916,0.00455689430237,0.0893039703369
15,0.0305712223053,0.0230700969696,0.0232110023499,0.00449204444885,0.101318120956
16,0.0234150886536,0.0268759727478,0.031594991684,0.00567007064819,0.11673283577
17,0.0302059650421,0.0216019153595,0.0240709781647,0.00526690483093,0.290110111237
18,0.0229661464691,0.0220210552216,0.02286195755,0.00450301170349,0.101117134094
19,0.0252449512482,0.0215039253235,0.0243139266968,0.00470399856567,0.124246835709
20,0.0264730453491,0.0268659591675,0.0236079692841,0.00450801849365,0.115751981735
21,0.0179109573364,0.0254819393158,0.0231420993805,0.00463199615479,0.142947912216
22,0.0481648445129,0.0217809677124,0.0241899490356,0.00469088554382,0.155061006546
23,0.0427820682526,0.022381067276,0.0230147838593,0.00448489189148,0.104443073273
24,0.0415668487549,0.0211200714111,0.0234839916229,0.00451302528381,0.162011146545
25,0.0549700260162,0.024512052536,0.0231430530548,0.00480914115906,0.108482837677
26,0.0291500091553,0.021870136261,0.0229539871216,0.00458598136902,0.0965850353241
27,0.0310091972351,0.0228118896484,0.0253460407257,0.00486612319946,0.111320972443
28,0.0329139232635,0.0219070911407,0.0247280597687,0.00486898422241,0.154628038406
29,0.0205039978027,0.0220668315887,0.0227921009064,0.00463795661926,0.134021997452
30,0.0293300151825,0.0222730636597,0.0236389636993,0.00467681884766,0.132638931274
31,0.0452208518982,0.0218849182129,0.0234751701355,0.00574111938477,0.142326831818
32,0.0356512069702,0.0240061283112,0.040983915329,0.00687599182129,0.167909145355
33,0.0243670940399,0.0226001739502,0.0232889652252,0.00479292869568,0.111752033234
34,0.0394611358643,0.0220129489899,0.021922826767,0.00590682029724,0.128256082535
35,0.0219659805298,0.0219838619232,0.0235888957977,0.00460696220398,0.240341901779
36,0.0182292461395,0.0220370292664,0.023059129715,0.00449395179749,0.146136045456
37,0.0236859321594,0.0218398571014,0.0226600170135,0.00451016426086,0.139287948608
38,0.0516967773438,0.0220139026642,0.0240349769592,0.00468993186951,0.114063024521
39,0.0239889621735,0.0219550132751,0.024286031723,0.00457000732422,0.158935070038
40,0.0412409305573,0.0221860408783,0.0236761569977,0.00588703155518,0.188555955887
41,0.0379858016968,0.0223939418793,0.0249261856079,0.00453996658325,0.190701961517
42,0.0345959663391,0.0215759277344,0.0237090587616,0.0045371055603,0.122821092606
43,0.0280649662018,0.021586894989,0.023549079895,0.00461792945862,0.182959079742
44,0.0409891605377,0.022449016571,0.0234708786011,0.00471091270447,0.203967094421
45,0.043251991272,0.0235919952393,0.0316259860992,0.00880908966064,0.138876914978
46,0.0288910865784,0.0221340656281,0.0232789516449,0.0045120716095,0.126551866531
47,0.0436298847198,0.0222239494324,0.0242049694061,0.00474119186401,0.290326118469
48,0.027263879776,0.0219779014587,0.02312707901,0.00456404685974,0.193643093109
49,0.0270702838898,0.0230238437653,0.0236039161682,0.00488495826721,0.138187170029
50,0.0213730335236,0.0219829082489,0.0252721309662,0.00592494010925,0.164314031601
51,0.041314125061,0.0216867923737,0.0240709781647,0.00494694709778,0.143795967102
52,0.0365529060364,0.0215570926666,0.0233371257782,0.00480604171753,0.172217130661
53,0.0347168445587,0.0216770172119,0.0231771469116,0.00477600097656,0.181097984314
54,0.0449857711792,0.0216958522797,0.0240049362183,0.00464296340942,0.142056941986
55,0.0297811031342,0.0217490196228,0.0234081745148,0.00466322898865,0.150321960449
56,0.0493538379669,0.0208759307861,0.0237920284271,0.00517892837524,0.193984985352
57,0.0163378715515,0.0225219726562,0.0239720344543,0.00468397140503,0.204056024551
58,0.0229158401489,0.0215718746185,0.0281209945679,0.00486302375793,0.169547080994
59,0.0248832702637,0.022078037262,0.0236759185791,0.00496315956116,0.185143947601
60,0.0145740509033,0.0255968570709,0.0324409008026,0.00652813911438,0.271114110947
61,0.0158641338348,0.0226271152496,0.0232019424438,0.00466704368591,0.203598976135
62,0.0265281200409,0.0220720767975,0.0233578681946,0.00572896003723,0.162581920624
63,0.0324242115021,0.0218501091003,0.023323059082,0.00455689430237,0.160970211029
64,0.0622000694275,0.023668050766,0.0254149436951,0.00667810440063,0.151694059372
65,0.0270359516144,0.0308418273926,0.0327820777893,0.00575494766235,0.299575090408
66,0.0331931114197,0.0265209674835,0.027841091156,0.00518417358398,0.375581026077
67,0.0364029407501,0.022057056427,0.0219650268555,0.00462293624878,0.155538082123
68,0.080137014389,0.0222539901733,0.0243000984192,0.00494003295898,0.637158870697
69,0.0281178951263,0.022919178009,0.023167848587,0.00476503372192,0.248556137085
70,0.244926929474,0.0221478939056,0.0229549407959,0.00464200973511,0.218201875687
71,0.040778875351,0.021880865097,0.0245819091797,0.00448393821716,0.204365968704
72,0.0588719844818,0.0222837924957,0.0233309268951,0.00487494468689,0.255679130554
73,0.0298452377319,0.0220630168915,0.0237390995026,0.00499701499939,0.221632957458
74,0.029363155365,0.0217499732971,0.0238330364227,0.0046968460083,0.536925077438
75,0.0399858951569,0.0218949317932,0.0246601104736,0.00475692749023,0.166229009628
76,0.0221910476685,0.0248019695282,0.025377035141,0.00452303886414,0.187161922455
77,0.0306258201599,0.0216240882874,0.0456490516663,0.00478100776672,0.18085694313
78,0.0484311580658,0.0276730060577,0.0232388973236,0.00466394424438,0.305926084518
79,0.0426392555237,0.0215859413147,0.0232348442078,0.00542497634888,0.21466088295
80,0.0405027866364,0.0214660167694,0.0229549407959,0.00456809997559,0.166175127029
81,0.0207891464233,0.0223529338837,0.0235478878021,0.00483798980713,0.213264942169
82,0.042582988739,0.0215167999268,0.0213289260864,0.00443387031555,0.212016105652
83,0.0250573158264,0.0213339328766,0.0279488563538,0.0054771900177,0.254610061646
84,0.0269858837128,0.0202279090881,0.024619102478,0.00470685958862,0.214117050171
85,0.026172876358,0.0219650268555,0.024778842926,0.00487399101257,0.205358028412
86,0.0328657627106,0.0212850570679,0.0231649875641,0.00452899932861,0.465739965439
87,0.0420019626617,0.0228447914124,0.0234179496765,0.00458192825317,0.321505784988
88,0.0440719127655,0.0214738845825,0.0233240127563,0.00460910797119,0.252079963684
89,0.0262320041656,0.0216219425201,0.0229330062866,0.00476408004761,0.247405052185
90,0.0179471969604,0.0265400409698,0.0233669281006,0.00642585754395,0.201737880707
91,0.216430902481,0.0215699672699,0.0232901573181,0.0045599937439,0.266533136368
92,0.0257370471954,0.0225768089294,0.023668050766,0.00483202934265,0.285844087601
93,0.0175769329071,0.0218620300293,0.0225470066071,0.00538396835327,0.202769994736
94,0.0399458408356,0.0223300457001,0.0229170322418,0.00469779968262,0.213675022125
95,0.247302770615,0.0219740867615,0.0229260921478,0.00457906723022,0.187798976898
96,0.0387969017029,0.0216269493103,0.0226759910583,0.00489807128906,0.290251016617
97,0.0283491611481,0.0214660167694,0.0266029834747,0.00580096244812,0.431041955948
98,0.0229201316833,0.0215921401978,0.023421049118,0.00453090667725,0.356519937515
99,0.0228288173676,0.0211629867554,0.0232088565826,0.00516510009766,0.562544107437
