step,run,get,set,free,run_up_to_step
0,0.00786805152893,0.00428199768066,0.00424003601074,0.000620126724243,0.00897693634033
1,0.00493693351746,0.00391697883606,0.00392413139343,0.000545978546143,0.00964903831482
2,0.00488901138306,0.00380802154541,0.00402998924255,0.000581979751587,0.0108730792999
3,0.00530099868774,0.00393199920654,0.00383615493774,0.000557899475098,0.0123209953308
4,0.00564002990723,0.00391697883606,0.00374698638916,0.000550985336304,0.0136430263519
5,0.00578308105469,0.00388813018799,0.0040500164032,0.000576972961426,0.0152778625488
6,0.00555610656738,0.0038628578186,0.00389790534973,0.000576019287109,0.0162699222565
7,0.00534200668335,0.0039210319519,0.00401496887207,0.000570058822632,0.0175709724426
8,0.0107471942902,0.00381803512573,0.00400114059448,0.000586032867432,0.0189371109009
9,0.00542640686035,0.00395607948303,0.00388598442078,0.000567197799683,0.0214591026306
10,0.00605201721191,0.00404286384583,0.00399684906006,0.00059700012207,0.0232491493225
11,0.00492811203003,0.00395202636719,0.0039689540863,0.000576972961426,0.0230088233948
12,0.00540804862976,0.00398397445679,0.0040340423584,0.000579833984375,0.0291318893433
13,0.00502395629883,0.00406813621521,0.00395107269287,0.000594139099121,0.0260701179504
14,0.00504589080811,0.00398707389832,0.00398206710815,0.000593900680542,0.0276091098785
15,0.00682997703552,0.00461387634277,0.00475597381592,0.00104999542236,0.0310108661652
16,0.00650691986084,0.00447607040405,0.00385284423828,0.000706911087036,0.0363779067993
17,0.00830125808716,0.00527310371399,0.00591087341309,0.00168418884277,0.0432729721069
18,0.0097291469574,0.00693798065186,0.00608897209167,0.0015389919281,0.148771047592
19,0.00811791419983,0.00501894950867,0.00429511070251,0.000710010528564,0.0464270114899
20,0.00600385665894,0.00394201278687,0.00384187698364,0.000581979751587,0.0375640392303
21,0.00475883483887,0.00412201881409,0.00398707389832,0.000607013702393,0.0681068897247
22,0.00494980812073,0.00386095046997,0.00403308868408,0.000597953796387,0.0451648235321
23,0.00483393669128,0.0037829875946,0.00433802604675,0.000718116760254,0.0388441085815
24,0.00494909286499,0.00428295135498,0.00411200523376,0.000605821609497,0.0408549308777
25,0.00507473945618,0.0039758682251,0.00430512428284,0.000993967056274,0.0421640872955
26,0.00731110572815,0.00483107566833,0.00442218780518,0.000900030136108,0.0499060153961
27,0.005859375,0.00415182113647,0.00397491455078,0.000590085983276,0.0528600215912
28,0.00577592849731,0.00391387939453,0.0047128200531,0.000793218612671,0.0461070537567
29,0.00551700592041,0.004065990448,0.00404715538025,0.000622987747192,0.100698947906
30,0.00520014762878,0.00388884544373,0.00402307510376,0.000622987747192,0.0484480857849
31,0.00478410720825,0.00387597084045,0.00423908233643,0.000644207000732,0.0499901771545
32,0.00508904457092,0.00403499603271,0.00408601760864,0.000653028488159,0.0620758533478
33,0.00476789474487,0.00399303436279,0.00402307510376,0.00062084197998,0.0529251098633
34,0.00490593910217,0.00400710105896,0.00403118133545,0.000622987747192,0.087418794632
35,0.00500512123108,0.00395679473877,0.00408005714417,0.000627994537354,0.0551559925079
36,0.00502490997314,0.00375509262085,0.0037260055542,0.000591039657593,0.0564908981323
37,0.00684905052185,0.00461506843567,0.00410509109497,0.000631093978882,0.109391212463
38,0.00568699836731,0.00410485267639,0.00421285629272,0.000656127929688,0.0638589859009
39,0.00565195083618,0.00390100479126,0.00419116020203,0.000689029693604,0.0649681091309
40,0.00507020950317,0.00422406196594,0.00406002998352,0.000646829605103,0.066113948822
41,0.00492119789124,0.00391888618469,0.00395488739014,0.000601053237915,0.0883951187134
42,0.00515484809875,0.00418281555176,0.00409412384033,0.000634908676147,0.0647780895233
43,0.00503587722778,0.00410199165344,0.00470280647278,0.00107789039612,0.0655000209808
44,0.00500011444092,0.00393009185791,0.00440287590027,0.000731945037842,0.0857899188995
45,0.00514793395996,0.00419282913208,0.00409007072449,0.000643968582153,0.0741720199585
46,0.00677132606506,0.00494503974915,0.00406694412231,0.000664949417114,0.0693988800049
47,0.00589489936829,0.00453495979309,0.0043351650238,0.000679969787598,0.109053134918
48,0.00627517700195,0.00437211990356,0.00421404838562,0.00068998336792,0.075404882431
49,0.00618004798889,0.00396394729614,0.00395393371582,0.000624895095825,0.0839018821716
50,0.00517177581787,0.004390001297,0.00420498847961,0.000679969787598,0.131727933884
51,0.0046968460083,0.0040020942688,0.00400519371033,0.000632047653198,0.0769991874695
52,0.00490403175354,0.00437998771667,0.00409388542175,0.000658988952637,0.119048833847
53,0.00479102134705,0.00419211387634,0.00401592254639,0.000627994537354,0.0799040794373
54,0.00503134727478,0.00386095046997,0.00422501564026,0.000795841217041,0.0810232162476
55,0.00521802902222,0.00422215461731,0.00413393974304,0.000669956207275,0.0825800895691
56,0.00471305847168,0.00386691093445,0.00393605232239,0.000618934631348,0.112255096436
57,0.0050630569458,0.00416994094849,0.00424885749817,0.000710010528564,0.202836990356
58,0.00716590881348,0.00502896308899,0.00401282310486,0.000654935836792,0.102648973465
59,0.00564503669739,0.00386714935303,0.00395894050598,0.000635147094727,0.0902421474457
60,0.00494694709778,0.00417304039001,0.00414204597473,0.000687837600708,0.0887069702148
61,0.00480604171753,0.0040020942688,0.0040340423584,0.000662088394165,0.0894570350647
62,0.00510573387146,0.00418996810913,0.00447297096252,0.00075888633728,0.128793954849
63,0.00486612319946,0.00400686264038,0.00451683998108,0.000787973403931,0.0926280021667
64,0.0050528049469,0.00436305999756,0.00426197052002,0.000693082809448,0.160947084427
65,0.00520396232605,0.0041651725769,0.00412893295288,0.00072717666626,0.100321054459
66,0.00484275817871,0.00401997566223,0.00466108322144,0.000807046890259,0.129806041718
67,0.00514316558838,0.00441908836365,0.00425601005554,0.000713109970093,0.0999209880829
68,0.00529003143311,0.00400185585022,0.00462102890015,0.000802040100098,0.099622964859
69,0.00600504875183,0.00428485870361,0.00420212745667,0.000712871551514,0.13275384903
70,0.0048999786377,0.00393199920654,0.00392198562622,0.000676870346069,0.102919101715
71,0.00510621070862,0.00442790985107,0.00426506996155,0.000719785690308,0.142199993134
72,0.0068371295929,0.00442910194397,0.00406408309937,0.00067400932312,0.105498075485
73,0.00561499595642,0.00447106361389,0.00501608848572,0.00114107131958,0.141381025314
74,0.00574016571045,0.00399088859558,0.00397896766663,0.000682830810547,0.117540121078
75,0.00517511367798,0.0045211315155,0.00417017936707,0.000746011734009,0.129619836807
76,0.00502109527588,0.00388312339783,0.00385880470276,0.000645875930786,0.110696077347
77,0.00693202018738,0.00500321388245,0.0042769908905,0.000730037689209,0.170390844345
78,0.00536012649536,0.00434899330139,0.00394201278687,0.000637054443359,0.113414049149
79,0.00812602043152,0.00497102737427,0.00437188148499,0.0013108253479,0.135783910751
80,0.00597715377808,0.00416398048401,0.00393390655518,0.000674962997437,0.118632793427
81,0.00571727752686,0.0040431022644,0.00410914421082,0.000740051269531,0.342856168747
82,0.00489902496338,0.00398778915405,0.00400590896606,0.000662803649902,0.117900848389
83,0.00488495826721,0.00407981872559,0.00400495529175,0.000696897506714,0.139552116394
84,0.00512290000916,0.00390219688416,0.00399804115295,0.000679969787598,0.12250494957
85,0.00511193275452,0.0039529800415,0.00393795967102,0.000691890716553,0.158463954926
86,0.00549411773682,0.00416398048401,0.00404191017151,0.000704050064087,0.135792970657
87,0.00507616996765,0.00387477874756,0.00409603118896,0.000713109970093,0.150932073593
88,0.00526309013367,0.00395393371582,0.00382304191589,0.000645160675049,0.125116109848
89,0.00570797920227,0.00397396087646,0.00400686264038,0.000698089599609,0.147754907608
90,0.00498104095459,0.00392293930054,0.00399804115295,0.000689029693604,0.132085084915
91,0.0049889087677,0.00396490097046,0.00403499603271,0.00074291229248,0.150767087936
92,0.0050048828125,0.00385308265686,0.00408697128296,0.000716924667358,0.130677938461
93,0.00472593307495,0.00387215614319,0.00399994850159,0.000688076019287,0.153596162796
94,0.00525188446045,0.00384092330933,0.00422787666321,0.000805854797363,0.132300853729
95,0.00521302223206,0.00403690338135,0.004145860672,0.000704050064087,0.135946989059
96,0.00489807128906,0.0038480758667,0.00429606437683,0.000818967819214,0.136080026627
97,0.00500917434692,0.00398802757263,0.00406503677368,0.000709056854248,0.137873888016
98,0.00516295433044,0.0041229724884,0.0044322013855,0.000818014144897,0.160938024521
99,0.0056459903717,0.00381398200989,0.00397801399231,0.000634908676147,0.14107298851
