step,run,get,set,free,run_up_to_step
0,0.0731310844421,0.0213239192963,0.0219690799713,0.00434112548828,0.0700588226318
1,0.0545909404755,0.0199258327484,0.0212950706482,0.00441598892212,0.139842987061
2,0.0507791042328,0.0197200775146,0.0217850208282,0.00441908836365,0.172065973282
3,0.0659182071686,0.0218889713287,0.0217690467834,0.00439310073853,0.239789009094
4,0.069305896759,0.0201439857483,0.0211591720581,0.00442790985107,0.765068054199
5,0.0720479488373,0.0200569629669,0.0233860015869,0.00501298904419,0.378413200378
6,0.071298122406,0.0203437805176,0.0217478275299,0.00447988510132,0.472896099091
7,0.0749781131744,0.0202610492706,0.021064043045,0.00445604324341,0.509783983231
8,0.0960669517517,0.0202791690826,0.0216491222382,0.00499391555786,0.678253889084
9,0.0848832130432,0.0208699703217,0.0217151641846,0.00489687919617,0.690305233002
10,0.128153800964,0.0211927890778,0.021476984024,0.00447797775269,0.784098148346
11,0.0841958522797,0.0203239917755,0.0223920345306,0.00532388687134,1.36095190048
12,0.108167886734,0.0206389427185,0.0218272209167,0.00498580932617,0.973216056824
13,0.0981869697571,0.020928144455,0.0221538543701,0.00484299659729,1.05736804008
14,0.089928150177,0.0202920436859,0.0216019153595,0.00495409965515,1.13966703415
15,0.121223926544,0.0201990604401,0.0215411186218,0.00513696670532,1.22982907295
16,0.095107793808,0.0199868679047,0.0215389728546,0.00443506240845,1.32548093796
17,0.141279935837,0.0193090438843,0.0226020812988,0.00499200820923,1.38022994995
18,0.108997821808,0.0202541351318,0.0212309360504,0.00500297546387,1.52212715149
19,0.120486974716,0.0203170776367,0.0210671424866,0.00445985794067,1.65976905823
20,0.108994960785,0.0203659534454,0.05335688591,0.00570201873779,1.70936799049
21,0.119520664215,0.0227229595184,0.0217339992523,0.00471782684326,1.89018797874
22,0.115469694138,0.0202541351318,0.0214359760284,0.00467085838318,1.89639878273
23,0.108622074127,0.0211460590363,0.0213630199432,0.00448298454285,2.38742804527
24,0.104350090027,0.0205290317535,0.0222849845886,0.00641798973083,2.18278408051
25,0.118579626083,0.0205340385437,0.0210788249969,0.00446510314941,2.35947084427
26,0.122545003891,0.0212440490723,0.0218539237976,0.00525403022766,2.44958209991
27,0.120604038239,0.021026134491,0.0213620662689,0.00488901138306,2.54546117783
28,0.1303358078,0.0207629203796,0.0216290950775,0.00452899932861,2.74481201172
29,0.124796867371,0.0204889774323,0.0214009284973,0.00551605224609,3.47415709496
30,0.126336812973,0.0204021930695,0.0224709510803,0.00529980659485,2.87917613983
31,0.12668800354,0.0203261375427,0.0210981369019,0.00487589836121,3.09641385078
32,0.137146949768,0.0203158855438,0.0227439403534,0.0056369304657,3.07975196838
33,0.194705963135,0.0221858024597,0.021507024765,0.00461387634277,3.09639596939
34,0.128892183304,0.0211899280548,0.0219829082489,0.00535416603088,3.48311901093
35,0.154341936111,0.0208959579468,0.0210990905762,0.00452089309692,3.8874001503
36,0.133815050125,0.0203070640564,0.0217988491058,0.00512790679932,3.95999908447
37,0.156381130219,0.021693944931,0.0219879150391,0.00518798828125,3.98995494843
38,0.152934789658,0.0225880146027,0.0216639041901,0.00512194633484,3.88268899918
39,0.152930021286,0.0207591056824,0.0231640338898,0.00514197349548,3.91354799271
40,0.130645036697,0.0204949378967,0.0211458206177,0.00474095344543,4.01974391937
41,0.128798246384,0.0202670097351,0.022430896759,0.00528407096863,4.71602416039
42,0.163923025131,0.0206210613251,0.0212471485138,0.00447607040405,4.60364198685
43,0.136738777161,0.0205209255219,0.021299123764,0.00550007820129,4.48436999321
44,0.151079893112,0.0204799175262,0.022362947464,0.00445413589478,4.78656196594
45,0.121651172638,0.0207240581512,0.0220091342926,0.00545406341553,4.69261312485
46,0.187169075012,0.0205080509186,0.0225858688354,0.00506186485291,5.17626404762
47,0.136893749237,0.0203909873962,0.0221810340881,0.00517010688782,4.86511087418
48,0.147461175919,0.020623922348,0.0216588973999,0.00448298454285,5.17118597031
49,0.149629116058,0.0205760002136,0.0222101211548,0.00490999221802,5.11736297607
50,0.155189990997,0.0218448638916,0.0216760635376,0.00449299812317,5.50641298294
51,0.139954090118,0.0202450752258,0.0226190090179,0.00448107719421,5.7835149765
52,0.133344173431,0.0206170082092,0.0223269462585,0.00456094741821,5.90965795517
53,0.137344837189,0.0202429294586,0.021821975708,0.00520920753479,6.43082380295
54,0.172582864761,0.021644115448,0.0216791629791,0.00486993789673,6.371986866
55,0.167731046677,0.0206081867218,0.0215828418732,0.00446200370789,6.17916297913
56,0.146089076996,0.0203440189362,0.0228381156921,0.00565791130066,6.8918170929
57,0.16438794136,0.0203800201416,0.0215330123901,0.00498104095459,6.42992091179
58,0.157869815826,0.0206408500671,0.0216829776764,0.00448894500732,6.51984882355
59,0.158960103989,0.0214688777924,0.0215661525726,0.00496196746826,7.11887693405
60,0.148594856262,0.0205430984497,0.0218341350555,0.00447297096252,6.97031211853
61,0.164653778076,0.0203649997711,0.0215690135956,0.00446891784668,7.28465199471
62,0.184473991394,0.0211701393127,0.0212709903717,0.00453686714172,7.37464594841
63,0.170525550842,0.0208141803741,0.022488117218,0.00508308410645,7.26736402512
64,0.179265975952,0.0212390422821,0.0221607685089,0.00479698181152,7.70018410683
65,0.14724111557,0.0204858779907,0.0215229988098,0.00451302528381,7.79886102676
66,0.148346185684,0.0209131240845,0.0216088294983,0.00505995750427,7.75047397614
67,0.150600910187,0.0221769809723,0.0221660137177,0.00449204444885,7.99671196938
68,0.167669057846,0.0205860137939,0.0212829113007,0.00454878807068,8.42243504524
69,0.196095943451,0.0212450027466,0.0212068557739,0.00453996658325,8.44043397903
70,0.162607908249,0.0213661193848,0.0212359428406,0.00507116317749,8.14294409752
71,0.149112939835,0.0205988883972,0.0214529037476,0.00454998016357,8.61264395714
72,0.171031951904,0.0213379859924,0.0216009616852,0.00449681282043,8.472230196
73,0.149089097977,0.020308971405,0.0213179588318,0.00451612472534,9.15139913559
74,0.19784283638,0.0207779407501,0.0217201709747,0.00448203086853,9.38186907768
75,0.155418872833,0.0217471122742,0.0211470127106,0.00507092475891,9.0303940773
76,0.179718971252,0.0209319591522,0.0221309661865,0.00472712516785,9.19350099564
77,0.165531158447,0.0217661857605,0.0218489170074,0.00447916984558,9.27168488503
78,0.156663894653,0.0273869037628,0.0216641426086,0.00448799133301,9.95543789864
79,0.143401145935,0.0217280387878,0.0217831134796,0.00456285476685,9.95543193817
80,0.0930290222168,0.0196149349213,0.0533361434937,0.00447702407837,10.3532488346
81,0.0527329444885,0.0203881263733,0.0217070579529,0.00456500053406,9.9999859333
82,0.0607252120972,0.0207779407501,0.0214540958405,0.00535082817078,9.72192001343
83,0.0595231056213,0.0204939842224,0.0236530303955,0.00497603416443,9.80396389961
84,0.0525262355804,0.0208330154419,0.0215878486633,0.00448298454285,9.73167395592
85,0.0717828273773,0.0258600711823,0.0216360092163,0.00460410118103,9.88322091103
86,0.0524270534515,0.0203261375427,0.0210340023041,0.00476908683777,10.3172910213
87,0.0614838600159,0.0220448970795,0.0215401649475,0.00446796417236,10.16238904
88,0.085706949234,0.0198900699615,0.0212337970734,0.00449800491333,10.6286830902
89,0.0700471401215,0.0205318927765,0.0221838951111,0.00551605224609,10.0968999863
90,0.0783519744873,0.0240550041199,0.0212371349335,0.00446701049805,9.96147799492
91,0.0535199642181,0.0203649997711,0.021703004837,0.00447010993958,10.2053570747
92,0.0513617992401,0.0205368995667,0.0225279331207,0.00537705421448,10.1309509277
93,0.0515849590302,0.0203919410706,0.0260438919067,0.00480699539185,10.0950031281
94,0.0522420406342,0.0205299854279,0.0212850570679,0.00455784797668,10.2510929108
95,0.0528290271759,0.0205562114716,0.0210490226746,0.00459980964661,10.3747959137
96,0.0538489818573,0.0218448638916,0.021458864212,0.00449204444885,10.5226428509
97,0.0769710540771,0.0202171802521,0.0226888656616,0.00446486473083,10.455354929
98,0.0513808727264,0.0203301906586,0.0216889381409,0.00445580482483,10.7262840271
99,0.0593702793121,0.0216469764709,0.0215480327606,0.00476408004761,10.9617650509
