step,run,get,set,free,run_up_to_step
0,0.00573110580444,0.00564098358154,0.00594592094421,0.000518083572388,0.00658202171326
1,0.00381207466125,0.00419497489929,0.00585603713989,0.00048303604126,0.00715303421021
2,0.00377082824707,0.00531911849976,0.00594902038574,0.000488996505737,0.00789594650269
3,0.00474500656128,0.00558114051819,0.00602412223816,0.000491142272949,0.00961303710938
4,0.00389194488525,0.00541305541992,0.00611901283264,0.000534057617188,0.0114841461182
5,0.00414896011353,0.00527405738831,0.00576210021973,0.000494956970215,0.0271232128143
6,0.0040180683136,0.00698089599609,0.00574803352356,0.000556945800781,0.0132999420166
7,0.00420522689819,0.00514197349548,0.00594592094421,0.000504970550537,0.0132689476013
8,0.00384402275085,0.00564193725586,0.00609111785889,0.000494956970215,0.0154271125793
9,0.00411319732666,0.00541400909424,0.0058810710907,0.000545024871826,0.0158908367157
10,0.0039370059967,0.00557017326355,0.00590991973877,0.000492811203003,0.0159890651703
11,0.00489902496338,0.00528311729431,0.00596809387207,0.000547885894775,0.0185840129852
12,0.00428509712219,0.00565385818481,0.00597620010376,0.000537872314453,0.0205681324005
13,0.00386714935303,0.0055730342865,0.0059552192688,0.000529050827026,0.0208139419556
14,0.00370287895203,0.005863904953,0.00613498687744,0.000545024871826,0.0213179588318
15,0.00379109382629,0.00553917884827,0.00602793693542,0.000516891479492,0.0232059955597
16,0.00351905822754,0.00538992881775,0.00591421127319,0.00053882598877,0.0225479602814
17,0.00380706787109,0.00562191009521,0.00590014457703,0.000540018081665,0.024866104126
18,0.00389099121094,0.00578904151917,0.00634503364563,0.000606060028076,0.026171207428
19,0.00398397445679,0.00557899475098,0.00616407394409,0.0005202293396,0.0270168781281
20,0.00385594367981,0.00568389892578,0.00613188743591,0.000591993331909,0.0276570320129
21,0.00396990776062,0.00542116165161,0.00606298446655,0.000509023666382,0.0261778831482
22,0.00390696525574,0.00554013252258,0.00581312179565,0.00055193901062,0.0298237800598
23,0.00383400917053,0.00575399398804,0.00530886650085,0.000560998916626,0.0666718482971
24,0.00484395027161,0.0056300163269,0.00594115257263,0.000536203384399,0.0319440364838
25,0.00408291816711,0.00591611862183,0.00604486465454,0.000508069992065,0.0326490402222
26,0.00414299964905,0.00544285774231,0.00597596168518,0.000613927841187,0.033478975296
27,0.00361919403076,0.00458812713623,0.00515103340149,0.000498056411743,0.0334479808807
28,0.00407910346985,0.00563192367554,0.00631308555603,0.000642061233521,0.0355639457703
29,0.00397396087646,0.00597405433655,0.00612187385559,0.00055193901062,0.0366032123566
30,0.00389814376831,0.00600600242615,0.00614595413208,0.000610113143921,0.0373690128326
31,0.00361084938049,0.00561189651489,0.00635814666748,0.000607013702393,0.0365691184998
32,0.00448083877563,0.00577712059021,0.00618195533752,0.000520944595337,0.0344030857086
33,0.00356698036194,0.00527715682983,0.00610399246216,0.000581026077271,0.037663936615
34,0.00386500358582,0.0059061050415,0.00622797012329,0.000541925430298,0.0405559539795
35,0.00399303436279,0.0057590007782,0.0063009262085,0.000553131103516,0.0398991107941
36,0.00388479232788,0.00581884384155,0.00622200965881,0.000566959381104,0.0404191017151
37,0.00379204750061,0.00947999954224,0.00608086585999,0.000556945800781,0.04314494133
38,0.00402998924255,0.00576090812683,0.00633406639099,0.000534057617188,0.0451619625092
39,0.00414395332336,0.00556302070618,0.00658488273621,0.000595092773438,0.0426118373871
40,0.00434398651123,0.00597405433655,0.00660085678101,0.000702142715454,0.0466940402985
41,0.00391101837158,0.00600719451904,0.00639319419861,0.00065803527832,0.0490500926971
42,0.00375699996948,0.00608706474304,0.00599694252014,0.000596046447754,0.0468888282776
43,0.00371694564819,0.0055251121521,0.00586605072021,0.000615835189819,0.0470900535583
44,0.00352215766907,0.0059540271759,0.00644993782043,0.000609159469604,0.0506110191345
45,0.00386095046997,0.00605607032776,0.00631999969482,0.00057315826416,0.0527219772339
46,0.00382590293884,0.00748109817505,0.00627088546753,0.000705003738403,0.0536170005798
47,0.00396704673767,0.00559091567993,0.00603604316711,0.000532150268555,0.0502490997314
48,0.00391483306885,0.00555396080017,0.00555109977722,0.00050687789917,0.0546381473541
49,0.00420808792114,0.00599694252014,0.00652384757996,0.000581979751587,0.110077142715
50,0.00391697883606,0.00618815422058,0.0064160823822,0.000746965408325,0.0528259277344
51,0.00513505935669,0.00579905509949,0.00605392456055,0.000627040863037,0.0579369068146
52,0.00391221046448,0.00529909133911,0.00627684593201,0.000558853149414,0.0596160888672
53,0.00389623641968,0.00533008575439,0.00601005554199,0.000526905059814,0.057245016098
54,0.00418829917908,0.00597596168518,0.00691699981689,0.00060510635376,0.100687980652
55,0.00384211540222,0.00608587265015,0.00660395622253,0.000747919082642,0.0669131278992
56,0.00397276878357,0.00600790977478,0.00649094581604,0.000548124313354,0.063903093338
57,0.00392198562622,0.00594091415405,0.00594806671143,0.00053596496582,0.0607841014862
58,0.00388789176941,0.00603413581848,0.00621891021729,0.000552892684937,0.0645701885223
59,0.00442504882812,0.00635099411011,0.00659990310669,0.000607967376709,0.121692895889
60,0.00408792495728,0.0064799785614,0.00648283958435,0.000607967376709,0.0695068836212
61,0.00373101234436,0.00575590133667,0.00632500648499,0.000634908676147,0.067174911499
62,0.00374603271484,0.00580501556396,0.00630712509155,0.000615835189819,0.0686731338501
63,0.00459289550781,0.00581216812134,0.00679707527161,0.000576972961426,0.0672001838684
64,0.00423407554626,0.00612688064575,0.00603699684143,0.000554084777832,0.0667808055878
65,0.00390124320984,0.00620794296265,0.00631999969482,0.000834941864014,0.0732789039612
66,0.00361800193787,0.00560402870178,0.00598907470703,0.00052285194397,0.0704100131989
67,0.00443601608276,0.00607395172119,0.00665998458862,0.000813007354736,0.0732309818268
68,0.00373911857605,0.00614404678345,0.00645399093628,0.00070595741272,0.0702679157257
69,0.00380706787109,0.00579404830933,0.00648307800293,0.000714063644409,0.0803229808807
70,0.00379610061646,0.00556516647339,0.0062198638916,0.000550031661987,0.0732550621033
71,0.00435185432434,0.00615501403809,0.00673484802246,0.000608205795288,0.11776304245
72,0.00396728515625,0.00608110427856,0.00630497932434,0.000715970993042,0.0756859779358
73,0.00404381752014,0.00593996047974,0.00620794296265,0.000641822814941,0.0825572013855
74,0.00374412536621,0.00575304031372,0.00593495368958,0.000532150268555,0.0777471065521
75,0.0042507648468,0.00625205039978,0.00653100013733,0.000675916671753,0.115610837936
76,0.00376129150391,0.00607681274414,0.00650191307068,0.000643968582153,0.0857439041138
77,0.00377821922302,0.00573301315308,0.006178855896,0.000515222549438,0.081955909729
78,0.00382399559021,0.00541806221008,0.00579190254211,0.00049901008606,0.0858769416809
79,0.00418615341187,0.00656509399414,0.0065860748291,0.000627994537354,0.122923851013
80,0.00403308868408,0.0063099861145,0.00650000572205,0.000610113143921,0.0913338661194
81,0.00394606590271,0.0058958530426,0.00583386421204,0.000564813613892,0.0863990783691
82,0.00368094444275,0.00562500953674,0.00579881668091,0.000539779663086,0.0916941165924
83,0.00430011749268,0.00675392150879,0.00644707679749,0.000771999359131,0.129786014557
84,0.00404787063599,0.00590395927429,0.0064070224762,0.000625848770142,0.0947690010071
85,0.00387120246887,0.00549483299255,0.00627398490906,0.000569820404053,0.090126991272
86,0.00383687019348,0.0055079460144,0.00587606430054,0.00049901008606,0.095911026001
87,0.00450372695923,0.00692915916443,0.00665211677551,0.000624895095825,0.133095026016
88,0.00384426116943,0.00611591339111,0.00653791427612,0.00070595741272,0.0995140075684
89,0.00353693962097,0.00556588172913,0.00602889060974,0.000542879104614,0.092481136322
90,0.00418496131897,0.00547385215759,0.00595998764038,0.000499963760376,0.100807905197
91,0.00373792648315,0.00558304786682,0.00694704055786,0.000643968582153,0.0924260616302
92,0.00379085540771,0.00622606277466,0.00627994537354,0.000569820404053,0.0963900089264
93,0.00426197052002,0.00540590286255,0.00596404075623,0.000625133514404,0.104475975037
94,0.00385093688965,0.00535416603088,0.00585007667542,0.000558137893677,0.106508970261
95,0.00403594970703,0.00603294372559,0.00638198852539,0.000648975372314,0.1446352005
96,0.00390195846558,0.00584101676941,0.0059700012207,0.000540971755981,0.10831284523
97,0.00419807434082,0.00511884689331,0.00587701797485,0.000497102737427,0.104755878448
98,0.00377082824707,0.00533294677734,0.00724101066589,0.000616073608398,0.101459980011
99,0.00401711463928,0.00623297691345,0.00676298141479,0.000843048095703,0.245497941971
