step,run,get,set,free,run_up_to_step
0,0.00412178039551,0.00739288330078,0.00684189796448,0.00103402137756,0.00540614128113
1,0.00327587127686,0.00676417350769,0.0070378780365,0.00100803375244,0.00572395324707
2,0.0035080909729,0.00662612915039,0.00715589523315,0.00153708457947,0.00623512268066
3,0.002690076828,0.00666689872742,0.00705790519714,0.00118780136108,0.0269901752472
4,0.00486397743225,0.00784993171692,0.0070788860321,0.00109696388245,0.00816297531128
5,0.00274467468262,0.00661706924438,0.00687885284424,0.000960111618042,0.00816702842712
6,0.00377011299133,0.00684905052185,0.00697302818298,0.00117588043213,0.00914001464844
7,0.00299215316772,0.00668692588806,0.00689101219177,0.0010290145874,0.00929093360901
8,0.00316500663757,0.00688695907593,0.00710701942444,0.000990152359009,0.0106749534607
9,0.00347685813904,0.00672507286072,0.00703382492065,0.00127196311951,0.0564119815826
10,0.0289540290833,0.00702619552612,0.00732398033142,0.00113296508789,0.0123870372772
11,0.00278115272522,0.00689101219177,0.00707817077637,0.00113916397095,0.0128488540649
12,0.00292301177979,0.00677394866943,0.00687193870544,0.00100302696228,0.0135350227356
13,0.00296878814697,0.00676488876343,0.00722002983093,0.00110912322998,0.0136461257935
14,0.00355005264282,0.00693678855896,0.00697803497314,0.00119400024414,0.0147850513458
15,0.00295615196228,0.00682902336121,0.00711798667908,0.00113606452942,0.0848858356476
16,0.00315523147583,0.00703692436218,0.00727701187134,0.00117588043213,0.0185079574585
17,0.00382494926453,0.0070321559906,0.00742483139038,0.00134110450745,0.0200698375702
18,0.0026228427887,0.00662302970886,0.00694012641907,0.00103211402893,0.0169720649719
19,0.0032901763916,0.00682210922241,0.00690197944641,0.00101399421692,0.0184180736542
20,0.00272393226624,0.00677013397217,0.00747203826904,0.00182104110718,0.0185329914093
21,0.00372695922852,0.00661110877991,0.00791597366333,0.00150394439697,0.0186800956726
22,0.00376796722412,0.00694894790649,0.00697708129883,0.00107717514038,0.0201950073242
23,0.00268483161926,0.00679993629456,0.00680303573608,0.00108909606934,0.0205419063568
24,0.00353908538818,0.0067298412323,0.0070641040802,0.00100088119507,0.020003080368
25,0.00318813323975,0.00675106048584,0.00678992271423,0.00100207328796,0.0209891796112
26,0.0553858280182,0.0073778629303,0.00727295875549,0.00121712684631,0.0212509632111
27,0.00315475463867,0.00723385810852,0.00731992721558,0.00116086006165,0.0383911132812
28,0.00389504432678,0.00692296028137,0.0071849822998,0.00107598304749,0.0239188671112
29,0.00345993041992,0.00677895545959,0.00684499740601,0.00105905532837,0.0223791599274
30,0.00382494926453,0.00676202774048,0.00697493553162,0.00134992599487,0.0241620540619
31,0.00368022918701,0.00685286521912,0.00768995285034,0.00138401985168,0.0248630046844
32,0.00280904769897,0.00703716278076,0.00752687454224,0.00140905380249,0.0245130062103
33,0.00285196304321,0.00690793991089,0.00713300704956,0.00146484375,0.0254139900208
34,0.00351500511169,0.00654602050781,0.00701999664307,0.00131583213806,0.0264019966125
35,0.00282502174377,0.00673079490662,0.00654101371765,0.00104904174805,0.0285520553589
36,0.0028600692749,0.00755500793457,0.00781202316284,0.00120091438293,0.0273950099945
37,0.00344824790955,0.00722885131836,0.00770902633667,0.00124788284302,0.0294189453125
38,0.00297594070435,0.00704002380371,0.00729298591614,0.00113701820374,0.0335328578949
39,0.00314998626709,0.00674510002136,0.00717496871948,0.00132203102112,0.0300030708313
40,0.00282192230225,0.00694990158081,0.00730299949646,0.00141215324402,0.0307660102844
41,0.00276398658752,0.00716090202332,0.00844812393188,0.00210285186768,0.0618691444397
42,0.00280165672302,0.00724196434021,0.00717186927795,0.00113797187805,0.0318500995636
43,0.00302600860596,0.00722694396973,0.00691509246826,0.00121903419495,0.0331029891968
44,0.00269293785095,0.00668716430664,0.00711607933044,0.00136613845825,0.0328171253204
45,0.00327706336975,0.0063681602478,0.00799107551575,0.00156211853027,0.033928155899
46,0.00275897979736,0.00735592842102,0.00758910179138,0.00143098831177,0.0347859859467
47,0.00272870063782,0.00729608535767,0.00714111328125,0.00118589401245,0.03577709198
48,0.00297713279724,0.00739502906799,0.0071280002594,0.00115394592285,0.0349769592285
49,0.00301218032837,0.00668501853943,0.00704193115234,0.00118184089661,0.0362429618835
50,0.0516319274902,0.00772714614868,0.00795197486877,0.00134587287903,0.0366349220276
51,0.00286197662354,0.0068359375,0.00738096237183,0.00137901306152,0.0970180034637
52,0.00273609161377,0.00700712203979,0.00748085975647,0.00115704536438,0.0418179035187
53,0.0028121471405,0.00690913200378,0.00709009170532,0.00143885612488,0.0378360748291
54,0.00284004211426,0.00650882720947,0.00691795349121,0.00118398666382,0.0382912158966
55,0.00357890129089,0.00706911087036,0.00684785842896,0.00111889839172,0.0859551429749
56,0.00303792953491,0.006432056427,0.00735688209534,0.00143504142761,0.0403001308441
57,0.00325393676758,0.00676202774048,0.00682902336121,0.00112891197205,0.0407288074493
58,0.00280690193176,0.00684809684753,0.0070698261261,0.00108003616333,0.0391647815704
59,0.00397610664368,0.00728893280029,0.00714206695557,0.00119614601135,0.0912799835205
60,0.00329995155334,0.00689911842346,0.00713920593262,0.00118803977966,0.0432298183441
61,0.00314903259277,0.00654006004333,0.00687384605408,0.00116109848022,0.0430788993835
62,0.00262713432312,0.00665688514709,0.00695300102234,0.00108289718628,0.048357963562
63,0.00304484367371,0.00710701942444,0.00719499588013,0.00125694274902,0.108351945877
64,0.0029776096344,0.00701904296875,0.00722193717957,0.00116109848022,0.0451321601868
65,0.00340700149536,0.0068359375,0.00673890113831,0.00136685371399,0.0474438667297
66,0.00279307365417,0.00712108612061,0.00914907455444,0.00188994407654,0.0517418384552
67,0.00333404541016,0.00766110420227,0.00753712654114,0.00150585174561,0.0519831180573
68,0.00342512130737,0.00729584693909,0.00679087638855,0.00115394592285,0.0549829006195
69,0.00272583961487,0.0069420337677,0.00705504417419,0.00133800506592,0.0485098361969
70,0.00277900695801,0.00672507286072,0.00681614875793,0.00115513801575,0.0475299358368
71,0.00345706939697,0.00831317901611,0.007493019104,0.00146198272705,0.14639210701
72,0.00276613235474,0.00761198997498,0.00751185417175,0.00156593322754,0.0509469509125
73,0.00307488441467,0.00693416595459,0.00713896751404,0.00116610527039,0.0529248714447
74,0.00320315361023,0.00683999061584,0.00675082206726,0.00110006332397,0.05104804039
75,0.00348520278931,0.00753498077393,0.00716090202332,0.00134801864624,0.120565891266
76,0.00272798538208,0.00717306137085,0.00727009773254,0.00125002861023,0.0589969158173
77,0.0031909942627,0.00717711448669,0.00686287879944,0.00115203857422,0.0530471801758
78,0.00307202339172,0.00673604011536,0.00776791572571,0.00147008895874,0.0528109073639
79,0.0028760433197,0.00743699073792,0.00715708732605,0.00130295753479,0.0546658039093
80,0.00427508354187,0.00736308097839,0.0308148860931,0.00151085853577,0.0565960407257
81,0.00326085090637,0.00704383850098,0.00713586807251,0.00148916244507,0.0652658939362
82,0.00308227539062,0.00832104682922,0.007169008255,0.00121593475342,0.110553026199
83,0.00322008132935,0.00740599632263,0.00758194923401,0.00161790847778,0.0565390586853
84,0.00258278846741,0.00734615325928,0.00720286369324,0.00164890289307,0.0568649768829
85,0.00262904167175,0.00607395172119,0.00778698921204,0.00134801864624,0.0567610263824
86,0.00288414955139,0.00784301757812,0.00760293006897,0.00167608261108,0.0600988864899
87,0.00273704528809,0.00750994682312,0.00769901275635,0.00171709060669,0.0606079101562
88,0.00412607192993,0.0073938369751,0.00687408447266,0.00123596191406,0.0879611968994
89,0.00322318077087,0.0081160068512,0.00807785987854,0.0015549659729,0.121039152145
90,0.0035080909729,0.00729298591614,0.00724601745605,0.00136113166809,0.0623750686646
91,0.00304508209229,0.00699901580811,0.00710678100586,0.00148701667786,0.0627610683441
92,0.00389933586121,0.00617909431458,0.0068781375885,0.00123000144958,0.067085981369
93,0.00317692756653,0.00836992263794,0.00814700126648,0.00141000747681,0.244321107864
94,0.00289988517761,0.00760412216187,0.00769209861755,0.00156903266907,0.064710855484
95,0.00398206710815,0.00771188735962,0.00737404823303,0.00137901306152,0.0655210018158
96,0.00322222709656,0.00744700431824,0.00841498374939,0.00160503387451,0.0717461109161
97,0.00281095504761,0.0076630115509,0.00775790214539,0.00142884254456,0.0668940544128
98,0.00307607650757,0.00732088088989,0.00705599784851,0.00135803222656,0.0671701431274
99,0.00283575057983,0.00669693946838,0.00915908813477,0.00170803070068,0.066535949707
