step,run,get,set,free,run_up_to_step
0,0.0120799541473,0.00752997398376,0.00833892822266,0.00122404098511,0.0159349441528
1,0.00630807876587,0.00712895393372,0.00794386863708,0.00149607658386,0.0170478820801
2,0.00760269165039,0.00709104537964,0.0078330039978,0.00134801864624,0.037290096283
3,0.00868797302246,0.00723910331726,0.00747203826904,0.000954866409302,0.0188689231873
4,0.00689506530762,0.0071849822998,0.00785899162292,0.00109601020813,0.017410993576
5,0.00572490692139,0.00702095031738,0.00766086578369,0.00131583213806,0.035630941391
6,0.00614190101624,0.00698709487915,0.00731015205383,0.00127506256104,0.221487998962
7,0.00620484352112,0.00729703903198,0.00741386413574,0.00120806694031,0.0237591266632
8,0.00643014907837,0.00719404220581,0.00775504112244,0.0011899471283,0.0383660793304
9,0.00612092018127,0.00713706016541,0.00726890563965,0.0010449886322,0.0219378471375
10,0.0072181224823,0.00736403465271,0.00835394859314,0.00147199630737,0.0450267791748
11,0.00702595710754,0.00724411010742,0.00762915611267,0.00123500823975,0.0244228839874
12,0.00943303108215,0.00714612007141,0.00767517089844,0.00141906738281,0.0249671936035
13,0.00682401657104,0.00755405426025,0.00806713104248,0.00127005577087,0.121667861938
14,0.00691914558411,0.00717186927795,0.00788807868958,0.00147700309753,0.026524066925
15,0.00728607177734,0.00701904296875,0.00830292701721,0.00153088569641,0.062422990799
16,0.00876307487488,0.00820994377136,0.00814485549927,0.00159907341003,0.0319640636444
17,0.00763416290283,0.00732493400574,0.00771403312683,0.00119400024414,0.0325191020966
18,0.0109360218048,0.00832414627075,0.0090799331665,0.00148010253906,0.0587358474731
19,0.00886702537537,0.0168259143829,0.00887322425842,0.0015070438385,0.047080039978
20,0.007493019104,0.00803899765015,0.00810503959656,0.00129199028015,0.0325379371643
21,0.00698494911194,0.00722599029541,0.00813388824463,0.00150513648987,0.0650310516357
22,0.00795793533325,0.00748515129089,0.00848698616028,0.00171184539795,0.0348839759827
23,0.00687289237976,0.00769877433777,0.0082950592041,0.00163412094116,0.0371000766754
24,0.00624895095825,0.00737380981445,0.0080029964447,0.00134491920471,0.0630841255188
25,0.00685620307922,0.00724983215332,0.00844192504883,0.00188517570496,0.0394690036774
26,0.00611805915833,0.00780606269836,0.00800395011902,0.00126004219055,0.038300037384
27,0.00750088691711,0.00856900215149,0.00865316390991,0.00150799751282,0.0660560131073
28,0.00772476196289,0.00815010070801,0.00873398780823,0.00195503234863,0.0456640720367
29,0.00745987892151,0.00752401351929,0.00824785232544,0.00157117843628,0.0413708686829
30,0.00736808776855,0.00765299797058,0.00800204277039,0.00140690803528,0.124119997025
31,0.00638294219971,0.00758910179138,0.00841903686523,0.00162196159363,0.0418031215668
32,0.00743317604065,0.00717687606812,0.00794887542725,0.00134491920471,0.0426859855652
33,0.00657486915588,0.00742983818054,0.00800204277039,0.00142908096313,0.0655410289764
34,0.00582695007324,0.00699901580811,0.0076220035553,0.00156211853027,0.043998003006
35,0.00566291809082,0.00775504112244,0.00796604156494,0.00144386291504,0.0860090255737
36,0.00630903244019,0.00766897201538,0.00863909721375,0.00218987464905,0.0536940097809
37,0.00578212738037,0.00736594200134,0.00800204277039,0.0014169216156,0.0464360713959
38,0.00619316101074,0.00754523277283,0.00800490379333,0.00136399269104,0.0659019947052
39,0.00654792785645,0.00729894638062,0.00821805000305,0.00154805183411,0.068608045578
40,0.0135471820831,0.00712084770203,0.00764799118042,0.00130891799927,0.0501689910889
41,0.00823783874512,0.00754404067993,0.00798296928406,0.00142097473145,0.0498399734497
42,0.0166549682617,0.00751209259033,0.00774908065796,0.00177788734436,0.0958459377289
43,0.0135028362274,0.00744700431824,0.00740504264832,0.00178003311157,0.0591399669647
44,0.00697183609009,0.00769519805908,0.00795197486877,0.00144290924072,0.0521521568298
45,0.00932693481445,0.00752186775208,0.00818014144897,0.00152397155762,0.0966000556946
46,0.0161347389221,0.00791311264038,0.00836491584778,0.00152182579041,0.0699219703674
47,0.010231256485,0.0070378780365,0.00802111625671,0.00143194198608,0.0675377845764
48,0.00806784629822,0.00745701789856,0.00765919685364,0.00143194198608,0.0963039398193
49,0.00670003890991,0.00775098800659,0.00788998603821,0.00147986412048,0.0929198265076
50,0.00687193870544,0.00710797309875,0.00768899917603,0.00143504142761,0.085755109787
51,0.00674080848694,0.00765204429626,0.00799083709717,0.00149393081665,0.0880300998688
52,0.0143580436707,0.00822806358337,0.00780010223389,0.00139808654785,0.0923840999603
53,0.00632977485657,0.0073721408844,0.0076470375061,0.00142908096313,0.0671620368958
54,0.00643992424011,0.00758719444275,0.00783586502075,0.00157999992371,0.0799298286438
55,0.0138170719147,0.00728607177734,0.00777196884155,0.00142693519592,0.0962510108948
56,0.0062050819397,0.00783395767212,0.00827312469482,0.00156402587891,0.104604005814
57,0.015784740448,0.00740599632263,0.00739789009094,0.00135588645935,0.0799119472504
58,0.0062108039856,0.00752902030945,0.00776505470276,0.00154280662537,0.0959730148315
59,0.00684189796448,0.00707697868347,0.0079231262207,0.00152993202209,0.0994699001312
60,0.00737071037292,0.00708103179932,0.00738215446472,0.00137400627136,0.0922999382019
61,0.00746202468872,0.00751113891602,0.00772714614868,0.00147390365601,0.0878970623016
62,0.00645208358765,0.00768113136292,0.00783920288086,0.00155186653137,0.281939029694
63,0.00650191307068,0.00758099555969,0.00790309906006,0.00146198272705,0.0942711830139
64,0.0378310680389,0.00845193862915,0.00806999206543,0.00155305862427,0.0797588825226
65,0.00823497772217,0.00747799873352,0.0080509185791,0.00182604789734,0.102192878723
66,0.00688910484314,0.00776410102844,0.00810623168945,0.00161814689636,0.106909036636
67,0.0129408836365,0.00745892524719,0.00782299041748,0.00158905982971,0.0815289020538
68,0.00741100311279,0.00776290893555,0.00830292701721,0.00185394287109,0.086364030838
69,0.00766086578369,0.00794100761414,0.00887298583984,0.00191783905029,0.112572193146
70,0.0159459114075,0.00897622108459,0.00910186767578,0.00182700157166,0.145612955093
71,0.0104148387909,0.00894594192505,0.0112030506134,0.00266003608704,0.123264074326
72,0.0144970417023,0.00890207290649,0.00900983810425,0.00219488143921,0.1690762043
73,0.226233959198,0.00729489326477,0.00848507881165,0.00181102752686,0.130486011505
74,0.00810098648071,0.00753688812256,0.00807690620422,0.00155401229858,0.138815879822
75,0.0150291919708,0.00751113891602,0.00812792778015,0.00156807899475,0.164016962051
76,0.00789380073547,0.00757908821106,0.00789189338684,0.00163006782532,0.142809152603
77,0.00653409957886,0.00757002830505,0.00821089744568,0.00158405303955,0.294245004654
78,0.0214021205902,0.00754594802856,0.00817084312439,0.00154280662537,0.112074136734
79,0.0110182762146,0.00777816772461,0.00799894332886,0.0015549659729,0.103979110718
80,0.021054983139,0.00707912445068,0.00828218460083,0.00157999992371,0.0943939685822
81,0.0166409015656,0.00701594352722,0.00766205787659,0.00169491767883,0.148207902908
82,0.0142419338226,0.00774097442627,0.00783395767212,0.00157785415649,0.16964507103
83,0.0109467506409,0.00723004341125,0.00808000564575,0.00155115127563,0.109800100327
84,0.0128219127655,0.00769400596619,0.00795102119446,0.00156307220459,0.26579785347
85,0.00704407691956,0.00749707221985,0.00801396369934,0.00170993804932,0.140130996704
86,0.0163230895996,0.00772786140442,0.00800895690918,0.00155186653137,0.394255876541
87,0.00638008117676,0.00695300102234,0.00810289382935,0.0016131401062,0.0987141132355
88,0.00681495666504,0.00682592391968,0.00748586654663,0.00153613090515,0.102257966995
89,0.00813508033752,0.00761890411377,0.00750517845154,0.00151610374451,0.167001008987
90,0.00698280334473,0.00738000869751,0.00809812545776,0.00174498558044,0.125777006149
91,0.0426008701324,0.00845313072205,0.00810194015503,0.00170993804932,0.118005990982
92,0.016793012619,0.00836110115051,0.00891804695129,0.0022029876709,0.145953893661
93,0.0128791332245,0.00895380973816,0.00905609130859,0.002032995224,0.196185112
94,0.0343108177185,0.00814890861511,0.0082700252533,0.00185298919678,0.108722925186
95,0.0109581947327,0.00820803642273,0.00913500785828,0.00188899040222,0.128365039825
96,0.00968098640442,0.00918316841125,0.0103049278259,0.00222206115723,0.12758398056
97,0.0249750614166,0.00796103477478,0.00922918319702,0.00193405151367,0.137749195099
98,0.0147829055786,0.00785279273987,0.00764083862305,0.0016040802002,0.165770053864
99,0.156571865082,0.00804114341736,0.00831818580627,0.0017409324646,0.132097005844
