step,run,get,set,free,run_up_to_step
0,0.00351285934448,0.00114011764526,0.00108599662781,0.000128984451294,0.00442385673523
1,0.00269317626953,0.00110507011414,0.00116801261902,0.000134944915771,0.0050790309906
2,0.0035343170166,0.0011100769043,0.00106191635132,0.000128984451294,0.0060498714447
3,0.00275301933289,0.00118184089661,0.00112795829773,0.000141143798828,0.0072808265686
4,0.00258016586304,0.00107097625732,0.00100016593933,0.00012993812561,0.00691199302673
5,0.00249099731445,0.0010359287262,0.00107288360596,0.000141859054565,0.00793814659119
6,0.00271391868591,0.00109100341797,0.0011191368103,0.000133037567139,0.00906682014465
7,0.00252795219421,0.0011191368103,0.00100898742676,0.000127077102661,0.0107669830322
8,0.00325012207031,0.00103783607483,0.00103402137756,0.000148057937622,0.0101251602173
9,0.00357294082642,0.000993967056274,0.00106120109558,0.000138998031616,0.0103690624237
10,0.00256490707397,0.00108003616333,0.00104808807373,0.000133991241455,0.0119080543518
11,0.00238609313965,0.0010461807251,0.00114607810974,0.000164985656738,0.0121068954468
12,0.00229072570801,0.00104904174805,0.00105094909668,0.000142097473145,0.013818025589
13,0.00367021560669,0.00110292434692,0.00100898742676,0.000128984451294,0.0351858139038
14,0.00282001495361,0.00104308128357,0.00107312202454,0.000131845474243,0.016252040863
15,0.00269484519958,0.00107407569885,0.00113916397095,0.0001380443573,0.016566991806
16,0.00276279449463,0.00106906890869,0.00113797187805,0.000168085098267,0.0169389247894
17,0.00359201431274,0.00106883049011,0.00106501579285,0.000136137008667,0.0182650089264
18,0.00251817703247,0.0010838508606,0.00107789039612,0.000133037567139,0.0188660621643
19,0.00260591506958,0.00103497505188,0.00101804733276,0.00013279914856,0.0191419124603
20,0.00382208824158,0.00122499465942,0.00103712081909,0.000133037567139,0.0255920886993
21,0.00281000137329,0.00108695030212,0.00108098983765,0.000137090682983,0.0898358821869
22,0.00288128852844,0.00108599662781,0.00107097625732,0.000138998031616,0.0245938301086
23,0.00358200073242,0.00104689598083,0.00101399421692,0.000131845474243,0.02468085289
24,0.00295686721802,0.000999212265015,0.00104403495789,0.000133991241455,0.0241630077362
25,0.00257873535156,0.00102996826172,0.00100708007812,0.000128984451294,0.0240540504456
26,0.00342106819153,0.00111198425293,0.00113892555237,0.000139951705933,0.118290901184
27,0.00265216827393,0.00108313560486,0.00100994110107,0.000128984451294,0.0259912014008
28,0.00263500213623,0.0010449886322,0.00105309486389,0.00012993812561,0.026712179184
29,0.00347089767456,0.00100183486938,0.000993013381958,0.000128984451294,0.0270090103149
30,0.00249695777893,0.000977039337158,0.00104904174805,0.000131845474243,0.0279901027679
31,0.00278902053833,0.00128316879272,0.00109887123108,0.000164031982422,0.0922319889069
32,0.00292301177979,0.0011248588562,0.00106883049011,0.000134944915771,0.030189037323
33,0.0029239654541,0.00105905532837,0.000982046127319,0.000148057937622,0.0348641872406
34,0.00255393981934,0.00105500221252,0.00122690200806,0.000164031982422,0.0318920612335
35,0.0030357837677,0.00113201141357,0.00107288360596,0.0001380443573,0.0330739021301
36,0.00274705886841,0.00106501579285,0.00101613998413,0.000133991241455,0.033695936203
37,0.00246381759644,0.00103116035461,0.00101113319397,0.000128030776978,0.0348041057587
38,0.00263786315918,0.000990152359009,0.00101709365845,0.00012993812561,0.0352299213409
39,0.00276398658752,0.00122904777527,0.00111389160156,0.000137090682983,0.106604099274
40,0.00233602523804,0.00112509727478,0.00108909606934,0.000154972076416,0.0377140045166
41,0.00260210037231,0.00103402137756,0.000982999801636,0.000128984451294,0.0374190807343
42,0.00237822532654,0.00100111961365,0.00105690956116,0.000169038772583,0.0369548797607
43,0.00262761116028,0.00136613845825,0.00109720230103,0.000135898590088,0.0901560783386
44,0.00321292877197,0.00116801261902,0.0012731552124,0.000182867050171,0.0413069725037
45,0.00269484519958,0.00105714797974,0.00106501579285,0.000128984451294,0.0407819747925
46,0.00258326530457,0.00104403495789,0.0012481212616,0.000169038772583,0.0410521030426
47,0.00279808044434,0.00105810165405,0.00105690956116,0.000140905380249,0.154865026474
48,0.00275993347168,0.001051902771,0.000977993011475,0.000131130218506,0.0423240661621
49,0.00298070907593,0.00102806091309,0.00112009048462,0.000156164169312,0.0515871047974
50,0.00257802009583,0.00117588043213,0.00105810165405,0.000131130218506,0.0834121704102
51,0.00268125534058,0.00110697746277,0.00104713439941,0.000132083892822,0.0440008640289
52,0.00324106216431,0.00101685523987,0.000993013381958,0.000127077102661,0.0454649925232
53,0.00239610671997,0.00116109848022,0.00110507011414,0.000134944915771,0.0868680477142
54,0.0024139881134,0.00108194351196,0.00105595588684,0.000128984451294,0.0500829219818
55,0.00262498855591,0.00110197067261,0.00104594230652,0.000147104263306,0.0541660785675
56,0.00275373458862,0.000998020172119,0.000972032546997,0.000125885009766,0.0484578609467
57,0.00275897979736,0.00128698348999,0.00111794471741,0.000137090682983,0.102218151093
58,0.0023500919342,0.00113487243652,0.00110006332397,0.00014591217041,0.0514349937439
59,0.0024778842926,0.00105094909668,0.00103306770325,0.000128984451294,0.0548949241638
60,0.00296020507812,0.00106716156006,0.00136303901672,0.000214099884033,0.0535359382629
61,0.00273084640503,0.00113987922668,0.00112295150757,0.000149965286255,0.0523641109467
62,0.00243186950684,0.00107407569885,0.00101113319397,0.000128984451294,0.0527310371399
63,0.00280094146729,0.00100898742676,0.000994205474854,0.000124931335449,0.0527799129486
64,0.00245118141174,0.00110101699829,0.00111198425293,0.000128984451294,0.116860151291
65,0.00247764587402,0.00104999542236,0.00103998184204,0.000126123428345,0.054780960083
66,0.00290107727051,0.00125408172607,0.00106906890869,0.000134944915771,0.0551850795746
67,0.00256514549255,0.00104808807373,0.00103616714478,0.00012993812561,0.0737090110779
68,0.00245499610901,0.000996828079224,0.000959157943726,0.000128030776978,0.0568668842316
69,0.00255513191223,0.00114893913269,0.00116205215454,0.000146150588989,0.101005077362
70,0.00238919258118,0.00106906890869,0.00105500221252,0.00012993812561,0.0673530101776
71,0.0026490688324,0.00114583969116,0.00115299224854,0.000168085098267,0.0716488361359
72,0.00357890129089,0.00110411643982,0.00109505653381,0.000133991241455,0.0660169124603
73,0.00225901603699,0.00104689598083,0.000990867614746,0.000127077102661,0.0620150566101
74,0.00267910957336,0.00102806091309,0.00115203857422,0.000157117843628,0.0623891353607
75,0.00273895263672,0.00111293792725,0.00108194351196,0.000133991241455,0.0751941204071
76,0.00232696533203,0.00105905532837,0.00104403495789,0.00012993812561,0.0625121593475
77,0.00276017189026,0.00104999542236,0.00097393989563,0.000127077102661,0.0653369426727
78,0.00224709510803,0.00120496749878,0.00110197067261,0.000137090682983,0.117203950882
79,0.00228810310364,0.00104284286499,0.00104308128357,0.000126123428345,0.0675718784332
80,0.0210421085358,0.000962972640991,0.00098991394043,0.000139951705933,0.0654909610748
81,0.00273203849792,0.00109791755676,0.00117993354797,0.000164031982422,0.647978067398
82,0.00227999687195,0.00103712081909,0.000977993011475,0.000127077102661,0.0643138885498
83,0.00230002403259,0.00106191635132,0.00103211402893,0.000126838684082,0.0668950080872
84,0.0386569499969,0.00122499465942,0.00101590156555,0.00012993812561,0.0682067871094
85,0.0026581287384,0.00108885765076,0.00108098983765,0.000133037567139,0.0702610015869
86,0.00280094146729,0.00107717514038,0.00103497505188,0.000130891799927,0.0708820819855
87,0.0024471282959,0.00131916999817,0.00110387802124,0.000138998031616,0.112858057022
88,0.00272822380066,0.00106692314148,0.000924825668335,0.000126123428345,0.0775711536407
89,0.00240588188171,0.000983953475952,0.00103402137756,0.00012993812561,0.0754098892212
90,0.00251483917236,0.00114512443542,0.00108885765076,0.000136852264404,0.112748861313
91,0.00331497192383,0.00107216835022,0.000991106033325,0.0001380443573,0.0756030082703
92,0.00316190719604,0.00113296508789,0.0011157989502,0.000134944915771,0.101096153259
93,0.00251197814941,0.00110793113708,0.00111293792725,0.000135898590088,0.0761830806732
94,0.0027768611908,0.00108504295349,0.00103092193604,0.00012993812561,0.078665971756
95,0.00237011909485,0.00102996826172,0.00112915039062,0.00016713142395,0.0806789398193
96,0.00237202644348,0.00108003616333,0.00103902816772,0.000133037567139,0.080775976181
97,0.00318717956543,0.00107002258301,0.00100898742676,0.000125885009766,0.0823571681976
98,0.00249004364014,0.00104093551636,0.00111889839172,0.000144004821777,0.0801720619202
99,0.00329113006592,0.00112199783325,0.00105309486389,0.000128030776978,0.0837030410767
