step,run,get,set,free,run_up_to_step
0,0.00759315490723,0.00598096847534,0.00508308410645,0.000704050064087,0.00917816162109
1,0.00644397735596,0.00560188293457,0.00497698783875,0.000697135925293,0.0112669467926
2,0.00564813613892,0.00520610809326,0.00481200218201,0.000696182250977,0.0138819217682
3,0.00456476211548,0.00552010536194,0.00498390197754,0.000701904296875,0.0137829780579
4,0.00433325767517,0.00547409057617,0.00484704971313,0.000698089599609,0.0150139331818
5,0.0040168762207,0.00555300712585,0.0051109790802,0.000702142715454,0.0158660411835
6,0.00362873077393,0.00562715530396,0.0050048828125,0.00070595741272,0.0170331001282
7,0.00380706787109,0.00537991523743,0.00498700141907,0.000709056854248,0.0254349708557
8,0.00356006622314,0.00531888008118,0.00510787963867,0.000707864761353,0.0195889472961
9,0.0043830871582,0.00629687309265,0.00527381896973,0.000731945037842,0.02299284935
10,0.00384020805359,0.00572395324707,0.00502800941467,0.00070595741272,0.0232410430908
11,0.00374698638916,0.0056300163269,0.00509214401245,0.000706911087036,0.0218360424042
12,0.00377988815308,0.00571799278259,0.00491309165955,0.000710964202881,0.0331010818481
13,0.00361204147339,0.00569105148315,0.00507593154907,0.000710964202881,0.0236020088196
14,0.00392198562622,0.00534987449646,0.00501608848572,0.000720024108887,0.0566599369049
15,0.00401663780212,0.00582504272461,0.00512290000916,0.000723838806152,0.0257790088654
16,0.0124552249908,0.00580811500549,0.00504803657532,0.00071907043457,0.0265560150146
17,0.00411701202393,0.00581312179565,0.00494694709778,0.000725030899048,0.0278239250183
18,0.00365900993347,0.00566005706787,0.00508594512939,0.000722885131836,0.0290238857269
19,0.00352120399475,0.00579595565796,0.00500798225403,0.000723838806152,0.0297839641571
20,0.00316071510315,0.00578784942627,0.00505995750427,0.000734806060791,0.0366079807281
21,0.0400159358978,0.0059449672699,0.00501990318298,0.000744104385376,0.0312130451202
22,0.00381708145142,0.00550699234009,0.00493788719177,0.000713109970093,0.0328929424286
23,0.00507402420044,0.00571012496948,0.00506091117859,0.000707149505615,0.0332021713257
24,0.00321912765503,0.00556802749634,0.00505208969116,0.000725030899048,0.0410091876984
25,0.00319218635559,0.00575494766235,0.00494313240051,0.000713109970093,0.0435450077057
26,0.00307369232178,0.00596404075623,0.00522994995117,0.000730991363525,0.0583119392395
27,0.00309109687805,0.00579619407654,0.0052170753479,0.00073504447937,0.0382330417633
28,0.00315999984741,0.005784034729,0.00566506385803,0.000805854797363,0.0380551815033
29,0.00313711166382,0.00622415542603,0.00519180297852,0.000748157501221,0.0391018390656
30,0.00317788124084,0.00621008872986,0.00565099716187,0.000771999359131,0.0402021408081
31,0.00311422348022,0.0058319568634,0.00516700744629,0.000775814056396,0.0416328907013
32,0.00326895713806,0.00607419013977,0.00508189201355,0.000735998153687,0.0421810150146
33,0.00348305702209,0.0060510635376,0.00512409210205,0.000734090805054,0.0431499481201
34,0.00313687324524,0.00600099563599,0.006019115448,0.000805854797363,0.0440909862518
35,0.00607419013977,0.00652694702148,0.00520205497742,0.000748157501221,0.0462911128998
36,0.00316691398621,0.00623607635498,0.00524592399597,0.000757932662964,0.0461161136627
37,0.00317811965942,0.00618100166321,0.00518798828125,0.00075888633728,0.0469419956207
38,0.00316190719604,0.00627493858337,0.00503301620483,0.000753164291382,0.0475630760193
39,0.00319600105286,0.00601506233215,0.00518107414246,0.000745058059692,0.0490419864655
40,0.00303983688354,0.0058970451355,0.00508999824524,0.00075101852417,0.0497000217438
41,0.00305390357971,0.00609397888184,0.00690698623657,0.000924110412598,0.0650599002838
42,0.00312495231628,0.00666308403015,0.00539112091064,0.00078296661377,0.0518229007721
43,0.0060601234436,0.00650191307068,0.00525212287903,0.000753879547119,0.0547778606415
44,0.00312995910645,0.00629711151123,0.00514507293701,0.000729084014893,0.0534899234772
45,0.00464391708374,0.00605702400208,0.00525999069214,0.00073504447937,0.0566289424896
46,0.00312805175781,0.0060670375824,0.00516414642334,0.000716924667358,0.05490899086
47,0.00304913520813,0.00584316253662,0.0067720413208,0.00089693069458,0.0562272071838
48,0.00315809249878,0.00694918632507,0.00558686256409,0.000813007354736,0.0572421550751
49,0.00311326980591,0.00661897659302,0.00526094436646,0.000760078430176,0.0583138465881
50,0.00315999984741,0.00617098808289,0.00570392608643,0.000779151916504,0.0598449707031
51,0.00296902656555,0.00582194328308,0.00501298904419,0.000716924667358,0.0603318214417
52,0.00293707847595,0.00572776794434,0.00713992118835,0.000855922698975,0.059769153595
53,0.00293207168579,0.00695180892944,0.00548100471497,0.000792980194092,0.0624849796295
54,0.00293016433716,0.00674319267273,0.00542998313904,0.000786066055298,0.0632071495056
55,0.00305700302124,0.00651979446411,0.00512599945068,0.000746011734009,0.0640468597412
56,0.00279688835144,0.0059962272644,0.00497603416443,0.00070595741272,0.0657529830933
57,0.00318598747253,0.00628399848938,0.00517916679382,0.000761985778809,0.0733060836792
58,0.00292801856995,0.0067241191864,0.00560712814331,0.00081992149353,0.138185024261
59,0.00366187095642,0.00677800178528,0.00595283508301,0.000859022140503,0.0679280757904
60,0.00311207771301,0.00634813308716,0.00515103340149,0.000732898712158,0.0714271068573
61,0.00283813476562,0.00600504875183,0.00508189201355,0.000727891921997,0.0697829723358
62,0.00295305252075,0.00579786300659,0.00537300109863,0.000738859176636,0.0882489681244
63,0.00350618362427,0.00705599784851,0.00605988502502,0.000838041305542,0.171919107437
64,0.00952792167664,0.00619697570801,0.00534105300903,0.000758171081543,0.0816481113434
65,0.00295495986938,0.00608897209167,0.00514101982117,0.000734090805054,0.0845029354095
66,0.00272560119629,0.00605702400208,0.00520300865173,0.000726938247681,0.0895209312439
67,0.00981330871582,0.00598907470703,0.00497913360596,0.000720024108887,0.0985369682312
68,0.0096218585968,0.00691890716553,0.00547695159912,0.000770807266235,0.177003860474
69,0.00279092788696,0.00609707832336,0.00514507293701,0.000741004943848,0.0765800476074
70,0.00276398658752,0.00588893890381,0.00517797470093,0.000737905502319,0.0768840312958
71,0.00283694267273,0.00602602958679,0.00525403022766,0.000747919082642,0.0909349918365
72,0.00292301177979,0.00589203834534,0.00509309768677,0.000715017318726,0.0895099639893
73,0.00950002670288,0.00606608390808,0.00571608543396,0.000776052474976,0.165596008301
74,0.00956201553345,0.00629997253418,0.00509595870972,0.000744104385376,0.0917868614197
75,0.00296902656555,0.00607514381409,0.00513696670532,0.000751972198486,0.0955390930176
76,0.00283193588257,0.00578904151917,0.0052490234375,0.000792980194092,0.0818319320679
77,0.00279784202576,0.00585007667542,0.00642919540405,0.00085711479187,0.0940229892731
78,0.00289583206177,0.00641107559204,0.00531697273254,0.00078010559082,0.0867710113525
79,0.0028088092804,0.00610899925232,0.00531506538391,0.000757932662964,0.254030942917
80,0.0035080909729,0.00672101974487,0.00508308410645,0.000728130340576,0.357892036438
81,0.00285196304321,0.00600004196167,0.0049409866333,0.000737905502319,0.0878150463104
82,0.00273108482361,0.00576090812683,0.00686693191528,0.000824928283691,0.0962989330292
83,0.00289583206177,0.0065290927887,0.00548481941223,0.000786066055298,0.101752996445
84,0.00282907485962,0.00647401809692,0.00532388687134,0.000756978988647,0.089604139328
85,0.0088222026825,0.00620579719543,0.0054349899292,0.000797033309937,0.111190080643
86,0.00327587127686,0.00697612762451,0.00543689727783,0.000772953033447,0.105294942856
87,0.010213136673,0.00560402870178,0.00683307647705,0.000890016555786,0.0926151275635
88,0.00291180610657,0.00667595863342,0.00549507141113,0.000809907913208,0.0947048664093
89,0.0028338432312,0.00653004646301,0.00550413131714,0.000815868377686,0.0948178768158
90,0.00293874740601,0.00627708435059,0.00531816482544,0.000756978988647,0.100666999817
91,0.00340580940247,0.00621390342712,0.00496506690979,0.000707864761353,0.0961651802063
92,0.0031521320343,0.00765490531921,0.00599718093872,0.000862121582031,0.452611207962
93,0.00301194190979,0.00690007209778,0.00587201118469,0.00083589553833,0.135323047638
94,0.00428414344788,0.00753712654114,0.00567102432251,0.000800848007202,0.131759881973
95,0.00334000587463,0.0066499710083,0.00548100471497,0.000784873962402,0.110764980316
96,0.0034191608429,0.00799489021301,0.00651812553406,0.000943899154663,0.219774007797
97,0.00377178192139,0.00795698165894,0.00626707077026,0.000902891159058,0.147027015686
98,0.00362181663513,0.00732517242432,0.00584197044373,0.000782012939453,0.147700071335
99,0.00303506851196,0.00595903396606,0.00515294075012,0.000746011734009,0.117048978806
