step,run,get,set,free,run_up_to_step
0,0.013955116272,0.0090548992157,0.00922799110413,0.00144100189209,0.0225620269775
1,0.0129070281982,0.00858116149902,0.00824999809265,0.00132703781128,0.0230178833008
2,0.013277053833,0.00857591629028,0.00885105133057,0.00186395645142,0.0271599292755
3,0.0121729373932,0.00859212875366,0.0096230506897,0.00150418281555,0.0180199146271
4,0.00524067878723,0.00869488716125,0.00840592384338,0.00139212608337,0.0623860359192
5,0.0125157833099,0.00838589668274,0.00878310203552,0.00187397003174,0.0405430793762
6,0.0126709938049,0.00891208648682,0.00931286811829,0.00165200233459,0.0381557941437
7,0.0651528835297,0.00839114189148,0.00922203063965,0.00154614448547,0.313433885574
8,0.00786900520325,0.00847601890564,0.00893998146057,0.00183892250061,0.0429930686951
9,0.0128467082977,0.00860404968262,0.00874781608582,0.00145196914673,0.0437738895416
10,0.00565385818481,0.00856184959412,0.0089099407196,0.00157690048218,0.0626120567322
11,0.0130689144135,0.00840997695923,0.00941610336304,0.00149393081665,0.0540590286255
12,0.0138621330261,0.00927901268005,0.00915598869324,0.00155401229858,0.0631058216095
13,0.0134389400482,0.00847697257996,0.00856113433838,0.00156021118164,0.064404964447
14,0.015212059021,0.00824499130249,0.00839614868164,0.00138211250305,0.076345205307
15,0.0102088451385,0.00907588005066,0.00895690917969,0.00151777267456,0.153017997742
16,0.019905090332,0.00867509841919,0.00894689559937,0.00147294998169,0.0726380348206
17,0.00505900382996,0.00873303413391,0.00901389122009,0.00158905982971,0.0924999713898
18,0.0298459529877,0.00905680656433,0.0100018978119,0.00199389457703,0.27038192749
19,0.00798606872559,0.00877094268799,0.00971508026123,0.00202107429504,0.0785040855408
20,0.0129239559174,0.00870800018311,0.00832200050354,0.00153708457947,0.109145879745
21,0.00749111175537,0.00845098495483,0.00944709777832,0.0018630027771,0.34183716774
22,0.0124890804291,0.00882816314697,0.00860285758972,0.00153017044067,0.0954740047455
23,0.0143558979034,0.00855088233948,0.00859117507935,0.00161695480347,0.107386112213
24,0.0207989215851,0.00787806510925,0.0095808506012,0.00188899040222,0.0989971160889
25,0.00830936431885,0.00897097587585,0.00946497917175,0.00168800354004,0.107434988022
26,0.225286006927,0.00961184501648,0.00901007652283,0.00149393081665,0.109868049622
27,0.00615787506104,0.00801587104797,0.0106990337372,0.00232410430908,0.134560823441
28,0.0132422447205,0.00939607620239,0.00918316841125,0.00189399719238,0.372611999512
29,0.0137350559235,0.00842690467834,0.00993490219116,0.00196194648743,0.09845495224
30,0.0139610767365,0.00807499885559,0.00903797149658,0.0016610622406,0.238167047501
31,0.0227239131927,0.00829386711121,0.00872015953064,0.00169014930725,0.13556098938
32,0.0218682289124,0.00893402099609,0.00868606567383,0.00163888931274,0.164016008377
33,0.106075048447,0.00939679145813,0.00898098945618,0.00175595283508,0.324069023132
34,0.0188910961151,0.0083179473877,0.00884199142456,0.00153613090515,0.108281850815
35,0.0219888687134,0.00839900970459,0.00956511497498,0.00185704231262,0.137228965759
36,0.0199809074402,0.00879192352295,0.00984406471252,0.00171899795532,0.149654865265
37,0.0134313106537,0.00885415077209,0.00865197181702,0.00171494483948,0.1364839077
38,0.00691914558411,0.00846886634827,0.00852584838867,0.00153803825378,0.143049955368
39,0.0225448608398,0.00880599021912,0.00903391838074,0.00163197517395,0.516325950623
40,0.0202250480652,0.00924897193909,0.0088369846344,0.00164699554443,0.145889043808
41,0.0169689655304,0.00919008255005,0.008868932724,0.00163102149963,0.14212012291
42,0.00580382347107,0.00885105133057,0.00902891159058,0.00170683860779,0.242339849472
43,0.00546503067017,0.00869584083557,0.00875806808472,0.00161910057068,0.141335964203
44,0.0378789901733,0.00910186767578,0.00923609733582,0.00179195404053,0.237690925598
45,0.0059220790863,0.00866198539734,0.00896787643433,0.00165700912476,0.134957075119
46,0.00581502914429,0.00906300544739,0.00912880897522,0.00173616409302,0.191742897034
47,0.00880694389343,0.00870108604431,0.00894284248352,0.00165605545044,0.14032793045
48,0.0122587680817,0.00847315788269,0.00831198692322,0.0015971660614,0.168918848038
49,0.0065062046051,0.0103268623352,0.00915098190308,0.00173616409302,0.206712007523
50,0.0128610134125,0.00866508483887,0.0107548236847,0.00202679634094,0.152888059616
51,0.0144548416138,0.0091187953949,0.0101737976074,0.00219082832336,0.183475971222
52,0.0155012607574,0.00853681564331,0.00867295265198,0.00156807899475,0.169149875641
53,0.00561308860779,0.00900197029114,0.0092511177063,0.00178289413452,0.224119901657
54,0.00742721557617,0.00961494445801,0.010027885437,0.00215697288513,0.191081047058
55,0.0119359493256,0.0135219097137,0.0124518871307,0.00261998176575,0.313775062561
56,0.00788187980652,0.0111241340637,0.00854396820068,0.00169491767883,0.233160018921
57,0.0140602588654,0.00883293151855,0.00889110565186,0.00172400474548,0.984871149063
58,0.0178687572479,0.00879096984863,0.00906300544739,0.00169396400452,0.197641134262
59,0.0386056900024,0.00920701026917,0.00938391685486,0.00180292129517,0.329642057419
60,0.0200500488281,0.00860190391541,0.010106086731,0.00200796127319,0.218306064606
61,0.0187609195709,0.00880289077759,0.00896596908569,0.00170993804932,0.462927103043
62,0.0120420455933,0.00864100456238,0.00897192955017,0.001708984375,0.283590078354
63,0.0174250602722,0.00932288169861,0.0101871490479,0.00216722488403,0.390246868134
64,0.0124871730804,0.00901198387146,0.0105669498444,0.00225591659546,0.278867959976
65,0.02161693573,0.00872802734375,0.0100059509277,0.00205588340759,0.273967027664
66,0.24200797081,0.00859403610229,0.00901293754578,0.00177407264709,0.215336084366
67,0.0132989883423,0.00894904136658,0.00927495956421,0.00182890892029,0.312494039536
68,0.0290560722351,0.00869393348694,0.00908207893372,0.00177597999573,0.240177869797
69,0.0241820812225,0.00866603851318,0.00914001464844,0.0017831325531,0.367362976074
70,0.00615191459656,0.00869107246399,0.0102550983429,0.00205302238464,0.229779005051
71,0.0208170413971,0.00941300392151,0.0090639591217,0.00173306465149,0.258944034576
72,0.017689704895,0.00965595245361,0.00969099998474,0.00208210945129,0.246401071548
73,0.0309548377991,0.0094358921051,0.00929403305054,0.00179386138916,0.262961864471
74,0.0146420001984,0.00855684280396,0.0106060504913,0.0021231174469,0.268929958344
75,0.00691485404968,0.00878882408142,0.0118319988251,0.00223398208618,0.236274003983
76,0.0209047794342,0.00852990150452,0.00992107391357,0.00207209587097,0.278134822845
77,0.013828754425,0.00847887992859,0.00967597961426,0.00247693061829,0.234591960907
78,0.0135097503662,0.00857710838318,0.00952506065369,0.00185513496399,0.289761066437
79,0.0248200893402,0.00868797302246,0.00875091552734,0.0017237663269,0.25896692276
80,0.00724411010742,0.00838589668274,0.00917291641235,0.00178599357605,0.360183000565
81,0.0196299552917,0.00868201255798,0.00872015953064,0.00168800354004,0.312186956406
82,0.00733494758606,0.010880947113,0.00969290733337,0.00199007987976,0.33607006073
83,0.040552854538,0.00877690315247,0.00974202156067,0.00223088264465,0.315813064575
84,0.00620293617249,0.00895690917969,0.00923800468445,0.00181818008423,0.305786848068
85,0.0216958522797,0.00931811332703,0.00974202156067,0.00198602676392,0.3523478508
86,0.0209739208221,0.00855207443237,0.00901103019714,0.00176596641541,0.351417064667
87,0.00683403015137,0.00861597061157,0.00910496711731,0.00174808502197,0.38817691803
88,0.0207271575928,0.00852298736572,0.00893402099609,0.00174593925476,0.421221017838
89,0.0211939811707,0.0084331035614,0.00926184654236,0.00176095962524,0.304224967957
90,0.0145838260651,0.00878000259399,0.010174036026,0.00215792655945,0.432179927826
91,0.0141999721527,0.00799798965454,0.00850296020508,0.00161790847778,0.33406996727
92,0.0106739997864,0.00819301605225,0.00888395309448,0.00183391571045,0.371104001999
93,0.0109369754791,0.0079460144043,0.00845289230347,0.00170302391052,0.302186012268
94,0.0141620635986,0.00924205780029,0.00904607772827,0.00175905227661,0.644600868225
95,0.0180191993713,0.00823879241943,0.00848984718323,0.00168609619141,0.664886951447
96,0.0896680355072,0.00770616531372,0.00871992111206,0.00170397758484,0.319828987122
97,0.0220327377319,0.00840902328491,0.00897812843323,0.00186204910278,0.773312091827
98,0.0063316822052,0.00922703742981,0.00896191596985,0.00177097320557,0.405873060226
99,0.0130760669708,0.00860381126404,0.00898504257202,0.00182199478149,0.406285047531
