step,run,get,set,free,run_up_to_step
0,0.0103969573975,0.00578284263611,0.00468707084656,0.000668048858643,0.00472593307495
1,0.00286197662354,0.00521802902222,0.00465703010559,0.000666856765747,0.00538396835327
2,0.00332689285278,0.00542998313904,0.00462889671326,0.000672101974487,0.00637698173523
3,0.00330471992493,0.00511503219604,0.00465202331543,0.000672101974487,0.00742602348328
4,0.00291895866394,0.00511002540588,0.00465798377991,0.00067400932312,0.00935912132263
5,0.00274515151978,0.005539894104,0.00480914115906,0.000678062438965,0.0171160697937
6,0.00314807891846,0.00554513931274,0.00466203689575,0.000684976577759,0.0101289749146
7,0.00274205207825,0.00572896003723,0.00466895103455,0.000676870346069,0.0111758708954
8,0.00284886360168,0.00559902191162,0.00475597381592,0.000746965408325,0.0119919776917
9,0.00275683403015,0.00540113449097,0.00479102134705,0.000689029693604,0.0129778385162
10,0.00281000137329,0.00545001029968,0.00478315353394,0.000684022903442,0.0141198635101
11,0.00346088409424,0.0061149597168,0.0047550201416,0.000678062438965,0.0332980155945
12,0.00349998474121,0.0052649974823,0.00466394424438,0.000679969787598,0.0167498588562
13,0.00274610519409,0.00518608093262,0.00473713874817,0.000687122344971,0.0286169052124
14,0.00276207923889,0.00561499595642,0.00493001937866,0.000730037689209,0.0175318717957
15,0.00282382965088,0.00551700592041,0.00490593910217,0.000689029693604,0.0257210731506
16,0.00282502174377,0.00552797317505,0.00532102584839,0.000736951828003,0.0193698406219
17,0.00337386131287,0.00606417655945,0.0049090385437,0.000705003738403,0.0205528736115
18,0.00295305252075,0.00587606430054,0.00478506088257,0.000716924667358,0.0286781787872
19,0.00287485122681,0.00592994689941,0.00481295585632,0.000703811645508,0.0225529670715
20,0.00289011001587,0.00587391853333,0.00483393669128,0.000685930252075,0.0233108997345
21,0.00282502174377,0.00588703155518,0.00477600097656,0.00069785118103,0.0242209434509
22,0.00279808044434,0.00571203231812,0.00492811203003,0.000714063644409,0.0378088951111
23,0.00274705886841,0.00603103637695,0.00486707687378,0.000701189041138,0.0328547954559
24,0.00283479690552,0.00550389289856,0.00487494468689,0.000718116760254,0.0280439853668
25,0.00283288955688,0.00607299804688,0.00564002990723,0.000757217407227,0.0344259738922
26,0.00278377532959,0.00625419616699,0.00504398345947,0.000725984573364,0.0359129905701
27,0.00296998023987,0.00604391098022,0.0048930644989,0.000699996948242,0.0300600528717
28,0.00298810005188,0.00596904754639,0.00484895706177,0.000703096389771,0.0311920642853
29,0.00286889076233,0.0060510635376,0.00483012199402,0.000705003738403,0.0318508148193
30,0.00284099578857,0.00591611862183,0.00487112998962,0.000692844390869,0.0396058559418
31,0.00327730178833,0.0061948299408,0.00493621826172,0.000693082809448,0.0389249324799
32,0.00344681739807,0.00689697265625,0.00563812255859,0.000771999359131,0.08469414711
33,0.00285363197327,0.00629997253418,0.00516700744629,0.000731229782104,0.0359170436859
34,0.00287008285522,0.0062689781189,0.00487995147705,0.000715970993042,0.043478012085
35,0.00286293029785,0.00619506835938,0.00505590438843,0.000725984573364,0.037397146225
36,0.00284194946289,0.00601410865784,0.00483918190002,0.000708103179932,0.0385599136353
37,0.00286507606506,0.00595712661743,0.00480198860168,0.000699996948242,0.0392000675201
38,0.00314331054688,0.00630187988281,0.00527811050415,0.000741958618164,0.0450630187988
39,0.0568060874939,0.00647902488708,0.00525212287903,0.00075101852417,0.0555880069733
40,0.00272369384766,0.0062038898468,0.00481510162354,0.000713109970093,0.0423929691315
41,0.0103890895844,0.00598001480103,0.00489211082458,0.000715970993042,0.043025970459
42,0.00283217430115,0.00600004196167,0.00492811203003,0.000702857971191,0.0432851314545
43,0.0028030872345,0.00581502914429,0.00482296943665,0.000692129135132,0.0656759738922
44,0.00282716751099,0.00552892684937,0.00486302375793,0.000673770904541,0.0520968437195
45,0.00361704826355,0.00700688362122,0.00549507141113,0.000790119171143,0.045480966568
46,0.00311493873596,0.0065610408783,0.00553011894226,0.000792980194092,0.0527949333191
47,0.00321888923645,0.00678706169128,0.00505089759827,0.000787973403931,0.0545160770416
48,0.00372886657715,0.00672817230225,0.00529813766479,0.000789880752563,0.0670480728149
49,0.00297713279724,0.00620079040527,0.00529599189758,0.000772953033447,0.0521910190582
50,0.00987577438354,0.00610113143921,0.00474190711975,0.000690937042236,0.0578141212463
51,0.00391602516174,0.00595307350159,0.00481677055359,0.00070595741272,0.0603182315826
52,0.00336790084839,0.00574612617493,0.00731992721558,0.000892877578735,0.0685589313507
53,0.00402784347534,0.00776195526123,0.00596904754639,0.000863075256348,0.0833690166473
54,0.00392627716064,0.00763702392578,0.00594997406006,0.000869989395142,0.0842199325562
55,0.0036358833313,0.00610899925232,0.00527811050415,0.000754117965698,0.0618090629578
56,0.00283098220825,0.00621581077576,0.00475597381592,0.000712871551514,0.0566031932831
57,0.00365495681763,0.00653100013733,0.00520396232605,0.000724077224731,0.0838098526001
58,0.00953602790833,0.0058171749115,0.00619006156921,0.000853061676025,0.0580780506134
59,0.00286388397217,0.00673007965088,0.00566911697388,0.000808954238892,0.0601880550385
60,0.010525226593,0.00707602500916,0.00549006462097,0.000805139541626,0.105411052704
61,0.00272297859192,0.00644111633301,0.0049262046814,0.000730037689209,0.0698850154877
62,0.00289392471313,0.00601196289062,0.00505399703979,0.000723838806152,0.0619440078735
63,0.00289392471313,0.00566506385803,0.00460600852966,0.000678062438965,0.0627498626709
64,0.00359606742859,0.00741481781006,0.00552105903625,0.000792980194092,0.0690169334412
65,0.00288510322571,0.00653409957886,0.00532388687134,0.000787973403931,0.0655879974365
66,0.00279521942139,0.00630307197571,0.00502896308899,0.000740051269531,0.0659530162811
67,0.00292325019836,0.00588297843933,0.00465798377991,0.000685930252075,0.066792011261
68,0.00278997421265,0.00545191764832,0.00509810447693,0.00069785118103,0.067332983017
69,0.00287103652954,0.00697684288025,0.00560903549194,0.000832080841064,0.140515089035
70,0.00281715393066,0.00606799125671,0.00509405136108,0.000734090805054,0.069591999054
71,0.00336599349976,0.00619602203369,0.00520706176758,0.000846862792969,0.0777020454407
72,0.00330996513367,0.00637292861938,0.00488996505737,0.000723838806152,0.783141851425
73,0.00282716751099,0.00588607788086,0.00471305847168,0.000680923461914,0.0729839801788
74,0.00289011001587,0.00566291809082,0.00456595420837,0.000679016113281,0.0719850063324
75,0.00282788276672,0.00594592094421,0.00505185127258,0.000738859176636,0.15353679657
76,0.00277709960938,0.00614213943481,0.00497889518738,0.000716209411621,0.0749061107635
77,0.00282096862793,0.00594186782837,0.00500798225403,0.000725984573364,0.0745489597321
78,0.00278210639954,0.00554990768433,0.00469303131104,0.000705003738403,0.0841729640961
79,0.0028350353241,0.00548601150513,0.00607991218567,0.000764131546021,0.0756268501282
80,0.0032160282135,0.00634789466858,0.00502991676331,0.000728130340576,0.0787110328674
81,0.00365900993347,0.00639605522156,0.00514483451843,0.000753164291382,0.0782589912415
82,0.00285506248474,0.00625896453857,0.00480008125305,0.000704050064087,0.0798630714417
83,0.00281596183777,0.00592613220215,0.00501489639282,0.000720024108887,0.0801429748535
84,0.00281882286072,0.00567507743835,0.00614809989929,0.000799179077148,0.0815608501434
85,0.0027379989624,0.00649690628052,0.00491213798523,0.000730037689209,0.0902409553528
86,0.0101990699768,0.00622296333313,0.00516486167908,0.000746011734009,0.0829710960388
87,0.00279879570007,0.00624918937683,0.00497102737427,0.000730037689209,0.0908000469208
88,0.0100951194763,0.00594282150269,0.00472116470337,0.000693082809448,0.0851571559906
89,0.00284433364868,0.00567197799683,0.00622010231018,0.000820875167847,0.0856368541718
90,0.00285124778748,0.00664091110229,0.00525617599487,0.000756025314331,0.112056970596
91,0.00288605690002,0.00650501251221,0.00511693954468,0.00074291229248,0.0940589904785
92,0.0033597946167,0.00629496574402,0.005047082901,0.000725984573364,0.0987949371338
93,0.00300908088684,0.00589203834534,0.00471711158752,0.000690937042236,0.0961861610413
94,0.00303316116333,0.00651907920837,0.00574684143066,0.000977993011475,0.16828417778
95,0.00327706336975,0.00701594352722,0.00580906867981,0.000854015350342,0.118703842163
96,0.00285291671753,0.00653004646301,0.00501298904419,0.000732898712158,0.103825092316
97,0.00296401977539,0.00591397285461,0.00474095344543,0.000690937042236,0.101927995682
98,0.00313401222229,0.00584316253662,0.00685715675354,0.000887155532837,0.109570980072
99,0.00305199623108,0.00687885284424,0.00516891479492,0.00078010559082,0.10903096199
