step,run,get,set,free,run_up_to_step
0,0.020534992218,0.0170030593872,0.0165419578552,0.00274991989136,0.0215580463409
1,0.0105011463165,0.0149879455566,0.0158820152283,0.00282382965088,0.0216600894928
2,0.00824785232544,0.0151009559631,0.0158169269562,0.00283002853394,0.0239908695221
3,0.00863885879517,0.0151689052582,0.0174510478973,0.00322484970093,0.02623295784
4,0.00864505767822,0.0155282020569,0.0163090229034,0.00299096107483,0.0281369686127
5,0.00869202613831,0.0149948596954,0.0162789821625,0.00306797027588,0.0829720497131
6,0.0090799331665,0.0169920921326,0.0159199237823,0.00305914878845,0.0319340229034
7,0.00907588005066,0.0155799388885,0.01638007164,0.00312399864197,0.0303859710693
8,0.0096390247345,0.0158519744873,0.017028093338,0.00312399864197,0.0351819992065
9,0.0129718780518,0.0158519744873,0.0174379348755,0.00329399108887,0.0326330661774
10,0.0094268321991,0.0158619880676,0.0166330337524,0.00319194793701,0.0329070091248
11,0.0127201080322,0.0160529613495,0.0167219638824,0.00332593917847,0.0347850322723
12,0.00916194915771,0.0156071186066,0.0169041156769,0.00330400466919,0.039675951004
13,0.0790998935699,0.015683889389,0.0171599388123,0.00335311889648,0.0816030502319
14,0.00988698005676,0.015517950058,0.0175888538361,0.00392413139343,0.0384809970856
15,0.0125770568848,0.0174160003662,0.0177440643311,0.00363397598267,0.0505859851837
16,0.015457868576,0.0177888870239,0.0189490318298,0.00396490097046,0.0457570552826
17,0.0140609741211,0.0160868167877,0.0188500881195,0.004075050354,0.0566141605377
18,0.0144350528717,0.0179128646851,0.0190451145172,0.00405502319336,0.0654430389404
19,0.0138359069824,0.0179841518402,0.0186171531677,0.00410890579224,0.0605721473694
20,0.018739938736,0.0182301998138,0.0195300579071,0.00423002243042,0.0777518749237
21,0.0158457756042,0.0166358947754,0.0171959400177,0.00363206863403,0.0676710605621
22,0.010372877121,0.0158700942993,0.0169279575348,0.00351500511169,0.0575060844421
23,0.00937700271606,0.0157451629639,0.0170929431915,0.00347709655762,0.0630059242249
24,0.00969910621643,0.0161271095276,0.0178201198578,0.00369906425476,0.0662319660187
25,0.0121929645538,0.0161170959473,0.0165951251984,0.00368213653564,0.0719130039215
26,0.0151798725128,0.0158469676971,0.0163509845734,0.00336790084839,0.0812780857086
27,0.0104141235352,0.0155758857727,0.0169360637665,0.00341892242432,0.10045003891
28,0.0129778385162,0.015625,0.0162401199341,0.0034761428833,0.0809731483459
29,0.0143978595734,0.0176839828491,0.0167400836945,0.00349402427673,0.0981838703156
30,0.0105221271515,0.0154569149017,0.0174660682678,0.00365209579468,0.136773109436
31,0.0172879695892,0.017364025116,0.0167610645294,0.00364303588867,0.089882850647
32,0.0158879756927,0.0159358978271,0.0171799659729,0.00370407104492,0.116189002991
33,0.0103099346161,0.0162270069122,0.016352891922,0.00343990325928,0.0961019992828
34,0.012079000473,0.0154790878296,0.0163588523865,0.00351500511169,0.10470700264
35,0.0162320137024,0.0156190395355,0.0166020393372,0.00351405143738,0.111801862717
36,0.0131349563599,0.0161180496216,0.0164749622345,0.00363683700562,0.112566947937
37,0.0103988647461,0.015841960907,0.01620221138,0.00344109535217,0.150073051453
38,0.0142350196838,0.0159969329834,0.0161798000336,0.00343799591064,0.115308046341
39,0.0135772228241,0.0156950950623,0.016921043396,0.00357985496521,0.125534057617
40,0.012088060379,0.0155918598175,0.016487121582,0.00354290008545,0.130667924881
41,0.0122842788696,0.0153019428253,0.0163090229034,0.00345206260681,0.133687973022
42,0.0113229751587,0.0165901184082,0.0177850723267,0.00416398048401,0.232682943344
43,0.0190341472626,0.0159928798676,0.0163748264313,0.003662109375,0.151271104813
44,0.0154161453247,0.0159411430359,0.0165588855743,0.00348019599915,0.149034023285
45,0.0123219490051,0.0160090923309,0.0166919231415,0.00386309623718,0.153700113297
46,0.0118689537048,0.0162918567657,0.0171029567719,0.00373792648315,0.223951816559
47,0.0164070129395,0.0164601802826,0.0171890258789,0.0040647983551,0.166406869888
48,0.0139241218567,0.0157940387726,0.0387670993805,0.00373506546021,0.170381784439
49,0.013197183609,0.0164439678192,0.0170271396637,0.00363922119141,0.295277833939
50,0.0228440761566,0.0156710147858,0.0164248943329,0.00363492965698,0.196625232697
51,0.012763261795,0.0158479213715,0.0165610313416,0.00401592254639,0.187064170837
52,0.0149319171906,0.0160329341888,0.0168259143829,0.00404000282288,0.192822933197
53,0.0162949562073,0.0161828994751,0.01638007164,0.00397801399231,0.225683927536
54,0.0135862827301,0.0162818431854,0.0162999629974,0.00360107421875,0.208303928375
55,0.0236892700195,0.0156500339508,0.0161011219025,0.00372505187988,0.208306074142
56,0.026534318924,0.0381500720978,0.0172989368439,0.00361204147339,0.225871086121
57,0.0133380889893,0.0160138607025,0.0183889865875,0.00377202033997,0.226516008377
58,0.0139758586884,0.0163450241089,0.0163128376007,0.00361013412476,0.231657028198
59,0.0167901515961,0.0157470703125,0.0164079666138,0.00354480743408,0.241855859756
60,0.014664888382,0.0167388916016,0.0161571502686,0.00380206108093,0.247828960419
61,0.0217299461365,0.0154659748077,0.0163640975952,0.00359511375427,0.251847982407
62,0.0164330005646,0.0162999629974,0.016930103302,0.0037579536438,0.590166091919
63,0.0138490200043,0.0155229568481,0.0164771080017,0.00373005867004,0.266537189484
64,0.017374753952,0.0154459476471,0.01597905159,0.00373506546021,0.281423091888
65,0.0164089202881,0.0152871608734,0.0210561752319,0.00353097915649,0.279163837433
66,0.0144770145416,0.0147130489349,0.0156168937683,0.00348210334778,0.28953909874
67,0.022873878479,0.0165729522705,0.0177738666534,0.00360703468323,0.472541093826
68,0.0140750408173,0.0159759521484,0.0170631408691,0.00381588935852,0.311995983124
69,0.0180108547211,0.0163199901581,0.0166690349579,0.00364398956299,0.320849180222
70,0.0191161632538,0.0150210857391,0.016254901886,0.00351619720459,0.367889881134
71,0.0220649242401,0.0157179832458,0.0165529251099,0.00373005867004,0.361108064651
72,0.0153911113739,0.0152978897095,0.015946149826,0.00370383262634,0.356292009354
73,0.018462896347,0.0162510871887,0.0181519985199,0.00362300872803,0.574245929718
74,0.0181322097778,0.0160038471222,0.0167498588562,0.00387215614319,0.362011194229
75,0.0163450241089,0.0161888599396,0.0167238712311,0.00371098518372,0.405443906784
76,0.0276329517365,0.0160708427429,0.0163810253143,0.00361108779907,0.394762039185
77,0.0153212547302,0.0151221752167,0.0157399177551,0.00371718406677,0.39284992218
78,0.0192310810089,0.0162649154663,0.0167238712311,0.00365400314331,0.546083211899
79,0.0140838623047,0.0154249668121,0.0163969993591,0.00361800193787,0.40690612793
80,0.0248041152954,0.0155880451202,0.0160510540009,0.00386309623718,0.480463027954
81,0.015233039856,0.0151000022888,0.0167720317841,0.00394606590271,0.452592134476
82,0.0182962417603,0.0154120922089,0.016254901886,0.00365400314331,0.448318958282
83,0.0150239467621,0.0165350437164,0.0172529220581,0.00370693206787,0.594193935394
84,0.036835193634,0.0160720348358,0.0169630050659,0.0036358833313,0.464058876038
85,0.0156719684601,0.0156688690186,0.016695022583,0.00349998474121,0.466067075729
86,0.0183048248291,0.0152390003204,0.0159409046173,0.00354194641113,0.476613044739
87,0.0193719863892,0.0151829719543,0.0159740447998,0.00365996360779,0.48314499855
88,0.106812953949,0.0150279998779,0.0175371170044,0.00393390655518,0.512998819351
89,0.0171899795532,0.0163359642029,0.0165569782257,0.00429201126099,0.535141944885
90,0.0204598903656,0.015074968338,0.0174889564514,0.00352692604065,0.647089958191
91,0.0145530700684,0.0152139663696,0.0172770023346,0.00469493865967,0.585748910904
92,0.0376739501953,0.0170090198517,0.0175998210907,0.00424098968506,0.641111850739
93,0.0207488536835,0.0185179710388,0.019150018692,0.00479412078857,1.05253005028
94,0.027147769928,0.015762090683,0.0160548686981,0.00348401069641,0.617148160934
95,0.0234389305115,0.0149891376495,0.0158429145813,0.00347185134888,0.670680046082
96,0.018079996109,0.0150461196899,0.0186030864716,0.00386309623718,0.582417964935
97,0.0213210582733,0.0164539813995,0.0195019245148,0.00443506240845,0.662961006165
98,0.017560005188,0.0181140899658,0.0165910720825,0.00373411178589,0.614085912704
99,0.0277688503265,0.014997959137,0.0161118507385,0.00363397598267,0.63093996048
