step,run,get,set,free,run_up_to_step
0,0.00376510620117,0.00618696212769,0.00590491294861,0.000753164291382,0.00590395927429
1,0.00249314308167,0.00563597679138,0.00543618202209,0.000746965408325,0.00568294525146
2,0.00232696533203,0.00581884384155,0.00553512573242,0.000746011734009,0.00571393966675
3,0.00241494178772,0.00581812858582,0.00552701950073,0.000754117965698,0.00657415390015
4,0.00335097312927,0.00558590888977,0.00574612617493,0.000857830047607,0.0294859409332
5,0.00262784957886,0.00568103790283,0.00577092170715,0.000770092010498,0.00829792022705
6,0.00322198867798,0.00567698478699,0.00543808937073,0.000745058059692,0.00884413719177
7,0.00249123573303,0.00578498840332,0.00551605224609,0.000745058059692,0.00879192352295
8,0.00234699249268,0.0055570602417,0.00542497634888,0.000744104385376,0.00964593887329
9,0.00264811515808,0.00565600395203,0.00549006462097,0.000775098800659,0.0100100040436
10,0.00245213508606,0.00556397438049,0.0059061050415,0.000778913497925,0.0511381626129
11,0.0057110786438,0.00701093673706,0.00596189498901,0.000898838043213,0.0115671157837
12,0.00250697135925,0.00558805465698,0.00578689575195,0.000852108001709,0.0120542049408
13,0.00334191322327,0.00575113296509,0.00579905509949,0.000869989395142,0.0131750106812
14,0.00251817703247,0.00556182861328,0.00572681427002,0.000854969024658,0.0135889053345
15,0.00248908996582,0.00558996200562,0.0056529045105,0.000883102416992,0.0135669708252
16,0.00242304801941,0.00564789772034,0.00622606277466,0.00101184844971,0.0145390033722
17,0.00283479690552,0.00572490692139,0.00581693649292,0.000872850418091,0.0170481204987
18,0.0026319026947,0.00599789619446,0.00563597679138,0.000772953033447,0.0163159370422
19,0.00257110595703,0.00571513175964,0.00561594963074,0.000778198242188,0.0162630081177
20,0.00250291824341,0.00582909584045,0.00560712814331,0.000755071640015,0.0165121555328
21,0.00303173065186,0.00561499595642,0.00596880912781,0.000797033309937,0.017058134079
22,0.00268006324768,0.00604701042175,0.00565195083618,0.000771045684814,0.0184011459351
23,0.00285506248474,0.00581097602844,0.00568604469299,0.00078010559082,0.0188200473785
24,0.00383520126343,0.00686502456665,0.00580191612244,0.000787019729614,0.0213317871094
25,0.00334286689758,0.0057110786438,0.0056300163269,0.000850915908813,0.0195960998535
26,0.00322508811951,0.00556397438049,0.00569105148315,0.000752925872803,0.0203680992126
27,0.00245499610901,0.00598216056824,0.00596690177917,0.00079607963562,0.0656678676605
28,0.002445936203,0.00599384307861,0.00571799278259,0.000808000564575,0.0227241516113
29,0.00305724143982,0.00609517097473,0.00569796562195,0.000799894332886,0.0224449634552
30,0.00276803970337,0.00580787658691,0.0057361125946,0.00078296661377,0.0230131149292
31,0.00288605690002,0.00571203231812,0.00580596923828,0.000840187072754,0.0230629444122
32,0.00257110595703,0.00570797920227,0.00620889663696,0.00102210044861,0.023530960083
33,0.00358390808105,0.00609588623047,0.0060510635376,0.000814914703369,0.0247240066528
34,0.00247192382812,0.00595307350159,0.00581789016724,0.000805139541626,0.0254089832306
35,0.0025372505188,0.00582098960876,0.00558185577393,0.000770092010498,0.0259730815887
36,0.00302386283875,0.00583505630493,0.00670599937439,0.00117897987366,0.031632900238
37,0.00278186798096,0.00633001327515,0.00599217414856,0.000831127166748,0.0269739627838
38,0.00264286994934,0.00583696365356,0.00567388534546,0.000813007354736,0.0281341075897
39,0.00349116325378,0.00622320175171,0.00565600395203,0.000795841217041,0.0280060768127
40,0.00341200828552,0.00610899925232,0.00591611862183,0.000806093215942,0.02911901474
41,0.00272393226624,0.00589179992676,0.0056848526001,0.000795125961304,0.0291969776154
42,0.0029628276825,0.00646495819092,0.00602698326111,0.000951051712036,0.0774700641632
43,0.00249695777893,0.00602507591248,0.00587105751038,0.000826120376587,0.0306169986725
44,0.00249171257019,0.00587892532349,0.00579500198364,0.000802993774414,0.0309278964996
45,0.0032057762146,0.00582599639893,0.00558185577393,0.000801086425781,0.0317211151123
46,0.00366306304932,0.00610494613647,0.00572109222412,0.000825881958008,0.0313110351562
47,0.00314784049988,0.0076789855957,0.00679516792297,0.00136208534241,0.0833039283752
48,0.00346493721008,0.00648784637451,0.00623106956482,0.000875949859619,0.0333619117737
49,0.00266313552856,0.00630497932434,0.00628709793091,0.000866174697876,0.0344958305359
50,0.00327301025391,0.00598692893982,0.00600290298462,0.000869035720825,0.0351490974426
51,0.00321793556213,0.00604486465454,0.00599908828735,0.000851154327393,0.0349481105804
52,0.00251388549805,0.00592112541199,0.0059609413147,0.000844955444336,0.124226093292
53,0.00314497947693,0.00613594055176,0.00600385665894,0.000900983810425,0.0364429950714
54,0.00323915481567,0.00597906112671,0.00596785545349,0.000952005386353,0.0371289253235
55,0.00261807441711,0.00589895248413,0.0057680606842,0.000899076461792,0.0371069908142
56,0.00277495384216,0.0059769153595,0.00587916374207,0.00085186958313,0.0377810001373
57,0.00268793106079,0.00612092018127,0.00614786148071,0.000854015350342,0.0383729934692
58,0.00265312194824,0.00599098205566,0.00615000724792,0.000863075256348,0.0392429828644
59,0.00304484367371,0.00585412979126,0.00596284866333,0.000849962234497,0.0405530929565
60,0.0025749206543,0.00566911697388,0.00571799278259,0.000895023345947,0.0468888282776
61,0.00286197662354,0.00618004798889,0.00607204437256,0.000916957855225,0.101260185242
62,0.00295090675354,0.00611782073975,0.00602197647095,0.000864028930664,0.0424149036407
63,0.00241994857788,0.00577402114868,0.00593209266663,0.000917911529541,0.0418171882629
64,0.00277829170227,0.00566291809082,0.00569105148315,0.000802040100098,0.0422320365906
65,0.00283288955688,0.0064799785614,0.00615096092224,0.000891923904419,0.0892469882965
66,0.00252413749695,0.0059220790863,0.00614309310913,0.000914812088013,0.0436251163483
67,0.00257897377014,0.00565695762634,0.00571703910828,0.000823974609375,0.0439500808716
68,0.00300216674805,0.00582098960876,0.00579500198364,0.000840902328491,0.0483379364014
69,0.00253701210022,0.00672197341919,0.00613498687744,0.000901937484741,0.0936069488525
70,0.00255799293518,0.00613403320312,0.00581502914429,0.000848054885864,0.0457270145416
71,0.00242924690247,0.00573897361755,0.00596404075623,0.000800132751465,0.046010017395
72,0.00253915786743,0.00553607940674,0.00558185577393,0.000860929489136,0.0472309589386
73,0.00390815734863,0.00689506530762,0.00607299804688,0.000920057296753,0.096088886261
74,0.00258111953735,0.00635695457458,0.00602197647095,0.000890970230103,0.0494921207428
75,0.00253081321716,0.00603199005127,0.00575494766235,0.000892877578735,0.0497097969055
76,0.00253820419312,0.00596690177917,0.00567197799683,0.000859022140503,0.0510201454163
77,0.00248289108276,0.00588297843933,0.00609111785889,0.000878095626831,0.0626718997955
78,0.00276184082031,0.00658011436462,0.00613188743591,0.000952959060669,0.0517828464508
79,0.00428414344788,0.00617790222168,0.00579786300659,0.000855922698975,0.0528349876404
80,0.00259494781494,0.00583004951477,0.00562310218811,0.000954151153564,0.0524349212646
81,0.00275492668152,0.00561308860779,0.00580596923828,0.000888109207153,0.0528631210327
82,0.00260496139526,0.00653600692749,0.00620007514954,0.00092601776123,0.0541799068451
83,0.00252175331116,0.00601291656494,0.00574493408203,0.000864028930664,0.0548839569092
84,0.00254201889038,0.00564908981323,0.00571298599243,0.000799894332886,0.0554101467133
85,0.00254893302917,0.00671696662903,0.00648307800293,0.000936985015869,0.107876062393
86,0.00379705429077,0.00652503967285,0.00631904602051,0.000965118408203,0.0589919090271
87,0.00301289558411,0.00641202926636,0.00591897964478,0.000833988189697,0.0653569698334
88,0.00245118141174,0.00544309616089,0.00567388534546,0.000816822052002,0.0563609600067
89,0.00261902809143,0.00656414031982,0.00618314743042,0.00103306770325,0.107769012451
90,0.00258088111877,0.00616598129272,0.00585412979126,0.000924110412598,0.0577721595764
91,0.00250792503357,0.00570607185364,0.00562596321106,0.000825881958008,0.058247089386
92,0.00246691703796,0.0053379535675,0.00578498840332,0.000883102416992,0.0578789710999
93,0.00340604782104,0.00645780563354,0.00604510307312,0.000908136367798,0.109824895859
94,0.00261187553406,0.00578999519348,0.00589513778687,0.000942945480347,0.0608749389648
95,0.00297689437866,0.0054030418396,0.00559186935425,0.000784873962402,0.0603969097137
96,0.00250101089478,0.00681591033936,0.00666904449463,0.000994920730591,0.574538946152
97,0.00255966186523,0.00608205795288,0.00602102279663,0.00104999542236,0.0616128444672
98,0.00257301330566,0.00617003440857,0.0058650970459,0.000879049301147,0.0620088577271
99,0.00249099731445,0.00596904754639,0.00586104393005,0.000869989395142,0.0619201660156
