step,run,get,set,free,run_up_to_step
0,0.00567817687988,0.0119910240173,0.0117371082306,0.00119590759277,0.00634717941284
1,0.0043671131134,0.011440038681,0.0121080875397,0.00122809410095,0.0068371295929
2,0.00466918945312,0.0114068984985,0.011684179306,0.00120997428894,0.00842714309692
3,0.00376892089844,0.0115549564362,0.0119869709015,0.00127005577087,0.00955009460449
4,0.00362086296082,0.0117340087891,0.0117349624634,0.00134181976318,0.0108089447021
5,0.00512099266052,0.0119249820709,0.0117630958557,0.00132894515991,0.0124700069427
6,0.00383377075195,0.0119669437408,0.0121409893036,0.00145196914673,0.0126969814301
7,0.0037248134613,0.011677980423,0.0124230384827,0.00153303146362,0.0136959552765
8,0.0053448677063,0.0122919082642,0.0122120380402,0.00144195556641,0.0156469345093
9,0.00449395179749,0.0119671821594,0.012571811676,0.00164914131165,0.0174651145935
10,0.00391793251038,0.0121750831604,0.0118389129639,0.00140810012817,0.018196105957
11,0.0041971206665,0.0119330883026,0.012326002121,0.00148701667786,0.0183789730072
12,0.00441598892212,0.0115489959717,0.011766910553,0.00128293037415,0.0182271003723
13,0.0220286846161,0.0113189220428,0.0120739936829,0.00133299827576,0.0195250511169
14,0.00475335121155,0.0117938518524,0.0121719837189,0.00149393081665,0.021311044693
15,0.00362372398376,0.0131778717041,0.0121510028839,0.00149607658386,0.0226080417633
16,0.00354814529419,0.0107200145721,0.0126438140869,0.00132012367249,0.0230579376221
17,0.00436282157898,0.0125081539154,0.0127911567688,0.00132203102112,0.0240540504456
18,0.00372219085693,0.0122389793396,0.0127449035645,0.00151896476746,0.0263299942017
19,0.00507879257202,0.0120339393616,0.0133459568024,0.00163102149963,0.0285859107971
20,0.00475907325745,0.0123448371887,0.0121359825134,0.0012800693512,0.0290789604187
21,0.00371313095093,0.0123569965363,0.0129790306091,0.00146794319153,0.0299909114838
22,0.0049729347229,0.0125761032104,0.0127251148224,0.00137805938721,0.0314509868622
23,0.00364708900452,0.0122098922729,0.0120391845703,0.00127005577087,0.0330438613892
24,0.00567936897278,0.0125250816345,0.0119781494141,0.00120186805725,0.0343160629272
25,0.00422191619873,0.0121510028839,0.0119800567627,0.00139093399048,0.0355021953583
26,0.00389981269836,0.0123519897461,0.012050151825,0.0012218952179,0.0363960266113
27,0.00366282463074,0.0122048854828,0.012195110321,0.00134706497192,0.0371799468994
28,0.00366616249084,0.0128080844879,0.0126881599426,0.00132918357849,0.0699739456177
29,0.00360012054443,0.0132579803467,0.0124311447144,0.00145816802979,0.0402028560638
30,0.00399518013,0.01265001297,0.0128769874573,0.00180292129517,0.0401251316071
31,0.00379014015198,0.0121059417725,0.0128560066223,0.00167894363403,0.0416181087494
32,0.00391006469727,0.0129680633545,0.0116200447083,0.00119590759277,0.0424771308899
33,0.00513195991516,0.0129499435425,0.0127739906311,0.00139999389648,0.0910959243774
34,0.00389814376831,0.0128049850464,0.0136110782623,0.00191712379456,0.0454740524292
35,0.0059130191803,0.0129430294037,0.0125110149384,0.00129222869873,0.0468809604645
36,0.00396990776062,0.0123980045319,0.012237071991,0.00143003463745,0.048614025116
37,0.00454092025757,0.0124099254608,0.0118100643158,0.00124406814575,0.0487039089203
38,0.00372505187988,0.0122091770172,0.0141739845276,0.00155711174011,0.0499849319458
39,0.00490117073059,0.0129699707031,0.0125238895416,0.00131893157959,0.0516409873962
40,0.0036780834198,0.0129239559174,0.0127990245819,0.00149607658386,0.0527451038361
41,0.00524592399597,0.0127420425415,0.0120520591736,0.00137090682983,0.0562510490417
42,0.00426912307739,0.0121879577637,0.011626958847,0.00133800506592,0.0553550720215
43,0.00379610061646,0.0121710300446,0.0141260623932,0.00133585929871,0.0560100078583
44,0.00379991531372,0.0132191181183,0.013188123703,0.00143885612488,0.0572559833527
45,0.00392985343933,0.0134239196777,0.0129690170288,0.00156402587891,0.0587179660797
46,0.00403904914856,0.0131118297577,0.0126340389252,0.00143504142761,0.0591681003571
47,0.00388407707214,0.0125830173492,0.0124459266663,0.00133585929871,0.0606160163879
48,0.00401091575623,0.0126659870148,0.0122039318085,0.00118899345398,0.0615961551666
49,0.00394797325134,0.0139219760895,0.0132610797882,0.00157523155212,0.135464906693
50,0.005450963974,0.0133039951324,0.0125589370728,0.00139188766479,0.0652670860291
51,0.00380396842957,0.0129749774933,0.0127899646759,0.00170397758484,0.0654211044312
52,0.00492906570435,0.0125629901886,0.0120940208435,0.0013279914856,0.0668740272522
53,0.00526118278503,0.0121312141418,0.0140988826752,0.00156593322754,0.0679609775543
54,0.00395917892456,0.0135481357574,0.0123541355133,0.00137400627136,0.0700998306274
55,0.00489807128906,0.0133769512177,0.0128901004791,0.0014910697937,0.0713379383087
56,0.00385093688965,0.0131621360779,0.0140368938446,0.00163984298706,0.0727591514587
57,0.00371909141541,0.0128221511841,0.0125148296356,0.00133299827576,0.0730080604553
58,0.00523376464844,0.0129029750824,0.0122649669647,0.00124096870422,0.0760779380798
59,0.00468516349792,0.0127408504486,0.0133609771729,0.00180006027222,0.131760835648
60,0.00405383110046,0.0129580497742,0.0131440162659,0.00168585777283,0.0779340267181
61,0.00384593009949,0.012825012207,0.0130620002747,0.00185394287109,0.0783579349518
62,0.00386190414429,0.012787103653,0.0119371414185,0.00135707855225,0.0787210464478
63,0.00401091575623,0.0129499435425,0.0123579502106,0.00173115730286,0.0779187679291
64,0.00394988059998,0.0121819972992,0.0147068500519,0.00185012817383,0.0813341140747
65,0.00392413139343,0.0131230354309,0.0126419067383,0.00138521194458,0.081876039505
66,0.0039210319519,0.0129678249359,0.0125589370728,0.00154495239258,0.0816848278046
67,0.00457000732422,0.0125510692596,0.0117540359497,0.00127911567688,0.0830430984497
68,0.00429582595825,0.0123610496521,0.0125608444214,0.00158596038818,0.0843620300293
69,0.00519013404846,0.013011932373,0.0131440162659,0.00157809257507,0.144685029984
70,0.00487923622131,0.01296210289,0.0146238803864,0.00201892852783,0.0884490013123
71,0.00404572486877,0.0136241912842,0.0136959552765,0.00182294845581,0.0919358730316
72,0.00509691238403,0.0125548839569,0.0120260715485,0.00145101547241,0.0903799533844
73,0.00376200675964,0.0138208866119,0.013503074646,0.00187706947327,0.136032104492
74,0.00551724433899,0.0128309726715,0.0126628875732,0.00135588645935,0.0951411724091
75,0.00474905967712,0.0127379894257,0.0123081207275,0.00122904777527,0.0950701236725
76,0.0037989616394,0.0122330188751,0.0125179290771,0.00153708457947,0.0946838855743
77,0.0036289691925,0.0133900642395,0.0130300521851,0.00143384933472,0.143805980682
78,0.00373196601868,0.0129120349884,0.0125958919525,0.00153517723083,0.0979018211365
79,0.0036940574646,0.0124619007111,0.0120239257812,0.00121998786926,0.0979499816895
80,0.00389099121094,0.011745929718,0.0149710178375,0.00186896324158,0.0989820957184
81,0.00392889976501,0.0137379169464,0.0136339664459,0.00197792053223,0.102150917053
82,0.0039370059967,0.012983083725,0.012463092804,0.00128984451294,0.101179122925
83,0.00393414497375,0.0127189159393,0.0122277736664,0.00136590003967,0.104336023331
84,0.00435090065002,0.0121579170227,0.0142421722412,0.00181889533997,0.102180957794
85,0.00510406494141,0.0132088661194,0.0129940509796,0.00142312049866,0.105273008347
86,0.00439405441284,0.0130569934845,0.012512922287,0.00137996673584,0.107624053955
87,0.00378274917603,0.012796163559,0.0117230415344,0.00127696990967,0.107891082764
88,0.00398230552673,0.0136871337891,0.0129449367523,0.00154805183411,0.156190872192
89,0.00545692443848,0.0134968757629,0.012736082077,0.00141286849976,0.110342979431
90,0.00423884391785,0.013386964798,0.0123829841614,0.00138688087463,0.110696077347
91,0.00522804260254,0.0122718811035,0.0117049217224,0.00131297111511,0.112221956253
92,0.00466394424438,0.0139229297638,0.0144498348236,0.00200295448303,0.161427021027
93,0.00386810302734,0.0136070251465,0.0128009319305,0.00145602226257,0.114624023438
94,0.00370287895203,0.0129652023315,0.0121171474457,0.00147891044617,0.115551948547
95,0.0048840045929,0.0120511054993,0.0122089385986,0.00142097473145,0.116647005081
96,0.00376105308533,0.01478099823,0.0130109786987,0.00146818161011,0.167678117752
97,0.00380396842957,0.0128481388092,0.012255191803,0.00129413604736,0.120440006256
98,0.00381803512573,0.0124161243439,0.0116670131683,0.00116014480591,0.120723009109
99,0.00370693206787,0.0111539363861,0.0114679336548,0.00124907493591,0.12273812294
