step,run,get,set,free,run_up_to_step
0,0.0168969631195,0.00838398933411,0.00834918022156,0.00175213813782,0.0172278881073
1,0.00917100906372,0.00781512260437,0.0085608959198,0.00179004669189,0.0189790725708
2,0.00705528259277,0.00755405426025,0.00836300849915,0.00185799598694,0.017480134964
3,0.0147030353546,0.00763988494873,0.00860905647278,0.00175809860229,0.0177829265594
4,0.00703811645508,0.00814700126648,0.00830602645874,0.00183606147766,0.0203678607941
5,0.00702095031738,0.00803208351135,0.0086350440979,0.00148701667786,0.0227689743042
6,0.0125403404236,0.00827312469482,0.00836801528931,0.00151300430298,0.0200719833374
7,0.00898313522339,0.00836896896362,0.00879287719727,0.00174689292908,0.02259516716
8,0.00938820838928,0.00872588157654,0.00856494903564,0.00173687934875,0.0280561447144
9,0.00740480422974,0.0086030960083,0.00835800170898,0.00168108940125,0.0259940624237
10,0.00713896751404,0.00856614112854,0.00904703140259,0.0017409324646,0.0276939868927
11,0.00808501243591,0.00807499885559,0.00830507278442,0.00145196914673,0.0307800769806
12,0.00892806053162,0.00848007202148,0.00865912437439,0.00158286094666,0.0265290737152
13,0.00755596160889,0.00852608680725,0.00849294662476,0.00127983093262,0.0286588668823
14,0.00907897949219,0.00820112228394,0.00890612602234,0.00162410736084,0.0309889316559
15,0.00977396965027,0.00863695144653,0.00904679298401,0.00191688537598,0.0299801826477
16,0.00775599479675,0.00828790664673,0.00895714759827,0.00184798240662,0.0321907997131
17,0.00758767127991,0.0083589553833,0.00974798202515,0.00196194648743,0.03080701828
18,0.00719499588013,0.00896811485291,0.00948619842529,0.00204396247864,0.0332641601562
19,0.00828790664673,0.00925779342651,0.00893497467041,0.00182604789734,0.0386221408844
20,0.0109930038452,0.0123360157013,0.00992202758789,0.00207591056824,0.0401840209961
21,0.0149018764496,0.0120480060577,0.00869607925415,0.00188708305359,0.0503439903259
22,0.0088791847229,0.0087251663208,0.00975203514099,0.00204491615295,0.0372660160065
23,0.00958204269409,0.00856494903564,0.00877499580383,0.00174307823181,0.0410180091858
24,0.0120379924774,0.00839686393738,0.00847291946411,0.00173902511597,0.108637094498
25,0.00700497627258,0.00900077819824,0.00939893722534,0.00200390815735,0.0397877693176
26,0.0084822177887,0.00882196426392,0.00837302207947,0.00184798240662,0.0403130054474
27,0.00671100616455,0.0083429813385,0.00937604904175,0.00177001953125,0.065279006958
28,0.00788712501526,0.00929403305054,0.0103240013123,0.00218820571899,0.049998998642
29,0.00947690010071,0.0100989341736,0.00967216491699,0.0020899772644,0.0566930770874
30,0.00833606719971,0.00848197937012,0.00840497016907,0.00156903266907,0.0557579994202
31,0.0083749294281,0.00944781303406,0.00919485092163,0.00193095207214,0.0586240291595
32,0.00882411003113,0.00886487960815,0.00937604904175,0.00198101997375,0.0550539493561
33,0.00705289840698,0.00839686393738,0.00854802131653,0.00178194046021,0.04771900177
34,0.00939989089966,0.00872683525085,0.0085608959198,0.00159001350403,0.0467200279236
35,0.00733304023743,0.00811100006104,0.00883293151855,0.00179314613342,0.0718929767609
36,0.00818085670471,0.0103130340576,0.010046005249,0.00210785865784,0.0602860450745
37,0.00887608528137,0.0098659992218,0.0108449459076,0.00223994255066,0.0504519939423
38,0.0122737884521,0.00856304168701,0.00874781608582,0.00198006629944,0.175131082535
39,0.00802898406982,0.0082049369812,0.00862002372742,0.0019109249115,0.0529310703278
40,0.00771594047546,0.00857400894165,0.00840401649475,0.00156903266907,0.075098991394
41,0.00686192512512,0.00832295417786,0.00878310203552,0.00203013420105,0.079549074173
42,0.00675201416016,0.00832509994507,0.00897121429443,0.00181293487549,0.0808219909668
43,0.00739097595215,0.00835299491882,0.00997996330261,0.00217294692993,0.056428194046
44,0.00691795349121,0.00785899162292,0.00978207588196,0.00227093696594,0.0573439598083
45,0.0071849822998,0.00849413871765,0.00915002822876,0.00186800956726,0.0557169914246
46,0.00818586349487,0.00858688354492,0.00860714912415,0.00177001953125,0.0759890079498
47,0.00735998153687,0.00880002975464,0.00826787948608,0.00182914733887,0.0767941474915
48,0.00768494606018,0.00853514671326,0.00874185562134,0.0019838809967,0.0834259986877
49,0.00786399841309,0.00888705253601,0.0085620880127,0.00173401832581,0.0866250991821
50,0.0072169303894,0.00863480567932,0.00954723358154,0.0018630027771,0.150437831879
51,0.00739288330078,0.00821805000305,0.00859713554382,0.00171494483948,0.0638520717621
52,0.00724387168884,0.00865793228149,0.00880599021912,0.00173807144165,0.0638339519501
53,0.00815391540527,0.00889420509338,0.00928211212158,0.00175905227661,0.0625441074371
54,0.00952792167664,0.00846099853516,0.00890398025513,0.00215005874634,0.0848398208618
55,0.00831890106201,0.00821089744568,0.00898694992065,0.00169086456299,0.0969688892365
56,0.00795388221741,0.00879001617432,0.0089750289917,0.00200605392456,0.13085603714
57,0.00821113586426,0.00996994972229,0.00988006591797,0.00252509117126,0.0906248092651
58,0.0066499710083,0.00810313224792,0.00868391990662,0.00170493125916,0.0669558048248
59,0.00641584396362,0.00809192657471,0.00846195220947,0.0018310546875,0.065269947052
60,0.007483959198,0.00810694694519,0.00847816467285,0.00178599357605,0.0927610397339
61,0.00685334205627,0.00813984870911,0.0083110332489,0.00195598602295,0.0952961444855
62,0.00653910636902,0.00829315185547,0.008709192276,0.00180387496948,0.0886878967285
63,0.00752592086792,0.00834798812866,0.00896906852722,0.00186800956726,0.197514057159
64,0.0195279121399,0.00837182998657,0.00843000411987,0.00178098678589,0.0793421268463
65,0.00678110122681,0.00821113586426,0.00898194313049,0.00180292129517,0.0696198940277
66,0.0082859992981,0.00847697257996,0.00833511352539,0.00169897079468,0.0701529979706
67,0.00658988952637,0.00794219970703,0.00809788703918,0.00171184539795,0.0738999843597
68,0.0255370140076,0.00895118713379,0.00843906402588,0.0017831325531,0.107290029526
69,0.00725698471069,0.00788402557373,0.00948691368103,0.00196409225464,0.094101190567
70,0.0072009563446,0.00776195526123,0.00862002372742,0.00180912017822,0.100125074387
71,0.00858807563782,0.00895190238953,0.00940585136414,0.00197696685791,0.126739025116
72,0.00824189186096,0.00883293151855,0.00990700721741,0.00222086906433,0.0973100662231
73,0.00894808769226,0.00966715812683,0.00969195365906,0.00206589698792,0.110688924789
74,0.00901198387146,0.00922083854675,0.00954985618591,0.00214290618896,0.10662317276
75,0.0105860233307,0.00922203063965,0.00832891464233,0.00197601318359,0.136448144913
76,0.0072808265686,0.00892305374146,0.00822901725769,0.00194406509399,0.199429035187
77,0.00649476051331,0.00781083106995,0.00846099853516,0.00166583061218,0.105509996414
78,0.00661182403564,0.00869488716125,0.00852179527283,0.00181603431702,0.10778594017
79,0.00755000114441,0.0090389251709,0.00933289527893,0.00221014022827,0.114729166031
80,0.00657725334167,0.00898385047913,0.0087718963623,0.00193500518799,0.110264062881
81,0.0120840072632,0.00810694694519,0.00897312164307,0.00180912017822,0.0895068645477
82,0.0270209312439,0.00786209106445,0.00840187072754,0.00189304351807,0.095123052597
83,0.00712490081787,0.00837898254395,0.00809407234192,0.00163984298706,0.0951399803162
84,0.00726175308228,0.00748801231384,0.00865602493286,0.0019268989563,0.0868189334869
85,0.007737159729,0.0100469589233,0.00895094871521,0.00174689292908,0.0988900661469
86,0.00771903991699,0.00775003433228,0.00828099250793,0.00200200080872,0.110638856888
87,0.00863218307495,0.00911903381348,0.00912690162659,0.00207495689392,0.130342006683
88,0.00697565078735,0.00778198242188,0.00918388366699,0.00180912017822,0.232630968094
89,0.0066442489624,0.00819897651672,0.0090811252594,0.00253200531006,0.12020111084
90,0.00738906860352,0.00855088233948,0.0093150138855,0.00180983543396,0.119106054306
91,0.00815105438232,0.010017156601,0.0117671489716,0.00306391716003,0.111083030701
92,0.00611305236816,0.00773310661316,0.00794792175293,0.00209999084473,0.0972890853882
93,0.0066819190979,0.00759792327881,0.00887084007263,0.00193309783936,0.0972418785095
94,0.00798797607422,0.00895285606384,0.00841307640076,0.00216293334961,0.126367807388
95,0.00998497009277,0.00788688659668,0.00830507278442,0.00169014930725,0.104700803757
96,0.00716710090637,0.00841093063354,0.00895500183105,0.00185108184814,0.119262933731
97,0.00824093818665,0.00816011428833,0.00824904441833,0.00211787223816,0.143407821655
98,0.00634598731995,0.00825715065002,0.0107359886169,0.00239992141724,0.124866008759
99,0.00809001922607,0.00909304618835,0.00889992713928,0.00187802314758,0.140967130661
