step,run,get,set,free,run_up_to_step
0,0.0132961273193,0.00380992889404,0.00365805625916,0.000325918197632,0.0141959190369
1,0.0135281085968,0.00372695922852,0.00363612174988,0.000324964523315,0.0245101451874
2,0.0376770496368,0.00366592407227,0.0038480758667,0.000358819961548,0.0382981300354
3,0.0158929824829,0.0039541721344,0.00386691093445,0.000335216522217,0.0495519638062
4,0.0144629478455,0.00391697883606,0.00369310379028,0.000420093536377,0.0607511997223
5,0.0140361785889,0.00374412536621,0.00354099273682,0.000323057174683,0.0723030567169
6,0.0145931243896,0.0037829875946,0.00383400917053,0.00032901763916,0.0839440822601
7,0.0140430927277,0.00386500358582,0.00350999832153,0.000320196151733,0.0946731567383
8,0.0141899585724,0.0038628578186,0.00376415252686,0.000407934188843,0.105103969574
9,0.014142036438,0.00379204750061,0.00360512733459,0.000324010848999,0.117227077484
10,0.0137829780579,0.0032970905304,0.00362777709961,0.000341176986694,0.136777162552
11,0.0141708850861,0.00390291213989,0.00375318527222,0.000323057174683,0.140385866165
12,0.0202639102936,0.00388479232788,0.00394296646118,0.000405073165894,0.275746107101
13,0.013445854187,0.00370693206787,0.00384902954102,0.00034499168396,0.327600002289
14,0.0140950679779,0.00372815132141,0.0041401386261,0.000463962554932,0.176354169846
15,0.0147490501404,0.00372695922852,0.00371789932251,0.000366926193237,0.161321878433
16,0.0170228481293,0.00368404388428,0.00342702865601,0.000344038009644,0.198939085007
17,0.0151991844177,0.00373482704163,0.00391721725464,0.000347137451172,0.227672100067
18,0.0145528316498,0.00382995605469,0.00393199920654,0.000339984893799,0.219973087311
19,0.0158789157867,0.00386595726013,0.00386095046997,0.00033712387085,0.230711936951
20,0.0145747661591,0.00373697280884,0.00365996360779,0.000329971313477,0.239218950272
21,0.0136649608612,0.00378203392029,0.00381112098694,0.000323057174683,0.253601074219
22,0.0137591362,0.00371789932251,0.00373888015747,0.000326871871948,0.267366886139
23,0.0138599872589,0.00364398956299,0.0037260055542,0.00034499168396,0.285457849503
24,0.0147528648376,0.00371789932251,0.00390410423279,0.00041389465332,0.305768013
25,0.0134890079498,0.00377106666565,0.00378108024597,0.000332117080688,0.298157930374
26,0.0134718418121,0.00369000434875,0.00392913818359,0.000333070755005,0.310124158859
27,0.0137069225311,0.00374007225037,0.00388312339783,0.000385999679565,0.341623067856
28,0.0137002468109,0.00364208221436,0.00380182266235,0.000328063964844,0.332316875458
29,0.0137701034546,0.00375294685364,0.00394916534424,0.00034499168396,0.367892026901
30,0.0138378143311,0.0036518573761,0.00388598442078,0.000326871871948,0.359740018845
31,0.0135488510132,0.00365710258484,0.00383996963501,0.000330924987793,0.366804122925
32,0.0134248733521,0.00379085540771,0.00381922721863,0.000331878662109,0.377638101578
33,0.0137758255005,0.00368714332581,0.00383186340332,0.000326871871948,0.396838188171
34,0.0136640071869,0.00372719764709,0.00371599197388,0.000380992889404,0.406186819077
35,0.014317035675,0.00402092933655,0.00400185585022,0.000382900238037,0.664097070694
36,0.0135171413422,0.00342488288879,0.00386190414429,0.00033712387085,0.425163984299
37,0.0140519142151,0.00358486175537,0.00384402275085,0.00032901763916,0.436707019806
38,0.0133829116821,0.00358080863953,0.00389003753662,0.00032901763916,0.442997217178
39,0.013594865799,0.0036940574646,0.00396394729614,0.000343084335327,0.485750198364
40,0.0148870944977,0.00371694564819,0.00376415252686,0.000330924987793,0.478540182114
41,0.0133609771729,0.00353312492371,0.00369000434875,0.000395774841309,0.479256868362
42,0.0151150226593,0.00387501716614,0.0036358833313,0.000340938568115,0.516800880432
43,0.0149400234222,0.00389981269836,0.00395798683167,0.000392913818359,0.5051009655
44,0.0134799480438,0.00374984741211,0.00366592407227,0.000335931777954,0.513091087341
45,0.0141749382019,0.00376915931702,0.00386905670166,0.000339984893799,0.552860975266
46,0.0135722160339,0.00374388694763,0.00364589691162,0.000356912612915,0.562669992447
47,0.0137960910797,0.00369596481323,0.00386095046997,0.000334978103638,0.565642118454
48,0.0132641792297,0.00350904464722,0.00361108779907,0.000344038009644,0.534448862076
49,0.0140957832336,0.00325298309326,0.00390696525574,0.000332117080688,0.516536951065
50,0.0140120983124,0.00351119041443,0.00397992134094,0.000370025634766,0.59624004364
51,0.0138261318207,0.00367188453674,0.00378894805908,0.000330924987793,0.602069139481
52,0.0136270523071,0.00372099876404,0.00393199920654,0.000343084335327,0.817320108414
53,0.0136439800262,0.00376915931702,0.00368118286133,0.000331163406372,0.619024038315
54,0.014121055603,0.00380802154541,0.00404906272888,0.000347137451172,0.656330108643
55,0.0141181945801,0.00379991531372,0.00388097763062,0.00032901763916,0.638918161392
56,0.0143918991089,0.00365591049194,0.004065990448,0.000339984893799,0.683929920197
57,0.0136518478394,0.00382113456726,0.00394415855408,0.000333070755005,0.664350986481
58,0.0138621330261,0.00363111495972,0.00373411178589,0.000330924987793,0.67662191391
59,0.0136511325836,0.00359296798706,0.00367188453674,0.000338792800903,0.686286211014
60,0.0137059688568,0.00370311737061,0.00369691848755,0.000331878662109,0.699023962021
61,0.0136361122131,0.00362110137939,0.00387501716614,0.000499963760376,0.750379085541
62,0.0141661167145,0.00376081466675,0.00399112701416,0.000347137451172,0.717375993729
63,0.0139908790588,0.0037579536438,0.00397706031799,0.000339031219482,0.733173131943
64,0.0141348838806,0.00367188453674,0.00405311584473,0.000339984893799,0.757609844208
65,0.0143909454346,0.00377798080444,0.00380706787109,0.000341892242432,0.756394147873
66,0.0143668651581,0.00344800949097,0.00370407104492,0.000329971313477,0.77646112442
67,0.0147061347961,0.00374603271484,0.0036838054657,0.000328063964844,0.817503929138
68,0.0157198905945,0.00383591651917,0.00396299362183,0.000379085540771,0.79238820076
69,0.0135760307312,0.00374412536621,0.003986120224,0.000349044799805,0.810304880142
70,0.0138299465179,0.0038800239563,0.00399208068848,0.000338077545166,0.817766904831
71,0.0146601200104,0.00382804870605,0.00393509864807,0.000385999679565,0.8245241642
72,0.0137369632721,0.00384402275085,0.00398206710815,0.000419855117798,0.839299917221
73,0.0137007236481,0.0036940574646,0.0038959980011,0.000337839126587,0.863326072693
74,0.0141272544861,0.00376105308533,0.00377082824707,0.000330924987793,0.858871936798
75,0.0144810676575,0.00403189659119,0.00396013259888,0.000450849533081,1.17635798454
76,0.0137357711792,0.0039119720459,0.00373101234436,0.000342845916748,0.881969213486
77,0.0137360095978,0.00382399559021,0.00397205352783,0.000338792800903,0.890743017197
78,0.0144641399384,0.00381898880005,0.00382089614868,0.000345945358276,0.914681911469
79,0.0140569210052,0.00379920005798,0.00401091575623,0.000427961349487,0.922203063965
80,0.0158779621124,0.00381207466125,0.00370097160339,0.000345945358276,0.930646896362
81,0.0259528160095,0.00354814529419,0.00403094291687,0.000360012054443,0.943004131317
82,0.0137891769409,0.00364398956299,0.00362610816956,0.000417947769165,0.954560995102
83,0.0147380828857,0.00379395484924,0.00391292572021,0.000405073165894,1.30405807495
84,0.0139129161835,0.00382494926453,0.00403904914856,0.000343084335327,0.968194007874
85,0.0153610706329,0.00397300720215,0.00397992134094,0.00040602684021,0.983986139297
86,0.0126819610596,0.00386810302734,0.00391888618469,0.000336170196533,0.99954199791
87,0.0141310691833,0.00383305549622,0.00396680831909,0.000362873077393,1.0177321434
88,0.0142428874969,0.00385308265686,0.00402402877808,0.000337839126587,1.02126002312
89,0.0139882564545,0.00372099876404,0.00378394126892,0.000334978103638,1.00840806961
90,0.014172077179,0.00388598442078,0.00394916534424,0.000377893447876,1.41099786758
91,0.0137710571289,0.00383114814758,0.00420093536377,0.000454902648926,1.07188606262
92,0.0138337612152,0.00381302833557,0.00400400161743,0.000339984893799,1.05774092674
93,0.0141661167145,0.00398111343384,0.00414800643921,0.000338077545166,1.07124114037
94,0.0139808654785,0.00362110137939,0.00359106063843,0.000332117080688,1.10418081284
95,0.0136229991913,0.00367999076843,0.00394892692566,0.000404834747314,1.10528087616
96,0.0136449337006,0.0038149356842,0.00399780273438,0.000345945358276,1.10536313057
97,0.0135838985443,0.00381112098694,0.00402784347534,0.000443935394287,1.1145131588
98,0.0143349170685,0.00370407104492,0.00392484664917,0.000339031219482,1.08786201477
99,0.0140800476074,0.00369119644165,0.00376391410828,0.000338077545166,1.12749099731
