step,run,get,set,free,run_up_to_step
0,0.0193140506744,0.0409998893738,0.0378730297089,0.0076150894165,0.0210709571838
1,0.0212287902832,0.0379137992859,0.0385191440582,0.00777101516724,0.0125608444214
2,0.0139861106873,0.0372450351715,0.0617990493774,0.00780582427979,0.052206993103
3,0.00668406486511,0.0390570163727,0.0383360385895,0.00772786140442,0.0427620410919
4,0.00664114952087,0.0364701747894,0.0376229286194,0.00741696357727,0.0349960327148
5,0.00681209564209,0.0384559631348,0.0391509532928,0.00757002830505,0.0229091644287
6,0.00688290596008,0.039263010025,0.041296005249,0.0081479549408,0.0260758399963
7,0.00727295875549,0.0386819839478,0.0388150215149,0.00764799118042,0.0281438827515
8,0.0272600650787,0.0386250019073,0.0396499633789,0.00766921043396,0.0286068916321
9,0.00702500343323,0.0363419055939,0.0391001701355,0.00750088691711,0.0342929363251
10,0.0197370052338,0.0391471385956,0.0394461154938,0.007563829422,0.0456519126892
11,0.00743293762207,0.0374188423157,0.0383379459381,0.00785279273987,0.039736032486
12,0.0146951675415,0.0392370223999,0.0399808883667,0.00803995132446,0.044282913208
13,0.014997959137,0.0368189811707,0.0390260219574,0.00777912139893,0.0347368717194
14,0.0110619068146,0.0394508838654,0.0411841869354,0.00778603553772,0.0477700233459
15,0.0084810256958,0.0679388046265,0.0472559928894,0.00944304466248,0.0324409008026
16,0.0228099822998,0.0494649410248,0.051913022995,0.00943517684937,0.0420479774475
17,0.0107967853546,0.0385010242462,0.0457310676575,0.00845694541931,0.0525169372559
18,0.0158019065857,0.0377779006958,0.0398969650269,0.00790691375732,0.0606389045715
19,0.00924825668335,0.0396070480347,0.0446898937225,0.00869703292847,0.0480649471283
20,0.0152518749237,0.0372750759125,0.0398588180542,0.00818800926208,0.0989952087402
21,0.00850105285645,0.0392649173737,0.0394518375397,0.00761198997498,0.0602080821991
22,0.0209240913391,0.0372490882874,0.0399930477142,0.0101230144501,0.0519659519196
23,0.00868511199951,0.0402657985687,0.0388579368591,0.00725889205933,0.325630187988
24,0.0153341293335,0.038556098938,0.0386819839478,0.0075159072876,0.057874917984
25,0.0103209018707,0.0441439151764,0.0380198955536,0.00756597518921,0.0503489971161
26,0.00946521759033,0.0396499633789,0.0389399528503,0.00753283500671,0.0525250434875
27,0.0164172649384,0.0376281738281,0.0411639213562,0.00806307792664,0.0695660114288
28,0.023631811142,0.039959192276,0.039824962616,0.00805902481079,0.0588028430939
29,0.0207948684692,0.0393981933594,0.0404720306396,0.0081250667572,0.065327167511
30,0.0237648487091,0.0704290866852,0.041167974472,0.00795888900757,0.0823240280151
31,0.0195860862732,0.0398399829865,0.0411241054535,0.00802302360535,0.15873003006
32,0.0166189670563,0.0389230251312,0.0402019023895,0.00803208351135,0.108185052872
33,0.0122468471527,0.0399179458618,0.0418708324432,0.00770306587219,0.170148849487
34,0.00952696800232,0.0416910648346,0.0414400100708,0.00874400138855,0.120688915253
35,0.0280139446259,0.0392458438873,0.0420918464661,0.0078330039978,0.189918041229
36,0.0145251750946,0.0407581329346,0.0423228740692,0.00783896446228,0.0812239646912
37,0.023234128952,0.0403978824615,0.0456399917603,0.00947093963623,0.102429151535
38,0.0193200111389,0.0409281253815,0.0412168502808,0.00774002075195,0.128744125366
39,0.00714302062988,0.0397028923035,0.0408470630646,0.00824308395386,0.0966129302979
40,0.00868487358093,0.0466940402985,0.0395290851593,0.00782203674316,0.12221288681
41,0.00821328163147,0.0445640087128,0.0410070419312,0.00798797607422,0.112653970718
42,0.0256288051605,0.0405838489532,0.0422320365906,0.00795793533325,0.100378036499
43,0.00871276855469,0.0446679592133,0.0408391952515,0.00771498680115,0.241714000702
44,0.014034986496,0.039675951004,0.0492210388184,0.00931715965271,0.121484994888
45,0.00728702545166,0.0371940135956,0.0406160354614,0.00789999961853,0.178572893143
46,0.00812911987305,0.0420198440552,0.041375875473,0.0079288482666,0.123453140259
47,0.010645866394,0.044548034668,0.0402309894562,0.00773000717163,0.342512845993
48,0.00803112983704,0.0406210422516,0.0409650802612,0.00785493850708,0.115222930908
49,0.00811791419983,0.0385618209839,0.0405600070953,0.00820088386536,0.234328985214
50,0.0243711471558,0.0399820804596,0.0784270763397,0.00935912132263,0.121860027313
51,0.0175051689148,0.0414991378784,0.0441749095917,0.00968909263611,0.20695400238
52,0.0256271362305,0.0466709136963,0.0440781116486,0.00847291946411,0.135369777679
53,0.0193040370941,0.0471560955048,0.0486390590668,0.00983715057373,0.175322771072
54,0.0224170684814,0.0484519004822,0.0490298271179,0.00977802276611,0.159275770187
55,0.0198650360107,0.0479488372803,0.0500810146332,0.0100450515747,0.17404794693
56,0.0191600322723,0.0495510101318,0.0503709316254,0.0103709697723,0.177184104919
57,0.00814437866211,0.0408141613007,0.0420508384705,0.0087890625,0.15127491951
58,0.0108709335327,0.0570139884949,0.0448820590973,0.00914192199707,0.12389588356
59,0.0220079421997,0.0412948131561,0.0420899391174,0.00810599327087,0.12518119812
60,0.0157608985901,0.0434939861298,0.045401096344,0.00841903686523,0.175382852554
61,0.0299198627472,0.0425770282745,0.0409481525421,0.00827693939209,0.142753124237
62,0.0158460140228,0.0433061122894,0.0495359897614,0.00901699066162,0.134437084198
63,0.0284519195557,0.0461769104004,0.0448050498962,0.00897789001465,0.182543039322
64,0.00787115097046,0.0439140796661,0.043349981308,0.00898098945618,0.146014928818
65,0.0163161754608,0.0392060279846,0.0434620380402,0.00898885726929,0.23396396637
66,0.00898098945618,0.0448260307312,0.040981054306,0.00864720344543,0.158380031586
67,0.0260899066925,0.0414938926697,0.0416941642761,0.00803399085999,0.16018819809
68,0.0251317024231,0.0407650470734,0.0530450344086,0.00952005386353,0.225133895874
69,0.0239291191101,0.0426549911499,0.0413110256195,0.00915193557739,0.157611131668
70,0.0177190303802,0.040531873703,0.0413398742676,0.008131980896,0.299259901047
71,0.0212049484253,0.0414440631866,0.0416181087494,0.0099310874939,0.178891897202
72,0.021005153656,0.0403070449829,0.0422539710999,0.00798106193542,0.255084037781
73,0.0228369235992,0.0413382053375,0.0396151542664,0.00793504714966,0.503428936005
74,0.0243279933929,0.0401360988617,0.0424230098724,0.00803780555725,0.259970188141
75,0.0293889045715,0.0412321090698,0.0406830310822,0.008131980896,0.157922029495
76,0.0180361270905,0.0431590080261,0.043683052063,0.011656999588,0.188035011292
77,0.0401637554169,0.042172908783,0.0417277812958,0.00841188430786,0.147405147552
78,0.0108029842377,0.0422120094299,0.0407388210297,0.00872921943665,0.190296888351
79,0.0157208442688,0.0395958423615,0.0418100357056,0.00848293304443,0.204600095749
80,0.0265188217163,0.0430181026459,0.0428078174591,0.00885391235352,0.169169187546
81,0.017637014389,0.0418281555176,0.0458250045776,0.00818514823914,0.254668951035
82,0.0287370681763,0.0415368080139,0.0412490367889,0.0083589553833,0.43887591362
83,0.00841403007507,0.0443880558014,0.0412359237671,0.0079460144043,0.158404827118
84,0.0252511501312,0.0405840873718,0.0407090187073,0.00822496414185,0.75492310524
85,0.0106689929962,0.0520169734955,0.0445621013641,0.00809502601624,0.170408964157
86,0.028865814209,0.0399708747864,0.042140007019,0.00811100006104,0.240818977356
87,0.0381109714508,0.0417590141296,0.0436081886292,0.00848889350891,0.185407876968
88,0.0166718959808,0.0410220623016,0.0414600372314,0.00781393051147,0.166819095612
89,0.018905878067,0.0455038547516,0.0419359207153,0.00823903083801,0.232289075851
90,0.0152041912079,0.0417068004608,0.043242931366,0.00822710990906,0.166002988815
91,0.0215191841125,0.043377161026,0.0413081645966,0.00852417945862,0.246964931488
92,0.0226249694824,0.042534828186,0.0410830974579,0.00869393348694,0.173609972
93,0.0151779651642,0.0412549972534,0.0435528755188,0.00913000106812,0.19287109375
94,0.00849604606628,0.0449998378754,0.0466561317444,0.00939083099365,0.192574977875
95,0.00875616073608,0.0461058616638,0.0426049232483,0.0110011100769,0.202579021454
96,0.0108850002289,0.0420479774475,0.0427260398865,0.00787305831909,0.443719148636
97,0.0205368995667,0.0439651012421,0.0510580539703,0.00847220420837,0.182372808456
98,0.0160558223724,0.0433528423309,0.0425298213959,0.00835800170898,0.215823888779
99,0.0212440490723,0.0432188510895,0.0409181118011,0.00831913948059,0.295085906982
