step,run,get,set,free,run_up_to_step
0,0.0154728889465,0.00128102302551,0.00131511688232,0.000118017196655,0.0129058361053
1,0.00962591171265,0.00121808052063,0.00127792358398,0.00014591217041,0.0209789276123
2,0.00955581665039,0.00127410888672,0.00129914283752,0.000118970870972,0.0328650474548
3,0.00981092453003,0.00125908851624,0.00135183334351,0.000115871429443,0.0207929611206
4,0.00920486450195,0.00123882293701,0.00129389762878,0.000118017196655,0.0303609371185
5,0.00920295715332,0.00122094154358,0.00131392478943,0.000113964080811,0.0289380550385
6,0.0162260532379,0.00122714042664,0.0012800693512,0.000119924545288,0.037416934967
7,0.00900387763977,0.00124216079712,0.00127410888672,0.000113964080811,0.292798995972
8,0.0563380718231,0.00147104263306,0.00134110450745,0.000130891799927,0.0423889160156
9,0.00931572914124,0.00128316879272,0.00130701065063,0.000123977661133,0.0469720363617
10,0.00963997840881,0.00128793716431,0.00138711929321,0.000121116638184,0.0552370548248
11,0.00962495803833,0.00127792358398,0.00128197669983,0.000121116638184,0.061558008194
12,0.0095100402832,0.0012800693512,0.00123310089111,0.000118017196655,0.063835144043
13,0.0100719928741,0.00142884254456,0.00130796432495,0.000119924545288,0.0744709968567
14,0.0169229507446,0.00124096870422,0.00136208534241,0.000118970870972,0.06418800354
15,0.00943207740784,0.00128698348999,0.00112509727478,0.000107049942017,0.0759720802307
16,0.0101561546326,0.00126910209656,0.0012800693512,0.000114917755127,0.0801229476929
17,0.010754108429,0.00122094154358,0.00126194953918,0.000139951705933,0.0731298923492
18,0.00965213775635,0.00132393836975,0.00130987167358,0.000128030776978,0.128257036209
19,0.00949192047119,0.00126886367798,0.00128412246704,0.000121116638184,0.085216999054
20,0.00965094566345,0.00126504898071,0.00137686729431,0.000119924545288,0.305238962173
21,0.00945806503296,0.00130891799927,0.00132012367249,0.000121116638184,0.094377040863
22,0.0159440040588,0.00126314163208,0.00128221511841,0.000121831893921,0.0971629619598
23,0.00931906700134,0.00123381614685,0.00128817558289,0.000116109848022,0.0984001159668
24,0.00953698158264,0.00121998786926,0.00127696990967,0.000118017196655,0.103663921356
25,0.00926804542542,0.00123000144958,0.00125789642334,0.000119924545288,0.412791013718
26,0.00955200195312,0.00124216079712,0.00151705741882,0.0001380443573,0.755197048187
27,0.011647939682,0.00127816200256,0.00136089324951,0.000131130218506,0.113744020462
28,0.00954484939575,0.00129985809326,0.00142002105713,0.000131130218506,0.117532014847
29,0.0164330005646,0.00125288963318,0.00135803222656,0.000120878219604,0.132009983063
30,0.00941109657288,0.00123715400696,0.00128984451294,0.000185966491699,0.134933948517
31,0.0101969242096,0.00122404098511,0.00129914283752,0.000119924545288,0.125082015991
32,0.00964617729187,0.00117802619934,0.00127410888672,0.000128030776978,0.126485109329
33,0.0102047920227,0.00109004974365,0.00161600112915,0.000151872634888,0.14640712738
34,0.00976300239563,0.00125789642334,0.0012469291687,0.000138998031616,0.142777919769
35,0.010195016861,0.00133800506592,0.00141906738281,0.000135898590088,0.133007049561
36,0.0094108581543,0.00137209892273,0.00138401985168,0.000126123428345,0.134025096893
37,0.00950813293457,0.00128293037415,0.00123190879822,0.0001220703125,0.15415596962
38,0.0114419460297,0.00127506256104,0.0013689994812,0.000128030776978,0.163965940475
39,0.0106549263,0.00116801261902,0.00132203102112,0.000120878219604,0.172382116318
40,0.0103991031647,0.0012218952179,0.00123405456543,0.000121116638184,0.186207056046
41,0.0424818992615,0.00118708610535,0.00151205062866,0.000134944915771,0.201421976089
42,0.00947213172913,0.00124788284302,0.00119590759277,0.000124931335449,0.174659967422
43,0.0172209739685,0.00140404701233,0.00139999389648,0.000132083892822,0.388771057129
44,0.0101070404053,0.00125908851624,0.00132918357849,0.000126123428345,0.19021987915
45,0.00993704795837,0.00126695632935,0.00126004219055,0.000120162963867,0.178913831711
46,0.0163822174072,0.00121998786926,0.00118494033813,0.000113010406494,0.450174093246
47,0.010274887085,0.00113797187805,0.0014009475708,0.000119209289551,0.19229388237
48,0.00954413414001,0.00120902061462,0.0012800693512,0.000116109848022,0.193443059921
49,0.00951313972473,0.00145101547241,0.00142192840576,0.000136137008667,0.624728918076
50,0.0124588012695,0.00140285491943,0.00144100189209,0.000125885009766,0.198186159134
51,0.00955390930176,0.0013279914856,0.00134706497192,0.000128984451294,0.217164039612
52,0.0111939907074,0.001296043396,0.00136804580688,0.0001220703125,0.240191936493
53,0.00962209701538,0.00125408172607,0.00135612487793,0.000125169754028,0.213593959808
54,0.00963616371155,0.00122404098511,0.00127100944519,0.000173807144165,0.224564790726
55,0.00954699516296,0.00118708610535,0.00127482414246,0.000118970870972,0.248334169388
56,0.00956511497498,0.00142216682434,0.00139880180359,0.000137090682983,0.301946878433
57,0.00961065292358,0.00135898590088,0.00136113166809,0.000126838684082,0.252701044083
58,0.00956988334656,0.00129890441895,0.00135111808777,0.000135898590088,0.236480951309
59,0.00992822647095,0.00127196311951,0.00124907493591,0.000120162963867,0.21625995636
60,0.0176031589508,0.00120282173157,0.00126099586487,0.000117063522339,0.515773057938
61,0.0169050693512,0.00129103660583,0.0013120174408,0.000117063522339,0.239056110382
62,0.00969171524048,0.00150299072266,0.00145292282104,0.000134944915771,0.325558185577
63,0.0102458000183,0.00140309333801,0.00138306617737,0.000138998031616,0.276684045792
64,0.00996994972229,0.00130200386047,0.00136208534241,0.000125169754028,0.485311985016
65,0.0101821422577,0.00123405456543,0.00131702423096,0.000133037567139,0.547307014465
66,0.0103979110718,0.00121402740479,0.00127482414246,0.000114917755127,0.26602101326
67,0.0100381374359,0.00130796432495,0.00155878067017,0.00013279914856,0.271093130112
68,0.017413854599,0.00141000747681,0.00146579742432,0.000132083892822,0.297780990601
69,0.00993800163269,0.00134706497192,0.00142002105713,0.000128984451294,0.712976932526
70,0.010027885437,0.00131297111511,0.00135397911072,0.000125885009766,0.279515028
71,0.0168731212616,0.00136184692383,0.00121307373047,0.0001220703125,0.266518115997
72,0.0189950466156,0.00127506256104,0.00131416320801,0.000123977661133,0.29948091507
73,0.0202081203461,0.00122904777527,0.00148296356201,0.000138998031616,0.295928001404
74,0.0100221633911,0.00133204460144,0.00139999389648,0.000140190124512,0.669642925262
75,0.0102210044861,0.00135922431946,0.00146198272705,0.000146865844727,0.309382915497
76,0.00995993614197,0.00140309333801,0.00129199028015,0.000127792358398,0.306488990784
77,0.00999283790588,0.00133204460144,0.00132203102112,0.000124931335449,0.314322948456
78,0.010153055191,0.00126695632935,0.00131011009216,0.000121116638184,0.369966983795
79,0.0103280544281,0.00140810012817,0.00139117240906,0.000138998031616,0.383157968521
80,0.00994801521301,0.00133490562439,0.0014591217041,0.000136852264404,0.330600976944
81,0.0104982852936,0.00114917755127,0.00134897232056,0.000128030776978,0.294645786285
82,0.0117049217224,0.00133490562439,0.00127196311951,0.000118970870972,0.34458398819
83,0.0103938579559,0.00121402740479,0.00133013725281,0.000118970870972,0.33078289032
84,0.0103759765625,0.00142598152161,0.00137305259705,0.000149011611938,0.425181150436
85,0.0107781887054,0.0014340877533,0.000931024551392,8.79764556885e-05,0.393819093704
86,0.0108349323273,0.0013439655304,0.000866889953613,8.41617584229e-05,0.351811885834
87,0.0102751255035,0.00127220153809,0.00131011009216,0.000123977661133,0.359204769135
88,0.0167019367218,0.00119686126709,0.00150418281555,0.000141859054565,0.34565615654
89,0.0105199813843,0.00137615203857,0.0013599395752,0.000132083892822,0.377908945084
90,0.0110759735107,0.00133800506592,0.00139093399048,0.000126838684082,0.416355848312
91,0.0103797912598,0.00130200386047,0.0012321472168,0.000123023986816,0.393702030182
92,0.0191979408264,0.00127506256104,0.00131893157959,0.000121116638184,0.625635147095
93,0.0102870464325,0.00120401382446,0.00127601623535,0.0001220703125,0.410369873047
94,0.0103180408478,0.00140786170959,0.0014660358429,0.000132083892822,0.459098815918
95,0.0103089809418,0.00136017799377,0.00132179260254,0.000125885009766,0.46955704689
96,0.0103781223297,0.00138902664185,0.00140595436096,0.000126123428345,0.382807016373
97,0.0107908248901,0.00126504898071,0.00125193595886,0.000123977661133,0.400340795517
98,0.0285050868988,0.00102591514587,0.00144004821777,0.000132083892822,0.446894168854
99,0.0145359039307,0.00140786170959,0.00147604942322,0.000135898590088,0.416652917862
