step,run,get,set,free,run_up_to_step
0,0.00782012939453,0.00605916976929,0.00494480133057,0.000737905502319,0.00922703742981
1,0.00659918785095,0.00571298599243,0.00503206253052,0.000750064849854,0.0110149383545
2,0.0055513381958,0.0053551197052,0.00530219078064,0.000767230987549,0.0142750740051
3,0.00471305847168,0.00569009780884,0.00536012649536,0.000795125961304,0.0139179229736
4,0.00414514541626,0.00575494766235,0.00511908531189,0.00077486038208,0.0220611095428
5,0.00415086746216,0.0057430267334,0.00548887252808,0.00088906288147,0.0161678791046
6,0.00398182868958,0.00596308708191,0.00534796714783,0.000832080841064,0.236862897873
7,0.00378203392029,0.00588989257812,0.00525593757629,0.000797986984253,0.0253500938416
8,0.00373792648315,0.00597882270813,0.00526213645935,0.000821828842163,0.0192060470581
9,0.00417423248291,0.00592494010925,0.00525498390198,0.000745058059692,0.0199000835419
10,0.00373578071594,0.0059289932251,0.00538897514343,0.000802040100098,0.0209538936615
11,0.00476789474487,0.00659990310669,0.00561213493347,0.000817060470581,0.0266180038452
12,0.00410604476929,0.00609588623047,0.00530791282654,0.000787019729614,0.0229730606079
13,0.00385284423828,0.00590896606445,0.00517201423645,0.000785112380981,0.0306191444397
14,0.00429606437683,0.00598287582397,0.00587701797485,0.00108003616333,0.0249400138855
15,0.00376796722412,0.00581693649292,0.00528812408447,0.000802993774414,0.0263559818268
16,0.00355505943298,0.00577092170715,0.00534582138062,0.00082802772522,0.0267179012299
17,0.00411009788513,0.00597310066223,0.00536298751831,0.000819206237793,0.0278940200806
18,0.00377798080444,0.00592589378357,0.00595617294312,0.00108194351196,0.0297729969025
19,0.00350093841553,0.00582098960876,0.00531601905823,0.000795125961304,0.0301020145416
20,0.00352478027344,0.00675702095032,0.00534200668335,0.000802993774414,0.0335760116577
21,0.0073721408844,0.00603914260864,0.0063910484314,0.00105094909668,0.0317711830139
22,0.00385212898254,0.00636100769043,0.00558495521545,0.000898838043213,0.0340259075165
23,0.00407409667969,0.00618505477905,0.00555491447449,0.000869989395142,0.0342798233032
24,0.00389504432678,0.00687289237976,0.00605010986328,0.000916004180908,0.0439658164978
25,0.00350093841553,0.00625395774841,0.00540804862976,0.000849008560181,0.0433521270752
26,0.00324511528015,0.00620198249817,0.00527501106262,0.00081992149353,0.0367867946625
27,0.00349998474121,0.00603008270264,0.00522589683533,0.000783205032349,0.0379660129547
28,0.00324702262878,0.00576591491699,0.00648498535156,0.000963926315308,0.0384721755981
29,0.00314688682556,0.00680494308472,0.00636005401611,0.0011899471283,0.0405700206757
30,0.00340795516968,0.00658488273621,0.00548100471497,0.00085186958313,0.0529341697693
31,0.00333499908447,0.00639200210571,0.00541496276855,0.000856161117554,0.0413820743561
32,0.00325703620911,0.00630402565002,0.00530314445496,0.000790119171143,0.0492789745331
33,0.00316715240479,0.00594186782837,0.00527715682983,0.000827074050903,0.0434410572052
34,0.00313520431519,0.0061981678009,0.00528907775879,0.000811815261841,0.0439710617065
35,0.0033540725708,0.00673985481262,0.00617098808289,0.00100302696228,0.158710002899
36,0.0036358833313,0.00708413124084,0.00593304634094,0.00101590156555,0.0549130439758
37,0.0037579536438,0.0068621635437,0.00581884384155,0.000905990600586,0.0549209117889
38,0.00382399559021,0.00672698020935,0.00588989257812,0.000879049301147,0.0565710067749
39,0.00361680984497,0.00647211074829,0.00588893890381,0.000848054885864,0.0604391098022
40,0.00356888771057,0.00630497932434,0.00737905502319,0.00105595588684,0.0580778121948
41,0.0036838054657,0.00757908821106,0.00605893135071,0.00102186203003,0.0609090328217
42,0.00365400314331,0.0074999332428,0.00670719146729,0.00123906135559,0.0610549449921
43,0.00555992126465,0.00906896591187,0.00652122497559,0.00100016593933,0.0729529857635
44,0.00420784950256,0.00733017921448,0.00590515136719,0.000946998596191,0.0756361484528
45,0.00433301925659,0.00727105140686,0.00646185874939,0.000980854034424,0.0712289810181
46,0.00427007675171,0.00687098503113,0.0079607963562,0.00117492675781,0.0806360244751
47,0.00468993186951,0.00845503807068,0.00716686248779,0.00106501579285,0.0841000080109
48,0.0129017829895,0.0081250667572,0.00676798820496,0.00109195709229,0.0985419750214
49,0.00547885894775,0.00759792327881,0.00663995742798,0.00105214118958,0.0859620571136
50,0.00413274765015,0.00806307792664,0.00724291801453,0.00116610527039,0.0871407985687
51,0.00454592704773,0.00767087936401,0.00633478164673,0.000988006591797,0.08948802948
52,0.00443410873413,0.00734496116638,0.00806093215942,0.00112700462341,0.0896110534668
53,0.00433588027954,0.00810098648071,0.00701093673706,0.00121307373047,0.0934100151062
54,0.00453877449036,0.008061170578,0.00660586357117,0.00107407569885,0.0940141677856
55,0.0038731098175,0.00744986534119,0.00626993179321,0.00103306770325,0.0963730812073
56,0.00398874282837,0.00700306892395,0.00619006156921,0.00092887878418,0.0943880081177
57,0.00319075584412,0.00763201713562,0.00664210319519,0.00109696388245,0.174182891846
58,0.00308394432068,0.00736498832703,0.00621700286865,0.00102591514587,0.0843269824982
59,0.00310087203979,0.00718116760254,0.00557112693787,0.000888109207153,0.0705759525299
60,0.00384092330933,0.00662183761597,0.00553512573242,0.000863075256348,0.0754718780518
61,0.00351595878601,0.00666308403015,0.00532507896423,0.000817060470581,0.0790021419525
62,0.00300407409668,0.00582814216614,0.00747084617615,0.0011088848114,0.449506998062
63,0.00293111801147,0.00619196891785,0.00552892684937,0.000910997390747,0.41979598999
64,0.00294494628906,0.00645613670349,0.00566911697388,0.000865936279297,0.0795669555664
65,0.00308084487915,0.00645899772644,0.00540208816528,0.00086498260498,0.0892398357391
66,0.00321793556213,0.00646710395813,0.00536513328552,0.000830888748169,0.0769510269165
67,0.00287508964539,0.00602388381958,0.00524091720581,0.000807046890259,0.0876500606537
68,0.088299036026,0.00683879852295,0.005695104599,0.000874042510986,0.0815901756287
69,0.00288796424866,0.00627303123474,0.00541806221008,0.000868082046509,0.0906939506531
70,0.00313806533813,0.0064959526062,0.0057110786438,0.000893115997314,0.0846018791199
71,0.00984501838684,0.00633096694946,0.00561308860779,0.000869989395142,0.088320016861
72,0.00279474258423,0.00617599487305,0.00525403022766,0.000797986984253,0.09792304039
73,0.0119950771332,0.00608706474304,0.00558304786682,0.000844955444336,0.0870680809021
74,0.0161290168762,0.00606298446655,0.00556111335754,0.00085711479187,0.703239202499
75,0.0108821392059,0.006432056427,0.00574684143066,0.000869035720825,0.0816931724548
76,0.0029718875885,0.006432056427,0.00545883178711,0.000861167907715,0.107000112534
77,0.0030403137207,0.00625205039978,0.00556397438049,0.000851154327393,0.0939269065857
78,0.00298690795898,0.00602197647095,0.00515389442444,0.000854969024658,0.0911269187927
79,0.0100491046906,0.00618696212769,0.00593400001526,0.000921010971069,0.191374063492
80,0.0120911598206,0.00633597373962,0.00548005104065,0.000864028930664,0.0874450206757
81,0.00297784805298,0.00621104240417,0.00541710853577,0.000864028930664,0.0948569774628
82,0.00320315361023,0.00619292259216,0.00550699234009,0.000909090042114,0.365576028824
83,0.00295495986938,0.00619006156921,0.00593996047974,0.000890016555786,0.20391201973
84,0.0269050598145,0.00650191307068,0.00593209266663,0.000967979431152,0.0962359905243
85,0.0029468536377,0.00626111030579,0.00540804862976,0.000859022140503,0.10179400444
86,0.0102641582489,0.00609302520752,0.00551319122314,0.000862121582031,0.110395908356
87,0.00303316116333,0.00628399848938,0.00526118278503,0.000859975814819,0.100901126862
88,0.0112819671631,0.00653600692749,0.0060670375824,0.00120282173157,0.210608005524
89,0.00293684005737,0.00647783279419,0.00545907020569,0.000865936279297,0.113299846649
90,0.00276708602905,0.00652694702148,0.0055890083313,0.000946044921875,0.111587047577
91,0.0100309848785,0.00613784790039,0.00559902191162,0.000852823257446,0.112660884857
92,0.00302004814148,0.00638914108276,0.00574898719788,0.000881910324097,0.178937911987
93,0.00328302383423,0.00666308403015,0.00574588775635,0.000929117202759,0.342088937759
94,0.0030632019043,0.00621390342712,0.00542497634888,0.000854015350342,0.125783920288
95,0.00318789482117,0.0060830116272,0.00525498390198,0.000792026519775,0.123270988464
96,0.0130288600922,0.00702810287476,0.00649905204773,0.00115203857422,0.190440893173
97,0.00299501419067,0.00671815872192,0.00553107261658,0.000890016555786,0.117412090302
98,0.0117852687836,0.00643301010132,0.00555992126465,0.000898122787476,0.132462978363
99,0.00306391716003,0.00601887702942,0.0052809715271,0.000810861587524,0.132848978043
