step,run,get,set,free,run_up_to_step
0,0.0053551197052,0.0131249427795,0.0123109817505,0.00116205215454,0.00615406036377
1,0.00371599197388,0.0118129253387,0.0124599933624,0.001296043396,0.00653696060181
2,0.00481390953064,0.0132331848145,0.011883020401,0.00144696235657,0.00721907615662
3,0.00382089614868,0.0123541355133,0.0116980075836,0.00160098075867,0.00890421867371
4,0.00378394126892,0.0133371353149,0.0132429599762,0.00163102149963,0.0101211071014
5,0.00389289855957,0.0138750076294,0.0129761695862,0.00150585174561,0.0107390880585
6,0.00415921211243,0.0136120319366,0.013466835022,0.00165200233459,0.0121421813965
7,0.00369572639465,0.011833190918,0.0128679275513,0.00146198272705,0.012866973877
8,0.00423693656921,0.0123779773712,0.0132389068604,0.00154614448547,0.0143578052521
9,0.00434994697571,0.0133469104767,0.0134119987488,0.00164699554443,0.0144028663635
10,0.00380206108093,0.0130589008331,0.0136649608612,0.00177788734436,0.0154950618744
11,0.00757312774658,0.0135879516602,0.0126819610596,0.00176811218262,0.0203649997711
12,0.00687885284424,0.0125529766083,0.00824379920959,0.000871896743774,0.0226290225983
13,0.00597167015076,0.0127151012421,0.0138599872589,0.00154495239258,0.0243380069733
14,0.00696897506714,0.0136020183563,0.0130450725555,0.00183892250061,0.0252680778503
15,0.00652098655701,0.0138311386108,0.013701915741,0.00173997879028,0.0265049934387
16,0.00658106803894,0.0140109062195,0.0133848190308,0.00172996520996,0.0255630016327
17,0.00576019287109,0.0136258602142,0.0134091377258,0.00176191329956,0.0284879207611
18,0.00594997406006,0.0137600898743,0.0135378837585,0.00184297561646,0.0303769111633
19,0.00589609146118,0.0140459537506,0.0133619308472,0.00128293037415,0.0315041542053
20,0.00592517852783,0.013277053833,0.0137891769409,0.00177001953125,0.0538809299469
21,0.00605201721191,0.0129520893097,0.0133678913116,0.0017671585083,0.0345749855042
22,0.00560307502747,0.0136609077454,0.0127971172333,0.0020649433136,0.0352418422699
23,0.00550389289856,0.0136458873749,0.0140011310577,0.00188398361206,0.0358369350433
24,0.00515294075012,0.013594865799,0.0137920379639,0.00180602073669,0.0373239517212
25,0.00534605979919,0.0136659145355,0.0133628845215,0.00165104866028,0.0358259677887
26,0.00577592849731,0.0138800144196,0.0132088661194,0.0015230178833,0.0377118587494
27,0.00522398948669,0.0134601593018,0.0140559673309,0.00186586380005,0.0817589759827
28,0.00578808784485,0.0137097835541,0.0136930942535,0.00189590454102,0.041111946106
29,0.00575804710388,0.0133938789368,0.0136590003967,0.0019850730896,0.043065071106
30,0.00547218322754,0.0138728618622,0.0128779411316,0.00193405151367,0.044196844101
31,0.00533890724182,0.0140450000763,0.0140678882599,0.00180602073669,0.0447990894318
32,0.00549101829529,0.0141038894653,0.0135009288788,0.00152587890625,0.0460560321808
33,0.00336217880249,0.00896310806274,0.0141558647156,0.00187802314758,0.030552148819
34,0.00553584098816,0.0139238834381,0.0138909816742,0.00189709663391,0.049458026886
35,0.00507807731628,0.0149600505829,0.0136790275574,0.00151205062866,0.0506951808929
36,0.00554609298706,0.0141611099243,0.0136778354645,0.00148987770081,0.0483639240265
37,0.00470185279846,0.0137751102448,0.0134220123291,0.00193500518799,0.0521020889282
38,0.00581407546997,0.0136179924011,0.0136229991913,0.00197696685791,0.0516920089722
39,0.00484204292297,0.0134110450745,0.0136198997498,0.00186014175415,0.110249996185
40,0.00592112541199,0.0141549110413,0.0146908760071,0.00335097312927,0.0541381835938
41,0.00546216964722,0.0140798091888,0.0134840011597,0.00196099281311,0.0579769611359
42,0.00621891021729,0.0137259960175,0.0140650272369,0.00200700759888,0.058837890625
43,0.00611901283264,0.0134108066559,0.0128529071808,0.00153803825378,0.0597629547119
44,0.00470304489136,0.0131340026855,0.013482093811,0.00133800506592,0.0584318637848
45,0.00497889518738,0.0139381885529,0.0148470401764,0.0020899772644,0.12031006813
46,0.00495505332947,0.0138947963715,0.0137050151825,0.00202989578247,0.0630569458008
47,0.00477910041809,0.014219045639,0.0138871669769,0.00188803672791,0.064031124115
48,0.00485610961914,0.0139100551605,0.0127608776093,0.00169897079468,0.0669949054718
49,0.00442481040955,0.0133938789368,0.0130791664124,0.00170516967773,0.0653901100159
50,0.00445508956909,0.0142688751221,0.0133039951324,0.00146913528442,0.122319221497
51,0.00492405891418,0.0137469768524,0.0136840343475,0.00190496444702,0.0695190429688
52,0.00489115715027,0.014102935791,0.0134401321411,0.00191903114319,0.0652401447296
53,0.00480198860168,0.0140280723572,0.0128819942474,0.00185298919678,0.0691230297089
54,0.00473213195801,0.0137500762939,0.0131640434265,0.00148010253906,0.0705590248108
55,0.00490093231201,0.0142240524292,0.0135598182678,0.00199198722839,0.132869005203
56,0.00470900535583,0.0141220092773,0.0138130187988,0.00161290168762,0.0728869438171
57,0.00497484207153,0.0146119594574,0.0140359401703,0.00199198722839,0.0700280666351
58,0.00495672225952,0.0138988494873,0.0133099555969,0.00173711776733,0.074373960495
59,0.00480198860168,0.0140128135681,0.0128738880157,0.00149703025818,0.0741031169891
60,0.00514078140259,0.0120878219604,0.0134010314941,0.00143694877625,0.238639116287
61,0.00474190711975,0.0136561393738,0.0134530067444,0.00154709815979,0.0750250816345
62,0.00415110588074,0.0131809711456,0.0131158828735,0.00161290168762,0.0775580406189
63,0.00540900230408,0.0130670070648,0.0131280422211,0.00147414207458,0.0805959701538
64,0.00565886497498,0.0129420757294,0.0127799510956,0.00141501426697,0.0818347930908
65,0.00487375259399,0.0127410888672,0.0132720470428,0.00160598754883,0.144235134125
66,0.00464916229248,0.0133810043335,0.0138339996338,0.00187397003174,0.0854949951172
67,0.00448822975159,0.0132532119751,0.0136380195618,0.00160193443298,0.0876479148865
68,0.00478100776672,0.0139508247375,0.0133068561554,0.00138998031616,0.0856370925903
69,0.0047562122345,0.0124490261078,0.0147070884705,0.00154209136963,0.0853979587555
70,0.00576019287109,0.0141310691833,0.0132710933685,0.00202703475952,0.0878939628601
71,0.00484490394592,0.0136339664459,0.0134091377258,0.00187802314758,0.0887160301208
72,0.00473928451538,0.0139942169189,0.0128660202026,0.00147891044617,0.0927481651306
73,0.00466108322144,0.0138890743256,0.0133209228516,0.00129699707031,0.0896821022034
74,0.00464820861816,0.0136120319366,0.013561964035,0.002121925354,0.153969049454
75,0.00486397743225,0.0144031047821,0.0134389400482,0.0014169216156,0.096480846405
76,0.00479602813721,0.0142109394073,0.0138549804688,0.0018789768219,0.0949881076813
77,0.00442886352539,0.0133471488953,0.0132420063019,0.00164198875427,0.0983982086182
78,0.00461983680725,0.012923002243,0.0147700309753,0.00190210342407,0.100471019745
79,0.00407695770264,0.0134680271149,0.0133919715881,0.00196003913879,0.100343227386
80,0.00419187545776,0.0138659477234,0.0134561061859,0.00178813934326,0.101932048798
81,0.00470018386841,0.0139451026917,0.0139880180359,0.00201988220215,0.0987091064453
82,0.00521516799927,0.0143129825592,0.014387845993,0.00177407264709,0.104134082794
83,0.00326609611511,0.0100200176239,0.00820302963257,0.000984907150269,0.901298999786
84,0.00343799591064,0.00942897796631,0.0135481357574,0.00152611732483,0.0665550231934
85,0.00314998626709,0.00885796546936,0.00851392745972,0.000936031341553,0.0663590431213
86,0.00536108016968,0.0134391784668,0.0135200023651,0.00165104866028,0.106618881226
87,0.00417399406433,0.0132300853729,0.0146718025208,0.00157690048218,0.106419086456
88,0.00454306602478,0.0129749774933,0.0138897895813,0.00179195404053,0.108020067215
89,0.00525403022766,0.0140640735626,0.0137400627136,0.00152015686035,0.108819961548
90,0.00424289703369,0.00910997390747,0.00878810882568,0.00145196914673,0.0816388130188
91,0.00426506996155,0.00872206687927,0.014093875885,0.00192093849182,0.13689494133
92,0.00452399253845,0.00971698760986,0.00979900360107,0.00172114372253,0.0750138759613
93,0.00425982475281,0.011754989624,0.0101091861725,0.00160002708435,0.0764548778534
94,0.00427103042603,0.00990319252014,0.00917291641235,0.00133299827576,0.0773870944977
95,0.00437712669373,0.00905799865723,0.00919914245605,0.00141596794128,0.0775599479675
96,0.00453591346741,0.0118501186371,0.0148501396179,0.00224900245667,0.125201940536
97,0.00576591491699,0.0150220394135,0.0142431259155,0.00223612785339,0.127259016037
98,0.00569319725037,0.0155818462372,0.0142579078674,0.00200700759888,0.122279167175
99,0.0056369304657,0.0137679576874,0.0137469768524,0.00189208984375,0.126852035522
