step,run,get,set,free,run_up_to_step
0,0.00893712043762,0.00241613388062,0.00224208831787,0.000291109085083,0.0111989974976
1,0.00566101074219,0.00216293334961,0.00220608711243,0.000290870666504,0.011461019516
2,0.0044379234314,0.00214791297913,0.00218296051025,0.000293016433716,0.0131199359894
3,0.00430178642273,0.00217199325562,0.00212693214417,0.000293970108032,0.0158760547638
4,0.0042769908905,0.00215601921082,0.00216197967529,0.00029182434082,0.0157830715179
5,0.00431799888611,0.00218200683594,0.00222897529602,0.000293970108032,0.0172500610352
6,0.00423908233643,0.0021710395813,0.00223708152771,0.000294208526611,0.0192852020264
7,0.00465893745422,0.00213003158569,0.00214886665344,0.000293016433716,0.0207571983337
8,0.00472211837769,0.00213098526001,0.00215816497803,0.000294923782349,0.0218260288239
9,0.00475907325745,0.00203609466553,0.00221991539001,0.000297069549561,0.0232429504395
10,0.00472187995911,0.00205397605896,0.00226306915283,0.000296831130981,0.0241529941559
11,0.004714012146,0.00209903717041,0.00217604637146,0.000293970108032,0.0255739688873
12,0.00433802604675,0.0020968914032,0.00225901603699,0.000295877456665,0.0265412330627
13,0.00436496734619,0.00213885307312,0.00224184989929,0.000296115875244,0.0341031551361
14,0.00423192977905,0.00205492973328,0.00214195251465,0.000293970108032,0.0294649600983
15,0.00487399101257,0.00201296806335,0.00223398208618,0.000301122665405,0.0363688468933
16,0.00441694259644,0.00205707550049,0.00214910507202,0.000293016433716,0.0323710441589
17,0.00429487228394,0.00216698646545,0.00218605995178,0.000292062759399,0.0334141254425
18,0.00427985191345,0.00216197967529,0.00223898887634,0.000302076339722,0.0677981376648
19,0.00422191619873,0.0020170211792,0.00218296051025,0.000294923782349,0.0364129543304
20,0.00443077087402,0.00210285186768,0.00215101242065,0.000319004058838,0.0380690097809
21,0.00432801246643,0.00215291976929,0.00221800804138,0.000300884246826,0.0722479820251
22,0.00435996055603,0.00199794769287,0.00220608711243,0.000298023223877,0.0648000240326
23,0.0044891834259,0.00203895568848,0.00254487991333,0.000365972518921,0.0419690608978
24,0.00442385673523,0.00218296051025,0.00227403640747,0.000303983688354,0.0456519126892
25,0.00437784194946,0.00201797485352,0.00218892097473,0.000296115875244,0.0448479652405
26,0.004399061203,0.00217199325562,0.00235819816589,0.000365018844604,0.0451288223267
27,0.00445008277893,0.00216388702393,0.00216102600098,0.000297069549561,0.0469470024109
28,0.00436019897461,0.00217294692993,0.00226092338562,0.000297069549561,0.048159122467
29,0.00454688072205,0.00198101997375,0.00212383270264,0.000294923782349,0.049633026123
30,0.00533390045166,0.00225591659546,0.00230598449707,0.000314950942993,0.162909030914
31,0.00611424446106,0.00238490104675,0.00244307518005,0.000322103500366,0.0599129199982
32,0.00554299354553,0.00237202644348,0.00223898887634,0.000298976898193,0.0647621154785
33,0.00461983680725,0.00223684310913,0.00227904319763,0.000303030014038,0.0923159122467
34,0.00438141822815,0.00218105316162,0.00231099128723,0.000301122665405,0.0562479496002
35,0.00445008277893,0.00213980674744,0.00218296051025,0.000298976898193,0.0566439628601
36,0.00450801849365,0.0023078918457,0.00251388549805,0.000330209732056,0.0913050174713
37,0.00455808639526,0.0023238658905,0.00233483314514,0.000310897827148,0.0615108013153
38,0.0063591003418,0.00207996368408,0.0022599697113,0.000328779220581,0.0613031387329
39,0.00448107719421,0.00221705436707,0.0022828578949,0.000314950942993,0.0982890129089
40,0.0043408870697,0.00225496292114,0.00216603279114,0.000312089920044,0.0632340908051
41,0.00439190864563,0.0021059513092,0.00230288505554,0.000298023223877,0.0655629634857
42,0.00451493263245,0.0022988319397,0.00222897529602,0.000304937362671,0.111480951309
43,0.00449967384338,0.00227093696594,0.00230193138123,0.000306129455566,0.06871509552
44,0.00452399253845,0.00220489501953,0.00214314460754,0.000301122665405,0.0694091320038
45,0.00492787361145,0.00243902206421,0.0023181438446,0.00031304359436,0.0700490474701
46,0.00449395179749,0.0021378993988,0.00228691101074,0.000302076339722,0.0716490745544
47,0.0261578559875,0.00211882591248,0.00239109992981,0.000380992889404,0.0780520439148
48,0.00447511672974,0.00223207473755,0.00215601921082,0.00029993057251,0.0744988918304
49,0.00445199012756,0.00212788581848,0.00219893455505,0.000296831130981,0.0758328437805
50,0.00466895103455,0.00235915184021,0.00237488746643,0.00030779838562,0.0767140388489
51,0.00448393821716,0.00218391418457,0.00232100486755,0.000301122665405,0.0781719684601
52,0.0042667388916,0.00205087661743,0.00221085548401,0.000294923782349,0.0795068740845
53,0.00435161590576,0.00227403640747,0.00230407714844,0.000305891036987,0.116526842117
54,0.00435900688171,0.00209498405457,0.0022292137146,0.000296831130981,0.0819511413574
55,0.00439190864563,0.00232696533203,0.00224804878235,0.000302791595459,0.13932800293
56,0.00436997413635,0.00231194496155,0.00224804878235,0.00029993057251,0.0854940414429
57,0.00443387031555,0.00203394889832,0.00220489501953,0.000298023223877,0.0854768753052
58,0.00437211990356,0.00232315063477,0.00235795974731,0.000303983688354,0.12032699585
59,0.00434994697571,0.00203490257263,0.00216197967529,0.000298023223877,0.0888710021973
60,0.00432515144348,0.00236892700195,0.00244307518005,0.000355005264282,0.110467910767
61,0.0045428276062,0.00226187705994,0.00237607955933,0.000317811965942,0.0912289619446
62,0.00453805923462,0.0021059513092,0.00228714942932,0.000300168991089,0.117729902267
63,0.00433397293091,0.00217986106873,0.00231599807739,0.000309944152832,0.147454977036
64,0.00455617904663,0.00209784507751,0.00222897529602,0.000301122665405,0.094367980957
65,0.00439310073853,0.0023078918457,0.00234198570251,0.000316143035889,0.133844852448
66,0.00439190864563,0.00216293334961,0.00229501724243,0.000303983688354,0.0973520278931
67,0.00470399856567,0.00230693817139,0.00232696533203,0.000312805175781,0.0981111526489
68,0.0221722126007,0.0021538734436,0.00228905677795,0.000302076339722,0.099790096283
69,0.00435304641724,0.00213098526001,0.00216507911682,0.00029993057251,0.101150989532
70,0.00447702407837,0.00223398208618,0.00241804122925,0.000334024429321,0.141530990601
71,0.00455188751221,0.0021870136261,0.00231099128723,0.000303030014038,0.117588043213
72,0.00453996658325,0.00236082077026,0.00234603881836,0.000322818756104,0.142476081848
73,0.00450992584229,0.00213313102722,0.00227999687195,0.000303983688354,0.107038974762
74,0.00451111793518,0.00233912467957,0.00237107276917,0.000313997268677,0.130161046982
75,0.00565910339355,0.00223302841187,0.00262689590454,0.000633001327515,0.11529302597
76,0.00451421737671,0.00233602523804,0.00238108634949,0.000309944152832,0.131446123123
77,0.00456595420837,0.00213694572449,0.00229001045227,0.000303983688354,0.111810922623
78,0.00444316864014,0.00230598449707,0.00237703323364,0.000312089920044,0.132916212082
79,0.00690507888794,0.00206804275513,0.00224900245667,0.00029993057251,0.114725828171
80,0.00559997558594,0.0024721622467,0.00244402885437,0.00031304359436,0.160212039948
81,0.00480604171753,0.00219392776489,0.00221991539001,0.000308036804199,0.120558977127
82,0.00605416297913,0.00202584266663,0.00242900848389,0.000397920608521,0.118376016617
83,0.0043580532074,0.00221490859985,0.00223612785339,0.00031304359436,0.119711875916
84,0.00436592102051,0.00208210945129,0.00221109390259,0.000302076339722,0.120763063431
85,0.0046820640564,0.00229597091675,0.00233602523804,0.000323057174683,0.31312584877
86,0.0044949054718,0.00222086906433,0.00227904319763,0.000309944152832,0.123687982559
87,0.00447416305542,0.00222301483154,0.00248098373413,0.000410079956055,0.124639034271
88,0.00443315505981,0.00223398208618,0.00226712226868,0.000314950942993,0.136975049973
89,0.00444483757019,0.00222897529602,0.00230693817139,0.000309944152832,0.12713599205
90,0.00443506240845,0.00222396850586,0.0023410320282,0.000323057174683,0.187309026718
91,0.00457286834717,0.00217700004578,0.00242114067078,0.000399112701416,0.129611968994
92,0.00457310676575,0.00218892097473,0.00221705436707,0.000314950942993,0.132368087769
93,0.00441408157349,0.00220108032227,0.00231099128723,0.00031304359436,0.131680965424
94,0.00442790985107,0.00246906280518,0.00235795974731,0.000319957733154,0.168726921082
95,0.00456213951111,0.00216197967529,0.00230097770691,0.000319004058838,0.133697986603
96,0.00465202331543,0.00215601921082,0.00227999687195,0.000323057174683,0.175791025162
97,0.00448226928711,0.00221395492554,0.00236010551453,0.000320911407471,0.137562036514
98,0.00442504882812,0.00216698646545,0.00233101844788,0.000319004058838,0.160491943359
99,0.020397901535,0.00218391418457,0.00224709510803,0.000320911407471,0.157309055328
