step,run,get,set,free,run_up_to_step
0,0.236915826797,0.00827789306641,0.00827789306641,0.000730991363525,0.225891113281
1,0.226665019989,0.00792121887207,0.00829291343689,0.000746011734009,0.465020895004
2,0.224409818649,0.0078649520874,0.00833702087402,0.000745058059692,0.702630996704
3,0.226264953613,0.00818300247192,0.00820398330688,0.000756025314331,0.928446054459
4,0.225126028061,0.00914120674133,0.00869607925415,0.00108289718628,1.58006000519
5,0.219423055649,0.00854897499084,0.00848698616028,0.00119304656982,1.36784291267
6,0.215344190598,0.00830507278442,0.00906491279602,0.000907897949219,1.59215688705
7,0.216177225113,0.00892806053162,0.00853109359741,0.00095796585083,1.8072450161
8,0.215473890305,0.00841593742371,0.0089008808136,0.000938892364502,1.97834515572
9,0.214699983597,0.00944113731384,0.00862193107605,0.00128793716431,2.70997905731
10,0.218808174133,0.00805497169495,0.00863194465637,0.000919103622437,2.48997616768
11,0.214876651764,0.0101540088654,0.00943112373352,0.00177001953125,2.66951704025
12,0.189913749695,0.00812220573425,0.00841903686523,0.000941038131714,2.92332196236
13,0.214920043945,0.00904893875122,0.0100700855255,0.00148391723633,3.57643699646
14,0.213480949402,0.00974798202515,0.00967192649841,0.00128817558289,3.35321211815
15,0.216052055359,0.0090389251709,0.00987005233765,0.00125694274902,3.5426440239
16,0.218906879425,0.00857496261597,0.0111920833588,0.000976085662842,3.7631790638
17,0.215560913086,0.00970077514648,0.00922894477844,0.00133395195007,4.01651787758
18,0.643311023712,0.0125589370728,0.0100519657135,0.00218892097473,4.20425987244
19,0.21174120903,0.00876903533936,0.00894379615784,0.00126910209656,4.44534802437
20,0.213577032089,0.0098569393158,0.0123329162598,0.00183200836182,4.97771596909
21,0.210329055786,0.00860905647278,0.00882697105408,0.00106692314148,4.876693964
22,0.214738845825,0.00997400283813,0.00912308692932,0.00169706344604,5.56768703461
23,0.209743976593,0.00847387313843,0.00881695747375,0.00102281570435,5.26248478889
24,0.212692022324,0.00891900062561,0.00949192047119,0.00140810012817,6.00723099709
25,0.210868120193,0.00864601135254,0.00905203819275,0.000963926315308,5.70038795471
26,0.21177482605,0.0109400749207,0.0111470222473,0.00225114822388,6.22803616524
27,0.209564208984,0.00887203216553,0.00917196273804,0.00113892555237,6.09661507607
28,0.211876869202,0.00947093963623,0.011440038681,0.00124406814575,6.81785416603
29,0.207234859467,0.00862288475037,0.0113201141357,0.00112318992615,6.58354187012
30,0.210772037506,0.00929093360901,0.00874400138855,0.00132489204407,6.78008794785
31,0.210100889206,0.00883817672729,0.00912594795227,0.00138688087463,7.32061696053
32,0.217144966125,0.00998210906982,0.00913906097412,0.00150513648987,7.51544284821
33,0.208898305893,0.01127409935,0.00925707817078,0.00207805633545,7.83162307739
34,0.209893941879,0.00805997848511,0.00811791419983,0.000775814056396,7.66057395935
35,0.212282896042,0.00786805152893,0.00821399688721,0.000978946685791,7.52783989906
36,0.203006982803,0.00902891159058,0.0110969543457,0.00143194198608,8.2268409729
37,0.196496963501,0.00893902778625,0.00918292999268,0.00117802619934,8.01678514481
38,0.195527076721,0.00811004638672,0.00729584693909,0.000617027282715,8.22302103043
39,0.207472085953,0.00923490524292,0.0105140209198,0.00156998634338,8.77564001083
40,0.213029146194,0.0114750862122,0.0110189914703,0.00255298614502,8.58640503883
41,0.193191051483,0.0113160610199,0.0101099014282,0.00252914428711,8.55460810661
42,0.199446201324,0.0093719959259,0.0133640766144,0.00160789489746,9.16055512428
43,0.20139503479,0.00832509994507,0.00886201858521,0.0010359287262,8.61133813858
44,0.185858011246,0.00784397125244,0.00917983055115,0.000890016555786,9.48638796806
45,0.196603775024,0.00905394554138,0.00986480712891,0.00146913528442,9.68259596825
46,0.186089992523,0.00918483734131,0.00896620750427,0.00160884857178,9.60039687157
47,0.205001831055,0.00886416435242,0.00851106643677,0.00137209892273,9.65208888054
48,0.182008981705,0.00761294364929,0.0105571746826,0.00104999542236,9.51619195938
49,0.183342933655,0.009761095047,0.0107758045197,0.00175786018372,9.99043703079
50,0.174837827682,0.0131149291992,0.009770154953,0.00215411186218,10.3594567776
51,0.198404073715,0.0102729797363,0.0108439922333,0.00202202796936,10.434445858
52,0.203332901001,0.0111541748047,0.0110538005829,0.00209498405457,10.6436800957
53,0.189179182053,0.0112180709839,0.0103261470795,0.00217700004578,11.3179740906
54,0.180907726288,0.00704908370972,0.0101368427277,0.00203204154968,10.882833004
55,0.201914072037,0.00954389572144,0.00946187973022,0.00154185295105,12.083065033
56,0.19286608696,0.00893902778625,0.0121400356293,0.00139093399048,12.2336659431
57,0.198630809784,0.0113790035248,0.0059928894043,0.00179004669189,12.3681168556
58,0.189982175827,0.00919008255005,0.00912404060364,0.00147795677185,12.5875680447
59,0.205952167511,0.011528968811,0.0117568969727,0.00256085395813,13.1900851727
60,0.20248913765,0.0105171203613,0.00960612297058,0.00180888175964,13.4587290287
61,0.203959941864,0.00881791114807,0.00885701179504,0.0011420249939,13.630589962
62,0.205044269562,0.00918984413147,0.00892496109009,0.00137305259705,13.7321932316
63,0.20697593689,0.0116760730743,0.0124101638794,0.00241613388062,14.0211760998
64,0.207639217377,0.0104620456696,0.00946617126465,0.00140905380249,14.2896997929
65,0.203946113586,0.0110650062561,0.0100831985474,0.00213384628296,14.4192881584
66,0.201159954071,0.00910711288452,0.00898885726929,0.00122594833374,14.7655918598
67,0.204087018967,0.00899982452393,0.00909805297852,0.00139904022217,14.8167119026
68,0.211864948273,0.0114507675171,0.0109710693359,0.00231194496155,14.9813358784
69,0.206259012222,0.0113542079926,0.00987195968628,0.00218296051025,15.3853509426
70,0.211200714111,0.00966906547546,0.0117781162262,0.00161004066467,15.4570448399
71,0.20911192894,0.00912094116211,0.0121138095856,0.00158715248108,15.6381011009
72,0.20840883255,0.0093080997467,0.0101120471954,0.00129294395447,15.8962619305
73,0.206328868866,0.0083281993866,0.00887799263,0.00112509727478,16.0546898842
74,0.212379932404,0.0111629962921,0.0106570720673,0.00215291976929,16.321267128
75,0.211295127869,0.00845789909363,0.00894689559937,0.00110602378845,16.6538929939
76,0.222096920013,0.013356924057,0.012946844101,0.00230813026428,16.87530303
77,0.20356297493,0.0111608505249,0.011706829071,0.00207281112671,16.3788509369
78,0.209101676941,0.00916290283203,0.0113391876221,0.00155186653137,17.1217229366
79,0.207870960236,0.00858998298645,0.0113868713379,0.0012149810791,17.036178112
80,0.191556930542,0.00843501091003,0.0113291740417,0.00114893913269,17.3833999634
81,0.212666988373,0.00820899009705,0.00892901420593,0.00113296508789,17.5619740486
82,0.21031498909,0.00845289230347,0.00938105583191,0.00116586685181,17.9995019436
83,0.211345911026,0.0100469589233,0.0117959976196,0.00176382064819,18.0940840244
84,0.214739084244,0.00878000259399,0.0111060142517,0.0011100769043,18.0683159828
85,0.217969179153,0.00796890258789,0.0115411281586,0.00113415718079,18.4123477936
86,0.210432767868,0.00820994377136,0.0125939846039,0.00108289718628,18.714496851
87,0.216326951981,0.00837397575378,0.0107269287109,0.00110292434692,18.78835392
88,0.21245098114,0.00862503051758,0.0082528591156,0.00108194351196,19.2041759491
89,0.223882913589,0.00871396064758,0.0118081569672,0.00116896629333,19.6120588779
90,0.214769363403,0.00826191902161,0.0121021270752,0.00110101699829,19.4961509705
91,0.215127944946,0.00819706916809,0.0116760730743,0.00109004974365,19.7456638813
92,0.215508937836,0.00829386711121,0.00909996032715,0.00118803977966,19.8968310356
93,0.215415000916,0.00824689865112,0.0119051933289,0.00112795829773,20.4454920292
94,0.212650060654,0.00818800926208,0.00850200653076,0.00107908248901,20.5082581043
95,0.217971801758,0.0107729434967,0.0125339031219,0.0021378993988,20.8645398617
96,0.214983940125,0.00848579406738,0.0119290351868,0.00108695030212,20.733880043
97,0.213598012924,0.00843381881714,0.00861692428589,0.00113391876221,21.140942812
98,0.204759836197,0.00883507728577,0.00869417190552,0.0013530254364,21.5782420635
99,0.190205097198,0.00838112831116,0.0120170116425,0.00122809410095,21.8440787792
