step,run,get,set,free,run_up_to_step
0,0.00319409370422,0.0032069683075,0.00279593467712,0.000375986099243,0.00459289550781
1,0.00223302841187,0.0029628276825,0.00284504890442,0.000375986099243,0.00493288040161
2,0.00230503082275,0.00305318832397,0.00291204452515,0.000375986099243,0.00538897514343
3,0.00217723846436,0.00298094749451,0.0026421546936,0.000388145446777,0.00595188140869
4,0.00329303741455,0.00291705131531,0.00265693664551,0.000375032424927,0.0195670127869
5,0.00226283073425,0.00299501419067,0.0026478767395,0.000373840332031,0.00679707527161
6,0.00242114067078,0.00310492515564,0.00268697738647,0.000443935394287,0.00753211975098
7,0.00225710868835,0.00287318229675,0.00275683403015,0.000380039215088,0.00815606117249
8,0.00320315361023,0.00298690795898,0.00266909599304,0.00037693977356,0.0095009803772
9,0.00243091583252,0.00301194190979,0.0028121471405,0.000379800796509,0.00973916053772
10,0.00245118141174,0.00298810005188,0.00267910957336,0.000378131866455,0.0107901096344
11,0.00253891944885,0.00299191474915,0.00269293785095,0.000393867492676,0.0105860233307
12,0.00227403640747,0.0029718875885,0.00273394584656,0.00037407875061,0.0109400749207
13,0.00273680686951,0.00294399261475,0.00284099578857,0.000382900238037,0.0114810466766
14,0.00226378440857,0.00303792953491,0.0029628276825,0.00046181678772,0.0122179985046
15,0.0022668838501,0.00313115119934,0.0027859210968,0.000387907028198,0.0129280090332
16,0.0024471282959,0.00319290161133,0.00281190872192,0.00040602684021,0.0138969421387
17,0.00232815742493,0.00302982330322,0.00266098976135,0.00037693977356,0.0160160064697
18,0.00233888626099,0.00297713279724,0.00268888473511,0.000378847122192,0.0141670703888
19,0.00226306915283,0.00309991836548,0.00280809402466,0.00037407875061,0.0150320529938
20,0.00232696533203,0.00300717353821,0.00290989875793,0.000373840332031,0.0154259204865
21,0.00218200683594,0.00307893753052,0.00276517868042,0.000400066375732,0.0800580978394
22,0.00270128250122,0.00312209129333,0.0027449131012,0.00039005279541,0.0166578292847
23,0.00316786766052,0.0037088394165,0.00294303894043,0.000387907028198,0.0201950073242
24,0.00277996063232,0.00317001342773,0.0027539730072,0.000379800796509,0.0176339149475
25,0.0024209022522,0.00296401977539,0.00276899337769,0.000385999679565,0.0183460712433
26,0.00218915939331,0.003173828125,0.00277090072632,0.000378847122192,0.0185680389404
27,0.00218892097473,0.00299596786499,0.00266909599304,0.000379085540771,0.0194761753082
28,0.00223183631897,0.0029661655426,0.0032970905304,0.000434875488281,0.01966381073
29,0.00229096412659,0.00337600708008,0.00275778770447,0.000389814376831,0.0209240913391
30,0.00231122970581,0.00328183174133,0.00275087356567,0.000388145446777,0.0207870006561
31,0.00268507003784,0.00314807891846,0.00282192230225,0.000387907028198,0.0220358371735
32,0.00235080718994,0.0032958984375,0.00274395942688,0.000394105911255,0.0219440460205
33,0.00232577323914,0.00299715995789,0.00266790390015,0.000375986099243,0.0219659805298
34,0.00377297401428,0.00302910804749,0.00265407562256,0.000375032424927,0.0232291221619
35,0.00271892547607,0.00336194038391,0.00285005569458,0.000393152236938,0.0652170181274
36,0.00238990783691,0.0032479763031,0.00270080566406,0.00038480758667,0.0239491462708
37,0.00271010398865,0.00342202186584,0.00271487236023,0.000383853912354,0.0251760482788
38,0.00240802764893,0.00316190719604,0.0027539730072,0.000382900238037,0.029981136322
39,0.00234794616699,0.00306487083435,0.00273394584656,0.000375032424927,0.0255060195923
40,0.00278568267822,0.00291013717651,0.00287008285522,0.000380992889404,0.0253839492798
41,0.00315117835999,0.00374817848206,0.00282692909241,0.000393152236938,0.0807390213013
42,0.0023250579834,0.00355386734009,0.00287795066833,0.000398874282837,0.0277419090271
43,0.0022931098938,0.00325489044189,0.00271797180176,0.000382900238037,0.0281960964203
44,0.00228810310364,0.00307893753052,0.00265097618103,0.000377893447876,0.0288460254669
45,0.00244331359863,0.00299310684204,0.00283098220825,0.000380039215088,0.0287170410156
46,0.00232577323914,0.00291109085083,0.00276112556458,0.000381946563721,0.0301859378815
47,0.00298810005188,0.00298690795898,0.00352096557617,0.000479936599731,0.0299730300903
48,0.00231504440308,0.00340819358826,0.00328397750854,0.000434875488281,0.0304791927338
49,0.00271511077881,0.00353908538818,0.00282001495361,0.000387907028198,0.0316469669342
50,0.002357006073,0.00325202941895,0.00273203849792,0.000380039215088,0.0325260162354
51,0.00224900245667,0.00300288200378,0.00281000137329,0.00039005279541,0.0324470996857
52,0.00271606445312,0.00300717353821,0.00296115875244,0.000411033630371,0.0326719284058
53,0.0023090839386,0.00359797477722,0.00297284126282,0.000398874282837,0.0339908599854
54,0.00233793258667,0.00342702865601,0.0027768611908,0.000388145446777,0.0341918468475
55,0.00232172012329,0.00314617156982,0.00276803970337,0.000380039215088,0.0348818302155
56,0.00220108032227,0.00306510925293,0.00275707244873,0.000380992889404,0.0351669788361
57,0.00229811668396,0.00301694869995,0.00282597541809,0.000386953353882,0.0360260009766
58,0.00317096710205,0.00357413291931,0.00296592712402,0.000406980514526,0.124000072479
59,0.00233507156372,0.00351190567017,0.00290513038635,0.00039005279541,0.0382220745087
60,0.00234699249268,0.00319194793701,0.00264692306519,0.00039005279541,0.0380120277405
61,0.00228404998779,0.00300216674805,0.00272822380066,0.000377893447876,0.0439097881317
62,0.002601146698,0.00292110443115,0.00385212898254,0.00049090385437,0.0388689041138
63,0.0022759437561,0.00321578979492,0.00285696983337,0.000396013259888,0.11288189888
64,0.00234007835388,0.00348281860352,0.00274801254272,0.000389099121094,0.0394740104675
65,0.00237798690796,0.00343585014343,0.00280904769897,0.000389099121094,0.039822101593
66,0.00304675102234,0.00330495834351,0.00286102294922,0.000388145446777,0.0409388542175
67,0.00226402282715,0.00321483612061,0.00268006324768,0.000379085540771,0.0410318374634
68,0.0678880214691,0.00405406951904,0.00289797782898,0.000416040420532,0.0475029945374
69,0.00231885910034,0.00348496437073,0.00280499458313,0.000394105911255,0.0428152084351
70,0.00230097770691,0.00336408615112,0.00270795822144,0.000385046005249,0.0432589054108
71,0.00240802764893,0.00330805778503,0.00288987159729,0.000387907028198,0.0430819988251
72,0.00227189064026,0.00318884849548,0.00276207923889,0.000386953353882,0.0440030097961
73,0.00226378440857,0.00308299064636,0.00374603271484,0.000469923019409,0.0541210174561
74,0.00232601165771,0.00360608100891,0.00299692153931,0.000402927398682,0.0462481975555
75,0.00301027297974,0.00344491004944,0.00288105010986,0.000396966934204,0.0469040870667
76,0.00242114067078,0.00325703620911,0.00284099578857,0.000385999679565,0.0462350845337
77,0.00263500213623,0.00302195549011,0.00382208824158,0.00048303604126,0.0474560260773
78,0.00224685668945,0.00359702110291,0.00305509567261,0.000401020050049,0.0494379997253
79,0.00231885910034,0.00344491004944,0.00278687477112,0.000386953353882,0.0493998527527
80,0.00256991386414,0.00332903862,0.00280499458313,0.000396966934204,0.0486748218536
81,0.00243830680847,0.00317406654358,0.00274205207825,0.000386953353882,0.049870967865
82,0.00252199172974,0.0036928653717,0.00290489196777,0.000402927398682,0.108538150787
83,0.00297784805298,0.00354385375977,0.00288891792297,0.000397920608521,0.051304101944
84,0.00233626365662,0.00360703468323,0.00278782844543,0.000392913818359,0.0564479827881
85,0.00252890586853,0.00344085693359,0.00274801254272,0.000385999679565,0.0522379875183
86,0.00243186950684,0.00316691398621,0.00276803970337,0.00037693977356,0.0526769161224
87,0.00242877006531,0.00352501869202,0.00286412239075,0.000395059585571,0.110457181931
88,0.00236892700195,0.00354886054993,0.00294804573059,0.000393867492676,0.0531520843506
89,0.00229096412659,0.00348782539368,0.00278091430664,0.000387907028198,0.0542831420898
90,0.00218415260315,0.00302982330322,0.00277495384216,0.000378131866455,0.0552799701691
91,0.00228595733643,0.00299978256226,0.00401306152344,0.000488996505737,0.0550980567932
92,0.00271892547607,0.0036768913269,0.00291609764099,0.000398874282837,0.0599999427795
93,0.00236392021179,0.00352501869202,0.00286889076233,0.000406980514526,0.0581500530243
94,0.0025429725647,0.00342893600464,0.00273418426514,0.000387191772461,0.058559179306
95,0.00325131416321,0.00363492965698,0.00337886810303,0.000440120697021,0.0605971813202
96,0.00261807441711,0.00315594673157,0.00378918647766,0.000482082366943,0.0614640712738
97,0.00227785110474,0.00356793403625,0.00276398658752,0.000393152236938,0.0576379299164
98,0.00232696533203,0.00352096557617,0.00282597541809,0.00039005279541,0.0597500801086
99,0.00244212150574,0.00339722633362,0.00268411636353,0.000384092330933,0.0593018531799
