step,run,get,set,free,run_up_to_step
0,0.00450110435486,0.00433611869812,0.0044310092926,0.000569105148315,0.0123820304871
1,0.0113542079926,0.00411009788513,0.0043420791626,0.000590085983276,0.0125951766968
2,0.0118861198425,0.00389409065247,0.00410389900208,0.000622034072876,0.0119440555573
3,0.00400996208191,0.00406694412231,0.00416111946106,0.000591993331909,0.0177209377289
4,0.00405979156494,0.00392603874207,0.00404810905457,0.000565052032471,0.0145580768585
5,0.00539302825928,0.00399398803711,0.00394797325134,0.000542879104614,0.0212321281433
6,0.00440120697021,0.00384902954102,0.00404095649719,0.000576972961426,0.0230190753937
7,0.0123150348663,0.00367403030396,0.00459980964661,0.000761032104492,0.0255389213562
8,0.0115911960602,0.00404620170593,0.00437188148499,0.000618934631348,0.0268070697784
9,0.011547088623,0.00399804115295,0.0042200088501,0.00061297416687,0.0341248512268
10,0.011666059494,0.00423312187195,0.00453114509583,0.000661849975586,0.0327699184418
11,0.00535178184509,0.00390601158142,0.00410604476929,0.000625848770142,0.031546831131
12,0.0044379234314,0.00377416610718,0.00429916381836,0.000818967819214,0.0335249900818
13,0.0114982128143,0.00407099723816,0.00413608551025,0.000641107559204,0.0423390865326
14,0.0109369754791,0.00406002998352,0.00417304039001,0.000608921051025,0.0367429256439
15,0.00393915176392,0.00383520126343,0.00418376922607,0.000685930252075,0.0391681194305
16,0.0044367313385,0.00453996658325,0.0043408870697,0.000677108764648,0.0445950031281
17,0.00454807281494,0.0040180683136,0.00421190261841,0.000667095184326,0.0495729446411
18,0.00445103645325,0.0038149356842,0.00421690940857,0.00062084197998,0.0401949882507
19,0.00417017936707,0.0040910243988,0.00412702560425,0.000633955001831,0.0537140369415
20,0.00426197052002,0.00487399101257,0.00467705726624,0.000962018966675,0.111201047897
21,0.0114140510559,0.00431203842163,0.00430393218994,0.000724077224731,0.0626850128174
22,0.0115418434143,0.00403618812561,0.00425887107849,0.000655889511108,0.0512881278992
23,0.00426602363586,0.00387001037598,0.00527191162109,0.000930070877075,0.0522789955139
24,0.00419425964355,0.00436305999756,0.00444507598877,0.000797033309937,0.0608570575714
25,0.0106132030487,0.00404500961304,0.00426316261292,0.000712871551514,0.0618968009949
26,0.00421714782715,0.00386309623718,0.00408101081848,0.000688791275024,0.0690112113953
27,0.0869240760803,0.00540518760681,0.00465393066406,0.000843048095703,0.0637249946594
28,0.00420713424683,0.00453901290894,0.00441288948059,0.000771999359131,0.0748190879822
29,0.0116930007935,0.00410413742065,0.00426006317139,0.000725030899048,0.073312997818
30,0.0111181735992,0.00376892089844,0.00524592399597,0.000970125198364,0.0697839260101
31,0.011305809021,0.00527310371399,0.00431203842163,0.000792026519775,0.0818538665771
32,0.0124180316925,0.00386095046997,0.0041389465332,0.000733852386475,0.0683219432831
33,0.00419116020203,0.0049421787262,0.00467705726624,0.000915050506592,0.143194913864
34,0.0119519233704,0.00451397895813,0.00433015823364,0.000730037689209,0.0715069770813
35,0.0114600658417,0.00353002548218,0.00533103942871,0.000931024551392,0.0785291194916
36,0.0116579532623,0.00499510765076,0.00499892234802,0.000954866409302,0.227563858032
37,0.0114870071411,0.0049889087677,0.00460600852966,0.00087308883667,0.0889210700989
38,0.00517916679382,0.00476002693176,0.00447797775269,0.000818014144897,0.0906751155853
39,0.0112638473511,0.0050790309906,0.00476694107056,0.000921010971069,0.162927865982
40,0.0134377479553,0.00470781326294,0.00447702407837,0.000859975814819,0.0927770137787
41,0.00419688224792,0.00453591346741,0.00450205802917,0.000831127166748,0.12175989151
42,0.0119001865387,0.00470399856567,0.00461912155151,0.000900983810425,0.162886142731
43,0.00520515441895,0.00460410118103,0.00493693351746,0.00105094909668,0.0977628231049
44,0.00518608093262,0.00491786003113,0.00660085678101,0.00131583213806,0.0991539955139
45,0.00454378128052,0.00481510162354,0.00470900535583,0.00102591514587,0.093279838562
46,0.00509476661682,0.00444078445435,0.00452184677124,0.000946998596191,0.0938718318939
47,0.00539684295654,0.00465488433838,0.00609707832336,0.00121998786926,0.105102062225
48,0.00419998168945,0.00475001335144,0.00457811355591,0.000901937484741,0.092386007309
49,0.0111200809479,0.00453281402588,0.00424098968506,0.000813007354736,0.109199047089
50,0.0748248100281,0.00624203681946,0.00481009483337,0.000982999801636,0.097601890564
51,0.00431823730469,0.00461483001709,0.00453209877014,0.000910997390747,0.593543052673
52,0.00468611717224,0.00405597686768,0.00580787658691,0.00106692314148,0.112493991852
53,0.00918865203857,0.00457406044006,0.00449895858765,0.000862836837769,0.126180887222
54,0.00451493263245,0.00394606590271,0.00417304039001,0.000862121582031,0.107671022415
55,0.00461888313293,0.00568985939026,0.00472617149353,0.0010290145874,0.176426887512
56,0.010556936264,0.00435304641724,0.00437593460083,0.000890970230103,0.116308927536
57,0.01602602005,0.00387287139893,0.00402998924255,0.000838041305542,0.1166639328
58,0.0715129375458,0.00703883171082,0.00460410118103,0.00095796585083,0.113529920578
59,0.0184049606323,0.00425481796265,0.00428318977356,0.000858068466187,0.131869077682
60,0.00412201881409,0.00385594367981,0.00507187843323,0.0010359287262,0.113380908966
61,0.00419092178345,0.00430798530579,0.00438213348389,0.000926971435547,0.115239143372
62,0.00490927696228,0.00394701957703,0.00416207313538,0.000804901123047,0.11830496788
63,0.00450491905212,0.00434994697571,0.00441479682922,0.000881195068359,0.229604959488
64,0.0114152431488,0.00411415100098,0.00419807434082,0.000859022140503,0.127156972885
65,0.0210762023926,0.00496315956116,0.00712394714355,0.00106287002563,0.206598997116
66,0.0118157863617,0.00589394569397,0.00525903701782,0.00114178657532,0.139489889145
67,0.0121269226074,0.00494885444641,0.00501179695129,0.00108695030212,0.127384901047
68,0.00559520721436,0.00762414932251,0.00812101364136,0.00169801712036,0.231214046478
69,0.00560092926025,0.00519394874573,0.00438404083252,0.000926971435547,0.179807901382
70,0.00551414489746,0.00641298294067,0.00514197349548,0.00120186805725,0.184748888016
71,0.0108180046082,0.00401782989502,0.00440382957458,0.000879049301147,0.142627954483
72,0.0125350952148,0.0041880607605,0.00747990608215,0.00120496749878,0.139008998871
73,0.0122327804565,0.0043830871582,0.00445485115051,0.000920057296753,0.151796102524
74,0.0130732059479,0.00413012504578,0.00442004203796,0.000931978225708,0.138074874878
75,0.00578188896179,0.00583791732788,0.00522589683533,0.00128483772278,0.213340997696
76,0.00439810752869,0.00410294532776,0.00493407249451,0.00104093551636,0.191468000412
77,0.00494813919067,0.00527596473694,0.00452184677124,0.000962972640991,0.200525045395
78,0.0109889507294,0.00401902198792,0.00434589385986,0.000855922698975,0.283936977386
79,0.00540900230408,0.0065131187439,0.0292940139771,0.00104594230652,0.191822052002
80,0.00580501556396,0.00424098968506,0.00421404838562,0.000918865203857,0.151249885559
81,0.0123319625854,0.00519895553589,0.00467300415039,0.000972032546997,0.249877929688
82,0.00705432891846,0.00422787666321,0.00409293174744,0.000890016555786,0.189100027084
83,0.0126581192017,0.00474905967712,0.00434303283691,0.000952005386353,0.27324795723
84,0.0116329193115,0.00394797325134,0.00403308868408,0.000890970230103,0.181000947952
85,0.0130290985107,0.00417494773865,0.0043830871582,0.000900030136108,0.258121013641
86,0.011626958847,0.00410199165344,0.00426483154297,0.000869989395142,0.173133850098
87,0.00461888313293,0.00387597084045,0.00418210029602,0.000898838043213,0.257319927216
88,0.0118131637573,0.00387287139893,0.00400805473328,0.000897884368896,0.195423126221
89,0.0506830215454,0.00423502922058,0.00437903404236,0.000905990600586,0.198768138885
90,0.00540208816528,0.00607419013977,0.00519609451294,0.00130915641785,0.58300614357
91,0.00430917739868,0.00499486923218,0.00530791282654,0.000959873199463,0.209184169769
92,0.00509786605835,0.00497198104858,0.00458288192749,0.000936985015869,0.217623949051
93,0.00438904762268,0.00447487831116,0.00829696655273,0.00143003463745,0.238389015198
94,0.00442171096802,0.00470209121704,0.00448489189148,0.000931024551392,0.21099281311
95,0.00535297393799,0.00425481796265,0.0077908039093,0.00112009048462,0.190500020981
96,0.00454711914062,0.00456714630127,0.00454807281494,0.000952005386353,0.42067193985
97,0.00983071327209,0.00423812866211,0.00738906860352,0.00123906135559,0.200716018677
98,0.00541996955872,0.00458693504333,0.00463390350342,0.000916957855225,0.206767082214
99,0.011677980423,0.00415301322937,0.00647687911987,0.00112295150757,0.19425201416
