step,run,get,set,free,run_up_to_step
0,0.00562620162964,0.00151491165161,0.00144290924072,0.000201940536499,0.00694108009338
1,0.0044469833374,0.0014009475708,0.00147795677185,0.000192165374756,0.00813603401184
2,0.00454807281494,0.00138187408447,0.00151896476746,0.000195980072021,0.00978088378906
3,0.00505089759827,0.00141406059265,0.00144386291504,0.00019097328186,0.0115349292755
4,0.00445604324341,0.00143814086914,0.00152683258057,0.000194072723389,0.0150828361511
5,0.00499105453491,0.00138688087463,0.00149703025818,0.000194072723389,0.0153388977051
6,0.00534224510193,0.00138807296753,0.00146389007568,0.000190019607544,0.0177199840546
7,0.00509715080261,0.00137495994568,0.00150203704834,0.000191926956177,0.0204000473022
8,0.00473594665527,0.00140595436096,0.00154805183411,0.000216960906982,0.0234789848328
9,0.00538182258606,0.00142407417297,0.00151395797729,0.000191926956177,0.0266969203949
10,0.00519204139709,0.00136399269104,0.00164008140564,0.000217199325562,0.0287020206451
11,0.00737404823303,0.00139904022217,0.00149703025818,0.000193119049072,0.0323021411896
12,0.00560188293457,0.00139689445496,0.00151395797729,0.000194072723389,0.0527420043945
13,0.00523400306702,0.00134801864624,0.00143909454346,0.00019097328186,0.0383760929108
14,0.00524401664734,0.00142312049866,0.00152492523193,0.000198841094971,0.0676689147949
15,0.00642490386963,0.00137495994568,0.00150394439697,0.000194072723389,0.0482358932495
16,0.00768089294434,0.00138902664185,0.0016930103302,0.000224113464355,0.0484237670898
17,0.00664687156677,0.0014328956604,0.00154900550842,0.000197887420654,0.0514829158783
18,0.00673508644104,0.0013599395752,0.00160193443298,0.000220060348511,0.0545279979706
19,0.00660395622253,0.00142884254456,0.00148010253906,0.000195980072021,0.058296918869
20,0.00605607032776,0.00142002105713,0.00151705741882,0.000195980072021,0.0615448951721
21,0.00598478317261,0.00133109092712,0.00165200233459,0.000216007232666,0.0646560192108
22,0.00862503051758,0.00145697593689,0.00150203704834,0.000197172164917,0.0693218708038
23,0.00646114349365,0.00141716003418,0.00154304504395,0.00019383430481,0.0726449489594
24,0.0156219005585,0.00145697593689,0.00152397155762,0.000197887420654,0.109725952148
25,0.0066499710083,0.00132703781128,0.00179386138916,0.00020694732666,0.0832409858704
26,0.00697112083435,0.00150108337402,0.00155997276306,0.000196933746338,0.084254026413
27,0.00897336006165,0.00138401985168,0.00169515609741,0.000224828720093,0.0858449935913
28,0.00651121139526,0.00147414207458,0.00154399871826,0.00019907951355,0.0904331207275
29,0.00829482078552,0.00145506858826,0.00174498558044,0.000220060348511,0.0921788215637
30,0.00694990158081,0.00147891044617,0.00160908699036,0.000200033187866,0.097314119339
31,0.00656986236572,0.00137114524841,0.00161790847778,0.000220060348511,0.0990469455719
32,0.00750732421875,0.00144600868225,0.00181794166565,0.000200986862183,0.11415886879
33,0.00801587104797,0.00134801864624,0.00152087211609,0.000195026397705,0.108910083771
34,0.00688600540161,0.00138378143311,0.00160694122314,0.000226974487305,0.10884809494
35,0.00710892677307,0.00137805938721,0.00155210494995,0.000192880630493,0.113371133804
36,0.0319061279297,0.00144004821777,0.00155591964722,0.000200033187866,0.116079092026
37,0.0073070526123,0.00134491920471,0.0014500617981,0.000194072723389,0.122272968292
38,0.00699329376221,0.00149989128113,0.00155305862427,0.000197887420654,0.14321398735
39,0.00845694541931,0.00140595436096,0.00175285339355,0.000197172164917,0.127794981003
40,0.00717282295227,0.00141000747681,0.00151300430298,0.000198125839233,0.130635023117
41,0.00816917419434,0.00163197517395,0.00158381462097,0.000211954116821,0.155319213867
42,0.00688815116882,0.00137400627136,0.00178599357605,0.000230073928833,0.134299039841
43,0.00768995285034,0.00138688087463,0.00151300430298,0.000194072723389,0.16440486908
44,0.00688600540161,0.00143098831177,0.0015389919281,0.000202178955078,0.96714091301
45,0.0082733631134,0.00144910812378,0.00158214569092,0.000197887420654,0.142993927002
46,0.00726699829102,0.00146412849426,0.00156784057617,0.00019907951355,0.166720867157
47,0.00747203826904,0.0014021396637,0.00154209136963,0.00019907951355,0.148310184479
48,0.00737500190735,0.00140285491943,0.00158309936523,0.00019907951355,0.153008937836
49,0.00763988494873,0.00142002105713,0.0016040802002,0.000201940536499,0.181851863861
50,0.00830292701721,0.00146508216858,0.00156402587891,0.000204086303711,0.186068058014
51,0.00961017608643,0.00141978263855,0.00154995918274,0.000201940536499,0.176857948303
52,0.00723886489868,0.00142002105713,0.00153803825378,0.000201940536499,0.195458173752
53,0.00709295272827,0.00140905380249,0.00154495239258,0.000200033187866,0.175311088562
54,0.00668883323669,0.00142598152161,0.00157189369202,0.000200033187866,0.221435070038
55,0.00732803344727,0.00143504142761,0.00159883499146,0.000205039978027,0.207129001617
56,0.00736689567566,0.00137901306152,0.00153708457947,0.00020694732666,0.196631908417
57,0.0165619850159,0.00136590003967,0.00147604942322,0.000218868255615,0.188706874847
58,0.00799703598022,0.00141286849976,0.00154113769531,0.000209808349609,0.199944972992
59,0.00725698471069,0.00140690803528,0.00163006782532,0.000233173370361,0.221329212189
60,0.00764799118042,0.0014009475708,0.00158500671387,0.000265836715698,0.204749822617
61,0.0078341960907,0.00142192840576,0.00154614448547,0.000207901000977,0.204306125641
62,0.00828981399536,0.00143790245056,0.00152611732483,0.00019907951355,0.205119132996
63,0.0245690345764,0.00145101547241,0.00154495239258,0.00020694732666,0.226923942566
64,0.0111930370331,0.00138282775879,0.00154399871826,0.000204086303711,0.226194858551
65,0.00785493850708,0.00139594078064,0.00155591964722,0.000204801559448,0.218768119812
66,0.00775218009949,0.00137996673584,0.00160503387451,0.000208139419556,0.221821069717
67,0.00772523880005,0.00138998031616,0.00153708457947,0.000205993652344,0.259566068649
68,0.00786709785461,0.00161600112915,0.00156688690186,0.000222206115723,0.222951173782
69,0.00791597366333,0.00135707855225,0.00149297714233,0.00019907951355,0.230088949203
70,0.00786185264587,0.00139904022217,0.00155019760132,0.000205039978027,0.263591051102
71,0.00761485099792,0.00135397911072,0.00159811973572,0.000207901000977,0.258745908737
72,0.00857496261597,0.00141000747681,0.00157594680786,0.000208139419556,0.279659032822
73,0.010094165802,0.0014660358429,0.00168895721436,0.000235795974731,0.279555082321
74,0.564982891083,0.00170207023621,0.00178790092468,0.000252962112427,0.639938116074
75,0.0194609165192,0.00158500671387,0.00181102752686,0.000240802764893,0.36242389679
76,0.0242199897766,0.00157809257507,0.00175309181213,0.000264883041382,0.355383872986
77,0.0123810768127,0.00161814689636,0.00158905982971,0.000224113464355,0.383790016174
78,0.00786304473877,0.00149083137512,0.00161004066467,0.000239133834839,0.308923006058
79,0.00812911987305,0.00147104263306,0.001629114151,0.000225067138672,0.298524141312
80,0.0105030536652,0.0014750957489,0.00159811973572,0.000223875045776,0.324286937714
81,0.00816798210144,0.00136208534241,0.00163006782532,0.000227928161621,0.277162790298
82,0.00761103630066,0.00138592720032,0.00155186653137,0.000205039978027,0.283871889114
83,0.00761914253235,0.00140905380249,0.00151181221008,0.000207901000977,0.311185121536
84,0.0088849067688,0.00138306617737,0.00155901908875,0.000220060348511,0.292455196381
85,0.00788617134094,0.00137186050415,0.00153207778931,0.000203132629395,0.294054985046
86,0.00782704353333,0.00138187408447,0.00168299674988,0.00021505355835,0.325298070908
87,0.0106728076935,0.00137996673584,0.00148296356201,0.000218152999878,0.460357904434
88,0.0080132484436,0.00145697593689,0.00159811973572,0.000219106674194,0.305252790451
89,0.00767111778259,0.00142598152161,0.00156617164612,0.0002281665802,0.296290874481
90,0.00739884376526,0.00143098831177,0.00155901908875,0.000226974487305,0.303406953812
91,0.0083270072937,0.00140810012817,0.00157308578491,0.0002281665802,0.306654214859
92,0.00998687744141,0.00140404701233,0.00163412094116,0.000231027603149,0.319646120071
93,0.00750303268433,0.00141501426697,0.00155115127563,0.000210046768188,0.318637132645
94,0.00745892524719,0.00144410133362,0.00154709815979,0.000223875045776,0.337988853455
95,0.0102391242981,0.00139379501343,0.00153803825378,0.000216960906982,0.34058380127
96,0.0107159614563,0.00144004821777,0.00173306465149,0.000264883041382,0.336681127548
97,0.00870490074158,0.00137782096863,0.00154900550842,0.000233888626099,0.394434928894
98,0.00870323181152,0.0014500617981,0.00153207778931,0.000223159790039,0.344085931778
99,0.00828003883362,0.00142693519592,0.00168800354004,0.000269174575806,0.53968501091
