step,run,get,set,free,run_up_to_step
0,0.0133450031281,0.00364804267883,0.00316119194031,0.000425100326538,0.0150740146637
1,0.00338888168335,0.00335383415222,0.00312995910645,0.000418901443481,0.0162370204926
2,0.00266695022583,0.00328493118286,0.00316691398621,0.000439882278442,0.0169858932495
3,0.00272011756897,0.00337886810303,0.00311803817749,0.00042200088501,0.0176610946655
4,0.00337719917297,0.00359797477722,0.00364995002747,0.00048303604126,0.0228559970856
5,0.00312900543213,0.00360608100891,0.00332999229431,0.000470876693726,0.0480728149414
6,0.00323700904846,0.00356006622314,0.00309419631958,0.000422954559326,0.0249900817871
7,0.00331902503967,0.00376415252686,0.00337600708008,0.00050687789917,0.0274140834808
8,0.00335335731506,0.00351691246033,0.00318503379822,0.000468015670776,0.0290541648865
9,0.00325679779053,0.00354409217834,0.00349712371826,0.000469923019409,0.0296339988708
10,0.00322890281677,0.00355696678162,0.00318503379822,0.000448226928711,0.0307331085205
11,0.00384092330933,0.00366902351379,0.00339603424072,0.000493049621582,0.0314199924469
12,0.00500202178955,0.00361609458923,0.00326991081238,0.000504970550537,0.0901379585266
13,0.00431799888611,0.00386190414429,0.00352597236633,0.000468015670776,0.0334389209747
14,0.0040009021759,0.00420999526978,0.00384402275085,0.000515937805176,0.0356020927429
15,0.00415897369385,0.00360202789307,0.00357294082642,0.000452995300293,0.0347409248352
16,0.00326013565063,0.00357794761658,0.00356483459473,0.000505924224854,0.035847902298
17,0.00415110588074,0.00355100631714,0.00340914726257,0.000477075576782,0.0365982055664
18,0.0034601688385,0.00351691246033,0.00399804115295,0.000554084777832,0.0376279354095
19,0.00444388389587,0.00403189659119,0.00340414047241,0.00050687789917,0.0546309947968
20,0.00302004814148,0.00382399559021,0.00351500511169,0.000488996505737,0.0413830280304
21,0.00376009941101,0.0036928653717,0.00364995002747,0.000530958175659,0.0413348674774
22,0.00311613082886,0.0036609172821,0.00369310379028,0.000509023666382,0.0428128242493
23,0.00369715690613,0.00366497039795,0.0030460357666,0.000432014465332,0.0428199768066
24,0.00337195396423,0.00350379943848,0.00372004508972,0.000528812408447,0.0383129119873
25,0.0036518573761,0.00348901748657,0.00305485725403,0.000447988510132,0.0313680171967
26,0.00250697135925,0.00368404388428,0.00310206413269,0.000458002090454,0.0351631641388
27,0.00303387641907,0.00354695320129,0.00305891036987,0.000459909439087,0.0360198020935
28,0.00333738327026,0.00333690643311,0.00296592712402,0.000421047210693,0.0346069335938
29,0.00235104560852,0.00308895111084,0.00292015075684,0.00042200088501,0.0471920967102
30,0.0024139881134,0.00317406654358,0.00311398506165,0.000433921813965,0.0658619403839
31,0.00240206718445,0.00360798835754,0.0032160282135,0.000459909439087,0.127359867096
32,0.00268411636353,0.0037829875946,0.00380682945251,0.000527858734131,0.0423359870911
33,0.0029308795929,0.00392508506775,0.00325489044189,0.000447988510132,0.0454730987549
34,0.00250697135925,0.00360798835754,0.00304293632507,0.000427961349487,0.0400719642639
35,0.00330090522766,0.00367784500122,0.00317215919495,0.000452041625977,0.0403831005096
36,0.0025360584259,0.00337886810303,0.00305700302124,0.000431060791016,0.040561914444
37,0.00252509117126,0.0038640499115,0.00346708297729,0.000480890274048,0.104646921158
38,0.00274300575256,0.00398993492126,0.00328993797302,0.000462055206299,0.0482740402222
39,0.00248193740845,0.00366187095642,0.00293493270874,0.000426054000854,0.0539908409119
40,0.00245404243469,0.00347304344177,0.00300002098083,0.000444889068604,0.0456597805023
41,0.00248003005981,0.00336599349976,0.00294399261475,0.000418901443481,0.0543811321259
42,0.0024938583374,0.00322794914246,0.00310516357422,0.000418186187744,0.0534389019012
43,0.00249004364014,0.00367999076843,0.00330495834351,0.000447988510132,0.130579948425
44,0.0024139881134,0.00364184379578,0.00319504737854,0.000441074371338,0.051372051239
45,0.00243902206421,0.00359201431274,0.0030460357666,0.000447988510132,0.0617349147797
46,0.00897979736328,0.00349807739258,0.00314998626709,0.000435829162598,0.0570130348206
47,0.00231599807739,0.00323700904846,0.00295209884644,0.000416994094849,0.325409889221
48,0.002366065979,0.00315499305725,0.00393009185791,0.000553131103516,0.06498503685
49,0.0025360584259,0.00380301475525,0.00320506095886,0.000461101531982,0.066269159317
50,0.0106689929962,0.00366687774658,0.00313115119934,0.000462055206299,0.0609159469604
51,0.0025269985199,0.00334978103638,0.00298285484314,0.000433921813965,0.0567841529846
52,0.00237894058228,0.00304007530212,0.00286316871643,0.000420093536377,0.0678219795227
53,0.00343894958496,0.00320315361023,0.00384998321533,0.000494956970215,0.0571570396423
54,0.00247001647949,0.00395798683167,0.0033860206604,0.00047492980957,0.375971078873
55,0.00973105430603,0.00362300872803,0.00319385528564,0.000447034835815,0.0622460842133
56,0.00242304801941,0.00343585014343,0.00293016433716,0.000426054000854,0.0643191337585
57,0.00255298614502,0.003173828125,0.00295400619507,0.000424861907959,0.0648331642151
58,0.140705108643,0.00329184532166,0.00309777259827,0.000441074371338,0.162727832794
59,0.00313997268677,0.0036289691925,0.00365304946899,0.000504016876221,0.0749809741974
60,0.00255584716797,0.00337696075439,0.0031270980835,0.000452041625977,0.0704610347748
61,0.0032479763031,0.00321197509766,0.0030460357666,0.000430822372437,0.0736269950867
62,0.00244998931885,0.00323700904846,0.00287008285522,0.000429153442383,0.0668041706085
63,0.00239586830139,0.00323414802551,0.00300002098083,0.000421047210693,0.0671031475067
64,0.00252890586853,0.00332093238831,0.00302696228027,0.000440835952759,0.162300825119
65,0.00774216651917,0.00342082977295,0.00310802459717,0.000426054000854,0.0773639678955
66,0.0030779838562,0.00337791442871,0.00302600860596,0.000432968139648,0.068470954895
67,0.00299787521362,0.0033221244812,0.00305104255676,0.000416040420532,0.0703511238098
68,0.00249099731445,0.00319385528564,0.00288581848145,0.000415802001953,0.0709619522095
69,0.00244379043579,0.00363898277283,0.00307607650757,0.00043511390686,0.182804107666
70,0.00245714187622,0.00334906578064,0.00290703773499,0.000449895858765,0.0726749897003
71,0.00245380401611,0.003249168396,0.00307893753052,0.000457048416138,0.0824089050293
72,0.00244092941284,0.00328898429871,0.00305008888245,0.000445127487183,0.0799717903137
73,0.022234916687,0.0033061504364,0.0028829574585,0.000416040420532,0.0775198936462
74,0.00253009796143,0.00370383262634,0.00330805778503,0.000454902648926,0.162930011749
75,0.00255107879639,0.00344300270081,0.00364589691162,0.000497102737427,0.0847959518433
76,0.0033266544342,0.00337696075439,0.00301504135132,0.000427961349487,0.0766999721527
77,0.00262379646301,0.00324010848999,0.00288510322571,0.000427007675171,0.0823369026184
78,0.0373179912567,0.00303483009338,0.0037260055542,0.000555992126465,0.0824790000916
79,0.00246596336365,0.00349402427673,0.00301909446716,0.000442981719971,0.0825200080872
80,0.00252914428711,0.00358104705811,0.00327396392822,0.000444889068604,0.0687420368195
81,0.00310015678406,0.00327396392822,0.00286102294922,0.000417947769165,0.0762779712677
82,0.00240206718445,0.00321912765503,0.00288105010986,0.00040602684021,0.0735018253326
83,0.00307893753052,0.00386190414429,0.00325107574463,0.000443935394287,0.0749769210815
84,0.00260281562805,0.00348997116089,0.00322294235229,0.000442981719971,0.0790419578552
85,0.00243806838989,0.00368213653564,0.00314283370972,0.000442981719971,0.0841221809387
86,0.00236701965332,0.00337910652161,0.00307202339172,0.00042200088501,0.0832870006561
87,0.00246000289917,0.00334501266479,0.00360989570618,0.000508069992065,0.0969290733337
88,0.0025749206543,0.00384902954102,0.00333786010742,0.00047492980957,0.0968899726868
89,0.00279188156128,0.00358104705811,0.00319504737854,0.000460863113403,0.0887799263
90,0.00245308876038,0.00349688529968,0.00331997871399,0.000468969345093,0.0835769176483
91,0.00358295440674,0.00311493873596,0.00373196601868,0.000523090362549,0.0944509506226
92,0.00449180603027,0.00418901443481,0.00349092483521,0.000586032867432,0.302314043045
93,0.00246405601501,0.00352716445923,0.00330305099487,0.000452995300293,0.0903000831604
94,0.00323486328125,0.00328803062439,0.00284504890442,0.000445127487183,0.0857148170471
95,0.00962686538696,0.00402188301086,0.00433492660522,0.000877141952515,0.154513120651
96,0.00251221656799,0.00368213653564,0.00325417518616,0.000458002090454,0.093640089035
97,0.00251817703247,0.00367999076843,0.00317692756653,0.000447034835815,0.0861921310425
98,0.00260019302368,0.00310707092285,0.00294208526611,0.000411987304688,0.0923478603363
99,0.00247406959534,0.00314116477966,0.00456500053406,0.000529050827026,0.0944631099701
