step,run,get,set,free,run_up_to_step
0,0.00416088104248,0.00591421127319,0.00530505180359,0.00071907043457,0.00502800941467
1,0.00342774391174,0.00542807579041,0.00547790527344,0.000580072402954,0.00709915161133
2,0.00351405143738,0.00572395324707,0.00536298751831,0.000521898269653,0.0190370082855
3,0.00338125228882,0.00580906867981,0.00551104545593,0.000497817993164,0.00787305831909
4,0.00423002243042,0.00499200820923,0.00571203231812,0.00056004524231,0.0085289478302
5,0.00337886810303,0.00553894042969,0.00542807579041,0.000530958175659,0.00925278663635
6,0.00323104858398,0.00588512420654,0.00537014007568,0.000540018081665,0.0106341838837
7,0.00429487228394,0.00544190406799,0.00524616241455,0.000548124313354,0.0115909576416
8,0.00347208976746,0.00563287734985,0.00538492202759,0.00072717666626,0.0129787921906
9,0.00333118438721,0.00572896003723,0.00539994239807,0.00055193901062,0.0234849452972
10,0.0034191608429,0.00603890419006,0.00533103942871,0.000404119491577,0.0148100852966
11,0.00334620475769,0.00572299957275,0.00551819801331,0.00052809715271,0.0159962177277
12,0.00348091125488,0.00571799278259,0.00483584403992,0.000570058822632,0.0170269012451
13,0.00351476669312,0.00510311126709,0.00544095039368,0.000562906265259,0.0170750617981
14,0.00326085090637,0.00510787963867,0.00537610054016,0.000602960586548,0.0194549560547
15,0.00317525863647,0.00592803955078,0.005530834198,0.000571012496948,0.0186700820923
16,0.00343942642212,0.00593209266663,0.00548696517944,0.000566005706787,0.0205459594727
17,0.00301694869995,0.00585317611694,0.00519299507141,0.000571012496948,0.0225319862366
18,0.00421977043152,0.00593209266663,0.00586605072021,0.000536918640137,0.0221428871155
19,0.00452303886414,0.00524997711182,0.00539016723633,0.000555992126465,0.0228168964386
20,0.0103540420532,0.00590705871582,0.00580596923828,0.00070595741272,0.0336182117462
21,0.00609016418457,0.00578904151917,0.00499415397644,0.000746965408325,0.0326550006866
22,0.00501799583435,0.00605988502502,0.00569605827332,0.000629186630249,0.0329430103302
23,0.00531196594238,0.00640320777893,0.00597405433655,0.000738143920898,0.0352659225464
24,0.00598192214966,0.00610589981079,0.00556492805481,0.00061297416687,0.0371820926666
25,0.00482511520386,0.00550293922424,0.00511717796326,0.000593900680542,0.0393579006195
26,0.00599098205566,0.00609183311462,0.00529885292053,0.000575065612793,0.0373849868774
27,0.00512409210205,0.00564908981323,0.00560712814331,0.000565052032471,0.0399780273438
28,0.00544381141663,0.00567388534546,0.00588583946228,0.000633001327515,0.0779759883881
29,0.00517010688782,0.00621199607849,0.00550889968872,0.000597953796387,0.0426158905029
30,0.00474405288696,0.00589108467102,0.00576519966125,0.000633955001831,0.0441591739655
31,0.00598382949829,0.00579786300659,0.00576305389404,0.00055193901062,0.0430648326874
32,0.00533008575439,0.0057270526886,0.00525808334351,0.000525951385498,0.0452330112457
33,0.00518560409546,0.00604391098022,0.0055570602417,0.00072193145752,0.0452058315277
34,0.00493097305298,0.00556898117065,0.00617909431458,0.000640869140625,0.0462629795074
35,0.00521683692932,0.00633597373962,0.00633883476257,0.000898122787476,0.0470840930939
36,0.00457501411438,0.00587701797485,0.00579595565796,0.000700950622559,0.0508589744568
37,0.00522685050964,0.0061411857605,0.00548887252808,0.000763177871704,0.053395986557
38,0.00479626655579,0.00579404830933,0.00573492050171,0.000656843185425,0.0521531105042
39,0.00524401664734,0.00595998764038,0.00450015068054,0.000582218170166,0.0552690029144
40,0.00513792037964,0.0060019493103,0.006187915802,0.000653982162476,0.0549850463867
41,0.00605607032776,0.00638008117676,0.00583505630493,0.00080394744873,0.0558211803436
42,0.00586485862732,0.00640392303467,0.00602602958679,0.000606060028076,0.0550620555878
43,0.0052330493927,0.0061948299408,0.00589084625244,0.000607013702393,0.0561618804932
44,0.00502014160156,0.00640606880188,0.00552105903625,0.000702142715454,0.0564410686493
45,0.0053129196167,0.00639891624451,0.00362801551819,0.00038480758667,0.0610640048981
46,0.00499606132507,0.00397801399231,0.00633120536804,0.000614881515503,0.0385549068451
47,0.00567507743835,0.00649499893188,0.00616002082825,0.000656843185425,0.0624001026154
48,0.00650787353516,0.00663590431213,0.00579810142517,0.000504970550537,0.0653238296509
49,0.00529193878174,0.00604104995728,0.00571799278259,0.000854969024658,0.0664300918579
50,0.00618529319763,0.00593090057373,0.00556898117065,0.000649929046631,0.0667600631714
51,0.00513219833374,0.0057737827301,0.00548100471497,0.000514984130859,0.0671589374542
52,0.00547289848328,0.00619006156921,0.00575995445251,0.000610828399658,0.134353160858
53,0.00546002388,0.00638294219971,0.00568413734436,0.000620126724243,0.0709409713745
54,0.00517702102661,0.00633692741394,0.00610303878784,0.000704050064087,0.0708031654358
55,0.00630187988281,0.00610518455505,0.00605511665344,0.00082802772522,0.0749440193176
56,0.00545978546143,0.00605607032776,0.00571393966675,0.000614881515503,0.074325799942
57,0.00639009475708,0.00606894493103,0.00561809539795,0.000574111938477,0.0749020576477
58,0.00516605377197,0.00609302520752,0.00612592697144,0.000611066818237,0.143391132355
59,0.00534510612488,0.00638699531555,0.00568985939026,0.000645875930786,0.0719270706177
60,0.00608921051025,0.00616407394409,0.00581812858582,0.000690937042236,0.0778269767761
61,0.00492119789124,0.00553798675537,0.00543904304504,0.000771045684814,0.0779838562012
62,0.00565695762634,0.00569915771484,0.00692701339722,0.000699043273926,0.0758972167969
63,0.00579214096069,0.00593590736389,0.0059061050415,0.000711917877197,0.162369012833
64,0.00504899024963,0.00611114501953,0.00534391403198,0.00052285194397,0.0797231197357
65,0.00529909133911,0.00590205192566,0.00531411170959,0.000562906265259,0.0808608531952
66,0.00545215606689,0.00598406791687,0.00568914413452,0.000531196594238,0.0843279361725
67,0.00485682487488,0.00570201873779,0.00497889518738,0.000575065612793,0.0838439464569
68,0.00491213798523,0.00655293464661,0.0056939125061,0.000622987747192,0.139709949493
69,0.00522112846375,0.00629806518555,0.00596785545349,0.000509977340698,0.0871379375458
70,0.00455212593079,0.00613403320312,0.00684595108032,0.00053882598877,0.0849349498749
71,0.00490999221802,0.00598406791687,0.00566506385803,0.000531911849976,0.0887141227722
72,0.00525498390198,0.00599694252014,0.00630211830139,0.000731945037842,0.0889749526978
73,0.00479388237,0.00613188743591,0.00588512420654,0.000590085983276,0.0914249420166
74,0.00558686256409,0.00672888755798,0.00533390045166,0.000593185424805,0.0954010486603
75,0.00504112243652,0.00593090057373,0.00570297241211,0.000653982162476,0.0970430374146
76,0.0048999786377,0.00541305541992,0.00564312934875,0.000534057617188,0.091315984726
77,0.00497102737427,0.00578713417053,0.00551700592041,0.000548124313354,0.0968151092529
78,0.00519800186157,0.00623393058777,0.00607895851135,0.000653028488159,0.16587305069
79,0.00640296936035,0.00646710395813,0.00598382949829,0.000692129135132,0.0990259647369
80,0.00553512573242,0.00661396980286,0.00562214851379,0.000541925430298,0.0996799468994
81,0.00543785095215,0.00621509552002,0.00564098358154,0.000561952590942,0.104319095612
82,0.00520396232605,0.00594282150269,0.00544595718384,0.000588178634644,0.0982251167297
83,0.00573706626892,0.00688195228577,0.006108045578,0.00056004524231,0.100369930267
84,0.00616312026978,0.00642395019531,0.00380396842957,0.000416040420532,0.10839009285
85,0.00475883483887,0.00416803359985,0.00351405143738,0.000372886657715,0.0678842067719
86,0.00502896308899,0.00394701957703,0.00344300270081,0.00037407875061,0.067939043045
87,0.00526285171509,0.0038537979126,0.00647497177124,0.00047492980957,0.0701940059662
88,0.00564789772034,0.00658798217773,0.00595283508301,0.000682830810547,0.109127998352
89,0.00493907928467,0.00569200515747,0.00572896003723,0.00071907043457,0.111680984497
90,0.00563311576843,0.00629711151123,0.00551795959473,0.00065803527832,0.114841938019
91,0.00651812553406,0.00416278839111,0.00363802909851,0.00037693977356,0.0983211994171
92,0.00458002090454,0.00430178642273,0.00396800041199,0.000545024871826,0.478945970535
93,0.00522708892822,0.00423693656921,0.00533819198608,0.000718116760254,0.0889670848846
94,0.00565791130066,0.00634789466858,0.00374603271484,0.000497102737427,0.081022977829
95,0.0048189163208,0.00379014015198,0.00346207618713,0.000375986099243,0.077565908432
96,0.00563883781433,0.00423192977905,0.00398302078247,0.000531911849976,0.079155921936
97,0.00511884689331,0.00413203239441,0.00373196601868,0.000442981719971,0.0761339664459
98,0.00575399398804,0.0039689540863,0.00356507301331,0.000397205352783,0.0806329250336
99,0.00680708885193,0.00600004196167,0.00589299201965,0.00066089630127,0.116107940674
