step,run,get,set,free,run_up_to_step
0,0.0397679805756,0.0189690589905,0.0206921100616,0.00162291526794,0.0419580936432
1,0.0157079696655,0.017991065979,0.0208427906036,0.00165700912476,0.0512020587921
2,0.0127108097076,0.017678976059,0.0200011730194,0.00170707702637,0.0521340370178
3,0.0188219547272,0.0191349983215,0.0209150314331,0.00182700157166,0.0707302093506
4,0.0124001502991,0.0180897712708,0.0201439857483,0.00173997879028,0.0659289360046
5,0.0119609832764,0.0190899372101,0.0202050209045,0.00213289260864,0.0770049095154
6,0.0181257724762,0.0182468891144,0.0205750465393,0.00204706192017,0.0787827968597
7,0.0117540359497,0.0185041427612,0.0217840671539,0.00212001800537,0.0884630680084
8,0.0171060562134,0.0189368724823,0.0208120346069,0.00205492973328,0.0970740318298
9,0.011271238327,0.0186991691589,0.0208458900452,0.00217795372009,0.0999529361725
10,0.0164258480072,0.0182800292969,0.0199511051178,0.00187492370605,0.11200594902
11,0.016921043396,0.0194818973541,0.0235290527344,0.00226306915283,0.12876200676
12,0.00943922996521,0.0182278156281,0.019711971283,0.00181603431702,0.120958089828
13,0.0439820289612,0.0193479061127,0.0208292007446,0.00242590904236,0.13324213028
14,0.0131058692932,0.0185649394989,0.0214900970459,0.00172185897827,0.137449026108
15,0.0118300914764,0.0193111896515,0.0219759941101,0.0022439956665,0.145286083221
16,0.0189127922058,0.0183820724487,0.0216240882874,0.00224113464355,0.156323194504
17,0.0106496810913,0.0186641216278,0.0204739570618,0.00191307067871,0.15860915184
18,0.0171601772308,0.0181860923767,0.021950006485,0.0022828578949,0.166599035263
19,0.0108902454376,0.0193138122559,0.0223128795624,0.00251388549805,0.170674085617
20,0.0149700641632,0.0192050933838,0.0226678848267,0.00228404998779,0.175303936005
21,0.0179369449615,0.0204000473022,0.0221498012543,0.00244617462158,0.1950340271
22,0.00973701477051,0.0181229114532,0.0212690830231,0.00227499008179,0.191770076752
23,0.0187058448792,0.0188322067261,0.0208520889282,0.00191402435303,0.202253103256
24,0.01251912117,0.0181529521942,0.0205061435699,0.0017569065094,0.209285974503
25,0.0118601322174,0.018609046936,0.0207109451294,0.00188279151917,0.238240003586
26,0.0183901786804,0.017716884613,0.0209460258484,0.00189900398254,0.217149019241
27,0.0104749202728,0.0182378292084,0.0209031105042,0.00182700157166,0.248610019684
28,0.0167641639709,0.0178890228271,0.0213401317596,0.00225901603699,0.235870838165
29,0.0111889839172,0.0185899734497,0.0195269584656,0.00213599205017,0.240265130997
30,0.0146358013153,0.0189158916473,0.0202031135559,0.00190997123718,0.273365020752
31,0.0172328948975,0.0182919502258,0.0203151702881,0.00182485580444,0.263148069382
32,0.00965809822083,0.0191140174866,0.0214030742645,0.00217604637146,0.349398851395
33,0.0180752277374,0.018346786499,0.0217158794403,0.00193500518799,0.2744140625
34,0.0123889446259,0.0191571712494,0.0213968753815,0.00204110145569,0.278403043747
35,0.01247382164,0.020133972168,0.0206880569458,0.00215005874634,0.311954021454
36,0.0190539360046,0.0187258720398,0.0203011035919,0.00188207626343,0.288751125336
37,0.0108439922333,0.021064043045,0.0237579345703,0.00279092788696,0.423511981964
38,0.0169641971588,0.0210690498352,0.0226709842682,0.00242209434509,0.29517698288
39,0.0113620758057,0.0210001468658,0.0232548713684,0.00260996818542,0.342451095581
40,0.014456987381,0.0207459926605,0.0228879451752,0.00239515304565,0.309897899628
41,0.0164029598236,0.0231509208679,0.023286819458,0.00274610519409,0.366400957108
42,0.0100040435791,0.0210011005402,0.0229640007019,0.00264883041382,0.318533182144
43,0.0183050632477,0.0214948654175,0.0241150856018,0.002681016922,0.373375177383
44,0.0124371051788,0.0211839675903,0.0228450298309,0.00299000740051,0.329976081848
45,0.0123629570007,0.0216870307922,0.0234091281891,0.00264596939087,0.388169050217
46,0.0180017948151,0.0213749408722,0.0243740081787,0.00269103050232,0.357125997543
47,0.0104079246521,0.0204598903656,0.0223708152771,0.00236701965332,0.334692001343
48,0.0166888237,0.0199410915375,0.0130729675293,0.00186896324158,0.374423980713
49,0.0076310634613,0.0116481781006,0.0128409862518,0.00146079063416,0.23332285881
50,0.010801076889,0.011862039566,0.0132131576538,0.00150799751282,0.266529083252
51,0.0113027095795,0.0113580226898,0.0245771408081,0.00270986557007,0.24658203125
52,0.00979614257812,0.0123310089111,0.017373085022,0.00182795524597,0.322824001312
53,0.0195269584656,0.0200300216675,0.0220460891724,0.00229287147522,0.379747152328
54,0.0121500492096,0.0190649032593,0.0220799446106,0.00204300880432,0.409806013107
55,0.0127310752869,0.0195138454437,0.0210890769958,0.00201892852783,0.409754991531
56,0.0205397605896,0.0221300125122,0.0243599414825,0.00313186645508,0.573574066162
57,0.0112888813019,0.0207250118256,0.0230731964111,0.00267505645752,0.442842006683
58,0.0179240703583,0.0213778018951,0.0239129066467,0.00285601615906,0.466311216354
59,0.0119421482086,0.0202739238739,0.0226910114288,0.00260996818542,0.443273067474
60,0.0142011642456,0.0201079845428,0.0221989154816,0.0023500919342,0.411703109741
61,0.0186939239502,0.0201950073242,0.0210320949554,0.00230097770691,0.499991893768
62,0.0104460716248,0.0188310146332,0.0221970081329,0.0021059513092,0.468075037003
63,0.0195999145508,0.0188410282135,0.0216748714447,0.00188899040222,0.485517978668
64,0.0133640766144,0.0186071395874,0.0209279060364,0.00211715698242,0.481857061386
65,0.0127859115601,0.0182731151581,0.0210990905762,0.00174999237061,0.48144698143
66,0.0183618068695,0.0176980495453,0.0210320949554,0.00186109542847,0.487214803696
67,0.0113680362701,0.0179848670959,0.0197620391846,0.00181794166565,0.503273963928
68,0.0175290107727,0.0178461074829,0.0199809074402,0.00184082984924,0.534508943558
69,0.0110590457916,0.0176830291748,0.0197968482971,0.00203394889832,0.524152040482
70,0.0249819755554,0.018285036087,0.0218288898468,0.00199103355408,0.512876987457
71,0.0181641578674,0.0217020511627,0.0222001075745,0.00281310081482,0.544991970062
72,0.0101277828217,0.0214622020721,0.0229439735413,0.00284600257874,0.542284011841
73,0.0190341472626,0.0208129882812,0.0228931903839,0.00279211997986,0.567543029785
74,0.0122170448303,0.0202741622925,0.0218329429626,0.00265789031982,0.569010019302
75,0.0124061107635,0.0201079845428,0.022204875946,0.00278496742249,0.595795154572
76,0.019314289093,0.0214910507202,0.0225019454956,0.0028281211853,0.605177879333
77,0.0113890171051,0.0199708938599,0.0219299793243,0.00229501724243,0.57364988327
78,0.0175440311432,0.0202698707581,0.0217900276184,0.0024881362915,0.612380981445
79,0.011864900589,0.0205829143524,0.022439956665,0.00258302688599,0.616302967072
80,0.0147838592529,0.0194158554077,0.02259516716,0.00214505195618,0.59695482254
81,0.0178880691528,0.0199279785156,0.0211169719696,0.00219798088074,0.608726024628
82,0.0105140209198,0.019336938858,0.0214250087738,0.00218796730042,0.640512943268
83,0.0189108848572,0.0186240673065,0.0223560333252,0.00204396247864,0.622208833694
84,0.0125589370728,0.018415927887,0.0238199234009,0.00240898132324,0.620452165604
85,0.0121748447418,0.0211701393127,0.0224959850311,0.00283408164978,0.63037109375
86,0.0190119743347,0.0207901000977,0.0224978923798,0.00264716148376,0.662920951843
87,0.0111501216888,0.0208129882812,0.0221028327942,0.00275993347168,0.67636013031
88,0.0173311233521,0.0199489593506,0.0214750766754,0.00230407714844,0.64441204071
89,0.0118782520294,0.0193378925323,0.020956993103,0.00205016136169,0.653837919235
90,0.0149307250977,0.0183408260345,0.0207240581512,0.00194692611694,0.665869951248
91,0.0175278186798,0.0180320739746,0.0202858448029,0.00182390213013,0.670767068863
92,0.00995421409607,0.0179829597473,0.0210900306702,0.00192904472351,0.667956113815
93,0.019250869751,0.0191719532013,0.0211708545685,0.00186204910278,0.692761898041
94,0.0125598907471,0.0175471305847,0.0202808380127,0.00197291374207,0.687344074249
95,0.0124430656433,0.0176849365234,0.020886182785,0.00181007385254,0.697044849396
96,0.0196912288666,0.0183668136597,0.0204508304596,0.00180792808533,0.706835985184
97,0.0114398002625,0.0237319469452,0.0232319831848,0.00304794311523,0.971539020538
98,0.0174920558929,0.0211250782013,0.0232059955597,0.00288605690002,0.72682595253
99,0.011883020401,0.0208878517151,0.022127866745,0.00247502326965,0.722326993942
