step,run,get,set,free,run_up_to_step
0,0.0379018783569,0.0330839157104,0.0338428020477,0.0065541267395,0.0394418239594
1,0.0279381275177,0.0313739776611,0.0343010425568,0.00664091110229,0.0652480125427
2,0.0285038948059,0.0309340953827,0.0319919586182,0.00662899017334,0.0869419574738
3,0.175223827362,0.0305378437042,0.0390508174896,0.00848603248596,0.11067199707
4,0.027813911438,0.0314428806305,0.032910823822,0.00668096542358,0.141575813293
5,0.030353307724,0.0308148860931,0.0321328639984,0.00667095184326,0.156361103058
6,0.0284080505371,0.0308420658112,0.0328900814056,0.00773787498474,0.186847925186
7,0.0288097858429,0.0322160720825,0.0322968959808,0.00673294067383,0.219331979752
8,0.0285680294037,0.0325040817261,0.032299041748,0.00667095184326,0.255801916122
9,0.0287480354309,0.0313069820404,0.032653093338,0.00669121742249,0.279134988785
10,0.0281791687012,0.0313448905945,0.0342688560486,0.00664687156677,0.293805122375
11,0.0279619693756,0.0312669277191,0.0326850414276,0.00668287277222,0.323476076126
12,0.0280139446259,0.0306420326233,0.0359048843384,0.00789904594421,0.32449388504
13,0.0285220146179,0.031996011734,0.0605180263519,0.013934135437,0.592448949814
14,0.0387239456177,0.0435070991516,0.0328991413116,0.00667786598206,0.580917835236
15,0.0284640789032,0.0314049720764,0.0342199802399,0.00721096992493,0.460788965225
16,0.035560131073,0.0359711647034,0.0348770618439,0.00667309761047,0.452208042145
17,0.0284049510956,0.0317709445953,0.035257101059,0.00756597518921,0.441376924515
18,0.0281019210815,0.0311250686646,0.0331649780273,0.00704193115234,0.472203016281
19,0.0284609794617,0.0317151546478,0.0331828594208,0.00665712356567,0.490446090698
20,0.0283789634705,0.0314049720764,0.0321650505066,0.00821089744568,0.520071983337
21,0.02765583992,0.0305972099304,0.0405330657959,0.0104908943176,0.815462827682
22,0.0285909175873,0.0325350761414,0.0329160690308,0.00672817230225,0.561256885529
23,0.0338699817657,0.0378971099854,0.0466501712799,0.0091609954834,0.638297080994
24,0.0283787250519,0.0308780670166,0.0325779914856,0.00662398338318,0.658027887344
25,0.0278167724609,0.0307049751282,0.0325059890747,0.00662803649902,0.652456045151
26,0.0283229351044,0.0351319313049,0.03329205513,0.00943398475647,1.01452517509
27,0.037369966507,0.0349209308624,0.0386369228363,0.00925993919373,0.797709941864
28,0.0280652046204,0.0309431552887,0.0326519012451,0.00669693946838,0.737283945084
29,0.0280630588531,0.0307650566101,0.0322139263153,0.00882005691528,1.04360699654
30,0.0350911617279,0.0306680202484,0.0322580337524,0.00753808021545,0.744688987732
31,0.0346517562866,0.030739068985,0.0331118106842,0.00664710998535,0.767878055573
32,0.0286040306091,0.0311961174011,0.0323929786682,0.00758504867554,1.19279408455
33,0.0457339286804,0.0367569923401,0.0377929210663,0.00829792022705,0.89271402359
34,0.0378439426422,0.0430870056152,0.0326030254364,0.00667786598206,1.1612238884
35,0.0282380580902,0.0311839580536,0.0360879898071,0.0102250576019,1.26060295105
36,0.0350441932678,0.0435738563538,0.0339469909668,0.00726199150085,0.907982826233
37,0.0426480770111,0.0343999862671,0.0326528549194,0.00666189193726,0.936701059341
38,0.0319018363953,0.0310080051422,0.0329110622406,0.00734806060791,0.960981845856
39,0.0325479507446,0.0305969715118,0.053631067276,0.0070219039917,1.00712203979
40,0.0279560089111,0.0306689739227,0.0355341434479,0.00662183761597,1.01866912842
41,0.0289831161499,0.0318288803101,0.0325939655304,0.00740599632263,1.05051279068
42,0.0282287597656,0.0307879447937,0.0338640213013,0.007896900177,1.02332901955
43,0.0281050205231,0.0308539867401,0.0325338840485,0.00836515426636,1.04554700851
44,0.0279378890991,0.030800819397,0.0330619812012,0.00845003128052,1.09092593193
45,0.0378000736237,0.0361928939819,0.0354290008545,0.00708699226379,1.46420907974
46,0.0280799865723,0.0312149524689,0.0325710773468,0.00681209564209,1.54340100288
47,0.027932882309,0.0307929515839,0.0327169895172,0.00670289993286,1.17209506035
48,0.0282459259033,0.031564950943,0.0350890159607,0.00861096382141,1.42531204224
49,0.0294830799103,0.03391289711,0.0335299968719,0.00674510002136,1.19325590134
50,0.0282731056213,0.0310659408569,0.0335469245911,0.0113110542297,1.78285098076
51,0.0285749435425,0.0314130783081,0.0323779582977,0.00669980049133,1.25577712059
52,0.0305440425873,0.0313189029694,0.0319519042969,0.00672817230225,1.29673099518
53,0.0280520915985,0.031317949295,0.0330200195312,0.00778698921204,1.69963598251
54,0.0283091068268,0.031299829483,0.0327179431915,0.00688910484314,1.33592200279
55,0.0384659767151,0.0362739562988,0.0376040935516,0.0082221031189,1.60305500031
56,0.0290920734406,0.031259059906,0.0463190078735,0.0075671672821,1.45626497269
57,0.0285649299622,0.0313549041748,0.0335299968719,0.00754690170288,1.59368491173
58,0.0302488803864,0.0311589241028,0.0330181121826,0.00672483444214,1.59986114502
59,0.0296161174774,0.0315880775452,0.033460855484,0.00684595108032,1.51612997055
60,0.0283360481262,0.0315849781036,0.0332970619202,0.00744104385376,2.05995798111
61,0.0297420024872,0.0326130390167,0.0327010154724,0.00699710845947,1.52529215813
62,0.0291440486908,0.0314791202545,0.0345530509949,0.00817918777466,1.54152393341
63,0.0287530422211,0.0315408706665,0.0333619117737,0.00700306892395,1.60444188118
64,0.0322749614716,0.0346450805664,0.0337438583374,0.00920701026917,2.10175704956
65,0.0394747257233,0.0368311405182,0.0362839698792,0.00762915611267,2.05593395233
66,0.0472390651703,0.0560030937195,0.0473761558533,0.00937294960022,1.94661307335
67,0.0284478664398,0.0313370227814,0.0337338447571,0.00789713859558,2.10187411308
68,0.029415845871,0.0325360298157,0.033497095108,0.00695991516113,1.81990003586
69,0.0463809967041,0.030837059021,0.0327179431915,0.00668597221375,1.6857149601
70,0.0399830341339,0.0316350460052,0.034343957901,0.00686502456665,2.19974589348
71,0.0351209640503,0.0310130119324,0.0325169563293,0.00669693946838,1.76073288918
72,0.0402798652649,0.0373828411102,0.0340948104858,0.00767111778259,1.95582008362
73,0.0357310771942,0.0314099788666,0.0341448783875,0.00847196578979,1.8209540844
74,0.0292890071869,0.0334420204163,0.0349807739258,0.00945496559143,1.86903882027
75,0.0319828987122,0.0370950698853,0.0556690692902,0.00944399833679,1.8568789959
76,0.0323281288147,0.0313858985901,0.0326080322266,0.00782203674316,2.52656984329
77,0.0379598140717,0.0428709983826,0.0326130390167,0.00672101974487,1.98801183701
78,0.035227060318,0.0320088863373,0.0360040664673,0.00682711601257,2.32864904404
79,0.0294539928436,0.031229019165,0.0323579311371,0.00666403770447,2.16894507408
80,0.0351033210754,0.0308859348297,0.0343611240387,0.0072021484375,2.07291817665
81,0.0354380607605,0.0313818454742,0.0330381393433,0.00872588157654,2.56220722198
82,0.036367893219,0.0312640666962,0.0351209640503,0.00682282447815,2.05504202843
83,0.0399010181427,0.0338349342346,0.0348799228668,0.00745797157288,2.07788491249
84,0.0337600708008,0.0326600074768,0.0341520309448,0.00820994377136,2.21619391441
85,0.0357301235199,0.0312819480896,0.0347638130188,0.00672101974487,2.25315618515
86,0.0348942279816,0.0315520763397,0.0337212085724,0.00891208648682,3.29137301445
87,0.0363490581512,0.0319981575012,0.0340650081635,0.00721597671509,2.22022199631
88,0.041375875473,0.0392332077026,0.0618798732758,0.00776410102844,2.27196907997
89,0.0352528095245,0.0311889648438,0.0337328910828,0.00751399993896,2.29366111755
90,0.0307219028473,0.0310199260712,0.0329539775848,0.00688195228577,2.27134180069
91,0.0350489616394,0.0337657928467,0.0336050987244,0.00688195228577,2.36563587189
92,0.0350329875946,0.0307679176331,0.0340487957001,0.00867700576782,2.33458304405
93,0.0356225967407,0.0308721065521,0.0327990055084,0.00673794746399,2.40367078781
94,0.0349631309509,0.0312910079956,0.0390169620514,0.00822901725769,2.80857205391
95,0.0281240940094,0.0313429832458,0.0332989692688,0.00743699073792,3.19383192062
96,0.0474889278412,0.0308628082275,0.0377299785614,0.00700092315674,2.54052400589
97,0.035758972168,0.0307548046112,0.0332329273224,0.00752186775208,2.52652812004
98,0.041895866394,0.0308799743652,0.0332210063934,0.00709295272827,2.46627998352
99,0.0383529663086,0.0352520942688,0.033723115921,0.0078010559082,2.49476599693
