step,run,get,set,free,run_up_to_step
0,0.325423002243,0.0908150672913,0.092973947525,0.0165300369263,0.318044900894
1,0.0617349147797,0.083860874176,0.0908470153809,0.0160760879517,0.361387014389
2,0.0583701133728,0.085963010788,0.0886719226837,0.0266768932343,0.698853969574
3,0.0566699504852,0.0832710266113,0.0888168811798,0.0165469646454,0.511877059937
4,0.0387558937073,0.115823984146,0.087917804718,0.0228099822998,0.38022518158
5,0.112431049347,0.086905002594,0.0870521068573,0.0164160728455,0.460193872452
6,0.125806093216,0.0849068164825,0.0890929698944,0.0168449878693,0.697937011719
7,0.0802359580994,0.105428934097,0.0959858894348,0.0225601196289,0.489201068878
8,0.0635340213776,0.0896370410919,0.116520881653,0.0189611911774,0.730958938599
9,0.0534739494324,0.0904388427734,0.0916409492493,0.0283069610596,0.534628152847
10,0.0572369098663,0.0877470970154,0.093316078186,0.0174889564514,0.498059034348
11,0.0711472034454,0.0875020027161,0.0899908542633,0.0214750766754,0.546993970871
12,0.0579578876495,0.0852439403534,0.0915129184723,0.0223979949951,0.484102964401
13,0.0328209400177,0.0892820358276,0.0896880626678,0.0219788551331,0.53937292099
14,0.0400259494781,0.085911989212,0.120985031128,0.0162878036499,0.721596002579
15,0.0502409934998,0.0874671936035,0.0867269039154,0.0163729190826,0.524163007736
16,0.0538618564606,0.0922648906708,0.0892798900604,0.02747797966,0.614413022995
17,0.0621898174286,0.0823659896851,0.083783864975,0.052699804306,0.547996044159
18,0.0334410667419,0.0809199810028,0.0897648334503,0.0217289924622,0.766550064087
19,0.0327980518341,0.0851979255676,0.0916841030121,0.0216400623322,0.513757944107
20,0.0290429592133,0.085953950882,0.091020822525,0.0213220119476,0.629253149033
21,0.0393431186676,0.108941078186,0.0847239494324,0.0258600711823,0.534584999084
22,0.0517120361328,0.0837230682373,0.0916428565979,0.0242741107941,0.674788951874
23,0.051155090332,0.114577054977,0.0932588577271,0.021842956543,0.547590970993
24,0.0441100597382,0.0870380401611,0.0927081108093,0.0222539901733,0.548099040985
25,0.051164150238,0.0899770259857,0.0885307788849,0.0243771076202,0.574597835541
26,0.0509920120239,0.085501909256,0.116816043854,0.0161869525909,1.21054387093
27,0.0347628593445,0.0872011184692,0.0930922031403,0.0246999263763,0.665613889694
28,0.0339066982269,0.0866029262543,0.0932250022888,0.0222320556641,0.631358861923
29,0.0440301895142,0.0851500034332,0.0875480175018,0.026221036911,0.55299782753
30,0.0201418399811,0.112967967987,0.0916438102722,0.0219330787659,0.647772789001
31,0.0533120632172,0.0892810821533,0.089851140976,0.0275461673737,0.582195043564
32,0.0660150051117,0.117613077164,0.115749120712,0.0244190692902,1.07828307152
33,0.0420119762421,0.0940809249878,0.11513876915,0.0267851352692,0.595823049545
34,0.0284838676453,0.0846681594849,0.0992460250854,0.0185830593109,0.759054899216
35,0.0511400699615,0.0895829200745,0.0894939899445,0.0275020599365,0.714483976364
36,0.0510940551758,0.0931539535522,0.124768018723,0.0549731254578,0.649530887604
37,0.0232801437378,0.0955350399017,0.0923039913177,0.0285661220551,0.574980974197
38,0.0679750442505,0.108371019363,0.0937061309814,0.0180940628052,0.768875837326
39,0.0433008670807,0.0860149860382,0.0894210338593,0.0296659469604,0.54998588562
40,0.030925989151,0.0893919467926,0.0829269886017,0.0265130996704,0.819256067276
41,0.0477380752563,0.0975959300995,0.0930678844452,0.0240838527679,0.638205051422
42,0.0192790031433,0.0860059261322,0.0913739204407,0.0164589881897,0.612296104431
43,0.0316128730774,0.0877079963684,0.0922908782959,0.0218179225922,0.568228006363
44,0.0330259799957,0.0910530090332,0.0920259952545,0.0211310386658,0.604407072067
45,0.0231659412384,0.107326030731,0.0933470726013,0.0257518291473,0.621181964874
46,0.0389089584351,0.0947580337524,0.0933520793915,0.0167210102081,0.623118877411
47,0.0443601608276,0.0867221355438,0.0894539356232,0.0216009616852,0.616324901581
48,0.0438599586487,0.08997797966,0.0930709838867,0.0193920135498,0.754433870316
49,0.0661239624023,0.0950031280518,0.0961260795593,0.0225648880005,0.896656036377
50,0.0254800319672,0.0901160240173,0.108824968338,0.023866891861,0.674968004227
51,0.0512368679047,0.0888950824738,0.0981569290161,0.0276799201965,0.646421194077
52,0.0359497070312,0.0936870574951,0.10095000267,0.0625929832458,0.582892179489
53,0.0473599433899,0.0870578289032,0.0903010368347,0.0176320075989,0.878258943558
54,0.0452568531036,0.105013847351,0.0906829833984,0.0172679424286,0.63605594635
55,0.0451021194458,0.0980038642883,0.0893578529358,0.0252029895782,0.744280099869
56,0.0221121311188,0.0923678874969,0.0951161384583,0.0238180160522,0.638554096222
57,0.0224049091339,0.0916659832001,0.086207151413,0.0177488327026,0.622800111771
58,0.0345768928528,0.0977699756622,0.0859789848328,0.0230479240417,0.620138168335
59,0.0495872497559,0.095409154892,0.0956208705902,0.0235500335693,0.638360023499
60,0.0260899066925,0.0877840518951,0.096333026886,0.0208530426025,0.918859004974
61,0.0571980476379,0.0937640666962,0.0944609642029,0.0260119438171,0.760848045349
62,0.135731935501,0.108316898346,0.099023103714,0.0225710868835,0.805311918259
63,0.0758271217346,0.122678995132,0.105973958969,0.024927854538,0.952141046524
64,0.0523219108582,0.0951280593872,0.0952150821686,0.0284249782562,1.20405387878
65,0.0536770820618,0.0957319736481,0.0965249538422,0.029196023941,1.08284807205
66,0.0411369800568,0.0956201553345,0.0941059589386,0.0237219333649,1.03413414955
67,0.524931192398,0.0870401859283,0.0926020145416,0.0256321430206,2.20191001892
68,0.103537797928,0.0941660404205,0.0966839790344,0.0207149982452,1.19929409027
69,0.159170866013,0.122343063354,0.0906808376312,0.0253388881683,1.53204417229
70,0.0841889381409,0.0919787883759,0.113574028015,0.0268318653107,2.94680118561
71,0.137621879578,0.101835012436,0.0984830856323,0.0225639343262,1.60666394234
72,0.222189188004,0.0955119132996,0.0918989181519,0.0276300907135,1.71893501282
73,0.0865180492401,0.0958061218262,0.0915389060974,0.0285539627075,1.84404397011
74,0.120860099792,0.0874590873718,0.094230890274,0.0228159427643,2.65841293335
75,0.0912938117981,0.0918409824371,0.0901010036469,0.0254030227661,2.07028388977
76,0.379218816757,0.0934059619904,0.0985188484192,0.016529083252,2.1764550209
77,0.0929577350616,0.0875580310822,0.118113994598,0.0256578922272,2.60875511169
78,0.0655517578125,0.0921058654785,0.0939288139343,0.0184679031372,1.95850801468
79,0.0556597709656,0.0929720401764,0.094202041626,0.0232400894165,2.01687598228
80,0.0610480308533,0.0908758640289,0.110680103302,0.0238599777222,2.25600099564
81,0.0836448669434,0.112385988235,0.086287021637,0.0248289108276,2.00344014168
82,0.0602509975433,0.0923180580139,0.0945589542389,0.0220439434052,2.00997209549
83,0.0352611541748,0.0982120037079,0.0933659076691,0.0208818912506,2.05575203896
84,0.0327088832855,0.0860481262207,0.105229854584,0.0317099094391,2.96829795837
85,0.0399889945984,0.0891599655151,0.0931990146637,0.0211939811707,2.91230893135
86,0.0248799324036,0.0916049480438,0.0947549343109,0.0209200382233,2.2847878933
87,0.0494070053101,0.089460849762,0.0952060222626,0.0264658927917,2.79756617546
88,0.0255839824677,0.0914530754089,0.0939719676971,0.0168159008026,2.28295111656
89,0.0352811813354,0.0926079750061,0.0914611816406,0.0212750434875,2.38228702545
90,0.0654737949371,0.0924789905548,0.100156068802,0.0168550014496,2.43775391579
91,0.0279030799866,0.0906670093536,0.0994019508362,0.0230729579926,3.47804689407
92,0.0352351665497,0.0941169261932,0.0918850898743,0.0174589157104,2.45071816444
93,0.0586879253387,0.0933349132538,0.0940630435944,0.0211191177368,2.46160101891
94,0.11398100853,0.0870218276978,0.103077888489,0.0234820842743,3.02661991119
95,0.0597469806671,0.0881419181824,0.0926840305328,0.0219781398773,2.45923900604
96,0.0281400680542,0.0925490856171,0.0915019512177,0.0185861587524,2.65669798851
97,0.307800769806,0.0935220718384,0.0996520519257,0.020318031311,3.36791205406
98,0.0633840560913,0.0882701873779,0.092010974884,0.0169370174408,2.53551602364
99,0.0680129528046,0.0939161777496,0.0938279628754,0.0203769207001,2.59631085396
