step,run,get,set,free,run_up_to_step
0,0.0728390216827,0.0305280685425,0.0286490917206,0.00598216056824,0.07426404953
1,0.00652313232422,0.0275621414185,0.0280148983002,0.0058479309082,0.0712900161743
2,0.00719285011292,0.0276229381561,0.028315782547,0.00572109222412,0.0796880722046
3,0.00785899162292,0.0284588336945,0.0300040245056,0.00580596923828,0.075660943985
4,0.00974178314209,0.0286560058594,0.0296890735626,0.00580883026123,0.0840148925781
5,0.00740694999695,0.0277240276337,0.0317809581757,0.00728106498718,0.083456993103
6,0.00775003433228,0.0298070907593,0.0313959121704,0.00632500648499,0.0832099914551
7,0.00846910476685,0.0282690525055,0.0301461219788,0.00686693191528,0.0831451416016
8,0.0125241279602,0.0289402008057,0.0293757915497,0.00596308708191,0.13586807251
9,0.00890111923218,0.0291140079498,0.0303630828857,0.00588893890381,0.0905499458313
10,0.0122480392456,0.0284650325775,0.0297939777374,0.00601100921631,0.13182592392
11,0.00909209251404,0.0298399925232,0.0300469398499,0.0059928894043,0.0920419692993
12,0.0129199028015,0.0279040336609,0.0354928970337,0.00595593452454,0.140409946442
13,0.00796508789062,0.0285429954529,0.029983997345,0.0059540271759,0.0953500270844
14,0.00814008712769,0.0289340019226,0.032655954361,0.0068941116333,0.0983581542969
15,0.0070469379425,0.0292749404907,0.0303928852081,0.00601100921631,0.0984921455383
16,0.0125939846039,0.0535910129547,0.0314779281616,0.00606799125671,0.0979270935059
17,0.00872611999512,0.0300741195679,0.0317659378052,0.00682592391968,0.103085041046
18,0.0114002227783,0.0314750671387,0.0321190357208,0.00658082962036,0.10622382164
19,0.00892210006714,0.03084897995,0.0315268039703,0.00630402565002,0.149121046066
20,0.00823497772217,0.0299580097198,0.0302631855011,0.00671887397766,0.104840993881
21,0.00775408744812,0.0308470726013,0.0311000347137,0.00646090507507,0.110113859177
22,0.00909471511841,0.0283789634705,0.0297229290009,0.00585603713989,0.239821195602
23,0.00888109207153,0.0283980369568,0.0294280052185,0.00596499443054,0.106220960617
24,0.00970101356506,0.0277879238129,0.0294561386108,0.00596499443054,0.153365850449
25,0.00776791572571,0.0292181968689,0.0298709869385,0.00676202774048,0.113488912582
26,0.0128700733185,0.0282790660858,0.0306038856506,0.00672292709351,0.15917801857
27,0.00895810127258,0.0305891036987,0.0294759273529,0.00590991973877,0.129934072495
28,0.0136749744415,0.0288259983063,0.0296778678894,0.00670719146729,0.118576049805
29,0.00854802131653,0.0289950370789,0.0302109718323,0.00663900375366,0.162631034851
30,0.0134551525116,0.0281190872192,0.0292859077454,0.00601696968079,0.121308088303
31,0.00908994674683,0.0285618305206,0.0296869277954,0.00598406791687,0.159723997116
32,0.0127382278442,0.0292770862579,0.0303719043732,0.00677180290222,0.120126962662
33,0.00936412811279,0.0299220085144,0.029935836792,0.00601196289062,0.127969026566
34,0.0127220153809,0.0288112163544,0.0297968387604,0.006432056427,0.172099113464
35,0.0128619670868,0.0297868251801,0.030219078064,0.00604104995728,0.126102924347
36,0.00967502593994,0.0293209552765,0.0297939777374,0.00644993782043,0.172168970108
37,0.0077919960022,0.053071975708,0.0302619934082,0.00712203979492,0.127998113632
38,0.0079870223999,0.028706073761,0.0298159122467,0.00632786750793,0.18134188652
39,0.00807905197144,0.0301420688629,0.0310258865356,0.0063259601593,0.1349401474
40,0.00790596008301,0.0301759243011,0.0303738117218,0.00662207603455,0.186947107315
41,0.0129940509796,0.0294070243835,0.0299911499023,0.00690293312073,0.160331010818
42,0.00895810127258,0.0304238796234,0.0307919979095,0.00656414031982,0.177984952927
43,0.0103459358215,0.0314099788666,0.031632900238,0.00657796859741,0.138430833817
44,0.0203530788422,0.0354828834534,0.0334630012512,0.00719904899597,0.140246868134
45,0.0169038772583,0.0317370891571,0.031751871109,0.00779294967651,0.207487106323
46,0.00837230682373,0.032958984375,0.0339992046356,0.00792002677917,0.163480043411
47,0.0106148719788,0.0324048995972,0.0297958850861,0.00619292259216,0.367899894714
48,0.0076470375061,0.0303339958191,0.0299770832062,0.00705003738403,0.151584863663
49,0.0153150558472,0.0294508934021,0.0442910194397,0.00758600234985,0.199062824249
50,0.00822281837463,0.0311851501465,0.0313019752502,0.00696802139282,0.168109893799
51,0.0093400478363,0.0312609672546,0.0337870121002,0.00732493400574,0.220225095749
52,0.008465051651,0.0297110080719,0.0304210186005,0.00612902641296,0.17740893364
53,0.00730466842651,0.0289011001587,0.0306529998779,0.00615787506104,0.211277961731
54,0.0128910541534,0.0304329395294,0.0518500804901,0.00753498077393,0.155570030212
55,0.00898218154907,0.0292718410492,0.0311510562897,0.00612878799438,0.209367990494
56,0.00893497467041,0.0303220748901,0.0316910743713,0.00682997703552,0.164386987686
57,0.0120320320129,0.02947306633,0.0310950279236,0.00604915618896,0.20827794075
58,0.00800180435181,0.0305359363556,0.0306148529053,0.00640416145325,0.162860870361
59,0.0148377418518,0.0298459529877,0.031270980835,0.00621008872986,0.192124843597
60,0.0145761966705,0.0313591957092,0.0311639308929,0.00714802742004,0.169415950775
61,0.00856709480286,0.0321049690247,0.0313758850098,0.00687503814697,0.196192026138
62,0.0129220485687,0.0320751667023,0.0315399169922,0.00660705566406,0.174288988113
63,0.0174741744995,0.0315239429474,0.0317931175232,0.00644111633301,0.199939966202
64,0.00774598121643,0.0327301025391,0.0314218997955,0.00771999359131,0.170717000961
65,0.0183351039886,0.0315191745758,0.0310649871826,0.00638794898987,0.230190038681
66,0.0078182220459,0.0332889556885,0.0311172008514,0.00656604766846,0.174782037735
67,0.0105400085449,0.0319490432739,0.0318689346313,0.00642704963684,0.233469963074
68,0.0241599082947,0.0354909896851,0.0315759181976,0.00684094429016,0.174924135208
69,0.00989294052124,0.0289249420166,0.0308949947357,0.00608491897583,0.375144004822
70,0.0125017166138,0.0331420898438,0.0349102020264,0.00758099555969,0.199934959412
71,0.0105230808258,0.0314290523529,0.0335109233856,0.0073709487915,0.279761075974
72,0.0107491016388,0.0322589874268,0.0307040214539,0.00678396224976,0.179617166519
73,0.0205948352814,0.0320620536804,0.0307040214539,0.00650191307068,0.250445842743
74,0.0074782371521,0.0311260223389,0.0313339233398,0.00629615783691,0.21465587616
75,0.0126538276672,0.0294020175934,0.0314028263092,0.00671696662903,0.244988918304
76,0.0109407901764,0.0310211181641,0.0313310623169,0.0065860748291,0.187633037567
77,0.0161020755768,0.0302069187164,0.0310380458832,0.00631713867188,0.215210199356
78,0.0109448432922,0.0311579704285,0.0337970256805,0.00751399993896,0.192013025284
79,0.015524148941,0.0305829048157,0.0315709114075,0.00618004798889,0.212304115295
80,0.0257761478424,0.0336599349976,0.0345690250397,0.00759291648865,0.197084903717
81,0.0137901306152,0.0314450263977,0.0317740440369,0.00631904602051,0.196277141571
82,0.00905895233154,0.0324878692627,0.0351650714874,0.00733685493469,0.198714017868
83,0.0267298221588,0.0353198051453,0.0333769321442,0.00667309761047,0.204250097275
84,0.0121440887451,0.0331330299377,0.0339949131012,0.00655603408813,0.231979131699
85,0.0157618522644,0.0329008102417,0.0325150489807,0.00641298294067,0.206782102585
86,0.0125758647919,0.0332911014557,0.0359270572662,0.00801301002502,0.238712072372
87,0.0131530761719,0.0344860553741,0.0325539112091,0.00765895843506,0.207338094711
88,0.0159101486206,0.0334501266479,0.0337429046631,0.0065279006958,0.270112037659
89,0.00798106193542,0.0347578525543,0.0370759963989,0.00631380081177,0.209187984467
90,0.0179531574249,0.0297508239746,0.0312268733978,0.00655889511108,0.354261875153
91,0.0094747543335,0.0308659076691,0.0310020446777,0.00611591339111,0.206768035889
92,0.0114009380341,0.0298690795898,0.0363759994507,0.00778889656067,0.245820999146
93,0.0134060382843,0.0315890312195,0.0316770076752,0.00662684440613,0.218892097473
94,0.0137190818787,0.0297441482544,0.0310029983521,0.00664401054382,0.272193908691
95,0.0138869285583,0.0321049690247,0.0328350067139,0.00709891319275,0.219454050064
96,0.0137388706207,0.0315420627594,0.0316889286041,0.0061948299408,0.220091819763
97,0.0146729946136,0.0323030948639,0.0320048332214,0.00623893737793,0.2523188591
98,0.0165793895721,0.0327699184418,0.0318710803986,0.00789713859558,0.222325086594
99,0.0134508609772,0.0329048633575,0.0318779945374,0.00622701644897,0.256773948669
