step,run,get,set,free,run_up_to_step
0,0.00910878181458,0.00610184669495,0.00511002540588,0.000736951828003,0.0109128952026
1,0.00649213790894,0.00554490089417,0.00501990318298,0.000750064849854,0.0127069950104
2,0.00529909133911,0.00538516044617,0.0059540271759,0.000852108001709,0.0141251087189
3,0.00533199310303,0.00567102432251,0.00524711608887,0.000756978988647,0.0161020755768
4,0.00420308113098,0.00578498840332,0.0054771900177,0.00078296661377,0.0172669887543
5,0.00394105911255,0.00580310821533,0.00547289848328,0.000982046127319,0.0180268287659
6,0.00459671020508,0.00602698326111,0.00539398193359,0.000862836837769,0.0682549476624
7,0.00474309921265,0.00592303276062,0.00516700744629,0.000793933868408,0.0310010910034
8,0.00408720970154,0.0058970451355,0.00546288490295,0.000845909118652,0.0212850570679
9,0.00407290458679,0.00596189498901,0.00535583496094,0.00080418586731,0.0219051837921
10,0.00415897369385,0.00635194778442,0.00545001029968,0.000805854797363,0.0244009494781
11,0.00424408912659,0.00606417655945,0.00540113449097,0.000809907913208,0.0247972011566
12,0.00399899482727,0.00592184066772,0.0054337978363,0.000809907913208,0.029345035553
13,0.00402498245239,0.00600600242615,0.00555014610291,0.000831127166748,0.0269680023193
14,0.0238497257233,0.00556612014771,0.00533103942871,0.000788927078247,0.026859998703
15,0.00380802154541,0.00565314292908,0.00531005859375,0.00081992149353,0.0361881256104
16,0.00382590293884,0.00578498840332,0.00526404380798,0.000783920288086,0.0354821681976
17,0.00387907028198,0.00596904754639,0.00518417358398,0.000801086425781,0.0367031097412
18,0.00382208824158,0.00597286224365,0.00521206855774,0.000792980194092,0.0309100151062
19,0.00320816040039,0.00584602355957,0.00525808334351,0.000784873962402,0.0319368839264
20,0.00998210906982,0.00661587715149,0.00531482696533,0.000778913497925,0.0438327789307
21,0.003741979599,0.00589489936829,0.00563192367554,0.000972032546997,0.0462028980255
22,0.00348091125488,0.00574398040771,0.00534415245056,0.000836133956909,0.0362720489502
23,0.00371909141541,0.00595688819885,0.00541305541992,0.000833988189697,0.0355150699615
24,0.00328302383423,0.00601100921631,0.00538897514343,0.000821113586426,0.0366921424866
25,0.00324630737305,0.0060019493103,0.00541281700134,0.000833034515381,0.0378849506378
26,0.00603103637695,0.00608897209167,0.00541591644287,0.000858068466187,0.0441720485687
27,0.00349187850952,0.00557398796082,0.00531411170959,0.000880002975464,0.0397582054138
28,0.00322794914246,0.00602102279663,0.00528693199158,0.000792026519775,0.0473809242249
29,0.00320506095886,0.00586199760437,0.00563907623291,0.000892877578735,0.0488781929016
30,0.00323796272278,0.0058867931366,0.0054178237915,0.00081205368042,0.0445010662079
31,0.0031590461731,0.00592398643494,0.00522994995117,0.000781059265137,0.059467792511
32,0.00318098068237,0.00582695007324,0.00524806976318,0.000808000564575,0.0444049835205
33,0.0032012462616,0.00577211380005,0.00515818595886,0.00078010559082,0.0518789291382
34,0.00375914573669,0.00577807426453,0.00538682937622,0.000848054885864,0.0996160507202
35,0.00476098060608,0.00651693344116,0.00528287887573,0.00119113922119,0.0486209392548
36,0.00386571884155,0.00585317611694,0.00540685653687,0.000821113586426,0.0543241500854
37,0.00316882133484,0.00585317611694,0.00536704063416,0.00081205368042,0.0493638515472
38,0.00335216522217,0.00586009025574,0.00533318519592,0.000797033309937,0.0501070022583
39,0.00312900543213,0.00591492652893,0.00613188743591,0.000964879989624,0.0575070381165
40,0.00357794761658,0.00641894340515,0.00542521476746,0.000849008560181,0.062392950058
41,0.00370216369629,0.00618600845337,0.00551295280457,0.000890970230103,0.0529022216797
42,0.00290966033936,0.00632190704346,0.00548696517944,0.00086522102356,0.061331987381
43,0.0102910995483,0.00634813308716,0.0052809715271,0.000811100006104,0.0555069446564
44,0.00291705131531,0.00612902641296,0.00691199302673,0.00148797035217,0.0625019073486
45,0.00960898399353,0.00678300857544,0.00584101676941,0.000917911529541,0.0633449554443
46,0.00311279296875,0.00653314590454,0.00556182861328,0.000890970230103,0.0645608901978
47,0.00319886207581,0.00658917427063,0.00600910186768,0.00117611885071,0.0643508434296
48,0.00306797027588,0.0061559677124,0.00523281097412,0.00080418586731,0.0615010261536
49,0.00292992591858,0.00594902038574,0.00532507896423,0.000802040100098,0.0708320140839
50,0.00293111801147,0.00577092170715,0.00644993782043,0.00100302696228,0.0665860176086
51,0.00322103500366,0.00683403015137,0.00558495521545,0.000901937484741,0.0621888637543
52,0.003014087677,0.00650811195374,0.00538110733032,0.000854015350342,0.0696220397949
53,0.00325679779053,0.00637984275818,0.00554609298706,0.00086498260498,0.093209028244
54,0.00289511680603,0.00613808631897,0.00525093078613,0.000810146331787,0.0718941688538
55,0.00361704826355,0.00605702400208,0.00688290596008,0.00105285644531,0.0715420246124
56,0.003005027771,0.00681614875793,0.00575017929077,0.000910043716431,0.282414913177
57,0.00294995307922,0.00679588317871,0.00566506385803,0.000910997390747,0.0769128799438
58,0.00289511680603,0.00647807121277,0.00534391403198,0.000824928283691,0.0767140388489
59,0.00303602218628,0.00628709793091,0.00517416000366,0.00079607963562,0.07639503479
60,0.00426506996155,0.00699687004089,0.0056459903717,0.000836133956909,0.0773849487305
61,0.00305485725403,0.0059540271759,0.00555300712585,0.000921964645386,0.209062099457
62,0.00291109085083,0.00608682632446,0.00557398796082,0.000885009765625,0.0794191360474
63,0.00287103652954,0.0063259601593,0.00527906417847,0.000839948654175,0.073390007019
64,0.00302672386169,0.00612497329712,0.00542807579041,0.000859975814819,0.0822658538818
65,0.00292587280273,0.00625586509705,0.0056300163269,0.00101113319397,0.0816538333893
66,0.00285410881042,0.00586605072021,0.00519800186157,0.000785112380981,0.0778520107269
67,0.0101180076599,0.00625586509705,0.00585699081421,0.000923156738281,0.0779280662537
68,0.00325894355774,0.00685095787048,0.0058228969574,0.000927925109863,0.0835270881653
69,0.00285720825195,0.00627779960632,0.00531911849976,0.000829935073853,0.0853290557861
70,0.00288796424866,0.00614094734192,0.00596714019775,0.000967025756836,0.335673093796
71,0.00280284881592,0.00597500801086,0.00647521018982,0.00095796585083,0.0790011882782
72,0.00397300720215,0.00650095939636,0.00567603111267,0.000913858413696,0.0890710353851
73,0.00347995758057,0.00663089752197,0.00602388381958,0.00119590759277,0.0888841152191
74,0.00311493873596,0.00623893737793,0.00536394119263,0.000853061676025,0.0904519557953
75,0.0102400779724,0.0059540271759,0.00523209571838,0.000808954238892,0.0834250450134
76,0.00284695625305,0.00650596618652,0.0058171749115,0.000900030136108,0.155618906021
77,0.00310087203979,0.00656199455261,0.00570702552795,0.000890970230103,0.0915229320526
78,0.222434043884,0.00650715827942,0.00547385215759,0.000893115997314,0.0933089256287
79,0.00279688835144,0.00607800483704,0.00514197349548,0.000797986984253,0.0892739295959
80,0.0028989315033,0.0056209564209,0.00646209716797,0.00101590156555,0.112140893936
81,0.00296115875244,0.00685405731201,0.00555610656738,0.000899076461792,0.0900738239288
82,0.00303816795349,0.00671005249023,0.00566816329956,0.000910997390747,0.0913310050964
83,0.00291705131531,0.00629496574402,0.00538611412048,0.000838994979858,0.0916330814362
84,0.0103659629822,0.00595808029175,0.00525403022766,0.000799179077148,0.0958499908447
85,0.00294280052185,0.00662803649902,0.00571608543396,0.000933170318604,0.158957958221
86,0.00292992591858,0.00679993629456,0.00553321838379,0.00086498260498,0.0945539474487
87,0.00359988212585,0.00685811042786,0.00534296035767,0.000846862792969,0.106950998306
88,0.00304985046387,0.0060760974884,0.00525403022766,0.000817060470581,0.0963451862335
89,0.00289916992188,0.0058319568634,0.00653386116028,0.00101399421692,0.0966730117798
90,0.0039176940918,0.00676703453064,0.00561380386353,0.000910997390747,0.105190992355
91,0.00284886360168,0.00665593147278,0.00540494918823,0.000869989395142,0.104596853256
92,0.00289797782898,0.00663590431213,0.0056369304657,0.000908851623535,0.107105016708
93,0.00294089317322,0.0061559677124,0.00519204139709,0.000808000564575,0.1031229496
94,0.002934217453,0.0066978931427,0.00603795051575,0.00097393989563,0.169737100601
95,0.00310707092285,0.00674986839294,0.00568008422852,0.000884056091309,0.109776973724
96,0.00302815437317,0.00652408599854,0.00554704666138,0.000858068466187,0.116312980652
97,0.00280976295471,0.00613498687744,0.00534105300903,0.000818014144897,0.114707946777
98,0.00330805778503,0.00714612007141,0.00574898719788,0.000935077667236,0.104480981827
99,0.00296020507812,0.00681591033936,0.00551915168762,0.000909090042114,0.121053934097
