step,run,get,set,free,run_up_to_step
0,0.0133190155029,0.00760507583618,0.00752782821655,0.000735998153687,0.0144889354706
1,0.00874090194702,0.00741410255432,0.00753688812256,0.000951051712036,0.0193250179291
2,0.00787997245789,0.00742483139038,0.00668787956238,0.00086498260498,0.0494718551636
3,0.00790977478027,0.00698113441467,0.00745987892151,0.000762939453125,0.0274620056152
4,0.00789499282837,0.00721597671509,0.0077109336853,0.000947952270508,0.0316569805145
5,0.00785112380981,0.00783205032349,0.00730323791504,0.000940084457397,0.0373659133911
6,0.00778102874756,0.00748181343079,0.00780701637268,0.000830173492432,0.0415399074554
7,0.00798106193542,0.00811004638672,0.00735116004944,0.000793218612671,0.0428969860077
8,0.00798797607422,0.00745296478271,0.0079128742218,0.0010199546814,0.0503740310669
9,0.00847697257996,0.0078489780426,0.00755000114441,0.000945091247559,0.055114030838
10,0.00872206687927,0.00758004188538,0.00744199752808,0.000734090805054,0.0576939582825
11,0.00943207740784,0.00805997848511,0.00754404067993,0.00106596946716,0.0811488628387
12,0.00822710990906,0.00758981704712,0.00829195976257,0.000755071640015,0.0691590309143
13,0.0088529586792,0.00780391693115,0.00744795799255,0.000840902328491,0.0728130340576
14,0.00853085517883,0.00769209861755,0.00738382339478,0.000777959823608,0.0763669013977
15,0.00829219818115,0.00871801376343,0.00878810882568,0.000919103622437,0.113940954208
16,0.00783896446228,0.00816702842712,0.00787997245789,0.000895023345947,0.0856227874756
17,0.00802302360535,0.00756692886353,0.00824594497681,0.000959873199463,0.0906610488892
18,0.00798201560974,0.0076789855957,0.0075261592865,0.000972032546997,0.0938990116119
19,0.00808191299438,0.00799798965454,0.00792694091797,0.000931978225708,0.111227035522
20,0.00787711143494,0.00750494003296,0.00751113891602,0.000927925109863,0.102905035019
21,0.00798797607422,0.0074291229248,0.00819396972656,0.000946044921875,0.104676008224
22,0.00746703147888,0.00807905197144,0.00781893730164,0.000927925109863,0.109000921249
23,0.00799012184143,0.00797986984253,0.00812101364136,0.000958919525146,0.125826120377
24,0.00819706916809,0.00769901275635,0.00753211975098,0.000825166702271,0.121886968613
25,0.00945401191711,0.0079460144043,0.00804996490479,0.000838994979858,0.148476839066
26,0.00813293457031,0.00739693641663,0.00778698921204,0.000977039337158,0.127333879471
27,0.0085141658783,0.00748801231384,0.00825190544128,0.00103688240051,0.126958847046
28,0.00830078125,0.00811100006104,0.00755906105042,0.000870943069458,0.278510093689
29,0.00828409194946,0.00740003585815,0.00771808624268,0.000790119171143,0.140895843506
30,0.0079140663147,0.00775599479675,0.00771403312683,0.000996112823486,0.145139932632
31,0.00808596611023,0.00716090202332,0.00759887695312,0.000873804092407,0.140966892242
32,0.00801801681519,0.00790095329285,0.00753998756409,0.000981092453003,0.183466911316
33,0.00885796546936,0.00749897956848,0.00763916969299,0.000736951828003,0.154741048813
34,0.00811219215393,0.00810885429382,0.00808787345886,0.000905990600586,0.190971136093
35,0.00794100761414,0.00751709938049,0.00886011123657,0.000994920730591,0.168590068817
36,0.00806307792664,0.00783801078796,0.00752401351929,0.000837087631226,0.171030044556
37,0.00818514823914,0.00833082199097,0.0073721408844,0.000847816467285,0.194226980209
38,0.00809812545776,0.00703883171082,0.00753211975098,0.000730037689209,0.179880857468
39,0.00890707969666,0.00822305679321,0.00749206542969,0.000798225402832,0.18604016304
40,0.00992107391357,0.00729298591614,0.00778603553772,0.00100708007812,0.185849905014
41,0.00671696662903,0.00677084922791,0.00792717933655,0.000836849212646,0.186369180679
42,0.00688409805298,0.00774002075195,0.00803709030151,0.000786066055298,0.21563410759
43,0.00688314437866,0.00804495811462,0.00834512710571,0.000932931900024,0.193958997726
44,0.00656008720398,0.00829005241394,0.00986194610596,0.00121688842773,0.195923805237
45,0.00716781616211,0.00826787948608,0.00781512260437,0.000756978988647,0.206592082977
46,0.00668978691101,0.00769209861755,0.00815892219543,0.00097393989563,0.22739481926
47,0.00638794898987,0.00730609893799,0.00959300994873,0.00116419792175,0.206227064133
48,0.00707912445068,0.00803184509277,0.00769400596619,0.000902891159058,0.210493087769
49,0.00697088241577,0.00810790061951,0.00811386108398,0.000823020935059,0.234932184219
50,0.00781607627869,0.00743889808655,0.00777697563171,0.000767946243286,0.217206954956
51,0.00957298278809,0.00618410110474,0.00787687301636,0.000761985778809,0.230488061905
52,0.00826716423035,0.00846982002258,0.00826501846313,0.000893115997314,0.232232093811
53,0.00735998153687,0.0075409412384,0.007728099823,0.000788927078247,0.235970973969
54,0.00760102272034,0.00710010528564,0.00761008262634,0.000701904296875,0.264299154282
55,0.00744986534119,0.00767016410828,0.00736284255981,0.000831842422485,0.265563964844
56,0.00727915763855,0.00723910331726,0.00650811195374,0.00081205368042,0.248539924622
57,0.00763010978699,0.00759816169739,0.00779795646667,0.000876903533936,0.376564979553
58,0.00802803039551,0.00778698921204,0.00802898406982,0.000757932662964,0.26162314415
59,0.00762128829956,0.00657296180725,0.00802493095398,0.000735998153687,0.261010169983
60,0.0102882385254,0.00791788101196,0.00811290740967,0.000808954238892,0.268349885941
61,0.00651812553406,0.00753998756409,0.00754690170288,0.000814914703369,0.272107124329
62,0.0068621635437,0.00814485549927,0.00791692733765,0.000807046890259,0.289336919785
63,0.00687694549561,0.00770807266235,0.00753307342529,0.000726938247681,0.274317979813
64,0.0052490234375,0.00722098350525,0.00619316101074,0.00084114074707,0.281428098679
65,0.00687980651855,0.00710201263428,0.00703811645508,0.000908851623535,0.279036045074
66,0.00852417945862,0.0072979927063,0.00749492645264,0.00070595741272,0.336735010147
67,0.00685000419617,0.00719118118286,0.00768208503723,0.000683069229126,0.284345149994
68,0.00710701942444,0.00739717483521,0.00848698616028,0.00089693069458,0.29406619072
69,0.00679898262024,0.00710010528564,0.00734090805054,0.00068998336792,0.294205904007
70,0.00757813453674,0.00762605667114,0.00722002983093,0.000808954238892,0.299940824509
71,0.00994300842285,0.00802707672119,0.00804615020752,0.000833034515381,0.603748083115
72,0.00803208351135,0.00806403160095,0.0081160068512,0.00096321105957,0.322629928589
73,0.00772285461426,0.00802993774414,0.00754404067993,0.000957012176514,0.317347049713
74,0.00888705253601,0.00754690170288,0.00768303871155,0.000792026519775,0.322011947632
75,0.00759887695312,0.00771999359131,0.00814294815063,0.000771999359131,0.345530033112
76,0.00948882102966,0.00768113136292,0.00821089744568,0.000772953033447,0.34960603714
77,0.00772404670715,0.00732398033142,0.00800490379333,0.000731945037842,0.337968826294
78,0.00779604911804,0.00770401954651,0.00756883621216,0.000916004180908,0.338062047958
79,0.00909900665283,0.00744581222534,0.0076150894165,0.000736951828003,0.350342035294
80,0.0102367401123,0.00761198997498,0.00749111175537,0.000863075256348,0.35261797905
81,0.00690197944641,0.00712895393372,0.00710511207581,0.000750064849854,0.353452920914
82,0.00682425498962,0.00711393356323,0.00713801383972,0.000738859176636,0.356299877167
83,0.00659012794495,0.00707912445068,0.00819897651672,0.00096607208252,0.363517045975
84,0.0128440856934,0.0076961517334,0.00830388069153,0.00089693069458,0.359626054764
85,0.00702404975891,0.0076539516449,0.00815892219543,0.000811100006104,0.37668299675
86,0.00693273544312,0.00782799720764,0.00779700279236,0.000787973403931,0.377140045166
87,0.00706505775452,0.00769519805908,0.00745701789856,0.000722885131836,0.372572898865
88,0.00666618347168,0.00799894332886,0.00687479972839,0.000977993011475,0.380098104477
89,0.00675010681152,0.00740504264832,0.00806784629822,0.000839948654175,0.406075954437
90,0.00774621963501,0.0079870223999,0.00808095932007,0.000753879547119,0.381844997406
91,0.00956010818481,0.00711584091187,0.00805401802063,0.000772953033447,0.390984773636
92,0.00801706314087,0.00815892219543,0.00785899162292,0.000850915908813,0.391093015671
93,0.0083532333374,0.00782299041748,0.00791001319885,0.000761985778809,0.424514055252
94,0.00803995132446,0.0073390007019,0.00781297683716,0.00086784362793,0.406053066254
95,0.0067298412323,0.00751781463623,0.00962400436401,0.000811100006104,0.408284902573
96,0.00763177871704,0.00735902786255,0.00845694541931,0.00103306770325,0.408721923828
97,0.00779604911804,0.00827097892761,0.00538897514343,0.000600099563599,0.402495145798
98,0.00532078742981,0.00682091712952,0.0051429271698,0.000638961791992,0.398283958435
99,0.0079550743103,0.00820589065552,0.00811386108398,0.00108814239502,0.455561161041
