step,run,get,set,free,run_up_to_step
0,0.00534009933472,0.00379085540771,0.00367188453674,0.000327110290527,0.0059380531311
1,0.00385928153992,0.00364279747009,0.00380206108093,0.000329971313477,0.00668096542358
2,0.00362825393677,0.00376200675964,0.00350999832153,0.000334024429321,0.0074520111084
3,0.00344824790955,0.00355505943298,0.00355410575867,0.000332832336426,0.0198111534119
4,0.00348305702209,0.00371098518372,0.00380110740662,0.000353813171387,0.0200650691986
5,0.00356507301331,0.00373816490173,0.00373101234436,0.000333786010742,0.0101101398468
6,0.00392889976501,0.00379395484924,0.00371813774109,0.000360012054443,0.01109790802
7,0.00360083580017,0.00346112251282,0.0038161277771,0.000349998474121,0.0178170204163
8,0.00521969795227,0.00381112098694,0.00386095046997,0.000358104705811,0.0138731002808
9,0.00489783287048,0.00379109382629,0.00379395484924,0.000334024429321,0.0148630142212
10,0.00371599197388,0.00370812416077,0.00372886657715,0.000335931777954,0.0160410404205
11,0.00369119644165,0.00377607345581,0.00349187850952,0.000336170196533,0.0165688991547
12,0.00371384620667,0.00356602668762,0.00371503829956,0.00042200088501,0.0176498889923
13,0.00377106666565,0.0036199092865,0.00387501716614,0.000334024429321,0.0191011428833
14,0.00392484664917,0.00366187095642,0.00411820411682,0.000441074371338,0.0195519924164
15,0.00373196601868,0.00399398803711,0.00401091575623,0.000361919403076,0.0205509662628
16,0.00386118888855,0.00385093688965,0.00386095046997,0.000356912612915,0.021479845047
17,0.00399303436279,0.0038001537323,0.00389003753662,0.000414133071899,0.0222411155701
18,0.00365900993347,0.00381088256836,0.00380897521973,0.000350952148438,0.0230531692505
19,0.00382614135742,0.00365900993347,0.00384998321533,0.000354051589966,0.0238540172577
20,0.00361585617065,0.00387001037598,0.00387597084045,0.000340938568115,0.0247819423676
21,0.00376296043396,0.00364995002747,0.004145860672,0.000391960144043,0.0262129306793
22,0.00361108779907,0.00400710105896,0.0042200088501,0.000399827957153,0.0271100997925
23,0.00371909141541,0.00390791893005,0.00403523445129,0.000375986099243,0.0277647972107
24,0.00472402572632,0.00389695167542,0.00396800041199,0.000370979309082,0.0274481773376
25,0.00387692451477,0.00377202033997,0.0040819644928,0.000391960144043,0.0415451526642
26,0.00426626205444,0.00395202636719,0.00390911102295,0.000365018844604,0.0307509899139
27,0.00416898727417,0.00381588935852,0.00400805473328,0.00045108795166,0.0320160388947
28,0.00385904312134,0.00364708900452,0.00415992736816,0.000419855117798,0.0319309234619
29,0.003751039505,0.00397300720215,0.00399780273438,0.000392913818359,0.0332579612732
30,0.00410485267639,0.00390911102295,0.00411319732666,0.000375986099243,0.0343668460846
31,0.00385093688965,0.00395512580872,0.0040590763092,0.000382900238037,0.0360949039459
32,0.00408506393433,0.00406312942505,0.00401902198792,0.000452995300293,0.0350000858307
33,0.00378179550171,0.00388813018799,0.0040488243103,0.00037693977356,0.0368518829346
34,0.00359201431274,0.00399112701416,0.00393605232239,0.000371932983398,0.0374040603638
35,0.00389814376831,0.00387191772461,0.00444006919861,0.000431060791016,0.038361787796
36,0.0037260055542,0.00414419174194,0.0040819644928,0.000415802001953,0.0403478145599
37,0.00356388092041,0.00429916381836,0.00422692298889,0.000507116317749,0.040568113327
38,0.00373911857605,0.00417399406433,0.00402617454529,0.000483989715576,0.0418658256531
39,0.0037260055542,0.00405192375183,0.00388598442078,0.00036883354187,0.0428187847137
40,0.00377106666565,0.00390696525574,0.00374984741211,0.000355005264282,0.0431001186371
41,0.00505709648132,0.00379204750061,0.00404500961304,0.000351190567017,0.0446310043335
42,0.00356578826904,0.00439405441284,0.00432801246643,0.0003981590271,0.126943826675
43,0.00357723236084,0.00419902801514,0.00422310829163,0.00047492980957,0.0458240509033
44,0.00401592254639,0.00405097007751,0.00420594215393,0.000383138656616,0.0472848415375
45,0.00357389450073,0.00415110588074,0.00415420532227,0.000391006469727,0.0484809875488
46,0.00368404388428,0.00399899482727,0.00419878959656,0.000400066375732,0.0493810176849
47,0.00392889976501,0.00391793251038,0.0038161277771,0.000361919403076,0.0494999885559
48,0.00381207466125,0.00370597839355,0.00413298606873,0.000498056411743,0.0505139827728
49,0.00359010696411,0.00415802001953,0.00418305397034,0.000395059585571,0.0520370006561
50,0.00386905670166,0.00409412384033,0.00401496887207,0.000497102737427,0.0538499355316
51,0.00438117980957,0.00409317016602,0.00401997566223,0.000411987304688,0.0519380569458
52,0.00496912002563,0.0039279460907,0.00384092330933,0.000532150268555,0.050537109375
53,0.00378489494324,0.00376105308533,0.0046660900116,0.000579118728638,0.0550351142883
54,0.00401616096497,0.00416898727417,0.00424599647522,0.000472068786621,0.0564279556274
55,0.00385212898254,0.00405597686768,0.00409412384033,0.000535011291504,0.0569779872894
56,0.0036792755127,0.00380182266235,0.00379705429077,0.000347852706909,0.0579409599304
57,0.00374484062195,0.0038149356842,0.00374817848206,0.000338077545166,0.058580160141
58,0.00496411323547,0.00360107421875,0.00449705123901,0.000519990921021,0.0605731010437
59,0.00362396240234,0.00431799888611,0.00408101081848,0.000386953353882,0.0605850219727
60,0.00358772277832,0.004145860672,0.00379395484924,0.000391960144043,0.0629179477692
61,0.00357699394226,0.00404095649719,0.00381803512573,0.000488042831421,0.0632441043854
62,0.00368118286133,0.00341796875,0.00384092330933,0.000382900238037,0.057657957077
63,0.00351405143738,0.00356292724609,0.00440192222595,0.000401020050049,0.0645101070404
64,0.00374388694763,0.0040020942688,0.0038149356842,0.00037693977356,0.0664789676666
65,0.0039210319519,0.00398302078247,0.00368189811707,0.000387191772461,0.0665431022644
66,0.00369620323181,0.004075050354,0.00438094139099,0.000502824783325,0.0691561698914
67,0.00386309623718,0.00425577163696,0.00421500205994,0.000370979309082,0.068216085434
68,0.00469708442688,0.00393390655518,0.00387406349182,0.000396966934204,0.067813873291
69,0.00376319885254,0.00413799285889,0.00406193733215,0.000394105911255,0.14048409462
70,0.00350022315979,0.00399208068848,0.00399303436279,0.000379085540771,0.072417974472
71,0.00474190711975,0.00397181510925,0.00393509864807,0.000369071960449,0.0719630718231
72,0.00371909141541,0.00395512580872,0.00377297401428,0.000415086746216,0.0737729072571
73,0.00370788574219,0.00386595726013,0.00374388694763,0.000339984893799,0.0733940601349
74,0.00523090362549,0.00417399406433,0.0040979385376,0.00040602684021,0.132387876511
75,0.00509786605835,0.00375699996948,0.00416398048401,0.000405073165894,0.0740778446198
76,0.00343704223633,0.00403499603271,0.00411200523376,0.00042200088501,0.0785038471222
77,0.00373911857605,0.00380706787109,0.00401091575623,0.00039005279541,0.078173160553
78,0.00365018844604,0.0039370059967,0.00448298454285,0.000430822372437,0.079195022583
79,0.00367403030396,0.00425505638123,0.0041720867157,0.000398874282837,0.0809090137482
80,0.00377488136292,0.00410294532776,0.00408887863159,0.000380992889404,0.0815761089325
81,0.0036678314209,0.00382399559021,0.00395393371582,0.000355005264282,0.0820500850677
82,0.00384163856506,0.00357794761658,0.0037670135498,0.000424146652222,0.0830290317535
83,0.00351214408875,0.00413203239441,0.00425291061401,0.000415086746216,0.138840198517
84,0.00370097160339,0.004075050354,0.00417399406433,0.000387907028198,0.0860748291016
85,0.00365304946899,0.00394797325134,0.0038959980011,0.000411987304688,0.0862219333649
86,0.0037841796875,0.00379586219788,0.00392699241638,0.00034499168396,0.0874660015106
87,0.0634322166443,0.0043580532074,0.00414705276489,0.000411033630371,0.0893311500549
88,0.00385785102844,0.0041298866272,0.00418186187744,0.000438213348389,0.089380979538
89,0.00369811058044,0.00398302078247,0.00411891937256,0.000365972518921,0.0901830196381
90,0.00351810455322,0.00376296043396,0.00376796722412,0.000354051589966,0.0919151306152
91,0.00379800796509,0.00357580184937,0.00446891784668,0.000407934188843,0.0908241271973
92,0.00415897369385,0.00418305397034,0.00435209274292,0.000387907028198,0.0933089256287
93,0.00342965126038,0.00414204597473,0.00395798683167,0.000360012054443,0.0937647819519
94,0.0038731098175,0.00388813018799,0.00391101837158,0.000368118286133,0.0948498249054
95,0.00368571281433,0.00395488739014,0.00369882583618,0.000339984893799,0.0945451259613
96,0.00387096405029,0.00462698936462,0.00425791740417,0.000402927398682,0.150646924973
97,0.00380611419678,0.00408697128296,0.00384402275085,0.000468969345093,0.0979800224304
98,0.00389003753662,0.00405097007751,0.00421380996704,0.000504016876221,0.100485086441
99,0.00377583503723,0.00366878509521,0.00382995605469,0.000369071960449,0.0985250473022
