step,run,get,set,free,run_up_to_step
0,0.00334811210632,0.0016770362854,0.0014591217041,0.000196933746338,0.00557589530945
1,0.00978899002075,0.00150203704834,0.00152707099915,0.000207901000977,0.00492286682129
2,0.00288224220276,0.00150895118713,0.00149917602539,0.000198125839233,0.0125510692596
3,0.00293707847595,0.00151109695435,0.00151801109314,0.00019907951355,0.013130903244
4,0.00284910202026,0.00150179862976,0.00152492523193,0.000210046768188,0.00748610496521
5,0.00283694267273,0.00153398513794,0.00160002708435,0.000210046768188,0.00816106796265
6,0.00314497947693,0.00157690048218,0.00150394439697,0.000205039978027,0.00976991653442
7,0.00336313247681,0.0015709400177,0.00172019004822,0.000253915786743,0.010715007782
8,0.00354909896851,0.00159692764282,0.00154399871826,0.000210046768188,0.0256879329681
9,0.00378704071045,0.00161600112915,0.00155591964722,0.000211000442505,0.0120859146118
10,0.0097930431366,0.00156188011169,0.00154900550842,0.000211954116821,0.0352048873901
11,0.00954580307007,0.00169086456299,0.00170111656189,0.000231981277466,0.0341680049896
12,0.00395321846008,0.00171399116516,0.00168299674988,0.00021505355835,0.0200350284576
13,0.00427389144897,0.00172996520996,0.0016758441925,0.000221014022827,0.0224750041962
14,0.00400805473328,0.00165295600891,0.00168704986572,0.000223875045776,0.0365498065948
15,0.00375413894653,0.00163102149963,0.00161504745483,0.000212907791138,0.0168719291687
16,0.00324487686157,0.00163102149963,0.00156617164612,0.000200986862183,0.0345621109009
17,0.00307297706604,0.00171804428101,0.00152802467346,0.000211000442505,0.0803589820862
18,0.00305080413818,0.00163292884827,0.0015230178833,0.000213861465454,0.0272209644318
19,0.00354790687561,0.00152087211609,0.00151395797729,0.00020694732666,0.0198330879211
20,0.00289392471313,0.00147223472595,0.00155901908875,0.000203132629395,0.0211741924286
21,0.00281810760498,0.00149703025818,0.00153613090515,0.000200033187866,0.021458864212
22,0.00304698944092,0.00151395797729,0.00150203704834,0.000197887420654,0.0349049568176
23,0.00284600257874,0.00149393081665,0.00153493881226,0.000198125839233,0.0362160205841
24,0.00286173820496,0.00149202346802,0.00161004066467,0.000209808349609,0.0308129787445
25,0.00292825698853,0.00153613090515,0.00180220603943,0.000240802764893,0.0579080581665
26,0.00333189964294,0.00158500671387,0.00150609016418,0.000205993652344,0.0322618484497
27,0.00907707214355,0.00159311294556,0.00156188011169,0.000207901000977,0.0284669399261
28,0.00315999984741,0.00149512290955,0.00150203704834,0.000203132629395,0.0384850502014
29,0.00292086601257,0.00151991844177,0.00153589248657,0.000204086303711,0.0275640487671
30,0.00281000137329,0.00148391723633,0.00154209136963,0.000200033187866,0.0352139472961
31,0.00710320472717,0.00153493881226,0.00150299072266,0.000196933746338,0.0650839805603
32,0.00282883644104,0.00148510932922,0.00152111053467,0.00019907951355,0.0365331172943
33,0.00290513038635,0.00168013572693,0.00151705741882,0.000218868255615,0.0855798721313
34,0.0035080909729,0.00147604942322,0.0014820098877,0.000200033187866,0.0336029529572
35,0.00294494628906,0.0014660358429,0.00150895118713,0.00019907951355,0.032595872879
36,0.00976610183716,0.00150084495544,0.00154781341553,0.000200986862183,0.0471320152283
37,0.00313806533813,0.00146698951721,0.00146698951721,0.00019907951355,0.0405321121216
38,0.00344586372375,0.00142383575439,0.00151014328003,0.000200986862183,0.0481598377228
39,0.00292897224426,0.00146985054016,0.00156283378601,0.000200986862183,0.0357320308685
40,0.0104568004608,0.00157999992371,0.00156497955322,0.000205993652344,0.0939750671387
41,0.00285124778748,0.00147891044617,0.00158405303955,0.000217914581299,0.04474401474
42,0.0105130672455,0.00143098831177,0.00151705741882,0.00019907951355,0.0448639392853
43,0.00293016433716,0.00149512290955,0.00151896476746,0.000199794769287,0.0451030731201
44,0.00435519218445,0.00146293640137,0.00158309936523,0.000200033187866,0.0587720870972
45,0.00286984443665,0.00160813331604,0.00154399871826,0.000197887420654,0.0462207794189
46,0.00287008285522,0.00178098678589,0.0015070438385,0.000203847885132,0.11408495903
47,0.00278377532959,0.00167989730835,0.00158500671387,0.000205993652344,0.0537858009338
48,0.00321698188782,0.00157499313354,0.00151991844177,0.000201940536499,0.0501959323883
49,0.00312209129333,0.00159096717834,0.00149989128113,0.000202894210815,0.0547289848328
50,0.00349092483521,0.00143098831177,0.00154900550842,0.000201940536499,0.0511560440063
51,0.0034921169281,0.00143909454346,0.00150990486145,0.000201940536499,0.0470218658447
52,0.00285196304321,0.0015230178833,0.00175714492798,0.000236034393311,0.0568017959595
53,0.00293207168579,0.00167107582092,0.00150799751282,0.000205039978027,0.0553328990936
54,0.0028989315033,0.00164008140564,0.00159788131714,0.000205039978027,0.0490140914917
55,0.00286507606506,0.00160884857178,0.00155305862427,0.000201940536499,0.054878950119
56,0.00454711914062,0.00143194198608,0.00150394439697,0.00020694732666,0.0563228130341
57,0.00296115875244,0.0014910697937,0.00154113769531,0.000198841094971,0.0700478553772
58,0.00332093238831,0.00170612335205,0.00207495689392,0.000263929367065,0.0678181648254
59,0.00298094749451,0.00174784660339,0.0016667842865,0.000209808349609,0.0610752105713
60,0.00297713279724,0.00169086456299,0.00174880027771,0.000211000442505,0.0615770816803
61,0.010883808136,0.00164294242859,0.00158214569092,0.000208139419556,0.0786559581757
62,0.00319218635559,0.00151515007019,0.00153017044067,0.000205039978027,0.0649709701538
63,0.00957703590393,0.00156211853027,0.00157713890076,0.000198841094971,0.0659279823303
64,0.0029308795929,0.00183606147766,0.00152897834778,0.000205993652344,0.161320924759
65,0.00284099578857,0.00170588493347,0.00167107582092,0.000205993652344,0.0710518360138
66,0.00293302536011,0.00167798995972,0.00165009498596,0.00020694732666,0.072007894516
67,0.00291991233826,0.00153684616089,0.00151801109314,0.000200986862183,0.0590422153473
68,0.0103430747986,0.00142383575439,0.00151610374451,0.000198841094971,0.0634548664093
69,0.00318431854248,0.00169396400452,0.00159406661987,0.000220060348511,0.260483026505
70,0.0103228092194,0.00161194801331,0.0014820098877,0.000205039978027,0.0720069408417
71,0.0035982131958,0.00163316726685,0.00151991844177,0.000204086303711,0.0729742050171
72,0.00296592712402,0.00161099433899,0.0015811920166,0.000216007232666,0.0700800418854
73,0.00302910804749,0.00158405303955,0.00157809257507,0.000203132629395,0.0679278373718
74,0.00294184684753,0.00155186653137,0.00176000595093,0.000257015228271,0.063196182251
75,0.00289225578308,0.00170397758484,0.00150918960571,0.000202894210815,0.0794959068298
76,0.00287389755249,0.00171494483948,0.00157594680786,0.000204086303711,0.0833959579468
77,0.00293612480164,0.00166296958923,0.00161504745483,0.000204086303711,0.0773408412933
78,0.00332999229431,0.00153994560242,0.00161504745483,0.000204086303711,0.0856249332428
79,0.082200050354,0.00201511383057,0.00180101394653,0.000216007232666,0.268123149872
80,0.00393605232239,0.00170207023621,0.00151300430298,0.000205039978027,0.0751819610596
81,0.00292873382568,0.00164103507996,0.0015389919281,0.000205039978027,0.0764181613922
82,0.00287103652954,0.00154805183411,0.00159502029419,0.000203132629395,0.0760910511017
83,0.00289106369019,0.00144696235657,0.00151491165161,0.000204086303711,0.0838248729706
84,0.00291180610657,0.00190901756287,0.00169801712036,0.000213146209717,0.176213979721
85,0.00281691551208,0.00169801712036,0.00165486335754,0.000205993652344,0.0849511623383
86,0.00287413597107,0.00164699554443,0.00153613090515,0.000202894210815,0.0907120704651
87,0.00338101387024,0.00157189369202,0.00158596038818,0.000200986862183,0.112939834595
88,0.00308132171631,0.0014328956604,0.00147199630737,0.000219821929932,0.090922832489
89,0.00293588638306,0.00175905227661,0.0015389919281,0.000207901000977,0.1589448452
90,0.00332069396973,0.00175499916077,0.00164318084717,0.000204801559448,0.0772368907928
91,0.0029730796814,0.00168490409851,0.00159001350403,0.000202894210815,0.0844430923462
92,0.0030210018158,0.00158905982971,0.00157022476196,0.000201225280762,0.0843679904938
93,0.0639491081238,0.00205492973328,0.00171494483948,0.000216007232666,0.0860319137573
94,0.00284814834595,0.00176811218262,0.00161600112915,0.000208139419556,0.0801990032196
95,0.00288391113281,0.00171518325806,0.00166296958923,0.000203847885132,0.0896880626678
96,0.010370016098,0.0016131401062,0.00160503387451,0.000202894210815,0.0818400382996
97,0.00339102745056,0.00151395797729,0.0014979839325,0.000200986862183,0.0888550281525
98,0.00303316116333,0.00173091888428,0.00157594680786,0.000209093093872,0.145397901535
99,0.00313901901245,0.00171804428101,0.00153303146362,0.000202894210815,0.0900950431824
