step,run,get,set,free,run_up_to_step
0,0.0176568031311,0.0137531757355,0.012001991272,0.00187802314758,0.0430810451508
1,0.0184459686279,0.0123250484467,0.0122530460358,0.00193285942078,0.0309081077576
2,0.00800275802612,0.012109041214,0.0132210254669,0.00200986862183,0.0361919403076
3,0.00802111625671,0.0119321346283,0.0127370357513,0.00202107429504,0.0333878993988
4,0.0159089565277,0.0120248794556,0.0126111507416,0.00205993652344,0.036276102066
5,0.015753030777,0.0121760368347,0.0130960941315,0.00207495689392,0.0681369304657
6,0.0162518024445,0.0122408866882,0.0129978656769,0.00216507911682,0.0390820503235
7,0.0154638290405,0.0123870372772,0.0129330158234,0.00223803520203,0.0451209545135
8,0.00992178916931,0.0121381282806,0.0129210948944,0.00216484069824,0.105436086655
9,0.0151636600494,0.0123028755188,0.0127990245819,0.00214099884033,0.0482189655304
10,0.040727853775,0.0122349262238,0.0126340389252,0.00214910507202,0.0511689186096
11,0.022588968277,0.0121729373932,0.0125901699066,0.00209498405457,0.0564041137695
12,0.015527009964,0.0123491287231,0.0128111839294,0.00220608711243,0.0593948364258
13,0.0143818855286,0.0121309757233,0.0127749443054,0.00219988822937,0.0586919784546
14,0.0211811065674,0.0122938156128,0.0126550197601,0.00224280357361,0.052591085434
15,0.0154399871826,0.012268781662,0.0127198696136,0.00220394134521,0.0616858005524
16,0.0172469615936,0.0133950710297,0.0135300159454,0.00251007080078,0.215937137604
17,0.0155422687531,0.0124690532684,0.0125339031219,0.00221014022827,0.0995819568634
18,0.00828504562378,0.0123732089996,0.0127561092377,0.0023341178894,0.0939388275146
19,0.0217711925507,0.0128190517426,0.0126488208771,0.00252199172974,0.109942913055
20,0.00840306282043,0.0120410919189,0.0129520893097,0.00232601165771,0.205265045166
21,0.0111267566681,0.0124349594116,0.0129911899567,0.00237584114075,0.110515117645
22,0.00917291641235,0.0124700069427,0.0130159854889,0.0024950504303,0.0793850421906
23,0.00930714607239,0.0125060081482,0.013032913208,0.00251913070679,0.0670299530029
24,0.0159468650818,0.0124051570892,0.0128169059753,0.0024721622467,0.126543998718
25,0.00763773918152,0.0126349925995,0.0131039619446,0.002436876297,0.116000890732
26,0.0147948265076,0.0123341083527,0.0130350589752,0.00278091430664,0.0913379192352
27,0.0721070766449,0.0125238895416,0.0130760669708,0.00239396095276,0.123656988144
28,0.0311200618744,0.0126249790192,0.0132968425751,0.00250816345215,0.126028776169
29,0.0145790576935,0.0127899646759,0.013288974762,0.00266718864441,0.0989260673523
30,0.0148270130157,0.0128078460693,0.0133638381958,0.00264811515808,0.0863099098206
31,0.0172729492188,0.0128071308136,0.0132231712341,0.00259304046631,0.0730590820312
32,0.0230827331543,0.0131800174713,0.013011932373,0.00280904769897,0.0838801860809
33,0.0237078666687,0.0137600898743,0.0139408111572,0.00290703773499,0.0765950679779
34,0.0181949138641,0.0123429298401,0.0127878189087,0.00269722938538,0.0844690799713
35,0.0226943492889,0.0121538639069,0.0128870010376,0.00255489349365,0.124711990356
36,0.0224618911743,0.0127561092377,0.0137169361115,0.00271201133728,0.132493972778
37,0.0172479152679,0.0126309394836,0.01384806633,0.00311207771301,0.124459981918
38,0.0193779468536,0.0147500038147,0.0149872303009,0.00320816040039,0.161430120468
39,0.0207259654999,0.0136368274689,0.0135810375214,0.00272011756897,0.133420944214
40,0.0212497711182,0.0124590396881,0.0141730308533,0.00343799591064,0.115756988525
41,0.014909029007,0.0126259326935,0.0135040283203,0.00275492668152,0.114662885666
42,0.0161399841309,0.0128130912781,0.0136699676514,0.00285696983337,0.121119976044
43,0.0076220035553,0.0123391151428,0.0131559371948,0.00263690948486,0.202125072479
44,0.0164113044739,0.0127079486847,0.0135171413422,0.0026957988739,0.119510173798
45,0.00986289978027,0.0127410888672,0.013053894043,0.00266408920288,0.252815961838
46,0.0135889053345,0.0128238201141,0.0132591724396,0.00262689590454,0.241113185883
47,0.0225989818573,0.0126881599426,0.0134701728821,0.00274085998535,0.136878013611
48,0.0207331180573,0.0129461288452,0.0133490562439,0.00267004966736,0.286030054092
49,0.0165238380432,0.0129671096802,0.0133650302887,0.002681016922,0.170172214508
50,0.0227229595184,0.0128960609436,0.0134720802307,0.00265002250671,0.136772155762
51,0.0228581428528,0.0129859447479,0.0136070251465,0.00284099578857,0.139816045761
52,0.0251047611237,0.0137519836426,0.0139448642731,0.00277495384216,0.142303943634
53,0.021999835968,0.0137310028076,0.0142509937286,0.00294208526611,0.162601232529
54,0.0322620868683,0.0134057998657,0.0135111808777,0.0028510093689,0.249686002731
55,0.0249569416046,0.0126929283142,0.013338804245,0.00267291069031,0.170906066895
56,0.0156259536743,0.0128729343414,0.0137281417847,0.00278902053833,0.202707767487
57,0.0215339660645,0.0129160881042,0.0135760307312,0.00285005569458,0.1417760849
58,0.0151500701904,0.0131180286407,0.0138549804688,0.00291585922241,0.142701148987
59,0.0156242847443,0.0130279064178,0.0135588645935,0.00271606445312,0.122219800949
60,0.0147800445557,0.0130078792572,0.01380610466,0.00300884246826,0.352566957474
61,0.0152652263641,0.0132639408112,0.0135409832001,0.00313997268677,0.159435033798
62,0.0122199058533,0.0133199691772,0.0138850212097,0.00326704978943,0.160928964615
63,0.458839178085,0.0133190155029,0.0136170387268,0.00280284881592,0.144999027252
64,0.0257081985474,0.0130860805511,0.0138931274414,0.00300693511963,0.13170003891
65,0.0149149894714,0.0126240253448,0.0134909152985,0.00286722183228,0.362771034241
66,0.0210690498352,0.0125439167023,0.0134439468384,0.00281119346619,0.371495962143
67,0.0225749015808,0.0128350257874,0.013463973999,0.00277495384216,0.144240856171
68,0.0214869976044,0.012748003006,0.013258934021,0.00289487838745,0.131195068359
69,0.0227491855621,0.0128891468048,0.013298034668,0.00315809249878,0.146862030029
70,0.0268490314484,0.01256108284,0.0132069587708,0.00269198417664,0.158680915833
71,0.0558860301971,0.0131688117981,0.0133140087128,0.00288605690002,0.148857116699
72,0.0190939903259,0.0129089355469,0.013326883316,0.00271892547607,0.168791055679
73,0.0203227996826,0.0129451751709,0.0132777690887,0.00289392471313,0.155997991562
74,0.015153169632,0.0130400657654,0.0133798122406,0.00314784049988,0.111612081528
75,0.0537552833557,0.0130360126495,0.013149023056,0.00274682044983,0.127998113632
76,0.00997495651245,0.0125620365143,0.0139880180359,0.00312781333923,0.187191963196
77,0.0215780735016,0.0128362178802,0.0133018493652,0.00274705886841,0.200770139694
78,0.0220808982849,0.012925863266,0.0132329463959,0.00291419029236,0.172900915146
79,0.0229461193085,0.012647151947,0.0132839679718,0.00281000137329,0.116187095642
80,0.0188620090485,0.0127520561218,0.0131869316101,0.00269889831543,0.145864963531
81,0.0218660831451,0.0128440856934,0.013377904892,0.00299715995789,0.143760204315
82,0.0163888931274,0.0129380226135,0.0133581161499,0.00273203849792,0.14278793335
83,0.0222053527832,0.0129690170288,0.0132451057434,0.00308513641357,0.125112056732
84,0.0100400447845,0.0132310390472,0.0134310722351,0.00301003456116,0.149614810944
85,0.0194120407104,0.0131990909576,0.0135669708252,0.00288510322571,0.176294088364
86,0.546202898026,0.0138001441956,0.0151040554047,0.00318098068237,0.121735095978
87,0.0227551460266,0.0128729343414,0.0131900310516,0.00272798538208,0.168360948563
88,0.0254240036011,0.0127120018005,0.0129759311676,0.00287079811096,0.134025096893
89,0.00840282440186,0.0122919082642,0.0125069618225,0.00263905525208,0.129987001419
90,0.00935411453247,0.0125081539154,0.0123429298401,0.00264310836792,0.18385887146
91,0.0197010040283,0.0120718479156,0.0125470161438,0.00306916236877,0.209766864777
92,0.0224509239197,0.0126061439514,0.012521982193,0.00268697738647,0.186363935471
93,0.0154449939728,0.0125260353088,0.0128710269928,0.00268912315369,0.186410903931
94,0.0226709842682,0.0127761363983,0.013326883316,0.00276780128479,0.185627937317
95,0.0210158824921,0.0127861499786,0.0134189128876,0.00306487083435,0.192111968994
96,0.0228788852692,0.0129680633545,0.0130867958069,0.00296902656555,0.206197023392
97,0.02077293396,0.0129079818726,0.0135769844055,0.00288319587708,0.552410125732
98,0.00977301597595,0.0129370689392,0.0133819580078,0.00281286239624,0.191642045975
99,0.0244200229645,0.012913942337,0.013571023941,0.0028760433197,0.208436012268
