step,run,get,set,free,run_up_to_step
0,0.0050790309906,0.0041880607605,0.00404095649719,0.000560998916626,0.00602793693542
1,0.00682902336121,0.00444197654724,0.00435090065002,0.000661849975586,0.0086350440979
2,0.00623512268066,0.0040979385376,0.00399112701416,0.000579118728638,0.0100920200348
3,0.00604009628296,0.00416707992554,0.00421500205994,0.000672101974487,0.0114588737488
4,0.00613284111023,0.00409913063049,0.00426387786865,0.000595092773438,0.0137310028076
5,0.00605416297913,0.00407195091248,0.00411200523376,0.000752925872803,0.0153229236603
6,0.00693702697754,0.00412106513977,0.00431203842163,0.000802993774414,0.0191090106964
7,0.00601410865784,0.00421404838562,0.00442099571228,0.000692129135132,0.0215981006622
8,0.00611901283264,0.00408792495728,0.00414896011353,0.000601053237915,0.0208549499512
9,0.00605893135071,0.00409197807312,0.00422787666321,0.000622987747192,0.053689956665
10,0.00604391098022,0.00424981117249,0.00413584709167,0.000592947006226,0.0246641635895
11,0.00612807273865,0.00425601005554,0.00433301925659,0.00062108039856,0.0293319225311
12,0.00637221336365,0.00424599647522,0.00424003601074,0.000607967376709,0.0284600257874
13,0.00589990615845,0.00426411628723,0.00423502922058,0.000620126724243,0.0303339958191
14,0.00628805160522,0.00428485870361,0.00430202484131,0.000622034072876,0.0686860084534
15,0.0067663192749,0.00421190261841,0.00418496131897,0.000610113143921,0.0340750217438
16,0.00612807273865,0.00410580635071,0.00406193733215,0.000597953796387,0.0358128547668
17,0.0058069229126,0.00408387184143,0.0044469833374,0.000728845596313,0.0375020503998
18,0.00612378120422,0.00440406799316,0.00432682037354,0.000657081604004,0.0397338867188
19,0.00637221336365,0.00417995452881,0.00431394577026,0.000626087188721,0.041778087616
20,0.00597882270813,0.00408792495728,0.00396203994751,0.000608205795288,0.0434548854828
21,0.00581073760986,0.00398302078247,0.00474381446838,0.000726938247681,0.045825958252
22,0.00620722770691,0.00459218025208,0.00442314147949,0.000657081604004,0.047502040863
23,0.00583410263062,0.00447106361389,0.00434303283691,0.000711917877197,0.0711588859558
24,0.00607013702393,0.00420808792114,0.00424885749817,0.000617980957031,0.0509498119354
25,0.0059449672699,0.00408411026001,0.00471305847168,0.000725984573364,0.0525200366974
26,0.00612592697144,0.00459384918213,0.00453114509583,0.000655174255371,0.0591270923615
27,0.00623798370361,0.00447201728821,0.00424313545227,0.000634908676147,0.0568771362305
28,0.00667786598206,0.00407600402832,0.00420784950256,0.000602006912231,0.0583770275116
29,0.00668787956238,0.00478601455688,0.00465106964111,0.000691175460815,0.104872941971
30,0.00672197341919,0.00457096099854,0.00454306602478,0.000700950622559,0.0629291534424
31,0.00669002532959,0.00437712669373,0.00412011146545,0.000626087188721,0.0648331642151
32,0.00861310958862,0.00554394721985,0.00498199462891,0.000802993774414,0.12288403511
33,0.00823378562927,0.00532984733582,0.00453901290894,0.000674962997437,0.105803966522
34,0.00671195983887,0.004399061203,0.00431489944458,0.000626087188721,0.0807108879089
35,0.00730800628662,0.00427198410034,0.00502800941467,0.000821113586426,0.0941150188446
36,0.00784111022949,0.00543212890625,0.00480914115906,0.000704050064087,0.0830290317535
37,0.00699210166931,0.00477313995361,0.00414299964905,0.000655889511108,0.0890460014343
38,0.00661396980286,0.0041708946228,0.00416111946106,0.000592947006226,0.0805430412292
39,0.00650596618652,0.00417995452881,0.00429487228394,0.000627994537354,0.125912189484
40,0.00658798217773,0.00411581993103,0.0043420791626,0.000864028930664,0.0810599327087
41,0.00748896598816,0.00397801399231,0.00417017936707,0.000624179840088,0.0911190509796
42,0.00671792030334,0.00388288497925,0.00453400611877,0.000746965408325,0.0840890407562
43,0.00683307647705,0.00425910949707,0.004310131073,0.000650882720947,0.0864698886871
44,0.00780892372131,0.0040910243988,0.00418615341187,0.000638961791992,0.113785028458
45,0.00661301612854,0.00388097763062,0.00468611717224,0.000997066497803,0.0895881652832
46,0.00648713111877,0.0043830871582,0.00444793701172,0.000672101974487,0.0915310382843
47,0.00645804405212,0.00419497489929,0.00484299659729,0.000998020172119,0.0985260009766
48,0.00780606269836,0.00402903556824,0.00522398948669,0.00114989280701,0.099848985672
49,0.00822710990906,0.00492596626282,0.00477313995361,0.00101208686829,0.106662034988
50,0.00703310966492,0.00425505638123,0.0043740272522,0.000694036483765,0.108669996262
51,0.00668501853943,0.00406312942505,0.0047709941864,0.000757932662964,0.102063894272
52,0.00713205337524,0.00454902648926,0.00424790382385,0.000669002532959,0.112967014313
53,0.00709414482117,0.00440979003906,0.0043478012085,0.000686168670654,0.332501173019
54,0.00726294517517,0.0041720867157,0.00414395332336,0.000659942626953,0.139533996582
55,0.00672197341919,0.00465393066406,0.00458288192749,0.000735998153687,0.156612157822
56,0.00703406333923,0.00455188751221,0.00467491149902,0.000727891921997,0.14099407196
57,0.00673007965088,0.00434589385986,0.00427412986755,0.000669956207275,0.119240999222
58,0.00696921348572,0.00414705276489,0.00472784042358,0.000770092010498,0.114691019058
59,0.00690484046936,0.00461721420288,0.00499606132507,0.000890016555786,0.130393028259
60,0.0071439743042,0.00442290306091,0.00420689582825,0.000651836395264,0.137212991714
61,0.00695109367371,0.00481700897217,0.00474500656128,0.000724077224731,0.161516904831
62,0.00812077522278,0.00486707687378,0.00451302528381,0.000743865966797,0.132184028625
63,0.00763511657715,0.00449085235596,0.00435400009155,0.000701904296875,0.147711038589
64,0.00696873664856,0.00473213195801,0.00461983680725,0.000850200653076,0.17299413681
65,0.00678014755249,0.00429010391235,0.0041778087616,0.000663995742798,0.128350973129
66,0.00707101821899,0.00401711463928,0.00426197052002,0.000649929046631,0.128599882126
67,0.00704407691956,0.00488018989563,0.00464200973511,0.000741958618164,0.172898054123
68,0.00693202018738,0.0043089389801,0.0041651725769,0.000642061233521,0.134622812271
69,0.00697088241577,0.00389504432678,0.0040590763092,0.000633001327515,0.139846086502
70,0.00709104537964,0.00471496582031,0.00459098815918,0.000730037689209,0.180053949356
71,0.00682687759399,0.00428080558777,0.00424981117249,0.00065803527832,0.139358997345
72,0.00693297386169,0.00405693054199,0.00460195541382,0.000949144363403,0.140397071838
73,0.00674486160278,0.00442600250244,0.00435400009155,0.000720977783203,0.167251110077
74,0.00714182853699,0.00422191619873,0.00425314903259,0.000704050064087,0.144212007523
75,0.0079391002655,0.00453400611877,0.00453400611877,0.000722885131836,0.197770118713
76,0.00712704658508,0.00443387031555,0.00436997413635,0.000741958618164,0.14839887619
77,0.00690317153931,0.00457286834717,0.00454497337341,0.000754117965698,0.17681312561
78,0.00726723670959,0.00439119338989,0.0043830871582,0.000715017318726,0.182708978653
79,0.00707793235779,0.00422096252441,0.00412487983704,0.000678062438965,0.153755903244
80,0.00726294517517,0.00480794906616,0.00459909439087,0.000748157501221,0.18999505043
81,0.00871324539185,0.00433206558228,0.00438404083252,0.000759840011597,0.182684898376
82,0.00715732574463,0.00418615341187,0.00421810150146,0.000707864761353,0.159245014191
83,0.0111961364746,0.00456285476685,0.00436210632324,0.000720024108887,0.203412055969
84,0.00722289085388,0.00438499450684,0.00413703918457,0.000699043273926,0.163712978363
85,0.0080828666687,0.00435709953308,0.00450801849365,0.000746965408325,0.272489070892
86,0.0112028121948,0.00546288490295,0.0051851272583,0.000921964645386,0.29708814621
87,0.00729894638062,0.00427198410034,0.00458002090454,0.000769138336182,0.219054937363
88,0.00757718086243,0.00465106964111,0.00430011749268,0.000763893127441,0.222770214081
89,0.00719714164734,0.00425004959106,0.00413298606873,0.000682830810547,0.172156095505
90,0.00866198539734,0.00493288040161,0.00614500045776,0.00106406211853,0.190443992615
91,0.00693464279175,0.0044629573822,0.00438523292542,0.000733852386475,0.180311918259
92,0.00696206092834,0.00428795814514,0.00430703163147,0.000701904296875,0.183974981308
93,0.0088791847229,0.0052011013031,0.00453686714172,0.000751972198486,0.224929094315
94,0.00690484046936,0.00429201126099,0.00435209274292,0.000748872756958,0.182796955109
95,0.0340337753296,0.00460505485535,0.00468897819519,0.000773906707764,0.18292593956
96,0.007000207901,0.00431799888611,0.00418591499329,0.00071907043457,0.195975065231
97,0.0070469379425,0.00408792495728,0.0041229724884,0.000677108764648,0.190264940262
98,0.00695896148682,0.0046820640564,0.00445914268494,0.000836849212646,0.264755010605
99,0.00713610649109,0.00433611869812,0.00424909591675,0.000701189041138,0.191565990448
