step,run,get,set,free,run_up_to_step
0,0.037486076355,0.0148088932037,0.0144629478455,0.00266313552856,0.0407819747925
1,0.0290639400482,0.0133621692657,0.0134689807892,0.00264310836792,0.0756740570068
2,0.0283272266388,0.0133311748505,0.014799118042,0.00295901298523,0.0924010276794
3,0.0285530090332,0.0130228996277,0.0134408473969,0.00280714035034,0.120125055313
4,0.0309309959412,0.0137679576874,0.0134570598602,0.00279092788696,0.152604103088
5,0.031102180481,0.0133831501007,0.0135209560394,0.00297117233276,0.188336849213
6,0.0344479084015,0.0140869617462,0.0141689777374,0.00285410881042,0.222872018814
7,0.0333347320557,0.0127999782562,0.014319896698,0.00318789482117,0.236484050751
8,0.0360941886902,0.0142040252686,0.0159659385681,0.0032320022583,0.312548875809
9,0.0318648815155,0.0138931274414,0.0138909816742,0.0031681060791,0.315299034119
10,0.0334370136261,0.013995885849,0.0142221450806,0.0029718875885,0.348490953445
11,0.0364530086517,0.0143911838531,0.013592004776,0.00290608406067,0.353996038437
12,0.0306441783905,0.013708114624,0.0131969451904,0.00289702415466,0.390873908997
13,0.0325720310211,0.013247013092,0.019378900528,0.0039119720459,0.414654970169
14,0.0395729541779,0.0131821632385,0.0138280391693,0.00332903862,0.432583808899
15,0.0334677696228,0.0135760307312,0.0138211250305,0.00288796424866,0.440541028976
16,0.0304231643677,0.013580083847,0.0138490200043,0.00288581848145,0.471256017685
17,0.0351717472076,0.0138339996338,0.0131568908691,0.00289487838745,0.511214017868
18,0.0320780277252,0.01256108284,0.0178987979889,0.00394892692566,0.555714845657
19,0.030669927597,0.0136170387268,0.013365983963,0.00290203094482,0.571959018707
20,0.0313889980316,0.0139670372009,0.01322889328,0.00289416313171,0.579217910767
21,0.031014919281,0.0138440132141,0.0132968425751,0.0029308795929,0.636180877686
22,0.0305261611938,0.0129721164703,0.01682305336,0.00460290908813,0.63978099823
23,0.0309598445892,0.0135171413422,0.0136518478394,0.00299191474915,0.674712896347
24,0.0306527614594,0.0137429237366,0.0139248371124,0.00304388999939,0.681169986725
25,0.0342268943787,0.0143949985504,0.0133290290833,0.00297999382019,0.752681016922
26,0.038370847702,0.0139300823212,0.0136480331421,0.00334811210632,1.15879797935
27,0.0330710411072,0.0143389701843,0.0138010978699,0.00295090675354,0.803685903549
28,0.0310270786285,0.01389503479,0.0136408805847,0.00312495231628,0.810101985931
29,0.030620098114,0.0139889717102,0.0136380195618,0.00350093841553,0.844893932343
30,0.0448508262634,0.0189728736877,0.013286113739,0.00293707847595,0.873781919479
31,0.0302109718323,0.0145611763,0.0131809711456,0.00290513038635,0.887670993805
32,0.029816865921,0.0136849880219,0.0146038532257,0.00324606895447,1.31097817421
33,0.0297060012817,0.0138468742371,0.0152590274811,0.0037088394165,0.943469047546
34,0.0297868251801,0.0138459205627,0.0136580467224,0.00294494628906,0.95813703537
35,0.033890247345,0.0139229297638,0.0132939815521,0.00295996665955,1.03508996964
36,0.0294749736786,0.0134952068329,0.0140759944916,0.00330710411072,1.44791388512
37,0.0320093631744,0.0138440132141,0.0134809017181,0.00289916992188,1.04105901718
38,0.0299220085144,0.0138700008392,0.0138139724731,0.0029149055481,1.10290694237
39,0.0537450313568,0.0136578083038,0.0138101577759,0.0030529499054,1.11581087112
40,0.0313291549683,0.0135290622711,0.0137009620667,0.00293493270874,1.64970803261
41,0.0292060375214,0.0138139724731,0.013435125351,0.00307083129883,1.22016310692
42,0.430710077286,0.0142138004303,0.0140979290009,0.00314211845398,1.21921300888
43,0.0286552906036,0.0138411521912,0.013484954834,0.00315403938293,1.21648001671
44,0.0352687835693,0.0137059688568,0.0136179924011,0.00309991836548,1.27775001526
45,0.0290298461914,0.0137939453125,0.0137832164764,0.00353503227234,1.28373003006
46,0.0291860103607,0.0143370628357,0.0149490833282,0.00348210334778,1.34859776497
47,0.0292012691498,0.014004945755,0.0137979984283,0.00356388092041,1.36021184921
48,0.0286889076233,0.014720916748,0.0139639377594,0.00326299667358,1.36149597168
49,0.03498005867,0.0141520500183,0.0159931182861,0.00369620323181,1.46374106407
50,0.0288920402527,0.0135939121246,0.0139679908752,0.0029411315918,1.85977697372
51,0.0293209552765,0.013790845871,0.0139861106873,0.00293588638306,1.41743779182
52,0.0289738178253,0.0139119625092,0.0143399238586,0.00391387939453,1.51779484749
53,0.0288059711456,0.0139200687408,0.0143601894379,0.00296401977539,1.51034808159
54,0.0319092273712,0.0138878822327,0.0159621238708,0.00294184684753,1.52822995186
55,0.0289871692657,0.0138478279114,0.0137591362,0.00298094749451,1.55981612206
56,0.0497138500214,0.013484954834,0.0140819549561,0.00293397903442,2.02780890465
57,0.0292341709137,0.0140500068665,0.0154039859772,0.0033860206604,1.62333607674
58,0.0289821624756,0.0139241218567,0.0140998363495,0.00293207168579,1.65617203712
59,0.522789001465,0.0139241218567,0.0142118930817,0.00321388244629,1.70093202591
60,0.0319170951843,0.0139601230621,0.0141549110413,0.00293803215027,1.71796798706
61,0.029040813446,0.013885974884,0.0133349895477,0.0029411315918,1.75707697868
62,0.029107093811,0.013463973999,0.0136969089508,0.00325989723206,2.15044498444
63,0.0293529033661,0.0138721466064,0.0167760848999,0.00363302230835,1.78466105461
64,0.0288090705872,0.0138490200043,0.0141260623932,0.0034499168396,1.80293083191
65,0.0287170410156,0.0133488178253,0.0166251659393,0.00341796875,2.17414999008
66,0.0324449539185,0.0140819549561,0.014023065567,0.0033540725708,1.90524482727
67,0.0354611873627,0.0139760971069,0.0138940811157,0.00393199920654,1.88741898537
68,0.0290441513062,0.0145390033722,0.0145530700684,0.00358510017395,1.90926003456
69,0.0286822319031,0.0138881206512,0.0133199691772,0.00302386283875,1.99188113213
70,0.0344808101654,0.0136079788208,0.0139610767365,0.00295782089233,2.34153008461
71,0.0290858745575,0.0138349533081,0.0140740871429,0.00295901298523,2.01144313812
72,0.0314269065857,0.0141260623932,0.0137119293213,0.00348997116089,2.06468486786
73,0.0294120311737,0.0139977931976,0.0141630172729,0.00305008888245,2.09337997437
74,0.0301749706268,0.0150310993195,0.0139679908752,0.00311207771301,2.12454485893
75,0.0291619300842,0.0134360790253,0.0151720046997,0.00334906578064,2.48221707344
76,0.0291419029236,0.0138778686523,0.014212846756,0.00290083885193,2.08654403687
77,0.0298798084259,0.0137770175934,0.0142250061035,0.00293707847595,2.1481359005
78,0.0289499759674,0.0135409832001,0.0138280391693,0.00340700149536,2.76823401451
79,0.0295381546021,0.0138039588928,0.0153510570526,0.00313496589661,2.17407298088
80,0.0353970527649,0.0138118267059,0.0138969421387,0.00292086601257,2.62149119377
81,0.0289092063904,0.0139708518982,0.0151259899139,0.00391602516174,2.27065205574
82,0.0295369625092,0.0141589641571,0.0140240192413,0.0029079914093,2.3039329052
83,0.0296981334686,0.0147829055786,0.0140759944916,0.00289607048035,2.29924893379
84,0.0333471298218,0.0147159099579,0.0143091678619,0.00302505493164,2.79999017715
85,0.0288269519806,0.0139608383179,0.0142259597778,0.00291895866394,2.36078691483
86,0.0298519134521,0.0138559341431,0.014867067337,0.00408291816711,2.38437390327
87,0.0289359092712,0.0156240463257,0.0141069889069,0.00298094749451,2.4355340004
88,0.0295920372009,0.0139830112457,0.0141549110413,0.00309896469116,2.42886781693
89,0.0488929748535,0.0768511295319,0.0139451026917,0.00294804573059,2.83137702942
90,0.0339870452881,0.0139148235321,0.0141150951385,0.00291514396667,2.52284288406
91,0.0291440486908,0.0138709545135,0.0160028934479,0.00289392471313,2.99099111557
92,0.0287821292877,0.0139920711517,0.0143489837646,0.00300407409668,2.5624499321
93,0.0290169715881,0.0134291648865,0.014347076416,0.0031111240387,3.08076500893
94,0.0292940139771,0.0142831802368,0.0134959220886,0.00295495986938,2.63807010651
95,0.0293650627136,0.0138421058655,0.0138919353485,0.00346803665161,2.69985294342
96,0.031112909317,0.0140759944916,0.0139391422272,0.0029411315918,2.66839694977
97,0.0316691398621,0.0150649547577,0.0138471126556,0.004075050354,2.75952506065
98,0.0298252105713,0.0140988826752,0.0141630172729,0.00291514396667,2.72347807884
99,0.0311348438263,0.0133371353149,0.0142250061035,0.00321507453918,3.13436198235
