step,run,get,set,free,run_up_to_step
0,0.00757098197937,0.00402116775513,0.00383996963501,0.000355005264282,0.0151951313019
1,0.0128631591797,0.00358700752258,0.00431418418884,0.000458955764771,0.00995206832886
2,0.00741505622864,0.00412201881409,0.00416898727417,0.000404834747314,0.0145461559296
3,0.00674486160278,0.00365400314331,0.00387811660767,0.000351905822754,0.0155668258667
4,0.0073869228363,0.00374293327332,0.0038890838623,0.000420093536377,0.0171868801117
5,0.00685286521912,0.00412797927856,0.00408697128296,0.000375986099243,0.0208640098572
6,0.00648307800293,0.003821849823,0.00414896011353,0.000360012054443,0.0228838920593
7,0.00678896903992,0.00385713577271,0.00413393974304,0.000408887863159,0.0354669094086
8,0.00659704208374,0.00394892692566,0.00396203994751,0.000370979309082,0.0274939537048
9,0.0068883895874,0.00395083427429,0.00427794456482,0.000456809997559,0.038801908493
10,0.006756067276,0.00405502319336,0.00417184829712,0.000389099121094,0.0432600975037
11,0.00679087638855,0.0040590763092,0.0042040348053,0.000384092330933,0.0604348182678
12,0.00664186477661,0.00400590896606,0.00399208068848,0.000366926193237,0.0437650680542
13,0.00700497627258,0.00405597686768,0.00405597686768,0.000375032424927,0.0398759841919
14,0.00642704963684,0.00413012504578,0.00412106513977,0.000416040420532,0.0515968799591
15,0.00648093223572,0.00403213500977,0.00420498847961,0.00046706199646,0.050684928894
16,0.00668811798096,0.00395393371582,0.00390195846558,0.000381946563721,0.0536460876465
17,0.007169008255,0.00394105911255,0.00408697128296,0.000373125076294,0.0496888160706
18,0.00753617286682,0.00447702407837,0.00453519821167,0.000545024871826,0.081328868866
19,0.00713324546814,0.00430917739868,0.0042781829834,0.000488042831421,0.0548119544983
20,0.00715208053589,0.00406098365784,0.00456690788269,0.000569105148315,0.0572991371155
21,0.00777721405029,0.00445199012756,0.00431799888611,0.000463008880615,0.0591609477997
22,0.00739407539368,0.00407695770264,0.00406217575073,0.000508069992065,0.0620200634003
23,0.00725507736206,0.00423288345337,0.00444507598877,0.000617027282715,0.143104076385
24,0.00723004341125,0.00416088104248,0.00431489944458,0.00050687789917,0.0622589588165
25,0.0067310333252,0.00409984588623,0.00425100326538,0.000545024871826,0.075266122818
26,0.00862121582031,0.00406503677368,0.00398516654968,0.000441074371338,0.0688509941101
27,0.00661182403564,0.00403904914856,0.00426506996155,0.000519990921021,0.380672931671
28,0.00703501701355,0.00423097610474,0.00423502922058,0.000540971755981,0.0776338577271
29,0.0199658870697,0.00388193130493,0.00383996963501,0.000365972518921,0.077045917511
30,0.0062198638916,0.00388693809509,0.00438499450684,0.00052809715271,0.072084903717
31,0.00814700126648,0.004234790802,0.00422501564026,0.000416040420532,0.0918231010437
32,0.00734996795654,0.00431108474731,0.00411295890808,0.00039005279541,0.0999000072479
33,0.00700807571411,0.00406098365784,0.00418996810913,0.000388145446777,0.094025850296
34,0.00673484802246,0.00404191017151,0.00469517707825,0.000476121902466,0.0966429710388
35,0.00849199295044,0.0043888092041,0.00430488586426,0.000423192977905,0.0992810726166
36,0.00695395469666,0.00437712669373,0.00426387786865,0.000427961349487,0.103368997574
37,0.00716805458069,0.00405192375183,0.00405406951904,0.000375986099243,0.10505604744
38,0.00770878791809,0.00413703918457,0.00421190261841,0.000442028045654,0.105627059937
39,0.0250890254974,0.00459885597229,0.00459408760071,0.000581979751587,0.117969989777
40,0.00881218910217,0.00436592102051,0.00436091423035,0.000422954559326,0.122673988342
41,0.0189259052277,0.00423812866211,0.00397300720215,0.00042986869812,0.122673034668
42,0.00949501991272,0.00388503074646,0.00450801849365,0.000450849533081,0.117439985275
43,0.00709390640259,0.00394010543823,0.00412607192993,0.000401973724365,0.199639081955
44,0.00761675834656,0.00427007675171,0.00432395935059,0.000523090362549,0.120935916901
45,0.00712895393372,0.00419187545776,0.00417304039001,0.000443935394287,0.116081953049
46,0.00667500495911,0.00404095649719,0.00399494171143,0.000372886657715,0.117322921753
47,0.00723505020142,0.00422120094299,0.00405788421631,0.000411987304688,0.195048809052
48,0.00674915313721,0.00396800041199,0.00412702560425,0.000396013259888,0.134571075439
49,0.00698781013489,0.00391888618469,0.00410509109497,0.000385999679565,0.137045145035
50,0.00658798217773,0.00409889221191,0.00424695014954,0.000385999679565,0.16951417923
51,0.0148901939392,0.00410294532776,0.00419902801514,0.000383138656616,0.136283874512
52,0.00718188285828,0.00394487380981,0.00411200523376,0.000378131866455,0.152204036713
53,0.00670289993286,0.00405311584473,0.00423407554626,0.000409126281738,0.197426080704
54,0.00692009925842,0.00406193733215,0.00421690940857,0.000437021255493,0.144932031631
55,0.00636911392212,0.00385618209839,0.00390005111694,0.000380039215088,0.144315958023
56,0.00642728805542,0.00418591499329,0.00433897972107,0.000629186630249,0.209780931473
57,0.00647497177124,0.00409412384033,0.0042188167572,0.00041389465332,0.144459962845
58,0.00708699226379,0.00403809547424,0.00430202484131,0.000512838363647,0.146057128906
59,0.00736689567566,0.00391793251038,0.00437307357788,0.000462055206299,0.157902956009
60,0.00678896903992,0.00426721572876,0.00425386428833,0.000406980514526,0.159645080566
61,0.00708603858948,0.00407290458679,0.00424313545227,0.00039005279541,0.163779020309
62,0.00767612457275,0.00396609306335,0.0043580532074,0.000455856323242,0.160863876343
63,0.0147089958191,0.00418186187744,0.00405812263489,0.000403165817261,0.18087720871
64,0.00709390640259,0.00430989265442,0.00426197052002,0.00050687789917,0.161824941635
65,0.00714898109436,0.00398707389832,0.00421500205994,0.000397920608521,0.165436983109
66,0.00683617591858,0.00435209274292,0.00428605079651,0.000421047210693,0.166213035583
67,0.00682306289673,0.00398302078247,0.00414705276489,0.000394821166992,0.174164056778
68,0.00719594955444,0.00404977798462,0.00439691543579,0.000457048416138,0.177582025528
69,0.00721406936646,0.00430417060852,0.0042781829834,0.000423908233643,0.18193602562
70,0.00698590278625,0.00400900840759,0.00416588783264,0.000396966934204,0.508620977402
71,0.00674700737,0.00441598892212,0.0042610168457,0.000431060791016,0.227334022522
72,0.00720191001892,0.00416707992554,0.00425100326538,0.000414133071899,0.193938970566
73,0.00678396224976,0.00377297401428,0.00456881523132,0.000535011291504,0.192874908447
74,0.00753498077393,0.00438380241394,0.00427293777466,0.00043797492981,0.186728000641
75,0.00700783729553,0.00402593612671,0.00382804870605,0.00038480758667,0.196444034576
76,0.00642776489258,0.00438094139099,0.00442981719971,0.000447988510132,0.241488933563
77,0.00738978385925,0.00423097610474,0.00441908836365,0.000501871109009,0.201209068298
78,0.00693511962891,0.00402021408081,0.00422215461731,0.00040602684021,0.212121963501
79,0.00702881813049,0.00405406951904,0.00442600250244,0.000432968139648,0.199480056763
80,0.00712537765503,0.0042359828949,0.00457906723022,0.000606060028076,0.210018873215
81,0.0125641822815,0.00416684150696,0.00420689582825,0.000400066375732,0.217127084732
82,0.00741600990295,0.00454115867615,0.00427317619324,0.000446081161499,0.220523118973
83,0.00683283805847,0.0042929649353,0.00435614585876,0.000612020492554,0.217571973801
84,0.00725889205933,0.00410413742065,0.00447392463684,0.00055718421936,0.220825195312
85,0.00696802139282,0.00440502166748,0.00432801246643,0.000449180603027,0.258196115494
86,0.00769329071045,0.00425314903259,0.00424599647522,0.000398874282837,0.891808986664
87,0.00945281982422,0.00410008430481,0.00439596176147,0.000445127487183,0.228071928024
88,0.00727009773254,0.00434899330139,0.00449419021606,0.000583171844482,0.228086948395
89,0.00822401046753,0.00407600402832,0.0045599937439,0.00061297416687,0.244210004807
90,0.0077178478241,0.00417900085449,0.00419592857361,0.000420093536377,0.323238134384
91,0.00742983818054,0.00403499603271,0.00401282310486,0.000383138656616,0.229336977005
92,0.0064971446991,0.00368905067444,0.00418496131897,0.000478029251099,0.215173006058
93,0.00646424293518,0.00400900840759,0.0040590763092,0.000411033630371,0.192632198334
94,0.00671696662903,0.00379490852356,0.00407981872559,0.000473976135254,0.245697975159
95,0.0061731338501,0.00428700447083,0.00437498092651,0.000461101531982,0.255401849747
96,0.00764799118042,0.0041708946228,0.00424194335938,0.000412940979004,0.219828128815
97,0.00745797157288,0.00444793701172,0.00436902046204,0.000448942184448,0.282381057739
98,0.0076060295105,0.00415015220642,0.00416898727417,0.000393152236938,0.590413093567
99,0.0069100856781,0.00386500358582,0.00445008277893,0.000517845153809,0.255004167557
