step,run,get,set,free,run_up_to_step
0,0.0055718421936,0.00390696525574,0.00381898880005,0.000319957733154,0.0054771900177
1,0.00537300109863,0.00351905822754,0.00396990776062,0.000327825546265,0.0060977935791
2,0.00466704368591,0.00348114967346,0.00379419326782,0.000367879867554,0.00704598426819
3,0.00321316719055,0.00342988967896,0.00386190414429,0.000329971313477,0.00667786598206
4,0.00300097465515,0.00364208221436,0.00378894805908,0.000322103500366,0.00709104537964
5,0.00333905220032,0.00361800193787,0.00384902954102,0.00032114982605,0.00903797149658
6,0.00309634208679,0.00357604026794,0.00349807739258,0.000258922576904,0.00888299942017
7,0.00303435325623,0.00356888771057,0.00347590446472,0.000293970108032,0.00962996482849
8,0.00318598747253,0.00375199317932,0.00388407707214,0.000365018844604,0.00998902320862
9,0.0116529464722,0.00286102294922,0.00385999679565,0.000454187393188,0.0111560821533
10,0.00370001792908,0.00416898727417,0.00381112098694,0.000396966934204,0.0121560096741
11,0.00352215766907,0.00365996360779,0.00378489494324,0.000339984893799,0.0139000415802
12,0.00367307662964,0.00371980667114,0.0038628578186,0.000339031219482,0.0145909786224
13,0.00332689285278,0.00378704071045,0.00385403633118,0.000436067581177,0.0162920951843
14,0.00347304344177,0.00377202033997,0.00333786010742,0.000303983688354,0.0159769058228
15,0.00316691398621,0.00350594520569,0.00388288497925,0.000322818756104,0.0167651176453
16,0.00428199768066,0.00346112251282,0.0038731098175,0.000339984893799,0.0166001319885
17,0.00406718254089,0.00427198410034,0.00393605232239,0.000405073165894,0.0757040977478
18,0.00313210487366,0.00361609458923,0.0039529800415,0.000339984893799,0.0191111564636
19,0.00392293930054,0.00387501716614,0.0039050579071,0.000334978103638,0.0299820899963
20,0.00309920310974,0.00308108329773,0.0039701461792,0.000329971313477,0.0204210281372
21,0.00317215919495,0.00364184379578,0.00363492965698,0.000255823135376,0.0210988521576
22,0.00413513183594,0.00369381904602,0.00331616401672,0.000262975692749,0.0223491191864
23,0.00325703620911,0.00382208824158,0.00390195846558,0.000335931777954,0.0216910839081
24,0.00348138809204,0.00320506095886,0.00385212898254,0.000332832336426,0.0231549739838
25,0.00305676460266,0.0035138130188,0.00376892089844,0.00037693977356,0.0244522094727
26,0.00305819511414,0.00379204750061,0.0040340423584,0.000501871109009,0.0821349620819
27,0.00353407859802,0.00388407707214,0.00411009788513,0.00042200088501,0.0264179706573
28,0.00295495986938,0.00388789176941,0.00407099723816,0.000365018844604,0.0262830257416
29,0.00344586372375,0.00378799438477,0.00350189208984,0.00034499168396,0.0273740291595
30,0.00367903709412,0.00360894203186,0.00396394729614,0.000333786010742,0.0287778377533
31,0.00356197357178,0.00369906425476,0.00379204750061,0.000335931777954,0.0289759635925
32,0.00443696975708,0.00375986099243,0.00383687019348,0.000324964523315,0.0309228897095
33,0.0322480201721,0.00418901443481,0.00416302680969,0.000365972518921,0.0303869247437
34,0.00300884246826,0.00366687774658,0.00375509262085,0.000353097915649,0.0325410366058
35,0.00291585922241,0.00388216972351,0.00383806228638,0.000350952148438,0.0318508148193
36,0.00405311584473,0.00378012657166,0.0040009021759,0.000351190567017,0.0331900119781
37,0.00339412689209,0.00323987007141,0.00306105613708,0.000346899032593,0.0347168445587
38,0.00300097465515,0.00386595726013,0.0040590763092,0.000339031219482,0.0353920459747
39,0.00367712974548,0.00383305549622,0.00396418571472,0.000363826751709,0.0358011722565
40,0.00333905220032,0.00359702110291,0.00401711463928,0.000270128250122,0.0381469726562
41,0.00446820259094,0.00427913665771,0.00436806678772,0.00039005279541,0.0874040126801
42,0.00334692001343,0.00405406951904,0.00417399406433,0.000363111495972,0.0373890399933
43,0.00324201583862,0.00413179397583,0.00412392616272,0.000361919403076,0.039391040802
44,0.00294518470764,0.00337100028992,0.0037100315094,0.000265121459961,0.0385880470276
45,0.0031521320343,0.00391387939453,0.00390410423279,0.00032901763916,0.0419139862061
46,0.00318694114685,0.00364589691162,0.00392413139343,0.000317096710205,0.0415589809418
47,0.00303506851196,0.00408720970154,0.00414109230042,0.000377893447876,0.0830638408661
48,0.00313806533813,0.00404906272888,0.00379920005798,0.00033712387085,0.0427989959717
49,0.00310111045837,0.00398898124695,0.00368714332581,0.000396013259888,0.0436060428619
50,0.00329208374023,0.00394511222839,0.00404691696167,0.000361919403076,0.0425279140472
51,0.00349688529968,0.00385499000549,0.00391316413879,0.000333070755005,0.044753074646
52,0.00377106666565,0.0037739276886,0.00368690490723,0.000391960144043,0.0470700263977
53,0.00302004814148,0.00452899932861,0.00426888465881,0.000389099121094,0.111832857132
54,0.00333905220032,0.00422215461731,0.00423288345337,0.00039005279541,0.047611951828
55,0.00307273864746,0.00417304039001,0.00364589691162,0.000289916992188,0.0499658584595
56,0.00355982780457,0.00415015220642,0.00413703918457,0.000350952148438,0.0506319999695
57,0.00320100784302,0.00391793251038,0.00415587425232,0.000481128692627,0.049320936203
58,0.0032320022583,0.0034511089325,0.00427007675171,0.000265836715698,0.052582025528
59,0.00300908088684,0.00366306304932,0.00330090522766,0.000216960906982,0.0508670806885
60,0.00337886810303,0.00422811508179,0.00412201881409,0.000379085540771,0.569560050964
61,0.00347185134888,0.00383114814758,0.004075050354,0.000350952148438,0.0559501647949
62,0.00351095199585,0.00389385223389,0.00376009941101,0.000257015228271,0.0553689002991
63,0.0029239654541,0.00362586975098,0.00385189056396,0.000353097915649,0.0541791915894
64,0.00497508049011,0.00356197357178,0.00387215614319,0.000308036804199,0.0546288490295
65,0.00346994400024,0.00403594970703,0.00415110588074,0.000387907028198,0.107865095139
66,0.00316381454468,0.00397706031799,0.00377416610718,0.000365972518921,0.0562789440155
67,0.00306105613708,0.00357294082642,0.00323700904846,0.000407934188843,0.0595898628235
68,0.00301098823547,0.00366497039795,0.00378894805908,0.000354051589966,0.0585069656372
69,0.00319886207581,0.00389194488525,0.0038948059082,0.000380992889404,0.0586898326874
70,0.004390001297,0.00370287895203,0.00392413139343,0.000378847122192,0.0624389648438
71,0.00295114517212,0.00414395332336,0.00418901443481,0.000380039215088,0.179274082184
72,0.00313115119934,0.004154920578,0.0038149356842,0.000342130661011,0.0640280246735
73,0.00327491760254,0.00351309776306,0.00400185585022,0.000432014465332,0.064267873764
74,0.0032901763916,0.00387907028198,0.00335812568665,0.00042200088501,0.0636157989502
75,0.00331497192383,0.00395393371582,0.00385880470276,0.000340938568115,0.0647008419037
76,0.00335669517517,0.00382995605469,0.00391101837158,0.000362157821655,0.0663199424744
77,0.0041778087616,0.00409603118896,0.00435209274292,0.000370979309082,0.133585214615
78,0.00372004508972,0.00412106513977,0.0040979385376,0.000367879867554,0.0669538974762
79,0.00302600860596,0.00397801399231,0.00397682189941,0.000359058380127,0.0686089992523
80,0.00376796722412,0.00385403633118,0.0039439201355,0.000363111495972,0.0692899227142
81,0.0032000541687,0.00385093688965,0.00464701652527,0.000423908233643,0.0695750713348
82,0.00326585769653,0.00419402122498,0.00379300117493,0.00033712387085,0.0723719596863
83,0.00312089920044,0.00341391563416,0.00409412384033,0.0003821849823,0.0694000720978
84,0.00342321395874,0.00396704673767,0.00393199920654,0.000266075134277,0.0727779865265
85,0.00314402580261,0.00416088104248,0.00396585464478,0.000349044799805,0.0733358860016
86,0.00415706634521,0.00336599349976,0.00380706787109,0.00033712387085,0.074786901474
87,0.00327706336975,0.00450301170349,0.00384092330933,0.000455856323242,0.136848926544
88,0.00345993041992,0.0038058757782,0.0030369758606,0.000360012054443,0.0731489658356
89,0.0030369758606,0.00396704673767,0.00398111343384,0.000353097915649,0.0760741233826
90,0.00393414497375,0.00378704071045,0.00383305549622,0.000320911407471,0.0792691707611
91,0.00315594673157,0.00359797477722,0.00447797775269,0.000370025634766,0.0743098258972
92,0.00414991378784,0.0042290687561,0.00433015823364,0.000369071960449,0.0786681175232
93,0.00361204147339,0.00451683998108,0.00349807739258,0.000272035598755,0.0772750377655
94,0.00393080711365,0.00397801399231,0.00391507148743,0.000329971313477,0.0785551071167
95,0.00308084487915,0.00354909896851,0.00387406349182,0.000362873077393,0.0820729732513
96,0.00361084938049,0.00437617301941,0.00441002845764,0.000409126281738,0.135692834854
97,0.00317692756653,0.00346183776855,0.00406193733215,0.000353097915649,0.0821120738983
98,0.00419998168945,0.00403594970703,0.00402307510376,0.000357866287231,0.0830829143524
99,0.00316381454468,0.00376296043396,0.00390601158142,0.000339984893799,0.0855600833893
