step,run,get,set,free,run_up_to_step
0,0.014867067337,0.011244058609,0.0113260746002,0.00228214263916,0.0167679786682
1,0.00964379310608,0.00930190086365,0.00910711288452,0.00145602226257,0.0142321586609
2,0.0125288963318,0.00944900512695,0.00971102714539,0.00148701667786,0.0161340236664
3,0.00986385345459,0.008868932724,0.0101161003113,0.00182199478149,0.028599023819
4,0.0116679668427,0.0103278160095,0.0100169181824,0.0017249584198,0.0248918533325
5,0.0112240314484,0.00961494445801,0.0105609893799,0.00187802314758,0.0242719650269
6,0.0100769996643,0.00949311256409,0.00945901870728,0.00159287452698,0.0248930454254
7,0.00999569892883,0.00964999198914,0.00908613204956,0.00155901908875,0.0270261764526
8,0.00993299484253,0.0090479850769,0.0100409984589,0.00164103507996,0.0329630374908
9,0.01384806633,0.00962686538696,0.00964403152466,0.00162196159363,0.0320382118225
10,0.0171611309052,0.011018037796,0.00959706306458,0.00166082382202,0.0486710071564
11,0.0100808143616,0.00964999198914,0.0102488994598,0.00182604789734,0.0354170799255
12,0.0115139484406,0.00967597961426,0.0103430747986,0.00185203552246,0.04518699646
13,0.0104429721832,0.00972485542297,0.00993585586548,0.00169897079468,0.0403618812561
14,0.00961494445801,0.00981497764587,0.00985908508301,0.00169610977173,0.0410249233246
15,0.0100560188293,0.00922894477844,0.010715007782,0.00191283226013,0.0996441841125
16,0.0106718540192,0.00935792922974,0.00941586494446,0.00169205665588,0.0447669029236
17,0.0116820335388,0.00929808616638,0.00967693328857,0.00170803070068,0.0511209964752
18,0.0106761455536,0.00955986976624,0.00975680351257,0.00170016288757,0.0607860088348
19,0.013078212738,0.00995993614197,0.00973796844482,0.00172686576843,0.0615808963776
20,0.0401360988617,0.0126302242279,0.00996017456055,0.00184798240662,0.057678937912
21,0.012264251709,0.0112679004669,0.0116369724274,0.00218605995178,0.0752079486847
22,0.010176897049,0.0101571083069,0.0102949142456,0.00185704231262,0.0619349479675
23,0.0110330581665,0.00980019569397,0.00973081588745,0.00176382064819,0.067330121994
24,0.0176270008087,0.00984001159668,0.00956797599792,0.00171899795532,0.0662548542023
25,0.0126209259033,0.0121409893036,0.0109739303589,0.00229096412659,0.131320953369
26,0.0108153820038,0.00983905792236,0.0100929737091,0.00207614898682,0.0860841274261
27,0.011528968811,0.0105819702148,0.0131611824036,0.00296688079834,0.0748319625854
28,0.0141088962555,0.0139498710632,0.0145630836487,0.00282788276672,0.126554965973
29,0.0112481117249,0.00997686386108,0.00947499275208,0.0017249584198,0.0771160125732
30,0.0206661224365,0.0101149082184,0.00980997085571,0.00182104110718,0.0916769504547
31,0.00935006141663,0.00973796844482,0.00977611541748,0.0018150806427,0.10063290596
32,0.010143995285,0.00982618331909,0.0092031955719,0.00173401832581,0.078773021698
33,0.00973415374756,0.00915312767029,0.00936889648438,0.00176501274109,0.17554807663
34,0.00934720039368,0.00934195518494,0.0097439289093,0.00178599357605,0.103624820709
35,0.0325319766998,0.0093982219696,0.00965905189514,0.00169897079468,0.0837309360504
36,0.0101261138916,0.0092990398407,0.00946688652039,0.00174713134766,0.353678941727
37,0.0100610256195,0.00918698310852,0.00979709625244,0.00207304954529,0.115988016129
38,0.0101058483124,0.0092351436615,0.00959086418152,0.00176906585693,0.0890719890594
39,0.0100018978119,0.00980997085571,0.0100059509277,0.00189208984375,0.0968279838562
40,0.0121870040894,0.011214017868,0.0132660865784,0.00309801101685,0.135313034058
41,0.0103049278259,0.00975179672241,0.0118482112885,0.00374102592468,0.0958571434021
42,0.0102832317352,0.0101590156555,0.0103499889374,0.00207781791687,0.176099061966
43,0.013466835022,0.0111420154572,0.0100448131561,0.00187277793884,0.137627124786
44,0.00985622406006,0.0097382068634,0.00952911376953,0.00181102752686,0.100310087204
45,0.0102100372314,0.00980591773987,0.00991916656494,0.00188398361206,0.146412849426
46,0.0112009048462,0.0101811885834,0.0104370117188,0.00214219093323,0.14793586731
47,0.0108511447906,0.0104718208313,0.0106248855591,0.00216889381409,0.121031045914
48,0.0108771324158,0.0105690956116,0.00987696647644,0.0018789768219,0.146803855896
49,0.0101928710938,0.00959491729736,0.0109398365021,0.00235891342163,0.110662937164
50,0.0166230201721,0.00934100151062,0.00969314575195,0.00187277793884,0.140926122665
51,0.0110321044922,0.00899386405945,0.00977492332458,0.00196886062622,0.138240098953
52,0.0128612518311,0.0124359130859,0.0135629177094,0.00353384017944,0.127198934555
53,0.0119340419769,0.00950694084167,0.0103800296783,0.00220513343811,0.199808120728
54,0.0138530731201,0.0100719928741,0.0119590759277,0.00243282318115,0.162667989731
55,0.0129408836365,0.0100228786469,0.00986695289612,0.0019998550415,0.136435985565
56,0.0102381706238,0.00967788696289,0.00982904434204,0.00191283226013,0.128266096115
57,0.0104558467865,0.00981187820435,0.00981688499451,0.00196599960327,0.190062046051
58,0.0103640556335,0.00959610939026,0.0101571083069,0.00224804878235,0.13049697876
59,0.011146068573,0.00970196723938,0.00998115539551,0.00228786468506,0.132256984711
60,0.0100791454315,0.00995707511902,0.00980591773987,0.00194096565247,0.156063079834
61,0.0102190971375,0.010115146637,0.0101017951965,0.00194811820984,0.160948038101
62,0.0104520320892,0.00989985466003,0.00932216644287,0.00187611579895,0.136610984802
63,0.0111117362976,0.0102460384369,0.0104901790619,0.00205206871033,0.191093921661
64,0.0110971927643,0.0107328891754,0.0103349685669,0.00199007987976,0.1908390522
65,0.0107462406158,0.0096390247345,0.00908207893372,0.00184798240662,0.145159006119
66,0.0133228302002,0.0093560218811,0.00983309745789,0.00196313858032,0.243314027786
67,0.0105669498444,0.00950193405151,0.00982093811035,0.00196385383606,0.176903009415
68,0.011176109314,0.00971579551697,0.00974607467651,0.00197696685791,0.174814939499
69,0.0100829601288,0.00925898551941,0.010085105896,0.00196003913879,0.182158946991
70,0.0100381374359,0.00933003425598,0.00952291488647,0.00189590454102,0.152751922607
71,0.0115671157837,0.0103440284729,0.0116150379181,0.00225496292114,0.442300081253
72,0.0104978084564,0.00957298278809,0.0098819732666,0.00217914581299,0.226624011993
73,0.00956511497498,0.00948214530945,0.00939297676086,0.00188899040222,0.158840894699
74,0.0108261108398,0.00998902320862,0.00985193252563,0.00199294090271,0.162334918976
75,0.0101971626282,0.0098021030426,0.00994205474854,0.00196695327759,0.189143180847
76,0.011538028717,0.0105061531067,0.0100691318512,0.00209212303162,0.229242086411
77,0.0105690956116,0.00991415977478,0.0103712081909,0.00226593017578,0.17227602005
78,0.0106241703033,0.00984477996826,0.00987219810486,0.00198101997375,0.17502117157
79,0.0106680393219,0.0102229118347,0.0103449821472,0.00202012062073,0.171778917313
80,0.0113489627838,0.00918102264404,0.0119860172272,0.00236892700195,0.289191961288
81,0.0120658874512,0.0106639862061,0.0115280151367,0.00218605995178,0.209979772568
82,0.0111978054047,0.00999307632446,0.0100910663605,0.00208806991577,0.23858499527
83,0.0103709697723,0.00964307785034,0.00976085662842,0.00199007987976,0.173397064209
84,0.0105051994324,0.0093789100647,0.00976300239563,0.00197100639343,0.20219707489
85,0.013721704483,0.00950908660889,0.0110371112823,0.00234889984131,0.182060956955
86,0.010852098465,0.00975608825684,0.009761095047,0.0020318031311,0.184020996094
87,0.0103027820587,0.00968098640442,0.00996494293213,0.00203490257263,0.212359905243
88,0.0101652145386,0.00968909263611,0.0102150440216,0.00200295448303,0.209886074066
89,0.0127940177917,0.010330915451,0.0102260112762,0.00202894210815,0.219439029694
90,0.0111691951752,0.00994801521301,0.00950694084167,0.00192499160767,0.189729213715
91,0.00978708267212,0.00989699363708,0.0098819732666,0.00215792655945,0.318787097931
92,0.0105221271515,0.00961399078369,0.00953722000122,0.00201988220215,0.222209215164
93,0.0103259086609,0.00976705551147,0.0107719898224,0.00270199775696,0.221181154251
94,0.0105938911438,0.00952005386353,0.00984001159668,0.00196194648743,0.200636863708
95,0.0125632286072,0.0094039440155,0.00989890098572,0.00201106071472,0.198954820633
96,0.0115790367126,0.0106191635132,0.0101249217987,0.00208806991577,0.225758075714
97,0.0102200508118,0.00943994522095,0.00989007949829,0.00199794769287,0.228502035141
98,0.0415253639221,0.010773897171,0.0117740631104,0.00240302085876,0.269258975983
99,0.0111570358276,0.00975203514099,0.0116529464722,0.00262403488159,0.236611843109
