step,run,get,set,free,run_up_to_step
0,0.00715398788452,0.00826501846313,0.00935006141663,0.000856876373291,0.0253839492798
1,0.0054988861084,0.00784611701965,0.00866293907166,0.000786066055298,0.00938415527344
2,0.00554585456848,0.00829887390137,0.00882911682129,0.000751972198486,0.00978088378906
3,0.00550580024719,0.00820803642273,0.00852489471436,0.00079083442688,0.0131461620331
4,0.00457787513733,0.00825595855713,0.00783395767212,0.000832080841064,0.0143980979919
5,0.00393891334534,0.00777411460876,0.00556111335754,0.000519990921021,0.0102229118347
6,0.00556015968323,0.0084388256073,0.00938701629639,0.000805854797363,0.0171799659729
7,0.00563812255859,0.00783681869507,0.00942707061768,0.00086498260498,0.0161800384521
8,0.004638671875,0.00603413581848,0.00679612159729,0.000539064407349,0.0148439407349
9,0.00473117828369,0.00717782974243,0.00543618202209,0.000517845153809,0.0148539543152
10,0.00409293174744,0.00605607032776,0.00555205345154,0.000514984130859,0.0155940055847
11,0.00401401519775,0.0065450668335,0.00918006896973,0.000779151916504,0.0231971740723
12,0.00534129142761,0.00558590888977,0.00815296173096,0.000990152359009,0.0298519134521
13,0.00522828102112,0.0078718662262,0.00626397132874,0.000939846038818,0.022598028183
14,0.00343894958496,0.00517010688782,0.00833010673523,0.000984907150269,0.0265729427338
15,0.00413489341736,0.00802898406982,0.00785899162292,0.000808954238892,0.0322089195251
16,0.00497603416443,0.008220911026,0.00952792167664,0.000948905944824,0.0357418060303
17,0.00632214546204,0.00823211669922,0.00904297828674,0.000864028930664,0.0367579460144
18,0.00535988807678,0.00860691070557,0.009202003479,0.000862121582031,0.0384922027588
19,0.00470018386841,0.00816583633423,0.00917792320251,0.000854015350342,0.0396060943604
20,0.00410723686218,0.00819087028503,0.00926494598389,0.000944852828979,0.0387990474701
21,0.00544619560242,0.00830101966858,0.00901889801025,0.000854015350342,0.0437688827515
22,0.00636410713196,0.00850892066956,0.00889992713928,0.000808000564575,0.042827129364
23,0.00622797012329,0.00856399536133,0.00913500785828,0.000862121582031,0.0462160110474
24,0.00561213493347,0.0082700252533,0.00932478904724,0.000944137573242,0.0455889701843
25,0.00447297096252,0.00825905799866,0.00968790054321,0.000801801681519,0.0470790863037
26,0.00640320777893,0.00901508331299,0.0091860294342,0.000993967056274,0.0526621341705
27,0.00599789619446,0.0086030960083,0.00895500183105,0.000826120376587,0.0548820495605
28,0.00565695762634,0.00787401199341,0.0089590549469,0.000817060470581,0.0566320419312
29,0.00476884841919,0.00838589668274,0.00989389419556,0.000998020172119,0.0563769340515
30,0.00421977043152,0.00845193862915,0.0092499256134,0.000877857208252,0.0535848140717
31,0.0056459903717,0.00865602493286,0.00931215286255,0.00086498260498,0.0601279735565
32,0.00385975837708,0.00920987129211,0.00838184356689,0.000536918640137,0.0617611408234
33,0.00604796409607,0.00877809524536,0.00984597206116,0.00088095664978,0.0618019104004
34,0.00441098213196,0.0076220035553,0.00866293907166,0.000854969024658,0.0602519512177
35,0.00413179397583,0.00798606872559,0.00926804542542,0.000982046127319,0.0619060993195
36,0.00575184822083,0.00806307792664,0.00858402252197,0.000756978988647,0.0681250095367
37,0.00551986694336,0.00870800018311,0.0100030899048,0.000983953475952,0.116029024124
38,0.00580072402954,0.00855088233948,0.00950503349304,0.000845909118652,0.0678949356079
39,0.0046648979187,0.00830292701721,0.00860500335693,0.000769853591919,0.0739200115204
40,0.00494623184204,0.0089750289917,0.0101189613342,0.000948905944824,0.109058141708
41,0.00559902191162,0.00948214530945,0.00991320610046,0.00105214118958,0.0773339271545
42,0.00581002235413,0.00907802581787,0.00945997238159,0.0011579990387,0.0790169239044
43,0.00578379631042,0.00895500183105,0.0095739364624,0.00107216835022,0.0799999237061
44,0.00496697425842,0.0111057758331,0.00977802276611,0.0012640953064,0.12518119812
45,0.00453186035156,0.00927400588989,0.00932002067566,0.00105094909668,0.0825870037079
46,0.00537896156311,0.00866198539734,0.00914788246155,0.00106310844421,0.0862228870392
47,0.00587105751038,0.0101819038391,0.0102081298828,0.00133109092712,0.122895002365
48,0.00590872764587,0.00914001464844,0.0106110572815,0.00110507011414,0.091863155365
49,0.00644183158875,0.00903797149658,0.00907802581787,0.00090503692627,0.0898208618164
50,0.00420522689819,0.00951099395752,0.0101969242096,0.001051902771,0.0888679027557
51,0.00567603111267,0.00889301300049,0.00956916809082,0.00106287002563,0.0944728851318
52,0.00564694404602,0.00851202011108,0.00944900512695,0.000850915908813,0.0952317714691
53,0.00561332702637,0.0079231262207,0.00925087928772,0.000818014144897,0.0957999229431
54,0.00504207611084,0.00937795639038,0.0100989341736,0.00112104415894,0.102293014526
55,0.00447010993958,0.00887703895569,0.00958800315857,0.000968933105469,0.103151082993
56,0.00616407394409,0.00832986831665,0.0094211101532,0.000860929489136,0.0987010002136
57,0.00681614875793,0.00933909416199,0.00994992256165,0.00116610527039,0.14485502243
58,0.00545406341553,0.00847315788269,0.00933194160461,0.000946998596191,0.108762979507
59,0.00457811355591,0.00784516334534,0.00872802734375,0.000854969024658,0.104861974716
60,0.00446891784668,0.0080668926239,0.0111229419708,0.0010039806366,0.1042740345
61,0.00588393211365,0.00863885879517,0.00997304916382,0.00105881690979,0.112462997437
62,0.00585508346558,0.00874400138855,0.00910997390747,0.000898838043213,0.111217021942
63,0.00605440139771,0.0079607963562,0.00861096382141,0.000790119171143,0.113254070282
64,0.00472640991211,0.00893998146057,0.0102038383484,0.00107002258301,0.161201000214
65,0.00484395027161,0.00873494148254,0.00930380821228,0.000895023345947,0.112380027771
66,0.00567698478699,0.0082049369812,0.00898385047913,0.000854969024658,0.117818117142
67,0.00549578666687,0.00962018966675,0.00993895530701,0.00114488601685,0.168847799301
68,0.00573682785034,0.00877285003662,0.00927686691284,0.00095796585083,0.122991085052
69,0.00510692596436,0.00798392295837,0.00922703742981,0.000845909118652,0.123807907104
70,0.00448393821716,0.00863480567932,0.00961303710938,0.000997066497803,0.162195920944
71,0.00572299957275,0.00882601737976,0.00898408889771,0.000895023345947,0.122073888779
72,0.00591015815735,0.00789380073547,0.00908803939819,0.000825881958008,0.125678062439
73,0.00544190406799,0.00879287719727,0.00975799560547,0.000990152359009,0.161103963852
74,0.00578594207764,0.00841403007507,0.00671291351318,0.000617027282715,0.128599882126
75,0.004234790802,0.00817704200745,0.00876021385193,0.000877857208252,0.118134021759
76,0.125808000565,0.0111620426178,0.0102779865265,0.00169086456299,0.173349142075
77,0.00578808784485,0.0107350349426,0.00996398925781,0.00118803977966,0.139331102371
78,0.0055239200592,0.00936198234558,0.0100789070129,0.00107097625732,0.139955997467
79,0.00559425354004,0.0124130249023,0.011528968811,0.00168085098267,0.142113924026
80,0.00421905517578,0.00973796844482,0.00997710227966,0.00118112564087,0.145220994949
81,0.00555801391602,0.0094518661499,0.00980401039124,0.00105786323547,0.145632982254
82,0.00599026679993,0.0114438533783,0.0111110210419,0.00152206420898,0.186445951462
83,0.00555825233459,0.0097861289978,0.0109040737152,0.0011420249939,0.151380777359
84,0.00500893592834,0.00927901268005,0.00950503349304,0.00111293792725,0.141652107239
85,0.0449020862579,0.0127511024475,0.01145195961,0.00178909301758,0.151448011398
86,0.0057909488678,0.00935387611389,0.00986790657043,0.00122809410095,0.147958993912
87,0.00572896003723,0.00896310806274,0.00941705703735,0.000952005386353,0.157026052475
88,0.00597190856934,0.0115079879761,0.0109629631042,0.00149011611938,0.198213100433
89,0.00503301620483,0.00970101356506,0.0100951194763,0.0010449886322,0.162585020065
90,0.00426483154297,0.00889492034912,0.00907111167908,0.000890016555786,0.16081404686
91,0.00613069534302,0.0108609199524,0.0101449489594,0.00109386444092,0.203233003616
92,0.00605702400208,0.00841283798218,0.0100169181824,0.00103187561035,0.167250156403
93,0.0056459903717,0.00837802886963,0.00889182090759,0.00080394744873,0.166435956955
94,0.00490188598633,0.00924110412598,0.010066986084,0.00088906288147,0.207423210144
95,0.00443172454834,0.00863194465637,0.00919604301453,0.000821113586426,0.158624887466
96,0.00555992126465,0.00812101364136,0.00891304016113,0.000781059265137,0.167228937149
97,0.00578689575195,0.00984787940979,0.00985908508301,0.00106692314148,0.229620933533
98,0.00519108772278,0.00764489173889,0.00979804992676,0.000963926315308,0.168387174606
99,0.0049889087677,0.00798201560974,0.00849509239197,0.000769853591919,0.173284053802
