step,run,get,set,free,run_up_to_step
0,0.305112123489,0.032310962677,0.0315508842468,0.00644397735596,0.306097984314
1,0.278043031693,0.0355000495911,0.0313401222229,0.00644111633301,0.580415010452
2,0.278054952621,0.0288240909576,0.0320069789886,0.00760197639465,1.31254386902
3,0.287076234818,0.0290868282318,0.0338809490204,0.00644612312317,1.13321900368
4,0.296841859818,0.0301141738892,0.0320649147034,0.00654411315918,1.74544095993
5,0.274402141571,0.029091835022,0.0314970016479,0.00655913352966,1.7141418457
6,0.29375910759,0.0307819843292,0.0319759845734,0.00712895393372,1.99613189697
7,0.299581050873,0.0293061733246,0.0488288402557,0.0062689781189,2.27415800095
8,0.285429954529,0.0274269580841,0.0334861278534,0.00972294807434,3.17734313011
9,0.331226825714,0.0299890041351,0.0330729484558,0.00654911994934,2.88741397858
10,0.297880887985,0.0307998657227,0.0344440937042,0.00659489631653,3.18811798096
11,0.252176046371,0.0278279781342,0.0309610366821,0.00636887550354,3.54623198509
12,0.266947984695,0.0308380126953,0.0298850536346,0.00643706321716,4.52246594429
13,0.271280050278,0.0290839672089,0.0310301780701,0.00640892982483,4.04525995255
14,0.277989149094,0.030259847641,0.0314021110535,0.00702095031738,5.26023888588
15,0.295093297958,0.0286839008331,0.0331470966339,0.00799989700317,4.70934200287
16,0.297337055206,0.0311930179596,0.0358521938324,0.00691795349121,5.0527369976
17,0.260720014572,0.0309920310974,0.0338659286499,0.00661182403564,6.11425685883
18,0.294723749161,0.0299670696259,0.0317630767822,0.00673508644104,6.03401708603
19,0.322827100754,0.029060125351,0.0312521457672,0.00639700889587,6.03155088425
20,0.311853885651,0.0286450386047,0.0310871601105,0.00723004341125,6.9723098278
21,0.302839040756,0.0302829742432,0.0324079990387,0.00672888755798,6.8047349453
22,0.306703090668,0.0296051502228,0.0309019088745,0.024836063385,6.86287903786
23,0.310394048691,0.0285439491272,0.0298290252686,0.00629305839539,7.86426210403
24,0.31443810463,0.0290098190308,0.0336401462555,0.00744700431824,7.65369796753
25,0.325155735016,0.0300269126892,0.0318150520325,0.00654006004333,7.99444794655
26,0.359631061554,0.0290768146515,0.0312831401825,0.00737380981445,8.39227795601
27,0.351871013641,0.0294330120087,0.0310258865356,0.00662398338318,8.6071639061
28,1.34521770477,0.0300099849701,0.0314130783081,0.00653600692749,8.36669588089
29,0.331458091736,0.0315399169922,0.0326280593872,0.00692701339722,9.57630777359
30,0.293440818787,0.0308749675751,0.0349228382111,0.00699400901794,9.83412289619
31,0.303994655609,0.030081987381,0.0318379402161,0.00679302215576,9.6646130085
32,1.01636719704,0.0297420024872,0.0359089374542,0.00697898864746,9.57370710373
33,0.288032770157,0.0314240455627,0.0313520431519,0.00669002532959,10.1770308018
34,0.296556949615,0.030238866806,0.0329170227051,0.00724506378174,11.8332619667
35,0.285649776459,0.0309159755707,0.0321660041809,0.00631999969482,11.2517139912
36,0.287265062332,0.0278708934784,0.0316507816315,0.0064640045166,11.489025116
37,0.296831846237,0.0306859016418,0.033607006073,0.00733995437622,12.5515458584
38,0.305134057999,0.0333559513092,0.03293800354,0.00657796859741,12.8987321854
39,0.308284044266,0.0290870666504,0.0320880413055,0.00907492637634,12.473170042
40,0.275725841522,0.0302591323853,0.0362420082092,0.00743412971497,12.3793737888
41,0.332170963287,0.0308220386505,0.0328159332275,0.00724101066589,13.0048291683
42,0.265856981277,0.0312569141388,0.0324549674988,0.00794005393982,13.1409649849
43,0.668260097504,0.029974937439,0.0341420173645,0.00704479217529,13.6861629486
44,0.281996011734,0.0279550552368,0.030562877655,0.00740909576416,13.9556889534
45,0.303043842316,0.0298540592194,0.0391731262207,0.00787496566772,14.4314920902
46,0.305234909058,0.0324120521545,0.0314099788666,0.00643396377563,14.5943751335
47,0.282522916794,0.0349009037018,0.0346930027008,0.00670218467712,14.2880048752
48,0.556109189987,0.0300559997559,0.0332269668579,0.00738501548767,15.3761239052
49,0.282205104828,0.0301189422607,0.0347580909729,0.00793790817261,15.3402309418
50,0.31959605217,0.0300750732422,0.0305461883545,0.00650501251221,15.2062830925
51,0.262706041336,0.0296189785004,0.0385711193085,0.00824499130249,15.8803570271
52,0.27273273468,0.0304429531097,0.0345060825348,0.00824904441833,15.7668380737
53,0.289176940918,0.0290191173553,0.0332009792328,0.00673413276672,16.1695659161
54,0.272000074387,0.0339059829712,0.0345170497894,0.00788116455078,17.091438055
55,0.298597097397,0.0328018665314,0.0330858230591,0.0067150592804,17.094481945
56,0.306200027466,0.0327231884003,0.0308089256287,0.00696086883545,17.7047131062
57,0.276610851288,0.0564379692078,0.0313239097595,0.00848984718323,17.0329520702
58,0.284418821335,0.0285139083862,0.0401668548584,0.00649404525757,17.1674051285
59,0.290228128433,0.0293169021606,0.0550930500031,0.00684094429016,17.4560339451
60,0.259509086609,0.0291020870209,0.0309538841248,0.00647211074829,18.0962951183
61,0.266327142715,0.0295140743256,0.0312957763672,0.00629997253418,18.2810878754
62,0.278527259827,0.029932975769,0.0319709777832,0.0065598487854,18.7319898605
63,0.255713939667,0.028048992157,0.030210018158,0.00631904602051,18.7789001465
64,0.291776180267,0.0279250144958,0.0307269096375,0.00628304481506,19.6075639725
65,0.299259901047,0.028571844101,0.0301671028137,0.00741410255432,19.4015779495
66,0.319114923477,0.0279490947723,0.0311541557312,0.00646781921387,19.8434700966
67,0.290183067322,0.0284008979797,0.0311241149902,0.00640892982483,20.0175359249
68,0.317635059357,0.0281200408936,0.0368149280548,0.00633096694946,20.1687779427
69,0.292328834534,0.029021024704,0.0321199893951,0.00689888000488,19.824037075
70,0.277872085571,0.0289158821106,0.0308220386505,0.00629210472107,20.1762669086
71,0.308099746704,0.0286419391632,0.0311269760132,0.00652813911438,21.5648641586
72,0.255645990372,0.027850151062,0.0332279205322,0.0066180229187,21.7582039833
73,0.30361199379,0.0276250839233,0.0311090946198,0.00678515434265,21.3028740883
74,0.230025053024,0.0294620990753,0.0323021411896,0.0090811252594,21.2308659554
75,0.271221876144,0.0293838977814,0.03067278862,0.0064549446106,21.7543430328
76,0.302886009216,0.0291080474854,0.0302150249481,0.00676321983337,22.4277770519
77,0.290825128555,0.0306308269501,0.0322279930115,0.00649881362915,22.5843939781
78,0.282997131348,0.0292110443115,0.0314338207245,0.00649189949036,23.6260700226
79,0.778246879578,0.0295300483704,0.0313260555267,0.0066339969635,22.820679903
80,0.299154996872,0.0308299064636,0.0313100814819,0.00642609596252,22.996532917
81,0.342036724091,0.0303380489349,0.0311529636383,0.00617694854736,23.799328804
82,0.299484968185,0.0296459197998,0.0311968326569,0.00640606880188,23.8685691357
83,1.22750926018,0.0289800167084,0.0313289165497,0.00640106201172,24.4195878506
84,0.322525978088,0.029335975647,0.0335359573364,0.00641489028931,24.4149580002
85,0.80584192276,0.0297410488129,0.031121969223,0.00645208358765,25.5823919773
86,0.337129116058,0.0295438766479,0.0310800075531,0.00637817382812,26.0717241764
87,0.304495096207,0.0287721157074,0.0310530662537,0.00638604164124,25.4437160492
88,0.321594953537,0.0336129665375,0.0316560268402,0.006432056427,25.4728500843
89,0.302254915237,0.0321390628815,0.0311059951782,0.00751399993896,26.3051970005
90,0.304710149765,0.0311470031738,0.0444078445435,0.00640392303467,25.8850960732
91,0.292360305786,0.0291202068329,0.0310189723969,0.0064070224762,26.6400749683
92,0.282991886139,0.0295510292053,0.031023979187,0.0063898563385,26.7995769978
93,0.274058818817,0.0289311408997,0.0310490131378,0.00639796257019,26.9496021271
94,0.267361879349,0.0288410186768,0.0311169624329,0.00637888908386,26.9297339916
95,0.310790061951,0.0290560722351,0.0311758518219,0.00638389587402,27.4136118889
96,0.314567089081,0.0294139385223,0.0310430526733,0.00638508796692,28.7696790695
97,0.316614866257,0.0293900966644,0.0314869880676,0.0063841342926,28.5204601288
98,0.265179157257,0.0296459197998,0.0310111045837,0.00707507133484,29.2031228542
99,0.337688207626,0.0288729667664,0.0324151515961,0.00662207603455,29.0855629444
