step,run,get,set,free,run_up_to_step
0,0.00473999977112,0.00223207473755,0.00237202644348,0.000195980072021,0.00540804862976
1,0.00468182563782,0.00207495689392,0.00234413146973,0.000198125839233,0.00634002685547
2,0.00413417816162,0.00210499763489,0.00231409072876,0.000198841094971,0.00765681266785
3,0.00447106361389,0.00227904319763,0.00234293937683,0.000198841094971,0.00906109809875
4,0.0042040348053,0.00212812423706,0.00231981277466,0.00019907951355,0.0104119777679
5,0.0056369304657,0.00211715698242,0.00231719017029,0.000203847885132,0.0119740962982
6,0.0046169757843,0.0020751953125,0.00251698493958,0.000213146209717,0.0279049873352
7,0.00488495826721,0.00216794013977,0.00232100486755,0.000217914581299,0.0144929885864
8,0.00442099571228,0.00214600563049,0.00240182876587,0.000265836715698,0.0152261257172
9,0.0048451423645,0.00234413146973,0.00230598449707,0.000205039978027,0.0246369838715
10,0.00471830368042,0.00212812423706,0.00232481956482,0.000230073928833,0.017786026001
11,0.00514197349548,0.00215888023376,0.00222396850586,0.000227928161621,0.0196189880371
12,0.0047550201416,0.00214910507202,0.00234389305115,0.000221014022827,0.0214450359344
13,0.00507116317749,0.00210380554199,0.00241899490356,0.000226020812988,0.0217850208282
14,0.00457096099854,0.0021870136261,0.00234198570251,0.000217914581299,0.0234050750732
15,0.00422382354736,0.00220203399658,0.0022919178009,0.000197887420654,0.0238320827484
16,0.00433492660522,0.00236082077026,0.00238800048828,0.000211000442505,0.0545210838318
17,0.00408697128296,0.00220990180969,0.00235199928284,0.00021505355835,0.0269799232483
18,0.00497484207153,0.00216579437256,0.0023410320282,0.000204086303711,0.0276458263397
19,0.00461268424988,0.00223898887634,0.002436876297,0.000214099884033,0.0360960960388
20,0.00470304489136,0.00174999237061,0.00197100639343,0.00019907951355,0.030797958374
21,0.0049729347229,0.00215315818787,0.0022759437561,0.000200033187866,0.02920794487
22,0.00429272651672,0.00213003158569,0.00243306159973,0.000198841094971,0.0327210426331
23,0.00435709953308,0.0023729801178,0.00231003761292,0.000195980072021,0.0335078239441
24,0.00414991378784,0.0022919178009,0.00235390663147,0.000213861465454,0.117744922638
25,0.00413918495178,0.00224208831787,0.0023820400238,0.000217914581299,0.0433518886566
26,0.00413489341736,0.00218296051025,0.00231504440308,0.000209093093872,0.0380990505219
27,0.00434303283691,0.00224590301514,0.00233197212219,0.000210046768188,0.0399739742279
28,0.00432991981506,0.00223398208618,0.00235390663147,0.00020694732666,0.0408339500427
29,0.00422382354736,0.00227093696594,0.0024209022522,0.000195980072021,0.0417809486389
30,0.00428009033203,0.00203680992126,0.00273895263672,0.000244140625,0.0430269241333
31,0.0049090385437,0.00244879722595,0.0025110244751,0.000231981277466,0.0448479652405
32,0.00410103797913,0.00244212150574,0.00237488746643,0.000220060348511,0.0463559627533
33,0.0041971206665,0.00228404998779,0.002366065979,0.000207185745239,0.0478949546814
34,0.00468015670776,0.00221610069275,0.00233316421509,0.000211000442505,0.263506889343
35,0.00407695770264,0.0021800994873,0.00229287147522,0.000205039978027,0.0490810871124
36,0.00393605232239,0.0020740032196,0.00237703323364,0.000203132629395,0.0499510765076
37,0.00450706481934,0.00219321250916,0.00249004364014,0.000235080718994,0.0527031421661
38,0.00557208061218,0.00244092941284,0.00247597694397,0.000216007232666,0.0534729957581
39,0.00405788421631,0.00232005119324,0.00240802764893,0.000219106674194,0.0548141002655
40,0.00449991226196,0.00245809555054,0.00234794616699,0.000216960906982,0.0557811260223
41,0.00700974464417,0.0020489692688,0.00229096412659,0.000211000442505,0.0648198127747
42,0.00478196144104,0.00211095809937,0.00229501724243,0.00020694732666,0.0592710971832
43,0.00450801849365,0.00221419334412,0.00239706039429,0.000202178955078,0.0590758323669
44,0.00491809844971,0.00227308273315,0.00239086151123,0.000227928161621,0.111581087112
45,0.00567102432251,0.00238394737244,0.0025110244751,0.000225067138672,0.577043056488
46,0.00417184829712,0.0022599697113,0.00242590904236,0.00021505355835,0.062961101532
47,0.00459408760071,0.00219988822937,0.00239992141724,0.000235080718994,0.0648248195648
48,0.00443530082703,0.00204706192017,0.0023181438446,0.000201940536499,0.0659909248352
49,0.00433111190796,0.0022120475769,0.00227189064026,0.000198841094971,0.0663919448853
50,0.00448393821716,0.00241303443909,0.00259494781494,0.0002760887146,0.147174835205
51,0.00419902801514,0.00245594978333,0.00250315666199,0.000218868255615,0.0696678161621
52,0.00420308113098,0.00227189064026,0.00241088867188,0.00021505355835,0.0709829330444
53,0.00446605682373,0.00234413146973,0.00236415863037,0.000210046768188,0.0709011554718
54,0.00404286384583,0.00204992294312,0.00234293937683,0.000202178955078,0.547894954681
55,0.00442409515381,0.00210618972778,0.00260400772095,0.000236034393311,0.0797951221466
56,0.00424408912659,0.00253510475159,0.00248789787292,0.000216007232666,0.0763461589813
57,0.00410294532776,0.00239205360413,0.00231885910034,0.000204086303711,0.0764760971069
58,0.0041298866272,0.00224113464355,0.00244402885437,0.00020694732666,0.0778210163116
59,0.00432801246643,0.00216007232666,0.00249910354614,0.00020694732666,0.084753036499
60,0.00451588630676,0.00214195251465,0.00236511230469,0.000197172164917,0.0803279876709
61,0.00423502922058,0.00254321098328,0.00261092185974,0.000240087509155,0.15353012085
62,0.00441408157349,0.00233888626099,0.00241112709045,0.000217914581299,0.0835390090942
63,0.00424194335938,0.00229907035828,0.00239491462708,0.000247955322266,0.0902459621429
64,0.00424718856812,0.00222301483154,0.0022988319397,0.000203847885132,0.0924489498138
65,0.00444793701172,0.00217199325562,0.00226807594299,0.000197172164917,0.0863831043243
66,0.00462198257446,0.00251007080078,0.00269985198975,0.000332832336426,0.159319877625
67,0.00449681282043,0.00225400924683,0.00261211395264,0.000231027603149,0.176113843918
68,0.00452518463135,0.00228595733643,0.00240898132324,0.000229120254517,0.0907921791077
69,0.00463724136353,0.00224184989929,0.00243401527405,0.000221967697144,0.091598033905
70,0.00448608398438,0.00240397453308,0.00238490104675,0.000220060348511,0.0985848903656
71,0.00430393218994,0.00231194496155,0.00233602523804,0.000210046768188,0.0940020084381
72,0.00438594818115,0.00246095657349,0.0025429725647,0.000218152999878,0.156856775284
73,0.00443887710571,0.00240898132324,0.00243902206421,0.000212907791138,0.098140001297
74,0.00418901443481,0.00225877761841,0.00247287750244,0.000211954116821,0.10410785675
75,0.00444507598877,0.0022349357605,0.00223183631897,0.000371932983398,0.0987751483917
76,0.00423192977905,0.00216102600098,0.00240707397461,0.000234127044678,0.0999488830566
77,0.0044059753418,0.0021378993988,0.00264501571655,0.000252962112427,0.100703954697
78,0.00429105758667,0.00233197212219,0.00249600410461,0.000218868255615,0.110325813293
79,0.00438690185547,0.00236010551453,0.0023250579834,0.000207901000977,0.103334903717
80,0.00423693656921,0.00232982635498,0.00239491462708,0.000211954116821,0.104840040207
81,0.00424790382385,0.00222897529602,0.00236392021179,0.000211000442505,0.107424974442
82,0.00447487831116,0.00203108787537,0.00267195701599,0.000447988510132,0.114897966385
83,0.00465822219849,0.0024049282074,0.00246691703796,0.000247001647949,0.110265016556
84,0.00416588783264,0.00234889984131,0.00245714187622,0.000211954116821,0.10981798172
85,0.00421619415283,0.00226712226868,0.0023238658905,0.0002121925354,0.118978977203
86,0.00503587722778,0.00222110748291,0.00234317779541,0.000210046768188,0.114046812057
87,0.00445294380188,0.00241589546204,0.00394105911255,0.000291109085083,0.177038192749
88,0.00439405441284,0.00237798690796,0.00239515304565,0.000213146209717,0.118280887604
89,0.00428009033203,0.00234794616699,0.00236988067627,0.000214099884033,0.166616201401
90,0.00423884391785,0.00229597091675,0.00231409072876,0.000210046768188,0.117129087448
91,0.00421714782715,0.00225901603699,0.00247001647949,0.000241041183472,0.119095087051
92,0.00453805923462,0.00217199325562,0.00232601165771,0.000202178955078,0.120419979095
93,0.00422120094299,0.00241994857788,0.00250601768494,0.000226020812988,0.191642999649
94,0.0044322013855,0.0023410320282,0.00245594978333,0.00021505355835,0.123435974121
95,0.00438117980957,0.0023090839386,0.00236988067627,0.000211954116821,0.126621961594
96,0.00452494621277,0.00208711624146,0.00228190422058,0.000200986862183,0.124514102936
97,0.00434398651123,0.00249695777893,0.00251007080078,0.000225067138672,0.174546003342
98,0.0064959526062,0.00240707397461,0.00244998931885,0.00021505355835,0.13156414032
99,0.00411701202393,0.00243091583252,0.00239896774292,0.000212907791138,0.135616064072
