step,run,get,set,free,run_up_to_step
0,0.0136790275574,0.0321161746979,0.030149936676,0.00327897071838,0.0134720802307
1,0.00628209114075,0.0307598114014,0.0316770076752,0.00348997116089,0.0144920349121
2,0.00652003288269,0.030846118927,0.0316638946533,0.00344705581665,0.0190901756287
3,0.0066831111908,0.0324730873108,0.0315120220184,0.00356698036194,0.0191171169281
4,0.00655889511108,0.0290491580963,0.0313169956207,0.00363302230835,0.0231139659882
5,0.00647711753845,0.0321848392487,0.0312697887421,0.00367212295532,0.0202279090881
6,0.00622916221619,0.0301520824432,0.0310461521149,0.00365281105042,0.0246160030365
7,0.00671696662903,0.0303530693054,0.032016992569,0.00425386428833,0.0228550434113
8,0.00674104690552,0.0326519012451,0.0338459014893,0.00424599647522,0.0300660133362
9,0.00943279266357,0.0351529121399,0.031877040863,0.0041491985321,0.0267679691315
10,0.0256021022797,0.0316159725189,0.0315380096436,0.0039119720459,0.0423250198364
11,0.0144119262695,0.0319440364838,0.0354180335999,0.00397086143494,0.0470461845398
12,0.013632774353,0.0316960811615,0.0319621562958,0.00388407707214,0.0589270591736
13,0.012885093689,0.0318529605865,0.0328769683838,0.00408983230591,0.0627291202545
14,0.0110380649567,0.0323898792267,0.032096862793,0.00405120849609,0.0641479492188
15,0.0110929012299,0.0316169261932,0.0341739654541,0.00421500205994,0.0663170814514
16,0.00979614257812,0.032557964325,0.0327548980713,0.00424385070801,0.0677859783173
17,0.00983309745789,0.0332779884338,0.0330011844635,0.00428509712219,0.0903010368347
18,0.0092601776123,0.0307321548462,0.031485080719,0.00416302680969,0.0755507946014
19,0.0116567611694,0.0314710140228,0.0321400165558,0.00406193733215,0.098345041275
20,0.0194408893585,0.0339441299438,0.032683134079,0.00396418571472,0.0910730361938
21,0.0115158557892,0.0321009159088,0.032918214798,0.00431084632874,0.129395961761
22,0.0116109848022,0.0328550338745,0.0325729846954,0.00463819503784,0.10014295578
23,0.0115869045258,0.0324800014496,0.0328788757324,0.00430011749268,0.101150989532
24,0.0117058753967,0.0326879024506,0.0352230072021,0.00426292419434,0.104400873184
25,0.0107419490814,0.0336709022522,0.0333971977234,0.00452184677124,0.103179931641
26,0.0107138156891,0.0337810516357,0.0335409641266,0.00416588783264,0.131129980087
27,0.0102667808533,0.0340459346771,0.0335710048676,0.00415897369385,0.112374067307
28,0.0113232135773,0.0338408946991,0.0342519283295,0.00514793395996,0.155734062195
29,0.0112090110779,0.0346450805664,0.0351469516754,0.00442099571228,0.115473985672
30,0.0115120410919,0.0341579914093,0.034129858017,0.00481200218201,0.155699968338
31,0.0100781917572,0.0321960449219,0.033313035965,0.00458288192749,0.117610931396
32,0.0107958316803,0.0341861248016,0.0336389541626,0.00465989112854,0.228708982468
33,0.00966095924377,0.0339620113373,0.0347030162811,0.00466704368591,0.122830867767
34,0.00976395606995,0.0343067646027,0.0334231853485,0.00462579727173,0.121175050735
35,0.0090799331665,0.0341808795929,0.0341920852661,0.00459504127502,0.143734931946
36,0.00967001914978,0.0339241027832,0.0335881710052,0.00468277931213,0.129332065582
37,0.0088939666748,0.0314478874207,0.0317158699036,0.00406289100647,0.12971496582
38,0.0095899105072,0.031800031662,0.0316498279572,0.00384783744812,0.128952026367
39,0.00981998443604,0.0311598777771,0.0316648483276,0.00379586219788,0.133541822433
40,0.0169591903687,0.0309901237488,0.0316050052643,0.0037670135498,0.165261030197
41,0.0102889537811,0.0318701267242,0.0321309566498,0.00389695167542,0.144843101501
42,0.00955009460449,0.0310120582581,0.0314691066742,0.00395584106445,0.170139074326
43,0.00903296470642,0.0310099124908,0.0315229892731,0.00389099121094,0.151654005051
44,0.00967407226562,0.033607006073,0.0346429347992,0.0042679309845,0.152951955795
45,0.0287029743195,0.0317060947418,0.0315599441528,0.00407695770264,0.155612945557
46,0.00836181640625,0.0311460494995,0.0321769714355,0.00405287742615,0.156371116638
47,0.00795912742615,0.0318610668182,0.032398223877,0.00409007072449,0.178990125656
48,0.00841999053955,0.0322439670563,0.0317718982697,0.00399804115295,0.160887002945
49,0.00780606269836,0.0313909053802,0.032075881958,0.00402498245239,0.19823884964
50,0.00789284706116,0.0326471328735,0.0340008735657,0.00442290306091,0.162662982941
51,0.00740122795105,0.0324461460114,0.0325820446014,0.00407004356384,0.166306018829
52,0.0273778438568,0.0321679115295,0.0333240032196,0.0044629573822,0.166358232498
53,0.00767922401428,0.0325510501862,0.0329880714417,0.00412797927856,0.171097993851
54,0.00760984420776,0.0335659980774,0.0320680141449,0.00439190864563,0.191045999527
55,0.0069100856781,0.0326099395752,0.031702041626,0.00407004356384,0.17435503006
56,0.00712299346924,0.0315198898315,0.0320198535919,0.00471591949463,0.283780097961
57,0.00718402862549,0.0324330329895,0.0323450565338,0.00400614738464,0.175369024277
58,0.00665593147278,0.0319499969482,0.0320851802826,0.00406002998352,0.174925088882
59,0.00703430175781,0.031359910965,0.0322020053864,0.00470089912415,0.201148986816
60,0.0254368782043,0.0315680503845,0.0319840908051,0.00392317771912,0.193026781082
61,0.013060092926,0.0319719314575,0.0322329998016,0.00410509109497,0.238752841949
62,0.011953830719,0.0328099727631,0.0322518348694,0.0039439201355,0.208123922348
63,0.0112941265106,0.0331389904022,0.0324709415436,0.00409603118896,0.207504034042
64,0.0110609531403,0.0322210788727,0.032613992691,0.0043420791626,0.237080097198
65,0.0118341445923,0.0333700180054,0.0347270965576,0.00450396537781,0.219496011734
66,0.0116918087006,0.0352070331573,0.0364470481873,0.00456094741821,0.251121044159
67,0.0105209350586,0.0328450202942,0.0319759845734,0.00443911552429,0.232738018036
68,0.0100820064545,0.0314660072327,0.0337219238281,0.00424122810364,0.273917198181
69,0.00944399833679,0.0325150489807,0.0337319374084,0.00424885749817,0.232458114624
70,0.0108790397644,0.0320580005646,0.0334730148315,0.0044150352478,0.23348903656
71,0.00916004180908,0.0325210094452,0.0330708026886,0.0047550201416,0.256139993668
72,0.00896906852722,0.0328600406647,0.0317838191986,0.00447607040405,0.255607843399
73,0.00973105430603,0.0331389904022,0.032851934433,0.004399061203,0.247013807297
74,0.0093789100647,0.0338318347931,0.0350780487061,0.00460004806519,0.33561205864
75,0.0104439258575,0.0379838943481,0.0359420776367,0.00453591346741,0.249212026596
76,0.010232925415,0.0350110530853,0.0367810726166,0.00497698783875,0.272989988327
77,0.00987505912781,0.0365030765533,0.0359880924225,0.00445795059204,0.25106215477
78,0.00931191444397,0.0338850021362,0.0366787910461,0.00499892234802,0.2945728302
79,0.00959825515747,0.0330519676208,0.0346031188965,0.00434422492981,0.254029035568
80,0.0234770774841,0.0328299999237,0.0323660373688,0.00432896614075,0.254680156708
81,0.0128872394562,0.0333709716797,0.0331571102142,0.00453495979309,0.283096075058
82,0.0118391513824,0.0334138870239,0.0332319736481,0.00473809242249,0.261482000351
83,0.0114068984985,0.0320820808411,0.0335869789124,0.00442004203796,0.268629074097
84,0.0107321739197,0.0322749614716,0.0319437980652,0.00440311431885,0.29472899437
85,0.0109419822693,0.0349848270416,0.0326910018921,0.00462198257446,0.275008916855
86,0.0100989341736,0.0321779251099,0.0308609008789,0.00443983078003,0.279269933701
87,0.00975680351257,0.0331339836121,0.033350944519,0.00440692901611,0.306485891342
88,0.0104701519012,0.033203125,0.0327789783478,0.004319190979,0.309593915939
89,0.00908088684082,0.0323569774628,0.0328869819641,0.00494694709778,0.305105924606
90,0.00934195518494,0.0328228473663,0.0343079566956,0.00528287887573,0.317548036575
91,0.00912570953369,0.0338430404663,0.0328660011292,0.00441789627075,0.277014017105
92,0.00945830345154,0.0315449237823,0.0324640274048,0.00448393821716,0.419939994812
93,0.0103988647461,0.0329530239105,0.032350063324,0.00417113304138,0.295003890991
94,0.00993490219116,0.0329477787018,0.0321929454803,0.00409698486328,0.297660112381
95,0.0112059116364,0.0347719192505,0.036484003067,0.00440812110901,0.341895103455
96,0.00935196876526,0.0337910652161,0.0338990688324,0.00414800643921,0.30167889595
97,0.00992393493652,0.0322868824005,0.0344398021698,0.00436496734619,0.324240922928
98,0.00864315032959,0.0338368415833,0.0347468852997,0.00475907325745,0.302623987198
99,0.00870108604431,0.0324130058289,0.03160405159,0.00348782539368,0.303382873535
