step,run,get,set,free,run_up_to_step
0,0.00526404380798,0.00516700744629,0.0042769908905,0.000575065612793,0.00671601295471
1,0.00771021842957,0.00459599494934,0.00429105758667,0.000581026077271,0.0104601383209
2,0.00622701644897,0.0046558380127,0.00417900085449,0.000582933425903,0.0125370025635
3,0.0068690776825,0.00471591949463,0.00421500205994,0.000588178634644,0.0150721073151
4,0.00402593612671,0.00414800643921,0.0040020942688,0.000586986541748,0.0236220359802
5,0.0038468837738,0.00463914871216,0.00413489341736,0.000591993331909,0.0176539421082
6,0.00733089447021,0.00463604927063,0.0043740272522,0.000594854354858,0.0212800502777
7,0.00555276870728,0.00466299057007,0.00432276725769,0.000722885131836,0.0228860378265
8,0.0652098655701,0.00450992584229,0.00428199768066,0.000581979751587,0.0261659622192
9,0.00465321540833,0.0045440196991,0.00475597381592,0.000689029693604,0.0276942253113
10,0.00427412986755,0.00496697425842,0.0044150352478,0.000610828399658,0.0276019573212
11,0.00776696205139,0.00471019744873,0.00414204597473,0.000610113143921,0.0315680503845
12,0.00542211532593,0.00475788116455,0.00436091423035,0.000605821609497,0.0338540077209
13,0.00717806816101,0.00487613677979,0.00410389900208,0.00058913230896,0.0449709892273
14,0.0554811954498,0.00494694709778,0.00445485115051,0.00062894821167,0.0363268852234
15,0.00415015220642,0.00478887557983,0.00416898727417,0.000597953796387,0.0378470420837
16,0.00755214691162,0.00471711158752,0.00414180755615,0.000602006912231,0.0418729782104
17,0.00531911849976,0.00457692146301,0.00516796112061,0.000747919082642,0.0428168773651
18,0.0564379692078,0.00503301620483,0.00470495223999,0.000640869140625,0.0465130805969
19,0.00458192825317,0.00512409210205,0.00472187995911,0.000655889511108,0.0473160743713
20,0.00421285629272,0.00492191314697,0.00407791137695,0.000590085983276,0.0483119487762
21,0.00778222084045,0.00470590591431,0.00405478477478,0.000583171844482,0.057058095932
22,0.00595712661743,0.00576400756836,0.00457406044006,0.00066614151001,0.0540678501129
23,0.00651407241821,0.00522208213806,0.00441193580627,0.00064492225647,0.0567390918732
24,0.00410485267639,0.0053448677063,0.0044047832489,0.000630855560303,0.0578420162201
25,0.00418210029602,0.00499582290649,0.00423407554626,0.000617980957031,0.0588500499725
26,0.00753402709961,0.00496315956116,0.00438594818115,0.000626087188721,0.0632879734039
27,0.00537085533142,0.00469708442688,0.00408792495728,0.000592947006226,0.0640170574188
28,0.00702691078186,0.00516200065613,0.00455021858215,0.000645160675049,0.125663042068
29,0.00419020652771,0.00538301467896,0.00443196296692,0.000638961791992,0.0822060108185
30,0.00410890579224,0.0048041343689,0.00426411628723,0.000627994537354,0.0699999332428
31,0.00751113891602,0.0046169757843,0.00482296943665,0.000669002532959,0.0733189582825
32,0.00768804550171,0.00671410560608,0.00461506843567,0.000631093978882,0.0786159038544
33,0.0073139667511,0.00517702102661,0.0043089389801,0.000611066818237,0.0786230564117
34,0.00393795967102,0.00474715232849,0.00409698486328,0.000594854354858,0.078339099884
35,0.00455093383789,0.00538396835327,0.00462603569031,0.000641107559204,0.0783131122589
36,0.00751900672913,0.00509476661682,0.00432705879211,0.000627040863037,0.0836951732635
37,0.00534915924072,0.00483703613281,0.00413703918457,0.000608205795288,0.0850081443787
38,0.00661301612854,0.00462102890015,0.00704789161682,0.00156021118164,0.0859038829803
39,0.00409603118896,0.00552105903625,0.00453901290894,0.000637054443359,0.0886309146881
40,0.00423884391785,0.00529384613037,0.00432014465332,0.000618934631348,0.0897789001465
41,0.00704216957092,0.00509285926819,0.00419306755066,0.000600099563599,0.093376159668
42,0.005695104599,0.00471305847168,0.00554800033569,0.000779867172241,0.109817028046
43,0.00680303573608,0.00496315956116,0.00463891029358,0.00066089630127,0.17929983139
44,0.00401520729065,0.00550293922424,0.00454592704773,0.00062894821167,0.0967261791229
45,0.00419521331787,0.00536394119263,0.0058491230011,0.00132203102112,0.102301120758
46,0.00733208656311,0.00512599945068,0.00422406196594,0.000602006912231,0.10245513916
47,0.00526428222656,0.00538897514343,0.00434517860413,0.000643014907837,0.154438972473
48,0.00747585296631,0.00550198554993,0.00459003448486,0.000641822814941,0.106840133667
49,0.00434613227844,0.00527405738831,0.00447487831116,0.000649929046631,0.109156131744
50,0.00439214706421,0.00502490997314,0.00544190406799,0.00072717666626,0.108824968338
51,0.00705409049988,0.00547289848328,0.00448703765869,0.000645160675049,0.113950014114
52,0.00572395324707,0.00554704666138,0.00460886955261,0.000643968582153,0.121518850327
53,0.00675702095032,0.00505900382996,0.00441002845764,0.000632047653198,0.117280006409
54,0.0041081905365,0.00620484352112,0.00473594665527,0.000698089599609,0.167877197266
55,0.00387001037598,0.00549221038818,0.00454711914062,0.000663042068481,0.124541044235
56,0.00794291496277,0.00507211685181,0.00424098968506,0.000622987747192,0.124225854874
57,0.00527000427246,0.00477910041809,0.00418901443481,0.000602960586548,0.123580932617
58,0.00739192962646,0.00584101676941,0.00492310523987,0.000696897506714,0.178992033005
59,0.00428605079651,0.00509595870972,0.00434398651123,0.000619888305664,0.128757953644
60,0.00403213500977,0.00470399856567,0.00573897361755,0.000837087631226,0.128942966461
61,0.00737810134888,0.00568604469299,0.00459599494934,0.000680923461914,0.135755062103
62,0.00685000419617,0.00507998466492,0.00416493415833,0.000615119934082,0.135280132294
63,0.00677514076233,0.00479388237,0.00427103042603,0.000591039657593,0.136026144028
64,0.00423097610474,0.00628280639648,0.004714012146,0.000684976577759,0.192289113998
65,0.00395274162292,0.00549101829529,0.00454998016357,0.00065803527832,0.139014005661
66,0.0276379585266,0.00465703010559,0.00403594970703,0.000595092773438,0.143135070801
67,0.00605201721191,0.00651097297668,0.00459980964661,0.000701189041138,0.142393827438
68,0.00738430023193,0.00554895401001,0.00449109077454,0.000658988952637,0.14838385582
69,0.00424098968506,0.00498008728027,0.00439500808716,0.000608921051025,0.158055782318
70,0.00415802001953,0.00466108322144,0.00425720214844,0.000680208206177,0.153034925461
71,0.00725507736206,0.00575089454651,0.0045759677887,0.00067400932312,0.157976150513
72,0.00573897361755,0.00516796112061,0.00435495376587,0.000630140304565,0.15492105484
73,0.00777387619019,0.0045919418335,0.00406408309937,0.000601053237915,0.156634092331
74,0.00422191619873,0.0060019493103,0.00452208518982,0.000676155090332,0.220435857773
75,0.00404715538025,0.00544285774231,0.00437307357788,0.00066089630127,0.16536283493
76,0.00749516487122,0.00483393669128,0.00430798530579,0.000625133514404,0.163055896759
77,0.00563097000122,0.00569295883179,0.00447702407837,0.000669956207275,0.207492113113
78,0.00652313232422,0.00459909439087,0.00411081314087,0.000591039657593,0.169085979462
79,0.00422811508179,0.00437903404236,0.00581884384155,0.000823020935059,0.170068025589
80,0.00454878807068,0.00602507591248,0.00479292869568,0.000717163085938,0.384083986282
81,0.00759315490723,0.00552082061768,0.00467896461487,0.000648021697998,0.172677993774
82,0.00567388534546,0.00549101829529,0.00562906265259,0.000833988189697,0.175642967224
83,0.00720715522766,0.00573897361755,0.00492906570435,0.000689029693604,0.179745912552
84,0.00515198707581,0.00575709342957,0.00448703765869,0.000632047653198,0.186506986618
85,0.00427317619324,0.00628185272217,0.00491690635681,0.000705003738403,0.221476078033
86,0.00764298439026,0.00545001029968,0.00449895858765,0.000649929046631,0.184146165848
87,0.00533723831177,0.00490188598633,0.00584006309509,0.000868082046509,0.185434103012
88,0.00684070587158,0.00555205345154,0.00453901290894,0.000653982162476,0.18926692009
89,0.00682330131531,0.00667595863342,0.00463199615479,0.000650882720947,0.191668987274
90,0.00402212142944,0.00661611557007,0.00489401817322,0.000714063644409,0.228393793106
91,0.00744700431824,0.00533413887024,0.00442600250244,0.000632047653198,0.198214054108
92,0.00588083267212,0.004802942276,0.00449800491333,0.000633955001831,0.205888986588
93,0.00715589523315,0.00666904449463,0.00486898422241,0.000747919082642,0.250106096268
94,0.00427985191345,0.00504398345947,0.0042130947113,0.000617027282715,0.20746588707
95,0.0040647983551,0.00457501411438,0.00413990020752,0.000593900680542,0.201416015625
96,0.00815010070801,0.00603008270264,0.00456881523132,0.000694990158081,0.248475074768
97,0.00544214248657,0.00454497337341,0.00412583351135,0.000601053237915,0.207062005997
98,0.00698208808899,0.00634598731995,0.00454092025757,0.000706195831299,0.234352111816
99,0.00430583953857,0.00432991981506,0.00430607795715,0.000607967376709,0.244405984879
