step,run,get,set,free,run_up_to_step
0,0.0280640125275,0.0167109966278,0.0142459869385,0.00250196456909,0.00805902481079
1,0.00974702835083,0.013680934906,0.0132079124451,0.00251793861389,0.0143730640411
2,0.00708484649658,0.013916015625,0.0144000053406,0.00306510925293,0.0167632102966
3,0.0112519264221,0.0137372016907,0.015331029892,0.00262713432312,0.0224142074585
4,0.0104730129242,0.0137221813202,0.0138108730316,0.00260090827942,0.0490500926971
5,0.00841593742371,0.0137209892273,0.0135769844055,0.00264883041382,0.0315179824829
6,0.011134147644,0.0136890411377,0.0138001441956,0.00312805175781,0.0382390022278
7,0.0068531036377,0.013671875,0.0135910511017,0.0026421546936,0.0384211540222
8,0.0107860565186,0.0134830474854,0.0160698890686,0.00383496284485,0.0446858406067
9,0.00702524185181,0.0141251087189,0.0137410163879,0.00269508361816,0.0472040176392
10,0.0124402046204,0.0144867897034,0.0139110088348,0.00286197662354,0.0565659999847
11,0.0126800537109,0.0136668682098,0.0161972045898,0.00354504585266,0.0601658821106
12,0.00653004646301,0.0140128135681,0.0134019851685,0.00267815589905,0.0622217655182
13,0.0128300189972,0.0152981281281,0.013974905014,0.00270199775696,0.116766929626
14,0.00774502754211,0.0133678913116,0.0133380889893,0.00261211395264,0.0723919868469
15,0.00851702690125,0.0149388313293,0.0136299133301,0.00277781486511,0.101758003235
16,0.0118200778961,0.013787984848,0.0133039951324,0.00264501571655,0.0868599414825
17,0.00695705413818,0.0140240192413,0.014261007309,0.00275111198425,0.112092971802
18,0.0128343105316,0.0137920379639,0.0142531394958,0.00274395942688,0.0912849903107
19,0.00737905502319,0.0148348808289,0.0149471759796,0.00358200073242,0.268206119537
20,0.00927305221558,0.0149490833282,0.0150730609894,0.00291109085083,0.116391897202
21,0.0106010437012,0.0147359371185,0.0142168998718,0.00292801856995,0.104180812836
22,0.00640201568604,0.0143661499023,0.0144309997559,0.00291395187378,0.133249044418
23,0.0134792327881,0.0144259929657,0.0156149864197,0.00315594673157,0.132165908813
24,0.0100269317627,0.0159649848938,0.0145130157471,0.00305485725403,0.168607950211
25,0.00931906700134,0.0144109725952,0.0157058238983,0.00355005264282,0.121026039124
26,0.0126430988312,0.0149731636047,0.01407289505,0.00283408164978,0.142695903778
27,0.00862503051758,0.0165581703186,0.0152139663696,0.00318193435669,0.135513067245
28,0.010922908783,0.0140950679779,0.0137989521027,0.0028989315033,0.135004997253
29,0.0072910785675,0.0148229598999,0.0146181583405,0.0029890537262,0.169697999954
30,0.00946307182312,0.0137960910797,0.0163061618805,0.00349497795105,0.14372086525
31,0.0123410224915,0.0167119503021,0.0140070915222,0.00286602973938,0.151369094849
32,0.00699281692505,0.0156559944153,0.0149538516998,0.00303912162781,0.150362014771
33,0.0112771987915,0.0136787891388,0.0152819156647,0.00290012359619,0.209409952164
34,0.00820398330688,0.0162200927734,0.0172090530396,0.0035560131073,0.16001200676
35,0.00931906700134,0.0163779258728,0.0159251689911,0.00338983535767,0.236135005951
36,0.0118801593781,0.014496088028,0.0166139602661,0.00325703620911,0.203155040741
37,0.00727462768555,0.0162580013275,0.0151469707489,0.00307893753052,0.172718048096
38,0.0132341384888,0.0164651870728,0.0161318778992,0.00337290763855,0.2072930336
39,0.00744390487671,0.0152289867401,0.0144779682159,0.00299215316772,0.189821958542
40,0.00878882408142,0.0159440040588,0.0170831680298,0.00363397598267,0.219127893448
41,0.0109832286835,0.0154569149017,0.0151541233063,0.00331616401672,0.217223167419
42,0.0260808467865,0.0153079032898,0.0148198604584,0.00322484970093,0.243393182755
43,0.0227530002594,0.0139999389648,0.0149619579315,0.00301003456116,0.198284864426
44,0.00846314430237,0.0146811008453,0.0145719051361,0.00293517112732,0.20059299469
45,0.00875997543335,0.014524936676,0.0146958827972,0.00301814079285,0.240639925003
46,0.0115580558777,0.0141539573669,0.0156819820404,0.00346612930298,0.246931791306
47,0.00715684890747,0.0143179893494,0.0149028301239,0.00292205810547,0.214398145676
48,0.0130650997162,0.0159521102905,0.0158522129059,0.00371503829956,0.22075510025
49,0.0094940662384,0.0161101818085,0.022115945816,0.00513696670532,0.350718975067
50,0.0127511024475,0.0195319652557,0.0214908123016,0.00427794456482,0.361618041992
51,0.0123522281647,0.0138301849365,0.0150821208954,0.00383400917053,0.243244886398
52,0.00791907310486,0.015830039978,0.0138638019562,0.00302600860596,0.266987085342
53,0.0132069587708,0.0140399932861,0.0207381248474,0.00365304946899,0.283702850342
54,0.00796413421631,0.016391992569,0.0155951976776,0.00322604179382,0.279941082001
55,0.0078239440918,0.0165429115295,0.015508890152,0.00323510169983,0.308987855911
56,0.0138230323792,0.017951965332,0.0159888267517,0.00387096405029,0.296947002411
57,0.00715899467468,0.0157160758972,0.015998840332,0.00308799743652,0.276350975037
58,0.0126900672913,0.0159118175507,0.0150768756866,0.00308918952942,0.267675876617
59,0.0073390007019,0.0149719715118,0.0148479938507,0.00308108329773,0.298029899597
60,0.00947403907776,0.0144798755646,0.0145509243011,0.00310015678406,0.281764030457
61,0.0108659267426,0.014387845993,0.0143098831177,0.00299286842346,0.275166988373
62,0.00645399093628,0.0139429569244,0.0142028331757,0.00295495986938,0.283146858215
63,0.011620759964,0.0133879184723,0.0136260986328,0.00291204452515,0.301470041275
64,0.00887107849121,0.0142028331757,0.0137610435486,0.00290703773499,0.311691999435
65,0.00982713699341,0.0142188072205,0.0132780075073,0.00283694267273,0.324083089828
66,0.0110108852386,0.0135250091553,0.0137858390808,0.00282311439514,0.303363084793
67,0.00720715522766,0.0132949352264,0.0138330459595,0.00284695625305,0.361529111862
68,0.0121901035309,0.0194020271301,0.0225970745087,0.00490593910217,0.582338809967
69,0.00871706008911,0.0183320045471,0.0170331001282,0.00348687171936,0.338101148605
70,0.00909185409546,0.0164589881897,0.0160160064697,0.00323414802551,0.323059082031
71,0.0127649307251,0.016597032547,0.0162630081177,0.00339579582214,0.367090940475
72,0.00768613815308,0.0382940769196,0.0180928707123,0.00362205505371,0.324460983276
73,0.0123629570007,0.0160710811615,0.0164470672607,0.00363111495972,0.36480307579
74,0.0081000328064,0.0161960124969,0.0149869918823,0.00313901901245,0.334916114807
75,0.00820684432983,0.0151097774506,0.0151038169861,0.00318002700806,0.378681898117
76,0.0119349956512,0.0147578716278,0.0151739120483,0.00316405296326,0.402582168579
77,0.00912714004517,0.0193870067596,0.0153210163116,0.00340819358826,0.405739068985
78,0.0126910209656,0.0148909091949,0.0147230625153,0.00307488441467,0.382541179657
79,0.00723385810852,0.0139729976654,0.0390191078186,0.00345206260681,0.352329969406
80,0.00905704498291,0.0139489173889,0.0138549804688,0.00348281860352,0.395139932632
81,0.0117769241333,0.01495885849,0.0139119625092,0.0029628276825,0.427550077438
82,0.0066819190979,0.0173468589783,0.0174920558929,0.00349020957947,0.62611413002
83,0.0119829177856,0.0165700912476,0.0166389942169,0.00321006774902,0.374490976334
84,0.00893568992615,0.0162692070007,0.0169548988342,0.00332808494568,0.376897096634
85,0.00853800773621,0.0158529281616,0.0148439407349,0.00309085845947,0.384885787964
86,0.0112500190735,0.0151031017303,0.01606798172,0.0277750492096,0.42174911499
87,0.0071280002594,0.0146040916443,0.0151238441467,0.00314617156982,0.448864936829
88,0.0109162330627,0.0149049758911,0.0150330066681,0.00312399864197,0.432677984238
89,0.00715494155884,0.0146219730377,0.0144670009613,0.00301098823547,0.433871984482
90,0.00861787796021,0.013580083847,0.0139799118042,0.00294280052185,0.399641990662
91,0.0154302120209,0.0150270462036,0.0136609077454,0.00307703018188,0.418129920959
92,0.00652194023132,0.0132169723511,0.0138981342316,0.00296497344971,0.397778987885
93,0.0131249427795,0.0140221118927,0.0146629810333,0.00326609611511,0.457363128662
94,0.00802898406982,0.0129709243774,0.0134718418121,0.00290107727051,0.484029054642
95,0.00999402999878,0.0175411701202,0.0170059204102,0.00361800193787,0.70463013649
96,0.0118408203125,0.016459941864,0.0170509815216,0.00367307662964,0.482434988022
97,0.00727009773254,0.0164480209351,0.0389540195465,0.00398397445679,0.484702110291
98,0.0128500461578,0.0164711475372,0.0157039165497,0.00321793556213,0.440119981766
99,0.00769591331482,0.0153870582581,0.0149910449982,0.00306010246277,0.440909862518
