step,run,get,set,free,run_up_to_step
0,0.0268371105194,0.00672197341919,0.00796580314636,0.00108408927917,0.0403990745544
1,0.0367741584778,0.00644612312317,0.00604200363159,0.000894069671631,0.0559329986572
2,0.0292172431946,0.00627112388611,0.00590991973877,0.000807046890259,0.0592830181122
3,0.0237307548523,0.00640201568604,0.00610613822937,0.000946998596191,0.0496070384979
4,0.0264360904694,0.00617599487305,0.00610303878784,0.000930070877075,0.0888359546661
5,0.0617399215698,0.00568914413452,0.00612306594849,0.000927925109863,0.0558378696442
6,0.0253360271454,0.00596284866333,0.00607991218567,0.000921964645386,0.0803699493408
7,0.0392990112305,0.00594806671143,0.00594305992126,0.000818967819214,0.0852839946747
8,0.0182571411133,0.0064160823822,0.00671291351318,0.0010449886322,1.37496399879
9,0.0261690616608,0.00658702850342,0.00634384155273,0.00107598304749,0.0778419971466
10,0.0126068592072,0.00665998458862,0.00618505477905,0.000956058502197,0.0848431587219
11,0.0260021686554,0.00635504722595,0.00661516189575,0.00101184844971,0.0701870918274
12,0.0262157917023,0.00636601448059,0.00610208511353,0.000938892364502,0.0825109481812
13,0.0160527229309,0.00618410110474,0.0142648220062,0.00124192237854,0.1226811409
14,0.00906729698181,0.00608992576599,0.00629591941833,0.00101399421692,0.127717971802
15,0.0332219600677,0.00645589828491,0.00633597373962,0.000992059707642,0.121817827225
16,0.0259819030762,0.00655102729797,0.00613188743591,0.000939130783081,0.105610132217
17,0.0169758796692,0.00626397132874,0.00631308555603,0.00098991394043,0.0860290527344
18,0.0235450267792,0.00666213035583,0.00652813911438,0.000990867614746,0.094899892807
19,0.00992202758789,0.00665497779846,0.00624108314514,0.000988006591797,0.135646104813
20,0.0192441940308,0.00660395622253,0.00619506835938,0.000951051712036,0.128812074661
21,0.0095489025116,0.00637197494507,0.00690388679504,0.00109100341797,0.137091875076
22,0.00950002670288,0.00630807876587,0.00662994384766,0.00107407569885,0.126940011978
23,0.0126581192017,0.00668096542358,0.00655484199524,0.000964879989624,0.324172973633
24,0.0241289138794,0.00636100769043,0.00617098808289,0.000971794128418,0.188040018082
25,0.0232317447662,0.00644993782043,0.00674104690552,0.00105381011963,0.127709150314
26,0.0394289493561,0.00654697418213,0.00621294975281,0.000933885574341,0.171999931335
27,0.00947189331055,0.0065541267395,0.00634098052979,0.00103187561035,0.258450984955
28,0.0159549713135,0.00672316551208,0.00641918182373,0.00101900100708,0.207413911819
29,0.0205657482147,0.00658297538757,0.00630807876587,0.000991106033325,0.17217707634
30,0.0212600231171,0.00654792785645,0.00655889511108,0.000953197479248,0.179897069931
31,0.016500711441,0.00638103485107,0.00610494613647,0.000994920730591,0.16798210144
32,0.0260081291199,0.00644207000732,0.00728893280029,0.00124001502991,0.149622917175
33,0.0175380706787,0.00698781013489,0.00647592544556,0.00113892555237,0.170153856277
34,0.042407989502,0.00707793235779,0.00661396980286,0.000948905944824,0.157464027405
35,0.0197558403015,0.00963687896729,0.00619292259216,0.00096607208252,0.179234981537
36,0.0172619819641,0.00692510604858,0.00604200363159,0.000873804092407,0.194180965424
37,0.0240743160248,0.00691390037537,0.00649404525757,0.00136590003967,0.194836139679
38,0.0200498104095,0.0065770149231,0.00629115104675,0.000981092453003,0.218111038208
39,0.0148131847382,0.00709700584412,0.00679302215576,0.00110197067261,0.658542871475
40,0.0164759159088,0.00729298591614,0.00708985328674,0.00133395195007,0.213747024536
41,0.0109400749207,0.00702214241028,0.00646996498108,0.00104808807373,0.217693090439
42,0.0218570232391,0.00885796546936,0.00626611709595,0.00104713439941,0.399857997894
43,0.273349046707,0.00672698020935,0.00625991821289,0.000982046127319,0.204653978348
44,0.0144648551941,0.00649285316467,0.00627088546753,0.00105285644531,0.245456218719
45,0.0213098526001,0.00722217559814,0.00657606124878,0.00112390518188,0.292651891708
46,0.029390335083,0.00726413726807,0.00680017471313,0.00103497505188,0.214312076569
47,0.0244760513306,0.00713896751404,0.00630712509155,0.00101613998413,0.250039100647
48,0.0244941711426,0.00648784637451,0.006108045578,0.000960826873779,0.207962989807
49,0.0224680900574,0.0063591003418,0.0062050819397,0.000979900360107,0.249370098114
50,0.0240368843079,0.0063910484314,0.00748586654663,0.00125908851624,0.205790042877
51,0.0231187343597,0.00727677345276,0.00668692588806,0.00111508369446,0.243468046188
52,0.0162110328674,0.00724005699158,0.00672316551208,0.00113201141357,0.240209102631
53,0.0162920951843,0.00704002380371,0.0065438747406,0.00105285644531,0.249954938889
54,0.0163969993591,0.00692796707153,0.00633788108826,0.000997066497803,0.442816972733
55,0.0211758613586,0.00759410858154,0.00687694549561,0.00113296508789,0.35067486763
56,0.0257749557495,0.00753211975098,0.00692987442017,0.00117802619934,0.697371959686
57,0.0246639251709,0.00743508338928,0.00670385360718,0.00111413002014,0.296994924545
58,0.0166137218475,0.00719404220581,0.00899314880371,0.00122880935669,0.331321001053
59,0.0234911441803,0.00662589073181,0.00711107254028,0.00112104415894,0.318547010422
60,0.0165021419525,0.0079460144043,0.00661897659302,0.00113606452942,0.400434017181
61,0.0211153030396,0.00658893585205,0.00638794898987,0.00109195709229,0.271661043167
62,0.495582103729,0.00644016265869,0.00641989707947,0.00103712081909,0.310343980789
63,0.0203220844269,0.00667190551758,0.00628995895386,0.00106501579285,0.264564037323
64,0.0167481899261,0.00629997253418,0.00616216659546,0.00102210044861,0.584543943405
65,0.0157198905945,0.00678396224976,0.00644111633301,0.00104689598083,0.520572900772
66,0.0153880119324,0.00694108009338,0.009920835495,0.00203990936279,0.274168968201
67,0.0098991394043,0.00681710243225,0.00867795944214,0.00212597846985,0.337553977966
68,0.0190670490265,0.00695395469666,0.00678396224976,0.00137710571289,0.339994907379
69,0.0160858631134,0.00677299499512,0.00643491744995,0.00100493431091,0.368714094162
70,0.00968265533447,0.00699400901794,0.00743889808655,0.00124192237854,0.405066013336
71,0.0150611400604,0.0069408416748,0.00638389587402,0.00104284286499,0.298562049866
72,0.0262930393219,0.0068199634552,0.00626397132874,0.00100612640381,0.282437086105
73,0.0202121734619,0.00668716430664,0.00648999214172,0.00112390518188,0.385728120804
74,0.0172836780548,0.00665712356567,0.00764393806458,0.00146293640137,0.353384017944
75,0.020131111145,0.00710606575012,0.00685787200928,0.00110983848572,0.976019144058
76,0.0204658508301,0.00704288482666,0.0068531036377,0.00134801864624,0.652974128723
77,0.0241119861603,0.00713706016541,0.00694799423218,0.00120401382446,0.387121915817
78,0.0232100486755,0.00637292861938,0.00731492042542,0.00125408172607,0.366788864136
79,0.00827312469482,0.00751280784607,0.00668501853943,0.00119090080261,0.38929605484
80,0.00857591629028,0.00742220878601,0.00687623023987,0.00121092796326,0.339161157608
81,0.00865411758423,0.00682806968689,0.00656414031982,0.00105595588684,0.412642002106
82,0.0152871608734,0.00660800933838,0.00651812553406,0.00111413002014,0.40513920784
83,0.016893863678,0.00659108161926,0.00757217407227,0.00127005577087,0.586112976074
84,0.0163681507111,0.00824308395386,0.007080078125,0.00144600868225,0.590132951736
85,0.0170798301697,0.00788187980652,0.00696802139282,0.00111699104309,0.38950586319
86,0.0154900550842,0.00740885734558,0.00706505775452,0.00118803977966,0.420099020004
87,0.0200951099396,0.00652694702148,0.00667500495911,0.00103306770325,0.433940887451
88,0.0089008808136,0.00802803039551,0.00695490837097,0.00118398666382,0.511192083359
89,0.0236370563507,0.00769996643066,0.0066831111908,0.00118184089661,0.422959804535
90,0.0403141975403,0.00775218009949,0.00713491439819,0.00120997428894,0.362966060638
91,0.0156660079956,0.00704407691956,0.00668811798096,0.00109887123108,0.403159141541
92,0.0383369922638,0.00873208045959,0.00811696052551,0.00141501426697,0.712502002716
93,0.0228698253632,0.00737690925598,0.00690603256226,0.00127410888672,0.426080942154
94,0.0158340930939,0.00730800628662,0.00654101371765,0.0010838508606,0.659665107727
95,0.00839996337891,0.00685906410217,0.00647497177124,0.00104403495789,0.545647144318
96,0.0130169391632,0.00773596763611,0.00701212882996,0.00117301940918,0.569906949997
97,0.0155808925629,0.007493019104,0.00723099708557,0.00121402740479,0.381446123123
98,0.0205550193787,0.00754594802856,0.00681900978088,0.00119185447693,0.50802397728
99,0.0177221298218,0.0083429813385,0.00938200950623,0.00174188613892,0.449972867966
