step,run,get,set,free,run_up_to_step
0,0.0560419559479,0.0174829959869,0.0181450843811,0.00153088569641,0.0577898025513
1,0.0489628314972,0.0167779922485,0.0182619094849,0.00163793563843,0.101794958115
2,0.0493407249451,0.0167140960693,0.0176420211792,0.00160098075867,0.14773607254
3,0.0496127605438,0.0169720649719,0.0176229476929,0.00164699554443,0.191162109375
4,0.0481300354004,0.0161790847778,0.0176758766174,0.0016028881073,0.433467149734
5,0.0489580631256,0.0165100097656,0.0188789367676,0.00181293487549,0.280580997467
6,0.0489580631256,0.0167088508606,0.0177450180054,0.00159621238708,0.323036909103
7,0.0504438877106,0.0163769721985,0.0182919502258,0.00163984298706,0.369986057281
8,0.0501799583435,0.0170760154724,0.017560005188,0.00171589851379,0.431744098663
9,0.0487291812897,0.016802072525,0.0176529884338,0.00167512893677,0.689682006836
10,0.0484321117401,0.016340970993,0.0181760787964,0.00188016891479,0.492428064346
11,0.0482671260834,0.0161349773407,0.0179071426392,0.00183892250061,0.545848846436
12,0.0568330287933,0.0171661376953,0.0185949802399,0.00226402282715,0.595385074615
13,0.0548179149628,0.0166389942169,0.018070936203,0.00175499916077,0.641890048981
14,0.0493068695068,0.0165948867798,0.0183210372925,0.00173497200012,0.687842845917
15,0.0489568710327,0.016930103302,0.0182271003723,0.00171089172363,0.716325998306
16,0.0498881340027,0.016833782196,0.0178158283234,0.00181818008423,0.743512153625
17,0.0508248806,0.017040014267,0.0194931030273,0.00213694572449,1.13454389572
18,0.0503857135773,0.0163722038269,0.0176219940186,0.00178790092468,0.845658063889
19,0.0610349178314,0.0164630413055,0.018070936203,0.00185799598694,0.91935801506
20,0.0496661663055,0.0166831016541,0.0193700790405,0.00288391113281,0.942202091217
21,0.0500469207764,0.0176219940186,0.0180521011353,0.00189900398254,0.968420028687
22,0.0500817298889,0.0164699554443,0.0180859565735,0.00190210342407,1.02942991257
23,0.0493309497833,0.0169439315796,0.0182218551636,0.00187301635742,1.07555294037
24,0.0510580539703,0.0168399810791,0.0181839466095,0.0028350353241,1.13304305077
25,0.0519828796387,0.0178599357605,0.0184609889984,0.00240612030029,1.15897107124
26,0.0513417720795,0.0171689987183,0.0177249908447,0.00195503234863,1.20586204529
27,0.049633026123,0.0169019699097,0.0184559822083,0.00262403488159,1.23865914345
28,0.0500407218933,0.0171959400177,0.0183699131012,0.00182580947876,1.29169201851
29,0.0494959354401,0.0169529914856,0.0181140899658,0.0018458366394,1.33498001099
30,0.0493288040161,0.0169570446014,0.0184309482574,0.00182795524597,1.35459899902
31,0.0499498844147,0.0169451236725,0.0184121131897,0.00179386138916,1.44511294365
32,0.0498631000519,0.0172889232635,0.0178928375244,0.00221014022827,1.46215605736
33,0.0494799613953,0.0170211791992,0.0187571048737,0.00181984901428,1.50600504875
34,0.0484108924866,0.0167260169983,0.0194849967957,0.00184106826782,1.55668091774
35,0.0490143299103,0.0170049667358,0.0183629989624,0.002366065979,1.60548996925
36,0.0487751960754,0.0167889595032,0.0181369781494,0.00182414054871,1.65411996841
37,0.0485360622406,0.0171310901642,0.0183539390564,0.0018470287323,1.6898829937
38,0.0498421192169,0.0169570446014,0.0180861949921,0.00191211700439,2.0728828907
39,0.04958319664,0.0165479183197,0.0183970928192,0.00185894966125,1.78524899483
40,0.0485889911652,0.0169408321381,0.0184948444366,0.00192093849182,1.85139203072
41,0.0480930805206,0.0168089866638,0.0182290077209,0.0019519329071,2.20126795769
42,0.0490329265594,0.0187618732452,0.0191078186035,0.00184917449951,1.88360786438
43,0.0485529899597,0.0170328617096,0.0185189247131,0.00187683105469,1.99533295631
44,0.0482957363129,0.0172069072723,0.0180258750916,0.00238990783691,1.97656202316
45,0.0553801059723,0.0172648429871,0.0182318687439,0.00239014625549,2.03514814377
46,0.0545690059662,0.0168781280518,0.0182390213013,0.00179290771484,2.09784197807
47,0.0507411956787,0.0181188583374,0.0182249546051,0.00286102294922,2.13401794434
48,0.048394203186,0.0171761512756,0.0184319019318,0.00183296203613,2.17816090584
49,0.0491859912872,0.0168538093567,0.0178210735321,0.00213217735291,2.21803808212
50,0.0502650737762,0.0180559158325,0.0184149742126,0.00200295448303,2.60276293755
51,0.0490350723267,0.0171430110931,0.0182919502258,0.00182890892029,2.30457687378
52,0.0493068695068,0.0171849727631,0.0187411308289,0.00242400169373,2.35338592529
53,0.0490791797638,0.0180218219757,0.0185110569,0.00263214111328,2.39446306229
54,0.0485091209412,0.0180079936981,0.0183990001678,0.00205492973328,2.42798185349
55,0.0490438938141,0.0171048641205,0.0178890228271,0.00178098678589,2.49150705338
56,0.0480949878693,0.0169100761414,0.018550157547,0.00192904472351,2.82121896744
57,0.0505249500275,0.0174350738525,0.0186851024628,0.00203704833984,2.55599498749
58,0.0487179756165,0.017138004303,0.01766705513,0.00183296203613,2.62869405746
59,0.0488219261169,0.0168747901917,0.0182189941406,0.00185918807983,3.00464010239
60,0.0495188236237,0.0178508758545,0.019198179245,0.00207018852234,2.69029402733
61,0.0499179363251,0.0173468589783,0.0183520317078,0.00236797332764,2.81177806854
62,0.0490589141846,0.0170550346375,0.0182690620422,0.00184011459351,2.81060791016
63,0.0496788024902,0.0173740386963,0.0189280509949,0.00180983543396,2.8387260437
64,0.0491209030151,0.01700091362,0.0184659957886,0.00232195854187,3.17838096619
65,0.0490159988403,0.018040895462,0.0187239646912,0.00181698799133,2.91364908218
66,0.0502102375031,0.0176141262054,0.0185389518738,0.00224709510803,3.01456904411
67,0.0501289367676,0.0172381401062,0.0183951854706,0.00191211700439,3.02835297585
68,0.0493156909943,0.0170791149139,0.0187749862671,0.00180006027222,3.030575037
69,0.0490610599518,0.0170338153839,0.0184490680695,0.00186109542847,3.374573946
70,0.0515108108521,0.017195224762,0.0182280540466,0.00228714942932,3.13499188423
71,0.0506539344788,0.0172369480133,0.0180418491364,0.00176596641541,3.20639896393
72,0.0499408245087,0.0169730186462,0.0182421207428,0.00184512138367,3.58038711548
73,0.044830083847,0.0169188976288,0.0199480056763,0.00190591812134,3.24649500847
74,0.0521759986877,0.0169999599457,0.0191290378571,0.00165796279907,3.36739706993
75,0.050763130188,0.0176181793213,0.0183789730072,0.00186085700989,3.72052502632
76,0.0494289398193,0.0172801017761,0.0183808803558,0.00288009643555,3.36744809151
77,0.0500848293304,0.0172929763794,0.0177178382874,0.00182485580444,3.47291398048
78,0.048760175705,0.0172429084778,0.0186078548431,0.00178098678589,3.49558711052
79,0.0488610267639,0.0185160636902,0.0182571411133,0.00232100486755,3.93078613281
80,0.0530519485474,0.017450094223,0.0206139087677,0.00186705589294,3.60863494873
81,0.0480780601501,0.0166931152344,0.0185158252716,0.00184178352356,3.69377398491
82,0.0494120121002,0.0170860290527,0.0182809829712,0.00182199478149,3.66634988785
83,0.048938035965,0.0167529582977,0.0184419155121,0.00184512138367,4.00370311737
84,0.0493640899658,0.0170710086823,0.0183911323547,0.0028121471405,3.78108596802
85,0.0545213222504,0.0170750617981,0.018609046936,0.001797914505,3.79917407036
86,0.0489370822906,0.0172429084778,0.0183689594269,0.00233101844788,3.84373688698
87,0.0497851371765,0.0170919895172,0.0186498165131,0.0019199848175,3.89982414246
88,0.0461258888245,0.0164570808411,0.0201449394226,0.00251603126526,3.94434404373
89,0.0503671169281,0.0169909000397,0.0184049606323,0.00182700157166,4.04262900352
90,0.0484712123871,0.0172910690308,0.018609046936,0.0019588470459,4.31909894943
91,0.0494310855865,0.0171921253204,0.0190320014954,0.00190591812134,4.06760597229
92,0.0491681098938,0.0172319412231,0.0181400775909,0.00180006027222,4.1662530899
93,0.0492210388184,0.0171601772308,0.0192470550537,0.00188612937927,4.55320692062
94,0.0499179363251,0.0170500278473,0.0183880329132,0.00206804275513,4.17583990097
95,0.0490307807922,0.0168509483337,0.0189599990845,0.00186109542847,4.58338999748
96,0.055291891098,0.0169191360474,0.0186159610748,0.00181603431702,4.25721597672
97,0.0489242076874,0.0170269012451,0.0188231468201,0.00196695327759,4.64785909653
98,0.0488991737366,0.0174651145935,0.0197839736938,0.00184392929077,4.30140709877
99,0.049064874649,0.0169179439545,0.0186998844147,0.0018630027771,4.77489304543
