step,run,get,set,free,run_up_to_step
0,0.00518107414246,0.00509810447693,0.00462508201599,0.000648975372314,0.00699520111084
1,0.00484013557434,0.00478386878967,0.00462698936462,0.000637054443359,0.00713801383972
2,0.0063099861145,0.0048611164093,0.00448989868164,0.000651121139526,0.00936889648438
3,0.00515794754028,0.00480103492737,0.00450897216797,0.000643968582153,0.0096640586853
4,0.00447702407837,0.00480008125305,0.00440096855164,0.000645160675049,0.00976586341858
5,0.00295901298523,0.0047779083252,0.0046648979187,0.000795841217041,0.0111901760101
6,0.00304818153381,0.00487995147705,0.00475907325745,0.000670909881592,0.0123150348663
7,0.00329804420471,0.00502991676331,0.00474691390991,0.000668048858643,0.0133440494537
8,0.00308322906494,0.0049569606781,0.0045690536499,0.000648021697998,0.0136349201202
9,0.00331401824951,0.00484800338745,0.00455808639526,0.000642061233521,0.014172077179
10,0.00326585769653,0.00479793548584,0.00445103645325,0.00064492225647,0.0148129463196
11,0.0059061050415,0.00466799736023,0.00479817390442,0.000823974609375,0.0184569358826
12,0.00417399406433,0.0050208568573,0.00475096702576,0.000680923461914,0.0196721553802
13,0.00487017631531,0.00494003295898,0.00474309921265,0.000684976577759,0.0207319259644
14,0.00680685043335,0.00522112846375,0.00472092628479,0.000686883926392,0.0250949859619
15,0.00627875328064,0.00537109375,0.00494599342346,0.00070595741272,0.027224779129
16,0.00433897972107,0.00488114356995,0.0048201084137,0.000699043273926,0.0230550765991
17,0.00554513931274,0.00495195388794,0.00464105606079,0.000664949417114,0.0256011486053
18,0.00345802307129,0.00500917434692,0.00454902648926,0.000669002532959,0.0263199806213
19,0.00344824790955,0.0048930644989,0.00485110282898,0.000692129135132,0.059828042984
20,0.00338101387024,0.0049090385437,0.00484204292297,0.000728130340576,0.0272932052612
21,0.00342082977295,0.00490999221802,0.00457000732422,0.000671863555908,0.0277688503265
22,0.00334095954895,0.00477290153503,0.0046329498291,0.000665903091431,0.02827501297
23,0.004558801651,0.00478482246399,0.00452709197998,0.000656127929688,0.0303230285645
24,0.00535130500793,0.00527310371399,0.00495409965515,0.000727891921997,0.0941030979156
25,0.00438213348389,0.00512599945068,0.00492787361145,0.000761032104492,0.0348660945892
26,0.00524997711182,0.0048930644989,0.00467801094055,0.000694036483765,0.0354800224304
27,0.00606513023376,0.00566411018372,0.00578117370605,0.00118708610535,0.0394830703735
28,0.00614190101624,0.00522494316101,0.00481200218201,0.000919103622437,0.0450210571289
29,0.00593018531799,0.00524806976318,0.00556707382202,0.00110387802124,0.0399558544159
30,0.00577688217163,0.00654411315918,0.00569701194763,0.00111293792725,0.0488431453705
31,0.00367784500122,0.00535607337952,0.00506496429443,0.00076699256897,0.0455460548401
32,0.0032742023468,0.00511717796326,0.00503206253052,0.000753879547119,0.04088306427
33,0.00396108627319,0.00493907928467,0.00480794906616,0.000708103179932,0.0409560203552
34,0.00333309173584,0.00471711158752,0.00457692146301,0.000673055648804,0.0425570011139
35,0.00478410720825,0.00599908828735,0.00503206253052,0.000771999359131,0.098363161087
36,0.00638389587402,0.0050151348114,0.00484585762024,0.000701904296875,0.0467391014099
37,0.00416302680969,0.00459504127502,0.0045177936554,0.000663995742798,0.0471558570862
38,0.00524640083313,0.00498104095459,0.00484299659729,0.000714063644409,0.0585799217224
39,0.00499296188354,0.00558495521545,0.00500893592834,0.000754117965698,0.0883808135986
40,0.00426697731018,0.00519704818726,0.00487089157104,0.000743865966797,0.0506370067596
41,0.00467205047607,0.00505304336548,0.00460195541382,0.000676870346069,0.0514461994171
42,0.00588488578796,0.00483894348145,0.00459098815918,0.000700950622559,0.0527350902557
43,0.00323987007141,0.00459980964661,0.00457310676575,0.000685930252075,0.052444934845
44,0.00374317169189,0.00583696365356,0.00525689125061,0.000805854797363,0.05304479599
45,0.00323891639709,0.00529599189758,0.0048840045929,0.000742197036743,0.055114030838
46,0.00333309173584,0.00493407249451,0.00455784797668,0.000670909881592,0.0561320781708
47,0.00329184532166,0.00478005409241,0.00502300262451,0.000775814056396,0.05726313591
48,0.00561094284058,0.00464701652527,0.00588011741638,0.00100588798523,0.0573818683624
49,0.00562715530396,0.00552082061768,0.00489902496338,0.000771999359131,0.0617949962616
50,0.00419211387634,0.00557088851929,0.00506711006165,0.000787973403931,0.0622770786285
51,0.00492596626282,0.00514388084412,0.00464105606079,0.000690937042236,0.0625529289246
52,0.00470590591431,0.00471496582031,0.00461316108704,0.000677824020386,0.0624830722809
53,0.00520610809326,0.00534605979919,0.00507712364197,0.00079607963562,0.159248113632
54,0.00481390953064,0.00516986846924,0.0047709941864,0.000749826431274,0.0642638206482
55,0.00320792198181,0.00517988204956,0.00475406646729,0.000761985778809,0.0652768611908
56,0.00317072868347,0.00523209571838,0.00465798377991,0.000691890716553,0.0661628246307
57,0.00341701507568,0.00506782531738,0.00689697265625,0.000948905944824,0.0664811134338
58,0.0032958984375,0.00533294677734,0.005038022995,0.000763893127441,0.069503068924
59,0.00341010093689,0.00530910491943,0.00484704971313,0.000746011734009,0.0719809532166
60,0.00324440002441,0.00504612922668,0.00479292869568,0.000717878341675,0.0694310665131
61,0.00628089904785,0.0055878162384,0.00506997108459,0.000805139541626,0.157013177872
62,0.00410890579224,0.00514912605286,0.0048360824585,0.000746965408325,0.0751750469208
63,0.00440526008606,0.00488090515137,0.00460505485535,0.000694990158081,0.0749061107635
64,0.00535988807678,0.00487208366394,0.00485396385193,0.000720977783203,0.0753269195557
65,0.0044949054718,0.00564408302307,0.00493597984314,0.000799179077148,0.134770870209
66,0.00478672981262,0.00549912452698,0.00501203536987,0.000820875167847,0.0848829746246
67,0.0057578086853,0.0049741268158,0.00511407852173,0.000755071640015,0.0788309574127
68,0.00348687171936,0.0048840045929,0.00578904151917,0.00117707252502,0.0887598991394
69,0.00467300415039,0.00600099563599,0.00506591796875,0.000789165496826,0.101603031158
70,0.00336098670959,0.00517702102661,0.00468111038208,0.000726938247681,0.0822110176086
71,0.00321912765503,0.00477910041809,0.00458908081055,0.000679969787598,0.0824930667877
72,0.00334095954895,0.006098985672,0.00525212287903,0.000882148742676,0.135165929794
73,0.00480484962463,0.0051441192627,0.00494599342346,0.00075101852417,0.0860850811005
74,0.00557994842529,0.00494790077209,0.00452494621277,0.000692129135132,0.0869250297546
75,0.00418829917908,0.00458216667175,0.00449109077454,0.000679969787598,0.0886740684509
76,0.00499629974365,0.00618886947632,0.00511693954468,0.000854015350342,0.169126033783
77,0.00448489189148,0.00515913963318,0.00481700897217,0.000756978988647,0.0924718379974
78,0.00444793701172,0.00468587875366,0.00453686714172,0.000667095184326,0.0911340713501
79,0.00510001182556,0.0046329498291,0.00451493263245,0.000691890716553,0.0910699367523
80,0.00327515602112,0.00556397438049,0.00497484207153,0.000789880752563,0.154481172562
81,0.00387001037598,0.00510406494141,0.00453495979309,0.000901937484741,0.108585119247
82,0.00424885749817,0.00455498695374,0.00451898574829,0.00064492225647,0.0984480381012
83,0.00530195236206,0.00676703453064,0.00522685050964,0.000832080841064,0.162985086441
84,0.00330400466919,0.00540590286255,0.00470805168152,0.000740051269531,0.097247838974
85,0.00334191322327,0.00478410720825,0.00488615036011,0.000757932662964,0.119679927826
86,0.00635385513306,0.00453186035156,0.00449895858765,0.000669002532959,0.0993669033051
87,0.00421786308289,0.00547385215759,0.00497603416443,0.000789165496826,0.158831834793
88,0.0044162273407,0.0048770904541,0.00459003448486,0.000707864761353,0.104276895523
89,0.00522184371948,0.00448799133301,0.00451016426086,0.000663042068481,0.104779005051
90,0.00484800338745,0.00579118728638,0.00595307350159,0.00133490562439,0.161989927292
91,0.00457978248596,0.0049901008606,0.00473618507385,0.000749111175537,0.107023000717
92,0.00586295127869,0.00487995147705,0.00453805923462,0.000672101974487,0.138062953949
93,0.00365996360779,0.0063111782074,0.00567579269409,0.000941038131714,0.300603151321
94,0.00384831428528,0.00579595565796,0.00494289398193,0.000790119171143,0.125903844833
95,0.00332713127136,0.0055091381073,0.00505805015564,0.000778913497925,0.109095811844
96,0.00329995155334,0.00665307044983,0.00592088699341,0.00104403495789,0.149554014206
97,0.00325107574463,0.0054349899292,0.00501108169556,0.000804901123047,0.134747028351
98,0.00483989715576,0.00515604019165,0.00466203689575,0.000753879547119,0.116965055466
99,0.00576019287109,0.00521802902222,0.00646591186523,0.00103807449341,0.112788915634
