step,run,get,set,free,run_up_to_step
0,0.0140249729156,0.00635313987732,0.00639915466309,0.000633001327515,0.010458946228
1,0.00831985473633,0.00600790977478,0.00630497932434,0.000561952590942,0.0236480236053
2,0.00908803939819,0.00575089454651,0.00657200813293,0.000592947006226,0.0197048187256
3,0.00804305076599,0.00612187385559,0.00414609909058,0.000432014465332,0.0212600231171
4,0.00831484794617,0.00611615180969,0.00410485267639,0.000379085540771,0.020289182663
5,0.00721406936646,0.00600504875183,0.00641012191772,0.000588893890381,0.0248761177063
6,0.0173099040985,0.00594305992126,0.00632810592651,0.000674962997437,0.0233409404755
7,0.0109970569611,0.00639605522156,0.00688695907593,0.000447034835815,0.0186710357666
8,0.00761103630066,0.00625491142273,0.00685596466064,0.000663995742798,0.0327320098877
9,0.00945997238159,0.00592684745789,0.00679588317871,0.000610113143921,0.0275909900665
10,0.00789475440979,0.0063750743866,0.00406002998352,0.000389099121094,0.0268888473511
11,0.0066819190979,0.00403499603271,0.00568985939026,0.000694990158081,0.0295810699463
12,0.00760579109192,0.00624108314514,0.00664687156677,0.000718116760254,0.0336918830872
13,0.0104410648346,0.00621390342712,0.00410389900208,0.000425100326538,0.0234179496765
14,0.00756001472473,0.00653004646301,0.00690698623657,0.000658988952637,0.0321021080017
15,0.00846982002258,0.00601291656494,0.00650000572205,0.000699043273926,0.0333127975464
16,0.00745511054993,0.0063169002533,0.00468802452087,0.000452995300293,0.0357987880707
17,0.0070469379425,0.00407409667969,0.00668692588806,0.000736951828003,0.0334150791168
18,0.00727105140686,0.00610709190369,0.00694489479065,0.00058388710022,0.0367290973663
19,0.00855302810669,0.00681185722351,0.00471305847168,0.000603914260864,0.0409832000732
20,0.00952005386353,0.00425815582275,0.00464010238647,0.000472068786621,0.05326795578
21,0.00770306587219,0.00612282752991,0.00659108161926,0.000627040863037,0.0859830379486
22,0.00942969322205,0.00451588630676,0.00453305244446,0.000503063201904,0.0523371696472
23,0.00836801528931,0.0063750743866,0.0068531036377,0.000638008117676,0.0473680496216
24,0.00840616226196,0.00624895095825,0.00424289703369,0.00042200088501,0.0449957847595
25,0.00818204879761,0.00394606590271,0.00478506088257,0.000808000564575,0.0449028015137
26,0.00801610946655,0.00607705116272,0.00680685043335,0.000662803649902,0.0449140071869
27,0.00872826576233,0.00615215301514,0.00682401657104,0.000772953033447,0.0431411266327
28,0.00656294822693,0.00421094894409,0.00696897506714,0.000485897064209,0.0458841323853
29,0.0145440101624,0.00615000724792,0.00684499740601,0.00059700012207,0.0610899925232
30,0.0110220909119,0.00644683837891,0.00689291954041,0.000732898712158,0.0596101284027
31,0.00873589515686,0.0061891078949,0.00647687911987,0.000851154327393,0.0568690299988
32,0.00869679450989,0.00437593460083,0.00417399406433,0.000446081161499,0.0411069393158
33,0.00856184959412,0.00676608085632,0.00441694259644,0.000810861587524,0.0631449222565
34,0.00807094573975,0.00621104240417,0.00683999061584,0.000611066818237,0.0603680610657
35,0.00822782516479,0.00564694404602,0.004723072052,0.000649929046631,0.0673871040344
36,0.00924611091614,0.00645589828491,0.00673699378967,0.000606060028076,0.048819065094
37,0.00919604301453,0.00643801689148,0.00631403923035,0.000428199768066,0.0706839561462
38,0.00861883163452,0.00701713562012,0.00690603256226,0.000824213027954,0.0654079914093
39,0.00910019874573,0.00558996200562,0.00698018074036,0.000694036483765,0.0786349773407
40,0.00830292701721,0.00679087638855,0.00698113441467,0.000782012939453,0.0542421340942
41,0.00876593589783,0.00679183006287,0.00719785690308,0.000735998153687,0.0622229576111
42,0.00840902328491,0.00672006607056,0.00413107872009,0.000421047210693,0.0646500587463
43,0.0063648223877,0.00474810600281,0.00452899932861,0.000576972961426,0.0573298931122
44,0.00852489471436,0.00687885284424,0.00720000267029,0.000831842422485,0.0808169841766
45,0.010635137558,0.00661015510559,0.00686883926392,0.000811815261841,0.071487903595
46,0.00741386413574,0.0064640045166,0.00712203979492,0.000777959823608,0.0934431552887
47,0.00910902023315,0.00636196136475,0.00656414031982,0.000602006912231,0.0807151794434
48,0.00930571556091,0.00669312477112,0.00704121589661,0.000756978988647,0.0760931968689
49,0.00778317451477,0.00436615943909,0.00415396690369,0.000393867492676,0.0911750793457
50,0.00729203224182,0.0066499710083,0.00684499740601,0.00061297416687,0.119019985199
51,0.00731086730957,0.00611019134521,0.00658488273621,0.000592947006226,0.0909309387207
52,0.00816202163696,0.00572609901428,0.0064001083374,0.000553131103516,0.0740311145782
53,0.00818395614624,0.00636196136475,0.0044960975647,0.00044584274292,0.079087972641
54,0.00652813911438,0.00417304039001,0.00636911392212,0.000555038452148,0.0654540061951
55,0.00843691825867,0.0065541267395,0.00662612915039,0.000723838806152,0.0913980007172
56,0.0263209342957,0.00590515136719,0.0065438747406,0.000669002532959,0.0828771591187
57,0.00653004646301,0.00437593460083,0.00673604011536,0.000736951828003,0.104365825653
58,0.00867915153503,0.00621891021729,0.0063681602478,0.000586986541748,0.128023862839
59,0.00794100761414,0.00639986991882,0.00682806968689,0.000696897506714,0.127285003662
60,0.00913119316101,0.0042359828949,0.00457406044006,0.000491142272949,0.0824089050293
61,0.0116050243378,0.00698494911194,0.00658702850342,0.000655889511108,0.198024988174
62,0.014436006546,0.00614595413208,0.00625085830688,0.000566005706787,0.0998709201813
63,0.00620579719543,0.00381994247437,0.00628614425659,0.000553131103516,0.0844330787659
64,0.00725197792053,0.00615000724792,0.00683999061584,0.000606060028076,0.100291967392
65,0.0142126083374,0.00607109069824,0.00636291503906,0.000566005706787,0.0996401309967
66,0.00740313529968,0.00442290306091,0.00607705116272,0.000775098800659,0.0859439373016
67,0.0321052074432,0.00605392456055,0.00634002685547,0.000566005706787,0.114847898483
68,0.00728678703308,0.00633597373962,0.00614905357361,0.000869035720825,0.173381090164
69,0.00686502456665,0.00400805473328,0.00416207313538,0.000385999679565,0.0820410251617
70,0.00778198242188,0.00614285469055,0.00713300704956,0.000839948654175,0.228873968124
71,0.0086190700531,0.00628113746643,0.00693702697754,0.000756978988647,0.0851290225983
72,0.00610375404358,0.00606203079224,0.00689601898193,0.000939846038818,0.133878946304
73,0.00834488868713,0.00680208206177,0.00684499740601,0.000791072845459,0.109310150146
74,0.0158598423004,0.00497984886169,0.00524592399597,0.000754117965698,0.170228004456
75,0.00684714317322,0.00443410873413,0.00717687606812,0.000824928283691,0.0823559761047
76,0.00704789161682,0.00629901885986,0.00688505172729,0.000691890716553,0.181016921997
77,0.00750708580017,0.00660991668701,0.0068941116333,0.000677824020386,0.0929071903229
78,0.00627303123474,0.00410795211792,0.00498604774475,0.000509023666382,0.0865139961243
79,0.00792598724365,0.00653195381165,0.00695300102234,0.000741004943848,0.115030050278
80,0.00939083099365,0.00682592391968,0.0069568157196,0.000650882720947,0.134150028229
81,0.00812315940857,0.00643181800842,0.00456118583679,0.000432968139648,0.126996040344
82,0.00746726989746,0.00677800178528,0.00686001777649,0.000645875930786,0.327664852142
83,0.0185158252716,0.00606298446655,0.00633788108826,0.00059986114502,0.11287689209
84,0.0347740650177,0.00693607330322,0.00558185577393,0.000436067581177,0.142977952957
85,0.00628614425659,0.00405597686768,0.00638103485107,0.000568151473999,0.0982558727264
86,0.00759482383728,0.00651502609253,0.00673604011536,0.000635862350464,0.136016845703
87,0.0140397548676,0.00499296188354,0.00635504722595,0.000564098358154,0.30842590332
88,0.0119712352753,0.00695395469666,0.00464797019958,0.000463008880615,0.142555952072
89,0.00916290283203,0.00584197044373,0.00638580322266,0.000568151473999,0.0827159881592
90,0.00782585144043,0.00656986236572,0.00691390037537,0.000627040863037,0.16135597229
91,0.00761318206787,0.00598502159119,0.0062038898468,0.000563859939575,0.347914934158
92,0.00671195983887,0.00679898262024,0.0074348449707,0.000730037689209,0.110133886337
93,0.0104382038116,0.00652980804443,0.00406384468079,0.000418901443481,0.129037857056
94,0.00743293762207,0.006028175354,0.00502800941467,0.000546932220459,0.1652739048
95,0.0060760974884,0.0044150352478,0.00425291061401,0.000478029251099,0.103889942169
96,0.00723123550415,0.00680494308472,0.00686001777649,0.000640153884888,0.180773973465
97,0.00682830810547,0.00574707984924,0.00664710998535,0.000591039657593,0.113986968994
98,0.0077178478241,0.00619792938232,0.00427985191345,0.000441074371338,0.119091033936
99,0.00844693183899,0.00609517097473,0.00662207603455,0.000608921051025,0.150192975998
