step,run,get,set,free,run_up_to_step
0,0.0207889080048,0.0289828777313,0.0295779705048,0.00714612007141,0.0202941894531
1,0.00953125953674,0.0281710624695,0.0289161205292,0.00575304031372,0.0254600048065
2,0.00980401039124,0.027144908905,0.0286509990692,0.00597095489502,0.0235011577606
3,0.0088369846344,0.025691986084,0.0286190509796,0.00565099716187,0.0263578891754
4,0.00834035873413,0.0275862216949,0.0302560329437,0.00656890869141,0.0234279632568
5,0.00873470306396,0.026407957077,0.0304918289185,0.00595211982727,0.0267698764801
6,0.00904822349548,0.0282700061798,0.0295732021332,0.00576210021973,0.028174161911
7,0.00841093063354,0.0278830528259,0.0312747955322,0.0067150592804,0.0299661159515
8,0.00999593734741,0.0295989513397,0.0301649570465,0.00605201721191,0.0310401916504
9,0.00964283943176,0.0271530151367,0.0303299427032,0.00580406188965,0.105541944504
10,0.0139300823212,0.0289440155029,0.0287940502167,0.00626397132874,0.0311970710754
11,0.0291469097137,0.0288767814636,0.0299398899078,0.00588893890381,0.0350370407104
12,0.0179781913757,0.027899980545,0.0290820598602,0.00578188896179,0.0371730327606
13,0.0113840103149,0.0347130298615,0.0312881469727,0.00608992576599,0.0430469512939
14,0.0142500400543,0.0284521579742,0.0316250324249,0.00593090057373,0.0375590324402
15,0.0118651390076,0.0273370742798,0.0299880504608,0.00601291656494,0.0402400493622
16,0.00982284545898,0.0281159877777,0.0289587974548,0.00566220283508,0.0387990474701
17,0.00833415985107,0.0272459983826,0.0299160480499,0.00594401359558,0.0405609607697
18,0.0106008052826,0.0280849933624,0.0295569896698,0.00585603713989,0.0426721572876
19,0.0090799331665,0.0279579162598,0.0316770076752,0.0059859752655,0.0415940284729
20,0.00962615013123,0.0303909778595,0.0295779705048,0.0057680606842,0.04208111763
21,0.00850582122803,0.0266950130463,0.0293760299683,0.00621604919434,0.107805013657
22,0.0107219219208,0.027006149292,0.029002904892,0.00579214096069,0.0499651432037
23,0.00851082801819,0.0263910293579,0.0304160118103,0.005774974823,0.0452167987823
24,0.0102231502533,0.0366461277008,0.0326790809631,0.00645709037781,0.0559329986572
25,0.0121228694916,0.0304591655731,0.0337159633636,0.00850105285645,0.0669839382172
26,0.0102858543396,0.0271620750427,0.033928155899,0.00672197341919,0.0573449134827
27,0.00971007347107,0.0273971557617,0.0331220626831,0.00712990760803,0.0535941123962
28,0.00833702087402,0.0277581214905,0.0289719104767,0.00584816932678,0.119626045227
29,0.00847792625427,0.0283899307251,0.030590057373,0.00634694099426,0.053395986557
30,0.00933599472046,0.0271620750427,0.032791852951,0.00826692581177,0.0541880130768
31,0.0155370235443,0.0286960601807,0.0298678874969,0.00585389137268,0.054408788681
32,0.00899004936218,0.0274901390076,0.0291650295258,0.00634288787842,0.0559599399567
33,0.0102651119232,0.0283579826355,0.0279271602631,0.00579786300659,0.0673010349274
34,0.0141699314117,0.0273110866547,0.0293288230896,0.00596499443054,0.169684886932
35,0.00946283340454,0.0266399383545,0.0285539627075,0.00631594657898,0.129526853561
36,0.00919508934021,0.0274178981781,0.0310168266296,0.00582909584045,0.08069896698
37,0.0088222026825,0.0275449752808,0.0297720432281,0.00615406036377,0.117879152298
38,0.00947093963623,0.0292420387268,0.0301601886749,0.00608706474304,0.0902988910675
39,0.00873112678528,0.0296559333801,0.0309438705444,0.00575304031372,0.099319934845
40,0.00906705856323,0.027615070343,0.0297391414642,0.00614404678345,0.0850610733032
41,0.00854992866516,0.0284550189972,0.0305390357971,0.00682711601257,0.0947458744049
42,0.010311126709,0.0309770107269,0.0339758396149,0.00697898864746,0.0908200740814
43,0.00810408592224,0.0289299488068,0.0331490039825,0.00717616081238,0.0797779560089
44,0.00847887992859,0.029326915741,0.0291709899902,0.00567984580994,0.0743680000305
45,0.00860190391541,0.030669927597,0.0325000286102,0.00891995429993,0.0736711025238
46,0.0102891921997,0.0289530754089,0.0293660163879,0.00589609146118,0.174906015396
47,0.00908303260803,0.0274701118469,0.0288789272308,0.00571894645691,0.104368925095
48,0.0106310844421,0.0256819725037,0.029433965683,0.00565409660339,0.0945630073547
49,0.0247299671173,0.027095079422,0.0281059741974,0.00661683082581,0.0981011390686
50,0.00876808166504,0.026951789856,0.0296919345856,0.00657391548157,0.105624914169
51,0.00888204574585,0.0274930000305,0.0288679599762,0.00571703910828,0.0980849266052
52,0.00836896896362,0.027755022049,0.0307400226593,0.00623893737793,0.100917100906
53,0.00850224494934,0.0281798839569,0.0304319858551,0.00580501556396,0.0839109420776
54,0.00932502746582,0.0285050868988,0.0290951728821,0.00640988349915,0.116723060608
55,0.0082221031189,0.0276069641113,0.0296850204468,0.00925087928772,0.08624792099
56,0.020430803299,0.0301220417023,0.0290179252625,0.00635886192322,0.0829889774323
57,0.00816297531128,0.0289590358734,0.0315999984741,0.00653696060181,0.119772911072
58,0.0302841663361,0.0277080535889,0.0288939476013,0.00613307952881,0.190634965897
59,0.00911521911621,0.0265998840332,0.0296788215637,0.00642204284668,0.1076130867
60,0.010819196701,0.0269339084625,0.0294229984283,0.00583577156067,0.133983135223
61,0.0104510784149,0.0285019874573,0.0289359092712,0.00565814971924,0.118211984634
62,0.00864505767822,0.0292840003967,0.0295219421387,0.00654911994934,0.130914926529
63,0.00882029533386,0.0283489227295,0.0284900665283,0.00607800483704,0.114854812622
64,0.0100018978119,0.0296020507812,0.0300018787384,0.00635695457458,0.117707014084
65,0.00947093963623,0.0278389453888,0.0286889076233,0.00639486312866,0.121232032776
66,0.0103068351746,0.0285289287567,0.0311398506165,0.00736808776855,0.123296022415
67,0.0207269191742,0.0313420295715,0.0336079597473,0.00796413421631,0.118427991867
68,0.0121111869812,0.0375339984894,0.0359859466553,0.00920009613037,0.1315741539
69,0.0106410980225,0.0311000347137,0.0306928157806,0.00631284713745,0.100769042969
70,0.00967812538147,0.027468919754,0.0302670001984,0.00628280639648,0.102792978287
71,0.00989675521851,0.027204990387,0.0291471481323,0.00590705871582,0.103395938873
72,0.00998497009277,0.0278599262238,0.0291359424591,0.00590491294861,0.103886127472
73,0.00872707366943,0.0275769233704,0.0285050868988,0.00607299804688,0.419831991196
74,0.00894808769226,0.0275249481201,0.0332980155945,0.00640487670898,0.128101110458
75,0.00838994979858,0.0272760391235,0.0304629802704,0.00671911239624,0.150194168091
76,0.00810980796814,0.0283892154694,0.0310499668121,0.00616478919983,0.136454105377
77,0.00874304771423,0.0287990570068,0.0295050144196,0.00637888908386,0.131895065308
78,0.00866103172302,0.0283939838409,0.0301270484924,0.00623416900635,0.133939981461
79,0.0115621089935,0.0285439491272,0.0293350219727,0.00621891021729,0.133204936981
80,0.00848603248596,0.0289580821991,0.0328829288483,0.00688791275024,0.138772010803
81,0.00884175300598,0.026319026947,0.0296111106873,0.00572299957275,0.211776018143
82,0.00882816314697,0.0305700302124,0.0293831825256,0.00667119026184,0.138345003128
83,0.00876212120056,0.0281610488892,0.0300269126892,0.00626802444458,0.147222042084
84,0.00900483131409,0.0285499095917,0.0303921699524,0.00798487663269,0.159573078156
85,0.00924611091614,0.0271759033203,0.0295050144196,0.0067241191864,0.148801088333
86,0.00948619842529,0.027911901474,0.0296080112457,0.00645303726196,0.146024942398
87,0.00849890708923,0.0276899337769,0.0349612236023,0.0068359375,0.147485017776
88,0.00920176506042,0.0302519798279,0.0297691822052,0.00663590431213,0.177174806595
89,0.00888299942017,0.0287389755249,0.0307040214539,0.00703692436218,0.126858949661
90,0.00843596458435,0.0286591053009,0.0308558940887,0.00639700889587,0.125727891922
91,0.0084593296051,0.0284540653229,0.0311439037323,0.00664401054382,0.123847007751
92,0.00838184356689,0.0275149345398,0.0292022228241,0.00638294219971,0.170180797577
93,0.010418176651,0.0277960300446,0.0298421382904,0.00594615936279,0.12751698494
94,0.00842475891113,0.0274238586426,0.0299379825592,0.00706601142883,0.130305051804
95,0.00860810279846,0.0272800922394,0.0296080112457,0.0060338973999,0.131988048553
96,0.00937604904175,0.0279910564423,0.0292320251465,0.00659084320068,0.130902051926
97,0.0091290473938,0.0281519889832,0.0303268432617,0.00712513923645,0.130295991898
98,0.00970125198364,0.0283148288727,0.027979850769,0.0067138671875,0.133279085159
99,0.00909376144409,0.0274579524994,0.0293869972229,0.00621604919434,0.132569074631
