step,run,get,set,free,run_up_to_step
0,0.0128691196442,0.00767087936401,0.00684595108032,0.000838994979858,0.0135860443115
1,0.0103399753571,0.00707316398621,0.00695300102234,0.000670909881592,0.0169110298157
2,0.00896692276001,0.00720810890198,0.0073299407959,0.00070595741272,0.0196440219879
3,0.0081467628479,0.00761222839355,0.00756812095642,0.000733852386475,0.0227530002594
4,0.00676202774048,0.00735402107239,0.00735521316528,0.000883102416992,0.0237090587616
5,0.00660395622253,0.00749897956848,0.00757694244385,0.000750064849854,0.025074005127
6,0.00618886947632,0.00750017166138,0.00748300552368,0.000809907913208,0.0263381004333
7,0.0250060558319,0.00724101066589,0.00748109817505,0.000801086425781,0.0286960601807
8,0.00712370872498,0.00723385810852,0.00748300552368,0.000757932662964,0.0297639369965
9,0.00597381591797,0.00716805458069,0.00754809379578,0.00087308883667,0.0313351154327
10,0.00657510757446,0.0078558921814,0.00789189338684,0.000996112823486,0.033350944519
11,0.0065131187439,0.00776290893555,0.00765991210938,0.000935077667236,0.0345439910889
12,0.00615787506104,0.00767302513123,0.00803184509277,0.00093412399292,0.0362048149109
13,0.00627708435059,0.00781893730164,0.00779914855957,0.000988960266113,0.0375549793243
14,0.00595784187317,0.00751614570618,0.00780415534973,0.000854969024658,0.0391721725464
15,0.00601196289062,0.00763487815857,0.00744605064392,0.000982999801636,0.0409510135651
16,0.00570392608643,0.00775289535522,0.00764608383179,0.000797986984253,0.042512178421
17,0.00701522827148,0.00825214385986,0.00751709938049,0.00110292434692,0.0445318222046
18,0.0063591003418,0.0074360370636,0.00734806060791,0.00072193145752,0.0459580421448
19,0.00497174263,0.00756597518921,0.00710296630859,0.000721216201782,0.0476150512695
20,0.00500202178955,0.00753498077393,0.00809979438782,0.00106406211853,0.0497350692749
21,0.00500988960266,0.00763201713562,0.00773501396179,0.000795841217041,0.105496883392
22,0.00544786453247,0.00789093971252,0.00740909576416,0.000739097595215,0.053120136261
23,0.0050220489502,0.00779581069946,0.00717091560364,0.000723123550415,0.0621747970581
24,0.00522708892822,0.00774717330933,0.00729703903198,0.000730991363525,0.0555539131165
25,0.00503993034363,0.00777316093445,0.00739097595215,0.000709056854248,0.0579180717468
26,0.00570011138916,0.00763201713562,0.0071439743042,0.000684976577759,0.0593750476837
27,0.00507497787476,0.00761914253235,0.00821709632874,0.000788927078247,0.0670249462128
28,0.0067241191864,0.00801110267639,0.0074999332428,0.000768184661865,0.0622808933258
29,0.00502705574036,0.00812220573425,0.00758004188538,0.000953912734985,0.0640280246735
30,0.00511884689331,0.00965881347656,0.00733399391174,0.000762939453125,0.0656270980835
31,0.00591802597046,0.00831198692322,0.00736904144287,0.000978946685791,0.0691599845886
32,0.00548720359802,0.00799298286438,0.00777697563171,0.000839948654175,0.0688879489899
33,0.00572490692139,0.00798296928406,0.00888299942017,0.000963926315308,0.0703251361847
34,0.00523686408997,0.00834512710571,0.00802397727966,0.000788927078247,0.0794951915741
35,0.00513982772827,0.00829577445984,0.0078239440918,0.000789165496826,0.0732388496399
36,0.00482702255249,0.00809597969055,0.00756311416626,0.000767946243286,0.0749080181122
37,0.00493621826172,0.00789713859558,0.00760006904602,0.000709056854248,0.0761880874634
38,0.00470995903015,0.00767183303833,0.00724911689758,0.000711917877197,0.0790960788727
39,0.00508522987366,0.00786209106445,0.00809001922607,0.000789880752563,0.080775976181
40,0.00510215759277,0.0083429813385,0.00799107551575,0.000809907913208,0.0818240642548
41,0.00486087799072,0.00829195976257,0.00762796401978,0.000924110412598,0.084410905838
42,0.0050323009491,0.00811791419983,0.00754809379578,0.000913143157959,0.0856020450592
43,0.00512790679932,0.00801682472229,0.00784802436829,0.000869035720825,0.0863890647888
44,0.00534892082214,0.00786995887756,0.00718402862549,0.000676155090332,0.0893080234528
45,0.00492596626282,0.00846600532532,0.00796508789062,0.000818014144897,0.160560131073
46,0.0049831867218,0.00830817222595,0.00764107704163,0.000830173492432,0.0913169384003
47,0.0051429271698,0.0081889629364,0.00773811340332,0.000777006149292,0.0929431915283
48,0.00493216514587,0.00820708274841,0.00724506378174,0.000759124755859,0.0937349796295
49,0.0050048828125,0.00773191452026,0.00741410255432,0.000724077224731,0.095134973526
50,0.0115468502045,0.00763916969299,0.00885796546936,0.00100588798523,0.0965440273285
51,0.00512409210205,0.00832390785217,0.00775098800659,0.000828981399536,0.0995810031891
52,0.00507092475891,0.00839185714722,0.00786709785461,0.00082802772522,0.101897001266
53,0.00473999977112,0.00838279724121,0.00777816772461,0.000756025314331,0.102844953537
54,0.00490403175354,0.00798892974854,0.00719904899597,0.00076699256897,0.104044914246
55,0.00454092025757,0.00746917724609,0.00750517845154,0.000797986984253,0.104609966278
56,0.00456786155701,0.00871109962463,0.00767397880554,0.000810861587524,0.18325304985
57,0.00466179847717,0.008376121521,0.00787782669067,0.000799894332886,0.109030008316
58,0.00455284118652,0.00841999053955,0.00771903991699,0.000801086425781,0.109703063965
59,0.00455904006958,0.0082540512085,0.00747394561768,0.000730037689209,0.111719846725
60,0.00457787513733,0.00804996490479,0.00742101669312,0.000725030899048,0.113571882248
61,0.00452494621277,0.0076539516449,0.00853991508484,0.000796794891357,0.113229036331
62,0.0045051574707,0.00753092765808,0.00727200508118,0.00095796585083,0.201217889786
63,0.00461101531982,0.00754714012146,0.00723195075989,0.000737905502319,0.12272810936
64,0.00484013557434,0.00778889656067,0.00720596313477,0.000737190246582,0.16211104393
65,0.00465703010559,0.00781488418579,0.00716090202332,0.000880002975464,0.119183063507
66,0.00472116470337,0.00730586051941,0.00710105895996,0.000725984573364,0.126472949982
67,0.00452995300293,0.00776696205139,0.00751781463623,0.00100207328796,0.200758934021
68,0.00440287590027,0.0078239440918,0.00748896598816,0.000730991363525,0.125028848648
69,0.00467300415039,0.00776386260986,0.0075569152832,0.000738859176636,0.125300168991
70,0.00459003448486,0.00802206993103,0.00765705108643,0.000788927078247,0.128642082214
71,0.0046181678772,0.00811314582825,0.00775218009949,0.000787973403931,0.189859867096
72,0.00451588630676,0.00779294967651,0.00776100158691,0.000905990600586,0.132550001144
73,0.00446176528931,0.00748300552368,0.00720882415771,0.000708818435669,0.132237911224
74,0.00459003448486,0.00759696960449,0.00717210769653,0.000712156295776,0.134435892105
75,0.0045371055603,0.00758385658264,0.00709509849548,0.000687122344971,0.133924007416
76,0.00438809394836,0.00808000564575,0.00773692131042,0.000787973403931,0.195615053177
77,0.00436806678772,0.00796604156494,0.00744390487671,0.000756025314331,0.140164136887
78,0.00458812713623,0.00773692131042,0.00729703903198,0.000890016555786,0.139929056168
79,0.00647711753845,0.00775718688965,0.00742483139038,0.000730037689209,0.141489028931
80,0.00453591346741,0.00747108459473,0.00713801383972,0.000699043273926,0.143001079559
81,0.00447297096252,0.00779414176941,0.00749397277832,0.000769853591919,0.221786975861
82,0.00617289543152,0.00803709030151,0.00743103027344,0.000747919082642,0.14750289917
83,0.00458884239197,0.00760006904602,0.00714778900146,0.000736951828003,0.146569013596
84,0.0046010017395,0.00752091407776,0.00705599784851,0.000876903533936,0.1482899189
85,0.00452327728271,0.00819706916809,0.00774002075195,0.00103902816772,0.198289871216
86,0.00467276573181,0.00800800323486,0.00747919082642,0.00103116035461,0.165626049042
87,0.0045702457428,0.00759482383728,0.00721096992493,0.000716924667358,0.153762817383
88,0.00454711914062,0.00717878341675,0.00734496116638,0.00068211555481,0.154622793198
89,0.00448513031006,0.00835394859314,0.00764489173889,0.000988006591797,0.211840867996
90,0.00463581085205,0.00792407989502,0.00760006904602,0.000757217407227,0.158565044403
91,0.00470590591431,0.0076220035553,0.00720906257629,0.000692129135132,0.160573959351
92,0.00448417663574,0.00713491439819,0.00705695152283,0.000813961029053,0.15994811058
93,0.00454521179199,0.00815486907959,0.00759100914001,0.000792026519775,0.213845014572
94,0.00463390350342,0.00819706916809,0.00738596916199,0.000759124755859,0.172548055649
95,0.00457215309143,0.00766181945801,0.00706505775452,0.000725030899048,0.166372060776
96,0.00466012954712,0.00747489929199,0.00738000869751,0.000668048858643,0.166625976562
97,0.00543999671936,0.00848007202148,0.00731205940247,0.000757932662964,0.217801809311
98,0.00473999977112,0.00803303718567,0.0073549747467,0.000821828842163,0.170596122742
99,0.00611639022827,0.00789189338684,0.00740599632263,0.000708103179932,0.174660921097
