step,run,get,set,free,run_up_to_step
0,0.0321428775787,0.034873008728,0.0370080471039,0.00347280502319,0.0357429981232
1,0.011620759964,0.0336439609528,0.0372438430786,0.00357699394226,0.0363709926605
2,0.0223090648651,0.0349040031433,0.0365188121796,0.00363087654114,0.0425288677216
3,0.0174190998077,0.0341680049896,0.0386309623718,0.00386905670166,0.0391728878021
4,0.0176470279694,0.0342381000519,0.0378048419952,0.00387692451477,0.0427751541138
5,0.0180766582489,0.0358910560608,0.0392758846283,0.00390601158142,0.0484030246735
6,0.0110919475555,0.0346910953522,0.0385978221893,0.00403785705566,0.0458338260651
7,0.0182220935822,0.0349259376526,0.0373339653015,0.0040500164032,0.0471470355988
8,0.0182950496674,0.0348260402679,0.0387420654297,0.00398516654968,0.0441379547119
9,0.0117390155792,0.0346610546112,0.0388259887695,0.0040111541748,0.310640096664
10,0.0200681686401,0.0355880260468,0.038067817688,0.00397801399231,0.0547430515289
11,0.0111780166626,0.0346460342407,0.0377058982849,0.00390791893005,0.0619950294495
12,0.0187790393829,0.0360581874847,0.0392699241638,0.00402903556824,0.0836000442505
13,0.0114200115204,0.0349640846252,0.0391991138458,0.00417685508728,0.079195022583
14,0.0113160610199,0.0354220867157,0.0390560626984,0.00419306755066,0.0994009971619
15,0.0183889865875,0.0355861186981,0.0392699241638,0.00420594215393,0.0818951129913
16,0.0215420722961,0.0358180999756,0.0378510951996,0.00405883789062,0.0900869369507
17,0.0174038410187,0.0357019901276,0.0396790504456,0.0043511390686,0.0959279537201
18,0.0180289745331,0.036474943161,0.0396330356598,0.00425720214844,0.091292142868
19,0.0120549201965,0.036141872406,0.0397388935089,0.00437188148499,0.115099906921
20,0.0196850299835,0.0368778705597,0.0406999588013,0.00425696372986,0.0948028564453
21,0.0110521316528,0.0349080562592,0.0381400585175,0.00393605232239,0.0830218791962
22,0.0184528827667,0.0359799861908,0.038624048233,0.00411295890808,0.0760641098022
23,0.0117149353027,0.0372920036316,0.0405580997467,0.0041720867157,0.0734858512878
24,0.0110342502594,0.0380780696869,0.0388839244843,0.00425314903259,0.0733170509338
25,0.0188930034637,0.0354199409485,0.037379026413,0.00403213500977,0.11054110527
26,0.0169200897217,0.0349199771881,0.0380079746246,0.00416111946106,0.118768930435
27,0.0114500522614,0.0366690158844,0.0398879051208,0.00443983078003,0.103327035904
28,0.0699706077576,0.0357489585876,0.0407660007477,0.00434398651123,0.11274600029
29,0.0175340175629,0.0356061458588,0.0393579006195,0.00421500205994,0.105800867081
30,0.0113761425018,0.0361170768738,0.0389499664307,0.00438594818115,0.111426115036
31,0.0257081985474,0.0365979671478,0.042023897171,0.00436496734619,0.150561094284
32,0.0107359886169,0.0339870452881,0.0378038883209,0.00403809547424,0.180163145065
33,0.0122060775757,0.0362300872803,0.0342152118683,0.00335311889648,0.128772974014
34,0.0114340782166,0.0362930297852,0.0409049987793,0.00432085990906,0.1258289814
35,0.0174791812897,0.0350279808044,0.0383739471436,0.00402808189392,0.138372182846
36,0.0110030174255,0.0351030826569,0.0381438732147,0.00392508506775,0.107907056808
37,0.0108771324158,0.0348629951477,0.0379221439362,0.00390696525574,0.110822916031
38,0.0109899044037,0.0351278781891,0.0391178131104,0.00396990776062,0.106080055237
39,0.0184619426727,0.0355689525604,0.0383229255676,0.00405406951904,0.110742092133
40,0.0108687877655,0.0358600616455,0.038311958313,0.0042359828949,0.120291948318
41,0.0186417102814,0.0369870662689,0.0408818721771,0.00441098213196,0.10524392128
42,0.011137008667,0.0364620685577,0.0392580032349,0.00434994697571,0.122586011887
43,0.0111398696899,0.0372748374939,0.0396230220795,0.00432515144348,0.121816158295
44,0.0245161056519,0.034551858902,0.0406630039215,0.00421595573425,0.279428005219
45,0.0125470161438,0.03533411026,0.040050983429,0.00416898727417,0.133775949478
46,0.018413066864,0.0349071025848,0.0383870601654,0.00391101837158,0.16220998764
47,0.0113899707794,0.0356569290161,0.0391280651093,0.00401091575623,0.154746055603
48,0.0193808078766,0.0355160236359,0.038519859314,0.00494003295898,0.204494953156
49,0.0182528495789,0.0356211662292,0.0411231517792,0.00442385673523,0.161151885986
50,0.0115048885345,0.0364828109741,0.040283203125,0.00516605377197,0.161614894867
51,0.0172197818756,0.0365669727325,0.0404009819031,0.00442004203796,0.176922082901
52,0.0114669799805,0.0366230010986,0.0399150848389,0.00511503219604,0.150254011154
53,0.0177137851715,0.0366668701172,0.0391042232513,0.00432920455933,0.21984910965
54,0.0107779502869,0.0350468158722,0.039980173111,0.00438690185547,0.163673877716
55,0.0127010345459,0.0374200344086,0.0411069393158,0.00556182861328,0.145532131195
56,0.0212380886078,0.0356588363647,0.038770198822,0.00410008430481,0.134397983551
57,0.0188319683075,0.0361409187317,0.0395839214325,0.0041880607605,0.164999961853
58,0.0183489322662,0.0365798473358,0.0394651889801,0.00418782234192,0.165558099747
59,0.0184109210968,0.0367639064789,0.0387449264526,0.0052969455719,0.163331985474
60,0.0113871097565,0.0363399982452,0.0396130084991,0.00440907478333,0.160140037537
61,0.0115439891815,0.0365610122681,0.0392899513245,0.00434708595276,0.16702413559
62,0.0406260490417,0.036199092865,0.0393040180206,0.00486898422241,0.210566997528
63,0.0182991027832,0.0367329120636,0.0392489433289,0.00440621376038,0.694349050522
64,0.0112149715424,0.0369398593903,0.0397529602051,0.00441098213196,0.202030181885
65,0.0115129947662,0.0374360084534,0.039705991745,0.00519299507141,0.208445072174
66,0.0123841762543,0.0374522209167,0.0409359931946,0.00498104095459,0.200935125351
67,0.0216898918152,0.0349559783936,0.0387840270996,0.00415587425232,0.28985118866
68,0.0115637779236,0.034854888916,0.0389161109924,0.00418305397034,0.2205119133
69,0.0115699768066,0.0364120006561,0.0387849807739,0.00416898727417,0.188477993011
70,0.0184519290924,0.0360238552094,0.0386309623718,0.00422692298889,0.209894180298
71,0.0200321674347,0.0358808040619,0.0390200614929,0.00485801696777,0.213639974594
72,0.0111629962921,0.0360720157623,0.0401690006256,0.00510692596436,0.215070962906
73,0.0111801624298,0.0358870029449,0.0391600131989,0.00481986999512,0.227132081985
74,0.0115270614624,0.0373640060425,0.0385050773621,0.0051748752594,0.178536176682
75,0.019101858139,0.0368800163269,0.0392410755157,0.00424695014954,0.174211025238
76,0.0117290019989,0.0358781814575,0.0385541915894,0.00399303436279,0.19585609436
77,0.0114808082581,0.0357940196991,0.0379838943481,0.00389218330383,0.195780992508
78,0.0118820667267,0.0325698852539,0.0430781841278,0.00581002235413,0.197853803635
79,0.0124700069427,0.0359120368958,0.0387279987335,0.00410103797913,0.201208114624
80,0.0120348930359,0.035364151001,0.0382239818573,0.00405406951904,0.182494163513
81,0.0190951824188,0.0352530479431,0.0388200283051,0.00402617454529,0.209762096405
82,0.0181279182434,0.0356068611145,0.0390801429749,0.00540900230408,0.207410097122
83,0.454354047775,0.0211598873138,0.0381789207458,0.00468897819519,0.246315002441
84,0.0185413360596,0.0367820262909,0.0388259887695,0.00476908683777,0.222196102142
85,0.0179569721222,0.0366361141205,0.0394248962402,0.00420594215393,0.213001966476
86,0.0109641551971,0.03626704216,0.0385608673096,0.00476312637329,0.219789028168
87,0.0187330245972,0.0364911556244,0.0379910469055,0.00402498245239,0.220141172409
88,0.0187840461731,0.0359518527985,0.0381278991699,0.00401186943054,0.215605020523
89,0.0185270309448,0.0353591442108,0.0382268428802,0.00531983375549,0.404784917831
90,0.0155191421509,0.0355169773102,0.0390110015869,0.00414204597473,0.431129932404
91,0.0194652080536,0.0354430675507,0.0375699996948,0.00402903556824,0.245315790176
92,0.0115067958832,0.0357329845428,0.0388779640198,0.00495100021362,0.238493919373
93,0.0178549289703,0.0359737873077,0.037849187851,0.0048668384552,0.257503032684
94,0.0175330638885,0.0361020565033,0.0389220714569,0.00499510765076,0.253643035889
95,0.0110356807709,0.0365498065948,0.03835105896,0.00498604774475,0.260207891464
96,0.0329928398132,0.0364091396332,0.039332151413,0.00501108169556,0.266029119492
97,0.0183010101318,0.036954164505,0.0380141735077,0.00465989112854,0.262894868851
98,0.018913269043,0.0391058921814,0.0395269393921,0.0048680305481,0.273432016373
99,0.0115690231323,0.0376389026642,0.0400080680847,0.00444507598877,0.253915071487
