step,run,get,set,free,run_up_to_step
0,0.273391008377,0.00311398506165,0.00301790237427,0.00042986869812,0.268929958344
1,0.247838258743,0.00299787521362,0.00335693359375,0.000704050064087,0.531765937805
2,0.266804695129,0.00325107574463,0.00324416160583,0.000534057617188,0.823760032654
3,0.255702733994,0.00387811660767,0.00358200073242,0.000571012496948,1.04405498505
4,0.256949663162,0.00353598594666,0.00333619117737,0.000720977783203,1.77150607109
5,0.242775201797,0.00318908691406,0.00314497947693,0.000675916671753,1.55782294273
6,0.239094018936,0.00353097915649,0.00330400466919,0.000759124755859,1.76497507095
7,0.243708133698,0.00392723083496,0.00330996513367,0.00068211555481,2.05189108849
8,0.246222019196,0.00389313697815,0.00401401519775,0.000832080841064,2.29332494736
9,0.250399112701,0.00450706481934,0.00482892990112,0.00147414207458,3.1290910244
10,0.255259037018,0.00323486328125,0.00384616851807,0.000699996948242,3.08632493019
11,0.31170797348,0.00399398803711,0.00336003303528,0.000805139541626,3.00941181183
12,0.267604827881,0.00304198265076,0.0034658908844,0.000698089599609,3.24013495445
13,0.260771989822,0.00493884086609,0.00431609153748,0.00195598602295,4.1644179821
14,0.260609865189,0.005126953125,0.00436592102051,0.00130915641785,4.59808206558
15,0.28790974617,0.00791501998901,0.00398707389832,0.00153088569641,4.14006519318
16,0.241496801376,0.00437593460083,0.00361394882202,0.00125598907471,4.72658395767
17,0.252910137177,0.00550198554993,0.00416398048401,0.00176000595093,5.44352006912
18,0.22932600975,0.00442004203796,0.00599884986877,0.00214791297913,5.62479710579
19,0.250815868378,0.00441193580627,0.00400280952454,0.00179100036621,5.69350910187
20,0.233889818192,0.00446105003357,0.00387692451477,0.00123596191406,6.33445715904
21,0.252878904343,0.00433707237244,0.00457310676575,0.00118517875671,6.22826886177
22,0.253299951553,0.00464701652527,0.00472497940063,0.00157189369202,6.36615991592
23,0.237586975098,0.00304889678955,0.00434589385986,0.000715017318726,6.07848501205
24,0.237176179886,0.00341105461121,0.00342512130737,0.000757932662964,6.45085883141
25,0.259242773056,0.00627708435059,0.00372409820557,0.00134611129761,6.97639703751
26,0.22679400444,0.00434708595276,0.00321912765503,0.000886917114258,7.53394389153
27,0.227089166641,0.00471901893616,0.00377607345581,0.00158500671387,7.93352103233
28,0.253993988037,0.00446605682373,0.00493216514587,0.00140714645386,8.3034927845
29,0.237917900085,0.00487089157104,0.00485682487488,0.0015549659729,8.14751791954
30,0.249754905701,0.031054019928,0.00410318374634,0.0014979839325,8.47687220573
31,0.233628034592,0.00322008132935,0.00449919700623,0.000795841217041,9.01161313057
32,0.262731075287,0.00521802902222,0.0053608417511,0.00187611579895,9.06884384155
33,0.234932899475,0.00443601608276,0.00367999076843,0.00130605697632,9.15649795532
34,0.2583091259,0.00375604629517,0.00452709197998,0.000864028930664,9.94062614441
35,0.238038063049,0.00358486175537,0.00348496437073,0.000908136367798,9.54733991623
36,0.26564002037,0.00370383262634,0.00326490402222,0.000792026519775,9.95762610435
37,0.233304977417,0.00487995147705,0.00397109985352,0.00150394439697,10.6105680466
38,0.232133626938,0.00340104103088,0.0046238899231,0.000849008560181,10.5804510117
39,0.271313905716,0.00337696075439,0.00337314605713,0.000807046890259,10.4857919216
40,0.760529279709,0.005774974823,0.00600600242615,0.00231623649597,10.9407191277
41,0.246251821518,0.00454878807068,0.00410413742065,0.00152611732483,10.9960949421
42,0.245433092117,0.00313496589661,0.00322294235229,0.000768899917603,11.8411221504
43,0.277573108673,0.00408506393433,0.0038058757782,0.00124192237854,11.8085148335
44,0.24164891243,0.00317406654358,0.00403213500977,0.000712871551514,12.5766940117
45,0.274326086044,0.00678086280823,0.00577592849731,0.00229501724243,12.9134171009
46,0.279908895493,0.00679302215576,0.00505304336548,0.00201797485352,12.463602066
47,0.260879039764,0.00324106216431,0.00419688224792,0.000691890716553,12.6641778946
48,0.236461162567,0.00304198265076,0.00306105613708,0.000790119171143,13.3093390465
49,0.229383945465,0.00306296348572,0.003338098526,0.000734090805054,13.80803895
50,0.249251842499,0.00474095344543,0.0047619342804,0.00136113166809,13.7319068909
51,0.257154941559,0.00350093841553,0.00333285331726,0.000843048095703,13.6109230518
52,0.250542879105,0.00307297706604,0.00360512733459,0.000694036483765,14.1079919338
53,0.225923061371,0.00298714637756,0.0030689239502,0.000704050064087,14.5061919689
54,0.268337965012,0.00300884246826,0.00319218635559,0.00077486038208,14.9943881035
55,0.284892082214,0.00313997268677,0.00325107574463,0.000728845596313,15.5438809395
56,0.266644001007,0.00319290161133,0.0032639503479,0.000752925872803,15.4892911911
57,0.248147010803,0.00587201118469,0.00458097457886,0.00226211547852,15.8999681473
58,0.285711050034,0.00419282913208,0.00542306900024,0.00129890441895,15.5716669559
59,0.959649085999,0.0057909488678,0.0042290687561,0.00217795372009,15.6158730984
60,0.238512277603,0.00309181213379,0.00443983078003,0.000762939453125,16.9303810596
61,0.240524291992,0.00305700302124,0.00328397750854,0.000706911087036,17.0618448257
62,0.244539022446,0.00338006019592,0.0033860206604,0.000841856002808,17.1135919094
63,0.246785163879,0.00316405296326,0.0045530796051,0.000729084014893,18.1281650066
64,0.248342037201,0.00302290916443,0.0032651424408,0.000688791275024,17.0111470222
65,0.240302085876,0.00422787666321,0.00372886657715,0.00116109848022,18.1860170364
66,0.242667913437,0.00350403785706,0.00433611869812,0.00102591514587,18.5322740078
67,0.254858016968,0.0030529499054,0.00643110275269,0.00128793716431,18.367857933
68,0.236588001251,0.00403690338135,0.00373482704163,0.00117182731628,18.2886412144
69,0.339238166809,0.00310516357422,0.00323915481567,0.000779867172241,19.2295851707
70,0.227592229843,0.003005027771,0.003258228302,0.000728130340576,19.1652109623
71,0.279685974121,0.0038959980011,0.00374698638916,0.000985145568848,19.8295938969
72,0.280112981796,0.00488591194153,0.00382685661316,0.00162601470947,20.4791510105
73,0.253702878952,0.00655817985535,0.0044310092926,0.00210881233215,20.1821689606
74,0.24475312233,0.00322008132935,0.00545191764832,0.000743865966797,20.1465678215
75,0.235159158707,0.00301718711853,0.00457191467285,0.000743865966797,20.4248378277
76,0.251113891602,0.00316715240479,0.00413203239441,0.000923156738281,20.7662000656
77,0.255105018616,0.00430297851562,0.00438189506531,0.0012149810791,20.9267749786
78,0.286484003067,0.00312185287476,0.00323605537415,0.000730037689209,22.2763779163
79,0.291220188141,0.00299191474915,0.00418901443481,0.000691890716553,21.5726661682
80,0.231424331665,0.00411987304688,0.00492405891418,0.00117015838623,22.1938788891
81,0.242390155792,0.00314998626709,0.00633502006531,0.000797986984253,22.0036380291
82,0.232028722763,0.0029730796814,0.00325202941895,0.000838994979858,21.630833149
83,0.237948179245,0.00297498703003,0.00496697425842,0.000665903091431,21.7371349335
84,0.25713968277,0.00305604934692,0.00652503967285,0.00075101852417,23.6494960785
85,0.241727828979,0.00314712524414,0.00332903862,0.000707864761353,23.0116989613
86,0.247869253159,0.0031840801239,0.00313806533813,0.000708103179932,23.5062949657
87,0.231693744659,0.00335097312927,0.0047128200531,0.000813961029053,24.3845028877
88,0.300395011902,0.0033700466156,0.00501918792725,0.000741958618164,23.5156109333
89,0.242196798325,0.00285601615906,0.00457787513733,0.000703811645508,23.9390468597
90,0.239856958389,0.00283408164978,0.00469183921814,0.00075888633728,24.1144449711
91,0.239985942841,0.00292205810547,0.00327801704407,0.000685930252075,24.5967330933
92,0.245862960815,0.00611400604248,0.00519919395447,0.0021607875824,25.4148271084
93,0.264455080032,0.00398087501526,0.00472807884216,0.00119996070862,25.3560519218
94,0.29838013649,0.00325489044189,0.00515198707581,0.000860929489136,26.2048799992
95,0.283148288727,0.00408411026001,0.00369095802307,0.000874996185303,25.8050978184
96,0.233968019485,0.00308299064636,0.00558280944824,0.000960111618042,26.4029068947
97,0.234491825104,0.00315499305725,0.00447702407837,0.000859022140503,27.0880980492
98,0.238924980164,0.00449299812317,0.00442504882812,0.00126004219055,26.5141780376
99,0.259594917297,0.00378799438477,0.00349092483521,0.000946998596191,27.1704149246
