step,run,get,set,free,run_up_to_step
0,0.0171670913696,0.0305168628693,0.0311410427094,0.00217890739441,0.02725481987
1,0.0130851268768,0.0209040641785,0.030179977417,0.00297904014587,0.0281119346619
2,0.278225898743,0.0291049480438,0.0311620235443,0.0031201839447,0.0386440753937
3,0.0234382152557,0.0290539264679,0.0304911136627,0.0032742023468,0.0523250102997
4,0.0144951343536,0.0302691459656,0.0319199562073,0.00341486930847,0.0384938716888
5,0.0218241214752,0.0295400619507,0.031867980957,0.00332903862,0.0588970184326
6,0.019994020462,0.0296211242676,0.0312330722809,0.00338816642761,0.0516397953033
7,0.0130791664124,0.0295491218567,0.0309648513794,0.00325107574463,0.0439310073853
8,0.0131080150604,0.0301718711853,0.0316400527954,0.00335478782654,0.0458898544312
9,0.0140562057495,0.0299668312073,0.0324108600616,0.00352096557617,0.0516679286957
10,0.0227370262146,0.0303909778595,0.0326321125031,0.00363397598267,0.0544838905334
11,0.0138351917267,0.0308909416199,0.032644033432,0.00355100631714,0.0523240566254
12,0.0202550888062,0.0294551849365,0.0321090221405,0.00335788726807,0.110925197601
13,0.0137140750885,0.0294950008392,0.031397819519,0.00330877304077,0.0556030273438
14,0.019434928894,0.0297570228577,0.0315320491791,0.00327587127686,0.0707488059998
15,0.0241529941559,0.0300869941711,0.0330669879913,0.00349116325378,0.0912580490112
16,0.0245299339294,0.0295088291168,0.0321979522705,0.00341105461121,0.066370010376
17,0.0204696655273,0.0299100875854,0.0320839881897,0.00337195396423,0.0658898353577
18,0.0225808620453,0.0300600528717,0.0317349433899,0.00345706939697,0.0630218982697
19,0.0210638046265,0.0299880504608,0.0323610305786,0.0034818649292,0.10123705864
20,0.0296881198883,0.0319969654083,0.0324778556824,0.00347805023193,0.0751049518585
21,0.0541951656342,0.0266978740692,0.0366659164429,0.00367617607117,0.0859501361847
22,0.0133037567139,0.0298058986664,0.0327110290527,0.00374698638916,0.0862700939178
23,0.0126678943634,0.0310111045837,0.0341789722443,0.00407099723816,0.096431016922
24,0.0264179706573,0.0322029590607,0.0336909294128,0.00373315811157,0.0768721103668
25,0.0134336948395,0.0320200920105,0.0339689254761,0.00394296646118,0.0832228660583
26,0.0134999752045,0.0320100784302,0.0294330120087,0.00287795066833,0.118182897568
27,0.0202519893646,0.032958984375,0.0290639400482,0.00404405593872,0.0801618099213
28,0.0135431289673,0.0297739505768,0.0319440364838,0.00348901748657,0.0971200466156
29,0.0132737159729,0.0297231674194,0.0329701900482,0.00371694564819,0.146259069443
30,0.0131740570068,0.029932975769,0.0324659347534,0.00358009338379,0.119661092758
31,0.0134100914001,0.0305027961731,0.0324418544769,0.00358390808105,0.0881791114807
32,0.0206019878387,0.0305871963501,0.0318422317505,0.00364995002747,0.0948610305786
33,0.0143661499023,0.0317900180817,0.0328328609467,0.00375413894653,0.130141019821
34,0.0213980674744,0.0309710502625,0.0328049659729,0.00382494926453,0.127593994141
35,0.0131011009216,0.0311410427094,0.0334808826447,0.00403094291687,0.106695890427
36,0.0146248340607,0.0331768989563,0.0335190296173,0.00415396690369,0.0927691459656
37,0.0268168449402,0.02911901474,0.0342791080475,0.00418615341187,0.110548019409
38,0.027820110321,0.0328052043915,0.0341720581055,0.00420904159546,0.142574071884
39,0.0195548534393,0.0327520370483,0.0369729995728,0.0043420791626,0.118504047394
40,0.0128769874573,0.0324170589447,0.0339050292969,0.0045280456543,0.115134954453
41,0.0152633190155,0.022775888443,0.0348830223083,0.00440096855164,0.123028039932
42,0.0138807296753,0.0308530330658,0.0240709781647,0.00287818908691,0.190659046173
43,0.013601064682,0.0313100814819,0.0326540470123,0.00369596481323,0.123375892639
44,0.0207080841064,0.0307850837708,0.0326910018921,0.00364995002747,0.116405963898
45,0.0145440101624,0.0306289196014,0.0322229862213,0.00363516807556,0.139059066772
46,0.0129470825195,0.0305590629578,0.0327870845795,0.00374412536621,0.153022050858
47,0.019012928009,0.0301928520203,0.0321202278137,0.00360512733459,0.12112903595
48,0.0131759643555,0.0308620929718,0.0330469608307,0.00413012504578,0.123850107193
49,0.021476984024,0.0308802127838,0.0320460796356,0.00362586975098,0.156080961227
50,0.0137882232666,0.0304160118103,0.0345499515533,0.00385212898254,0.125919818878
51,0.208912849426,0.030914068222,0.0328090190887,0.00432181358337,0.133191108704
52,0.0128791332245,0.0307211875916,0.0340850353241,0.00414490699768,0.156928062439
53,0.0129282474518,0.030925989151,0.0329501628876,0.00399613380432,0.160536050797
54,0.0146510601044,0.0333449840546,0.0342881679535,0.00467610359192,0.133054018021
55,0.0213239192963,0.0322911739349,0.033951997757,0.00413203239441,0.134788990021
56,0.0219550132751,0.0330190658569,0.0337381362915,0.00427794456482,0.144187927246
57,0.0231528282166,0.0310778617859,0.0355298519135,0.0040910243988,0.288574934006
58,0.0194821357727,0.0311040878296,0.0307958126068,0.00401520729065,0.153385162354
59,0.0197761058807,0.0308520793915,0.0262169837952,0.00523114204407,0.130859136581
60,0.0132899284363,0.0313110351562,0.0333471298218,0.00397419929504,0.147300958633
61,0.0213687419891,0.0308909416199,0.0322301387787,0.00414896011353,0.170449972153
62,0.0202758312225,0.0309250354767,0.0335519313812,0.00395011901855,0.169370889664
63,0.0152611732483,0.0320000648499,0.0320160388947,0.00417304039001,0.141021966934
64,0.0207340717316,0.0316481590271,0.0323970317841,0.00383996963501,0.154976844788
65,0.0265409946442,0.0303349494934,0.0323240756989,0.00417685508728,0.173773050308
66,0.0201032161713,0.03200507164,0.0331029891968,0.0042679309845,0.177572011948
67,0.0475521087646,0.0321660041809,0.033549785614,0.00487112998962,0.161562204361
68,0.0205709934235,0.0319421291351,0.0329630374908,0.00389790534973,0.319128990173
69,0.0126919746399,0.0315899848938,0.0336349010468,0.00397181510925,0.151288032532
70,0.013415813446,0.0318529605865,0.0328118801117,0.00432395935059,0.310083866119
71,0.0978636741638,0.0309400558472,0.0344438552856,0.00515604019165,0.204118013382
72,0.0236258506775,0.0307610034943,0.0322229862213,0.00371599197388,0.181617021561
73,0.0138120651245,0.0307600498199,0.0331528186798,0.0037841796875,0.349532842636
74,0.0260779857635,0.0310549736023,0.0326299667358,0.0048189163208,0.188718080521
75,0.0231959819794,0.0316522121429,0.032222032547,0.00432705879211,0.197782039642
76,0.0127828121185,0.0308270454407,0.0316460132599,0.00398802757263,0.180675029755
77,0.0136351585388,0.0312459468842,0.0324010848999,0.00400590896606,0.17445397377
78,0.029412984848,0.0299971103668,0.0325088500977,0.00414896011353,0.201925992966
79,0.0199990272522,0.0305438041687,0.0322740077972,0.00480604171753,0.295518875122
80,0.0128841400146,0.0317769050598,0.0327379703522,0.00440979003906,0.212917089462
81,0.026153087616,0.031543970108,0.0322608947754,0.00413799285889,0.186328887939
82,0.0132827758789,0.0315499305725,0.0317509174347,0.00374889373779,0.223479032516
83,0.0203130245209,0.0302181243896,0.0327119827271,0.00393295288086,0.224313020706
84,0.0165507793427,0.032909154892,0.0342829227448,0.00446701049805,0.219395875931
85,0.0137259960175,0.0303530693054,0.036209821701,0.00468397140503,0.198134899139
86,0.0124578475952,0.0311200618744,0.0336499214172,0.00414609909058,0.185149908066
87,0.0235290527344,0.0318729877472,0.033429145813,0.00427508354187,0.221916913986
88,0.01265001297,0.0316598415375,0.0343608856201,0.00419187545776,0.205857038498
89,0.0259470939636,0.031525850296,0.033401966095,0.00410103797913,0.215521097183
90,0.0206151008606,0.0312559604645,0.0324478149414,0.00288796424866,0.193845033646
91,0.0131008625031,0.0325629711151,0.033331155777,0.00410318374634,0.189796924591
92,0.0126030445099,0.0311968326569,0.0334780216217,0.00425577163696,0.225899934769
93,0.0129406452179,0.0315229892731,0.0327830314636,0.00398302078247,0.241590976715
94,0.0136549472809,0.0331220626831,0.0345911979675,0.00413489341736,0.253101825714
95,0.0147182941437,0.0340061187744,0.0344400405884,0.00522613525391,0.226337909698
96,0.0147099494934,0.0343940258026,0.0351428985596,0.00410604476929,0.224478006363
97,0.0139799118042,0.032243013382,0.033127784729,0.00444197654724,0.228348016739
98,0.0142090320587,0.0317671298981,0.0329010486603,0.00396108627319,0.240898132324
99,0.0196330547333,0.0307760238647,0.0336310863495,0.00413799285889,0.338161945343
