step,run,get,set,free,run_up_to_step
0,0.0785381793976,0.00753903388977,0.00756597518921,0.000612020492554,0.0883100032806
1,0.0560963153839,0.00697708129883,0.0074610710144,0.000602960586548,0.122094869614
2,0.0538949966431,0.00687003135681,0.00742602348328,0.000603914260864,0.171422958374
3,0.0567171573639,0.00753402709961,0.0075249671936,0.000664949417114,0.220222949982
4,0.044459104538,0.00688719749451,0.00737714767456,0.000617980957031,0.253999948502
5,0.0386869907379,0.00685596466064,0.00725913047791,0.000609159469604,0.28990983963
6,0.0518562793732,0.00709891319275,0.00764012336731,0.000666856765747,0.560633897781
7,0.056450843811,0.00689792633057,0.00764608383179,0.000783920288086,0.380517959595
8,0.0564723014832,0.0070629119873,0.00751900672913,0.000620126724243,0.435343980789
9,0.0452210903168,0.00729513168335,0.00774812698364,0.00066089630127,0.476022958755
10,0.0400950908661,0.00705695152283,0.00745606422424,0.000617027282715,0.513482093811
11,0.0565071105957,0.00692415237427,0.00777697563171,0.00119400024414,0.554325819016
12,0.0555057525635,0.00727105140686,0.00750613212585,0.000654935836792,0.567365884781
13,0.0551888942719,0.00708508491516,0.00763201713562,0.000679969787598,0.631973028183
14,0.0457010269165,0.00702595710754,0.00758099555969,0.00064492225647,0.676805019379
15,0.043928861618,0.00746297836304,0.00767111778259,0.000663995742798,0.703889131546
16,0.0542509555817,0.00684404373169,0.00752878189087,0.000699043273926,0.735146045685
17,0.0531868934631,0.00750803947449,0.00766205787659,0.000861883163452,0.792004108429
18,0.0561621189117,0.00756597518921,0.00809121131897,0.000706195831299,0.829804897308
19,0.0470449924469,0.00749087333679,0.00778698921204,0.000688076019287,0.882081985474
20,0.0440649986267,0.0075831413269,0.0096390247345,0.00072717666626,0.90892291069
21,0.0524559020996,0.00737118721008,0.00765776634216,0.000679969787598,0.955370903015
22,0.0544381141663,0.0075249671936,0.00781989097595,0.000703096389771,1.01131510735
23,0.0522592067719,0.00744700431824,0.00793981552124,0.000899076461792,1.24958205223
24,0.0448849201202,0.00747799873352,0.00783896446228,0.000756025314331,1.06169700623
25,0.0431411266327,0.00757598876953,0.00789308547974,0.000781059265137,1.11647200584
26,0.054083108902,0.00734996795654,0.00778102874756,0.000780820846558,1.15074706078
27,0.0526328086853,0.00706696510315,0.00734210014343,0.000696897506714,1.18956398964
28,0.0578241348267,0.00702810287476,0.00788807868958,0.00091290473938,1.24466204643
29,0.0459387302399,0.0075569152832,0.00799012184143,0.000769853591919,1.2797999382
30,0.0435690879822,0.00729918479919,0.00794315338135,0.000754117965698,1.32036304474
31,0.0503659248352,0.00743007659912,0.00776720046997,0.000730037689209,1.3398680687
32,0.0551669597626,0.00736117362976,0.00774192810059,0.000725030899048,1.41562199593
33,0.0573318004608,0.00708818435669,0.00848793983459,0.00101685523987,1.47211503983
34,0.0443260669708,0.00780200958252,0.00795197486877,0.000821113586426,1.4757168293
35,0.0411517620087,0.00757217407227,0.00746011734009,0.000859022140503,1.49686598778
36,0.0543179512024,0.00744104385376,0.0079870223999,0.000771045684814,1.57682204247
37,0.0544300079346,0.00742197036743,0.00778222084045,0.000770807266235,1.63671708107
38,0.0694687366486,0.00714588165283,0.0077919960022,0.0010130405426,1.65653204918
39,0.0455229282379,0.00740790367126,0.00797295570374,0.000832796096802,1.70352196693
40,0.0450310707092,0.00725507736206,0.00791907310486,0.000791072845459,1.70572018623
41,0.0454828739166,0.00711297988892,0.0079140663147,0.0010130405426,2.1117579937
42,0.054563999176,0.00781583786011,0.00795292854309,0.000849962234497,1.81699490547
43,0.0530071258545,0.00686383247375,0.00791096687317,0.000801086425781,1.8553788662
44,0.0432939529419,0.00723099708557,0.00789594650269,0.000787019729614,1.89608001709
45,0.0415410995483,0.00735998153687,0.00771689414978,0.00084400177002,1.93879199028
46,0.0544080734253,0.00761389732361,0.0080361366272,0.000972986221313,1.98126411438
47,0.0490717887878,0.00731420516968,0.00806498527527,0.000874996185303,2.01158094406
48,0.0559060573578,0.00748085975647,0.00787401199341,0.000885009765625,2.06683206558
49,0.0455539226532,0.00737595558167,0.00778603553772,0.000781059265137,2.11661505699
50,0.0398738384247,0.00684595108032,0.0076048374176,0.000761985778809,2.13992214203
51,0.0523641109467,0.00774002075195,0.00790500640869,0.00105094909668,2.55985689163
52,0.0566160678864,0.00776720046997,0.00848293304443,0.000882863998413,2.23660111427
53,0.0572061538696,0.00751614570618,0.00764298439026,0.000771999359131,2.29804706573
54,0.0441801548004,0.00788998603821,0.0078489780426,0.000797033309937,2.2951130867
55,0.0427122116089,0.00723004341125,0.00769305229187,0.000797033309937,2.30228900909
56,0.0530209541321,0.00724482536316,0.00811910629272,0.000954866409302,2.392619133
57,0.0540091991425,0.00764608383179,0.00795817375183,0.000893831253052,2.39210605621
58,0.0573489665985,0.0074827671051,0.00828886032104,0.000855207443237,2.43956685066
59,0.0468709468842,0.00744700431824,0.00786304473877,0.000814914703369,2.54860496521
60,0.0392360687256,0.00759100914001,0.00766396522522,0.000779867172241,2.56281089783
61,0.0530710220337,0.00772309303284,0.00850009918213,0.00111293792725,2.92547106743
62,0.0536868572235,0.00782990455627,0.00807905197144,0.0010039806366,2.66349315643
63,0.0543360710144,0.00745987892151,0.00783085823059,0.000829935073853,2.66608381271
64,0.0445649623871,0.00728297233582,0.0079231262207,0.000789880752563,2.82276201248
65,0.0431199073792,0.00817799568176,0.00809121131897,0.00118398666382,3.07571792603
66,0.0532042980194,0.00762009620667,0.00793600082397,0.000874996185303,2.76508307457
67,0.0531959533691,0.00757503509521,0.00784111022949,0.000831842422485,2.84488201141
68,0.0550098419189,0.00721311569214,0.00848388671875,0.000977993011475,2.9432990551
69,0.0465650558472,0.00787305831909,0.00805902481079,0.000978946685791,2.95340394974
70,0.0386879444122,0.00763893127441,0.00773787498474,0.000845909118652,2.95743107796
71,0.0514509677887,0.00739192962646,0.00798392295837,0.000818967819214,3.03944706917
72,0.053022146225,0.00705909729004,0.00831294059753,0.00111699104309,3.03633093834
73,0.0584750175476,0.0082790851593,0.00783395767212,0.000985860824585,3.1250770092
74,0.0455689430237,0.00748300552368,0.00869488716125,0.00091290473938,3.16116499901
75,0.0420339107513,0.00756311416626,0.00784707069397,0.000789165496826,3.18404912949
76,0.0531907081604,0.00813388824463,0.00844883918762,0.00124502182007,3.51969504356
77,0.0552098751068,0.00773000717163,0.00797605514526,0.000967979431152,3.23789405823
78,0.056850194931,0.00764107704163,0.0079300403595,0.000875949859619,3.3046810627
79,0.0455048084259,0.00719380378723,0.00828409194946,0.000999927520752,3.37466716766
80,0.0431048870087,0.0079071521759,0.00804090499878,0.00103688240051,3.37677407265
81,0.0527949333191,0.00757598876953,0.00765991210938,0.000838994979858,3.43631196022
82,0.0542531013489,0.00753402709961,0.00777196884155,0.000816106796265,3.49787116051
83,0.0561001300812,0.00805115699768,0.00809907913208,0.00119614601135,3.81745886803
84,0.0472748279572,0.00769305229187,0.00801491737366,0.00088095664978,3.56325483322
85,0.0405919551849,0.00765800476074,0.00937414169312,0.000824928283691,3.53500509262
86,0.052915096283,0.00717496871948,0.00856113433838,0.00100016593933,3.64794206619
87,0.0541121959686,0.00794696807861,0.0083110332489,0.00101184844971,3.70124816895
88,0.0549790859222,0.00740718841553,0.00869607925415,0.000932931900024,3.6985309124
89,0.0432651042938,0.00747394561768,0.00797891616821,0.0010039806366,3.79520320892
90,0.0433020591736,0.00836110115051,0.00825095176697,0.00142383575439,4.12697315216
91,0.0553641319275,0.00761008262634,0.00790405273438,0.00096607208252,3.82098603249
92,0.0541689395905,0.00728106498718,0.0108489990234,0.0010621547699,3.82759308815
93,0.0590600967407,0.00794100761414,0.00834107398987,0.001131772995,4.00473999977
94,0.0457580089569,0.00774502754211,0.00799703598022,0.000919818878174,3.93784499168
95,0.0436971187592,0.00753593444824,0.0079710483551,0.000842094421387,3.99232006073
96,0.05206990242,0.0070641040802,0.00816011428833,0.000991106033325,4.04926800728
97,0.0540480613708,0.00782704353333,0.00824093818665,0.0048828125,4.11438298225
98,0.0584089756012,0.00800323486328,0.00791788101196,0.000863075256348,4.16774606705
99,0.0455129146576,0.00728511810303,0.0090639591217,0.000937938690186,4.14001202583
