step,run,get,set,free,run_up_to_step
0,0.00933790206909,0.0191099643707,0.0195159912109,0.00166916847229,0.0103528499603
1,0.0163369178772,0.0182998180389,0.0207109451294,0.00173497200012,0.0222151279449
2,0.011322259903,0.0187640190125,0.0208489894867,0.00162720680237,0.0243580341339
3,0.0183229446411,0.018177986145,0.0200080871582,0.00175094604492,0.040619134903
4,0.012216091156,0.0186219215393,0.0197560787201,0.00173997879028,0.0384078025818
5,0.0118618011475,0.0190567970276,0.0208268165588,0.00206184387207,0.0476438999176
6,0.0183708667755,0.0185639858246,0.0201411247253,0.0017728805542,0.0581488609314
7,0.0110068321228,0.0189759731293,0.0197741985321,0.00199103355408,0.0613820552826
8,0.0170950889587,0.0186159610748,0.0207250118256,0.00192403793335,0.0784080028534
9,0.0118281841278,0.0181441307068,0.0194931030273,0.00189805030823,0.0725810527802
10,0.0164129734039,0.0187430381775,0.0206370353699,0.00206899642944,0.107409000397
11,0.0158789157867,0.0204620361328,0.0203709602356,0.00209712982178,0.0940799713135
12,0.00976610183716,0.0185251235962,0.021283864975,0.0021800994873,0.0943968296051
13,0.0177402496338,0.0192701816559,0.0207200050354,0.00187110900879,0.101403951645
14,0.0126800537109,0.0188901424408,0.0193729400635,0.00195598602295,0.117501974106
15,0.0118708610535,0.0186500549316,0.0194900035858,0.0016770362854,0.116550922394
16,0.0188479423523,0.0194180011749,0.0206980705261,0.00197076797485,0.166146039963
17,0.0108618736267,0.0190958976746,0.0195920467377,0.00177907943726,0.132759094238
18,0.017233133316,0.0192959308624,0.020534992218,0.00206398963928,0.140338182449
19,0.0111560821533,0.0184350013733,0.0203890800476,0.00173306465149,0.143164157867
20,0.0155339241028,0.0205121040344,0.0205361843109,0.00212907791138,0.214163064957
21,0.0171132087708,0.018816947937,0.0220930576324,0.0021607875824,0.161876916885
22,0.0107772350311,0.0208919048309,0.0229830741882,0.00239205360413,0.167341947556
23,0.018639087677,0.0205581188202,0.0218839645386,0.00239300727844,0.174510002136
24,0.0122089385986,0.0195460319519,0.0208909511566,0.00198817253113,0.179219007492
25,0.0115962028503,0.0190000534058,0.0214278697968,0.00229096412659,0.183747053146
26,0.0185117721558,0.0192768573761,0.0198621749878,0.00196003913879,0.194986104965
27,0.0111029148102,0.0191040039062,0.0203800201416,0.00223088264465,0.221836090088
28,0.0165631771088,0.0172719955444,0.020133972168,0.00181102752686,0.207785129547
29,0.0110828876495,0.0201480388641,0.0211751461029,0.00218415260315,0.248857021332
30,0.0145978927612,0.0191669464111,0.0205612182617,0.00196409225464,0.223876953125
31,0.0168159008026,0.0199000835419,0.0215969085693,0.00216293334961,0.269878149033
32,0.00976419448853,0.0190649032593,0.0211281776428,0.0019359588623,0.234319925308
33,0.0182769298553,0.0183689594269,0.0212371349335,0.002681016922,0.243664979935
34,0.0122210979462,0.0188689231873,0.0203900337219,0.00200295448303,0.246359109879
35,0.0124359130859,0.0195450782776,0.0204849243164,0.00181794166565,0.272331953049
36,0.0184869766235,0.0175831317902,0.0216090679169,0.00175499916077,0.26176404953
37,0.0115659236908,0.0200848579407,0.0208191871643,0.00201392173767,0.265722036362
38,0.0166509151459,0.020476102829,0.0231771469116,0.00226283073425,0.304127931595
39,0.0115437507629,0.019091129303,0.0204668045044,0.00188302993774,0.287533998489
40,0.0149900913239,0.0189411640167,0.0290389060974,0.00246906280518,0.289463996887
41,0.0174870491028,0.0228061676025,0.0218088626862,0.00256180763245,0.308421134949
42,0.0101201534271,0.0212979316711,0.0216422080994,0.00261402130127,0.3302090168
43,0.0182650089264,0.0219008922577,0.02175116539,0.00220918655396,0.308393955231
44,0.0123867988586,0.0203471183777,0.021892786026,0.00222110748291,0.309604883194
45,0.0118510723114,0.0200960636139,0.0210959911346,0.00261998176575,0.324473142624
46,0.0188241004944,0.0193309783936,0.021833896637,0.00253796577454,0.326452970505
47,0.0110859870911,0.0195698738098,0.0214190483093,0.00198602676392,0.331450939178
48,0.017639875412,0.0195760726929,0.0207808017731,0.00196385383606,0.341051101685
49,0.0378568172455,0.0200479030609,0.0214350223541,0.002366065979,0.341496944427
50,0.0144019126892,0.0188980102539,0.0235660076141,0.0019998550415,0.35430598259
51,0.0173571109772,0.0193049907684,0.0204830169678,0.00207185745239,0.365385055542
52,0.0101661682129,0.0189061164856,0.0241711139679,0.00237798690796,0.370121002197
53,0.0194549560547,0.0195648670197,0.0220458507538,0.002121925354,0.38187789917
54,0.011735200882,0.0190401077271,0.0207569599152,0.00237584114075,0.371534824371
55,0.0120778083801,0.0202088356018,0.0197920799255,0.00207185745239,0.412333011627
56,0.0192787647247,0.0174100399017,0.0217339992523,0.00190806388855,0.398240089417
57,0.0109369754791,0.0207459926605,0.0227348804474,0.0027551651001,0.531121969223
58,0.0171601772308,0.0215020179749,0.0244591236115,0.00285482406616,0.410940170288
59,0.0115602016449,0.021555185318,0.022185087204,0.00266480445862,0.415489912033
60,0.0144829750061,0.0209550857544,0.021871805191,0.00265097618103,0.463351011276
61,0.0172901153564,0.0205628871918,0.0216820240021,0.00238609313965,0.433626174927
62,0.00997304916382,0.0205788612366,0.0215280056,0.00225615501404,0.438709974289
63,0.0189161300659,0.0199499130249,0.0212850570679,0.0022931098938,0.445170879364
64,0.0123560428619,0.0198049545288,0.0210058689117,0.00210094451904,0.472048997879
65,0.0457291603088,0.0204830169678,0.0214531421661,0.00237083435059,0.454929113388
66,0.0190351009369,0.0193068981171,0.0227489471436,0.00216698646545,0.467579841614
67,0.0116291046143,0.0198900699615,0.021372795105,0.00243210792542,0.469637870789
68,0.0177149772644,0.0200600624084,0.0217010974884,0.00207209587097,0.478224039078
69,0.0116698741913,0.0189039707184,0.0208959579468,0.00202798843384,0.516700983047
70,0.0147821903229,0.0196080207825,0.0213220119476,0.00243782997131,0.491593837738
71,0.0186111927032,0.0196969509125,0.0207669734955,0.00199699401855,0.50949716568
72,0.0101277828217,0.0207970142365,0.0217978954315,0.00299596786499,0.631105184555
73,0.0183808803558,0.021096944809,0.0224530696869,0.0027871131897,0.547225952148
74,0.0126383304596,0.0206010341644,0.0233130455017,0.00288605690002,0.556676149368
75,0.0122210979462,0.0208210945129,0.0224280357361,0.00293302536011,0.568683862686
76,0.0190169811249,0.0209999084473,0.0227780342102,0.00249099731445,0.541854143143
77,0.0118408203125,0.0210020542145,0.0221598148346,0.00255393981934,0.535456180573
78,0.0168619155884,0.0207860469818,0.021910905838,0.00246405601501,0.550291061401
79,0.0114941596985,0.0207028388977,0.0220248699188,0.00250387191772,0.587624073029
80,0.0146806240082,0.0201361179352,0.0211961269379,0.00241994857788,0.565228939056
81,0.017361164093,0.0196158885956,0.0208570957184,0.00206804275513,0.567088127136
82,0.0100781917572,0.0195670127869,0.0212850570679,0.00197291374207,0.599804878235
83,0.0187859535217,0.0188980102539,0.0213088989258,0.00236010551453,0.608247995377
84,0.0200378894806,0.0191419124603,0.0206770896912,0.00214910507202,0.586714982986
85,0.0253772735596,0.0185990333557,0.0251169204712,0.0024950504303,0.577905893326
86,0.0187966823578,0.0214309692383,0.022481918335,0.00290894508362,0.614516019821
87,0.0114607810974,0.0212349891663,0.0227839946747,0.00281596183777,0.641468048096
88,0.0175061225891,0.0219101905823,0.0224118232727,0.00291895866394,0.644433021545
89,0.0114920139313,0.020320892334,0.0214247703552,0.00244998931885,0.62899184227
90,0.0147438049316,0.0196290016174,0.021026134491,0.00226998329163,0.635468006134
91,0.0180099010468,0.0190980434418,0.0209441184998,0.00193905830383,0.65064406395
92,0.00957584381104,0.0184810161591,0.020271062851,0.00199198722839,0.661540985107
93,0.0187699794769,0.0187559127808,0.0206410884857,0.00199294090271,0.673110961914
94,0.0121469497681,0.0185232162476,0.0193209648132,0.00187397003174,0.649125099182
95,0.0122919082642,0.0183680057526,0.0204799175262,0.00182008743286,0.652177095413
96,0.0187187194824,0.0183899402618,0.0193121433258,0.00188207626343,0.660274982452
97,0.0107049942017,0.0182690620422,0.0196900367737,0.00177597999573,0.697494983673
98,0.0174100399017,0.0181970596313,0.0201878547668,0.00197005271912,0.707077980042
99,0.0117619037628,0.022164106369,0.0237250328064,0.00312495231628,0.88313794136
