step,run,get,set,free,run_up_to_step
0,0.00478410720825,0.00858306884766,0.00759696960449,0.00120711326599,0.00684809684753
1,0.0074999332428,0.00792217254639,0.00740599632263,0.0012001991272,0.0106701850891
2,0.00614500045776,0.00816011428833,0.0077109336853,0.00124001502991,0.0126690864563
3,0.00636601448059,0.0080258846283,0.0077018737793,0.00130414962769,0.0140559673309
4,0.00532007217407,0.0080349445343,0.00761795043945,0.00123286247253,0.0141849517822
5,0.00590085983276,0.00801706314087,0.00733399391174,0.00124096870422,0.0146899223328
6,0.00683999061584,0.00866484642029,0.00748705863953,0.00127291679382,0.0194020271301
7,0.00493597984314,0.00802612304688,0.00768399238586,0.00135397911072,0.0167241096497
8,0.00518107414246,0.00786805152893,0.00750279426575,0.00115299224854,0.0174269676208
9,0.0055046081543,0.007737159729,0.00737905502319,0.00117683410645,0.0190391540527
10,0.00788807868958,0.00779414176941,0.00717306137085,0.00113010406494,0.0272109508514
11,0.00928211212158,0.00759506225586,0.00766587257385,0.00119686126709,0.051628112793
12,0.00681304931641,0.00834012031555,0.00769090652466,0.00117802619934,0.0334401130676
13,0.00576782226562,0.0081090927124,0.00725197792053,0.00120806694031,0.0340440273285
14,0.00741696357727,0.00897097587585,0.00787281990051,0.00133204460144,0.046205997467
15,0.00596499443054,0.00771594047546,0.00809502601624,0.00146007537842,0.0358159542084
16,0.00504803657532,0.0082221031189,0.00820207595825,0.00154685974121,0.0361390113831
17,0.00642681121826,0.0082528591156,0.00779104232788,0.00169396400452,0.0441641807556
18,0.00563812255859,0.00789284706116,0.00814580917358,0.00151610374451,0.0415439605713
19,0.0056140422821,0.00829386711121,0.00861287117004,0.00186610221863,0.0818228721619
20,0.00790810585022,0.00781202316284,0.00720405578613,0.00126194953918,0.0519158840179
21,0.00981616973877,0.0074291229248,0.00726389884949,0.00108504295349,0.0596189498901
22,0.0062210559845,0.00825095176697,0.00867700576782,0.00179004669189,0.109163045883
23,0.00638628005981,0.00840497016907,0.00770998001099,0.00123310089111,0.0643529891968
24,0.00573897361755,0.00832200050354,0.00716495513916,0.00111699104309,0.0574009418488
25,0.00626611709595,0.00799202919006,0.00921106338501,0.00193190574646,0.0618450641632
26,0.00557589530945,0.00906491279602,0.00843405723572,0.00171494483948,0.0603489875793
27,0.00542020797729,0.00890302658081,0.00804901123047,0.00167298316956,0.0655879974365
28,0.00508403778076,0.00811815261841,0.00988507270813,0.00199699401855,0.0607559680939
29,0.00625324249268,0.0091450214386,0.00830101966858,0.00175404548645,0.0643589496613
30,0.00841498374939,0.00834393501282,0.00832915306091,0.00164914131165,0.0711739063263
31,0.010293006897,0.00812315940857,0.0103559494019,0.00210499763489,0.0761108398438
32,0.00662994384766,0.00915813446045,0.00866198539734,0.00169396400452,0.0807049274445
33,0.00629186630249,0.00839400291443,0.00766801834106,0.00152087211609,0.0837550163269
34,0.00587797164917,0.00794386863708,0.00970602035522,0.00223588943481,0.078999042511
35,0.00556898117065,0.00956296920776,0.00894713401794,0.00174403190613,0.080137014389
36,0.00558185577393,0.00927186012268,0.00839400291443,0.00165009498596,0.0809051990509
37,0.00503396987915,0.00951194763184,0.00937294960022,0.00194811820984,0.0815391540527
38,0.00721287727356,0.0326337814331,0.00858306884766,0.0018618106842,0.0881650447845
39,0.00572419166565,0.0090069770813,0.00843715667725,0.00171709060669,0.085431098938
40,0.00900888442993,0.0096800327301,0.00861811637878,0.00214409828186,0.141018152237
41,0.010715007782,0.00910902023315,0.00870513916016,0.00189709663391,0.105813980103
42,0.00665593147278,0.00856781005859,0.00911092758179,0.00196123123169,0.099720954895
43,0.00760698318481,0.00987505912781,0.00834798812866,0.0016930103302,0.127753973007
44,0.00634098052979,0.00866913795471,0.00828790664673,0.00173091888428,0.100707054138
45,0.00677680969238,0.0101981163025,0.00834488868713,0.00162410736084,0.149290084839
46,0.00539684295654,0.00905203819275,0.00879406929016,0.00185608863831,0.1023209095
47,0.0635647773743,0.0107100009918,0.0106699466705,0.00252509117126,0.11221408844
48,0.00834584236145,0.0106210708618,0.00800490379333,0.00165700912476,0.115243911743
49,0.00611400604248,0.00809693336487,0.00799298286438,0.00155591964722,0.110505819321
50,0.0077588558197,0.00897407531738,0.00836205482483,0.00190711021423,0.168949127197
51,0.0101919174194,0.00855112075806,0.00933003425598,0.00194215774536,0.120239019394
52,0.00602388381958,0.00887203216553,0.00910401344299,0.00201296806335,0.170857906342
53,0.00643992424011,0.00895714759827,0.00826001167297,0.0018310546875,0.1523001194
54,0.00563597679138,0.00980997085571,0.00917315483093,0.00195598602295,0.168981075287
55,0.00560998916626,0.00894904136658,0.00859785079956,0.00205707550049,0.120382070541
56,0.00577616691589,0.00807809829712,0.00798296928406,0.00144982337952,0.121857881546
57,0.00522994995117,0.0098819732666,0.00873994827271,0.00167012214661,0.124696016312
58,0.00573992729187,0.01038813591,0.00812220573425,0.00160002708435,0.123242139816
59,0.00546979904175,0.00821018218994,0.00761890411377,0.00147199630737,0.12277007103
60,0.00781178474426,0.00886583328247,0.0084810256958,0.00184392929077,0.190257072449
61,0.0102360248566,0.00830101966858,0.00792193412781,0.00155901908875,0.141318082809
62,0.00668597221375,0.0096161365509,0.00904417037964,0.00180792808533,0.185534954071
63,0.0101261138916,0.0114619731903,0.00927400588989,0.00172400474548,0.148921966553
64,0.0081729888916,0.0109910964966,0.0091540813446,0.00186681747437,0.159180164337
65,0.00532102584839,0.00914883613586,0.00879883766174,0.00196003913879,0.186177968979
66,0.00578498840332,0.00924491882324,0.0082859992981,0.00163793563843,0.141820907593
67,0.00483298301697,0.00909090042114,0.00851011276245,0.00168800354004,0.169456005096
68,0.00710511207581,0.030522108078,0.00850987434387,0.0018470287323,0.146812915802
69,0.00622892379761,0.0104968547821,0.00878119468689,0.00183701515198,0.185761928558
70,0.00761604309082,0.00914287567139,0.00845909118652,0.00172400474548,0.157649040222
71,0.0115089416504,0.0106019973755,0.00884413719177,0.0021698474884,0.196195840836
72,0.00667691230774,0.00891017913818,0.00852012634277,0.00175309181213,0.183853149414
73,0.00669813156128,0.00833487510681,0.0108921527863,0.00206804275513,0.169507980347
74,0.00555920600891,0.00939512252808,0.00822687149048,0.00175905227661,0.159904956818
75,0.00566625595093,0.00862407684326,0.00800800323486,0.00155711174011,0.161091089249
76,0.00522994995117,0.00929880142212,0.00877785682678,0.00172114372253,0.205648899078
77,0.00545620918274,0.00911688804626,0.00865697860718,0.00202512741089,0.166047096252
78,0.00544619560242,0.0097279548645,0.00861883163452,0.00187301635742,0.201236963272
79,0.00552606582642,0.00813293457031,0.0079140663147,0.00174593925476,0.16420507431
80,0.00742983818054,0.0100030899048,0.0082311630249,0.00171184539795,0.201107978821
81,0.00995492935181,0.0079128742218,0.00773596763611,0.00145101547241,0.17586684227
82,0.00693583488464,0.0123920440674,0.00970387458801,0.00202393531799,0.204199075699
83,0.00589513778687,0.00843191146851,0.00762486457825,0.00151181221008,0.181427001953
84,0.00592517852783,0.00727415084839,0.00973892211914,0.0020580291748,0.178926944733
85,0.00579190254211,0.0082540512085,0.00798106193542,0.00158286094666,0.181355953217
86,0.00530314445496,0.00779008865356,0.00745606422424,0.00142097473145,0.180163145065
87,0.00512981414795,0.00974011421204,0.0105760097504,0.00228905677795,0.439590930939
88,0.00611281394958,0.0102770328522,0.00864100456238,0.00175309181213,0.198179960251
89,0.00598311424255,0.00998687744141,0.00974297523499,0.00182199478149,0.219259023666
90,0.00747919082642,0.00922584533691,0.00841212272644,0.00173306465149,0.218872070312
91,0.0106871128082,0.0089430809021,0.00849008560181,0.00172114372253,0.235399007797
92,0.00602507591248,0.00863790512085,0.0081479549408,0.00167512893677,0.196944952011
93,0.00597190856934,0.00905299186707,0.00843596458435,0.0016450881958,0.228010892868
94,0.00567317008972,0.00890493392944,0.00812697410583,0.00163197517395,0.199309110641
95,0.00522422790527,0.00825500488281,0.00813984870911,0.0016450881958,0.226610898972
96,0.00529217720032,0.00808477401733,0.00800204277039,0.00166821479797,0.230787992477
97,0.00508069992065,0.00872302055359,0.00801396369934,0.00161504745483,0.225696086884
98,0.00543284416199,0.00803589820862,0.00802803039551,0.001629114151,0.228992938995
99,0.00528907775879,0.00801801681519,0.00781297683716,0.00159692764282,0.237057924271
