step,run,get,set,free,run_up_to_step
0,0.00599503517151,0.00234699249268,0.00212907791138,0.000282049179077,0.00707602500916
1,0.00481224060059,0.00199699401855,0.00210690498352,0.000281810760498,0.00832200050354
2,0.00432705879211,0.00201487541199,0.00217509269714,0.000331163406372,0.274167060852
3,0.00431776046753,0.0020899772644,0.00225305557251,0.000285863876343,0.0137159824371
4,0.00425696372986,0.00199604034424,0.00207901000977,0.000308990478516,0.0160300731659
5,0.00416111946106,0.00199484825134,0.00217795372009,0.000331878662109,0.0186548233032
6,0.00425791740417,0.00224590301514,0.00223207473755,0.000282049179077,0.0215079784393
7,0.00479006767273,0.00202512741089,0.00214886665344,0.000282049179077,0.0250978469849
8,0.0043728351593,0.00202202796936,0.00216293334961,0.000345945358276,0.02614402771
9,0.00494289398193,0.00201606750488,0.00220990180969,0.00028395652771,0.0293478965759
10,0.00536203384399,0.00197792053223,0.00223517417908,0.00028395652771,0.0507709980011
11,0.00433588027954,0.00202894210815,0.00212097167969,0.000282049179077,0.0346691608429
12,0.00416588783264,0.00196290016174,0.00240898132324,0.000327110290527,0.0363290309906
13,0.00432801246643,0.00198602676392,0.00222396850586,0.000285148620605,0.0471720695496
14,0.00427794456482,0.00200510025024,0.00216197967529,0.000282049179077,0.0417940616608
15,0.00430488586426,0.00199699401855,0.00239682197571,0.000334024429321,0.0448291301727
16,0.00440001487732,0.00205206871033,0.00221395492554,0.000288009643555,0.0473239421844
17,0.00424194335938,0.00200390815735,0.00250911712646,0.000334978103638,0.0596520900726
18,0.00472807884216,0.00216197967529,0.00260806083679,0.000587940216064,0.0534100532532
19,0.00482201576233,0.0020318031311,0.00214219093323,0.00028395652771,0.0624659061432
20,0.0044732093811,0.00224113464355,0.00229501724243,0.000294923782349,0.0977711677551
21,0.0045428276062,0.00208282470703,0.00237417221069,0.00031590461731,0.0702879428864
22,0.00977897644043,0.00224900245667,0.00227785110474,0.000295877456665,0.107552051544
23,0.00435996055603,0.00200605392456,0.00217580795288,0.000285863876343,0.0667059421539
24,0.00438404083252,0.00192403793335,0.00233101844788,0.000337839126587,0.0683710575104
25,0.00427484512329,0.00211906433105,0.00222897529602,0.000288963317871,0.0716359615326
26,0.00475406646729,0.00193381309509,0.00238704681396,0.000316143035889,0.0772070884705
27,0.00432586669922,0.0020968914032,0.00226306915283,0.000288009643555,0.104240179062
28,0.00449705123901,0.00204396247864,0.00241208076477,0.000318050384521,0.0987560749054
29,0.00457382202148,0.00211501121521,0.00228095054626,0.000288963317871,0.0885288715363
30,0.00457811355591,0.00204205513,0.00241994857788,0.000336885452271,0.0840640068054
31,0.00522208213806,0.00213193893433,0.00218605995178,0.000288009643555,0.0946879386902
32,0.0292398929596,0.00219702720642,0.00227403640747,0.000296115875244,0.0959899425507
33,0.00431394577026,0.00206398963928,0.00216698646545,0.000285863876343,0.0936591625214
34,0.00451183319092,0.00198197364807,0.00221586227417,0.00028395652771,0.0950751304626
35,0.00440788269043,0.00212788581848,0.00227403640747,0.000293970108032,0.135330915451
36,0.0108020305634,0.00203013420105,0.00220608711243,0.000285863876343,0.100115060806
37,0.00445103645325,0.00214695930481,0.00226998329163,0.000293016433716,0.140067815781
38,0.00443029403687,0.00194311141968,0.00214290618896,0.000286102294922,0.106053113937
39,0.00472593307495,0.00215601921082,0.0021231174469,0.000290155410767,0.146220207214
40,0.0118939876556,0.00207591056824,0.00219392776489,0.000287055969238,0.11213183403
41,0.00422692298889,0.00203609466553,0.00235486030579,0.000334024429321,0.119822025299
42,0.00431799888611,0.00206899642944,0.00220394134521,0.000288009643555,0.12084197998
43,0.00424814224243,0.00196194648743,0.00238990783691,0.000324010848999,0.130690097809
44,0.00468897819519,0.00211596488953,0.00244402885437,0.000324964523315,0.128512144089
45,0.00431489944458,0.00189399719238,0.00234508514404,0.00032901763916,0.146394014359
46,0.00441884994507,0.00211310386658,0.00223994255066,0.000291109085083,0.12731385231
47,0.00520491600037,0.00201296806335,0.00236892700195,0.000319957733154,0.136575937271
48,0.00430798530579,0.00210380554199,0.00228595733643,0.000292062759399,0.138020038605
49,0.0049729347229,0.00219106674194,0.00236487388611,0.000354051589966,0.142508983612
50,0.00538992881775,0.00211501121521,0.0023078918457,0.000300884246826,0.341314792633
51,0.00615382194519,0.00237989425659,0.00253987312317,0.000331163406372,0.228629827499
52,0.00566005706787,0.00219988822937,0.00234889984131,0.000323057174683,0.201117992401
53,0.00587296485901,0.0023500919342,0.00252079963684,0.000336885452271,0.234061002731
54,0.00580215454102,0.00222182273865,0.00245904922485,0.000326156616211,0.211483955383
55,0.00584101676941,0.00226497650146,0.00252389907837,0.000338077545166,0.237067937851
56,0.00598001480103,0.00214910507202,0.00232100486755,0.000327110290527,0.216531991959
57,0.00459790229797,0.00204610824585,0.00235080718994,0.000306844711304,0.207459926605
58,0.00475406646729,0.00208616256714,0.00225496292114,0.000304937362671,0.208490848541
59,0.00460982322693,0.00203013420105,0.00216698646545,0.000293016433716,0.17445898056
60,0.00512194633484,0.00240802764893,0.00224804878235,0.000328063964844,0.171186208725
61,0.00421285629272,0.00200390815735,0.00220704078674,0.000287055969238,0.166002035141
62,0.00479006767273,0.00202298164368,0.00216102600098,0.000302076339722,0.191879034042
63,0.00431394577026,0.00189089775085,0.00212287902832,0.000283002853394,0.202136993408
64,0.00441002845764,0.00200510025024,0.00236296653748,0.000320911407471,0.193372964859
65,0.00420117378235,0.00191903114319,0.0021288394928,0.000283002853394,0.211260795593
66,0.004310131073,0.00200200080872,0.00218605995178,0.000286817550659,0.205603837967
67,0.00530505180359,0.00201797485352,0.00228691101074,0.000313997268677,0.209627151489
68,0.00518894195557,0.00215482711792,0.00214385986328,0.000290870666504,0.19322681427
69,0.00438404083252,0.00208401679993,0.00228905677795,0.000293970108032,0.208851099014
70,0.0045337677002,0.00204420089722,0.00222015380859,0.000318050384521,0.193093061447
71,0.00438594818115,0.00204801559448,0.0022439956665,0.000293970108032,0.215279817581
72,0.00437378883362,0.00204682350159,0.00228905677795,0.000298023223877,0.221411943436
73,0.00431275367737,0.00194501876831,0.00227284431458,0.000293970108032,0.215758085251
74,0.00444006919861,0.001953125,0.00223112106323,0.000297069549561,0.208478927612
75,0.00428509712219,0.00201320648193,0.00229907035828,0.000295877456665,0.207245111465
76,0.00439023971558,0.00203609466553,0.00220608711243,0.000292062759399,0.216871976852
77,0.00428104400635,0.00217199325562,0.00229001045227,0.000303983688354,0.24947810173
78,0.00442290306091,0.00208306312561,0.00222492218018,0.000298976898193,0.221035003662
79,0.00442576408386,0.00197887420654,0.00217294692993,0.000292062759399,0.245939970016
80,0.00454211235046,0.00205111503601,0.00219011306763,0.00028920173645,0.246137142181
81,0.004239320755,0.0019359588623,0.00230407714844,0.000316143035889,0.239120960236
82,0.00431299209595,0.00191712379456,0.00214290618896,0.000288009643555,0.228060007095
83,0.0111081600189,0.00211596488953,0.00224304199219,0.000312089920044,0.506380081177
84,0.0147259235382,0.00206995010376,0.00235509872437,0.000316858291626,0.280859947205
85,0.00461387634277,0.00210499763489,0.00231790542603,0.00030779838562,0.265944957733
86,0.00449085235596,0.00209903717041,0.00218605995178,0.000310897827148,0.296032905579
87,0.00443005561829,0.00204610824585,0.00224018096924,0.000300884246826,0.251923799515
88,0.00454020500183,0.00203800201416,0.00222420692444,0.000302076339722,0.235177993774
89,0.00433111190796,0.00203609466553,0.0022292137146,0.000296115875244,0.2555539608
90,0.00444197654724,0.00207304954529,0.00224995613098,0.000300168991089,0.273358106613
91,0.00452589988708,0.00236797332764,0.00233197212219,0.00031304359436,0.274770021439
92,0.00442671775818,0.00205612182617,0.00220799446106,0.000301122665405,0.249644994736
93,0.00431895256042,0.0020010471344,0.00220489501953,0.000307083129883,0.251573085785
94,0.00432705879211,0.00202512741089,0.00241303443909,0.000301122665405,0.259581804276
95,0.00478291511536,0.00200605392456,0.00220704078674,0.000289916992188,0.264027118683
96,0.00431275367737,0.00202703475952,0.00223112106323,0.000310897827148,0.290486812592
97,0.00438594818115,0.00219178199768,0.00231599807739,0.000313997268677,0.475863933563
98,0.00447607040405,0.00209999084473,0.00233697891235,0.000312089920044,0.294533967972
99,0.00444388389587,0.00210881233215,0.00221681594849,0.000293016433716,0.271031856537
