step,run,get,set,free,run_up_to_step
0,0.00450205802917,0.0181500911713,0.0155830383301,0.0022668838501,0.00599384307861
1,0.00263714790344,0.016811132431,0.0164248943329,0.00240898132324,0.00598382949829
2,0.00268602371216,0.0172638893127,0.0161890983582,0.00233292579651,0.00611686706543
3,0.00337314605713,0.0175280570984,0.0164380073547,0.0024402141571,0.00718712806702
4,0.00322675704956,0.0175609588623,0.0165379047394,0.00248003005981,0.00809097290039
5,0.002681016922,0.0166480541229,0.0160789489746,0.00231099128723,0.00913596153259
6,0.00255703926086,0.0173850059509,0.0171279907227,0.00238013267517,0.00982594490051
7,0.00344824790955,0.0177059173584,0.0165400505066,0.00242400169373,0.0104420185089
8,0.00413417816162,0.018404006958,0.0170288085938,0.00256991386414,0.012195110321
9,0.00261235237122,0.0187430381775,0.0174028873444,0.00264596939087,0.0131669044495
10,0.00270390510559,0.018424987793,0.0173120498657,0.00245594978333,0.0138711929321
11,0.00328898429871,0.0172791481018,0.0167438983917,0.00235605239868,0.0139679908752
12,0.0032377243042,0.0170760154724,0.017215013504,0.00252103805542,0.0157730579376
13,0.0026159286499,0.0180740356445,0.0167880058289,0.0025200843811,0.0159859657288
14,0.00277996063232,0.0184109210968,0.0176208019257,0.00259685516357,0.0171408653259
15,0.0064640045166,0.0185308456421,0.0190930366516,0.00297093391418,0.0169699192047
16,0.00330471992493,0.0183489322662,0.0177478790283,0.00264620780945,0.0198609828949
17,0.00280594825745,0.0189588069916,0.0173089504242,0.00278496742249,0.0188999176025
18,0.00260972976685,0.0186748504639,0.0178198814392,0.00253295898438,0.0196931362152
19,0.00312495231628,0.0191428661346,0.0178852081299,0.00269818305969,0.0205969810486
20,0.00318312644958,0.0183019638062,0.0169401168823,0.0030300617218,0.0215079784393
21,0.0030779838562,0.0178599357605,0.0179128646851,0.00261902809143,0.126394987106
22,0.00238561630249,0.0177879333496,0.0174660682678,0.00248885154724,0.0232760906219
23,0.00324106216431,0.0183870792389,0.0175220966339,0.00266194343567,0.0237731933594
24,0.0039529800415,0.0197720527649,0.0175340175629,0.00256896018982,0.0304710865021
25,0.00259113311768,0.0183258056641,0.0174658298492,0.00268602371216,0.0256850719452
26,0.00255131721497,0.0185439586639,0.0172989368439,0.00259804725647,0.0262570381165
27,0.00330591201782,0.0183019638062,0.0177698135376,0.00262403488159,0.0272710323334
28,0.00354194641113,0.019031047821,0.0194909572601,0.00300407409668,0.0306799411774
29,0.00314211845398,0.0202829837799,0.0195817947388,0.00302910804749,0.0354058742523
30,0.00279402732849,0.0200040340424,0.0188450813293,0.003005027771,0.0383939743042
31,0.00336122512817,0.0201189517975,0.0183529853821,0.00288701057434,0.0353090763092
32,0.00347304344177,0.0183701515198,0.018571138382,0.00293612480164,0.0924961566925
33,0.00331497192383,0.0196940898895,0.0204949378967,0.00320506095886,0.0343818664551
34,0.00314497947693,0.0212140083313,0.0190191268921,0.00323796272278,0.0374989509583
35,0.00327801704407,0.020115852356,0.017954826355,0.00284695625305,0.0353770256042
36,0.00385499000549,0.0195260047913,0.0182008743286,0.00291609764099,0.036346912384
37,0.00251889228821,0.0204498767853,0.01979804039,0.00323915481567,0.0839388370514
38,0.00574493408203,0.0304498672485,0.0191910266876,0.00319695472717,0.0503880977631
39,0.00331902503967,0.0203878879547,0.0187449455261,0.0027449131012,0.0405731201172
40,0.00329828262329,0.0190260410309,0.0188460350037,0.00265717506409,0.0366640090942
41,0.00422787666321,0.0210030078888,0.0192608833313,0.00293493270874,0.040727853775
42,0.0027859210968,0.018383026123,0.0175290107727,0.0027768611908,0.037360906601
43,0.00344300270081,0.0189611911774,0.0181958675385,0.00278496742249,0.135075807571
44,0.00365710258484,0.0191991329193,0.0196249485016,0.00307703018188,0.0427460670471
45,0.00272011756897,0.0190269947052,0.0207297801971,0.00291013717651,0.0417070388794
46,0.0027277469635,0.0189919471741,0.0172860622406,0.0025942325592,0.0441520214081
47,0.00322890281677,0.0195069313049,0.0186998844147,0.0029890537262,0.101258993149
48,0.00372672080994,0.019268989563,0.0180377960205,0.00290203094482,0.0429308414459
49,0.00257396697998,0.0190148353577,0.0193829536438,0.00293803215027,0.0445718765259
50,0.00271010398865,0.0184531211853,0.017431974411,0.00262498855591,0.0443749427795
51,0.00417494773865,0.0220627784729,0.0195031166077,0.00343704223633,0.124553203583
52,0.00326704978943,0.0185828208923,0.0177979469299,0.00275993347168,0.0461699962616
53,0.00259923934937,0.0191299915314,0.0179228782654,0.00276207923889,0.0490128993988
54,0.00245714187622,0.018324136734,0.0178859233856,0.00278496742249,0.0497851371765
55,0.0610871315002,0.0198380947113,0.0184800624847,0.00282907485962,0.0478119850159
56,0.00353384017944,0.019012928009,0.0179009437561,0.00283098220825,0.0487420558929
57,0.00423979759216,0.0201940536499,0.0175590515137,0.00289607048035,0.0517790317535
58,0.00259804725647,0.018739938736,0.0177891254425,0.00279307365417,0.0502169132233
59,0.00340127944946,0.0186040401459,0.0201580524445,0.00296711921692,0.0515940189362
60,0.00344729423523,0.0192909240723,0.017767906189,0.00292205810547,0.0547630786896
61,0.00270318984985,0.0474879741669,0.0178060531616,0.00278210639954,0.0527620315552
62,0.00260496139526,0.0185101032257,0.0173869132996,0.00282001495361,0.0540180206299
63,0.00429010391235,0.0198049545288,0.0214521884918,0.00381898880005,0.123151063919
64,0.00370025634766,0.0198781490326,0.019770860672,0.00310301780701,0.0652930736542
65,0.00427508354187,0.0229918956757,0.0192909240723,0.00289392471313,0.0760898590088
66,0.00339198112488,0.0192811489105,0.0181481838226,0.00288486480713,0.0647821426392
67,0.00336408615112,0.0178668498993,0.0171859264374,0.00251698493958,0.0574700832367
68,0.00342297554016,0.0190367698669,0.018208026886,0.00285482406616,0.130441904068
69,0.00287890434265,0.0191569328308,0.0179460048676,0.0027859210968,0.0616881847382
70,0.00262999534607,0.0181639194489,0.0176539421082,0.00281691551208,0.0595560073853
71,0.00317597389221,0.0184011459351,0.0171430110931,0.00253081321716,0.059338092804
72,0.00450706481934,0.0205800533295,0.0189669132233,0.00310587882996,0.0709011554718
73,0.00327706336975,0.0201530456543,0.0190889835358,0.00303602218628,0.0969479084015
74,0.00314283370972,0.0189409255981,0.0171480178833,0.0026228427887,0.0622398853302
75,0.00354290008545,0.0184528827667,0.0170650482178,0.00252294540405,0.0637781620026
76,0.00347995758057,0.0187840461731,0.0178649425507,0.00274205207825,0.0640680789948
77,0.00259804725647,0.0434749126434,0.0171990394592,0.00274705886841,0.0661799907684
78,0.00295400619507,0.0183889865875,0.0170760154724,0.00270891189575,0.0649800300598
79,0.00408887863159,0.0187990665436,0.0178689956665,0.00289392471313,0.128103017807
80,0.00358390808105,0.0186131000519,0.0190761089325,0.00318813323975,0.0745480060577
81,0.00312185287476,0.0183761119843,0.01691198349,0.00272417068481,0.0688540935516
82,0.00267291069031,0.018746137619,0.0181391239166,0.00283408164978,0.11363697052
83,0.0035400390625,0.0200040340424,0.0176219940186,0.00253486633301,0.0699310302734
84,0.00332283973694,0.0184550285339,0.0173959732056,0.00256586074829,0.0687880516052
85,0.00279402732849,0.0178711414337,0.0169410705566,0.00250196456909,0.0932791233063
86,0.00290036201477,0.0177931785583,0.0206370353699,0.00309205055237,0.0695459842682
87,0.00325703620911,0.0193531513214,0.0175549983978,0.00271391868591,0.073734998703
88,0.00339889526367,0.0191988945007,0.0177609920502,0.00259780883789,0.0731630325317
89,0.00282001495361,0.0184528827667,0.0166108608246,0.00266695022583,0.0858571529388
90,0.0029878616333,0.0194630622864,0.0185341835022,0.0026969909668,0.136209964752
91,0.00321507453918,0.0190088748932,0.0177991390228,0.00263905525208,0.0756919384003
92,0.00382399559021,0.0182151794434,0.0173301696777,0.00283408164978,0.083034992218
93,0.00414204597473,0.0203099250793,0.0186388492584,0.00365090370178,0.10805106163
94,0.00308799743652,0.0201728343964,0.019150018692,0.00347518920898,0.292270898819
95,0.00348210334778,0.0190889835358,0.018091917038,0.0039849281311,0.0802190303802
96,0.0035252571106,0.0195460319519,0.0173988342285,0.00274419784546,0.0829281806946
97,0.00286316871643,0.0197749137878,0.0191719532013,0.00301694869995,0.123477935791
98,0.00379395484924,0.0221838951111,0.0217130184174,0.0037100315094,0.0796899795532
99,0.00361108779907,0.0189559459686,0.0184390544891,0.00277304649353,0.0836579799652
