step,run,get,set,free,run_up_to_step
0,0.0778379440308,0.0063579082489,0.00554990768433,0.000900030136108,0.0796210765839
1,0.0753619670868,0.00610494613647,0.00564217567444,0.000944137573242,0.15544295311
2,0.0800521373749,0.00557494163513,0.00578284263611,0.00105500221252,0.229158878326
3,0.0714478492737,0.00599694252014,0.00560116767883,0.00097393989563,0.297554016113
4,0.0749800205231,0.00603199005127,0.00566101074219,0.00101804733276,0.358642816544
5,0.0849530696869,0.00550413131714,0.00560188293457,0.00111603736877,0.427809000015
6,0.0775911808014,0.00604391098022,0.00608396530151,0.0013120174408,0.49916601181
7,0.0761468410492,0.00552487373352,0.0058171749115,0.00138092041016,0.659621953964
8,0.0805931091309,0.00597405433655,0.00565099716187,0.00122714042664,0.665266036987
9,0.0732750892639,0.00590395927429,0.00558400154114,0.00129795074463,0.722183227539
10,0.0824401378632,0.00609493255615,0.00582599639893,0.00152802467346,0.8335750103
11,0.0773048400879,0.00640487670898,0.00550103187561,0.00128483772278,0.896368980408
12,0.0789680480957,0.00624799728394,0.00535893440247,0.00122690200806,1.00271987915
13,0.105448007584,0.00641179084778,0.00567388534546,0.00146508216858,1.50577092171
14,0.0752830505371,0.00588202476501,0.00577092170715,0.00135397911072,1.15909194946
15,0.0834386348724,0.00643706321716,0.00559282302856,0.00124788284302,1.20751404762
16,0.0744481086731,0.0054759979248,0.00547790527344,0.00139999389648,1.25804901123
17,0.0843770503998,0.00564503669739,0.00552296638489,0.00146698951721,1.98426604271
18,0.0741918087006,0.00606894493103,0.00585794448853,0.00148892402649,1.40223097801
19,0.0777621269226,0.0063579082489,0.00592803955078,0.00163102149963,1.51902699471
20,0.0738751888275,0.00615787506104,0.00539398193359,0.00133800506592,1.56390500069
21,0.0732550621033,0.00596117973328,0.00585198402405,0.00132989883423,1.59979295731
22,0.0732169151306,0.00581789016724,0.00593018531799,0.00140595436096,2.18884396553
23,0.0722670555115,0.00598001480103,0.00578689575195,0.00176405906677,1.73541808128
24,0.0757019519806,0.00611805915833,0.00575995445251,0.00132203102112,1.83837890625
25,0.0767822265625,0.00610494613647,0.0300641059875,0.00184512138367,1.91564488411
26,0.0768601894379,0.00593090057373,0.00571489334106,0.0014009475708,1.9796500206
27,0.0736219882965,0.00568985939026,0.00567579269409,0.00133490562439,1.99040198326
28,0.0819149017334,0.0056791305542,0.00571584701538,0.00137710571289,2.51164507866
29,0.0723690986633,0.00534701347351,0.00570797920227,0.00124502182007,2.60702800751
30,0.0744512081146,0.00610899925232,0.00645279884338,0.00165700912476,2.19880604744
31,0.0714008808136,0.00592613220215,0.00551986694336,0.00125694274902,2.27115607262
32,0.0907499790192,0.0061731338501,0.00549101829529,0.00128197669983,2.35784697533
33,0.078920841217,0.00610995292664,0.00606608390808,0.00160193443298,2.42395710945
34,0.0764670372009,0.0056300163269,0.00582885742188,0.00134801864624,2.90961098671
35,0.0715751647949,0.00612592697144,0.00584888458252,0.00147795677185,2.59440612793
36,0.070081949234,0.0053379535675,0.00560212135315,0.00139713287354,2.91191387177
37,0.0713241100311,0.00598192214966,0.00593614578247,0.00130605697632,2.79268598557
38,0.0715069770813,0.0057430267334,0.00560617446899,0.00147294998169,3.34249901772
39,0.0748500823975,0.00535202026367,0.00556206703186,0.00126910209656,3.3062479496
40,0.0713641643524,0.00597906112671,0.00562906265259,0.00126314163208,2.97363805771
41,0.0789999961853,0.00591516494751,0.00572109222412,0.00130200386047,3.04636287689
42,0.0710251331329,0.00604605674744,0.00554585456848,0.00128889083862,3.09623003006
43,0.0712389945984,0.00597906112671,0.00564384460449,0.00125122070312,3.2338039875
44,0.0832743644714,0.00589108467102,0.00579714775085,0.0013599395752,3.18261790276
45,0.0711078643799,0.00569796562195,0.00631093978882,0.00125193595886,3.64724397659
46,0.0744981765747,0.00558400154114,0.00567317008972,0.00138807296753,3.65259408951
47,0.0825839042664,0.00639009475708,0.00576400756836,0.00153708457947,3.53098988533
48,0.0768849849701,0.00565385818481,0.00558495521545,0.0012571811676,3.88380599022
49,0.0701580047607,0.00540399551392,0.00562191009521,0.00134205818176,3.92769384384
50,0.0766921043396,0.00585198402405,0.00555109977722,0.0012538433075,3.62750101089
51,0.0735020637512,0.00532507896423,0.00694704055786,0.00151515007019,4.04765486717
52,0.0713279247284,0.00591683387756,0.00561094284058,0.00126099586487,3.84671115875
53,0.071234703064,0.00596499443054,0.00586795806885,0.00137495994568,3.85825490952
54,0.0715990066528,0.00607204437256,0.00573182106018,0.00142097473145,3.9471988678
55,0.0704650878906,0.00542497634888,0.00565791130066,0.00138783454895,4.30555605888
56,0.0734729766846,0.00579285621643,0.00558495521545,0.00133800506592,4.55099201202
57,0.0752859115601,0.00567579269409,0.00563502311707,0.00125789642334,4.52671194077
58,0.105978012085,0.00554013252258,0.00555109977722,0.00126099586487,4.62401914597
59,0.0769610404968,0.00536799430847,0.00730681419373,0.0013689994812,4.86600995064
60,0.084419965744,0.00532793998718,0.00546216964722,0.00167894363403,4.69422984123
61,0.0729167461395,0.00531482696533,0.00558710098267,0.00126600265503,4.8872461319
62,0.0703060626984,0.00539302825928,0.00559902191162,0.00126099586487,4.8875169754
63,0.0838689804077,0.00524115562439,0.00611090660095,0.00147700309753,5.03490805626
64,0.0768978595734,0.00556707382202,0.00530886650085,0.00121593475342,4.72818803787
65,0.0988020896912,0.00631809234619,0.0062210559845,0.00130915641785,4.65332698822
66,0.0736849308014,0.00547385215759,0.00584697723389,0.00129699707031,5.31904387474
67,0.0719840526581,0.00599312782288,0.00549006462097,0.0013439655304,5.16712403297
68,0.0731108188629,0.00582599639893,0.00586295127869,0.00133299827576,5.49013495445
69,0.0710530281067,0.00574994087219,0.00594401359558,0.00135612487793,5.50491595268
70,0.0824301242828,0.00639200210571,0.00560784339905,0.00127196311951,5.45188188553
71,0.07102227211,0.0054919719696,0.00556612014771,0.00130391120911,5.65232491493
72,0.0703568458557,0.00542306900024,0.00597596168518,0.00127506256104,5.57906794548
73,0.0710809230804,0.00553417205811,0.00570392608643,0.00129795074463,5.22331595421
74,0.0797963142395,0.00550103187561,0.00575995445251,0.00126099586487,5.68234205246
75,0.0749709606171,0.00551295280457,0.0056049823761,0.00127077102661,5.88191413879
76,0.0734403133392,0.00539183616638,0.00558590888977,0.00126504898071,5.71584391594
77,0.0708129405975,0.00548195838928,0.00568819046021,0.0012800693512,5.91570997238
78,0.0747208595276,0.00580501556396,0.00561308860779,0.00139403343201,6.0678858757
79,0.0702857971191,0.00541019439697,0.00580883026123,0.00141096115112,6.018253088
80,0.0714898109436,0.00557279586792,0.00567197799683,0.00133609771729,6.12160205841
81,0.0713119506836,0.00573897361755,0.00564098358154,0.00132083892822,5.93533301353
82,0.0708079338074,0.0053288936615,0.0059130191803,0.00140810012817,6.26359415054
83,0.0742828845978,0.00536489486694,0.00555896759033,0.00125598907471,6.28935003281
84,0.0775680541992,0.00580310821533,0.00601887702942,0.0019268989563,6.50584816933
85,0.071056842804,0.00562691688538,0.0056049823761,0.00128483772278,6.5175049305
86,0.0708949565887,0.00540804862976,0.00572800636292,0.00127601623535,6.45114398003
87,0.0710480213165,0.00571894645691,0.0056049823761,0.00126385688782,6.84567499161
88,0.0705931186676,0.00537204742432,0.0054919719696,0.00146484375,6.74856114388
89,0.0750589370728,0.00570201873779,0.00603890419006,0.00136208534241,6.91241192818
90,0.070974111557,0.00570797920227,0.00566506385803,0.001296043396,6.9710419178
91,0.078850030899,0.00544285774231,0.00556588172913,0.00125813484192,6.80843400955
92,0.0710201263428,0.00573587417603,0.00575399398804,0.0013279914856,7.34646201134
93,0.0705299377441,0.00532412528992,0.00574803352356,0.00134992599487,6.9798309803
94,0.0702340602875,0.00560712814331,0.00576710700989,0.00135517120361,7.28813886642
95,0.0720770359039,0.0055980682373,0.00568699836731,0.00134086608887,7.30487108231
96,0.0726709365845,0.00548195838928,0.0065860748291,0.00146198272705,7.16728997231
97,0.0707318782806,0.00570917129517,0.00561714172363,0.00135087966919,7.51290106773
98,0.0921971797943,0.00534892082214,0.00579786300659,0.00150084495544,7.45784091949
99,0.0767018795013,0.00570702552795,0.00567603111267,0.00150513648987,8.01503300667
