step,run,get,set,free,run_up_to_step
0,0.00948786735535,0.00115394592285,0.00109791755676,0.0001380443573,0.00317406654358
1,0.00184988975525,0.0010199546814,0.000984907150269,0.000137090682983,0.0177390575409
2,0.00196099281311,0.00108790397644,0.00108909606934,0.0001380443573,0.0158450603485
3,0.00194501876831,0.00105905532837,0.00109481811523,0.000136852264404,0.0104351043701
4,0.00198912620544,0.00113320350647,0.000988006591797,0.000137805938721,0.183918952942
5,0.00216388702393,0.00110077857971,0.00112318992615,0.000149965286255,0.0172259807587
6,0.00183701515198,0.00107502937317,0.00111103057861,0.000140190124512,0.0124359130859
7,0.00948190689087,0.0010769367218,0.00110983848572,0.000136852264404,0.0198700428009
8,0.00177788734436,0.00113797187805,0.00110602378845,0.000174999237061,0.0141818523407
9,0.00215101242065,0.00109100341797,0.00109815597534,0.000139951705933,0.0201539993286
10,0.00963711738586,0.00104904174805,0.00108909606934,0.000140190124512,0.0216300487518
11,0.00190997123718,0.00102996826172,0.0011031627655,0.000138998031616,0.0219337940216
12,0.00186705589294,0.00112104415894,0.00101804733276,0.000143051147461,0.0145690441132
13,0.00184607505798,0.00108885765076,0.00110483169556,0.000139951705933,0.0198409557343
14,0.00180602073669,0.00113010406494,0.00106477737427,0.000143051147461,0.0225207805634
15,0.00275993347168,0.00108408927917,0.00104808807373,0.0001380443573,0.0226151943207
16,0.00751805305481,0.00107383728027,0.00107908248901,0.000140190124512,0.0234348773956
17,0.00211095809937,0.00100708007812,0.00108003616333,0.000139951705933,0.0334041118622
18,0.0221498012543,0.00098705291748,0.00123906135559,0.000181198120117,0.0251240730286
19,0.0101101398468,0.00118494033813,0.00115394592285,0.000149011611938,0.0211911201477
20,0.00950026512146,0.0011260509491,0.00105595588684,0.000140190124512,0.025367975235
21,0.00221705436707,0.00108814239502,0.00109195709229,0.000150918960571,0.0149958133698
22,0.0119178295135,0.00113582611084,0.00104904174805,0.000138998031616,0.0214409828186
23,0.00197315216064,0.00105905532837,0.00107192993164,0.000139951705933,0.0256018638611
24,0.00185418128967,0.00101208686829,0.00111293792725,0.000141143798828,0.0279700756073
25,0.00188589096069,0.00109887123108,0.00109004974365,0.000137090682983,0.0318520069122
26,0.00982475280762,0.00122904777527,0.00120902061462,0.000148057937622,0.384701013565
27,0.00191879272461,0.00110793113708,0.00111699104309,0.000141859054565,0.0369670391083
28,0.00196218490601,0.00113320350647,0.00108194351196,0.000139951705933,0.0260200500488
29,0.00989103317261,0.00107407569885,0.00108194351196,0.000140905380249,0.0280990600586
30,0.00187492370605,0.00106382369995,0.0010449886322,0.000140905380249,0.033616065979
31,0.00186085700989,0.00111889839172,0.00108003616333,0.000135898590088,0.0327401161194
32,0.00387907028198,0.0010929107666,0.00108909606934,0.000162124633789,0.0290420055389
33,0.00267291069031,0.00113201141357,0.00116109848022,0.000149965286255,0.0372359752655
34,0.00300097465515,0.00153708457947,0.00131916999817,0.00022292137146,0.0354468822479
35,0.00198101997375,0.0011088848114,0.00106811523438,0.000137090682983,0.0328991413116
36,0.00190591812134,0.00109386444092,0.00110602378845,0.000140905380249,0.0247480869293
37,0.00256299972534,0.0010941028595,0.0010929107666,0.000138998031616,0.0302381515503
38,0.00188708305359,0.00104093551636,0.00105094909668,0.0001380443573,0.0315339565277
39,0.00200009346008,0.0010769367218,0.00122904777527,0.000163078308105,0.340986967087
40,0.00191783905029,0.00120306015015,0.00115203857422,0.00014591217041,0.0416460037231
41,0.00186514854431,0.00111603736877,0.00111699104309,0.000143051147461,0.0426449775696
42,0.00187683105469,0.00109505653381,0.00108194351196,0.000141859054565,0.038183927536
43,0.00926995277405,0.0011739730835,0.00106596946716,0.000143051147461,0.0276591777802
44,0.00999975204468,0.000993013381958,0.00107502937317,0.000141859054565,0.0417959690094
45,0.00186061859131,0.00109219551086,0.00105285644531,0.000162839889526,0.045047044754
46,0.00495195388794,0.0010941028595,0.00104784965515,0.0001380443573,0.0393300056458
47,0.00239014625549,0.00130295753479,0.00118589401245,0.000150918960571,0.0282781124115
48,0.00188398361206,0.00109505653381,0.00114798545837,0.000175952911377,0.0420048236847
49,0.0165860652924,0.00117802619934,0.00116801261902,0.000144958496094,0.0416419506073
50,0.00990605354309,0.00110816955566,0.00107097625732,0.000140905380249,0.0426049232483
51,0.00214982032776,0.00129818916321,0.0011248588562,0.000146150588989,0.0487220287323
52,0.00213503837585,0.00115084648132,0.00103282928467,0.000142097473145,0.0316410064697
53,0.00268411636353,0.00102019309998,0.00108599662781,0.000141859054565,0.0380530357361
54,0.0690200328827,0.00137805938721,0.00128102302551,0.000161170959473,0.0412430763245
55,0.00889921188354,0.00118207931519,0.00113391876221,0.000146150588989,0.0512759685516
56,0.00182008743286,0.00117611885071,0.00113201141357,0.000142097473145,0.0403339862823
57,0.00243020057678,0.00122785568237,0.00112295150757,0.000143051147461,0.0445621013641
58,0.00757193565369,0.00103402137756,0.00105881690979,0.0001380443573,0.046019077301
59,0.00230002403259,0.00109601020813,0.00111103057861,0.000138998031616,0.510647058487
60,0.00196313858032,0.00133895874023,0.00119805335999,0.000150918960571,0.170189142227
61,0.0020170211792,0.00127100944519,0.00116300582886,0.000148057937622,0.0532231330872
62,0.00878500938416,0.00118017196655,0.00103712081909,0.000140905380249,0.0635340213776
63,0.00200772285461,0.00114703178406,0.00115418434143,0.000142097473145,0.0467429161072
64,0.00190711021423,0.00105619430542,0.001051902771,0.000140190124512,0.0413670539856
65,0.123342037201,0.00142908096313,0.00111413002014,0.000148057937622,0.0441100597382
66,0.00193977355957,0.00130081176758,0.00113201141357,0.000144004821777,0.0431878566742
67,0.00199484825134,0.00125503540039,0.00127506256104,0.000159025192261,0.0415999889374
68,0.00183415412903,0.00114417076111,0.00112199783325,0.000144958496094,0.0490090847015
69,0.00191211700439,0.00111198425293,0.000983953475952,0.000147819519043,0.0419931411743
70,0.00185799598694,0.00106501579285,0.00104713439941,0.000139951705933,0.0498588085175
71,0.14942073822,0.00153088569641,0.00118398666382,0.000150918960571,0.0473079681396
72,0.00197505950928,0.00128793716431,0.00113010406494,0.000152111053467,0.133342981339
73,0.00202679634094,0.00132489204407,0.00117707252502,0.00014591217041,0.0496139526367
74,0.00271892547607,0.00121402740479,0.00116610527039,0.00014591217041,0.0840821266174
75,0.00301504135132,0.0012788772583,0.00139188766479,0.000182867050171,0.0427749156952
76,0.00355195999146,0.00135397911072,0.00137996673584,0.000205993652344,0.056459903717
77,0.00309896469116,0.00109505653381,0.00138592720032,0.000221014022827,0.0422968864441
78,0.00780868530273,0.00124001502991,0.00115203857422,0.000144004821777,0.0415439605713
79,0.00229811668396,0.00120687484741,0.00122690200806,0.000166177749634,0.0579540729523
80,0.00200510025024,0.00117301940918,0.00108599662781,0.000141143798828,0.0445590019226
81,0.00482296943665,0.00149989128113,0.00134897232056,0.000255107879639,0.0587959289551
82,0.0097439289093,0.00107598304749,0.00103902816772,0.000139951705933,0.0609018802643
83,0.00191211700439,0.00153183937073,0.00124907493591,0.0001540184021,0.185253143311
84,0.00200414657593,0.00123715400696,0.00120687484741,0.000144004821777,0.0608658790588
85,0.00203990936279,0.00120806694031,0.00115203857422,0.000144004821777,0.0558779239655
86,0.00236487388611,0.00117301940918,0.00109386444092,0.000141859054565,0.0679099559784
87,0.00196695327759,0.00107407569885,0.00104689598083,0.000140905380249,0.0596461296082
88,0.00221514701843,0.00133490562439,0.00118112564087,0.000148057937622,0.166273117065
89,0.00200700759888,0.0011990070343,0.00113081932068,0.000143051147461,0.0571191310883
90,0.00193119049072,0.00124216079712,0.00119996070862,0.000144004821777,0.293971061707
91,0.00211501121521,0.00111317634583,0.00102305412292,0.000140905380249,0.0590689182281
92,0.00228810310364,0.00106501579285,0.00128698348999,0.000172138214111,0.0579400062561
93,0.00188422203064,0.00134110450745,0.00116991996765,0.000146865844727,0.0567631721497
94,0.00370693206787,0.00123810768127,0.00119614601135,0.000144958496094,0.0526208877563
95,0.00959420204163,0.00122594833374,0.00104880332947,0.000142812728882,0.0491399765015
96,0.00207614898682,0.00121688842773,0.00112104415894,0.000142097473145,0.0552101135254
97,0.00209903717041,0.0010449886322,0.00134205818176,0.000172138214111,0.0629870891571
98,0.00188994407654,0.00129699707031,0.00119996070862,0.000148057937622,0.0665879249573
99,0.00197505950928,0.00125288963318,0.00112318992615,0.000143051147461,0.0553529262543
