step,run,get,set,free,run_up_to_step
0,0.00640511512756,0.00518703460693,0.00519108772278,0.00046706199646,0.00736403465271
1,0.00533103942871,0.00497102737427,0.00527405738831,0.000493049621582,0.00879597663879
2,0.00508904457092,0.00455808639526,0.00510811805725,0.000498056411743,0.00873208045959
3,0.00532197952271,0.00495100021362,0.00511288642883,0.000497102737427,0.0104990005493
4,0.00519394874573,0.00514101982117,0.00513982772827,0.00049901008606,0.0116848945618
5,0.00514197349548,0.00506281852722,0.00547099113464,0.000668048858643,0.01211810112
6,0.00512504577637,0.00493407249451,0.00526690483093,0.000603914260864,0.0135560035706
7,0.00471496582031,0.00537300109863,0.0051748752594,0.000526189804077,0.0139679908752
8,0.00562477111816,0.00538897514343,0.00535297393799,0.000565052032471,0.015456199646
9,0.00543594360352,0.00513195991516,0.00536704063416,0.000516891479492,0.0168678760529
10,0.00472021102905,0.00526309013367,0.00541615486145,0.000723838806152,0.0178740024567
11,0.00541377067566,0.00548195838928,0.00567388534546,0.000606060028076,0.0191180706024
12,0.00963997840881,0.00547099113464,0.00587105751038,0.000488042831421,0.0243110656738
13,0.00814986228943,0.00575709342957,0.00560307502747,0.000591993331909,0.0318999290466
14,0.00719809532166,0.00524020195007,0.00560092926025,0.000526189804077,0.0323569774628
15,0.00558090209961,0.00519204139709,0.00552201271057,0.000653028488159,0.0342359542847
16,0.00549697875977,0.00549387931824,0.00544190406799,0.00054407119751,0.03360414505
17,0.00490999221802,0.00509905815125,0.00532484054565,0.000525951385498,0.0368311405182
18,0.00516414642334,0.00490593910217,0.00525689125061,0.000630855560303,0.0369911193848
19,0.0052227973938,0.00568199157715,0.00544190406799,0.000553131103516,0.0346581935883
20,0.00569200515747,0.00525093078613,0.00542402267456,0.00068998336792,0.0386860370636
21,0.00473523139954,0.00519895553589,0.00535583496094,0.000521898269653,0.0375490188599
22,0.00474786758423,0.00529003143311,0.00513195991516,0.000680923461914,0.0418200492859
23,0.00470113754272,0.00515198707581,0.00415706634521,0.00059700012207,0.0424509048462
24,0.00453901290894,0.00491285324097,0.00576305389404,0.000622034072876,0.0428910255432
25,0.00503206253052,0.00573992729187,0.00561881065369,0.000591039657593,0.0433421134949
26,0.00574707984924,0.00574803352356,0.00554013252258,0.00067400932312,0.0401220321655
27,0.00557923316956,0.00549793243408,0.00533986091614,0.000560998916626,0.0438361167908
28,0.00514268875122,0.00551891326904,0.00513291358948,0.000507831573486,0.0443570613861
29,0.00490713119507,0.00522994995117,0.00572395324707,0.000709056854248,0.0469298362732
30,0.00581407546997,0.00576114654541,0.00581002235413,0.000561952590942,0.048229932785
31,0.00470280647278,0.00585389137268,0.00574803352356,0.000569105148315,0.0503010749817
32,0.00521469116211,0.00441598892212,0.00548696517944,0.000528812408447,0.0515949726105
33,0.00548696517944,0.00560212135315,0.00522994995117,0.000522136688232,0.0517630577087
34,0.004634141922,0.00522494316101,0.00486898422241,0.000473976135254,0.0554139614105
35,0.00448107719421,0.00512099266052,0.00578594207764,0.000557899475098,0.0570249557495
36,0.00496602058411,0.00551581382751,0.00584101676941,0.000548839569092,0.0518360137939
37,0.00925707817078,0.00503301620483,0.00566077232361,0.000516891479492,0.0583031177521
38,0.0079448223114,0.00539302825928,0.00543308258057,0.000561952590942,0.0645930767059
39,0.00534510612488,0.00495791435242,0.00501680374146,0.000518083572388,0.0670599937439
40,0.0599648952484,0.00602889060974,0.00566101074219,0.000604867935181,0.0665059089661
41,0.00516486167908,0.00586485862732,0.00551605224609,0.00058388710022,0.067008972168
42,0.00486183166504,0.00485014915466,0.00516200065613,0.000520944595337,0.0704691410065
43,0.00425505638123,0.005038022995,0.00488901138306,0.000470161437988,0.071310043335
44,0.0047869682312,0.00495100021362,0.00610685348511,0.000592947006226,0.0739231109619
45,0.00425505638123,0.00595808029175,0.00578093528748,0.00054407119751,0.0737750530243
46,0.00491690635681,0.00580787658691,0.0055718421936,0.000523090362549,0.0752279758453
47,0.00403213500977,0.00551986694336,0.00522589683533,0.000524997711182,0.0771579742432
48,0.0048680305481,0.00534200668335,0.00493907928467,0.000504016876221,0.0768840312958
49,0.00377678871155,0.00508785247803,0.00601100921631,0.000737905502319,0.0775501728058
50,0.0040819644928,0.00598406791687,0.00592398643494,0.00058388710022,0.0804779529572
51,0.00839591026306,0.00591683387756,0.00570487976074,0.000629186630249,0.0869100093842
52,0.0116772651672,0.00542712211609,0.00524592399597,0.000500917434692,0.0924530029297
53,0.00898694992065,0.00504207611084,0.00482106208801,0.000447988510132,0.0948450565338
54,0.00554609298706,0.00549101829529,0.00511503219604,0.000695943832397,0.203145027161
55,0.0044960975647,0.0055239200592,0.00555801391602,0.00060510635376,0.10288310051
56,0.00442600250244,0.00534796714783,0.00540900230408,0.000498056411743,0.0976419448853
57,0.00480937957764,0.00528597831726,0.0052809715271,0.000571966171265,0.101026058197
58,0.00439476966858,0.00566983222961,0.0056369304657,0.000591039657593,0.152548074722
59,0.0046010017395,0.00512099266052,0.00559592247009,0.000511884689331,0.1010389328
60,0.00623416900635,0.00543284416199,0.00532984733582,0.000488996505737,0.105232000351
61,0.00573897361755,0.00561499595642,0.00531697273254,0.000475883483887,0.103251934052
62,0.00578308105469,0.00544905662537,0.00563883781433,0.000809907913208,0.154232978821
63,0.00484085083008,0.00524187088013,0.0050368309021,0.000437021255493,0.105432987213
64,0.0048041343689,0.00535988807678,0.00520801544189,0.000514984130859,0.107333898544
65,0.00441026687622,0.00504612922668,0.00623798370361,0.000553846359253,0.109616994858
66,0.00527906417847,0.00604915618896,0.00568795204163,0.000536918640137,0.109417915344
67,0.00469374656677,0.00561904907227,0.00550484657288,0.000710010528564,0.110898017883
68,0.00468182563782,0.00554394721985,0.00518012046814,0.000566959381104,0.107731103897
69,0.00491523742676,0.00519990921021,0.00591492652893,0.000468969345093,0.114893913269
70,0.00447297096252,0.00554704666138,0.00534582138062,0.000559091567993,0.116806983948
71,0.00514197349548,0.00563383102417,0.0056369304657,0.000815868377686,0.120536088943
72,0.00470209121704,0.00537800788879,0.00484704971313,0.00079607963562,0.1180768013
73,0.0502550601959,0.00575709342957,0.00583600997925,0.000627994537354,0.11185002327
74,0.00475692749023,0.00574588775635,0.00577187538147,0.00065016746521,0.123641014099
75,0.00451898574829,0.00548195838928,0.00558400154114,0.000508069992065,0.122192144394
76,0.00856304168701,0.00521612167358,0.00470805168152,0.000536918640137,0.123885154724
77,0.00746393203735,0.00610494613647,0.00561189651489,0.000526905059814,0.173485994339
78,0.00487112998962,0.00532412528992,0.00575995445251,0.000573873519897,0.131639003754
79,0.00479483604431,0.00506019592285,0.00518798828125,0.000514030456543,0.133161067963
80,0.0044949054718,0.00509691238403,0.00508499145508,0.000498056411743,0.134258031845
81,0.00484704971313,0.00537014007568,0.00577807426453,0.00059700012207,0.185422897339
82,0.00432372093201,0.00565886497498,0.00559902191162,0.000538110733032,0.139073133469
83,0.00424218177795,0.00543999671936,0.0055570602417,0.000572919845581,0.13905787468
84,0.00410103797913,0.00529098510742,0.00516796112061,0.00046181678772,0.140778064728
85,0.00417900085449,0.00593209266663,0.00577902793884,0.00064492225647,0.184969902039
86,0.00415301322937,0.00550317764282,0.00571298599243,0.000715017318726,0.142848968506
87,0.00780200958252,0.00515985488892,0.00522494316101,0.000492095947266,0.147503137589
88,0.0401329994202,0.00619506835938,0.00565886497498,0.000720977783203,0.145925045013
89,0.00596690177917,0.0056529045105,0.00467085838318,0.000557899475098,0.149735927582
90,0.00564408302307,0.00506901741028,0.00500392913818,0.000463962554932,0.14693903923
91,0.00583100318909,0.00501585006714,0.00515604019165,0.00044584274292,0.148236036301
92,0.00518989562988,0.00617718696594,0.00564289093018,0.000746965408325,0.197863817215
93,0.00479102134705,0.00398397445679,0.00336003303528,0.00037407875061,0.148060083389
94,0.00349092483521,0.00336909294128,0.00296115875244,0.000313997268677,0.131415128708
95,0.0044379234314,0.00621104240417,0.00546288490295,0.000682830810547,0.0945649147034
96,0.00456404685974,0.00388598442078,0.00394988059998,0.000427007675171,0.101078987122
97,0.00394582748413,0.00575089454651,0.00515508651733,0.000514030456543,0.130572080612
98,0.00376915931702,0.00553703308105,0.0053927898407,0.000576019287109,0.155143976212
99,0.00388216972351,0.00736498832703,0.00610113143921,0.000607967376709,0.202413797379
