step,run,get,set,free,run_up_to_step
0,0.0395519733429,0.0119519233704,0.011332988739,0.00174117088318,0.0412700176239
1,0.0347969532013,0.0104451179504,0.0113651752472,0.00183892250061,0.0710790157318
2,0.0194571018219,0.0107569694519,0.0107951164246,0.00183701515198,0.0877079963684
3,0.0183320045471,0.0107791423798,0.0109610557556,0.00215101242065,0.101066827774
4,0.0182058811188,0.0112659931183,0.0108489990234,0.00191712379456,0.120038032532
5,0.0349366664886,0.0105521678925,0.0109269618988,0.00196599960327,0.151021003723
6,0.019711971283,0.0110919475555,0.0113070011139,0.00204396247864,0.166163921356
7,0.0191950798035,0.0106508731842,0.0110719203949,0.00197505950928,0.184205055237
8,0.0291221141815,0.0106420516968,0.010801076889,0.00202608108521,0.2181661129
9,0.019454240799,0.0105330944061,0.0110859870911,0.00273299217224,0.222494125366
10,0.0252969264984,0.0108489990234,0.0111360549927,0.00217199325562,0.239429950714
11,0.0201082229614,0.0106780529022,0.0114438533783,0.00221085548401,0.273646831512
12,0.033093214035,0.0105409622192,0.0110840797424,0.00213289260864,0.292188882828
13,0.0183579921722,0.0106282234192,0.0113170146942,0.00271701812744,0.302947998047
14,0.0262749195099,0.0116629600525,0.0115201473236,0.0024619102478,0.318487167358
15,0.0493609905243,0.0113370418549,0.011234998703,0.0023500919342,0.354771137238
16,0.0187706947327,0.0106620788574,0.0110900402069,0.00236701965332,0.36953496933
17,0.0184419155121,0.0106010437012,0.0109958648682,0.00216817855835,0.386383056641
18,0.0222268104553,0.0106439590454,0.0109090805054,0.00220489501953,0.401761054993
19,0.0262100696564,0.0107450485229,0.0110559463501,0.00241494178772,0.717491149902
20,0.0183699131012,0.0107588768005,0.0111420154572,0.00240015983582,0.443154096603
21,0.0214359760284,0.0106041431427,0.0119140148163,0.00250506401062,0.462306976318
22,0.0338208675385,0.0107128620148,0.0108878612518,0.00233602523804,0.499704122543
23,0.0206758975983,0.010910987854,0.0114531517029,0.00274705886841,0.510849952698
24,0.0240960121155,0.0116200447083,0.0113670825958,0.00246620178223,0.526044130325
25,0.0364198684692,0.0108821392059,0.0113410949707,0.00245785713196,0.558406114578
26,0.0190017223358,0.0108728408813,0.0111870765686,0.00244283676147,0.581770896912
27,0.0189321041107,0.0106999874115,0.0108630657196,0.00239276885986,0.591686010361
28,0.0230522155762,0.0102820396423,0.0116820335388,0.00276398658752,0.614871025085
29,0.024927854538,0.0109770298004,0.0113461017609,0.00256109237671,0.635245084763
30,0.0182628631592,0.0107221603394,0.0109760761261,0.00250697135925,0.654971122742
31,0.0215718746185,0.0108189582825,0.0117969512939,0.00268292427063,0.703290939331
32,0.035717010498,0.0108458995819,0.0113050937653,0.00248503684998,0.705961942673
33,0.0188488960266,0.0108370780945,0.0116128921509,0.00276184082031,0.754374980927
34,0.0191979408264,0.0110790729523,0.0113091468811,0.00253105163574,0.742212057114
35,0.0387690067291,0.0110569000244,0.0112819671631,0.00250887870789,0.764338970184
36,0.0201408863068,0.0107078552246,0.0114321708679,0.00246405601501,0.805166006088
37,0.0209350585938,0.0108890533447,0.0113730430603,0.00326800346375,0.840386867523
38,0.0243301391602,0.0112619400024,0.0112850666046,0.00247597694397,0.812247991562
39,0.0257959365845,0.010852098465,0.0112640857697,0.00250220298767,0.841778993607
40,0.0185968875885,0.0109288692474,0.0119879245758,0.00359296798706,0.848782062531
41,0.0214629173279,0.0111269950867,0.0113978385925,0.00257205963135,0.867769956589
42,0.0382628440857,0.0109808444977,0.0113170146942,0.00253891944885,0.893244028091
43,0.0203948020935,0.0115029811859,0.0112490653992,0.00294804573059,0.941775083542
44,0.0189158916473,0.0106739997864,0.0112979412079,0.00278282165527,1.31425213814
45,0.0383141040802,0.0110340118408,0.0115749835968,0.0026969909668,0.99289894104
46,0.0190970897675,0.0109009742737,0.0113859176636,0.00249695777893,1.03978490829
47,0.0189349651337,0.0108377933502,0.0121388435364,0.00375413894653,1.00991296768
48,0.0234460830688,0.0111749172211,0.0115501880646,0.00258493423462,1.02816581726
49,0.0247869491577,0.0109457969666,0.011262178421,0.00252199172974,1.06748795509
50,0.0186882019043,0.0108599662781,0.0120248794556,0.00279784202576,1.06076097488
51,0.0211780071259,0.0111310482025,0.0115098953247,0.00258708000183,1.08489608765
52,0.0333681106567,0.0109710693359,0.0111169815063,0.00258803367615,1.09795498848
53,0.0219671726227,0.0109479427338,0.0112509727478,0.00250601768494,1.13734507561
54,0.0187797546387,0.0106899738312,0.0115389823914,0.0031430721283,1.13608217239
55,0.0402710437775,0.0113830566406,0.0114891529083,0.0025429725647,1.18712997437
56,0.0190389156342,0.0109629631042,0.0112478733063,0.00254201889038,1.18558192253
57,0.0188119411469,0.0109479427338,0.0119969844818,0.00277996063232,1.23820996284
58,0.0239508152008,0.0113680362701,0.0114328861237,0.00255012512207,1.23229312897
59,0.0269689559937,0.0114688873291,0.0114240646362,0.00255703926086,1.27815079689
60,0.0236301422119,0.0109679698944,0.011608839035,0.00285983085632,1.3200378418
61,0.02126288414,0.0115330219269,0.0114378929138,0.00264406204224,1.67620992661
62,0.035218000412,0.0111231803894,0.0113890171051,0.00262808799744,1.307751894
63,0.0190908908844,0.0108458995819,0.0110409259796,0.00270700454712,1.34383702278
64,0.0195178985596,0.0110199451447,0.0113549232483,0.00263595581055,1.78494215012
65,0.0384891033173,0.0109949111938,0.0110650062561,0.0025200843811,1.41161608696
66,0.0190777778625,0.0109660625458,0.0112421512604,0.00253987312317,1.37689995766
67,0.0188841819763,0.0114450454712,0.0114371776581,0.00265097618103,1.7717051506
68,0.0229473114014,0.0112941265106,0.0113689899445,0.00257301330566,1.48260998726
69,0.0321118831635,0.0108261108398,0.0114240646362,0.00285387039185,1.46794605255
70,0.0184547901154,0.0111970901489,0.0114150047302,0.00259017944336,1.4749250412
71,0.0213689804077,0.0110318660736,0.0117659568787,0.00259399414062,1.47900891304
72,0.0371398925781,0.0117630958557,0.0118970870972,0.00275301933289,1.86568713188
73,0.0190896987915,0.0113520622253,0.0114350318909,0.00273489952087,1.56142497063
74,0.021164894104,0.0115129947662,0.0114481449127,0.00250101089478,1.53990483284
75,0.0409920215607,0.0127890110016,0.0117199420929,0.00278091430664,2.29926800728
76,0.0195219516754,0.0113048553467,0.0117409229279,0.00292110443115,1.65070986748
77,0.0205390453339,0.0108890533447,0.0133020877838,0.0027871131897,1.62946295738
78,0.0231890678406,0.0112421512604,0.0115339756012,0.00264716148376,1.68599009514
79,0.0254843235016,0.0113289356232,0.0122561454773,0.00267720222473,1.69226121902
80,0.020115852356,0.0107958316803,0.0118639469147,0.00294518470764,1.67562103271
81,0.0216360092163,0.0112659931183,0.0115120410919,0.00258803367615,1.7317481041
82,0.0356528759003,0.0110921859741,0.0114002227783,0.0025200843811,1.74153709412
83,0.0190329551697,0.0116050243378,0.0115079879761,0.00267791748047,2.32404208183
84,0.0192110538483,0.0113019943237,0.0114071369171,0.00258493423462,1.79837799072
85,0.0386681556702,0.0121212005615,0.0119180679321,0.00269508361816,2.12985396385
86,0.0192368030548,0.0111968517303,0.0116951465607,0.00282001495361,1.8646838665
87,0.0187859535217,0.0106418132782,0.0118930339813,0.00273203849792,1.8185300827
88,0.0224740505219,0.0112750530243,0.0117418766022,0.00270915031433,1.87482905388
89,0.0250899791718,0.0109970569611,0.0119469165802,0.00252509117126,1.88436508179
90,0.0186290740967,0.0110061168671,0.0113189220428,0.00260782241821,2.21940898895
91,0.021223783493,0.0111830234528,0.0113389492035,0.00261282920837,1.90615916252
92,0.0384171009064,0.0124680995941,0.0116710662842,0.00270199775696,2.31904101372
93,0.0190229415894,0.0112969875336,0.0113799571991,0.0025269985199,1.96339488029
94,0.0197081565857,0.0111789703369,0.0123679637909,0.00280809402466,1.98426795006
95,0.0387377738953,0.0113379955292,0.0114850997925,0.00262308120728,2.07774400711
96,0.0195188522339,0.0113689899445,0.0113909244537,0.00262808799744,2.02594900131
97,0.0189337730408,0.0123579502106,0.0116169452667,0.00284004211426,2.40460205078
98,0.0231051445007,0.0111849308014,0.0117719173431,0.00294494628906,2.06432509422
99,0.0251290798187,0.0108020305634,0.0108640193939,0.00246906280518,2.10871005058
