step,run,get,set,free,run_up_to_step
0,0.00860810279846,0.00592494010925,0.00638699531555,0.000652074813843,0.00980114936829
1,0.0105991363525,0.00613403320312,0.00651621818542,0.000652074813843,0.012433052063
2,0.00781893730164,0.00582408905029,0.00668287277222,0.000651121139526,0.027853012085
3,0.00537610054016,0.00591015815735,0.00638198852539,0.000766038894653,0.0245258808136
4,0.00590586662292,0.00577902793884,0.00604295730591,0.000565052032471,0.0233879089355
5,0.0273728370667,0.00586700439453,0.00634384155273,0.00067400932312,0.023766040802
6,0.00546312332153,0.00573086738586,0.00642800331116,0.00070595741272,0.0282890796661
7,0.0167820453644,0.00580978393555,0.00618600845337,0.000570058822632,0.0286340713501
8,0.00528407096863,0.00565886497498,0.00619912147522,0.00061297416687,0.0309500694275
9,0.0143518447876,0.00576305389404,0.00608706474304,0.000568151473999,0.0343241691589
10,0.00546813011169,0.0057680606842,0.00604200363159,0.00063681602478,0.042200088501
11,0.00585579872131,0.0059609413147,0.00624108314514,0.000662803649902,0.037602186203
12,0.00701236724854,0.0060658454895,0.00665998458862,0.000677824020386,0.0424509048462
13,0.00541210174561,0.00587797164917,0.00625419616699,0.000581026077271,0.0446879863739
14,0.00528573989868,0.00561594963074,0.00600600242615,0.000571966171265,0.0464999675751
15,0.00570487976074,0.00568795204163,0.00616192817688,0.000565052032471,0.0585980415344
16,0.00532293319702,0.00566101074219,0.006511926651,0.000687837600708,0.0513098239899
17,0.00527811050415,0.00589609146118,0.00633096694946,0.000602960586548,0.0533788204193
18,0.00529074668884,0.00590300559998,0.00614285469055,0.000619888305664,0.0557980537415
19,0.00862169265747,0.00581216812134,0.00626492500305,0.000571966171265,0.274036884308
20,0.00545597076416,0.00594711303711,0.00595593452454,0.00056004524231,0.0660140514374
21,0.00608706474304,0.00693583488464,0.00682091712952,0.000864028930664,0.453701019287
22,0.00569915771484,0.00600504875183,0.00650095939636,0.00064492225647,0.065603017807
23,0.00539207458496,0.00589895248413,0.00634098052979,0.000614881515503,0.0765709877014
24,0.00528287887573,0.00592517852783,0.00612092018127,0.000579833984375,0.0777039527893
25,0.00597810745239,0.00569915771484,0.00592803955078,0.000560998916626,0.0739550590515
26,0.00546598434448,0.00621795654297,0.00635695457458,0.000665903091431,0.139714956284
27,0.00541210174561,0.00599813461304,0.00630712509155,0.000633955001831,0.0798959732056
28,0.00570893287659,0.00597596168518,0.00621795654297,0.000602960586548,0.296561956406
29,0.00530886650085,0.0055980682373,0.00584387779236,0.000563144683838,0.0853581428528
30,0.00605607032776,0.00568199157715,0.00714898109436,0.000710010528564,0.092257976532
31,0.00527191162109,0.00629997253418,0.00661587715149,0.00068998336792,0.0947978496552
32,0.00547099113464,0.00635695457458,0.00635004043579,0.000716924667358,0.352394104004
33,0.00533509254456,0.00575590133667,0.00595688819885,0.00056791305542,0.103894948959
34,0.0187261104584,0.00567102432251,0.00692200660706,0.000797986984253,0.108707904816
35,0.00615692138672,0.00695586204529,0.00712609291077,0.000932216644287,0.0996708869934
36,0.00572109222412,0.00642490386963,0.00696706771851,0.000909090042114,0.102166891098
37,0.00540399551392,0.00608897209167,0.00598502159119,0.000602960586548,0.103517055511
38,0.00563406944275,0.00663089752197,0.0066339969635,0.00070595741272,0.155169963837
39,0.00531029701233,0.00638008117676,0.00603914260864,0.00062108039856,0.11533498764
40,0.00533008575439,0.00560116767883,0.00598311424255,0.000627994537354,0.117531061172
41,0.00568985939026,0.00557112693787,0.00695300102234,0.000669956207275,0.126487970352
42,0.00559401512146,0.00666499137878,0.00664496421814,0.000673055648804,0.122256040573
43,0.00552201271057,0.006432056427,0.00625205039978,0.000658988952637,0.125163078308
44,0.00532197952271,0.00597310066223,0.00616002082825,0.000578880310059,0.139841079712
45,0.0991561412811,0.00590682029724,0.00630402565002,0.00067400932312,0.191581010818
46,0.00629878044128,0.00607991218567,0.00642800331116,0.000776052474976,0.145501852036
47,0.00619316101074,0.00592398643494,0.00612902641296,0.000646829605103,0.153302192688
48,0.0139038562775,0.00558114051819,0.00622010231018,0.000777006149292,0.122009992599
49,0.00617432594299,0.0062141418457,0.00636696815491,0.000760793685913,0.129492998123
50,0.00533270835876,0.00571417808533,0.0059380531311,0.000654935836792,0.136949062347
51,0.00610899925232,0.00564098358154,0.0058228969574,0.000569820404053,0.143125772476
52,0.00674510002136,0.00543999671936,0.00653409957886,0.000724077224731,0.1204829216
53,0.00530004501343,0.0061981678009,0.00603795051575,0.000681161880493,0.151399850845
54,0.00533699989319,0.00572395324707,0.00581908226013,0.000571012496948,0.143881082535
55,0.00526714324951,0.00550508499146,0.0062370300293,0.000464916229248,0.139494180679
56,0.00499200820923,0.00605201721191,0.00652003288269,0.000663995742798,0.659893989563
57,0.00540113449097,0.00781297683716,0.00656819343567,0.000798940658569,0.144438028336
58,0.00510787963867,0.00545382499695,0.00576496124268,0.000633955001831,0.156049013138
59,0.00513505935669,0.00594902038574,0.00617504119873,0.000616073608398,0.221518039703
60,0.225450992584,0.00368404388428,0.00607895851135,0.000612020492554,0.155591964722
61,0.00829386711121,0.00570702552795,0.00618481636047,0.000571012496948,0.185541152954
62,0.00543284416199,0.00627517700195,0.0065381526947,0.000663042068481,0.214125871658
63,0.00532698631287,0.00616502761841,0.00625705718994,0.000764131546021,0.167493104935
64,0.00588393211365,0.00572800636292,0.00646996498108,0.000741958618164,0.427563905716
65,0.00602889060974,0.00685095787048,0.00695085525513,0.000910043716431,0.219135046005
66,0.00555777549744,0.00611400604248,0.00615906715393,0.000600814819336,0.177991867065
67,0.00591897964478,0.00565505027771,0.00696301460266,0.000760078430176,0.186121940613
68,0.00579404830933,0.00646114349365,0.00625109672546,0.000670909881592,0.192435026169
69,0.00571823120117,0.00580787658691,0.00620794296265,0.000575065612793,0.195642948151
70,0.00566720962524,0.00711584091187,0.00662803649902,0.00067400932312,0.255169153214
71,0.00543189048767,0.00601196289062,0.00635194778442,0.000616788864136,0.200577974319
72,0.00537824630737,0.00554203987122,0.00574612617493,0.000635147094727,0.258409023285
73,0.0054759979248,0.00653791427612,0.00680899620056,0.000692129135132,0.807615995407
74,0.00554919242859,0.00615000724792,0.00640916824341,0.000831127166748,0.209280967712
75,0.00529885292053,0.00541996955872,0.0060019493103,0.000550985336304,0.198522806168
76,0.00578212738037,0.00676393508911,0.00672602653503,0.000771999359131,0.241256952286
77,0.00716614723206,0.00589299201965,0.00596714019775,0.000631093978882,0.491234779358
78,0.00714087486267,0.00554800033569,0.00604796409607,0.000558137893677,0.217972993851
79,0.00553202629089,0.00646805763245,0.0070788860321,0.000972032546997,0.651619911194
80,0.00536513328552,0.00617098808289,0.00641107559204,0.000646114349365,0.21400809288
81,0.00592589378357,0.00608682632446,0.00626111030579,0.000618934631348,0.238552093506
82,0.0120899677277,0.00614500045776,0.00641417503357,0.000684022903442,0.27853512764
83,0.00554585456848,0.00608706474304,0.00620007514954,0.000607013702393,0.294422149658
84,0.00553488731384,0.00579810142517,0.00686597824097,0.000709056854248,0.254364013672
85,0.00656700134277,0.0061559677124,0.00652098655701,0.00084400177002,0.769484996796
86,0.00580811500549,0.00594997406006,0.00625610351562,0.000601053237915,0.237543106079
87,0.0054337978363,0.00627994537354,0.00644207000732,0.000674962997437,0.289580106735
88,0.0062370300293,0.00608801841736,0.00649309158325,0.00071907043457,0.230030059814
89,0.00513410568237,0.00568604469299,0.0067880153656,0.000739097595215,0.232971191406
90,0.00622487068176,0.00679707527161,0.00701498985291,0.000905990600586,0.235200166702
91,0.0130228996277,0.00615406036377,0.00641798973083,0.00068187713623,0.24152302742
92,0.00561499595642,0.00580883026123,0.00667881965637,0.000756978988647,0.522923946381
93,0.00535917282104,0.0062940120697,0.0064868927002,0.000669002532959,0.261999845505
94,0.00541305541992,0.00578784942627,0.00638008117676,0.000636100769043,0.267840147018
95,0.0053539276123,0.00629091262817,0.00660586357117,0.000692129135132,0.303749799728
96,0.00528502464294,0.00594091415405,0.0061571598053,0.000606060028076,0.274178981781
97,0.00531482696533,0.00587201118469,0.00619983673096,0.000591039657593,0.26515007019
98,0.0056459903717,0.00620198249817,0.00650477409363,0.000773906707764,0.318303108215
99,0.00591707229614,0.00581407546997,0.00612092018127,0.000582933425903,0.259022951126
