step,run,get,set,free,run_up_to_step
0,0.322185993195,0.0263040065765,0.0246961116791,0.00517892837524,0.120410919189
1,0.068076133728,0.0227179527283,0.0216970443726,0.0044960975647,0.129869937897
2,0.048953294754,0.0228719711304,0.0243680477142,0.00520896911621,0.160703897476
3,0.0593841075897,0.0239059925079,0.0234889984131,0.00506615638733,0.225072145462
4,0.0501327514648,0.0252680778503,0.0234768390656,0.0053870677948,0.547752857208
5,0.0575752258301,0.0245740413666,0.0250248908997,0.00603294372559,0.233360052109
6,0.055958032608,0.0249199867249,0.0252799987793,0.00540399551392,0.271298885345
7,0.054927110672,0.0229871273041,0.0227937698364,0.00505805015564,0.383500099182
8,0.044921875,0.0232861042023,0.0225789546967,0.00477600097656,0.331611871719
9,0.138467311859,0.0247931480408,0.022472858429,0.00476503372192,0.410202980042
10,0.0634970664978,0.024288892746,0.0216610431671,0.00562906265259,0.459336042404
11,0.0410120487213,0.0230419635773,0.0231940746307,0.00465703010559,0.69344496727
12,0.0638539791107,0.0245718955994,0.0259962081909,0.00557017326355,0.762876987457
13,0.259322166443,0.0244479179382,0.0224509239197,0.00528287887573,0.467116117477
14,0.0520098209381,0.0233800411224,0.0230679512024,0.00462198257446,0.501320123672
15,0.0558140277863,0.0222480297089,0.0257701873779,0.00535082817078,0.6351749897
16,0.0581290721893,0.0228579044342,0.0216300487518,0.00517702102661,0.67679309845
17,0.307021141052,0.0217521190643,0.0220079421997,0.00494194030762,1.00683784485
18,0.0330739021301,0.0225839614868,0.027575969696,0.00491309165955,0.645789861679
19,0.0472850799561,0.0214009284973,0.0311980247498,0.00712203979492,1.04495382309
20,0.0460200309753,0.0226061344147,0.0232708454132,0.00474190711975,0.694343090057
21,0.0434930324554,0.0223848819733,0.0231649875641,0.00479912757874,0.739371061325
22,0.0356011390686,0.0233449935913,0.0233149528503,0.00492405891418,0.760176181793
23,0.0398640632629,0.0231318473816,0.0228052139282,0.00477504730225,0.864907026291
24,0.0539791584015,0.0226881504059,0.0230309963226,0.0046591758728,0.892739057541
25,0.0476012229919,0.0271189212799,0.0320398807526,0.00684714317322,0.90172791481
26,0.302330970764,0.0241060256958,0.0227599143982,0.00482702255249,1.14924502373
27,0.044529914856,0.0231671333313,0.0234889984131,0.00500106811523,0.856310129166
28,0.0615158081055,0.0221788883209,0.0259599685669,0.00692892074585,1.46731996536
29,0.0579409599304,0.0237100124359,0.0243940353394,0.0046329498291,1.1875140667
30,0.0466232299805,0.0230991840363,0.0254170894623,0.00522685050964,0.960351228714
31,0.0543978214264,0.0235040187836,0.0265710353851,0.0057680606842,1.02373099327
32,0.0589570999146,0.0232710838318,0.0231580734253,0.00503301620483,1.12999200821
33,0.264808893204,0.0233631134033,0.02330493927,0.00466084480286,1.38352680206
34,0.0558860301971,0.0229239463806,0.0227949619293,0.00482106208801,1.22533011436
35,0.0721101760864,0.0253009796143,0.0222179889679,0.0046660900116,1.29330611229
36,0.0702269077301,0.0241520404816,0.0258297920227,0.00573706626892,1.2706758976
37,0.368410825729,0.0240080356598,0.024827003479,0.00502300262451,1.41924500465
38,0.095005273819,0.0243890285492,0.0241851806641,0.00488996505737,1.48056387901
39,0.105494022369,0.0257830619812,0.0238540172577,0.00479698181152,1.61090016365
40,0.0601091384888,0.0249221324921,0.0233709812164,0.00473713874817,1.54760098457
41,0.0832962989807,0.0235180854797,0.0227410793304,0.00465607643127,1.86042499542
42,0.0460469722748,0.0300009250641,0.021124124527,0.00463390350342,2.13903093338
43,0.0855808258057,0.0214989185333,0.0242030620575,0.00595211982727,1.60915517807
44,1.87785482407,0.024493932724,0.0241861343384,0.00541400909424,1.87546801567
45,0.0591161251068,0.0244069099426,0.0242779254913,0.00506281852722,1.94328999519
46,0.0355360507965,0.0240528583527,0.024649143219,0.00560712814331,1.81381607056
47,0.0509462356567,0.0235381126404,0.0233449935913,0.00471496582031,1.68627715111
48,0.0337750911713,0.0231680870056,0.0251331329346,0.00584888458252,1.71296310425
49,0.294147968292,0.0229330062866,0.0228190422058,0.00471305847168,1.81902694702
50,0.357680797577,0.0224668979645,0.0267090797424,0.00651812553406,1.70221209526
51,0.0347211360931,0.02450299263,0.0248990058899,0.00503396987915,1.86032295227
52,0.0397589206696,0.0258159637451,0.0243082046509,0.00507783889771,2.02488017082
53,0.0370800495148,0.0253479480743,0.0251231193542,0.00523209571838,1.89265012741
54,0.0392029285431,0.0258378982544,0.0244889259338,0.00528001785278,2.05751395226
55,0.28927898407,0.0247249603271,0.0230000019073,0.00494003295898,1.83605408669
56,0.0476269721985,0.0317080020905,0.0317831039429,0.00686407089233,2.33042407036
57,0.0633277893066,0.0264220237732,0.0259029865265,0.00576996803284,2.00540113449
58,0.0550162792206,0.0224199295044,0.0261588096619,0.005704164505,2.86704111099
59,0.0429742336273,0.0243449211121,0.0239629745483,0.00500392913818,1.9940290451
60,0.0618658065796,0.0284519195557,0.0241570472717,0.00475096702576,2.02823710442
61,0.36954498291,0.0239140987396,0.0328469276428,0.00715804100037,2.14224290848
62,0.305480957031,0.0241870880127,0.0234417915344,0.00499296188354,2.16610097885
63,0.0492649078369,0.0227520465851,0.0230250358582,0.00470995903015,2.22320890427
64,0.205094099045,0.0234940052032,0.0259850025177,0.00697493553162,4.02857303619
65,0.0589201450348,0.0253009796143,0.0233170986176,0.00491499900818,3.4214758873
66,1.06466984749,0.0260608196259,0.0246779918671,0.00576305389404,2.67260599136
67,0.0478880405426,0.0251200199127,0.0278980731964,0.00607895851135,2.38234901428
68,0.0804703235626,0.0246908664703,0.0232679843903,0.00470995903015,2.55398011208
69,0.166689872742,0.023129940033,0.0229811668396,0.0047619342804,2.93596506119
70,0.0727570056915,0.0230090618134,0.0213730335236,0.00467610359192,2.57199692726
71,0.258028745651,0.0236530303955,0.0259640216827,0.00565910339355,3.2088739872
72,0.0443940162659,0.0279588699341,0.0336730480194,0.00677609443665,2.73136687279
73,0.0326271057129,0.0238180160522,0.0251159667969,0.00566983222961,2.76123094559
74,0.0566530227661,0.0235769748688,0.0234220027924,0.00465989112854,2.72730708122
75,0.246664762497,0.0232028961182,0.0232210159302,0.00469207763672,2.86162996292
76,0.0706379413605,0.0226900577545,0.0231428146362,0.00512480735779,2.84375691414
77,0.0376110076904,0.0276939868927,0.0253219604492,0.00525784492493,3.8502240181
78,0.0460438728333,0.0259721279144,0.0279970169067,0.00535702705383,3.88445997238
79,0.0453240871429,0.0246918201447,0.0237760543823,0.00483393669128,3.07163000107
80,0.0585813522339,0.0237448215485,0.0232329368591,0.00468301773071,2.84113097191
81,0.0581512451172,0.0229389667511,0.0231599807739,0.00476694107056,2.88257312775
82,0.0426371097565,0.0265560150146,0.025634765625,0.00577902793884,3.87141108513
83,0.0523400306702,0.0247950553894,0.0255069732666,0.00529098510742,3.44808888435
84,0.0582671165466,0.0282199382782,0.0264940261841,0.00561213493347,3.12900900841
85,0.0740160942078,0.0247640609741,0.0281581878662,0.00574898719788,3.60582780838
86,0.0417330265045,0.0230548381805,0.0227520465851,0.0046169757843,3.3217561245
87,0.0401120185852,0.0225551128387,0.0215439796448,0.00461506843567,2.99686098099
88,0.043741941452,0.0244839191437,0.0235390663147,0.00522780418396,3.95406389236
89,0.0440328121185,0.0342679023743,0.0238571166992,0.00481200218201,3.54285216331
90,0.0558278560638,0.0247678756714,0.0248618125916,0.00465798377991,3.16079902649
91,0.0538818836212,0.0231890678406,0.0228481292725,0.00461196899414,3.37459015846
92,0.0589628219604,0.022834777832,0.0251488685608,0.0056619644165,3.23481678963
93,0.0551190376282,0.0249171257019,0.0242521762848,0.00490498542786,3.41202402115
94,0.0479710102081,0.0245580673218,0.0237050056458,0.00514101982117,3.41961312294
95,0.474490880966,0.0233728885651,0.0234949588776,0.00498700141907,3.68415689468
96,0.0917980670929,0.0226268768311,0.0227279663086,0.00458192825317,4.29778504372
97,0.0521600246429,0.0246000289917,0.0251219272614,0.00576186180115,4.4402050972
98,0.0371339321136,0.0258839130402,0.0248870849609,0.00515294075012,3.74373006821
99,0.0712730884552,0.0252990722656,0.0243151187897,0.00480484962463,3.74997210503
