step,run,get,set,free,run_up_to_step
0,0.0514349937439,0.0379960536957,0.0417020320892,0.00338792800903,0.0519359111786
1,0.0457661151886,0.0379040241241,0.041140794754,0.00341701507568,0.0505700111389
2,0.044175863266,0.0374548435211,0.0398330688477,0.00329995155334,0.151045084
3,0.0463597774506,0.0373811721802,0.0421350002289,0.00338387489319,0.0524048805237
4,0.0432798862457,0.0376420021057,0.0422899723053,0.00346112251282,0.0551569461823
5,0.0539720058441,0.0368819236755,0.0454130172729,0.00359487533569,0.0572509765625
6,0.0449779033661,0.0379049777985,0.0421481132507,0.00340104103088,0.0656609535217
7,0.0436410903931,0.0378501415253,0.0419170856476,0.00342488288879,0.0558700561523
8,0.0451731681824,0.040109872818,0.0449931621552,0.00350022315979,0.0582420825958
9,0.0433537960052,0.0377478599548,0.0420417785645,0.00343704223633,0.0591099262238
10,0.0439209938049,0.0377540588379,0.0407040119171,0.00343203544617,0.076208114624
11,0.0423080921173,0.0354881286621,0.0420610904694,0.00345087051392,0.0586020946503
12,0.04523396492,0.038489818573,0.0450921058655,0.00352311134338,0.0616619586945
13,0.0448908805847,0.0382170677185,0.0460901260376,0.00376510620117,0.0663270950317
14,0.0448379516602,0.0379650592804,0.0424098968506,0.00346803665161,0.0652010440826
15,0.0450079441071,0.037887096405,0.0427570343018,0.00355696678162,0.0629661083221
16,0.0434956550598,0.0379321575165,0.0427458286285,0.00346899032593,0.0628268718719
17,0.0429108142853,0.0382359027863,0.0428431034088,0.00349712371826,0.0639319419861
18,0.0450501441956,0.0366790294647,0.0420658588409,0.00347208976746,0.0655460357666
19,0.044869184494,0.037887096405,0.0440828800201,0.00356698036194,0.12997508049
20,0.0430021286011,0.0380539894104,0.0437529087067,0.00350594520569,0.0659160614014
21,0.0422277450562,0.0339629650116,0.0464270114899,0.0036199092865,0.066036939621
22,0.0433418750763,0.037348985672,0.0429861545563,0.00354385375977,0.0675530433655
23,0.0455310344696,0.0380780696869,0.0428931713104,0.00353503227234,0.0711920261383
24,0.0442352294922,0.0380849838257,0.04390001297,0.00351095199585,0.0685679912567
25,0.0434231758118,0.0381169319153,0.0439131259918,0.0036141872406,0.128561019897
26,0.0432138442993,0.0389959812164,0.0438578128815,0.00356817245483,0.0711960792542
27,0.0434598922729,0.0381371974945,0.044154882431,0.00356888771057,0.0723578929901
28,0.0430731773376,0.037602186203,0.0441839694977,0.00365304946899,0.07173204422
29,0.0447409152985,0.0409719944,0.0464560985565,0.00411486625671,0.0747759342194
30,0.0433080196381,0.0386199951172,0.0431051254272,0.00371980667114,0.0745048522949
31,0.0432932376862,0.0366132259369,0.0439689159393,0.00353312492371,0.150484085083
32,0.0437040328979,0.0380721092224,0.0430021286011,0.00349998474121,0.0743219852448
33,0.0431542396545,0.0382170677185,0.0433588027954,0.00367498397827,0.0752091407776
34,0.0461618900299,0.0402939319611,0.0450050830841,0.00378894805908,0.0754120349884
35,0.0431461334229,0.0392909049988,0.0426528453827,0.00375485420227,0.0751287937164
36,0.0433220863342,0.0372331142426,0.0429258346558,0.00386905670166,0.0810968875885
37,0.0445330142975,0.0383701324463,0.0435709953308,0.00362706184387,0.0786080360413
38,0.0439910888672,0.0342881679535,0.0434808731079,0.00378584861755,0.0792288780212
39,0.0385680198669,0.0352969169617,0.0436880588531,0.00372385978699,0.0739560127258
40,0.0469617843628,0.0380721092224,0.043566942215,0.0038731098175,0.0796768665314
41,0.0434069633484,0.0385129451752,0.0433781147003,0.00393009185791,0.0998830795288
42,0.0438389778137,0.0383760929108,0.0447928905487,0.00376796722412,0.147425889969
43,0.0440299510956,0.0380659103394,0.0432159900665,0.00377202033997,0.0833849906921
44,0.0443949699402,0.0384078025818,0.0432209968567,0.00381016731262,0.102142095566
45,0.0437970161438,0.0384058952332,0.0442900657654,0.00374317169189,0.0833520889282
46,0.0439717769623,0.0376069545746,0.0432779788971,0.00377678871155,0.0856800079346
47,0.0444839000702,0.0389461517334,0.0451438426971,0.0038480758667,0.086925983429
48,0.0433456897736,0.0385580062866,0.0448498725891,0.00378108024597,0.14975810051
49,0.0446729660034,0.0382199287415,0.0461480617523,0.00372815132141,0.0899040699005
50,0.04523396492,0.0383710861206,0.0431199073792,0.003751039505,0.0911622047424
51,0.046558380127,0.0385761260986,0.0442700386047,0.00379586219788,0.116706132889
52,0.0458600521088,0.0391139984131,0.0408179759979,0.00349307060242,0.110229969025
53,0.0457291603088,0.041020154953,0.045224905014,0.00379085540771,0.114586114883
54,0.0448348522186,0.0386009216309,0.0450160503387,0.00385618209839,0.171607017517
55,0.0422768592834,0.0385539531708,0.0438630580902,0.00382208824158,0.0919320583344
56,0.0425231456757,0.0376210212708,0.0449500083923,0.00378084182739,0.0918300151825
57,0.0428998470306,0.0387539863586,0.044627904892,0.00514984130859,0.0923359394073
58,0.0437948703766,0.0388720035553,0.0439960956573,0.00372505187988,0.0932748317719
59,0.0443658828735,0.0378339290619,0.04505610466,0.00379991531372,0.0951540470123
60,0.0448150634766,0.0401639938354,0.046982049942,0.00393199920654,0.0973150730133
61,0.0491511821747,0.038810968399,0.0483419895172,0.00340104103088,0.125355958939
62,0.0430634021759,0.0387661457062,0.0439670085907,0.00377821922302,0.116311073303
63,0.0432157516479,0.039055109024,0.0443139076233,0.00377297401428,0.11785197258
64,0.0437481403351,0.0390899181366,0.0442390441895,0.00378084182739,0.119286060333
65,0.0435657501221,0.038341999054,0.0450768470764,0.00374603271484,0.120736837387
66,0.0459411144257,0.03884100914,0.0453519821167,0.00394988059998,0.103768110275
67,0.0434160232544,0.0385909080505,0.0452570915222,0.00391602516174,0.101120948792
68,0.0441172122955,0.0387690067291,0.0442352294922,0.00379586219788,0.102442979813
69,0.0454390048981,0.0403451919556,0.0510399341583,0.00385904312134,0.101697921753
70,0.0440809726715,0.0392620563507,0.0432579517365,0.00376009941101,0.108347177505
71,0.0424029827118,0.038675069809,0.0448172092438,0.00375699996948,0.170083045959
72,0.0433700084686,0.0382559299469,0.044331073761,0.00375294685364,0.12112903595
73,0.0416860580444,0.0390150547028,0.0449647903442,0.00375580787659,0.123162984848
74,0.041463136673,0.039174079895,0.045471906662,0.00381517410278,0.1248691082
75,0.0412678718567,0.038015127182,0.0442538261414,0.0037841796875,0.126602888107
76,0.042228937149,0.0387699604034,0.0475900173187,0.005539894104,0.105715036392
77,0.0425429344177,0.0390110015869,0.0453379154205,0.00383615493774,0.191998958588
78,0.0385451316833,0.0385830402374,0.043918132782,0.00368595123291,0.107745170593
79,0.0427010059357,0.0388238430023,0.0450029373169,0.00376391410828,0.107929944992
80,0.040295124054,0.0366010665894,0.0457561016083,0.00382995605469,0.109956979752
81,0.0421369075775,0.0388970375061,0.0450570583344,0.00374889373779,0.110342979431
82,0.0409781932831,0.0388789176941,0.0447580814362,0.0036997795105,0.131228923798
83,0.042906999588,0.0387477874756,0.0447070598602,0.00382590293884,0.19069814682
84,0.0432870388031,0.0420141220093,0.0445311069489,0.00374794006348,0.140810012817
85,0.0424652099609,0.0413179397583,0.045196056366,0.0037579536438,0.134104967117
86,0.0439050197601,0.0395820140839,0.0441930294037,0.00370907783508,0.112628936768
87,0.0432770252228,0.0396890640259,0.0439889431,0.00373911857605,0.114681959152
88,0.0435762405396,0.0390219688416,0.0442051887512,0.00370001792908,0.113471031189
89,0.0441389083862,0.0405468940735,0.0494599342346,0.00397109985352,0.118340015411
90,0.043839931488,0.0388350486755,0.0453419685364,0.00371623039246,0.11767411232
91,0.0432379245758,0.0388150215149,0.0443677902222,0.00375699996948,0.118054866791
92,0.0464737415314,0.0390508174896,0.043338060379,0.00377297401428,0.137521982193
93,0.0419640541077,0.0394039154053,0.0442090034485,0.00378489494324,0.14070892334
94,0.0434470176697,0.0394020080566,0.0451018810272,0.00380206108093,0.210108041763
95,0.0436289310455,0.0392317771912,0.0442509651184,0.00397396087646,0.142156124115
96,0.0410399436951,0.0385348796844,0.0447380542755,0.00371098518372,0.120553016663
97,0.0425870418549,0.0391638278961,0.0443820953369,0.0036940574646,0.119360923767
98,0.0509309768677,0.0361919403076,0.0440690517426,0.00376796722412,0.12076997757
99,0.0419290065765,0.0381779670715,0.0462191104889,0.00374007225037,0.122332811356
