step,run,get,set,free,run_up_to_step
0,0.0040271282196,0.00741291046143,0.00639200210571,0.00127291679382,0.00554800033569
1,0.00321292877197,0.00736212730408,0.00688886642456,0.00128197669983,0.00639700889587
2,0.00407004356384,0.00763607025146,0.00678515434265,0.00113487243652,0.00825190544128
3,0.00378489494324,0.00734400749207,0.00686597824097,0.00132894515991,0.034215927124
4,0.0040340423584,0.00756883621216,0.00698590278625,0.00139594078064,0.00970602035522
5,0.00393509864807,0.00849890708923,0.00692915916443,0.00134992599487,0.011871099472
6,0.00402879714966,0.00792598724365,0.0066020488739,0.00131106376648,0.0113270282745
7,0.00373196601868,0.0066990852356,0.00680804252625,0.0013120174408,0.0262858867645
8,0.00332689285278,0.00747013092041,0.00711584091187,0.00137686729431,0.0137410163879
9,0.00504589080811,0.00850987434387,0.00695300102234,0.00120902061462,0.0158309936523
10,0.0482211112976,0.0071861743927,0.00653600692749,0.001296043396,0.0636978149414
11,0.00831580162048,0.00743508338928,0.00683808326721,0.00117301940918,0.0700891017914
12,0.00620079040527,0.00710988044739,0.00701284408569,0.00118708610535,0.0667181015015
13,0.00500297546387,0.00743794441223,0.00644493103027,0.00110912322998,0.0702149868011
14,0.0076060295105,0.0070698261261,0.00752782821655,0.00170993804932,0.0745360851288
15,0.00461888313293,0.00688099861145,0.00639486312866,0.00102090835571,0.0754590034485
16,0.00441002845764,0.00680994987488,0.00657916069031,0.00105810165405,0.124388933182
17,0.00429916381836,0.00710701942444,0.00634503364563,0.00104093551636,0.0765399932861
18,0.00458407402039,0.00705599784851,0.00866889953613,0.00158500671387,0.0761609077454
19,0.00471210479736,0.00766181945801,0.0285611152649,0.00139713287354,0.0886051654816
20,0.00462818145752,0.00714516639709,0.00659418106079,0.00106716156006,0.0776040554047
21,0.00455689430237,0.00691294670105,0.00742101669312,0.00135397911072,0.0792999267578
22,0.00609803199768,0.0091381072998,0.00676918029785,0.00111508369446,0.0873100757599
23,0.00499510765076,0.00755310058594,0.00642704963684,0.00104594230652,0.0830578804016
24,0.00520420074463,0.00800490379333,0.0070960521698,0.00121212005615,0.12414598465
25,0.0151889324188,0.00871396064758,0.00653791427612,0.00108003616333,0.104243993759
26,0.0137169361115,0.00701904296875,0.00641393661499,0.00100493431091,0.0983588695526
27,0.0168011188507,0.00826287269592,0.00699591636658,0.00119495391846,0.178101062775
28,0.0194211006165,0.0076060295105,0.00664806365967,0.00115895271301,0.139118909836
29,0.00771284103394,0.00694704055786,0.00749206542969,0.00141191482544,0.167479038239
30,0.00583076477051,0.00810384750366,0.00719285011292,0.00162792205811,0.146661043167
31,0.00539922714233,0.00706696510315,0.0063910484314,0.000981092453003,0.170824050903
32,0.00506114959717,0.00658583641052,0.00619292259216,0.00101280212402,0.149780035019
33,0.00469422340393,0.00719499588013,0.00665402412415,0.00108289718628,0.318278074265
34,0.00535011291504,0.00751900672913,0.00692319869995,0.00115084648132,0.149609804153
35,0.00496912002563,0.00740313529968,0.00700306892395,0.00115394592285,0.148088932037
36,0.00616693496704,0.00893092155457,0.00793695449829,0.00126910209656,0.203017950058
37,0.00508093833923,0.00758790969849,0.00685906410217,0.00119590759277,0.165457010269
38,0.00486493110657,0.0072078704834,0.00641512870789,0.00104403495789,0.155049800873
39,0.00490498542786,0.00810098648071,0.00696301460266,0.00113701820374,0.190454959869
40,0.00460600852966,0.00755882263184,0.00654006004333,0.001051902771,0.171298027039
41,0.00474786758423,0.00708699226379,0.00804996490479,0.00149703025818,0.155879974365
42,0.00496292114258,0.00733995437622,0.00691890716553,0.00118517875671,0.237987995148
43,0.00458025932312,0.00749588012695,0.00720691680908,0.00123691558838,0.178689002991
44,0.00431704521179,0.00772905349731,0.00687289237976,0.00120902061462,0.183522939682
45,0.00406694412231,0.00733590126038,0.00664496421814,0.00111508369446,0.156818151474
46,0.00468516349792,0.00697302818298,0.00827407836914,0.001788854599,0.159737110138
47,0.00419640541077,0.00765895843506,0.00669288635254,0.00107288360596,0.184905052185
48,0.00438904762268,0.00734615325928,0.00673890113831,0.00112795829773,0.189146995544
49,0.00398707389832,0.00731897354126,0.00616383552551,0.00101709365845,0.168523073196
50,0.00385308265686,0.00666499137878,0.00819110870361,0.00182509422302,0.161242008209
51,0.00410103797913,0.00818395614624,0.00684595108032,0.00119113922119,0.171442985535
52,0.00479102134705,0.007493019104,0.00640892982483,0.00101804733276,0.166671037674
53,0.00382590293884,0.00820207595825,0.007080078125,0.00114989280701,0.213125944138
54,0.00389909744263,0.00753092765808,0.00627112388611,0.00110101699829,0.179995059967
55,0.00417184829712,0.00680899620056,0.00721001625061,0.00139307975769,0.171504020691
56,0.0042552947998,0.00767588615417,0.00653195381165,0.00114297866821,0.160555839539
57,0.00381898880005,0.00675392150879,0.00674104690552,0.00132083892822,0.177800893784
58,0.00350999832153,0.00783514976501,0.00667214393616,0.00115895271301,0.221819877625
59,0.00363111495972,0.00716090202332,0.00699710845947,0.00113391876221,0.173804044724
60,0.0569081306458,0.00864481925964,0.00714802742004,0.00143885612488,0.435302019119
61,0.00738096237183,0.00827503204346,0.00708699226379,0.00123000144958,0.272339105606
62,0.00523400306702,0.00753593444824,0.00703501701355,0.00120902061462,0.248951911926
63,0.00494980812073,0.00741910934448,0.00703620910645,0.00120687484741,0.23904299736
64,0.00686192512512,0.00757002830505,0.00683307647705,0.00117588043213,0.255167961121
65,0.00534820556641,0.00732493400574,0.00788402557373,0.00152707099915,0.223078012466
66,0.00463795661926,0.00768685340881,0.00686407089233,0.00122213363647,0.259802103043
67,0.0064332485199,0.00870084762573,0.00705099105835,0.00115203857422,0.260716199875
68,0.00626611709595,0.00767207145691,0.00717806816101,0.00161719322205,0.31428194046
69,0.00486278533936,0.00732207298279,0.00637602806091,0.00107407569885,0.232960939407
70,0.00485897064209,0.00796699523926,0.0069260597229,0.00121402740479,0.265858888626
71,0.00465178489685,0.00703001022339,0.0067720413208,0.00121879577637,0.257029056549
72,0.00501704216003,0.00760388374329,0.00667500495911,0.00116205215454,0.265074014664
73,0.00481605529785,0.00718283653259,0.00711798667908,0.00146293640137,0.242489814758
74,0.00523614883423,0.0072078704834,0.00661611557007,0.00113105773926,0.287708997726
75,0.0101020336151,0.00696396827698,0.00734996795654,0.00123310089111,0.262187957764
76,0.0157730579376,0.00650191307068,0.00751900672913,0.00161600112915,0.259891033173
77,0.0161130428314,0.00738096237183,0.006511926651,0.00118279457092,0.289849996567
78,0.0115189552307,0.00683808326721,0.00776290893555,0.00149393081665,0.33069896698
79,0.00852298736572,0.00834608078003,0.00699996948242,0.00116801261902,0.355520009995
80,0.00670719146729,0.00793600082397,0.00678110122681,0.00120306015015,0.388200044632
81,0.00619268417358,0.00658702850342,0.0061719417572,0.0010302066803,0.318133831024
82,0.004958152771,0.00783491134644,0.00754714012146,0.00129985809326,0.607369184494
83,0.00488686561584,0.00811386108398,0.0072660446167,0.0012788772583,0.384065151215
84,0.00601410865784,0.00871396064758,0.0073299407959,0.0013370513916,0.320425987244
85,0.00505399703979,0.00744199752808,0.00748586654663,0.00156497955322,0.330636978149
86,0.00511193275452,0.00785613059998,0.00713706016541,0.00119590759277,0.366520881653
87,0.00506401062012,0.00781393051147,0.00704717636108,0.00124597549438,0.340849876404
88,0.00705122947693,0.00863289833069,0.00715804100037,0.0011899471283,0.35276889801
89,0.00521111488342,0.00768399238586,0.00711798667908,0.00124287605286,0.330341100693
90,0.00616908073425,0.0085768699646,0.00682878494263,0.00123310089111,0.347340106964
91,0.00484085083008,0.00731611251831,0.00648093223572,0.00111079216003,0.325256824493
92,0.0051441192627,0.00802707672119,0.00710701942444,0.00127387046814,0.38468003273
93,0.0043957233429,0.00716090202332,0.00641894340515,0.0011100769043,0.320156097412
94,0.00460076332092,0.00720810890198,0.00698518753052,0.00145888328552,0.338104009628
95,0.00408315658569,0.00715303421021,0.00653982162476,0.00111794471741,0.331804037094
96,0.00573205947876,0.00785112380981,0.0072340965271,0.00127410888672,0.371687889099
97,0.00452208518982,0.00691103935242,0.00633788108826,0.00104808807373,0.357631921768
98,0.00502705574036,0.00754308700562,0.00658202171326,0.00113010406494,0.376913070679
99,0.00418996810913,0.0070641040802,0.00664091110229,0.00119090080261,0.327332019806
