step,run,get,set,free,run_up_to_step
0,0.0254769325256,0.00377917289734,0.00381588935852,0.000335931777954,0.025573015213
1,0.0218966007233,0.00340819358826,0.00392913818359,0.000394105911255,0.0375688076019
2,0.0200369358063,0.00345993041992,0.00346398353577,0.000336885452271,0.0833449363708
3,0.0191340446472,0.00345897674561,0.00359082221985,0.000513076782227,0.0619678497314
4,0.014641046524,0.00342106819153,0.00375008583069,0.000348091125488,0.0709328651428
5,0.0152888298035,0.00352716445923,0.00353097915649,0.000425815582275,0.0776448249817
6,0.0131359100342,0.00347805023193,0.00359797477722,0.000334024429321,0.0875780582428
7,0.0113198757172,0.00371909141541,0.00397419929504,0.000438928604126,0.0917258262634
8,0.0111970901489,0.00366187095642,0.00392580032349,0.000396966934204,0.101202011108
9,0.0110230445862,0.00358104705811,0.00352001190186,0.000359058380127,0.103221893311
10,0.0106430053711,0.00346612930298,0.00383806228638,0.000416994094849,0.10634803772
11,0.0115873813629,0.00348615646362,0.00361895561218,0.000348091125488,0.105684995651
12,0.0081160068512,0.00341105461121,0.00363206863403,0.000349998474121,0.144030809402
13,0.0102317333221,0.00343799591064,0.00398683547974,0.000446081161499,0.118376016617
14,0.0118179321289,0.00352215766907,0.00389313697815,0.000365018844604,0.128733873367
15,0.0112278461456,0.00363397598267,0.00411105155945,0.000431060791016,0.134123086929
16,0.00994300842285,0.00358486175537,0.00395584106445,0.000384092330933,0.140585899353
17,0.0102899074554,0.00357985496521,0.00375819206238,0.000357866287231,0.144445180893
18,0.00904512405396,0.00361704826355,0.00394082069397,0.000478029251099,0.156890869141
19,0.0103480815887,0.00353980064392,0.00424695014954,0.000453948974609,0.16418504715
20,0.0102477073669,0.00345897674561,0.00373005867004,0.000344038009644,0.173701047897
21,0.0102179050446,0.00387811660767,0.00382614135742,0.000375032424927,0.205356836319
22,0.00992012023926,0.00354290008545,0.00366401672363,0.000355958938599,0.180080890656
23,0.0105068683624,0.00361299514771,0.00388622283936,0.000357151031494,0.216768026352
24,0.0112109184265,0.00357294082642,0.00391006469727,0.000357866287231,0.207113027573
25,0.0116059780121,0.00353980064392,0.00367307662964,0.000340938568115,0.200588941574
26,0.0104551315308,0.00362706184387,0.00380086898804,0.000365972518921,0.232128858566
27,0.0093150138855,0.00377297401428,0.00406289100647,0.000391960144043,0.235228061676
28,0.0113520622253,0.00356006622314,0.00240707397461,0.000233888626099,0.219091892242
29,0.00987100601196,0.00375699996948,0.00380802154541,0.000259876251221,0.244534015656
30,0.00998711585999,0.00312089920044,0.00379800796509,0.000396013259888,0.232447147369
31,0.00963497161865,0.00352787971497,0.003821849823,0.000290155410767,0.223289966583
32,0.00961923599243,0.00362586975098,0.00391006469727,0.00042200088501,0.238955020905
33,0.00814318656921,0.00346398353577,0.00370311737061,0.000349998474121,0.256542921066
34,0.0103800296783,0.00382399559021,0.00385904312134,0.000405073165894,0.26226401329
35,0.00956296920776,0.00373792648315,0.00379800796509,0.000344038009644,0.263041973114
36,0.00885081291199,0.00394082069397,0.00397706031799,0.000413179397583,0.291332006454
37,0.00925993919373,0.00358104705811,0.00377798080444,0.000335931777954,0.267856121063
38,0.00996494293213,0.00391101837158,0.00406312942505,0.000380992889404,0.464709997177
39,0.00868511199951,0.00363492965698,0.00403904914856,0.000476121902466,0.288412094116
40,0.00988698005676,0.00366401672363,0.00388693809509,0.000356912612915,0.29188990593
41,0.00803589820862,0.00356292724609,0.00393605232239,0.000408887863159,0.300345897675
42,0.00982809066772,0.00370907783508,0.00437593460083,0.000411987304688,0.300089120865
43,0.0104131698608,0.00369095802307,0.00247120857239,0.000241994857788,0.309570074081
44,0.00942373275757,0.00352311134338,0.00402808189392,0.000351905822754,0.314351081848
45,0.00989174842834,0.00392699241638,0.0040500164032,0.000441074371338,0.361721992493
46,0.00905418395996,0.0034019947052,0.00386786460876,0.000338792800903,0.336042881012
47,0.0106019973755,0.00380182266235,0.00387096405029,0.000284910202026,0.354720830917
48,0.0102007389069,0.00344800949097,0.00386095046997,0.000339984893799,0.329699039459
49,0.00965118408203,0.00330495834351,0.0037829875946,0.00037693977356,0.348196983337
50,0.00914907455444,0.00347280502319,0.00397706031799,0.000441074371338,0.363757133484
51,0.0103390216827,0.00330185890198,0.00396490097046,0.000358104705811,0.363044023514
52,0.0101070404053,0.00344705581665,0.00397801399231,0.000338077545166,0.35941696167
53,0.0119631290436,0.00339317321777,0.0036449432373,0.000354051589966,0.361374139786
54,0.0112679004669,0.00349688529968,0.0038640499115,0.000380039215088,0.553874015808
55,0.0229551792145,0.00352311134338,0.00407099723816,0.00038480758667,0.38533115387
56,0.00990200042725,0.00373196601868,0.00371599197388,0.000432014465332,0.388383150101
57,0.010027885437,0.00357604026794,0.00384783744812,0.000354051589966,0.394041061401
58,0.00935983657837,0.00337910652161,0.0039758682251,0.000346183776855,0.417958021164
59,0.0106649398804,0.00363707542419,0.00383806228638,0.000422954559326,0.416973114014
60,0.010782957077,0.00367188453674,0.00385403633118,0.000357866287231,0.445202827454
61,0.0102121829987,0.00353097915649,0.00375699996948,0.000345945358276,0.42297911644
62,0.0100679397583,0.0036518573761,0.00409698486328,0.000427007675171,0.432363986969
63,0.0107247829437,0.00369906425476,0.00404000282288,0.00043797492981,0.442713022232
64,0.0116720199585,0.00353312492371,0.00399112701416,0.000364065170288,0.438076972961
65,0.011559009552,0.00347399711609,0.00367498397827,0.000347852706909,0.487418889999
66,0.00980567932129,0.00353598594666,0.00356507301331,0.000342130661011,0.456064939499
67,0.0106770992279,0.00362205505371,0.00412011146545,0.000472068786621,0.663426876068
68,0.0100250244141,0.00337791442871,0.00420784950256,0.000473022460938,0.478571891785
69,0.00974678993225,0.00371503829956,0.00435400009155,0.000468969345093,0.471965074539
70,0.0102229118347,0.00359511375427,0.0042839050293,0.000422954559326,0.492034912109
71,0.0198299884796,0.00307583808899,0.00384712219238,0.000438928604126,0.472676992416
72,0.00881600379944,0.0037100315094,0.00391912460327,0.000366926193237,0.48490190506
73,0.00903010368347,0.00366902351379,0.00407695770264,0.000375032424927,0.497330904007
74,0.0102059841156,0.00367903709412,0.00398516654968,0.000328063964844,0.509108066559
75,0.00884413719177,0.00356197357178,0.00378608703613,0.000363111495972,0.519970178604
76,0.00930285453796,0.00378084182739,0.00376796722412,0.000409841537476,0.510681867599
77,0.00891280174255,0.00309610366821,0.00371599197388,0.000359058380127,0.558429956436
78,0.00915813446045,0.003662109375,0.00339913368225,0.000355958938599,0.527294874191
79,0.0104789733887,0.0034019947052,0.00375294685364,0.000341176986694,0.544901847839
80,0.00942325592041,0.00348091125488,0.00377297401428,0.000367879867554,0.553544044495
81,0.00953793525696,0.00331616401672,0.00343418121338,0.000370979309082,0.805801153183
82,0.00912618637085,0.00387501716614,0.00285005569458,0.000372886657715,0.570206880569
83,0.00967407226562,0.00358009338379,0.00428295135498,0.000452995300293,0.551012039185
84,0.00940608978271,0.0036141872406,0.00378084182739,0.000416994094849,0.569719076157
85,0.00868892669678,0.00359606742859,0.00405216217041,0.000416994094849,0.588012933731
86,0.0078399181366,0.00343012809753,0.00385522842407,0.000352144241333,0.585886001587
87,0.00922822952271,0.00357007980347,0.00395703315735,0.000363111495972,0.560183048248
88,0.00889992713928,0.00365090370178,0.00332117080688,0.00038480758667,0.55211687088
89,0.0102288722992,0.00374007225037,0.00407600402832,0.000417947769165,0.455626964569
90,0.0063910484314,0.00221586227417,0.00240802764893,0.000244140625,0.501481056213
91,0.00985407829285,0.00346183776855,0.00384998321533,0.000448942184448,0.583447933197
92,0.00850009918213,0.0033118724823,0.00376391410828,0.000352144241333,0.609975814819
93,0.00922918319702,0.00343012809753,0.0038959980011,0.000368118286133,0.636413812637
94,0.0091598033905,0.00355792045593,0.0038058757782,0.000387907028198,0.940603971481
95,0.0101630687714,0.00377798080444,0.00395894050598,0.000396013259888,0.657442092896
96,0.00980305671692,0.00362491607666,0.00399804115295,0.000417947769165,0.68678188324
97,0.0107300281525,0.00367307662964,0.00370597839355,0.000345945358276,0.653199911118
98,0.00974798202515,0.00367283821106,0.00388216972351,0.000395059585571,0.689038038254
99,0.0113918781281,0.00360918045044,0.00389003753662,0.00037407875061,0.657869100571
