step,run,get,set,free,run_up_to_step
0,0.00518202781677,0.00501990318298,0.00521397590637,0.000456094741821,0.00581288337708
1,0.00344610214233,0.00475287437439,0.00488615036011,0.000505924224854,0.00596189498901
2,0.00639605522156,0.00488209724426,0.00697588920593,0.000505924224854,0.00807595252991
3,0.00363898277283,0.00449395179749,0.00491714477539,0.000482082366943,0.0211749076843
4,0.00461483001709,0.00479412078857,0.00504589080811,0.000472068786621,0.0100350379944
5,0.00392174720764,0.00470614433289,0.00517392158508,0.000485181808472,0.0106248855591
6,0.00359082221985,0.00485610961914,0.00534105300903,0.000446796417236,0.0116109848022
7,0.00400686264038,0.00572991371155,0.00491094589233,0.000470876693726,0.0123150348663
8,0.00558018684387,0.0048668384552,0.00532102584839,0.000505924224854,0.0316851139069
9,0.00330090522766,0.00505304336548,0.00486207008362,0.00050687789917,0.0166518688202
10,0.00454711914062,0.00496816635132,0.00522685050964,0.00056004524231,0.0163741111755
11,0.00437307357788,0.00487899780273,0.00510215759277,0.000519990921021,0.0179460048676
12,0.00331807136536,0.00479102134705,0.00499606132507,0.000447034835815,0.019681930542
13,0.00330281257629,0.00485706329346,0.00504493713379,0.000439882278442,0.0183141231537
14,0.00366163253784,0.00465703010559,0.00561714172363,0.000580072402954,0.0210430622101
15,0.00587892532349,0.00497794151306,0.00559902191162,0.000520944595337,0.0240380764008
16,0.00338506698608,0.00527811050415,0.00555109977722,0.000536918640137,0.0251009464264
17,0.00333189964294,0.0053870677948,0.00521802902222,0.000498056411743,0.027361869812
18,0.00398516654968,0.00485587120056,0.00529980659485,0.000471830368042,0.0281369686127
19,0.0039210319519,0.00467395782471,0.005047082901,0.000443935394287,0.0266840457916
20,0.00322985649109,0.00398182868958,0.00534796714783,0.00046706199646,0.0282871723175
21,0.00463199615479,0.00583696365356,0.00550699234009,0.000552892684937,0.0307989120483
22,0.00336694717407,0.00532793998718,0.00478792190552,0.000656843185425,0.0329501628876
23,0.00388312339783,0.00528192520142,0.0047869682312,0.000486135482788,0.0318720340729
24,0.00405788421631,0.00483417510986,0.00493693351746,0.000457048416138,0.0319058895111
25,0.00412321090698,0.00490212440491,0.00499391555786,0.000385999679565,0.0328691005707
26,0.00360298156738,0.00485610961914,0.00611710548401,0.000555038452148,0.0333590507507
27,0.00397801399231,0.00537109375,0.00537800788879,0.000537157058716,0.0348839759827
28,0.00344705581665,0.00541496276855,0.00565385818481,0.000514984130859,0.0344979763031
29,0.00452399253845,0.00511407852173,0.00471997261047,0.000507831573486,0.0367131233215
30,0.00335907936096,0.00530409812927,0.00451707839966,0.000550985336304,0.0367441177368
31,0.00376582145691,0.00518798828125,0.00516581535339,0.000509023666382,0.0382559299469
32,0.00375890731812,0.00505709648132,0.0046169757843,0.000497817993164,0.0399398803711
33,0.00345993041992,0.00531411170959,0.00511193275452,0.000575065612793,0.0420711040497
34,0.00609803199768,0.00559616088867,0.00576400756836,0.000637054443359,0.0431818962097
35,0.00442385673523,0.00555801391602,0.00580906867981,0.000539064407349,0.0472099781036
36,0.00379776954651,0.0055251121521,0.00562000274658,0.000494003295898,0.0480060577393
37,0.00353097915649,0.00545501708984,0.00482988357544,0.000525951385498,0.0442187786102
38,0.00331926345825,0.00535082817078,0.00532102584839,0.00040602684021,0.0502269268036
39,0.00398921966553,0.00502800941467,0.00544190406799,0.000489950180054,0.0476698875427
40,0.00497317314148,0.00538301467896,0.00602793693542,0.000536918640137,0.0510501861572
41,0.00516295433044,0.00502800941467,0.00549507141113,0.000571966171265,0.0508589744568
42,0.00339293479919,0.00548601150513,0.00528502464294,0.000571012496948,0.0538110733032
43,0.00346994400024,0.00537204742432,0.0055980682373,0.000706911087036,0.0567309856415
44,0.00332403182983,0.00484299659729,0.00540113449097,0.00049901008606,0.0561110973358
45,0.00376081466675,0.00315618515015,0.0051589012146,0.000479936599731,0.0444979667664
46,0.00316214561462,0.00559687614441,0.00490689277649,0.000792980194092,0.123658895493
47,0.00645303726196,0.00551795959473,0.00549006462097,0.000527858734131,0.0609769821167
48,0.00328898429871,0.00526595115662,0.00538420677185,0.000599145889282,0.0593180656433
49,0.00357699394226,0.00512790679932,0.00525712966919,0.000509023666382,0.0610430240631
50,0.00552916526794,0.00482797622681,0.00517797470093,0.000475883483887,0.0635747909546
51,0.00379395484924,0.00479197502136,0.00512003898621,0.000466108322144,0.0624070167542
52,0.00549817085266,0.00595116615295,0.0053288936615,0.000519990921021,0.130159139633
53,0.00346183776855,0.00561904907227,0.00548791885376,0.000516891479492,0.0660729408264
54,0.00354385375977,0.00536394119263,0.00474214553833,0.000488042831421,0.0658481121063
55,0.00413990020752,0.0046181678772,0.00530314445496,0.000498056411743,0.0713391304016
56,0.00400114059448,0.00498294830322,0.00481104850769,0.000329971313477,0.0691819190979
57,0.00317788124084,0.00492405891418,0.0062940120697,0.000669002532959,0.0740790367126
58,0.00600099563599,0.00584077835083,0.00555801391602,0.000569105148315,0.0777099132538
59,0.00377202033997,0.00548601150513,0.00571894645691,0.00058913230896,0.0773940086365
60,0.00404596328735,0.00496411323547,0.00524497032166,0.000517129898071,0.077479839325
61,0.00345706939697,0.00480484962463,0.00503921508789,0.000450849533081,0.0775167942047
62,0.00321817398071,0.00493502616882,0.00597190856934,0.000527143478394,0.0721919536591
63,0.00352168083191,0.00563502311707,0.00616407394409,0.000900030136108,0.158525943756
64,0.00370812416077,0.00520896911621,0.00559592247009,0.00053882598877,0.0844559669495
65,0.00618195533752,0.00555396080017,0.00554609298706,0.00055193901062,0.084902048111
66,0.00337195396423,0.00514698028564,0.00548100471497,0.000507831573486,0.0786240100861
67,0.00363206863403,0.00501990318298,0.00524210929871,0.000484943389893,0.0800800323486
68,0.00373125076294,0.00557613372803,0.00556612014771,0.000593900680542,0.142807006836
69,0.00338912010193,0.00510311126709,0.00565695762634,0.000505208969116,0.0846371650696
70,0.00397419929504,0.00541687011719,0.00550293922424,0.000493049621582,0.0862100124359
71,0.00306510925293,0.00520396232605,0.0050311088562,0.000453948974609,0.084753036499
72,0.00351715087891,0.00629115104675,0.00607895851135,0.000581026077271,0.145025968552
73,0.00335907936096,0.00547099113464,0.00560808181763,0.000649929046631,0.0875179767609
74,0.0035228729248,0.00561499595642,0.00553393363953,0.000518798828125,0.0885589122772
75,0.00391912460327,0.00512790679932,0.00551414489746,0.000541925430298,0.0915160179138
76,0.00313282012939,0.00305700302124,0.00316905975342,0.000307083129883,0.0922908782959
77,0.00421500205994,0.00557112693787,0.00573086738586,0.000616073608398,0.0945730209351
78,0.00394797325134,0.00560617446899,0.00538516044617,0.000507116317749,0.0977880954742
79,0.00342607498169,0.00510907173157,0.00496602058411,0.000472068786621,0.0921840667725
80,0.00525617599487,0.00630903244019,0.00577902793884,0.000603914260864,0.140513896942
81,0.00386261940002,0.00534105300903,0.00534701347351,0.000520944595337,0.100272893906
82,0.00375699996948,0.00513005256653,0.00506496429443,0.000636100769043,0.102042913437
83,0.00362300872803,0.00493502616882,0.00519609451294,0.000517129898071,0.0989799499512
84,0.00574398040771,0.00578904151917,0.0059928894043,0.000795125961304,0.149144172668
85,0.0042097568512,0.00556993484497,0.00576686859131,0.000617980957031,0.103497982025
86,0.00343203544617,0.00544810295105,0.0050790309906,0.000514030456543,0.104434013367
87,0.00343298912048,0.00481295585632,0.00432395935059,0.000629901885986,0.106668949127
88,0.00399303436279,0.006108045578,0.00519704818726,0.000761032104492,0.145250082016
89,0.00336408615112,0.00504803657532,0.00450897216797,0.000595092773438,0.107532024384
90,0.00582003593445,0.00427389144897,0.00475406646729,0.000458955764771,0.10599899292
91,0.00588297843933,0.00570893287659,0.0056300163269,0.000599145889282,0.107492208481
92,0.00384497642517,0.00565385818481,0.00541090965271,0.000594139099121,0.112024068832
93,0.00380897521973,0.00486707687378,0.00487494468689,0.000511169433594,0.115298986435
94,0.0035228729248,0.00468492507935,0.00485706329346,0.000470161437988,0.112385034561
95,0.00408101081848,0.00572490692139,0.00575304031372,0.000581026077271,0.160705804825
96,0.00428366661072,0.00574398040771,0.00574994087219,0.000700950622559,0.116341114044
97,0.00573682785034,0.0050938129425,0.00492811203003,0.000464916229248,0.119383096695
98,0.00369501113892,0.00474405288696,0.0062689781189,0.000556945800781,0.118281126022
99,0.00342702865601,0.00527000427246,0.00578212738037,0.000743865966797,0.117759943008
