step,run,get,set,free,run_up_to_step
0,0.254861831665,0.00517106056213,0.00522398948669,0.000554084777832,0.258569955826
1,0.2615878582,0.00462913513184,0.00521016120911,0.000582933425903,0.518573999405
2,0.259029865265,0.00454902648926,0.00534510612488,0.000585079193115,1.15268588066
3,0.269283056259,0.00492596626282,0.00558304786682,0.000708818435669,1.04241704941
4,0.260931968689,0.00469422340393,0.00557804107666,0.000570058822632,1.27252292633
5,0.257633924484,0.00466418266296,0.00547409057617,0.000597953796387,1.52969288826
6,0.26157617569,0.00486898422241,0.00540900230408,0.00059700012207,1.78479385376
7,0.266540050507,0.00469303131104,0.00532007217407,0.000606060028076,2.04212498665
8,0.25923705101,0.00476598739624,0.00519609451294,0.000560998916626,2.30630803108
9,0.262438058853,0.00484800338745,0.00521111488342,0.000550985336304,2.58144903183
10,0.261926174164,0.00480604171753,0.00527596473694,0.00062108039856,2.80670785904
11,0.263047933578,0.00483107566833,0.00538301467896,0.000542163848877,3.04359698296
12,0.249068975449,0.0047550201416,0.00517606735229,0.000549793243408,3.71401500702
13,0.261952877045,0.00463700294495,0.00529003143311,0.00056791305542,3.98040294647
14,0.257578134537,0.00464797019958,0.00564789772034,0.000521898269653,4.36521983147
15,0.25074505806,0.00485301017761,0.00533199310303,0.000692844390869,4.1868698597
16,0.265053987503,0.00475811958313,0.00530409812927,0.000553131103516,4.33660507202
17,0.258915901184,0.00490808486938,0.00542402267456,0.000535011291504,4.68680787086
18,0.255733966827,0.0049090385437,0.00543117523193,0.000528812408447,4.89660000801
19,0.259926795959,0.00477504730225,0.00534605979919,0.000545978546143,5.15925908089
20,0.257836103439,0.00478100776672,0.00548601150513,0.000550031661987,5.72938513756
21,0.261507034302,0.00488901138306,0.00557398796082,0.000646114349365,6.00502490997
22,0.260366916656,0.00463700294495,0.00552892684937,0.000574827194214,6.25912117958
23,0.259589195251,0.00497603416443,0.00544691085815,0.000556945800781,6.35499811172
24,0.259037971497,0.00490689277649,0.00542902946472,0.000524044036865,6.41255712509
25,0.255859851837,0.0046238899231,0.00529384613037,0.000550985336304,6.98344111443
26,0.254199266434,0.00487589836121,0.00536203384399,0.00055193901062,6.90382003784
27,0.256010055542,0.00466299057007,0.00529217720032,0.000577926635742,7.62789583206
28,0.259090185165,0.00469183921814,0.00523114204407,0.00053882598877,7.7731461525
29,0.263375997543,0.00467085838318,0.00552988052368,0.000547170639038,7.9184448719
30,0.256417989731,0.00490093231201,0.00535202026367,0.000586032867432,8.14385986328
31,0.271353006363,0.00479412078857,0.00550508499146,0.000557899475098,8.53527593613
32,0.260976314545,0.00462603569031,0.00534510612488,0.000580072402954,8.8392469883
33,0.254190921783,0.00465106964111,0.00527095794678,0.000552177429199,9.06135892868
34,0.254815101624,0.00458407402039,0.00554013252258,0.000550031661987,9.08178806305
35,0.249373912811,0.00441694259644,0.00536894798279,0.000559091567993,9.59237408638
36,0.259516954422,0.0049159526825,0.0054337978363,0.000579118728638,9.73981904984
37,0.256499052048,0.00470805168152,0.00530004501343,0.000509977340698,10.0660419464
38,0.258147001266,0.00476717948914,0.00533008575439,0.00055718421936,10.2074689865
39,0.262344837189,0.00467896461487,0.00564503669739,0.000597953796387,10.3579950333
40,0.261698007584,0.00479602813721,0.00534319877625,0.000569105148315,10.8001739979
41,0.254414081573,0.00487804412842,0.00525212287903,0.000537872314453,11.0673480034
42,0.26073384285,0.00469708442688,0.00525403022766,0.000620126724243,11.4926249981
43,0.259803056717,0.00478887557983,0.005530834198,0.000552892684937,11.4530189037
44,0.261568069458,0.0047721862793,0.00529599189758,0.000550985336304,11.9315171242
45,0.259640932083,0.0051109790802,0.00551891326904,0.000642061233521,12.1743578911
46,0.257092237473,0.00477409362793,0.00546979904175,0.000559091567993,12.2703750134
47,0.260782957077,0.00460195541382,0.0054988861084,0.000571966171265,12.4944710732
48,0.254100799561,0.00467705726624,0.00561189651489,0.000483989715576,12.6363329887
49,0.26229095459,0.00470995903015,0.00562286376953,0.000612020492554,13.2274820805
50,0.551811933517,0.00518393516541,0.00545382499695,0.000701904296875,13.3747279644
51,0.266820907593,0.00473809242249,0.00543689727783,0.00057315826416,13.8884940147
52,0.258830070496,0.00470995903015,0.00540995597839,0.000568866729736,14.2367339134
53,0.252642154694,0.00457000732422,0.00548195838928,0.000550031661987,14.2878601551
54,0.262565851212,0.00479102134705,0.00533604621887,0.000549077987671,14.2658009529
55,0.26376414299,0.00487685203552,0.00526905059814,0.00055193901062,14.6913120747
56,0.260228872299,0.00485992431641,0.00549793243408,0.000557899475098,15.1276681423
57,0.262678861618,0.00480914115906,0.00568604469299,0.000555038452148,15.2960960865
58,0.261698722839,0.00469017028809,0.0054030418396,0.000530958175659,15.5586829185
59,0.268108129501,0.00501799583435,0.00559782981873,0.000550031661987,15.590307951
60,0.267661094666,0.00481295585632,0.00534105300903,0.000555992126465,16.231418848
61,0.257312059402,0.00490307807922,0.00534605979919,0.00055193901062,16.2173728943
62,0.264232158661,0.00479078292847,0.00546407699585,0.000600099563599,16.5435700417
63,0.267524957657,0.00506997108459,0.00527501106262,0.000577926635742,16.9745559692
64,0.261801958084,0.00473880767822,0.00552916526794,0.000583171844482,17.2363100052
65,0.258177042007,0.00475692749023,0.00559401512146,0.00056791305542,17.2348389626
66,0.257773160934,0.00494384765625,0.00532293319702,0.000563859939575,17.2684969902
67,0.258609056473,0.00481295585632,0.00548601150513,0.000586032867432,17.5091021061
68,0.260941267014,0.00479888916016,0.00532913208008,0.000555038452148,17.8261141777
69,0.257772922516,0.00476288795471,0.00559306144714,0.000587940216064,18.1692988873
70,0.266140937805,0.00473403930664,0.00577116012573,0.00058913230896,18.6603679657
71,0.260350942612,0.00511193275452,0.00547790527344,0.000559091567993,18.5436689854
72,0.267976045609,0.00491714477539,0.00553607940674,0.000633955001831,18.9054090977
73,0.264235258102,0.00470185279846,0.00529193878174,0.000537157058716,19.5309259892
74,0.257975101471,0.00480103492737,0.00548911094666,0.000578165054321,19.5986380577
75,0.259136199951,0.00464606285095,0.00541305541992,0.000555038452148,19.8517920971
76,0.262250900269,0.00476002693176,0.00543689727783,0.000577926635742,19.8484210968
77,0.260037183762,0.0047779083252,0.00528192520142,0.000577926635742,20.0414428711
78,0.2611079216,0.00475311279297,0.00531721115112,0.000576972961426,20.546694994
79,0.24436712265,0.00473308563232,0.00555992126465,0.000555992126465,20.6287288666
80,0.256024122238,0.00472903251648,0.00546097755432,0.000720024108887,20.9080820084
81,0.259334087372,0.00479483604431,0.00538396835327,0.000557899475098,21.249049902
82,0.264068126678,0.00496482849121,0.00557899475098,0.000561952590942,21.2527680397
83,0.258900880814,0.00461506843567,0.00525188446045,0.000550985336304,22.0002579689
84,0.263086795807,0.00493502616882,0.00533103942871,0.000570058822632,22.1524538994
85,0.256808042526,0.0048840045929,0.00553417205811,0.000566959381104,22.7302958965
86,0.260807037354,0.00478100776672,0.00541019439697,0.000590085983276,22.4652838707
87,0.261725902557,0.00469303131104,0.00547909736633,0.000594854354858,23.207821846
88,0.260069847107,0.00482082366943,0.00545215606689,0.000784873962402,23.2905509472
89,0.254942178726,0.0045759677887,0.00525689125061,0.000555038452148,23.4228720665
90,0.259495973587,0.00466012954712,0.00541210174561,0.000549077987671,24.0753858089
91,0.265906095505,0.00464797019958,0.00554609298706,0.000722885131836,23.9691400528
92,0.257039070129,0.00459313392639,0.00563502311707,0.000562906265259,24.4396181107
93,0.243583202362,0.00476098060608,0.00540399551392,0.000726938247681,24.7872149944
94,0.262818813324,0.00461196899414,0.00550413131714,0.000560998916626,24.5108778477
95,0.260724067688,0.00468397140503,0.00549983978271,0.000586986541748,24.9374740124
96,0.261186122894,0.00482201576233,0.00543308258057,0.000596046447754,24.9473669529
97,0.266265630722,0.00469708442688,0.00568604469299,0.000560998916626,25.4225449562
98,0.255727767944,0.00497579574585,0.00529003143311,0.000588893890381,25.5956399441
99,0.256709814072,0.00477480888367,0.00539898872375,0.000555992126465,25.6220541
