step,run,get,set,free,run_up_to_step
0,0.169651985168,0.00780701637268,0.0068941116333,0.0015549659729,0.189652204514
1,0.163162946701,0.00648903846741,0.00632214546204,0.00117301940918,0.328059911728
2,0.168817996979,0.00690078735352,0.00716710090637,0.00171685218811,0.47904586792
3,0.16917681694,0.00713515281677,0.00802898406982,0.00166988372803,0.641788005829
4,0.160934925079,0.00737905502319,0.007493019104,0.00182318687439,0.769236087799
5,0.220944166183,0.00676989555359,0.00751399993896,0.00165200233459,1.12144994736
6,0.164024829865,0.0235240459442,0.00710988044739,0.00159001350403,1.2683570385
7,0.158904075623,0.00698709487915,0.0070378780365,0.00169706344604,1.23236012459
8,0.163172960281,0.00750112533569,0.00775909423828,0.00181603431702,1.92844891548
9,0.1692237854,0.00689315795898,0.00734281539917,0.00156307220459,1.63487815857
10,0.164313793182,0.00729084014893,0.00662207603455,0.00162410736084,1.75548386574
11,0.153178930283,0.00658702850342,0.00757312774658,0.00185203552246,2.22860503197
12,0.162381887436,0.00762605667114,0.00743198394775,0.00180387496948,2.1269390583
13,0.164796113968,0.00741791725159,0.00681114196777,0.00169801712036,2.23064398766
14,0.157980203629,0.00693392753601,0.00748896598816,0.00235795974731,2.26487898827
15,0.171306848526,0.00723600387573,0.00776600837708,0.00199294090271,2.44397902489
16,0.15945482254,0.00647687911987,0.00724482536316,0.00159001350403,2.89562702179
17,0.160262107849,0.00675797462463,0.00696301460266,0.0016770362854,3.77520394325
18,0.17689204216,0.00793194770813,0.00672101974487,0.00159883499146,3.0590441227
19,0.15910577774,0.00710916519165,0.00697183609009,0.00184202194214,3.33083605766
20,0.156949043274,0.0233581066132,0.00752997398376,0.00169610977173,3.55077695847
21,0.169090986252,0.00685715675354,0.00751876831055,0.00170803070068,4.15139198303
22,0.164887189865,0.00710988044739,0.0070481300354,0.00189113616943,3.75990796089
23,0.159621953964,0.00664901733398,0.00737595558167,0.00178980827332,4.07891321182
24,0.157161951065,0.00678205490112,0.00678896903992,0.0015389919281,4.60858798027
25,0.985681056976,0.00688886642456,0.00733184814453,0.00163817405701,4.37194490433
26,0.184624195099,0.00750398635864,0.00680589675903,0.00154614448547,4.40446996689
27,0.521885871887,0.00666689872742,0.0067880153656,0.00152802467346,4.61012887955
28,0.157487154007,0.00705885887146,0.00746917724609,0.00212788581848,4.47544002533
29,0.159797906876,0.00687503814697,0.00770497322083,0.00196290016174,5.54473400116
30,0.16325378418,0.00744891166687,0.00772500038147,0.00212502479553,5.59782981873
31,0.190332889557,0.00745701789856,0.00831198692322,0.00172781944275,5.52313494682
32,0.16798210144,0.00730991363525,0.00684785842896,0.00170207023621,5.40533614159
33,0.16473865509,0.00793385505676,0.00801610946655,0.0016450881958,5.85762000084
34,0.177361965179,0.0068359375,0.00782299041748,0.00182008743286,5.89493298531
35,0.154768943787,0.00685405731201,0.00702691078186,0.00156092643738,6.12735009193
36,0.154840230942,0.00708794593811,0.00704288482666,0.00186109542847,6.22976207733
37,0.176619052887,0.00729584693909,0.00706911087036,0.00159788131714,6.16512393951
38,0.157587051392,0.00669503211975,0.00711417198181,0.00151896476746,6.82012915611
39,0.168617010117,0.00718402862549,0.00698280334473,0.0015230178833,7.0997531414
40,0.15597486496,0.00734496116638,0.00797700881958,0.00173401832581,6.87086701393
41,0.163421869278,0.00672698020935,0.0236568450928,0.00188612937927,7.31528401375
42,0.165863990784,0.00665616989136,0.00774908065796,0.0017352104187,7.56076312065
43,0.16219997406,0.00704097747803,0.00779414176941,0.00166296958923,7.42901086807
44,0.175776004791,0.00781607627869,0.00733590126038,0.00187110900879,7.78416800499
45,0.190571784973,0.00702595710754,0.00776696205139,0.00174117088318,8.14311814308
46,0.165323972702,0.0072968006134,0.00824999809265,0.00206995010376,8.46967077255
47,0.17151594162,0.00757694244385,0.0080771446228,0.00168299674988,8.06909298897
48,0.167985916138,0.00745105743408,0.00792908668518,0.00189089775085,8.16093397141
49,0.167553901672,0.00750994682312,0.00778388977051,0.00183296203613,8.78195810318
50,0.173304080963,0.00764203071594,0.00731611251831,0.00154995918274,8.51072716713
51,0.155710220337,0.00729703903198,0.00723791122437,0.00195503234863,8.57531905174
52,0.15628695488,0.00678491592407,0.0090229511261,0.00158095359802,8.60961389542
53,0.15541267395,0.00735092163086,0.00684094429016,0.00159597396851,8.96822094917
54,0.15379524231,0.00694608688354,0.00715112686157,0.00183510780334,9.00184512138
55,0.158959150314,0.00711512565613,0.00739598274231,0.00165915489197,8.89187002182
56,0.179469108582,0.00713920593262,0.00778794288635,0.00179600715637,9.65911698341
57,0.162431955338,0.00730490684509,0.00700688362122,0.00153613090515,9.67623710632
58,0.156537055969,0.0068519115448,0.0074508190155,0.00165605545044,9.76851606369
59,0.16698384285,0.00729417800903,0.00729990005493,0.00154519081116,10.2474911213
60,0.154896020889,0.0070629119873,0.00709390640259,0.00162291526794,10.005617857
61,0.157182216644,0.0067081451416,0.00712203979492,0.00176286697388,9.98766183853
62,0.158335208893,0.0232150554657,0.00704002380371,0.0017249584198,10.3869891167
63,0.15989112854,0.0237519741058,0.00758504867554,0.00187110900879,10.5142321587
64,0.165271043777,0.00719714164734,0.0074610710144,0.00155186653137,11.0024261475
65,0.163180828094,0.00698709487915,0.00724411010742,0.00157308578491,10.5121650696
66,0.159070730209,0.00707292556763,0.007572889328,0.00166201591492,11.0180828571
67,0.164134025574,0.00744199752808,0.00716400146484,0.00152587890625,10.9059588909
68,0.167992830276,0.00686001777649,0.00702404975891,0.00154304504395,10.909678936
69,0.157952070236,0.00699615478516,0.00691604614258,0.00154805183411,11.8264529705
70,0.162008047104,0.00706791877747,0.00691413879395,0.00151109695435,12.2751059532
71,0.155624866486,0.00695300102234,0.0089168548584,0.00183582305908,11.9690089226
72,0.155058145523,0.00670099258423,0.00694298744202,0.00182700157166,11.6542360783
73,0.162951946259,0.00674390792847,0.0070788860321,0.00169205665588,11.9257318974
74,0.158163785934,0.00699496269226,0.0275778770447,0.00156784057617,11.8539278507
75,0.149024009705,0.00650691986084,0.00727891921997,0.00158405303955,12.4140658379
76,0.149270057678,0.00687098503113,0.0232999324799,0.0016348361969,12.2403819561
77,0.149907827377,0.00667190551758,0.0262799263,0.001620054245,12.5120270252
78,0.150761842728,0.00705599784851,0.00768613815308,0.00170993804932,12.724118948
79,0.149739980698,0.00666284561157,0.00713396072388,0.0015881061554,12.9506590366
80,0.157912015915,0.00707602500916,0.0278720855713,0.001708984375,13.2227921486
81,0.155798912048,0.00684404373169,0.00689888000488,0.00150203704834,13.5818791389
82,0.151440143585,0.00689196586609,0.00700807571411,0.00165915489197,15.1442239285
83,0.155772209167,0.00671601295471,0.00693106651306,0.00151705741882,14.0875968933
84,0.150485992432,0.0066499710083,0.00683617591858,0.00150895118713,13.9361829758
85,0.155734062195,0.0268890857697,0.00689315795898,0.00159907341003,14.3351638317
86,0.161375999451,0.00678205490112,0.00714111328125,0.00153303146362,14.3201019764
87,0.162560939789,0.00697803497314,0.00691390037537,0.00172090530396,14.4471111298
88,0.160424947739,0.00674796104431,0.00706911087036,0.0015561580658,14.5495419502
89,0.157055139542,0.00677895545959,0.00690102577209,0.00153994560242,15.0923268795
90,0.160593032837,0.00705790519714,0.0068781375885,0.00160717964172,14.8336150646
91,0.169215917587,0.00692796707153,0.0239169597626,0.00179100036621,15.1421570778
92,0.166943073273,0.00681495666504,0.00720000267029,0.00155401229858,15.5426840782
93,0.160172939301,0.00682902336121,0.00719690322876,0.00160312652588,15.3544428349
94,0.160225868225,0.00726413726807,0.0068199634552,0.00155591964722,15.4023110867
95,0.159992218018,0.00675296783447,0.00690102577209,0.00165295600891,15.6117899418
96,0.181960105896,0.00745677947998,0.00739002227783,0.00154399871826,15.8462710381
97,0.158736944199,0.00703597068787,0.0074520111084,0.00152993202209,16.4633848667
98,0.158368110657,0.00692701339722,0.00760102272034,0.00191497802734,16.1859960556
99,0.172763109207,0.00786304473877,0.00710916519165,0.00180411338806,16.6519088745
