step,run,get,set,free,run_up_to_step
0,0.149611949921,0.00487780570984,0.00480914115906,0.00108194351196,0.173990011215
1,0.159867763519,0.0043261051178,0.00492095947266,0.000903844833374,0.310216903687
2,0.148751020432,0.00448298454285,0.00494694709778,0.00100684165955,0.461333990097
3,0.149319171906,0.00453305244446,0.00500917434692,0.00107383728027,0.61727809906
4,0.150027990341,0.00456595420837,0.00516080856323,0.00117015838623,0.757899045944
5,0.147970676422,0.00455188751221,0.00496792793274,0.0011568069458,1.28256893158
6,0.152960062027,0.00468921661377,0.00496602058411,0.0012059211731,1.05063390732
7,0.149683237076,0.00482892990112,0.00501704216003,0.00113391876221,1.60477900505
8,0.150100946426,0.00467109680176,0.00519514083862,0.00113797187805,1.35351610184
9,0.155448913574,0.0046329498291,0.00504493713379,0.00114417076111,1.50170397758
10,0.149698019028,0.00498604774475,0.00511598587036,0.00114607810974,1.67673587799
11,0.15402007103,0.00494909286499,0.00534391403198,0.00117993354797,1.79605793953
12,0.150498867035,0.00480103492737,0.00496387481689,0.00113391876221,2.42374491692
13,0.151184082031,0.00512886047363,0.00497794151306,0.00117182731628,2.09630584717
14,0.148129940033,0.0044949054718,0.00499701499939,0.00113415718079,2.72033596039
15,0.14816570282,0.00493288040161,0.00504398345947,0.00113797187805,2.96202301979
16,0.148186922073,0.00448179244995,0.00498223304749,0.00113010406494,3.0291121006
17,0.150356054306,0.00505208969116,0.00519585609436,0.00114512443542,2.69963717461
18,0.150189161301,0.00476217269897,0.00504899024963,0.0011351108551,3.38605999947
19,0.151241779327,0.00512409210205,0.00518798828125,0.00114703178406,2.99299883842
20,0.149901151657,0.00447392463684,0.00504803657532,0.00114512443542,3.8385591507
21,0.149655103683,0.00449800491333,0.00508093833923,0.0011420249939,3.72315812111
22,0.151524066925,0.00486493110657,0.00515604019165,0.00119709968567,3.96980500221
23,0.152964830399,0.00485515594482,0.00546908378601,0.00134801864624,3.57378196716
24,0.148016929626,0.00448107719421,0.00524806976318,0.00117206573486,4.31697416306
25,0.151909828186,0.00528216362,0.00510621070862,0.00127387046814,3.90235519409
26,0.153192996979,0.00537705421448,0.00522994995117,0.00117492675781,4.0260617733
27,0.151321172714,0.00527691841125,0.00512099266052,0.00117897987366,4.17555189133
28,0.150671958923,0.00533294677734,0.00514006614685,0.00121092796326,4.32957005501
29,0.150897026062,0.00540399551392,0.00510191917419,0.00120306015015,4.54540395737
30,0.150191068649,0.00518608093262,0.00515079498291,0.00121092796326,4.62557983398
31,0.149829864502,0.0045051574707,0.00512003898621,0.00116395950317,5.09062504768
32,0.150074958801,0.00526094436646,0.00513291358948,0.00116395950317,4.93650603294
33,0.148226261139,0.00448107719421,0.00507783889771,0.00118589401245,5.69282793999
34,0.149343967438,0.00456094741821,0.00527596473694,0.00119400024414,5.52464485168
35,0.154002189636,0.00466012954712,0.00523805618286,0.00115895271301,5.90855407715
36,0.152185916901,0.0046489238739,0.00524282455444,0.00116014480591,6.15186500549
37,0.148411989212,0.00460314750671,0.00505495071411,0.00115990638733,6.29471302032
38,0.155589342117,0.00500392913818,0.00545001029968,0.00120401382446,6.21093583107
39,0.150631904602,0.00463700294495,0.00515508651733,0.00115704536438,6.46068692207
40,0.148342132568,0.00452494621277,0.00536012649536,0.00118899345398,6.6211271286
41,0.14946603775,0.00479292869568,0.00515604019165,0.00115704536438,6.79387116432
42,0.150590181351,0.00473594665527,0.00534176826477,0.00116109848022,6.76710700989
43,0.153157949448,0.00467205047607,0.0052011013031,0.00116586685181,7.20180702209
44,0.152938127518,0.00456881523132,0.00523591041565,0.00125694274902,7.39920711517
45,0.151384115219,0.00455212593079,0.00530195236206,0.00115585327148,7.32954692841
46,0.150216817856,0.00459098815918,0.00529193878174,0.00116205215454,7.58951401711
47,0.149947166443,0.00468802452087,0.00528192520142,0.00116801261902,7.44885993004
48,0.15069103241,0.00474286079407,0.00514507293701,0.00115704536438,7.57982087135
49,0.148178100586,0.00476002693176,0.00528883934021,0.00122308731079,7.96449804306
50,0.151499032974,0.00467610359192,0.00513410568237,0.0011510848999,8.03226089478
51,0.149524927139,0.00474095344543,0.00520992279053,0.00122213363647,8.18862199783
52,0.150219917297,0.00452303886414,0.00528907775879,0.00116205215454,8.65401005745
53,0.153177022934,0.00463080406189,0.00523686408997,0.00133299827576,8.63984298706
54,0.153711795807,0.00478005409241,0.0052318572998,0.00117611885071,8.53527498245
55,0.148900032043,0.00454378128052,0.00526404380798,0.00114798545837,8.88992905617
56,0.152656078339,0.0045919418335,0.00518798828125,0.00115895271301,8.7987549305
57,0.150270938873,0.00467395782471,0.00515007972717,0.00115704536438,9.21641278267
58,0.152192115784,0.00470995903015,0.00522804260254,0.0011899471283,9.5346031189
59,0.149136066437,0.00455212593079,0.00514197349548,0.00121402740479,9.5766620636
60,0.148264884949,0.00458884239197,0.00529980659485,0.00120997428894,9.54575204849
61,0.150118112564,0.00502300262451,0.005126953125,0.00129699707031,9.43066692352
62,0.152242898941,0.00491094589233,0.00529408454895,0.0011670589447,9.82092308998
63,0.150717973709,0.00484299659729,0.00520014762878,0.00118708610535,10.2273859978
64,0.152032136917,0.00496006011963,0.00521779060364,0.00116205215454,10.1197049618
65,0.153647899628,0.00482201576233,0.00539994239807,0.00116515159607,10.2623250484
66,0.148792743683,0.0046010017395,0.00531983375549,0.00119400024414,10.6490471363
67,0.151522874832,0.00502109527588,0.00528883934021,0.00138187408447,10.4658858776
68,0.153503894806,0.00462293624878,0.00523209571838,0.00115704536438,10.73802495
69,0.15194606781,0.00461792945862,0.00516581535339,0.00121188163757,10.9614789486
70,0.150266170502,0.00460195541382,0.00534296035767,0.00116086006165,11.2674040794
71,0.149151086807,0.00458097457886,0.00522899627686,0.00116181373596,11.3195500374
72,0.15131187439,0.00508093833923,0.00534200668335,0.00116109848022,11.0937268734
73,0.14964222908,0.00465488433838,0.00523591041565,0.00116395950317,11.7084128857
74,0.149147748947,0.00493788719177,0.00521421432495,0.00137996673584,11.650343895
75,0.15128993988,0.00506210327148,0.00514817237854,0.00116610527039,11.4274260998
76,0.15395283699,0.00466895103455,0.00521087646484,0.00138711929321,11.944149971
77,0.152333974838,0.00484991073608,0.00518798828125,0.00129699707031,11.9385910034
78,0.150568246841,0.00513601303101,0.00547003746033,0.00116086006165,12.1919190884
79,0.153723955154,0.00461411476135,0.00524997711182,0.00136113166809,12.7504739761
80,0.150987863541,0.00486516952515,0.00526309013367,0.0011990070343,12.7005751133
81,0.149641990662,0.00481295585632,0.00527691841125,0.00116610527039,12.6596450806
82,0.154563903809,0.00480890274048,0.0054988861084,0.00116610527039,13.3862419128
83,0.151216745377,0.00478601455688,0.00522899627686,0.00128698348999,13.3637430668
84,0.14923286438,0.00471496582031,0.00524210929871,0.00118207931519,12.9100799561
85,0.149980783463,0.00468397140503,0.00520300865173,0.00115704536438,13.4472970963
86,0.147860050201,0.00466179847717,0.00520992279053,0.00122499465942,13.2873301506
87,0.693521022797,0.00490212440491,0.00534582138062,0.00121188163757,13.2184939384
88,0.151112794876,0.00514793395996,0.00532007217407,0.00120615959167,13.6257050037
89,0.717277050018,0.00471091270447,0.00530195236206,0.00120997428894,14.0130708218
90,0.154434919357,0.00472712516785,0.00519514083862,0.00136590003967,14.11642313
91,0.150290966034,0.0048611164093,0.00519394874573,0.00127792358398,14.3858139515
92,0.150337219238,0.0047390460968,0.00534987449646,0.0012059211731,14.4723479748
93,0.149389982224,0.0049831867218,0.0052661895752,0.00129294395447,14.5042030811
94,0.153285741806,0.00468492507935,0.00533199310303,0.00120186805725,14.5771260262
95,0.149334907532,0.00467085838318,0.00525903701782,0.00116300582886,15.0458040237
96,0.150261878967,0.00500702857971,0.00545215606689,0.0011899471283,14.8482298851
97,0.152894973755,0.00495505332947,0.00527310371399,0.00121307373047,15.2721090317
98,0.151066064835,0.00498604774475,0.00523900985718,0.00128412246704,15.9405040741
99,0.149384975433,0.00494909286499,0.00531506538391,0.00128293037415,15.5220019817
