step,run,get,set,free,run_up_to_step
0,0.1468770504,0.00350403785706,0.00360083580017,0.000541925430298,0.148835897446
1,0.136090040207,0.00341296195984,0.0038800239563,0.000574111938477,0.292682886124
2,0.141780138016,0.00339484214783,0.00354599952698,0.000587940216064,0.446554899216
3,0.133830070496,0.00332593917847,0.00356388092041,0.00068211555481,0.544936180115
4,0.132849931717,0.00325703620911,0.00363683700562,0.000711917877197,0.823261976242
5,0.131534814835,0.00326299667358,0.00362014770508,0.000785112380981,0.863616943359
6,0.132318735123,0.00326681137085,0.00350093841553,0.000753164291382,0.972724914551
7,0.14423584938,0.00343704223633,0.0035240650177,0.000788927078247,1.08673787117
8,0.13486289978,0.00347399711609,0.00392079353333,0.00089693069458,1.30085682869
9,0.161149024963,0.00341391563416,0.00359606742859,0.000833034515381,1.51765608788
10,0.138652086258,0.00358605384827,0.00349593162537,0.000802040100098,1.53584694862
11,0.137933969498,0.00528407096863,0.0037829875946,0.000892877578735,1.62419605255
12,0.135093688965,0.00346994400024,0.00355911254883,0.00116109848022,1.85743808746
13,0.137583255768,0.00339698791504,0.00509905815125,0.000958919525146,2.17997193336
14,0.142984867096,0.00376105308533,0.00356793403625,0.000886917114258,2.12222695351
15,0.136543989182,0.00366997718811,0.00411415100098,0.000946998596191,2.39171409607
16,0.142054319382,0.00346493721008,0.00361299514771,0.000878095626831,2.36250901222
17,0.13593173027,0.00357913970947,0.00387716293335,0.000946998596191,2.46825909615
18,0.145302057266,0.00363492965698,0.00357103347778,0.000885963439941,2.91802406311
19,0.139657974243,0.00387001037598,0.00388813018799,0.000819206237793,2.94039916992
20,0.140820026398,0.00365209579468,0.00365209579468,0.000879049301147,3.12366604805
21,0.155187129974,0.00347900390625,0.00368094444275,0.000946044921875,3.81954216957
22,0.138439178467,0.00359892845154,0.00364804267883,0.00129699707031,3.37076497078
23,0.149199008942,0.00362801551819,0.00363087654114,0.000800848007202,3.55100893974
24,0.139396905899,0.00369906425476,0.0035572052002,0.000944137573242,3.62991690636
25,0.144620895386,0.00337409973145,0.00360417366028,0.00080394744873,3.76851010323
26,0.138379096985,0.00345087051392,0.00363302230835,0.000833988189697,4.49271583557
27,0.149713993073,0.00390005111694,0.00353693962097,0.000836849212646,4.70542597771
28,0.143299102783,0.00344109535217,0.00364995002747,0.000898838043213,4.55486297607
29,0.137028217316,0.00335812568665,0.00378489494324,0.000856876373291,4.89547204971
30,0.14685177803,0.00350499153137,0.00355195999146,0.000843048095703,4.76824498177
31,0.849513053894,0.00379991531372,0.00367593765259,0.000995874404907,4.54872608185
32,0.140560865402,0.00336194038391,0.00378799438477,0.000846147537231,5.09717082977
33,0.136426925659,0.00342416763306,0.00360798835754,0.000897169113159,5.06114912033
34,0.171615123749,0.00358390808105,0.00413489341736,0.000952959060669,5.50892996788
35,0.147601127625,0.00348997116089,0.00385999679565,0.00102496147156,5.50186705589
36,0.147420883179,0.00359296798706,0.00355792045593,0.000815868377686,5.54402494431
37,0.139214992523,0.00338006019592,0.00417494773865,0.000847816467285,6.0461640358
38,0.134425163269,0.00339889526367,0.00400614738464,0.000953912734985,5.94012784958
39,0.147088050842,0.00364208221436,0.00363206863403,0.000829935073853,6.18577599525
40,0.145313024521,0.00359296798706,0.0037670135498,0.000826120376587,6.0491309166
41,0.143528938293,0.00357103347778,0.00377702713013,0.000911951065063,7.22186589241
42,0.142436981201,0.00351214408875,0.00358390808105,0.000826120376587,6.99237799644
43,0.152842998505,0.00379204750061,0.00373220443726,0.000981092453003,6.53506088257
44,0.141092061996,0.00348091125488,0.00359892845154,0.000870943069458,6.67044115067
45,0.136461019516,0.00342798233032,0.00371599197388,0.000869035720825,7.2431101799
46,0.13970708847,0.00346899032593,0.00378894805908,0.000982046127319,7.03511190414
47,0.145751953125,0.00350499153137,0.00353693962097,0.000811100006104,6.85918092728
48,0.135850906372,0.00336813926697,0.00364208221436,0.000811815261841,7.55202102661
49,0.13896894455,0.00363087654114,0.00362205505371,0.000910043716431,7.00108408928
50,0.137423038483,0.00358390808105,0.00370907783508,0.000911951065063,8.44391679764
51,0.476729869843,0.00360798835754,0.00355100631714,0.000860929489136,7.55118584633
52,0.137470006943,0.00354290008545,0.00361204147339,0.00086498260498,7.6106338501
53,0.135893106461,0.00339889526367,0.00352501869202,0.000810861587524,7.94745898247
54,0.134226083755,0.00336790084839,0.00345611572266,0.00083589553833,8.05041790009
55,0.135112047195,0.00339984893799,0.00360202789307,0.000808000564575,9.41480016708
56,0.138974905014,0.00346088409424,0.0225369930267,0.000847101211548,8.00936794281
57,0.135025024414,0.00341606140137,0.00359296798706,0.00086498260498,8.88106608391
58,0.139457941055,0.00342011451721,0.00359892845154,0.00085711479187,9.47076201439
59,0.137887001038,0.00336194038391,0.00350308418274,0.000839948654175,8.70464897156
60,0.156310081482,0.00342798233032,0.00362682342529,0.00088095664978,9.00177598
61,0.136598110199,0.00351190567017,0.00407886505127,0.000837087631226,9.21141195297
62,0.136368989944,0.00361800193787,0.00371193885803,0.000913858413696,10.1862568855
63,0.13777422905,0.00334000587463,0.00347685813904,0.00082802772522,9.4071199894
64,0.147354125977,0.00346398353577,0.00388813018799,0.000888109207153,9.73827409744
65,0.138850927353,0.00333094596863,0.00354385375977,0.000810861587524,10.3472659588
66,0.136270999908,0.0035719871521,0.00357389450073,0.000809907913208,9.47358703613
67,0.143934965134,0.00338196754456,0.00368714332581,0.00088095664978,9.87221503258
68,0.136068105698,0.0032811164856,0.00366306304932,0.000884056091309,10.468611002
69,0.144515991211,0.00339698791504,0.00347185134888,0.000813007354736,10.1714420319
70,0.13649392128,0.00355195999146,0.0236041545868,0.000863075256348,11.1230289936
71,0.140442848206,0.00348901748657,0.00351500511169,0.00080394744873,10.1140160561
72,0.134771108627,0.00328397750854,0.00347399711609,0.000838041305542,10.5770218372
73,0.139661073685,0.00344800949097,0.0041081905365,0.0010290145874,10.684014082
74,0.13679599762,0.0034339427948,0.00408315658569,0.000916004180908,11.8700089455
75,0.139558076859,0.00370693206787,0.00404405593872,0.00100302696228,11.1089351177
76,0.141262292862,0.00377607345581,0.00358486175537,0.000804901123047,11.4355070591
77,0.135716915131,0.00336885452271,0.00349998474121,0.00080394744873,11.5679819584
78,0.140558004379,0.00352311134338,0.00349092483521,0.000881910324097,11.4179902077
79,0.2316198349,0.00384402275085,0.00358009338379,0.000820159912109,11.8764131069
80,0.141556739807,0.00349307060242,0.00361013412476,0.000886917114258,11.8096420765
81,0.138682126999,0.00334191322327,0.00352096557617,0.000802040100098,12.3564360142
82,0.136396169662,0.0033130645752,0.00349187850952,0.000799894332886,12.0465490818
83,0.155852079391,0.00339603424072,0.00352120399475,0.000827789306641,12.2247140408
84,0.138828992844,0.00344395637512,0.00359988212585,0.000869989395142,12.1360640526
85,0.146203994751,0.00387406349182,0.00352191925049,0.000834226608276,13.7596058846
86,0.13675403595,0.0034191608429,0.00384116172791,0.000861167907715,12.7147951126
87,0.141263961792,0.00338315963745,0.00343608856201,0.000868082046509,13.0372109413
88,0.135427713394,0.00333690643311,0.00362205505371,0.000878095626831,12.7889459133
89,0.137545108795,0.00374484062195,0.0040500164032,0.000931024551392,13.1406850815
90,0.138162136078,0.00358390808105,0.00358200073242,0.000885963439941,13.6922259331
91,0.142393112183,0.00355005264282,0.00353693962097,0.000820875167847,13.9393129349
92,0.136360168457,0.00354504585266,0.00409913063049,0.00102210044861,13.2500741482
93,0.138534069061,0.00351309776306,0.00355410575867,0.000821113586426,14.0125200748
94,0.141714096069,0.00346207618713,0.00351905822754,0.00080418586731,14.2856659889
95,0.138048171997,0.00355792045593,0.00359106063843,0.000822067260742,13.6761918068
96,0.141690969467,0.00342082977295,0.00387191772461,0.00102400779724,14.0165679455
97,0.136375904083,0.00377917289734,0.00365900993347,0.000869989395142,14.5984590054
98,0.204912900925,0.00339078903198,0.0035228729248,0.000842809677124,14.5688271523
99,0.135856866837,0.00342106819153,0.00363612174988,0.000846862792969,14.3315589428
