step,run,get,set,free,run_up_to_step
0,0.193201780319,0.00665998458862,0.00773406028748,0.0016758441925,0.202965974808
1,0.175061225891,0.0066180229187,0.00785493850708,0.00153207778931,0.975375890732
2,0.178031206131,0.00711297988892,0.00764918327332,0.00168991088867,0.552980899811
3,0.179734706879,0.00692796707153,0.00765299797058,0.00168800354004,0.73209810257
4,0.177516937256,0.00679588317871,0.00771808624268,0.00166893005371,0.93231010437
5,0.17686009407,0.00701999664307,0.00827407836914,0.00198888778687,1.10378909111
6,0.177419185638,0.00699901580811,0.00775384902954,0.00167298316956,1.27821493149
7,0.176851272583,0.00715804100037,0.00788807868958,0.0018630027771,1.80609893799
8,0.177911996841,0.00718903541565,0.00788187980652,0.00173592567444,1.63976192474
9,0.178629875183,0.00723910331726,0.00768709182739,0.00170278549194,2.78476381302
10,0.17924785614,0.00760293006897,0.00792598724365,0.00168204307556,2.04989004135
11,0.183622837067,0.00698804855347,0.00831389427185,0.00199699401855,2.17536902428
12,0.178573846817,0.00740885734558,0.00787615776062,0.00182604789734,2.36108088493
13,0.176221132278,0.00669598579407,0.00800013542175,0.00167798995972,3.03573679924
14,0.176352024078,0.00687313079834,0.0076858997345,0.00191211700439,3.31173491478
15,0.178927183151,0.0074520111084,0.00790500640869,0.00170588493347,2.90586996078
16,0.178998947144,0.00728297233582,0.00799798965454,0.00170993804932,3.57483792305
17,0.177605867386,0.00664710998535,0.00775504112244,0.00172996520996,3.70983219147
18,0.178726911545,0.00727391242981,0.00830006599426,0.00200891494751,3.43740487099
19,0.178344964981,0.00685000419617,0.00764989852905,0.00167798995972,4.08783793449
20,0.180757045746,0.0074360370636,0.00792598724365,0.00170993804932,3.79999899864
21,0.177833080292,0.00699281692505,0.00787210464478,0.00167298316956,4.24002099037
22,0.176996231079,0.00709700584412,0.00767493247986,0.00170588493347,4.532943964
23,0.179469108582,0.00668406486511,0.00789999961853,0.00171303749084,4.79849004745
24,0.17586517334,0.00662183761597,0.00770902633667,0.00167894363403,5.05346703529
25,0.181864976883,0.00741600990295,0.00794792175293,0.00167918205261,4.66944718361
26,0.183845043182,0.0075159072876,0.00793290138245,0.00178408622742,5.40506410599
27,0.176225185394,0.00676298141479,0.00768995285034,0.00167798995972,5.45666003227
28,0.181430101395,0.00746202468872,0.0078911781311,0.00169110298157,5.2184920311
29,0.179300069809,0.00736713409424,0.00762891769409,0.00168395042419,5.43959498405
30,0.179439306259,0.00741505622864,0.00768494606018,0.00167894363403,5.61820316315
31,0.177182912827,0.00695514678955,0.00792193412781,0.00170207023621,6.05125784874
32,0.179076910019,0.00744605064392,0.00788998603821,0.0016770362854,5.97909188271
33,0.17631316185,0.006676197052,0.00797295570374,0.0017249584198,6.63943982124
34,0.176649332047,0.00699496269226,0.00788903236389,0.00168204307556,6.78795003891
35,0.643738746643,0.00685501098633,0.00774598121643,0.00169801712036,6.56539392471
36,0.177206039429,0.00666189193726,0.00767993927002,0.00173902511597,6.85695004463
37,0.180442810059,0.00667691230774,0.0077919960022,0.00168299674988,7.41303396225
38,0.180985927582,0.0066819190979,0.00800204277039,0.00171089172363,7.44345712662
39,0.181915998459,0.00681495666504,0.00788593292236,0.00171494483948,7.56596684456
40,0.179083108902,0.00667405128479,0.00768113136292,0.00173282623291,7.97332191467
41,0.176696062088,0.00698208808899,0.00796890258789,0.00169897079468,7.86229085922
42,0.175107002258,0.00664305686951,0.00778579711914,0.00167298316956,8.55142688751
43,0.176476955414,0.00698781013489,0.00785183906555,0.00170397758484,8.41128492355
44,0.182002305984,0.00683093070984,0.00780200958252,0.00168108940125,8.65746808052
45,0.178625106812,0.00717687606812,0.0079038143158,0.00168609619141,8.77224683762
46,0.17603302002,0.00659394264221,0.00775003433228,0.00167798995972,9.0424220562
47,0.175837993622,0.00662112236023,0.00790500640869,0.00171303749084,9.01716804504
48,0.188893079758,0.00729703903198,0.00807094573975,0.00169706344604,9.27563214302
49,0.181541919708,0.00703597068787,0.00773501396179,0.00168704986572,9.49665808678
50,0.18191075325,0.00700497627258,0.0083441734314,0.00168514251709,9.4588561058
51,0.178615093231,0.00716710090637,0.00813889503479,0.00168204307556,9.92771291733
52,0.188560724258,0.00690388679504,0.00782895088196,0.00168204307556,10.075106144
53,0.179461956024,0.00709199905396,0.00792694091797,0.00190901756287,9.95877814293
54,0.177849054337,0.00687503814697,0.00789904594421,0.00169992446899,10.6331009865
55,0.17666220665,0.00693702697754,0.00774312019348,0.00179314613342,10.4575009346
56,0.177109718323,0.00661301612854,0.00804686546326,0.00167894363403,10.8660330772
57,0.176904916763,0.00690197944641,0.00785398483276,0.00170207023621,11.1233658791
58,0.175830125809,0.00678396224976,0.00774192810059,0.00167918205261,11.416918993
59,0.566433906555,0.00682520866394,0.00801515579224,0.00171089172363,11.2632980347
60,0.176216840744,0.00684809684753,0.007807970047,0.00170397758484,11.7775969505
61,0.178881883621,0.00742602348328,0.00768804550171,0.00168514251709,11.3704268932
62,0.182871103287,0.0072340965271,0.00767087936401,0.00167393684387,11.6121680737
63,0.177867889404,0.00683808326721,0.00783205032349,0.00171184539795,11.7165880203
64,0.178214073181,0.00906991958618,0.00819206237793,0.00174307823181,12.2660310268
65,0.178668022156,0.00659799575806,0.00774884223938,0.00170803070068,12.5041949749
66,0.177089929581,0.00722694396973,0.00773811340332,0.00167298316956,12.8779668808
67,0.181975126266,0.00688886642456,0.00789308547974,0.00170397758484,12.7851150036
68,0.177711248398,0.00691795349121,0.00787782669067,0.00167298316956,13.3417639732
69,0.180225133896,0.00679993629456,0.00788903236389,0.00172996520996,13.4054200649
70,0.177477121353,0.00670409202576,0.00820803642273,0.00168991088867,13.3061258793
71,0.185117006302,0.00692796707153,0.00768494606018,0.0016770362854,13.8607330322
72,0.176530122757,0.00689697265625,0.00800204277039,0.00166797637939,13.3936648369
73,0.176583051682,0.00658392906189,0.00792193412781,0.00167798995972,13.8078589439
74,0.180240869522,0.00688099861145,0.00784707069397,0.00167512893677,14.2160089016
75,0.185239076614,0.0067081451416,0.00769686698914,0.00167894363403,14.4575369358
76,0.177842140198,0.00680708885193,0.00772500038147,0.0016758441925,14.4273049831
77,0.183854818344,0.00694894790649,0.0077109336853,0.00167512893677,14.4105689526
78,0.180616140366,0.00688195228577,0.00798010826111,0.00171208381653,14.3218898773
79,0.178243160248,0.00736403465271,0.00767612457275,0.00173497200012,15.0756630898
80,0.179203033447,0.00683808326721,0.00789594650269,0.00172686576843,15.0039179325
81,0.177507162094,0.00682997703552,0.00774312019348,0.00167107582092,15.2740969658
82,0.178502082825,0.00709080696106,0.00828003883362,0.00176596641541,15.1548910141
83,0.179369926453,0.00704288482666,0.00770592689514,0.00168108940125,15.2215619087
84,0.179475069046,0.00720810890198,0.00799894332886,0.00167489051819,16.1092538834
85,0.179801940918,0.00697588920593,0.00767993927002,0.00167989730835,16.4030649662
86,0.178459882736,0.00696301460266,0.00786590576172,0.00170516967773,16.3360569477
87,0.179311752319,0.00674414634705,0.008141040802,0.00167393684387,16.5027940273
88,0.182595968246,0.00667381286621,0.00825500488281,0.0016770362854,17.222949028
89,0.181959152222,0.0068211555481,0.00799894332886,0.0018470287323,17.4198160172
90,0.178110122681,0.00658082962036,0.0078330039978,0.00169706344604,16.9487588406
91,0.176817178726,0.00676703453064,0.0078489780426,0.00167989730835,17.0957248211
92,0.180361270905,0.00661396980286,0.00790810585022,0.00168299674988,17.4322659969
93,0.177542209625,0.00693202018738,0.00768709182739,0.00188708305359,17.6265480518
94,0.177598953247,0.00702595710754,0.00788807868958,0.00168013572693,17.7478210926
95,0.178663730621,0.00684309005737,0.00794410705566,0.00168108940125,17.9677078724
96,0.180459976196,0.00711894035339,0.00794386863708,0.00167298316956,18.0663430691
97,0.17948102951,0.00675010681152,0.00788402557373,0.00170183181763,18.3079237938
98,0.182414054871,0.00683212280273,0.00768804550171,0.00168299674988,18.7720410824
99,0.17721581459,0.00685286521912,0.00786995887756,0.00168299674988,18.5678398609
