step,run,get,set,free,run_up_to_step
0,0.158786058426,0.00519490242004,0.00519394874573,0.00124716758728,0.157685041428
1,0.157351970673,0.00501012802124,0.00520491600037,0.000996828079224,0.342086076736
2,0.163247823715,0.00485014915466,0.00514912605286,0.00114798545837,0.473695993423
3,0.164896249771,0.00489211082458,0.00522184371948,0.00115513801575,0.661695957184
4,0.158448219299,0.00488376617432,0.00550198554993,0.00140690803528,0.813797950745
5,0.175660133362,0.00490403175354,0.00526094436646,0.00130796432495,1.01905417442
6,0.189464092255,0.00502896308899,0.005215883255,0.00117993354797,1.17351508141
7,0.161313056946,0.00515007972717,0.00539398193359,0.00135707855225,1.30584788322
8,0.162640810013,0.00511813163757,0.00547099113464,0.00121092796326,1.43792390823
9,0.158033847809,0.00521898269653,0.00532507896423,0.00127601623535,2.12338614464
10,0.160532951355,0.00521683692932,0.00521492958069,0.00114798545837,2.1392121315
11,0.164824008942,0.00527095794678,0.00544500350952,0.0012149810791,1.99052500725
12,0.165771961212,0.0054030418396,0.00530505180359,0.00130081176758,2.13114190102
13,0.158305168152,0.0053071975708,0.00558710098267,0.00130605697632,2.22521686554
14,0.157755851746,0.00525903701782,0.00540089607239,0.00134205818176,2.37068104744
15,0.180749177933,0.0056779384613,0.00547695159912,0.00116205215454,2.96762800217
16,0.158116102219,0.00514888763428,0.00532197952271,0.00114583969116,2.69934082031
17,0.158451795578,0.0052170753479,0.00559091567993,0.00119304656982,3.25057816505
18,0.15829205513,0.00540494918823,0.00540709495544,0.00125002861023,3.04602503777
19,0.157605886459,0.00556397438049,0.00555896759033,0.00123405456543,3.2365000248
20,0.156294107437,0.00496792793274,0.00584006309509,0.00148105621338,3.94252490997
21,0.157049894333,0.00539517402649,0.00568604469299,0.00150299072266,3.59785294533
22,0.163315057755,0.00584197044373,0.00568294525146,0.00144600868225,3.71543478966
23,0.163805961609,0.00531697273254,0.00590896606445,0.00145602226257,4.32167601585
24,0.158561944962,0.00513911247253,0.00585985183716,0.00128602981567,3.98488616943
25,0.157403945923,0.00524210929871,0.00574803352356,0.00138378143311,4.27679204941
26,0.181488037109,0.00541496276855,0.00552296638489,0.00140595436096,4.38982486725
27,0.179922819138,0.0059700012207,0.00617003440857,0.00139594078064,4.80101084709
28,0.162700891495,0.00530099868774,0.00588703155518,0.00146293640137,4.62926793098
29,0.157143115997,0.00517606735229,0.00613498687744,0.00144791603088,5.31631803513
30,0.168485879898,0.00598406791687,0.00560808181763,0.00123119354248,5.02098989487
31,0.166812181473,0.00501990318298,0.00540399551392,0.00118494033813,5.89590787888
32,0.169983148575,0.00668001174927,0.00569605827332,0.00139904022217,5.34600186348
33,0.167522192001,0.00518012046814,0.00600600242615,0.00137591362,5.75932002068
34,0.164293050766,0.0057590007782,0.00571393966675,0.00149893760681,6.29197406769
35,0.171008825302,0.00575613975525,0.00657296180725,0.00156092643738,5.90868997574
36,0.177258968353,0.00550699234009,0.0238342285156,0.00122094154358,5.98808503151
37,0.158978223801,0.00504207611084,0.00536704063416,0.00122499465942,6.72739100456
38,0.171474218369,0.00562906265259,0.00579810142517,0.00125598907471,7.26109790802
39,0.16271686554,0.00544500350952,0.00549387931824,0.00120615959167,6.83912801743
40,0.161427736282,0.00504803657532,0.00577092170715,0.00125288963318,7.54713892937
41,0.178050994873,0.00519299507141,0.00561904907227,0.00138211250305,7.22702288628
42,0.160537004471,0.00512290000916,0.00545287132263,0.00129508972168,7.39390206337
43,0.173055887222,0.00540995597839,0.0276310443878,0.00123405456543,7.60924005508
44,0.186870098114,0.00539088249207,0.00623488426208,0.00135183334351,7.773635149
45,0.162499189377,0.0052478313446,0.00582098960876,0.00125098228455,7.51849794388
46,0.183258056641,0.00585103034973,0.005704164505,0.0012149810791,8.1671898365
47,0.17044210434,0.00556397438049,0.00556492805481,0.00125503540039,8.34864997864
48,0.158926963806,0.00526809692383,0.00635814666748,0.00120806694031,8.56153202057
49,0.158463001251,0.0050151348114,0.00629496574402,0.00130796432495,8.68385601044
50,0.157346963882,0.00534200668335,0.00577116012573,0.00132012367249,8.64631795883
51,0.158655166626,0.00547790527344,0.00547218322754,0.0013530254364,9.25479412079
52,0.159347772598,0.00563406944275,0.00589609146118,0.0014009475708,8.81173610687
53,0.161789894104,0.00521516799927,0.00545787811279,0.00121307373047,9.13406801224
54,0.16392993927,0.00548195838928,0.0062370300293,0.00127100944519,9.41017794609
55,0.158101081848,0.00525498390198,0.00607085227966,0.00160884857178,9.61010599136
56,0.173052072525,0.00626492500305,0.00615811347961,0.00152587890625,9.44868803024
57,0.173840045929,0.0058000087738,0.00590896606445,0.00155901908875,9.87311792374
58,0.16446185112,0.00568699836731,0.0065450668335,0.00139212608337,10.3733799458
59,0.166529893875,0.00644111633301,0.00571990013123,0.0014591217041,12.4246480465
60,0.167151927948,0.00643301010132,0.00571894645691,0.00125885009766,10.556333065
61,0.159504890442,0.00547409057617,0.00589108467102,0.00135588645935,10.4621481895
62,0.166041135788,0.00579810142517,0.00569295883179,0.00123715400696,10.9165148735
63,0.178017139435,0.00587296485901,0.00566911697388,0.00118899345398,11.6191120148
64,0.165407896042,0.00604200363159,0.00550103187561,0.00123381614685,11.3047909737
65,0.15802693367,0.00549292564392,0.00599408149719,0.00132203102112,11.0331349373
66,0.169239997864,0.00611281394958,0.00556015968323,0.00125479698181,11.0476460457
67,0.166960954666,0.00575709342957,0.00567412376404,0.00147199630737,12.4321250916
68,0.176065921783,0.00589203834534,0.00560188293457,0.00132918357849,12.3595981598
69,0.165838003159,0.00595808029175,0.00638294219971,0.00132513046265,11.996019125
70,0.16926407814,0.00580787658691,0.00607800483704,0.00186491012573,12.4228639603
71,0.765208005905,0.00596189498901,0.00631999969482,0.00151300430298,11.8375511169
72,0.159043073654,0.00521993637085,0.00612115859985,0.0014328956604,12.5684680939
73,0.162747859955,0.0057520866394,0.00574517250061,0.00136709213257,12.5318090916
74,0.169512033463,0.00534582138062,0.00639796257019,0.00122690200806,12.8385949135
75,0.164349794388,0.00557494163513,0.00585508346558,0.0014328956604,12.9894080162
76,0.163020849228,0.00534081459045,0.0063099861145,0.00151300430298,13.6860780716
77,0.158380031586,0.00536298751831,0.00659489631653,0.0015971660614,14.7130329609
78,0.1577937603,0.00524115562439,0.0057098865509,0.00129795074463,14.005699873
79,0.170539855957,0.00583100318909,0.00581288337708,0.0014910697937,13.6241130829
80,0.172164201736,0.0059130191803,0.00558304786682,0.00118803977966,13.4289109707
81,0.166378736496,0.00574088096619,0.00583004951477,0.00126314163208,14.0242528915
82,0.165199041367,0.00569295883179,0.0057361125946,0.00140190124512,14.3016681671
83,0.164277076721,0.00540494918823,0.00576901435852,0.00126814842224,14.5319797993
84,0.184589624405,0.005854845047,0.00582695007324,0.00120210647583,14.6419889927
85,0.162945747375,0.00569486618042,0.00590991973877,0.00132608413696,14.8150410652
86,0.186972379684,0.00553607940674,0.00588798522949,0.00124096870422,14.7923500538
87,0.157758951187,0.00558114051819,0.00562500953674,0.00128507614136,15.1397681236
88,0.171461105347,0.00598001480103,0.00650215148926,0.00122499465942,15.4433469772
89,0.188000917435,0.00569319725037,0.00609087944031,0.0012001991272,15.5433521271
90,0.168429851532,0.00644993782043,0.00573110580444,0.00121212005615,15.6497499943
91,0.775289058685,0.00607705116272,0.00566411018372,0.0013120174408,16.0584311485
92,0.189949035645,0.00575017929077,0.00619101524353,0.00173401832581,16.2188210487
93,0.157762050629,0.00551199913025,0.0062210559845,0.00145602226257,16.3075890541
94,0.157777786255,0.00536417961121,0.00614786148071,0.00127100944519,16.5645990372
95,0.173856019974,0.00584197044373,0.0055079460144,0.00117802619934,16.9367859364
96,0.170495033264,0.006019115448,0.00584983825684,0.00119614601135,16.8496479988
97,0.162962913513,0.0056939125061,0.00634217262268,0.00162220001221,16.745844841
98,0.15829205513,0.00541806221008,0.00585603713989,0.00142407417297,17.215722084
99,0.16962313652,0.00628185272217,0.00592994689941,0.00127410888672,17.1771700382
