step,run,get,set,free,run_up_to_step
0,0.356687068939,0.011344909668,0.0133740901947,0.00283980369568,0.40743303299
1,0.359499931335,0.011302947998,0.0127441883087,0.00275206565857,0.714584112167
2,0.357213973999,0.0117890834808,0.0127909183502,0.00289392471313,1.12466788292
3,0.361212968826,0.0121629238129,0.0138208866119,0.00280904769897,1.39048695564
4,0.35115814209,0.0110838413239,0.0134320259094,0.00334811210632,1.82707810402
5,0.352813005447,0.0115480422974,0.0135319232941,0.00297403335571,2.11458110809
6,0.369377851486,0.0114669799805,0.012894153595,0.00283789634705,2.91214418411
7,0.343664169312,0.0112600326538,0.0308439731598,0.00270199775696,2.8177549839
8,0.363878965378,0.0120630264282,0.0125620365143,0.00271701812744,3.12494301796
9,0.879683971405,0.01243019104,0.0132398605347,0.00313997268677,3.60519003868
10,0.360329151154,0.0118310451508,0.013237953186,0.00284910202026,3.87245702744
11,0.366395950317,0.0117769241333,0.0128078460693,0.00296688079834,4.16773986816
12,0.380697965622,0.0120658874512,0.0130071640015,0.00272488594055,4.58463096619
13,0.351372003555,0.0114989280701,0.0128200054169,0.00279498100281,5.59190702438
14,0.376927852631,0.0111491680145,0.0125880241394,0.002681016922,5.7461438179
15,0.364898920059,0.0121519565582,0.013044834137,0.00339102745056,5.5578391552
16,0.372440099716,0.0116419792175,0.0129878520966,0.00295495986938,6.23205089569
17,0.369655132294,0.0109748840332,0.0313692092896,0.00305414199829,6.94560194016
18,0.348546028137,0.0118999481201,0.0138161182404,0.00324487686157,7.21019506454
19,0.356388092041,0.0119948387146,0.0133280754089,0.00300908088684,7.12298297882
20,0.349273920059,0.0118119716644,0.0127520561218,0.00270795822144,7.61891293526
21,0.345580101013,0.0113899707794,0.0132849216461,0.0028669834137,8.00883483887
22,0.345309019089,0.0118899345398,0.0136029720306,0.00289511680603,8.05477285385
23,0.358958005905,0.0110940933228,0.0134348869324,0.00281310081482,9.34572911263
24,0.379750013351,0.0116579532623,0.0127441883087,0.00290298461914,9.48851394653
25,0.359961748123,0.0116801261902,0.013839006424,0.00305604934692,9.37968802452
26,0.350728750229,0.0120670795441,0.0134599208832,0.00290203094482,9.92863297462
27,0.356812000275,0.0118408203125,0.0130760669708,0.00292110443115,10.0089318752
28,0.35670208931,0.0136299133301,0.0127098560333,0.00277590751648,11.7770111561
29,0.354942083359,0.0119690895081,0.0140540599823,0.00295090675354,11.4050052166
30,0.372343063354,0.0118081569672,0.0131139755249,0.00270390510559,11.5490581989
31,0.353290081024,0.0124289989471,0.0131089687347,0.00292086601257,12.521805048
32,0.381347894669,0.0115089416504,0.0137379169464,0.00330018997192,12.2409410477
33,0.374546051025,0.0117049217224,0.01442694664,0.00308108329773,12.640556097
34,0.353646993637,0.011461019516,0.0324890613556,0.00279903411865,12.9394378662
35,0.359593868256,0.0110630989075,0.0128829479218,0.00274705886841,13.9820239544
36,0.358384847641,0.0120708942413,0.0130620002747,0.00281691551208,13.8223891258
37,0.356548070908,0.0115361213684,0.0126161575317,0.00268316268921,13.9081890583
38,0.360522985458,0.011549949646,0.0128309726715,0.00296211242676,14.2570400238
39,0.391350030899,0.0113208293915,0.0130321979523,0.00277090072632,14.7673470974
40,0.367478132248,0.0112080574036,0.0125889778137,0.00280785560608,15.1395480633
41,0.357717990875,0.0117208957672,0.0356130599976,0.00292992591858,15.4124038219
42,0.350951194763,0.011931180954,0.0132601261139,0.00278782844543,16.1398351192
43,0.374946832657,0.0117471218109,0.0125360488892,0.00274586677551,16.4043810368
44,0.364462852478,0.0120630264282,0.0125541687012,0.00311994552612,17.3272378445
45,0.358561992645,0.01176404953,0.0138831138611,0.00290584564209,16.5253958702
46,0.355869054794,0.0116729736328,0.0135860443115,0.00282597541809,18.2032291889
47,0.358490943909,0.0113379955292,0.0129728317261,0.00284099578857,18.3614211082
48,0.369822978973,0.0114710330963,0.0135760307312,0.00301194190979,18.2461469173
49,0.351703882217,0.0118339061737,0.0131180286407,0.00288581848145,20.532545805
50,0.377091169357,0.0110800266266,0.0133371353149,0.00285196304321,18.4039318562
51,0.368906736374,0.0112779140472,0.0126550197601,0.00315880775452,19.4281539917
52,0.370361089706,0.0119550228119,0.0131921768188,0.00269103050232,19.3672831059
53,0.345136880875,0.0113580226898,0.0131628513336,0.0027060508728,19.3230609894
54,0.359079122543,0.0109801292419,0.0129699707031,0.0029079914093,20.3950181007
55,0.354434967041,0.0113868713379,0.0138790607452,0.00285387039185,20.8818588257
56,0.362845659256,0.0123701095581,0.0128030776978,0.00335001945496,21.0135550499
57,0.373828172684,0.0116860866547,0.0125598907471,0.00304985046387,21.0317900181
58,0.354405879974,0.0116739273071,0.0136148929596,0.00295686721802,21.7239038944
59,0.373749256134,0.0115640163422,0.0138649940491,0.002769947052,22.9949431419
60,0.365706205368,0.0120410919189,0.0155940055847,0.00339198112488,23.2158300877
61,0.345412969589,0.0114059448242,0.0126869678497,0.00274801254272,23.9366848469
62,0.845185041428,0.0129489898682,0.0147819519043,0.00300192832947,23.5881891251
63,0.36337518692,0.0128700733185,0.0136480331421,0.00291895866394,24.9072101116
64,0.400115013123,0.0128622055054,0.012932062149,0.00279879570007,25.9514679909
65,0.350943803787,0.0118880271912,0.0128269195557,0.0028350353241,24.3629920483
66,0.355185985565,0.0112860202789,0.0130579471588,0.00283193588257,25.8367431164
67,0.355528116226,0.0133700370789,0.0138440132141,0.0028190612793,25.713092804
68,0.35897898674,0.0121598243713,0.0141570568085,0.00357699394226,25.6059379578
69,0.352178812027,0.0113911628723,0.0141010284424,0.00309491157532,26.4071671963
70,0.357294797897,0.0125169754028,0.0136089324951,0.00280499458313,28.1635439396
71,0.366642713547,0.0125901699066,0.0125851631165,0.00293779373169,27.4447171688
72,0.35439991951,0.0115621089935,0.0144689083099,0.00313496589661,28.3721950054
73,0.381542921066,0.0120930671692,0.0137329101562,0.00298118591309,27.9094672203
74,0.360013961792,0.0122060775757,0.0145008563995,0.00321316719055,30.1373529434
75,0.372365236282,0.01211810112,0.0144240856171,0.00348901748657,28.0490260124
76,0.360830068588,0.0118489265442,0.0137259960175,0.00270700454712,28.7240729332
77,0.356138944626,0.0113480091095,0.0144979953766,0.00310015678406,29.5982160568
78,0.363996982574,0.0118291378021,0.0141098499298,0.00306701660156,29.8534328938
79,0.385327100754,0.0122900009155,0.013463973999,0.002934217453,30.2229790688
80,0.366318225861,0.011904001236,0.0133039951324,0.00318884849548,29.964443922
81,0.356584787369,0.0118391513824,0.0127468109131,0.00276494026184,30.1686050892
82,0.357304096222,0.011106967926,0.0127289295197,0.0031578540802,30.9139738083
83,0.372418165207,0.011157989502,0.0127749443054,0.00338816642761,30.3373510838
84,0.356899738312,0.0115239620209,0.0132100582123,0.0030460357666,31.1710999012
85,0.364527702332,0.0123391151428,0.0136659145355,0.00305199623108,33.2906730175
86,0.407315969467,0.0122010707855,0.0133769512177,0.003005027771,34.4149720669
87,0.367348194122,0.0117790699005,0.0132319927216,0.00273895263672,32.5193469524
88,0.384157896042,0.0113360881805,0.0128788948059,0.00312113761902,32.6483259201
89,0.386355161667,0.0129518508911,0.0130369663239,0.00309205055237,34.4419178963
90,0.385662794113,0.0120298862457,0.0132710933685,0.0028281211853,34.8072929382
91,0.348972082138,0.0113670825958,0.0137820243835,0.00289702415466,34.6599428654
92,0.369541168213,0.0117018222809,0.0137150287628,0.00288391113281,35.0974349976
93,0.372488021851,0.0117399692535,0.012659072876,0.00301218032837,36.2613120079
94,0.375231981277,0.0116910934448,0.0155789852142,0.00331497192383,35.4878368378
95,0.366599082947,0.0124108791351,0.0153419971466,0.00304985046387,36.7037680149
96,0.391295194626,0.0130620002747,0.0146870613098,0.00282502174377,39.0334441662
97,0.351483106613,0.0111060142517,0.0132489204407,0.00311994552612,36.7526609898
98,0.362455129623,0.0123729705811,0.0138478279114,0.00282883644104,36.5632810593
99,0.384933948517,0.0135228633881,0.013435125351,0.00313091278076,38.1153299809
