step,run,get,set,free,run_up_to_step
0,0.165630102158,0.00355315208435,0.0035879611969,0.000564813613892,0.170841932297
1,0.154940128326,0.0032651424408,0.00371813774109,0.000811100006104,0.295340061188
2,0.151927232742,0.00330519676208,0.00353288650513,0.000860929489136,0.447510957718
3,0.148624181747,0.00330281257629,0.00362706184387,0.000754833221436,0.639437913895
4,0.169569015503,0.00334191322327,0.00363802909851,0.000792980194092,0.849692821503
5,0.147127151489,0.00325202941895,0.00409007072449,0.000864028930664,0.887995958328
6,0.1550822258,0.00386095046997,0.00352096557617,0.000798940658569,1.06304812431
7,0.161754131317,0.00358104705811,0.00380110740662,0.000842094421387,1.20869088173
8,0.149079084396,0.00336384773254,0.00384402275085,0.000792980194092,1.36639595032
9,0.148287773132,0.0038948059082,0.00363802909851,0.000817775726318,1.95771002769
10,0.199651002884,0.00345396995544,0.00378012657166,0.000942945480347,1.63252496719
11,0.171799659729,0.0037739276886,0.00361919403076,0.000807046890259,2.02881002426
12,0.154876708984,0.0034761428833,0.00359106063843,0.00079607963562,1.96233987808
13,0.149515151978,0.00393295288086,0.0037682056427,0.000870943069458,2.16057109833
14,0.508077859879,0.00365710258484,0.00365090370178,0.000805854797363,2.25977110863
15,0.154171943665,0.00410008430481,0.016813993454,0.000792980194092,2.48010516167
16,0.155785799026,0.00362110137939,0.00358581542969,0.000801086425781,2.68339705467
17,0.149431228638,0.00356793403625,0.00385403633118,0.000838994979858,2.78290605545
18,0.180325031281,0.00422215461731,0.00360298156738,0.000933170318604,3.04813289642
19,0.152853012085,0.00349402427673,0.00365495681763,0.000899076461792,3.04647898674
20,0.179149866104,0.00374484062195,0.00394916534424,0.000859975814819,3.44244503975
21,0.149410963058,0.00335788726807,0.00361204147339,0.000794887542725,3.79491615295
22,0.256483078003,0.0036940574646,0.00425410270691,0.00103902816772,4.10623502731
23,0.152362108231,0.0034601688385,0.00453305244446,0.000892877578735,4.45822310448
24,0.163644075394,0.00373196601868,0.0036289691925,0.000829935073853,4.18431687355
25,0.150056123734,0.00387406349182,0.00365304946899,0.000813007354736,3.96730685234
26,0.149130105972,0.00363206863403,0.00362610816956,0.000813007354736,4.25036597252
27,0.149808168411,0.00404810905457,0.00418901443481,0.000798940658569,4.4043879509
28,0.167517185211,0.00333213806152,0.00364112854004,0.000808954238892,5.03894805908
29,0.147740840912,0.00339603424072,0.00401902198792,0.000813007354736,5.16092991829
30,0.160788059235,0.00367403030396,0.00384497642517,0.000919103622437,4.66253995895
31,0.168984174728,0.00379300117493,0.00417399406433,0.000977039337158,5.14265394211
32,0.146997928619,0.00363612174988,0.00394797325134,0.000897884368896,5.81166410446
33,0.149874925613,0.00373220443726,0.00368499755859,0.000972032546997,5.10680103302
34,0.475339889526,0.00364208221436,0.00374412536621,0.000828981399536,5.41120505333
35,0.171674966812,0.00395107269287,0.00364112854004,0.000809907913208,5.8618118763
36,0.153644800186,0.0034019947052,0.00362014770508,0.000821113586426,6.05204105377
37,0.14888215065,0.00351405143738,0.00362992286682,0.000801086425781,6.27239584923
38,0.149525880814,0.00348687171936,0.00408315658569,0.00108504295349,6.6448328495
39,0.148005008698,0.00365996360779,0.00366115570068,0.000933170318604,6.72034215927
40,0.153394937515,0.00338292121887,0.0037088394165,0.000818014144897,6.85080099106
41,0.175719738007,0.00348496437073,0.00446510314941,0.00083589553833,7.10358500481
42,0.178558111191,0.00344896316528,0.00367903709412,0.000825881958008,6.88761901855
43,0.14960193634,0.00340986251831,0.00371098518372,0.000848770141602,7.14818000793
44,0.151659965515,0.0034191608429,0.00370311737061,0.00106382369995,7.40115213394
45,0.159025192261,0.00372219085693,0.00396013259888,0.000977993011475,7.47443914413
46,0.163921833038,0.00336694717407,0.00394582748413,0.000823020935059,7.87253594398
47,0.149759054184,0.00353503227234,0.00384306907654,0.000810861587524,7.8117480278
48,0.174314022064,0.00348496437073,0.00364303588867,0.000856876373291,7.90043210983
49,0.149567127228,0.00378203392029,0.00376200675964,0.000845909118652,8.20989608765
50,0.177774906158,0.00388622283936,0.00381278991699,0.000910043716431,8.47642993927
51,0.157878875732,0.00352811813354,0.00380706787109,0.000980138778687,8.88954496384
52,0.160510778427,0.00373291969299,0.00364685058594,0.000993013381958,8.54367089272
53,0.148486852646,0.00341510772705,0.00375604629517,0.000826120376587,8.5375058651
54,0.161134719849,0.00361394882202,0.00466585159302,0.00148797035217,8.8239531517
55,0.152093172073,0.00354218482971,0.00371909141541,0.000827789306641,8.5674200058
56,0.148960828781,0.00369000434875,0.0229151248932,0.000814914703369,8.90897607803
57,0.14794421196,0.00359106063843,0.00374507904053,0.000874042510986,9.18599915504
58,0.147785902023,0.00339484214783,0.00393414497375,0.000856876373291,9.41917800903
59,0.148094892502,0.00360298156738,0.00366592407227,0.00084400177002,9.27951097488
60,0.151378154755,0.00349903106689,0.00361394882202,0.00081992149353,10.0226149559
61,0.147258996964,0.00349092483521,0.00370907783508,0.000810861587524,9.8770430088
62,0.147722005844,0.00358104705811,0.00376796722412,0.00092077255249,9.70778107643
63,0.151647090912,0.00425100326538,0.00389099121094,0.000907897949219,9.93748784065
64,0.147799015045,0.00362086296082,0.00401210784912,0.000845909118652,11.7261869907
65,0.149276971817,0.00371813774109,0.00392699241638,0.00104308128357,10.1558659077
66,0.160522222519,0.00427985191345,0.00371098518372,0.000822067260742,12.5097739697
67,0.148367881775,0.00359797477722,0.00382804870605,0.000994920730591,11.0377819538
68,0.148574113846,0.00344896316528,0.00374221801758,0.000863790512085,10.6955020428
69,0.158232927322,0.00389981269836,0.00377106666565,0.000869989395142,11.4848670959
70,0.147133827209,0.00356101989746,0.00394010543823,0.000982999801636,11.1431050301
71,0.147649049759,0.00340580940247,0.00366401672363,0.000813961029053,11.5794370174
72,0.147505998611,0.00343799591064,0.00374579429626,0.000954866409302,11.5278389454
73,0.164562940598,0.00354409217834,0.00382208824158,0.000833988189697,11.584100008
74,0.147757053375,0.00345301628113,0.00391292572021,0.00089693069458,12.1720588207
75,0.150650024414,0.00345706939697,0.028687953949,0.00103116035461,12.7299339771
76,0.149082183838,0.0042188167572,0.00388813018799,0.00123381614685,12.5669279099
77,0.148703813553,0.00349593162537,0.00373601913452,0.000909090042114,12.4913158417
78,0.147463083267,0.00353407859802,0.00436902046204,0.00122809410095,12.7818670273
79,0.147629976273,0.00357294082642,0.0038149356842,0.00088095664978,12.4287860394
80,0.167253017426,0.00376892089844,0.00375390052795,0.000952959060669,13.0720498562
81,0.147857189178,0.00357699394226,0.00380682945251,0.000853061676025,13.3399009705
82,0.152808904648,0.00354290008545,0.00403904914856,0.000978946685791,13.5797998905
83,0.173331975937,0.00374698638916,0.00445604324341,0.00108885765076,14.4341628551
84,0.146610021591,0.00345301628113,0.00382590293884,0.000964879989624,13.7674949169
85,0.152575016022,0.00370192527771,0.00385594367981,0.000892162322998,13.4523880482
86,0.147206068039,0.00348901748657,0.0036039352417,0.000878095626831,14.3504841328
87,0.148720026016,0.0035400390625,0.00396680831909,0.000884056091309,14.4833068848
88,0.153459072113,0.00371694564819,0.00376796722412,0.000958919525146,14.1476261616
89,0.15905714035,0.00356602668762,0.00370907783508,0.000875949859619,14.9507679939
90,0.175912857056,0.00347495079041,0.00369000434875,0.000919103622437,14.7990810871
91,0.147327899933,0.00361514091492,0.00366401672363,0.000983953475952,14.394438982
92,0.146500825882,0.00335502624512,0.00370287895203,0.000883102416992,14.6587948799
93,0.151969194412,0.00340914726257,0.00372719764709,0.00082802772522,15.0081129074
94,0.161278247833,0.00334620475769,0.0035707950592,0.000814914703369,14.4946081638
95,0.14973115921,0.00339007377625,0.00370907783508,0.000826120376587,15.2917399406
96,0.148468017578,0.00348210334778,0.00358390808105,0.000846862792969,15.7145490646
97,0.147010803223,0.00341606140137,0.00362610816956,0.000845909118652,15.3947639465
98,0.154284000397,0.00327801704407,0.00396704673767,0.000853061676025,15.3642919064
99,0.151035070419,0.00338220596313,0.00390291213989,0.00100183486938,15.5575129986
