step,run,get,set,free,run_up_to_step
0,0.127003908157,0.0230059623718,0.0562739372253,0.00332617759705,0.149230957031
1,0.377390146255,0.0384829044342,0.0611119270325,0.00596499443054,0.254810094833
2,0.12769818306,0.0950059890747,0.0846791267395,0.0117249488831,0.38361787796
3,0.125922203064,0.0789530277252,0.0839009284973,0.0117499828339,0.919746875763
4,0.127430915833,0.0988349914551,0.0786831378937,0.0121049880981,0.643680095673
5,0.128755092621,0.101492166519,0.0813808441162,0.0140690803528,0.769400119781
6,0.127711057663,0.101454019547,0.0783219337463,0.0119750499725,0.907886981964
7,0.131885051727,0.101329088211,0.0786130428314,0.0153419971466,1.01779007912
8,0.12833404541,0.0962510108948,0.0825569629669,0.0119340419769,1.14429187775
9,0.132930040359,0.097482919693,0.0790679454803,0.018208026886,1.28142619133
10,0.12629199028,0.0802099704742,0.0815410614014,0.0142960548401,1.39725184441
11,0.128307104111,0.0936970710754,0.0824718475342,0.0124289989471,1.5255689621
12,0.128123998642,0.0997858047485,0.0823130607605,0.0190439224243,1.63420701027
13,0.132314920425,0.101269006729,0.0831308364868,0.013384103775,1.76605796814
14,0.12818312645,0.0950009822845,0.0817089080811,0.0133259296417,1.89301204681
15,0.129093885422,0.101109981537,0.0802700519562,0.0186688899994,2.02775597572
16,0.128469228745,0.0994889736176,0.0811491012573,0.0122590065002,2.14605689049
17,0.126311063766,0.085324048996,0.0802800655365,0.011736869812,3.2011961937
18,0.126394987106,0.0812950134277,0.0814309120178,0.0117259025574,2.76109790802
19,0.127372741699,0.0806570053101,0.0807340145111,0.0127499103546,2.93347501755
20,0.128029108047,0.0800950527191,0.0803329944611,0.0119287967682,3.05401992798
21,0.133382081985,0.0945258140564,0.0799908638,0.0130760669708,2.76941013336
22,0.127481937408,0.0797820091248,0.083398103714,0.0152790546417,3.16034698486
23,0.126629829407,0.0787508487701,0.0820050239563,0.0132510662079,3.53920102119
24,0.126752853394,0.0846588611603,0.0799770355225,0.0117299556732,3.38522195816
25,0.126317024231,0.0792310237885,0.0787670612335,0.01229596138,3.78318500519
26,0.129426002502,0.0961649417877,0.0785520076752,0.0124840736389,3.3826880455
27,0.126406908035,0.0812890529633,0.0822639465332,0.015554189682,3.79082393646
28,0.130506277084,0.0801558494568,0.0788369178772,0.0117809772491,4.13083195686
29,0.127270936966,0.0789518356323,0.0806710720062,0.011626958847,4.19720697403
30,0.127083063126,0.0819599628448,0.0786781311035,0.0117738246918,4.49844884872
31,0.127317905426,0.0810749530792,0.0801591873169,0.0146679878235,4.53643679619
32,0.127012968063,0.0800719261169,0.0810670852661,0.0119009017944,4.47407793999
33,0.125700950623,0.0794820785522,0.0813930034637,0.0117251873016,4.75828719139
34,0.127379179001,0.0861239433289,0.080353975296,0.012610912323,4.70204997063
35,0.126934051514,0.0809328556061,0.0791261196136,0.0117909908295,5.22256207466
36,0.126383066177,0.0796000957489,0.0828850269318,0.0117449760437,4.63706922531
37,0.133467197418,0.0867140293121,0.0816628932953,0.011754989624,4.78781104088
38,0.127191781998,0.0795121192932,0.0793449878693,0.011745929718,5.43507194519
39,0.13382601738,0.097706079483,0.0785620212555,0.0134778022766,5.01968097687
40,0.131009101868,0.0848050117493,0.0787189006805,0.0116460323334,5.3755428791
41,0.130743026733,0.0833640098572,0.0795590877533,0.0120940208435,5.97689509392
42,0.125602006912,0.0789840221405,0.0822331905365,0.0170691013336,5.98841786385
43,0.12753200531,0.0873610973358,0.0807709693909,0.011757850647,5.95274996758
44,0.131505727768,0.0841970443726,0.0796399116516,0.0117139816284,6.10221409798
45,0.129290103912,0.0835299491882,0.0801908969879,0.0117881298065,6.04017281532
46,0.131322145462,0.0812449455261,0.0788519382477,0.0126860141754,6.37414193153
47,0.126142024994,0.0799608230591,0.0795540809631,0.0126280784607,6.38922190666
48,0.126930952072,0.0809669494629,0.0793061256409,0.0138010978699,6.75266814232
49,0.127586126328,0.0803849697113,0.079756975174,0.0120289325714,6.77321481705
50,0.127437114716,0.0787980556488,0.0798830986023,0.0134170055389,7.00801587105
51,0.127128124237,0.0789110660553,0.0785448551178,0.0160031318665,7.10451006889
52,0.126962900162,0.079952955246,0.0783588886261,0.0117988586426,7.1647670269
53,0.131436824799,0.0794351100922,0.0818591117859,0.0117690563202,7.16756105423
54,0.128807067871,0.0799210071564,0.0786941051483,0.0117480754852,7.37932109833
55,0.127362012863,0.0811197757721,0.0788888931274,0.01638007164,7.47496199608
56,0.127763748169,0.0822281837463,0.0806219577789,0.0117230415344,7.53245711327
57,0.130425930023,0.0814909934998,0.0829238891602,0.0117390155792,7.94730305672
58,0.12761425972,0.0802500247955,0.0809659957886,0.0116448402405,8.09204602242
59,0.126653909683,0.0788300037384,0.0785520076752,0.0117380619049,8.19506812096
60,0.131371974945,0.0814020633698,0.0789768695831,0.0144810676575,7.9610080719
61,0.13015627861,0.0837938785553,0.0792260169983,0.0121619701385,8.00703597069
62,0.128041267395,0.084853887558,0.0793609619141,0.0117559432983,8.0457701683
63,0.126739740372,0.0817439556122,0.0840420722961,0.0117559432983,8.32246494293
64,0.127455711365,0.0788309574127,0.0835440158844,0.0116639137268,8.87288594246
65,0.13047003746,0.0809729099274,0.0814759731293,0.0117909908295,9.07030701637
66,0.130742073059,0.0836501121521,0.0831179618835,0.0117030143738,8.8841919899
67,0.126963853836,0.0818490982056,0.0829589366913,0.0116930007935,9.06175303459
68,0.130836725235,0.0813980102539,0.079391002655,0.0128309726715,9.31599807739
69,0.126969099045,0.0794270038605,0.0804409980774,0.0116989612579,9.3744790554
70,0.127279043198,0.0796868801117,0.0800969600677,0.0117509365082,9.43074607849
71,0.127578020096,0.0793039798737,0.0792560577393,0.0117008686066,9.65932893753
72,0.128143787384,0.0813648700714,0.0783898830414,0.0118119716644,9.8165268898
73,0.127306938171,0.0797290802002,0.079066991806,0.0117478370667,9.79482507706
74,0.128207921982,0.0791509151459,0.0783360004425,0.0155699253082,10.1091098785
75,0.131059169769,0.0797171592712,0.080687046051,0.0117061138153,10.1635780334
76,0.129354953766,0.084557056427,0.0821630954742,0.0116829872131,9.88480710983
77,0.129256010056,0.0790460109711,0.0792670249939,0.0117328166962,10.4503941536
78,0.617540121078,0.0813708305359,0.0786600112915,0.0118770599365,10.2143220901
79,0.128019094467,0.0835809707642,0.0801410675049,0.0116319656372,10.4194750786
80,0.128485918045,0.0834519863129,0.0790021419525,0.0116879940033,10.5235688686
81,0.131539821625,0.0829608440399,0.0808870792389,0.0149450302124,10.9211699963
82,0.128004074097,0.0817089080811,0.0785481929779,0.0117189884186,10.9523320198
83,0.127658128738,0.0793240070343,0.0844330787659,0.011677980423,11.1640000343
84,0.127002954483,0.0809547901154,0.0792369842529,0.0117449760437,11.4681668282
85,0.127659082413,0.0803740024567,0.0784459114075,0.0123319625854,11.1892800331
86,0.127294063568,0.0802879333496,0.0801770687103,0.0116419792175,11.4452011585
87,0.128239154816,0.0790438652039,0.0804860591888,0.0117139816284,11.8099229336
88,0.126887083054,0.0830590724945,0.0788879394531,0.0174498558044,11.4187178612
89,0.127379894257,0.0826699733734,0.0796420574188,0.0117249488831,11.8805508614
90,0.127521038055,0.0831120014191,0.0791339874268,0.0117349624634,12.0278289318
91,0.128384828568,0.0804629325867,0.0797770023346,0.0116539001465,12.1719920635
92,0.131217956543,0.0826368331909,0.0782408714294,0.0117249488831,12.2317368984
93,0.128234863281,0.0826940536499,0.0790121555328,0.011666059494,12.4630088806
94,0.129447221756,0.0825400352478,0.0792558193207,0.0116539001465,12.5485639572
95,0.135552883148,0.0793180465698,0.0800199508667,0.0134580135345,12.8891530037
96,0.701038837433,0.0820610523224,0.0805971622467,0.0119199752808,13.0109269619
97,0.126970052719,0.0832600593567,0.0788960456848,0.0173530578613,12.9898540974
98,0.127387046814,0.083703994751,0.0802230834961,0.0116651058197,12.8208868504
99,0.136375188828,0.0849690437317,0.0785009860992,0.0116350650787,12.8818981647
