step,run,get,set,free,run_up_to_step
0,0.146367073059,0.00897908210754,0.00747418403625,0.0014979839325,0.146633148193
1,0.144696712494,0.00797700881958,0.00750112533569,0.00144910812378,0.301265001297
2,0.182545185089,0.00806713104248,0.00754809379578,0.00162410736084,0.445433139801
3,0.144987821579,0.00802206993103,0.00752282142639,0.00155282020569,0.584268093109
4,0.143825054169,0.00769305229187,0.0075409412384,0.00153994560242,1.28848004341
5,0.141556978226,0.00749683380127,0.00742697715759,0.00158286094666,1.47527503967
6,0.143704891205,0.00797200202942,0.0074679851532,0.00159597396851,1.05134177208
7,0.181662082672,0.00837993621826,0.00746607780457,0.00177597999573,1.13966417313
8,0.145869016647,0.00800585746765,0.0075409412384,0.00172400474548,1.28716993332
9,0.152387857437,0.00909519195557,0.00755381584167,0.00167608261108,1.89657783508
10,0.144105195999,0.00803995132446,0.00806403160095,0.00202012062073,1.59007501602
11,0.144712924957,0.00796985626221,0.00755000114441,0.00190186500549,1.74251794815
12,0.144385814667,0.00816297531128,0.00766587257385,0.00169086456299,1.87110495567
13,0.145395278931,0.00809693336487,0.00790309906006,0.00226998329163,2.05241584778
14,0.144493103027,0.0079939365387,0.00754809379578,0.00188612937927,2.15241408348
15,0.144493818283,0.00823998451233,0.00758814811707,0.00180792808533,2.32315611839
16,0.143893003464,0.0080680847168,0.00790786743164,0.00166797637939,2.45779514313
17,0.144817113876,0.00798511505127,0.00743293762207,0.00170707702637,2.57522702217
18,0.144125938416,0.00802087783813,0.00753116607666,0.00188517570496,2.73845696449
19,0.144778013229,0.00804591178894,0.00787711143494,0.00192713737488,2.8888759613
20,0.14298915863,0.00733709335327,0.00803303718567,0.00188779830933,3.43718504906
21,0.149773836136,0.00811100006104,0.00758194923401,0.00175905227661,3.17229986191
22,0.146278142929,0.00720596313477,0.00763297080994,0.00170397758484,3.69539403915
23,0.142280101776,0.00719904899597,0.0075409412384,0.00167894363403,3.86568689346
24,0.14550280571,0.00745487213135,0.00937104225159,0.00211310386658,4.04303908348
25,0.143956184387,0.00812983512878,0.00771689414978,0.00167489051819,3.87150788307
26,0.147623062134,0.00810694694519,0.0078649520874,0.00187993049622,3.87056779861
27,0.142192840576,0.0073070526123,0.0074999332428,0.00171518325806,4.58495616913
28,0.141885042191,0.00721406936646,0.0075569152832,0.00172090530396,4.59654593468
29,0.143024206161,0.00732898712158,0.00749206542969,0.00170302391052,4.78841996193
30,0.144304037094,0.00784778594971,0.0075089931488,0.00169086456299,4.7940621376
31,0.143706083298,0.00733494758606,0.00768303871155,0.00190997123718,4.62770199776
32,0.144070863724,0.008141040802,0.00812387466431,0.00170111656189,4.80733394623
33,0.147032022476,0.00770616531372,0.00747203826904,0.00185585021973,5.7760488987
34,0.144592046738,0.0081479549408,0.0075159072876,0.0016918182373,5.08742403984
35,0.142416954041,0.0073299407959,0.00749897956848,0.00167083740234,5.75416707993
36,0.142671108246,0.00723600387573,0.00746703147888,0.00168609619141,5.69588899612
37,0.146790981293,0.00746202468872,0.00750994682312,0.00169992446899,5.97769808769
38,0.143090009689,0.00736498832703,0.00779795646667,0.0018298625946,7.46210193634
39,0.219713926315,0.010598897934,0.0078330039978,0.00173997879028,6.14601802826
40,0.142979860306,0.00713515281677,0.00821185112,0.00191903114319,6.64575695992
41,0.142828941345,0.00736093521118,0.00766205787659,0.00170707702637,6.28654885292
42,0.144898891449,0.00771498680115,0.00757217407227,0.00178694725037,6.71480703354
43,0.151243925095,0.00800204277039,0.00786590576172,0.00167512893677,7.05253314972
44,0.1446352005,0.00733017921448,0.00752115249634,0.00176596641541,7.08762001991
45,0.146701097488,0.0086510181427,0.00750994682312,0.00186991691589,7.04428505898
46,0.143543958664,0.00742292404175,0.0316789150238,0.0018789768219,7.17836999893
47,0.143707036972,0.00740694999695,0.0075900554657,0.00167512893677,7.14232611656
48,0.174366950989,0.00740909576416,0.00756788253784,0.00177907943726,7.26676797867
49,0.144768953323,0.0072009563446,0.00749492645264,0.00171399116516,7.54231214523
50,0.173225164413,0.0076949596405,0.00747609138489,0.001708984375,7.51254010201
51,0.147467136383,0.00743389129639,0.00805807113647,0.00175595283508,8.06797409058
52,0.148339986801,0.00760006904602,0.0108799934387,0.00263500213623,8.1592400074
53,0.14385008812,0.00751495361328,0.0075409412384,0.00168299674988,8.49531984329
54,0.142878055573,0.00731706619263,0.00764203071594,0.00175213813782,8.28386092186
55,0.14481306076,0.0077531337738,0.0343289375305,0.00175404548645,8.97937703133
56,0.145599126816,0.00766682624817,0.00766396522522,0.00182294845581,9.04121589661
57,0.144767284393,0.00722098350525,0.0076379776001,0.00171804428101,9.86269593239
58,0.188006877899,0.00817894935608,0.00763201713562,0.00171208381653,8.96190190315
59,0.150356054306,0.00782418251038,0.0336849689484,0.00178813934326,8.97684001923
60,0.142218112946,0.00727200508118,0.00748801231384,0.00192213058472,9.69496297836
61,0.151970863342,0.00749492645264,0.00781297683716,0.00173306465149,9.35081982613
62,0.142190933228,0.00723099708557,0.00752902030945,0.0017101764679,10.0563180447
63,0.155202150345,0.00758194923401,0.0077018737793,0.0017409324646,9.95996189117
64,0.14389705658,0.00754189491272,0.00815892219543,0.00175309181213,10.5110650063
65,0.152881145477,0.00770306587219,0.0075991153717,0.00176501274109,10.3863499165
66,0.145396709442,0.00725102424622,0.00752305984497,0.00172805786133,11.0340139866
67,0.143778800964,0.00716209411621,0.00748300552368,0.00172305107117,10.5733780861
68,0.143808841705,0.00763010978699,0.00753784179688,0.0016930103302,11.9042959213
69,0.14365696907,0.0080840587616,0.0076310634613,0.00194907188416,10.8747630119
70,0.143495082855,0.00784802436829,0.00751900672913,0.00167489051819,10.9700500965
71,0.149410963058,0.0073709487915,0.00775599479675,0.00168395042419,10.9281349182
72,0.198552131653,0.00821709632874,0.00772500038147,0.00170183181763,11.5009331703
73,0.143969774246,0.0072181224823,0.00788497924805,0.00189805030823,11.0384700298
74,0.152487039566,0.00761103630066,0.0075318813324,0.00186681747437,11.6145479679
75,0.155128955841,0.00733613967896,0.00832509994507,0.00180196762085,11.646376133
76,0.143704891205,0.00740909576416,0.00762701034546,0.00173497200012,12.7468528748
77,0.143818855286,0.00781393051147,0.00762891769409,0.00176382064819,12.1105239391
78,0.14873790741,0.00783705711365,0.00750494003296,0.00169110298157,12.5378968716
79,0.156831979752,0.00733995437622,0.00756096839905,0.00165796279907,13.3809990883
80,0.174129247665,0.00797605514526,0.00756216049194,0.00165295600891,12.2828800678
81,0.14461517334,0.00733709335327,0.00761604309082,0.00170016288757,12.1027550697
82,0.143671035767,0.00733184814453,0.00755715370178,0.00168800354004,12.5742931366
83,0.149118900299,0.00768303871155,0.00760889053345,0.00167489051819,12.9911420345
84,0.18944811821,0.00904583930969,0.00748109817505,0.00164699554443,13.1914560795
85,0.144151926041,0.00741791725159,0.0076470375061,0.00169396400452,12.718996048
86,0.143993854523,0.00747299194336,0.00749206542969,0.00169706344604,13.2918348312
87,0.150368213654,0.00895214080811,0.00761294364929,0.0016758441925,13.548459053
88,0.145862102509,0.00730895996094,0.00749588012695,0.00171995162964,13.8490240574
89,0.14346909523,0.00719714164734,0.00759410858154,0.00174188613892,14.124735117
90,0.14818406105,0.00804495811462,0.00758719444275,0.00168514251709,14.1226890087
91,0.145501852036,0.0072169303894,0.00749206542969,0.00178408622742,14.2654218674
92,0.143893957138,0.00718998908997,0.00754284858704,0.0017421245575,15.1449921131
93,0.143936872482,0.00760889053345,0.00764012336731,0.00172996520996,14.1251831055
94,0.969059944153,0.00793600082397,0.00753211975098,0.00179600715637,14.4045600891
95,0.143604040146,0.00785112380981,0.00767493247986,0.00168204307556,14.3715419769
96,0.144700050354,0.00782513618469,0.00748991966248,0.00170993804932,14.3913729191
97,0.145401000977,0.00707292556763,0.0104880332947,0.0022611618042,15.8930001259
98,0.144805908203,0.00746297836304,0.00784397125244,0.0016770362854,14.9130268097
99,0.14338183403,0.00779604911804,0.00755715370178,0.00170111656189,15.1683831215
