step,run,get,set,free,run_up_to_step
0,0.267492055893,0.00679492950439,0.00690579414368,0.000688076019287,0.266773939133
1,0.268148899078,0.00635695457458,0.00704312324524,0.000694036483765,0.538672924042
2,0.279616117477,0.00619006156921,0.0070641040802,0.000725984573364,0.802639961243
3,0.260067224503,0.00623416900635,0.00732398033142,0.000746965408325,1.04160499573
4,0.268348932266,0.0063738822937,0.0071120262146,0.000756978988647,1.30722212791
5,0.261792182922,0.00613498687744,0.00689792633057,0.000709056854248,1.57413291931
6,0.264235973358,0.00614190101624,0.00734090805054,0.000669002532959,2.32572197914
7,0.263657331467,0.006187915802,0.0072169303894,0.00073504447937,2.61082005501
8,0.271172046661,0.00658011436462,0.0074188709259,0.000952959060669,2.36157608032
9,0.265922784805,0.00636291503906,0.00703191757202,0.000730991363525,2.60177612305
10,0.270915985107,0.00657820701599,0.00716590881348,0.00086498260498,2.92472910881
11,0.271945953369,0.00667285919189,0.00705409049988,0.000744104385376,3.11243104935
12,0.264235019684,0.00646209716797,0.00745701789856,0.000725030899048,3.39429306984
13,0.261327981949,0.00609588623047,0.00711989402771,0.000733852386475,3.65261006355
14,0.259922027588,0.00644087791443,0.00721883773804,0.000961065292358,3.89649915695
15,0.26188492775,0.0063750743866,0.00712394714355,0.00072193145752,4.17001891136
16,0.263099193573,0.00646018981934,0.00706696510315,0.000890970230103,4.39761590958
17,0.264155864716,0.00649809837341,0.00728917121887,0.000936031341553,4.71975803375
18,0.271320104599,0.00656414031982,0.00725793838501,0.000993967056274,4.96628499031
19,0.26965880394,0.00639581680298,0.00726795196533,0.000952005386353,5.3184568882
20,0.267838954926,0.006432056427,0.00703811645508,0.000740051269531,5.8117210865
21,0.26428604126,0.0065770149231,0.00713300704956,0.000858068466187,5.77816104889
22,0.26758980751,0.00645899772644,0.0076060295105,0.000704050064087,6.6362798214
23,0.266330003738,0.00666189193726,0.00740599632263,0.000746965408325,6.25122904778
24,0.2647960186,0.00625109672546,0.00704097747803,0.000746965408325,7.00488495827
25,0.264201164246,0.00629806518555,0.00734901428223,0.000740051269531,7.08985304832
26,0.256422758102,0.0062141418457,0.00751614570618,0.000741004943848,7.38836503029
27,0.266209840775,0.00638699531555,0.00767993927002,0.000748872756958,7.70095610619
28,0.263322114944,0.00623989105225,0.00758290290833,0.000756978988647,7.83172392845
29,0.255711078644,0.00597596168518,0.00724911689758,0.000738143920898,8.19875097275
30,0.2718937397,0.00665521621704,0.00714302062988,0.000984907150269,8.1083548069
31,0.264982223511,0.00657391548157,0.00741291046143,0.00072717666626,8.67467188835
32,0.258857011795,0.0062370300293,0.00739002227783,0.000957012176514,9.14924716949
33,0.261920928955,0.00617694854736,0.00727891921997,0.000724077224731,9.16809487343
34,0.262765884399,0.00623798370361,0.00764393806458,0.000771999359131,9.57193589211
35,0.255381822586,0.00621891021729,0.00721907615662,0.000738143920898,9.66588997841
36,0.269351005554,0.00643706321716,0.00751900672913,0.000813961029053,10.2221529484
37,0.264642953873,0.00615811347961,0.00726008415222,0.000730037689209,10.4075040817
38,0.265622138977,0.00633096694946,0.00717210769653,0.000961065292358,10.5510840416
39,0.267889022827,0.00638484954834,0.00717806816101,0.000747919082642,10.8122770786
40,0.264137983322,0.00612783432007,0.00730800628662,0.00078296661377,11.1978349686
41,0.267491102219,0.00633716583252,0.00740909576416,0.000788927078247,11.3553688526
42,0.268166303635,0.00640201568604,0.00727891921997,0.000741004943848,11.7394888401
43,0.264616966248,0.00615501403809,0.00745391845703,0.000734806060791,12.0603377819
44,0.264669895172,0.00622510910034,0.00745606422424,0.000754833221436,12.2847700119
45,0.263416051865,0.0065860748291,0.00758409500122,0.000730037689209,12.2866089344
46,0.243212223053,0.00607395172119,0.00768899917603,0.000697135925293,12.6123030186
47,0.270150184631,0.00635695457458,0.0073721408844,0.000903844833374,12.7819030285
48,0.268978118896,0.0061719417572,0.00758790969849,0.000773906707764,13.2883341312
49,0.270145893097,0.00651288032532,0.00728702545166,0.000762939453125,13.535558939
50,0.269643068314,0.00654101371765,0.00745582580566,0.000779151916504,13.8764798641
51,0.263656616211,0.00625991821289,0.0072820186615,0.000772953033447,14.0589671135
52,0.268442869186,0.00637006759644,0.00741100311279,0.000753879547119,14.2798149586
53,0.26611495018,0.00638818740845,0.00735712051392,0.000811815261841,14.5782189369
54,0.270709276199,0.00627899169922,0.00731110572815,0.000752925872803,14.8582789898
55,0.268676996231,0.00635480880737,0.00736594200134,0.000752925872803,15.2665271759
56,0.273626804352,0.00635099411011,0.00735187530518,0.000988006591797,15.4800550938
57,0.244480848312,0.00618696212769,0.00725722312927,0.000727891921997,15.533121109
58,0.271410942078,0.00647497177124,0.00723814964294,0.000730991363525,15.7831799984
59,0.262333154678,0.00617504119873,0.0073070526123,0.000730991363525,16.4527978897
60,0.260431051254,0.00640392303467,0.0070960521698,0.000949144363403,16.6475100517
61,0.266686916351,0.00664877891541,0.00712299346924,0.000756025314331,16.3729879856
62,0.267581939697,0.00641179084778,0.00730586051941,0.000980138778687,17.2071042061
63,0.271223068237,0.00650000572205,0.00719904899597,0.000762939453125,17.4110980034
64,0.269912958145,0.00621104240417,0.00724291801453,0.000777006149292,17.6034770012
65,0.264400959015,0.00612187385559,0.00739502906799,0.000771999359131,17.762816906
66,0.268513917923,0.00627589225769,0.00756311416626,0.00098991394043,18.0386400223
67,0.27588391304,0.00670194625854,0.00725984573364,0.00085186958313,18.2438671589
68,0.266178131104,0.00648617744446,0.00738286972046,0.000761032104492,18.9105920792
69,0.264922857285,0.00659203529358,0.00705504417419,0.000770807266235,18.9189620018
70,0.273066997528,0.00626993179321,0.0075671672821,0.00104093551636,19.2645380497
71,0.279294967651,0.00628089904785,0.00730299949646,0.000802993774414,19.5610659122
72,0.269231081009,0.00619411468506,0.00727486610413,0.000790119171143,19.8005490303
73,0.266445875168,0.00627493858337,0.00743317604065,0.00103688240051,20.0781619549
74,0.270271062851,0.0065929889679,0.00749588012695,0.000768184661865,19.9890160561
75,0.274645805359,0.00658893585205,0.00732493400574,0.00075888633728,20.4033339024
76,0.26416516304,0.00609087944031,0.00733494758606,0.000797986984253,21.0569519997
77,0.279026985168,0.00627994537354,0.00739717483521,0.00077486038208,21.3968801498
78,0.273522138596,0.00620889663696,0.00727295875549,0.000770092010498,21.4011380672
79,0.273435115814,0.00625085830688,0.00788617134094,0.000783920288086,21.7721199989
80,0.270315885544,0.00631213188171,0.00765419006348,0.000782012939453,21.5582110882
81,0.270766973495,0.00670599937439,0.00742697715759,0.000863075256348,22.1636719704
82,0.268186092377,0.00647377967834,0.00770688056946,0.000809907913208,22.5412349701
83,0.269875049591,0.00624585151672,0.00740885734558,0.000770092010498,22.370347023
84,0.271315097809,0.00634288787842,0.00764203071594,0.000981092453003,22.6333398819
85,0.266000986099,0.00656390190125,0.00776982307434,0.000774145126343,22.9108469486
86,0.263287782669,0.00621700286865,0.00712490081787,0.000801086425781,23.1955358982
87,0.263487100601,0.00619602203369,0.00740480422974,0.00078296661377,24.0045380592
88,0.262850999832,0.00623416900635,0.00763893127441,0.000771045684814,23.8333551884
89,0.262732982635,0.00627112388611,0.00732493400574,0.00100898742676,24.2831280231
90,0.262157917023,0.00629591941833,0.00755190849304,0.000854015350342,24.3847649097
91,0.267520189285,0.00661182403564,0.00725197792053,0.000783920288086,24.4957139492
92,0.249037027359,0.00643110275269,0.00759196281433,0.000829219818115,24.7232670784
93,0.259613990784,0.0064549446106,0.00770306587219,0.000792980194092,24.2588288784
94,0.246750116348,0.00611400604248,0.00724601745605,0.000768899917603,24.7226960659
95,0.256039857864,0.0066089630127,0.00746297836304,0.000769853591919,25.1126458645
96,0.262573003769,0.00628590583801,0.00757312774658,0.00101709365845,25.4303138256
97,0.263663768768,0.00615382194519,0.00742506980896,0.000792026519775,25.8365709782
98,0.265345811844,0.00636196136475,0.00712013244629,0.000794887542725,26.426076889
99,0.264955997467,0.00618290901184,0.00706505775452,0.00078010559082,26.9216351509
