step,run,get,set,free,run_up_to_step
0,0.215137004852,0.00874805450439,0.00876522064209,0.0019359588623,0.237760066986
1,0.205063343048,0.00779700279236,0.00925397872925,0.00200605392456,0.442659854889
2,0.20361495018,0.00797700881958,0.00898194313049,0.00196599960327,0.606626033783
3,0.209891080856,0.00811696052551,0.00905704498291,0.00203800201416,0.817092895508
4,0.200933218002,0.0079882144928,0.00901508331299,0.00222492218018,1.03205013275
5,0.201930999756,0.00801301002502,0.00932812690735,0.0020649433136,1.2406308651
6,0.202018022537,0.00822186470032,0.00953006744385,0.00248003005981,1.41642808914
7,0.208240747452,0.00788187980652,0.00927591323853,0.00196695327759,1.62928295135
8,0.27264380455,0.00826597213745,0.00885796546936,0.00198101997375,1.81735181808
9,0.205205917358,0.00825095176697,0.00926184654236,0.00202894210815,2.06294202805
10,0.205258131027,0.00829195976257,0.00890707969666,0.00197601318359,2.63692808151
11,0.201407432556,0.00830101966858,0.00936698913574,0.00240898132324,2.39746689796
12,0.204607725143,0.00794410705566,0.00975704193115,0.00207185745239,3.16768503189
13,0.207075119019,0.00845003128052,0.00918006896973,0.00200510025024,2.89432501793
14,0.201521873474,0.00848984718323,0.00876688957214,0.00225496292114,3.49644804001
15,0.200149774551,0.00801801681519,0.00962114334106,0.00211000442505,3.60737895966
16,0.208987951279,0.00872778892517,0.00967407226562,0.0022120475769,3.56794595718
17,0.204763889313,0.00805377960205,0.0098340511322,0.00202989578247,4.21810793877
18,0.200795888901,0.00818204879761,0.00924587249756,0.00200295448303,4.34661602974
19,0.202979803085,0.00877809524536,0.00918507575989,0.00207781791687,4.73899388313
20,0.200445175171,0.00813603401184,0.00924110412598,0.00197911262512,4.9777970314
21,0.202585220337,0.0086350440979,0.00937414169312,0.00219106674194,4.52233099937
22,0.236725091934,0.00839781761169,0.00939393043518,0.00197792053223,4.81804323196
23,0.233165025711,0.00794887542725,0.00858378410339,0.0019199848175,5.68385004997
24,0.196528196335,0.00793886184692,0.00909185409546,0.00198578834534,5.61045789719
25,0.203517198563,0.00839400291443,0.00880694389343,0.00204014778137,6.01398301125
26,0.217134952545,0.00939702987671,0.00918102264404,0.00207185745239,5.57363986969
27,0.228714704514,0.00794792175293,0.00915908813477,0.00200700759888,5.9190621376
28,0.201512098312,0.00870680809021,0.00883603096008,0.00196599960327,6.14394307137
29,0.20865893364,0.0402688980103,0.00934886932373,0.0019679069519,6.51912903786
30,0.205933094025,0.00795197486877,0.00889205932617,0.00210309028625,6.84978103638
31,0.202402114868,0.00831890106201,0.00929713249207,0.00200605392456,7.25675415993
32,0.205397129059,0.00826597213745,0.00919485092163,0.00203990936279,7.46185898781
33,0.210436105728,0.00868201255798,0.00913190841675,0.00206685066223,7.98077106476
34,0.200860023499,0.00820899009705,0.00922894477844,0.00206899642944,7.97926712036
35,0.207321882248,0.00818681716919,0.0086498260498,0.00217604637146,8.17424297333
36,0.254504919052,0.00872898101807,0.00987386703491,0.00212621688843,7.78040313721
37,0.202371835709,0.00811910629272,0.00933909416199,0.0023250579834,8.43753695488
38,0.200222015381,0.00846600532532,0.0100300312042,0.00230121612549,8.830078125
39,0.281719923019,0.00935983657837,0.00878190994263,0.00195598602295,8.89428591728
40,0.202077627182,0.00802612304688,0.00913906097412,0.00229907035828,9.36974787712
41,0.240651845932,0.00902199745178,0.00870299339294,0.00194406509399,9.05341386795
42,0.203162908554,0.00812292098999,0.00943994522095,0.00207805633545,9.20532512665
43,0.202172040939,0.0084080696106,0.00940203666687,0.00227689743042,9.783659935
44,0.201590061188,0.00814485549927,0.00876998901367,0.00208592414856,10.2563140392
45,0.201817989349,0.00834012031555,0.00937104225159,0.00200009346008,9.75606894493
46,0.210910081863,0.00828194618225,0.00919222831726,0.0021288394928,11.6044561863
47,0.215950965881,0.00810718536377,0.00903487205505,0.00207018852234,10.7881410122
48,0.217646121979,0.00852298736572,0.00862097740173,0.00226902961731,11.1799809933
49,0.22438621521,0.00830507278442,0.00952315330505,0.00229096412659,10.9436979294
50,0.210616111755,0.00823211669922,0.00993394851685,0.00217604637146,11.1694469452
51,0.212509155273,0.00849890708923,0.0094690322876,0.00203013420105,11.660998106
52,0.225314855576,0.00853610038757,0.00981998443604,0.00207686424255,12.4255549908
53,0.214601993561,0.00824189186096,0.00910305976868,0.00197815895081,12.1163079739
54,0.203722953796,0.00821089744568,0.00921392440796,0.00210118293762,12.2143280506
55,0.210457086563,0.0084969997406,0.00975704193115,0.00215697288513,11.866519928
56,0.214509010315,0.00858783721924,0.00944709777832,0.00208401679993,12.7128450871
57,0.606657028198,0.00923991203308,0.00916409492493,0.00219392776489,13.1655220985
58,0.204713106155,0.00822305679321,0.00929307937622,0.00203895568848,14.2047481537
59,0.208225011826,0.00813388824463,0.0092761516571,0.00206899642944,13.4687058926
60,0.201644182205,0.0083339214325,0.0093309879303,0.0020158290863,13.8163449764
61,0.203947067261,0.00820302963257,0.00951099395752,0.00203609466553,13.9562680721
62,0.206210851669,0.0081639289856,0.00963497161865,0.00247097015381,13.9580850601
63,0.232699155807,0.00828695297241,0.00939011573792,0.00204396247864,14.250784874
64,0.206452131271,0.00856304168701,0.00897097587585,0.00197792053223,14.6675231457
65,0.202306270599,0.00806999206543,0.00941205024719,0.00203585624695,14.2793629169
66,0.206001996994,0.0083909034729,0.00898885726929,0.00203418731689,14.2875390053
67,0.287936925888,0.00824403762817,0.00906896591187,0.00203418731689,14.6462659836
68,0.205573797226,0.00825595855713,0.00958895683289,0.00204086303711,14.7922639847
69,0.204406023026,0.00866484642029,0.00927686691284,0.00222301483154,15.3756139278
70,0.211968183517,0.00856304168701,0.00948190689087,0.00199508666992,17.3760800362
71,0.235107183456,0.00835800170898,0.00907301902771,0.00204396247864,16.3015470505
72,0.203640222549,0.00855183601379,0.00939011573792,0.00200510025024,15.7018389702
73,0.203443050385,0.00876903533936,0.00940012931824,0.00251293182373,16.1971790791
74,0.213283777237,0.00821685791016,0.00927901268005,0.00213718414307,16.3020589352
75,0.202089071274,0.00829195976257,0.00935387611389,0.00209498405457,16.9137630463
76,0.200692176819,0.00830602645874,0.00934791564941,0.00215101242065,16.8622598648
77,0.207851886749,0.00847196578979,0.00908398628235,0.00201606750488,16.8878400326
78,0.203624010086,0.00837683677673,0.00896096229553,0.00218105316162,17.2687580585
79,0.202805042267,0.00840497016907,0.0090479850769,0.00200605392456,18.0777959824
80,0.213223218918,0.00846910476685,0.00921988487244,0.00206708908081,17.8976459503
81,0.211661100388,0.00847721099854,0.00959515571594,0.0020649433136,17.8829460144
82,0.20304608345,0.00816893577576,0.00952506065369,0.00248885154724,18.076100111
83,0.226284742355,0.00883007049561,0.00955700874329,0.00199890136719,17.8598639965
84,0.203420877457,0.00859689712524,0.010134935379,0.00310206413269,18.8484499454
85,0.203080892563,0.00822687149048,0.00933003425598,0.00202393531799,19.1282699108
86,0.203655004501,0.00816488265991,0.00927114486694,0.00205302238464,18.8924660683
87,0.202018022537,0.00869297981262,0.00926303863525,0.00222110748291,19.3006341457
88,0.20291686058,0.0082540512085,0.00920104980469,0.00196599960327,19.4119360447
89,0.206837892532,0.00836610794067,0.00922513008118,0.00198698043823,19.7748689651
90,0.207139968872,0.00823211669922,0.00878000259399,0.00209784507751,20.2704339027
91,0.207439899445,0.00842499732971,0.00921702384949,0.00230097770691,20.4578809738
92,0.275074005127,0.00828909873962,0.00925397872925,0.00226998329163,19.7567257881
93,0.205970048904,0.00855898857117,0.00939106941223,0.00203609466553,20.0244719982
94,0.204852819443,0.00853204727173,0.00929689407349,0.0020649433136,20.0600340366
95,0.221022844315,0.00842213630676,0.00920295715332,0.00261998176575,20.6672949791
96,0.205625295639,0.00847697257996,0.00935316085815,0.00201392173767,21.1465919018
97,0.20426607132,0.00863790512085,0.009516954422,0.00202703475952,20.5176839828
98,0.205387115479,0.00834107398987,0.00873684883118,0.00217199325562,21.4604940414
99,0.232652902603,0.0086669921875,0.00941705703735,0.00199890136719,21.4115071297
