step,run,get,set,free,run_up_to_step
0,0.352823972702,0.0221540927887,0.0231330394745,0.00495004653931,0.372521877289
1,0.325016975403,0.021096944809,0.0228719711304,0.00499606132507,0.689192056656
2,0.330165863037,0.0217840671539,0.0227010250092,0.00495600700378,1.06265687943
3,0.329783201218,0.0211889743805,0.02272605896,0.004958152771,1.40850305557
4,0.327789068222,0.021703004837,0.0242710113525,0.00498199462891,1.69407081604
5,0.328860282898,0.0215101242065,0.0241770744324,0.00585103034973,2.05352902412
6,0.339550018311,0.0199568271637,0.022980928421,0.00549411773682,3.08487701416
7,0.325925111771,0.0203850269318,0.0234620571136,0.00586581230164,2.69219088554
8,0.332560062408,0.0204679965973,0.0227539539337,0.00495100021362,3.02729415894
9,0.325694799423,0.0221951007843,0.0227401256561,0.00496387481689,3.48608207703
10,0.329676151276,0.0222868919373,0.0226991176605,0.00495791435242,3.832654953
11,0.325802087784,0.0223579406738,0.0227429866791,0.0049991607666,4.01826095581
12,0.327153921127,0.0221991539001,0.0228970050812,0.004958152771,4.34862399101
13,0.328568220139,0.0218710899353,0.0226631164551,0.00494313240051,4.90956115723
14,0.339114904404,0.0219030380249,0.0232820510864,0.00508999824524,5.26444292068
15,0.328060865402,0.0200309753418,0.0227100849152,0.00508284568787,5.72508788109
16,0.339980840683,0.0213158130646,0.0235328674316,0.00496602058411,5.71327614784
17,0.339025974274,0.0211679935455,0.0235209465027,0.00497198104858,6.99931287766
18,0.330256223679,0.0215909481049,0.0231459140778,0.00495886802673,6.40320611
19,0.346320867538,0.0215618610382,0.022705078125,0.00498104095459,6.75841498375
20,0.329742193222,0.0223190784454,0.0227379798889,0.00505018234253,7.07210707664
21,0.33807182312,0.0205011367798,0.0228068828583,0.00496983528137,7.69541692734
22,0.328454971313,0.0218529701233,0.0226800441742,0.00496697425842,8.46011996269
23,0.333377122879,0.0215668678284,0.0226988792419,0.00495100021362,8.07367992401
24,0.332864046097,0.0204689502716,0.0227580070496,0.0049729347229,8.79085302353
25,0.329972982407,0.0205631256104,0.0226690769196,0.00558304786682,9.18928790092
26,0.331459760666,0.02290391922,0.0226860046387,0.00495600700378,9.07402801514
27,0.327400922775,0.0197551250458,0.0231950283051,0.00499987602234,9.41136789322
28,0.329021930695,0.0225620269775,0.0232009887695,0.00498604774475,10.290594101
29,0.330264091492,0.020357131958,0.0226519107819,0.00495314598083,10.4682509899
30,0.326781988144,0.0199658870697,0.0226550102234,0.00494503974915,11.1493430138
31,0.330089092255,0.0222358703613,0.0277061462402,0.00494289398193,10.7095749378
32,0.328253030777,0.0211551189423,0.0228428840637,0.00498604774475,11.3089089394
33,0.326048851013,0.0206439495087,0.0228760242462,0.00495886802673,12.2123680115
34,0.332981824875,0.0210881233215,0.022803068161,0.00494909286499,12.2227768898
35,0.335074901581,0.0205640792847,0.0237128734589,0.00497007369995,12.5904650688
36,0.348686218262,0.0210371017456,0.0238349437714,0.00497198104858,12.9642090797
37,0.329852342606,0.0218229293823,0.0228199958801,0.00495100021362,13.2471320629
38,0.326267957687,0.0204479694366,0.0227620601654,0.00498104095459,13.8743510246
39,0.327367782593,0.0198349952698,0.0234971046448,0.00495910644531,14.2734940052
40,0.327213048935,0.0200901031494,0.023097038269,0.00502300262451,13.7907650471
41,0.340784072876,0.0204088687897,0.0226550102234,0.00494408607483,14.2741720676
42,0.325623989105,0.0202729701996,0.0227918624878,0.00495004653931,14.9611549377
43,0.327988862991,0.020644903183,0.024181842804,0.00498914718628,15.2297639847
44,0.328240394592,0.0214908123016,0.0229461193085,0.00496888160706,15.6098690033
45,0.337552785873,0.0203051567078,0.0231311321259,0.00495386123657,16.7190108299
46,0.32589006424,0.0198421478271,0.0227990150452,0.00694489479065,16.6116080284
47,0.343383073807,0.0201499462128,0.0227839946747,0.00496983528137,16.7884020805
48,0.327987909317,0.0213520526886,0.0235838890076,0.0049901008606,16.6671178341
49,0.332370042801,0.0218739509583,0.0236220359802,0.00496196746826,18.1631100178
50,0.348062992096,0.021712064743,0.0232090950012,0.00494289398193,17.3549900055
51,0.334585905075,0.0203399658203,0.0233671665192,0.00498604774475,18.1939189434
52,0.329924106598,0.0200550556183,0.0228440761566,0.0055239200592,18.7923760414
53,0.335000038147,0.0202400684357,0.0232298374176,0.00499796867371,19.2031071186
54,0.332845926285,0.0207459926605,0.0226228237152,0.00495886802673,18.7421329021
55,0.325958013535,0.0202379226685,0.0229029655457,0.00500512123108,19.4444010258
56,0.331727027893,0.0224208831787,0.0225908756256,0.00501203536987,19.8853430748
57,0.333798885345,0.0202751159668,0.0226731300354,0.00495004653931,20.9194610119
58,0.326349020004,0.0197169780731,0.0227160453796,0.00495600700378,20.3140239716
59,0.327615261078,0.0198748111725,0.0227448940277,0.00496506690979,21.5438790321
60,0.34161901474,0.0204610824585,0.0232520103455,0.00497794151306,21.189770937
61,0.344534873962,0.0202670097351,0.0238819122314,0.00495409965515,21.4129958153
62,0.329342126846,0.0203969478607,0.0226809978485,0.0049889087677,21.4424078465
63,0.335129261017,0.0209100246429,0.0229098796844,0.00553798675537,22.0585649014
64,0.346707105637,0.0201308727264,0.0227370262146,0.00496792793274,23.0749092102
65,0.343374013901,0.0204792022705,0.0228068828583,0.00498104095459,22.8947949409
66,0.333148002625,0.021457195282,0.0226221084595,0.00499510765076,23.4862411022
67,0.331613063812,0.0202989578247,0.0226218700409,0.00495600700378,24.4421260357
68,0.335406064987,0.0206830501556,0.0227568149567,0.00496697425842,24.8992660046
69,0.329377889633,0.0204901695251,0.0227079391479,0.00499701499939,24.0398490429
70,0.328090906143,0.0205829143524,0.0226850509644,0.00496602058411,24.2017331123
71,0.327090024948,0.0198080539703,0.0228629112244,0.00497508049011,24.6200771332
72,0.329206943512,0.0206038951874,0.0232040882111,0.00495886802673,26.2563970089
73,0.342122793198,0.0203549861908,0.0227830410004,0.0049991607666,25.4488148689
74,0.328223705292,0.0199480056763,0.0226531028748,0.0049729347229,26.7465178967
75,0.340423107147,0.0197999477386,0.0229201316833,0.00498294830322,27.4032900333
76,0.331722021103,0.0197899341583,0.0227720737457,0.00496387481689,26.3411810398
77,0.329539775848,0.0223498344421,0.0232861042023,0.00496315956116,27.4730420113
78,0.328512907028,0.0213007926941,0.0231580734253,0.00497198104858,27.259417057
79,0.329940080643,0.0218529701233,0.0226681232452,0.00495505332947,28.9504199028
80,0.334584951401,0.0210812091827,0.0225701332092,0.00494790077209,27.8277690411
81,0.33244562149,0.0212779045105,0.0227270126343,0.00497078895569,28.1952068806
82,0.333704948425,0.0210099220276,0.0232191085815,0.00499296188354,28.4074971676
83,0.328789949417,0.0204610824585,0.0238528251648,0.00499200820923,28.7229549885
84,0.336525917053,0.0203549861908,0.0226559638977,0.00495100021362,29.4268739223
85,0.341940164566,0.0217690467834,0.0231151580811,0.00498080253601,29.51491189
86,0.332342863083,0.0209820270538,0.0226860046387,0.00836896896362,30.4150438309
87,0.340262889862,0.0206279754639,0.0231909751892,0.00497603416443,30.1440050602
88,0.328629016876,0.0203731060028,0.0227799415588,0.00520491600037,30.4978790283
89,0.346436023712,0.0202867984772,0.0230550765991,0.00495409965515,32.1082439423
90,0.348465919495,0.0205569267273,0.0225970745087,0.00494694709778,30.8863141537
91,0.343601226807,0.0207679271698,0.0227129459381,0.00493884086609,31.3872759342
92,0.3334171772,0.0196900367737,0.0236690044403,0.0049741268158,32.089703083
93,0.350826025009,0.0203731060028,0.0231111049652,0.00495409965515,32.8866119385
94,0.364388942719,0.0212008953094,0.0231659412384,0.00496292114258,32.5098588467
95,0.34849691391,0.0212578773499,0.0232021808624,0.00496602058411,32.8497099876
96,0.340810060501,0.0202260017395,0.0226850509644,0.004967212677,33.4380202293
97,0.335153102875,0.0210909843445,0.0230569839478,0.00560688972473,33.5952701569
98,0.334891080856,0.0216159820557,0.0225892066956,0.0049741268158,33.8570799828
99,0.353052854538,0.020213842392,0.023992061615,0.00498008728027,35.3822629452
