step,run,get,set,free,run_up_to_step
0,0.320760965347,0.0102260112762,0.0307381153107,0.00239992141724,0.321504116058
1,0.310134887695,0.0106680393219,0.0117809772491,0.00255703926086,0.615812063217
2,0.307304859161,0.0105152130127,0.0123879909515,0.00271487236023,0.943045139313
3,0.289574861526,0.00966691970825,0.0123870372772,0.00275897979736,1.25753211975
4,0.31201004982,0.00947594642639,0.0108668804169,0.00250887870789,1.61406898499
5,0.296970129013,0.0106649398804,0.0120010375977,0.00268292427063,1.8427939415
6,0.304275035858,0.00942707061768,0.0108029842377,0.00247597694397,2.23475909233
7,0.297973155975,0.0104160308838,0.0116519927979,0.00250482559204,2.76056814194
8,0.293035030365,0.00971698760986,0.0107147693634,0.00239396095276,2.80003714561
9,0.310005187988,0.0106010437012,0.0109078884125,0.00237989425659,2.98595809937
10,0.31077003479,0.0108511447906,0.0117149353027,0.00255393981934,3.3422369957
11,0.288458108902,0.0103158950806,0.0117661952972,0.00297093391418,3.69729995728
12,0.289240837097,0.0110771656036,0.0120830535889,0.00276303291321,4.01540398598
13,0.289538860321,0.0102429389954,0.0112509727478,0.00265383720398,4.41156697273
14,0.292275905609,0.010272026062,0.010959148407,0.00232410430908,4.63261413574
15,0.313818216324,0.0114409923553,0.0106201171875,0.00234317779541,4.88221907616
16,0.32204413414,0.0111198425293,0.0116128921509,0.00243592262268,5.25788903236
17,0.291981935501,0.0102431774139,0.0110399723053,0.0023889541626,6.04091310501
18,0.298398971558,0.01056599617,0.0105109214783,0.00231599807739,5.74444389343
19,0.303112983704,0.0120317935944,0.0120980739594,0.00234794616699,6.4968688488
20,0.296168088913,0.0102667808533,0.0113260746002,0.00249195098877,6.35246491432
21,0.28974199295,0.0105531215668,0.011214017868,0.00259494781494,6.95202493668
22,0.290383815765,0.00965213775635,0.0116059780121,0.002357006073,8.03068900108
23,0.288748025894,0.0103669166565,0.0104651451111,0.00236296653748,7.80835390091
24,0.30230474472,0.0101759433746,0.0114929676056,0.00246095657349,7.75501990318
25,0.298979997635,0.00998091697693,0.0115299224854,0.00240015983582,8.35814189911
26,0.289943218231,0.0101130008698,0.011617898941,0.00276780128479,7.92690014839
27,0.294505119324,0.010153055191,0.030266046524,0.00240111351013,8.37072086334
28,0.286947965622,0.00995707511902,0.0106909275055,0.00239491462708,9.21057009697
29,0.292643070221,0.0101580619812,0.0110459327698,0.00236010551453,9.05225896835
30,0.318953990936,0.0103950500488,0.0112180709839,0.00261807441711,10.2225308418
31,0.287461996078,0.0100088119507,0.0111639499664,0.00239992141724,9.55807709694
32,0.290379047394,0.0106630325317,0.0105772018433,0.00229716300964,10.1029200554
33,0.303297996521,0.0103621482849,0.0112488269806,0.00243592262268,10.2547450066
34,0.300473928452,0.0100040435791,0.0112969875336,0.00237202644348,11.2766098976
35,0.290842056274,0.0101640224457,0.0105679035187,0.00228595733643,10.9843659401
36,0.31240606308,0.0101330280304,0.0105020999908,0.00230383872986,11.0442528725
37,0.287672758102,0.0098979473114,0.0106630325317,0.00233316421509,11.8316090107
38,0.287116765976,0.00990104675293,0.0106589794159,0.00247192382812,12.1124629974
39,0.285999059677,0.00960206985474,0.0111658573151,0.00237488746643,12.2746310234
40,0.291035890579,0.00991916656494,0.0109350681305,0.00232696533203,12.6427690983
41,0.292809247971,0.0102682113647,0.0106308460236,0.00266909599304,13.114495039
42,0.298321723938,0.00945401191711,0.0117120742798,0.00245594978333,12.9975590706
43,0.286711931229,0.00952696800232,0.0107269287109,0.00233507156372,14.1598100662
44,0.293416976929,0.00946593284607,0.0110039710999,0.00249004364014,14.1111681461
45,0.285974264145,0.00962591171265,0.0105850696564,0.00240683555603,14.0132889748
46,0.293550014496,0.00984907150269,0.0105609893799,0.0023021697998,14.9555599689
47,0.303706169128,0.00990796089172,0.0107560157776,0.00234794616699,15.3358268738
48,0.290157079697,0.00974607467651,0.010516166687,0.00228905677795,15.7760648727
49,0.291657924652,0.00954508781433,0.0106048583984,0.00238084793091,16.5636370182
50,0.291232824326,0.0101280212402,0.0131180286407,0.00251698493958,15.2664680481
51,0.287444114685,0.00954699516296,0.0104207992554,0.00231194496155,15.9965209961
52,0.295665025711,0.00961422920227,0.010724067688,0.0023410320282,17.6424109936
53,0.289184093475,0.00995802879333,0.0108969211578,0.00232195854187,17.5923190117
54,0.291125059128,0.009840965271,0.0106041431427,0.00244307518005,18.1444499493
55,0.289067268372,0.00982093811035,0.0106160640717,0.00271892547607,17.8480298519
56,0.292186737061,0.00982713699341,0.0109369754791,0.00265502929688,17.2797648907
57,0.288236856461,0.00981497764587,0.0108749866486,0.00237107276917,18.3053247929
58,0.292468070984,0.00963401794434,0.0106239318848,0.00232696533203,18.3845081329
59,0.298820972443,0.00976920127869,0.0107719898224,0.00238513946533,19.1271579266
60,0.298849821091,0.0101699829102,0.0107390880585,0.00238513946533,18.6639699936
61,0.292454004288,0.00980591773987,0.0115690231323,0.00234317779541,19.9246370792
62,0.298625946045,0.00952100753784,0.0109131336212,0.00244092941284,19.2702920437
63,0.287767887115,0.00942897796631,0.0107409954071,0.00229811668396,20.1096901894
64,0.301753759384,0.00979685783386,0.0106070041656,0.00235605239868,19.7406058311
65,0.286295175552,0.00962996482849,0.0108079910278,0.00229096412659,19.685172081
66,0.297643899918,0.0101490020752,0.01043009758,0.00234699249268,20.5947060585
67,0.291311979294,0.00946688652039,0.01060795784,0.00267505645752,20.5234849453
68,0.294764995575,0.0119459629059,0.0110671520233,0.00254487991333,22.0535671711
69,0.317907094955,0.00972890853882,0.0105040073395,0.00233316421509,21.549268961
70,0.295794010162,0.00959491729736,0.0106859207153,0.00234508514404,21.9350950718
71,0.30092716217,0.00987195968628,0.0112640857697,0.00230193138123,23.1385061741
72,0.302592039108,0.0098979473114,0.0297961235046,0.00234484672546,23.4528620243
73,0.287352800369,0.0105450153351,0.0105109214783,0.00236916542053,24.334250927
74,0.290856122971,0.00970005989075,0.0108578205109,0.00233602523804,23.2707500458
75,0.295050144196,0.00968790054321,0.0104460716248,0.00231003761292,23.5593509674
76,0.291860818863,0.00992107391357,0.0106010437012,0.00230979919434,22.9430198669
77,0.287934303284,0.00987911224365,0.010666847229,0.00231695175171,24.6881418228
78,0.287959098816,0.00968408584595,0.0111620426178,0.00237703323364,24.1787610054
79,0.491946220398,0.0114178657532,0.0113382339478,0.00262784957886,24.6756870747
80,0.286732196808,0.00967597961426,0.0106959342957,0.00257682800293,24.7367749214
81,0.296952962875,0.00958204269409,0.01092004776,0.00247120857239,25.1558020115
82,0.29351401329,0.0102880001068,0.0107569694519,0.00233888626099,26.3018610477
83,0.289231777191,0.00977396965027,0.0129089355469,0.00245809555054,26.7972280979
84,0.30863404274,0.00971603393555,0.0109879970551,0.00253796577454,27.5213110447
85,0.319596767426,0.00971293449402,0.0112528800964,0.00233292579651,26.4292321205
86,0.367460012436,0.012668132782,0.0133321285248,0.00253701210022,26.900233984
87,0.293954849243,0.0101759433746,0.0109689235687,0.00244498252869,28.5528168678
88,0.311310768127,0.00965690612793,0.0111501216888,0.00232195854187,27.128674984
89,0.314100265503,0.00996494293213,0.0112550258636,0.00270390510559,28.7690279484
90,0.295850753784,0.0101971626282,0.0113217830658,0.00253105163574,29.9607357979
91,0.29621887207,0.010106086731,0.0110220909119,0.0026650428772,29.0093128681
92,0.292797088623,0.00987195968628,0.0111050605774,0.00243997573853,28.7137238979
93,0.287535190582,0.0095329284668,0.0105469226837,0.00237417221069,29.7521569729
94,0.294928789139,0.0106179714203,0.0104110240936,0.00229907035828,30.0814189911
95,0.302919149399,0.0100920200348,0.0113110542297,0.00246691703796,29.0688281059
96,0.290040016174,0.00977301597595,0.0108358860016,0.00236511230469,31.1293370724
97,0.295735120773,0.0100679397583,0.0112099647522,0.00238299369812,31.4007911682
98,0.301175117493,0.00984001159668,0.0110170841217,0.00249695777893,30.9857649803
99,0.288331031799,0.00990414619446,0.0105910301208,0.00236392021179,31.0866789818
