step,run,get,set,free,run_up_to_step
0,0.417761087418,0.0142722129822,0.0189218521118,0.00433897972107,0.4074010849
1,0.39843082428,0.014317035675,0.0167038440704,0.00424814224243,0.882623910904
2,0.396038293839,0.0141658782959,0.0161778926849,0.00342178344727,1.28246808052
3,0.414041042328,0.0141620635986,0.0163679122925,0.00339603424072,1.62481784821
4,0.400541067123,0.0144081115723,0.0177659988403,0.00333213806152,2.04297709465
5,0.43431186676,0.0137801170349,0.016361951828,0.00355815887451,2.50117301941
6,0.392596006393,0.0148048400879,0.0157561302185,0.00343894958496,2.8993909359
7,0.398195981979,0.0153222084045,0.0160639286041,0.00328493118286,3.27223014832
8,0.399482965469,0.0154139995575,0.0156750679016,0.00326704978943,4.45971703529
9,0.415428161621,0.0140211582184,0.0155210494995,0.00328302383423,4.59415793419
10,0.42131280899,0.0143988132477,0.015606880188,0.00328922271729,4.4578139782
11,0.397519111633,0.0152208805084,0.0166461467743,0.00340700149536,4.88532209396
12,0.40182185173,0.0156180858612,0.0156378746033,0.00329995155334,5.30974698067
13,0.406381130219,0.0153839588165,0.015594959259,0.00328922271729,5.84291386604
14,0.446932077408,0.0195250511169,0.0157129764557,0.00366878509521,6.33127999306
15,0.407648801804,0.0153288841248,0.0156087875366,0.00347805023193,6.46494102478
16,0.395601034164,0.0144898891449,0.0155911445618,0.00340390205383,7.51939511299
17,0.39827299118,0.0145199298859,0.0159721374512,0.00330686569214,7.60577583313
18,0.45906996727,0.0176630020142,0.0156059265137,0.00327205657959,7.73524785042
19,0.394265174866,0.01486992836,0.0161440372467,0.00330114364624,8.67352390289
20,0.404824972153,0.0138630867004,0.015655040741,0.00324702262878,9.44279193878
21,0.396327972412,0.0155301094055,0.016172170639,0.00349998474121,9.38844704628
22,0.395741939545,0.0134599208832,0.016263961792,0.00351595878601,10.2619690895
23,0.399392127991,0.0145750045776,0.0156419277191,0.00329494476318,10.3614349365
24,0.407109975815,0.0151219367981,0.0158112049103,0.00325894355774,10.7560629845
25,0.46221113205,0.013974905014,0.0162169933319,0.0034761428833,11.2043609619
26,0.431627035141,0.0147180557251,0.015645980835,0.00329089164734,11.5153470039
27,0.391760110855,0.0138740539551,0.0162401199341,0.00327587127686,11.9587790966
28,0.436703205109,0.0150721073151,0.0166990756989,0.00329804420471,12.3167979717
29,1.04260897636,0.015303850174,0.0160400867462,0.00334692001343,12.1872489452
30,0.414973258972,0.0143868923187,0.0156478881836,0.00329494476318,12.939136982
31,0.509462118149,0.0137350559235,0.0162518024445,0.00327587127686,13.5805959702
32,0.416287899017,0.0143461227417,0.0159239768982,0.00327205657959,14.1553461552
33,0.408678770065,0.0141408443451,0.0158100128174,0.0032811164856,15.0809860229
34,0.398435115814,0.0143420696259,0.0155799388885,0.00327491760254,14.4152390957
35,0.40153002739,0.0139729976654,0.016282081604,0.00336503982544,15.3467879295
36,0.410092830658,0.0136098861694,0.0162131786346,0.00328993797302,15.4708180428
37,0.398539066315,0.0150148868561,0.0157189369202,0.00336790084839,15.6130080223
38,0.392645835876,0.0139608383179,0.0160698890686,0.00353598594666,16.5987739563
39,0.432968139648,0.0136091709137,0.0161850452423,0.00327515602112,16.9008591175
40,0.393904209137,0.0139198303223,0.0158531665802,0.00381088256836,17.8866698742
41,0.399598836899,0.0137841701508,0.0161731243134,0.00339198112488,17.6479129791
42,0.40540099144,0.0138070583344,0.01606798172,0.00501894950867,18.9430458546
43,0.393649816513,0.0137500762939,0.0158121585846,0.0033278465271,19.2198050022
44,0.393473863602,0.0138399600983,0.0161340236664,0.00326991081238,18.6186158657
45,0.398108005524,0.0141718387604,0.0158660411835,0.00329208374023,19.3367459774
46,0.393892049789,0.0147819519043,0.015545129776,0.00327205657959,19.7981159687
47,0.392545938492,0.0137710571289,0.0172657966614,0.00351595878601,21.0863778591
48,0.414460897446,0.0139291286469,0.0165479183197,0.00336098670959,20.7979650497
49,0.396302938461,0.0153088569641,0.0159590244293,0.00327301025391,21.0215919018
50,0.395729064941,0.013463973999,0.0159759521484,0.00327706336975,22.7084031105
51,0.429821968079,0.0136280059814,0.0155417919159,0.00334286689758,22.540831089
52,0.414300680161,0.015340089798,0.0171720981598,0.00329303741455,22.828674078
53,0.424504041672,0.0146849155426,0.015557050705,0.00327706336975,22.8686988354
54,0.408718109131,0.013659954071,0.0154590606689,0.00326704978943,23.2108039856
55,0.393034934998,0.013594865799,0.0159549713135,0.00328803062439,23.4874970913
56,0.421787023544,0.0143530368805,0.0160980224609,0.00331091880798,24.7371559143
57,0.404165029526,0.015310049057,0.0155639648438,0.00325703620911,25.346683979
58,0.397225856781,0.014762878418,0.0156300067902,0.00395107269287,24.7200291157
59,0.414932727814,0.0138540267944,0.0156769752502,0.00327610969543,25.1145138741
60,0.416395902634,0.0167300701141,0.0155489444733,0.00327801704407,26.2158060074
61,0.425982952118,0.0145320892334,0.0165221691132,0.00367403030396,27.1590909958
62,0.395941019058,0.0148561000824,0.0157351493835,0.00326108932495,27.5410180092
63,0.413418054581,0.0376369953156,0.0156450271606,0.00327205657959,27.4955408573
64,0.405334949493,0.0141170024872,0.0160541534424,0.00332713127136,27.6413249969
65,0.427457809448,0.0148010253906,0.0159950256348,0.00381588935852,27.8611471653
66,0.39907002449,0.0160930156708,0.0164539813995,0.00338411331177,28.6078929901
67,0.401633024216,0.0136859416962,0.0155930519104,0.00327682495117,28.2613289356
68,0.402246952057,0.0147409439087,0.0156180858612,0.00331687927246,28.7353429794
69,0.391916036606,0.0139169692993,0.015673160553,0.00330400466919,30.6259629726
70,0.418198108673,0.0142159461975,0.0217478275299,0.00460910797119,29.6103889942
71,0.394166946411,0.013927936554,0.0161619186401,0.00327801704407,29.9937808514
72,0.407655954361,0.0165009498596,0.0157630443573,0.00334501266479,30.9576878548
73,0.430337190628,0.0145289897919,0.0158519744873,0.00330209732056,31.9891858101
74,0.423442840576,0.0135419368744,0.0158689022064,0.00327396392822,32.8241329193
75,0.398631095886,0.0140149593353,0.0155560970306,0.00329399108887,33.584859848
76,0.398981332779,0.0137851238251,0.0164580345154,0.00378918647766,32.2138841152
77,0.413175106049,0.0137329101562,0.0196778774261,0.00390791893005,32.7362449169
78,0.39732003212,0.0138740539551,0.0157709121704,0.00326108932495,33.9869258404
79,0.417535305023,0.0151669979095,0.0160961151123,0.00334286689758,34.8990778923
80,1.00280022621,0.0155999660492,0.0157949924469,0.00336813926697,34.1799530983
81,0.428648948669,0.0152840614319,0.0159330368042,0.00326895713806,35.6248941422
82,0.397529840469,0.0137410163879,0.0204319953918,0.00332403182983,34.846585989
83,0.399698019028,0.0135219097137,0.0157289505005,0.00336599349976,35.2079968452
84,0.414283752441,0.0132579803467,0.0151031017303,0.0032479763031,37.4150490761
85,0.99104475975,0.0144119262695,0.0161581039429,0.00335502624512,36.2433481216
86,0.396083831787,0.0149879455566,0.0157740116119,0.00325703620911,36.0056350231
87,0.398715019226,0.0377249717712,0.0155780315399,0.00325608253479,36.5426950455
88,0.407312870026,0.0139698982239,0.0167570114136,0.00327801704407,36.9748139381
89,0.393541097641,0.0133650302887,0.0170929431915,0.00326895713806,38.7232139111
90,0.415740966797,0.0144329071045,0.0158798694611,0.00325894355774,39.384829998
91,0.396166086197,0.0153789520264,0.0160551071167,0.00327110290527,38.5369200706
92,0.406583070755,0.0134508609772,0.0158641338348,0.00345301628113,38.8839240074
93,0.398221969604,0.01518201828,0.0161969661713,0.00325798988342,39.1047420502
94,0.393747806549,0.0371220111847,0.0154821872711,0.00328803062439,40.80488801
95,0.42019534111,0.0144670009613,0.016058921814,0.00327205657959,39.0779521465
96,0.42046380043,0.0131571292877,0.0178139209747,0.003249168396,39.806180954
97,0.413288831711,0.0132439136505,0.0194170475006,0.00357294082642,40.5444529057
98,0.394227027893,0.0131559371948,0.0154898166656,0.00381898880005,40.466219902
99,0.411282062531,0.013925075531,0.0161309242249,0.00327897071838,40.9879791737
