step,run,get,set,free,run_up_to_step
0,1.3061170578,0.0537900924683,0.0594692230225,0.00493288040161,1.27486991882
1,0.836441993713,0.0495848655701,0.0592670440674,0.00497388839722,2.58092498779
2,0.815284967422,0.0508980751038,0.0605509281158,0.005038022995,2.96675086021
3,0.840746879578,0.0498638153076,0.0609929561615,0.00491404533386,3.80928111076
4,0.833766937256,0.0484941005707,0.0605881214142,0.00629115104675,4.62079000473
5,0.836889028549,0.0516948699951,0.0593070983887,0.00491714477539,5.40064191818
6,0.821214914322,0.0507230758667,0.0598530769348,0.00504612922668,7.14268994331
7,0.813554048538,0.0504050254822,0.0600619316101,0.00645303726196,7.01480293274
8,0.818429231644,0.0508470535278,0.0604348182678,0.00501704216003,7.90681600571
9,0.842933893204,0.0522599220276,0.0603151321411,0.00497817993164,8.82662796974
10,0.830173969269,0.0509269237518,0.0607960224152,0.00495100021362,10.006551981
11,0.827747106552,0.0505111217499,0.0597529411316,0.00504112243652,10.4709739685
12,0.831219911575,0.0505270957947,0.0605080127716,0.00507998466492,11.0896689892
13,0.844570159912,0.0503199100494,0.0595569610596,0.00507998466492,12.5150170326
14,0.839668989182,0.0516178607941,0.0613059997559,0.00505709648132,13.1556961536
15,0.837476015091,0.0507080554962,0.0621800422668,0.00513315200806,13.6818320751
16,0.841424942017,0.0523290634155,0.060690164566,0.00499391555786,15.3054859638
17,0.826401948929,0.0508399009705,0.0604200363159,0.00619697570801,15.3481128216
18,0.828934907913,0.0522441864014,0.0593440532684,0.00512504577637,16.246229887
19,0.825672864914,0.0505230426788,0.0591261386871,0.00495314598083,17.3352749348
20,0.843984127045,0.0511479377747,0.0586409568787,0.00499081611633,18.7573821545
21,0.837304115295,0.0510840415955,0.0618000030518,0.00506806373596,19.2602510452
22,0.813742160797,0.0498580932617,0.0582799911499,0.00494194030762,20.0398790836
23,1.30691409111,0.0508189201355,0.0591249465942,0.00515508651733,20.4223599434
24,0.832101821899,0.0494668483734,0.0592699050903,0.00494790077209,21.4752221107
25,0.831923007965,0.0527679920197,0.0597178936005,0.005038022995,21.9238989353
26,0.827877044678,0.0506291389465,0.0594160556793,0.00494503974915,23.5109171867
27,0.811305761337,0.0507078170776,0.0595300197601,0.00508689880371,23.9763419628
28,0.837064266205,0.050400018692,0.0576860904694,0.00501489639282,25.1238291264
29,0.828514099121,0.0495111942291,0.0608839988708,0.00500202178955,25.8660719395
30,0.844672203064,0.0502769947052,0.0587282180786,0.00503301620483,27.109992981
31,0.823117733002,0.0493950843811,0.0584230422974,0.004958152771,27.2957448959
32,0.834079265594,0.0505330562592,0.0594120025635,0.00491380691528,28.0880980492
33,0.843488931656,0.0520188808441,0.0590550899506,0.00490999221802,28.6281311512
34,0.823400020599,0.0495319366455,0.0598239898682,0.0050151348114,29.5213878155
35,0.837954998016,0.0496129989624,0.0580339431763,0.00489401817322,30.9293658733
36,0.795819044113,0.0498270988464,0.0585191249847,0.00484704971313,31.469835043
37,0.812644004822,0.0486400127411,0.060210943222,0.00505900382996,30.8626770973
38,0.828564882278,0.0526070594788,0.0588037967682,0.00610089302063,33.2692430019
39,0.809186935425,0.0493669509888,0.0582330226898,0.00508189201355,33.6036760807
40,0.820425987244,0.049084186554,0.0595619678497,0.00494909286499,34.7719631195
41,0.806833267212,0.0494649410248,0.059002161026,0.00491309165955,35.6603600979
42,0.812381029129,0.0487928390503,0.0593519210815,0.00496292114258,36.2689960003
43,0.813801050186,0.049164056778,0.0583698749542,0.00497984886169,36.7525718212
44,0.808442115784,0.0490889549255,0.0580899715424,0.00597500801086,38.1901288033
45,0.783829927444,0.0486550331116,0.0591900348663,0.00502896308899,38.1156761646
46,0.823970079422,0.0477550029755,0.0591659545898,0.00493192672729,40.3226671219
47,0.807436227798,0.0486381053925,0.0581629276276,0.00497102737427,40.0045700073
48,0.810063123703,0.0486290454865,0.0593330860138,0.00687599182129,41.5436339378
49,0.785556793213,0.0472540855408,0.0589771270752,0.00488710403442,41.5861418247
50,0.796547889709,0.0488460063934,0.0578119754791,0.00494003295898,41.8293709755
51,0.818577051163,0.0499601364136,0.0599701404572,0.00489783287048,43.8649110794
52,0.803829908371,0.0483028888702,0.0605299472809,0.00725197792053,44.2254760265
53,0.820217132568,0.0498108863831,0.0588760375977,0.00494599342346,45.069712162
54,0.818227052689,0.0491840839386,0.0581090450287,0.00494718551636,45.4455990791
55,0.821131944656,0.0490379333496,0.0584890842438,0.00496912002563,46.7420170307
56,0.846880912781,0.049880027771,0.0591070652008,0.00497007369995,47.9881038666
57,1.17279696465,0.0513870716095,0.0610010623932,0.0052649974823,49.8026471138
58,0.823843955994,0.0506250858307,0.0607531070709,0.00505495071411,50.0165808201
59,0.838274002075,0.0494620800018,0.0618808269501,0.00645804405212,50.8417131901
60,0.838540077209,0.0499670505524,0.0595750808716,0.00493192672729,52.7819058895
61,0.834733247757,0.0496039390564,0.0606939792633,0.00503587722778,52.1789870262
62,0.814863204956,0.0505039691925,0.0589501857758,0.0049250125885,53.7968921661
63,0.840213060379,0.0496428012848,0.0586979389191,0.00497007369995,54.2614808083
64,0.818121910095,0.0505030155182,0.0598328113556,0.00498008728027,54.4423511028
65,0.821738958359,0.0502710342407,0.0616061687469,0.00493717193604,54.4228541851
66,0.835650920868,0.0525619983673,0.0603890419006,0.00490212440491,56.4582989216
67,0.83012509346,0.0503790378571,0.0587539672852,0.00494003295898,56.8602399826
68,0.838670730591,0.0487561225891,0.0590012073517,0.00497603416443,57.9162771702
69,0.817384004593,0.0493941307068,0.0582859516144,0.00661182403564,58.5777151585
70,0.859823942184,0.0513679981232,0.0607759952545,0.00495386123657,60.0918459892
71,0.846009731293,0.050971031189,0.0596680641174,0.00499105453491,60.6644940376
72,0.827341794968,0.0500271320343,0.0599629878998,0.00494313240051,62.1842010021
73,0.834196090698,0.0495228767395,0.0593748092651,0.00504183769226,62.6309430599
74,0.813516378403,0.0493898391724,0.0590071678162,0.00495386123657,62.9032480717
75,0.848799943924,0.0498731136322,0.0588450431824,0.00492405891418,63.9643990993
76,0.838928222656,0.048985004425,0.0596261024475,0.0050208568573,65.8202500343
77,0.832156181335,0.0510098934174,0.0598678588867,0.00506186485291,65.2518289089
78,0.819136142731,0.0489590167999,0.0586450099945,0.00486397743225,67.6764540672
79,0.853303194046,0.0489978790283,0.0627708435059,0.00499391555786,68.1303260326
80,0.830080986023,0.0510139465332,0.0597620010376,0.00499105453491,68.0277709961
81,0.8118288517,0.0488770008087,0.0603621006012,0.00498414039612,69.3357450962
82,0.847346067429,0.052109003067,0.0642218589783,0.00497484207153,70.0627589226
83,0.828644990921,0.0509519577026,0.0591938495636,0.00501894950867,71.9791018963
84,0.847274065018,0.0506091117859,0.0613780021667,0.00491499900818,71.8366448879
85,1.33455514908,0.0518600940704,0.0597610473633,0.00529718399048,72.3352849483
86,0.837963104248,0.0519368648529,0.0592088699341,0.00494194030762,72.9634549618
87,0.827474117279,0.047623872757,0.0610311031342,0.00494909286499,73.7945289612
88,0.810145139694,0.0483901500702,0.05970287323,0.00491118431091,73.9214711189
89,0.857580900192,0.0508279800415,0.0595309734344,0.00501108169556,75.8268139362
90,0.836858987808,0.0498430728912,0.05943608284,0.00527787208557,76.7477810383
91,0.843649864197,0.0515611171722,0.060142993927,0.00542116165161,78.5886890888
92,0.846840143204,0.0506370067596,0.0596981048584,0.00495600700378,79.0159111023
93,0.831305027008,0.0503649711609,0.0606949329376,0.00502586364746,79.4200689793
94,0.828075885773,0.0518350601196,0.0596599578857,0.00500297546387,80.4019370079
95,0.82830119133,0.051647901535,0.0600669384003,0.00493097305298,82.6375100613
96,0.836425065994,0.0481870174408,0.0590450763702,0.00481295585632,81.5840709209
97,0.824892044067,0.0476989746094,0.0636098384857,0.00531196594238,82.166369915
98,0.82645201683,0.0496101379395,0.0613079071045,0.00505208969116,82.5235760212
99,0.83259677887,0.049880027771,0.0597469806671,0.0048520565033,84.2091641426
