step,run,get,set,free,run_up_to_step
0,0.134223937988,0.00677514076233,0.00597190856934,0.00122904777527,0.135232925415
1,0.135307073593,0.00607991218567,0.00543904304504,0.00110983848572,0.282810926437
2,0.133287906647,0.00529599189758,0.00556707382202,0.00134491920471,0.421596050262
3,0.163124799728,0.00587511062622,0.00547313690186,0.00114393234253,0.542609930038
4,0.132148981094,0.00559186935425,0.00566101074219,0.0011899471283,1.11719989777
5,0.131945133209,0.00598406791687,0.00593590736389,0.00138306617737,0.818906068802
6,0.191140890121,0.00580096244812,0.00613617897034,0.00120091438293,0.941909074783
7,0.135406970978,0.00601196289062,0.0055980682373,0.00107002258301,1.07734012604
8,0.140794038773,0.00675821304321,0.00555801391602,0.0013120174408,1.22801589966
9,0.136562824249,0.00582790374756,0.00531315803528,0.00108695030212,1.34577298164
10,0.133254051208,0.00578379631042,0.00556492805481,0.00140786170959,1.52319502831
11,0.168568849564,0.00616407394409,0.00561499595642,0.00125408172607,1.64226794243
12,0.139842033386,0.00594401359558,0.00602221488953,0.00133991241455,1.82516789436
13,0.173215150833,0.00688886642456,0.00552701950073,0.0012640953064,2.77854609489
14,0.159730911255,0.00597786903381,0.00556111335754,0.00129222869873,2.05018210411
15,0.135775089264,0.00618982315063,0.0057110786438,0.00129318237305,2.18643784523
16,0.137005090714,0.00585508346558,0.00550222396851,0.00119614601135,2.78720903397
17,0.137166023254,0.00618696212769,0.00558710098267,0.00128293037415,2.47720789909
18,0.13645529747,0.00588321685791,0.00599980354309,0.00137591362,2.92331910133
19,0.136463880539,0.00616693496704,0.00606894493103,0.00155305862427,2.76907992363
20,0.13222694397,0.00540089607239,0.00544214248657,0.00154614448547,3.49052810669
21,0.172966003418,0.00536179542542,0.00554800033569,0.00138211250305,3.44092512131
22,0.132684230804,0.00541996955872,0.00554895401001,0.00128388404846,3.68992090225
23,0.133339166641,0.00566506385803,0.00578618049622,0.00141787528992,3.75195407867
24,0.13206577301,0.00531792640686,0.00554895401001,0.00126886367798,3.9369661808
25,0.132780075073,0.00607991218567,0.00553798675537,0.0012948513031,3.54369401932
26,0.150097846985,0.00600409507751,0.00563192367554,0.0013689994812,4.23709106445
27,0.137643098831,0.00611782073975,0.00549697875977,0.00122404098511,3.83773612976
28,0.143162965775,0.00585508346558,0.00561618804932,0.00159001350403,4.31040692329
29,0.141443252563,0.00549006462097,0.00538516044617,0.00124192237854,4.50069689751
30,0.135084867477,0.00586819648743,0.00563192367554,0.00156092643738,4.27697610855
31,0.159305095673,0.00687694549561,0.00562906265259,0.00141596794128,4.87507104874
32,0.133176088333,0.0060088634491,0.00617980957031,0.00146698951721,4.59285092354
33,0.131903171539,0.00538182258606,0.00563406944275,0.00129699707031,5.37321996689
34,0.848685026169,0.00670886039734,0.00572395324707,0.00132203102112,5.02268195152
35,0.138698816299,0.00549697875977,0.00569105148315,0.0012800693512,5.15733885765
36,0.131175041199,0.00543808937073,0.00593709945679,0.00133991241455,5.48835110664
37,0.139276981354,0.00555205345154,0.00561904907227,0.00130796432495,5.75957608223
38,0.132134914398,0.00543999671936,0.00549793243408,0.00121998786926,6.12002897263
39,0.141978025436,0.00582003593445,0.00560617446899,0.001296043396,6.2141058445
40,0.134250879288,0.00542783737183,0.00582814216614,0.00124979019165,6.23586010933
41,0.133099794388,0.00564193725586,0.00562596321106,0.0012800693512,6.20139098167
42,0.156033277512,0.00556993484497,0.0055890083313,0.00127601623535,6.38237190247
43,0.135699033737,0.00547409057617,0.00578808784485,0.00129294395447,6.44061207771
44,0.159774065018,0.00598216056824,0.00605320930481,0.00126194953918,6.54541611671
45,0.134742021561,0.0054349899292,0.00565409660339,0.00128078460693,6.66576099396
46,0.135004997253,0.00548219680786,0.00559782981873,0.00130295753479,6.94315004349
47,0.132461071014,0.00523996353149,0.00562405586243,0.00124907493591,6.90702700615
48,0.501283884048,0.00605702400208,0.00589299201965,0.00139307975769,7.0862030983
49,0.133450984955,0.00543904304504,0.00569295883179,0.00131988525391,7.34392404556
50,0.135308027267,0.00535607337952,0.00555801391602,0.00166606903076,7.38288497925
51,0.133229255676,0.00538897514343,0.00575995445251,0.00143814086914,7.85408186913
52,0.131866931915,0.00529003143311,0.0055558681488,0.00131416320801,7.99407196045
53,0.166106939316,0.00529313087463,0.00554394721985,0.00121903419495,8.05791115761
54,0.138365983963,0.00570797920227,0.00605010986328,0.00143790245056,8.19342303276
55,0.131899833679,0.0053448677063,0.00548696517944,0.00131702423096,8.23721694946
56,0.140017032623,0.0058741569519,0.00560903549194,0.00146508216858,8.29539895058
57,0.141364097595,0.00551295280457,0.00533604621887,0.00122499465942,8.41265296936
58,0.132648229599,0.00534105300903,0.00560688972473,0.00126004219055,8.84375190735
59,0.162134885788,0.00643086433411,0.00579285621643,0.00133299827576,8.62940692902
60,0.133807897568,0.00599980354309,0.00556111335754,0.00127696990967,9.07528281212
61,0.135180711746,0.00539898872375,0.00557804107666,0.00127387046814,9.19809985161
62,0.139914989471,0.00545883178711,0.00561904907227,0.00127506256104,9.12396407127
63,0.136528253555,0.00539112091064,0.00603699684143,0.00153207778931,9.51630592346
64,0.140614032745,0.00558686256409,0.0056459903717,0.00130581855774,9.32300806046
65,0.138714075089,0.00549793243408,0.00585508346558,0.00129699707031,9.78280091286
66,0.136937141418,0.00559782981873,0.00628805160522,0.00141310691833,9.53054380417
67,0.132094860077,0.0055558681488,0.00581693649292,0.00135612487793,9.69259405136
68,0.162671089172,0.00542402267456,0.00537300109863,0.00127100944519,10.0781369209
69,0.133382797241,0.00539803504944,0.00551390647888,0.00138306617737,10.4517769814
70,0.150081157684,0.00546813011169,0.00554084777832,0.00130200386047,10.5310299397
71,0.136250972748,0.00545597076416,0.00566792488098,0.00135898590088,10.4350578785
72,0.136616230011,0.00573396682739,0.00546503067017,0.00124096870422,10.6473460197
73,0.134668111801,0.00546908378601,0.00622797012329,0.00171780586243,10.7391960621
74,0.138473033905,0.005695104599,0.00582909584045,0.00182390213013,11.9994921684
75,0.133456945419,0.005450963974,0.00592803955078,0.00131487846375,11.0502319336
76,0.14342212677,0.00723814964294,0.00553488731384,0.00127816200256,10.7875788212
77,0.148483037949,0.00662589073181,0.00552582740784,0.00127005577087,11.3301689625
78,0.135936260223,0.00547194480896,0.0059289932251,0.0023980140686,11.787997961
79,0.13317489624,0.00556302070618,0.00571298599243,0.00130891799927,11.9138491154
80,0.135917186737,0.00538682937622,0.00573897361755,0.00130414962769,12.1581029892
81,0.144730091095,0.00573301315308,0.00582599639893,0.0014169216156,12.2864358425
82,0.139329910278,0.00547790527344,0.00574779510498,0.00132179260254,12.0058870316
83,0.152060270309,0.0058970451355,0.00562787055969,0.00131797790527,12.0886530876
84,0.143625974655,0.00654888153076,0.00578498840332,0.00126504898071,13.0568709373
85,0.136324882507,0.00561285018921,0.0115978717804,0.00138592720032,12.629226923
86,0.136868000031,0.00549697875977,0.00563192367554,0.00130796432495,12.7168130875
87,0.138561964035,0.00555086135864,0.00610995292664,0.00137615203857,13.0611419678
88,0.168028116226,0.00588297843933,0.00561118125916,0.00129914283752,13.2011420727
89,0.13841509819,0.00589895248413,0.00570487976074,0.0012469291687,13.1054370403
90,0.136083126068,0.00568199157715,0.00735807418823,0.0017728805542,13.5478770733
91,0.155931949615,0.00628900527954,0.00565600395203,0.00140190124512,14.1200759411
92,0.144691228867,0.0058012008667,0.00561499595642,0.00147700309753,13.6936969757
93,0.134611845016,0.00546288490295,0.00563812255859,0.00130605697632,13.7312810421
94,0.13516497612,0.00549006462097,0.00597596168518,0.0014910697937,13.7521059513
95,0.138781785965,0.00546097755432,0.00558018684387,0.00128602981567,14.4655909538
96,0.135938882828,0.00554800033569,0.00554704666138,0.00127005577087,14.0106930733
97,0.14865732193,0.00589609146118,0.00592803955078,0.00138902664185,14.0164380074
98,0.138992786407,0.00548410415649,0.00535297393799,0.00122404098511,14.6509311199
99,0.135198831558,0.00573301315308,0.00543308258057,0.00129890441895,14.9377789497
