step,run,get,set,free,run_up_to_step
0,0.249882221222,0.0109062194824,0.0104508399963,0.00114798545837,0.24196600914
1,0.239314079285,0.010066986084,0.0102319717407,0.00111413002014,0.501611948013
2,0.25039100647,0.00972890853882,0.0100021362305,0.00110292434692,0.744974136353
3,0.247137784958,0.00941705703735,0.0103480815887,0.00116300582886,1.34264302254
4,0.251783132553,0.00969910621643,0.0104417800903,0.00144696235657,1.23473310471
5,0.25137090683,0.010901927948,0.00995087623596,0.00110292434692,1.49958586693
6,0.252541780472,0.00995397567749,0.0101201534271,0.00118184089661,1.72529506683
7,0.247018098831,0.00962901115417,0.0101490020752,0.00119113922119,2.56227302551
8,0.24627995491,0.0102870464325,0.0104820728302,0.00118184089661,2.21468901634
9,0.250946044922,0.0100259780884,0.0101180076599,0.00113582611084,2.4637389183
10,0.242938041687,0.00953888893127,0.0103161334991,0.0013370513916,2.70692300797
11,0.249203920364,0.00949907302856,0.00974798202515,0.00119400024414,3.49503993988
12,0.250419139862,0.0101189613342,0.0102410316467,0.00117111206055,3.21665096283
13,0.512204647064,0.00990319252014,0.00991106033325,0.0012149810791,3.38736796379
14,0.24205994606,0.00936913490295,0.0105521678925,0.00114393234253,3.82653999329
15,0.253341913223,0.0101501941681,0.0107209682465,0.0014181137085,3.93619990349
16,0.242953062057,0.0102779865265,0.0103769302368,0.00115394592285,4.21044802666
17,0.247221946716,0.0102679729462,0.0102889537811,0.00116419792175,4.47377181053
18,0.252879142761,0.0101490020752,0.0100350379944,0.0015070438385,4.75534796715
19,0.25186085701,0.0105359554291,0.0100779533386,0.00115489959717,4.95847892761
20,0.250112771988,0.010213136673,0.0104298591614,0.00117897987366,5.15780282021
21,0.241645097733,0.00947999954224,0.0102069377899,0.00108289718628,5.61286187172
22,0.242764949799,0.00970602035522,0.01025390625,0.00114989280701,5.80508518219
23,0.56933426857,0.00992798805237,0.010153055191,0.00165104866028,5.76707601547
24,0.239510059357,0.00996613502502,0.0100328922272,0.00109601020813,6.39542794228
25,0.249861001968,0.0103960037231,0.00999903678894,0.00128698348999,6.43944191933
26,0.248064041138,0.00935411453247,0.0104420185089,0.00118398666382,6.80281686783
27,0.252665042877,0.00942182540894,0.0132989883423,0.00116395950317,7.26857209206
28,0.254883050919,0.00962686538696,0.0100958347321,0.0011100769043,7.38498783112
29,0.24831199646,0.00959706306458,0.00996708869934,0.00116610527039,7.6886510849
30,0.250378131866,0.00962805747986,0.0100069046021,0.00118708610535,8.22675204277
31,0.250360012054,0.00942182540894,0.0100629329681,0.00115609169006,8.36952400208
32,0.255606889725,0.00962901115417,0.010125875473,0.00121712684631,8.74294996262
33,0.251987934113,0.00966906547546,0.0104110240936,0.00115609169006,8.82010602951
34,0.25496006012,0.0097439289093,0.0100331306458,0.00116896629333,9.06288599968
35,0.254162788391,0.00949692726135,0.0105810165405,0.00116991996765,9.28466200829
36,0.254379987717,0.00949096679688,0.0100419521332,0.00116419792175,9.49771690369
37,0.257821083069,0.00950503349304,0.0100729465485,0.00115895271301,9.69880199432
38,0.258697032928,0.00976181030273,0.0103349685669,0.00117611885071,9.96183109283
39,0.252884864807,0.0102560520172,0.0104429721832,0.00122308731079,10.1709640026
40,0.243448972702,0.0096480846405,0.00999712944031,0.00118398666382,10.810819149
41,0.255922794342,0.00980687141418,0.0102071762085,0.00121402740479,10.6588640213
42,0.257490158081,0.00984692573547,0.0103740692139,0.00118207931519,11.3148510456
43,0.25698184967,0.00971078872681,0.00999283790588,0.00117516517639,11.5040910244
44,0.250421047211,0.00974702835083,0.00994896888733,0.00114679336548,11.3666770458
45,0.253752946854,0.00969219207764,0.0101330280304,0.00117301940918,12.0486359596
46,0.252696275711,0.00955200195312,0.0101239681244,0.00114703178406,12.0005187988
47,0.248981952667,0.00946116447449,0.0103399753571,0.00117993354797,12.446655035
48,0.254728078842,0.00961995124817,0.00991678237915,0.0011830329895,12.7297329903
49,0.25372338295,0.0100338459015,0.0100131034851,0.00154709815979,12.845184803
50,0.253175973892,0.00989985466003,0.00995397567749,0.00115513801575,12.7783131599
51,0.250105142593,0.00948214530945,0.010204076767,0.00115203857422,13.1037149429
52,0.25638794899,0.0101118087769,0.0100739002228,0.00154495239258,13.4346051216
53,0.25262594223,0.0095682144165,0.0104949474335,0.00116991996765,13.7270572186
54,0.256302118301,0.00974416732788,0.0101490020752,0.00114488601685,13.8719661236
55,0.252705097198,0.00972890853882,0.0100381374359,0.00116920471191,13.9495179653
56,0.255473852158,0.00973892211914,0.00983214378357,0.00119614601135,14.4397370815
57,0.555834054947,0.0104410648346,0.0108761787415,0.00141501426697,14.8042621613
58,0.255379676819,0.00977897644043,0.0100920200348,0.00114917755127,15.2839031219
59,0.252323150635,0.00974488258362,0.0103490352631,0.00150394439697,15.3668129444
60,0.254526138306,0.00952506065369,0.010124206543,0.00115704536438,15.3550229073
61,0.253741025925,0.00984001159668,0.0102601051331,0.00118684768677,15.9736421108
62,0.255736112595,0.0096549987793,0.0100960731506,0.00114989280701,16.116615057
63,0.249922990799,0.0096549987793,0.0102970600128,0.00120687484741,16.4182579517
64,0.252135276794,0.00950813293457,0.00999808311462,0.00115203857422,16.7946250439
65,0.252084970474,0.00970101356506,0.0100798606873,0.0011510848999,16.8860919476
66,0.25049495697,0.00962400436401,0.0106921195984,0.0011510848999,17.0105679035
67,0.251653909683,0.00960493087769,0.0102438926697,0.00115990638733,17.4020659924
68,0.253417015076,0.00946497917175,0.00993514060974,0.00113391876221,17.8721671104
69,0.254526853561,0.00989103317261,0.0102388858795,0.0011579990387,17.9414610863
70,0.254477739334,0.00952196121216,0.010146856308,0.00117707252502,18.3902971745
71,0.253528118134,0.0101139545441,0.0100610256195,0.00119495391846,18.2931880951
72,0.618379831314,0.0103199481964,0.0100121498108,0.00144910812378,18.3736929893
73,0.248814821243,0.00952196121216,0.0100660324097,0.00115394592285,18.8144397736
74,0.249213218689,0.00975394248962,0.0101811885834,0.00115013122559,19.0851910114
75,0.25263428688,0.00953412055969,0.00994801521301,0.00113916397095,19.3722639084
76,0.25643825531,0.00959897041321,0.0101990699768,0.00113320350647,19.9176018238
77,0.2511241436,0.00938081741333,0.0100531578064,0.00115299224854,20.0141899586
78,0.253233194351,0.00983881950378,0.0099790096283,0.00112795829773,20.4756860733
79,0.258738279343,0.00973796844482,0.010026216507,0.00116801261902,20.6877560616
80,0.254248857498,0.00949811935425,0.00989890098572,0.00114011764526,20.7173190117
81,0.239694833755,0.00929498672485,0.0105350017548,0.00112509727478,20.5105888844
82,0.248680830002,0.00945615768433,0.0100390911102,0.0011510848999,20.5310368538
83,0.253812074661,0.009596824646,0.0116879940033,0.00138306617737,21.3184919357
84,0.242099046707,0.00951790809631,0.00987195968628,0.00113701820374,21.382737875
85,0.249509096146,0.00944781303406,0.0101201534271,0.00114011764526,21.3810379505
86,0.239925861359,0.00949501991272,0.00986003875732,0.00117516517639,21.5672879219
87,0.245563983917,0.00975394248962,0.010223865509,0.00117206573486,21.7250649929
88,0.239806175232,0.00962901115417,0.0100569725037,0.00140595436096,21.8934087753
89,0.23955988884,0.00933194160461,0.0103139877319,0.00120306015015,22.0920159817
90,0.250402927399,0.00991606712341,0.0103869438171,0.00135588645935,22.3757970333
91,0.239842176437,0.0102691650391,0.0102188587189,0.00112891197205,22.5596721172
92,0.240097045898,0.00980401039124,0.0100650787354,0.00120520591736,22.8861219883
93,0.238252878189,0.00928401947021,0.00991082191467,0.00114989280701,22.9220509529
94,0.239879131317,0.00992894172668,0.0102310180664,0.0011830329895,23.4630188942
95,0.244559049606,0.00943303108215,0.0102880001068,0.0011670589447,23.9410510063
96,0.237039089203,0.00918006896973,0.0105118751526,0.00114107131958,23.8269901276
97,0.256245136261,0.00987195968628,0.0107610225677,0.00118803977966,24.564330101
98,0.238659143448,0.00979208946228,0.0102739334106,0.00115394592285,24.1005370617
99,0.245580911636,0.0091769695282,0.00998306274414,0.00110912322998,24.5024650097
