step,run,get,set,free,run_up_to_step
0,0.301932096481,0.00489497184753,0.00554895401001,0.0012481212616,0.325263977051
1,0.293618917465,0.00480890274048,0.00561690330505,0.00124311447144,0.629125833511
2,0.297816038132,0.0050950050354,0.00558495521545,0.00125002861023,0.90748000145
3,0.869447946548,0.00514888763428,0.00556683540344,0.00126600265503,1.2085340023
4,0.293283939362,0.00545501708984,0.00557589530945,0.00125408172607,1.50395083427
5,0.294178962708,0.00534892082214,0.00559902191162,0.00125408172607,1.80930519104
6,0.291317939758,0.00510597229004,0.00555086135864,0.00125193595886,2.10618495941
7,0.297752141953,0.00544691085815,0.00562381744385,0.0012800693512,2.40002202988
8,1.01052999496,0.00527000427246,0.00565099716187,0.00126194953918,2.7300620079
9,0.296653985977,0.00547409057617,0.0057110786438,0.00125312805176,2.98580813408
10,0.298869848251,0.00515794754028,0.0055558681488,0.00125193595886,3.63699698448
11,0.29573392868,0.00519704818726,0.00553798675537,0.00124883651733,3.57280302048
12,0.291501045227,0.0051441192627,0.00554990768433,0.00125193595886,4.4192481041
13,0.300488948822,0.00487995147705,0.00571584701538,0.00148320198059,4.21188688278
14,0.300717830658,0.0048668384552,0.00558280944824,0.00131011009216,4.50191187859
15,0.726340770721,0.00497388839722,0.00557804107666,0.00127100944519,4.89252400398
16,0.298558950424,0.00537800788879,0.00555610656738,0.00125098228455,5.04731702805
17,0.295246124268,0.00497817993164,0.00555396080017,0.00139999389648,6.35301184654
18,0.312865018845,0.00482797622681,0.00580286979675,0.00125312805176,5.62120509148
19,0.298514127731,0.00529503822327,0.00559592247009,0.00125098228455,6.92199492455
20,0.299181222916,0.00482177734375,0.00557398796082,0.001305103302,7.09087610245
21,0.301625013351,0.00540399551392,0.00553488731384,0.00127696990967,6.81898903847
22,0.294045686722,0.00513792037964,0.00561904907227,0.00130009651184,7.45519781113
23,0.300562143326,0.00536513328552,0.00560903549194,0.00129103660583,7.12489509583
24,0.309518814087,0.00527501106262,0.00556206703186,0.00127601623535,7.46344208717
25,0.294555902481,0.00493717193604,0.00555610656738,0.00124907493591,8.63282179832
26,0.306999206543,0.00529408454895,0.00554609298706,0.00127911567688,8.07226705551
27,0.293811798096,0.00493311882019,0.00555491447449,0.00124907493591,8.62617206573
28,0.300892114639,0.00485396385193,0.00558686256409,0.0012538433075,9.47457098961
29,0.299446821213,0.00479912757874,0.00562286376953,0.00125217437744,10.1218829155
30,0.293581008911,0.00510287284851,0.00557494163513,0.00124788284302,10.1620731354
31,0.309095859528,0.00485801696777,0.00554609298706,0.00125002861023,9.96173214912
32,0.309708833694,0.00516104698181,0.00560784339905,0.00124907493591,10.8351399899
33,0.307947874069,0.00522208213806,0.0057110786438,0.00142407417297,10.5472619534
34,0.298719882965,0.00537014007568,0.00554609298706,0.0012481212616,10.7137420177
35,0.295300960541,0.00499606132507,0.0056369304657,0.00125098228455,11.0892729759
36,0.297451734543,0.00520896911621,0.00557088851929,0.00124788284302,11.8928780556
37,0.299167871475,0.00522804260254,0.0056300163269,0.00125312805176,11.7090408802
38,0.295601129532,0.00535702705383,0.00555205345154,0.00124883651733,11.6393148899
39,0.30305314064,0.00530505180359,0.00554704666138,0.00127696990967,12.0861010551
40,0.310310840607,0.00520300865173,0.00554704666138,0.00124883651733,12.6447579861
41,0.300983905792,0.00837898254395,0.00578999519348,0.00125503540039,12.6751761436
42,0.312693119049,0.00511908531189,0.00558686256409,0.00139498710632,13.9118971825
43,0.293768167496,0.00495314598083,0.00557780265808,0.0012481212616,13.5324029922
44,0.299015045166,0.00487017631531,0.00558996200562,0.00125503540039,14.0055468082
45,0.293153047562,0.00496482849121,0.00571799278259,0.0012469291687,14.1545679569
46,0.292235851288,0.00521898269653,0.00554609298706,0.00129914283752,14.3067069054
47,0.31635594368,0.00510787963867,0.00561189651489,0.00130701065063,14.4723641872
48,0.29745388031,0.00488781929016,0.00557994842529,0.00127506256104,15.7703671455
49,0.293627738953,0.00491213798523,0.00554084777832,0.0012469291687,15.2139480114
50,0.294948816299,0.00504088401794,0.00558996200562,0.00129699707031,15.486123085
51,0.310431957245,0.00516080856323,0.00554609298706,0.00127792358398,15.6645150185
52,0.298476934433,0.00520801544189,0.00556802749634,0.00125002861023,16.4911711216
53,0.311840057373,0.00490212440491,0.00557994842529,0.00130319595337,16.4717388153
54,0.297547101974,0.00513100624084,0.0055410861969,0.00124883651733,16.7139317989
55,0.306748867035,0.00503087043762,0.0055980682373,0.00127696990967,17.5537381172
56,0.292064905167,0.00483393669128,0.00558614730835,0.00127506256104,17.6440429688
57,0.295741081238,0.00526595115662,0.00556802749634,0.00124597549438,17.4743390083
58,0.307787895203,0.00527596473694,0.00569987297058,0.00130295753479,17.6849689484
59,0.295931100845,0.00516200065613,0.00566005706787,0.00125098228455,18.6398501396
60,0.295933008194,0.00528407096863,0.00557494163513,0.0012629032135,18.8681800365
61,0.295165777206,0.00516200065613,0.00552701950073,0.00125098228455,18.716520071
62,0.306177854538,0.00495982170105,0.00555109977722,0.00134301185608,20.1605319977
63,0.30101275444,0.0049409866333,0.00556397438049,0.0012469291687,19.5226540565
64,0.29701590538,0.00480198860168,0.00569701194763,0.00125598907471,19.9463319778
65,0.2958548069,0.0051748752594,0.00558686256409,0.00127911567688,20.3620231152
66,0.7234582901,0.00541687011719,0.00570201873779,0.00131297111511,20.2996628284
67,0.291590213776,0.00489783287048,0.00555014610291,0.00126481056213,20.8616170883
68,0.300410032272,0.00482797622681,0.00555396080017,0.00125288963318,22.0358610153
69,0.299022912979,0.00485801696777,0.00554394721985,0.00125694274902,20.9659879208
70,0.302036046982,0.0048770904541,0.00557088851929,0.00125503540039,22.6595830917
71,0.291465759277,0.00493502616882,0.00558686256409,0.00126791000366,21.8516469002
72,0.294692993164,0.00510907173157,0.00570917129517,0.00125193595886,22.2211551666
73,0.297509908676,0.00487899780273,0.00559902191162,0.00144195556641,23.7135550976
74,0.297377824783,0.00512194633484,0.00561189651489,0.00125193595886,22.3637471199
75,0.294038057327,0.00510597229004,0.00553894042969,0.0012788772583,24.2048380375
76,0.298537015915,0.00508785247803,0.00561594963074,0.00128793716431,23.6527838707
77,0.299336910248,0.00503206253052,0.00554013252258,0.00125288963318,25.2878940105
78,0.294048786163,0.00496602058411,0.00562691688538,0.00124406814575,24.0965619087
79,0.304888010025,0.00481104850769,0.00560402870178,0.00125098228455,25.219176054
80,0.299818992615,0.00504207611084,0.00574707984924,0.00127601623535,25.2718901634
81,0.310915231705,0.00496387481689,0.00554013252258,0.00127696990967,26.2883119583
82,0.312811136246,0.00486588478088,0.00553607940674,0.00125098228455,24.9382369518
83,0.298692941666,0.00528812408447,0.00552010536194,0.00124883651733,26.3270969391
84,0.301846265793,0.00508594512939,0.00560593605042,0.00124907493591,26.1541039944
85,0.295008182526,0.00511693954468,0.00556015968323,0.00127696990967,27.2920560837
86,0.294312953949,0.00511312484741,0.00565195083618,0.00124907493591,26.7204070091
87,0.30180978775,0.0048360824585,0.00555205345154,0.00125789642334,27.1921830177
88,0.306423902512,0.005038022995,0.00583696365356,0.00125312805176,28.0977501869
89,0.294824123383,0.00498485565186,0.00566792488098,0.00125098228455,28.5764460564
90,0.30929517746,0.00481200218201,0.00557398796082,0.0012469291687,27.6272909641
91,0.30012011528,0.00519299507141,0.00553894042969,0.00127911567688,27.8109140396
92,0.294006109238,0.00529599189758,0.00554013252258,0.00132012367249,28.2230210304
93,0.293820858002,0.00501108169556,0.00557994842529,0.00129699707031,28.5058288574
94,0.309355974197,0.00487494468689,0.00562191009521,0.00125694274902,28.80387187
95,0.294438123703,0.00491809844971,0.00560879707336,0.00125098228455,28.9854381084
96,0.296421766281,0.00486302375793,0.00558710098267,0.0012469291687,30.5980610847
97,0.297932863235,0.00496315956116,0.00560903549194,0.00130200386047,30.2988519669
98,0.29474902153,0.00491619110107,0.00559592247009,0.00130391120911,30.0052709579
99,0.296761035919,0.00479507446289,0.00553798675537,0.00124502182007,30.2350780964
