step,run,get,set,free,run_up_to_step
0,0.158810138702,0.00673580169678,0.00645208358765,0.00146293640137,0.16049695015
1,0.160161018372,0.0064811706543,0.00857400894165,0.00173401832581,0.333807945251
2,0.16649723053,0.00600099563599,0.00658798217773,0.00171303749084,0.549111127853
3,0.161307811737,0.00643706321716,0.0067400932312,0.00153112411499,0.713531970978
4,0.160185098648,0.00668001174927,0.00654792785645,0.00148797035217,0.910269021988
5,0.184517145157,0.00638794898987,0.00635409355164,0.00143194198608,1.09566402435
6,0.157617092133,0.00619888305664,0.00639581680298,0.00145316123962,1.13043498993
7,0.158349990845,0.00619006156921,0.00642609596252,0.00141501426697,1.28748512268
8,0.165525913239,0.00629496574402,0.00659608840942,0.0016930103302,1.83875584602
9,0.172830820084,0.00689196586609,0.00656008720398,0.00163507461548,1.77338886261
10,0.163748979568,0.00685477256775,0.00676894187927,0.00165295600891,1.7546248436
11,0.157459259033,0.00614905357361,0.00639414787292,0.00142788887024,2.25232481956
12,0.180565834045,0.00666213035583,0.00780510902405,0.00184607505798,2.43237805367
13,0.173507928848,0.00696015357971,0.00682997703552,0.00172805786133,3.15776515007
14,0.158270835876,0.00655794143677,0.00663614273071,0.00143694877625,2.40777993202
15,0.177415132523,0.00700283050537,0.00694298744202,0.00176501274109,2.78083395958
16,0.162236690521,0.00692105293274,0.00652503967285,0.00158500671387,2.78267884254
17,0.175314903259,0.00732707977295,0.00767588615417,0.00174403190613,3.05906105042
18,0.164209127426,0.00683116912842,0.00774002075195,0.00153303146362,3.06261992455
19,0.173345088959,0.00799202919006,0.00683784484863,0.00166583061218,3.36655902863
20,0.157576084137,0.00640606880188,0.00657296180725,0.00151300430298,4.26390504837
21,0.166218996048,0.00670719146729,0.00657415390015,0.00169897079468,3.5599398613
22,0.154616832733,0.0062620639801,0.00660395622253,0.0014591217041,3.94671320915
23,0.163327217102,0.0063099861145,0.00672006607056,0.0014660358429,4.18757486343
24,0.157608985901,0.00630617141724,0.00675821304321,0.00153088569641,4.43083882332
25,0.15690612793,0.00649785995483,0.029247045517,0.00179696083069,4.50781607628
26,0.15519618988,0.0060818195343,0.00690698623657,0.00154900550842,4.83082413673
27,0.156696081161,0.00667810440063,0.00693607330322,0.00148701667786,4.59329199791
28,0.158800125122,0.00607395172119,0.00661015510559,0.00164413452148,5.26323390007
29,0.155447244644,0.00619101524353,0.0064709186554,0.00146412849426,4.77782893181
30,0.154565095901,0.00615382194519,0.00657320022583,0.00145816802979,5.47676992416
31,0.181825876236,0.00644111633301,0.00648307800293,0.00144815444946,5.40917897224
32,0.158668041229,0.00643396377563,0.00673604011536,0.00169992446899,5.78884315491
33,0.155477762222,0.00626993179321,0.00701212882996,0.00162982940674,5.65477991104
34,0.158019065857,0.0061149597168,0.00732421875,0.00173807144165,7.18211698532
35,0.159840106964,0.00682783126831,0.00700402259827,0.00163197517395,6.30308413506
36,0.160111904144,0.00729298591614,0.00691604614258,0.00158405303955,6.72418689728
37,0.163136959076,0.00651502609253,0.00662183761597,0.00167202949524,6.42378783226
38,0.155272245407,0.00628113746643,0.00697708129883,0.00154900550842,6.51098799706
39,0.161448001862,0.00642800331116,0.00707101821899,0.00183582305908,6.70533204079
40,0.158116102219,0.00706601142883,0.00700902938843,0.00159788131714,6.85326600075
41,0.15438914299,0.00625801086426,0.00699901580811,0.00158596038818,7.2417781353
42,0.166396856308,0.00708603858948,0.00740694999695,0.00185894966125,8.47740411758
43,0.18262720108,0.00697112083435,0.00734400749207,0.00159907341003,7.6836271286
44,0.155966043472,0.00621104240417,0.00758099555969,0.00180292129517,8.04223704338
45,0.169746875763,0.00699496269226,0.00645709037781,0.00146102905273,8.08097910881
46,0.160454034805,0.00631093978882,0.00669407844543,0.00146198272705,8.69275093079
47,0.161077976227,0.00714802742004,0.00683784484863,0.00144791603088,8.18385982513
48,0.171578884125,0.00659894943237,0.00724101066589,0.00161194801331,8.62428998947
49,0.158968925476,0.00671696662903,0.0068039894104,0.00166893005371,9.14286398888
50,0.15695810318,0.00784015655518,0.00724196434021,0.00148701667786,8.80979204178
51,0.492431163788,0.00633192062378,0.0068461894989,0.00163292884827,8.80050706863
52,0.161799907684,0.00673604011536,0.00689005851746,0.00156211853027,9.13443994522
53,0.18292593956,0.00707411766052,0.00682997703552,0.00159502029419,10.0086209774
54,0.196668863297,0.00692200660706,0.00760197639465,0.00148105621338,9.56799912453
55,0.161768198013,0.00699281692505,0.00699687004089,0.00148987770081,9.85876107216
56,0.164722919464,0.00700211524963,0.00778412818909,0.00171184539795,9.58881998062
57,0.226197719574,0.00709509849548,0.00742101669312,0.00184202194214,10.8250949383
58,0.169149875641,0.00645518302917,0.0073549747467,0.00191402435303,10.3423860073
59,0.165391921997,0.00742602348328,0.00713300704956,0.00162100791931,9.90086698532
60,0.167599916458,0.00697708129883,0.00680685043335,0.00155591964722,10.6227328777
61,0.165409803391,0.00687098503113,0.00712704658508,0.00201177597046,10.6262710094
62,0.177802085876,0.00676608085632,0.00722908973694,0.00188207626343,10.7958679199
63,0.156771183014,0.0064799785614,0.00660705566406,0.00143814086914,10.9843988419
64,0.180901765823,0.00670003890991,0.00692105293274,0.00169706344604,11.5243840218
65,0.15506696701,0.00684905052185,0.00676202774048,0.00170803070068,11.3244678974
66,0.155853271484,0.00646901130676,0.0071280002594,0.00153589248657,11.6420669556
67,0.161063194275,0.00645804405212,0.00663590431213,0.00148415565491,11.702121973
68,0.157268047333,0.00663805007935,0.00718116760254,0.00151205062866,11.8707830906
69,0.159242868423,0.0070469379425,0.00705695152283,0.00151801109314,12.456099987
70,0.159309864044,0.00639915466309,0.00774002075195,0.00179100036621,12.4256808758
71,0.156487941742,0.00694012641907,0.00696492195129,0.00201010704041,12.1381900311
72,0.188168048859,0.00699305534363,0.00665807723999,0.00151801109314,13.0245740414
73,0.158617734909,0.0068838596344,0.00713610649109,0.00183796882629,12.6275529861
74,0.160581111908,0.00698304176331,0.00666689872742,0.0014750957489,12.7672481537
75,0.169682025909,0.00660014152527,0.00665497779846,0.00145483016968,12.7966201305
76,0.282172203064,0.00664710998535,0.00661206245422,0.00144600868225,13.7762329578
77,0.16223025322,0.00640487670898,0.00733089447021,0.00174713134766,13.1725678444
78,0.160305023193,0.00642204284668,0.00679111480713,0.00180101394653,13.3532528877
79,0.160219192505,0.00645995140076,0.00677514076233,0.0014808177948,13.4689729214
80,0.187517881393,0.00731992721558,0.00729894638062,0.00145506858826,14.820401907
81,0.162104129791,0.00648093223572,0.00700998306274,0.00152707099915,14.0244569778
82,0.19632601738,0.00657105445862,0.00693798065186,0.00159001350403,15.0614948273
83,0.15506196022,0.00637292861938,0.00668692588806,0.00145697593689,14.0305290222
84,0.161652088165,0.00645303726196,0.0070469379425,0.00187993049622,14.3010640144
85,0.156944036484,0.00672316551208,0.00712704658508,0.0015389919281,14.855312109
86,0.155662059784,0.00677394866943,0.00682711601257,0.00153803825378,15.9624369144
87,0.184136867523,0.00722789764404,0.00689506530762,0.00173187255859,15.221955061
88,0.177958011627,0.00709986686707,0.00700998306274,0.00151610374451,14.98123312
89,0.167496919632,0.00672507286072,0.00701308250427,0.00156688690186,15.5662999153
90,0.167941808701,0.00751304626465,0.00669288635254,0.00166702270508,15.6960949898
91,0.160233020782,0.00666904449463,0.00686192512512,0.00183701515198,17.0580489635
92,0.157885789871,0.00647187232971,0.00679683685303,0.00183701515198,15.7289988995
93,0.162878990173,0.00688910484314,0.00671195983887,0.00171208381653,16.1615519524
94,0.171665668488,0.00681018829346,0.00696992874146,0.00162410736084,15.8645539284
95,0.172148704529,0.00730419158936,0.00692009925842,0.00201201438904,17.6044931412
96,0.163811206818,0.00669407844543,0.00745415687561,0.00188302993774,16.4208571911
97,0.199290037155,0.00693202018738,0.00714015960693,0.00162291526794,16.472837925
98,0.15739607811,0.00656199455261,0.00722980499268,0.0015389919281,16.959649086
99,0.172611951828,0.0063738822937,0.00707697868347,0.00171709060669,18.3666908741
