step,run,get,set,free,run_up_to_step
0,0.286785125732,0.0262091159821,0.0275619029999,0.00568795204163,0.277920007706
1,0.319406032562,0.025955915451,0.0266261100769,0.00525689125061,0.539437055588
2,0.255260705948,0.0254549980164,0.0249090194702,0.00522518157959,0.823561906815
3,0.253493070602,0.0248820781708,0.0254259109497,0.00519108772278,1.05598402023
4,0.2791929245,0.0244619846344,0.0251820087433,0.00591206550598,1.31880402565
5,0.257300853729,0.0252060890198,0.0248119831085,0.00521898269653,1.58614301682
6,0.276666164398,0.024092912674,0.0248258113861,0.00520920753479,1.86138010025
7,0.261673927307,0.0234320163727,0.0252261161804,0.00518918037415,2.14605093002
8,0.256320238113,0.0255508422852,0.0477221012115,0.00704002380371,2.35602211952
9,0.28248000145,0.0271368026733,0.0271627902985,0.00603008270264,2.75416898727
10,0.301557064056,0.0245089530945,0.0250420570374,0.00525712966919,3.58648014069
11,0.2898042202,0.0301299095154,0.0246980190277,0.00518083572388,3.38727498055
12,0.259943008423,0.0239510536194,0.0244948863983,0.00518178939819,3.5247220993
13,0.255790948868,0.0238890647888,0.0261960029602,0.00543618202209,4.42504286766
14,0.254557847977,0.0245327949524,0.0255739688873,0.00535106658936,4.23892498016
15,0.258342266083,0.0243179798126,0.0247859954834,0.00622320175171,4.24244689941
16,0.259166955948,0.0250658988953,0.0246529579163,0.00584197044373,4.59005522728
17,0.25683093071,0.0234990119934,0.0259850025177,0.00552797317505,5.13932704926
18,0.259299039841,0.0241329669952,0.0255229473114,0.00551795959473,5.47127890587
19,0.280224084854,0.0245990753174,0.0247480869293,0.00524401664734,5.26705288887
20,0.629586935043,0.0233559608459,0.0249850749969,0.00524306297302,5.60975003242
21,0.28315281868,0.0232908725739,0.0250251293182,0.00535607337952,6.32704496384
22,0.28756570816,0.0237410068512,0.0246300697327,0.00521206855774,6.90441703796
23,0.255372047424,0.0258278846741,0.0337681770325,0.00714612007141,7.23477101326
24,0.25739979744,0.0236690044403,0.0249571800232,0.00623512268066,7.34601783752
25,0.25627374649,0.0243492126465,0.0248320102692,0.00522089004517,7.66419100761
26,0.251197099686,0.0264008045197,0.0251228809357,0.00557994842529,7.98336315155
27,0.259171247482,0.0422120094299,0.0355379581451,0.0115580558777,7.73663496971
28,0.270528078079,0.0249779224396,0.0248608589172,0.00606894493103,9.07872009277
29,0.288091897964,0.0291249752045,0.0246348381042,0.00519204139709,8.69241499901
30,0.257005214691,0.0243740081787,0.0249030590057,0.00543403625488,8.67594909668
31,0.256294965744,0.0236110687256,0.024749994278,0.00587296485901,9.47580099106
32,0.267950773239,0.0233700275421,0.0247280597687,0.00529098510742,9.52507209778
33,0.292813062668,0.0247540473938,0.0255599021912,0.00673484802246,9.42035412788
34,0.389041185379,0.0356991291046,0.0300240516663,0.00692987442017,10.1375031471
35,0.273398160934,0.0243911743164,0.0249700546265,0.00647306442261,10.1437971592
36,0.27242732048,0.0246589183807,0.0247600078583,0.00523591041565,11.657045126
37,0.272820234299,0.0236709117889,0.0279009342194,0.00590395927429,11.5551950932
38,0.277491807938,0.0263841152191,0.025160074234,0.00548410415649,11.1387610435
39,0.310683727264,0.0252110958099,0.0256130695343,0.00599503517151,12.3424699306
40,0.347149848938,0.0335099697113,0.0294950008392,0.00646805763245,12.0415511131
41,0.257781982422,0.0240728855133,0.024875164032,0.00669097900391,12.8729820251
42,0.256693124771,0.0233759880066,0.0258719921112,0.00567483901978,13.7158880234
43,0.256236791611,0.0294449329376,0.0254189968109,0.00587487220764,12.7565798759
44,0.253664731979,0.0237259864807,0.0250689983368,0.00528883934021,12.7649428844
45,0.267469882965,0.0253038406372,0.0257389545441,0.00516390800476,13.8561859131
46,0.273118257523,0.0232961177826,0.0252270698547,0.0052011013031,13.5896039009
47,0.294589996338,0.0232009887695,0.0249650478363,0.00533413887024,14.1229038239
48,0.2827501297,0.0241978168488,0.0290901660919,0.00646591186523,14.3164708614
49,0.253043889999,0.0233838558197,0.0249738693237,0.0052330493927,14.6748580933
50,0.258885860443,0.0244030952454,0.0264978408813,0.00661683082581,15.4664030075
51,0.256572961807,0.0242619514465,0.0266659259796,0.00552701950073,15.6391410828
52,0.25758099556,0.0252270698547,0.0256171226501,0.00521683692932,15.2244510651
53,0.25387597084,0.0230321884155,0.0248081684113,0.00523018836975,16.3261928558
54,0.283951044083,0.0234398841858,0.0261888504028,0.00525283813477,16.3909769058
55,0.260260105133,0.023580789566,0.024806022644,0.00536608695984,16.0896492004
56,0.259531021118,0.0246908664703,0.0260028839111,0.00527215003967,17.1658289433
57,0.261821985245,0.023551940918,0.0247890949249,0.00522208213806,16.8136608601
58,0.261862039566,0.0248148441315,0.0262131690979,0.00521302223206,17.7082929611
59,0.284285783768,0.0259580612183,0.0249829292297,0.00648307800293,18.0962839127
60,0.262278079987,0.0248219966888,0.0270249843597,0.00565481185913,17.7830770016
61,0.25966501236,0.0242831707001,0.0250868797302,0.00520014762878,18.320887804
62,0.265207052231,0.0255539417267,0.0250401496887,0.00520515441895,18.1532549858
63,0.285435199738,0.0299561023712,0.0245099067688,0.00531792640686,18.8601720333
64,0.275500059128,0.0239050388336,0.026771068573,0.00530815124512,19.3453018665
65,0.291529178619,0.0248868465424,0.0280199050903,0.00585603713989,18.9532330036
66,0.287329673767,0.0244460105896,0.0253570079803,0.00524592399597,19.0958259106
67,0.322776794434,0.0235459804535,0.0257411003113,0.00673890113831,20.596763134
68,0.271466255188,0.024561882019,0.0253150463104,0.00525212287903,20.0054581165
69,0.281943082809,0.0230150222778,0.0297420024872,0.00656509399414,20.3941280842
70,0.261125087738,0.0246481895447,0.0263290405273,0.00617289543152,20.841889143
71,0.290917158127,0.0232338905334,0.0250239372253,0.00522804260254,21.5469820499
72,0.323838949203,0.0240850448608,0.0253908634186,0.00525116920471,21.3821761608
73,0.271466016769,0.0248448848724,0.0247309207916,0.00598883628845,23.0882608891
74,0.294690132141,0.0265309810638,0.0260181427002,0.0064799785614,21.9365880489
75,0.30525803566,0.0243020057678,0.0252680778503,0.00540900230408,22.9119801521
76,0.304313659668,0.0281159877777,0.0259790420532,0.00524282455444,23.1794438362
77,0.263162851334,0.0232970714569,0.0254030227661,0.00527095794678,22.6336770058
78,0.259103059769,0.0243589878082,0.0262610912323,0.00568199157715,24.6840147972
79,0.27645611763,0.0243468284607,0.0251789093018,0.00519394874573,23.0721530914
80,0.279895782471,0.0242631435394,0.0266690254211,0.00727391242981,24.4786720276
81,0.27302312851,0.024759054184,0.0257380008698,0.00560212135315,23.806607008
82,0.25634598732,0.023332118988,0.0256249904633,0.00537800788879,24.8885970116
83,0.282163143158,0.0238909721375,0.0310790538788,0.00993204116821,25.3433971405
84,0.303162813187,0.0278928279877,0.0248849391937,0.00557899475098,26.3875069618
85,0.272895097733,0.0244359970093,0.0248670578003,0.0052638053894,26.0869030952
86,0.261743068695,0.0236239433289,0.0260062217712,0.0056369304657,25.1848590374
87,0.278044223785,0.0242500305176,0.0253508090973,0.00522685050964,25.8672292233
88,0.278901815414,0.0238909721375,0.0250329971313,0.00524997711182,27.362626791
89,0.263977766037,0.0231511592865,0.0257840156555,0.00559186935425,26.9310359955
90,0.276693344116,0.023854970932,0.0254371166229,0.00537300109863,26.8895170689
91,0.299835920334,0.024206161499,0.0369689464569,0.00749707221985,27.1648390293
92,0.271484136581,0.0245518684387,0.0252370834351,0.00530099868774,28.3291511536
93,0.29838514328,0.0236699581146,0.0256638526917,0.00528812408447,28.3568198681
94,0.305294752121,0.0234470367432,0.0296850204468,0.00631809234619,28.487019062
95,0.272056102753,0.0237271785736,0.025664806366,0.00543117523193,29.350425005
96,0.288424968719,0.0233929157257,0.0249910354614,0.00523996353149,28.9928510189
97,0.259473085403,0.0239520072937,0.0250980854034,0.00534701347351,29.7202320099
98,0.287785053253,0.0435161590576,0.0259220600128,0.00562000274658,28.6612589359
99,0.254969835281,0.0234270095825,0.0254211425781,0.0068531036377,28.391972065
