step,run,get,set,free,run_up_to_step
0,0.173176050186,0.00618004798889,0.00660586357117,0.00151705741882,0.190279006958
1,0.165309906006,0.00628805160522,0.00664901733398,0.00120997428894,0.343772172928
2,0.166919708252,0.0063328742981,0.00667095184326,0.00137901306152,0.515102148056
3,0.164006948471,0.006591796875,0.00877594947815,0.00150322914124,1.52766895294
4,0.169512033463,0.00652694702148,0.00670194625854,0.00154900550842,0.84256196022
5,0.163950920105,0.00607800483704,0.00685000419617,0.00150799751282,1.36499714851
6,0.166172742844,0.00633597373962,0.00650119781494,0.00150609016418,1.72805190086
7,0.168706893921,0.00632119178772,0.00669503211975,0.00154089927673,1.33944702148
8,0.165278911591,0.00642991065979,0.00666093826294,0.00150179862976,1.51111698151
9,0.170754909515,0.0066339969635,0.00675892829895,0.00156784057617,1.65878009796
10,0.167057037354,0.00664806365967,0.00669097900391,0.0015230178833,1.85814213753
11,0.167961835861,0.00663995742798,0.00674700737,0.00151705741882,1.99846291542
12,0.162118196487,0.00647282600403,0.0067720413208,0.00154995918274,2.62485194206
13,0.161593198776,0.00673794746399,0.00671291351318,0.00156903266907,2.32258200645
14,0.161206007004,0.00688600540161,0.00669813156128,0.00159096717834,2.50443792343
15,0.158532142639,0.00704407691956,0.00678706169128,0.00167918205261,2.6382021904
16,0.15590596199,0.00612187385559,0.00687503814697,0.0015709400177,3.25341105461
17,0.157363176346,0.00631308555603,0.00686693191528,0.00157904624939,3.37054491043
18,0.156895875931,0.00623917579651,0.00673508644104,0.00156617164612,3.57993793488
19,0.156332015991,0.00630211830139,0.00673508644104,0.00153493881226,3.81085801125
20,0.163653850555,0.00663805007935,0.00685596466064,0.00153994560242,3.50974106789
21,0.158560037613,0.00725603103638,0.0068039894104,0.00162887573242,3.65303087234
22,0.161173820496,0.00680708885193,0.00679302215576,0.00158095359802,3.80946922302
23,0.156090974808,0.00619006156921,0.00685477256775,0.00153398513794,4.60714101791
24,0.16016793251,0.00643706321716,0.00707197189331,0.00158286094666,4.62783288956
25,0.15789103508,0.00669002532959,0.00704598426819,0.00154089927673,4.64357209206
26,0.156899929047,0.00632905960083,0.00681900978088,0.00155901908875,4.89893317223
27,0.159230709076,0.00709795951843,0.00702214241028,0.00154209136963,4.65396094322
28,0.157412052155,0.00665903091431,0.00687313079834,0.00158786773682,5.65733194351
29,0.159836053848,0.00721001625061,0.00718212127686,0.00160098075867,4.99800395966
30,0.157297849655,0.00666093826294,0.00678992271423,0.00170207023621,5.84520292282
31,0.157461881638,0.0062198638916,0.00676298141479,0.00154995918274,5.44483304024
32,0.160015821457,0.00625205039978,0.00698614120483,0.00160884857178,5.97267794609
33,0.156640768051,0.0061399936676,0.00737690925598,0.00154209136963,6.09079098701
34,0.157825946808,0.00673794746399,0.00703716278076,0.00162196159363,6.09768509865
35,0.161609888077,0.00642681121826,0.00696706771851,0.0015549659729,6.38772320747
36,0.157310962677,0.00634598731995,0.0070960521698,0.00153994560242,6.55785298347
37,0.161752223969,0.00656414031982,0.00721096992493,0.00155711174011,6.62312293053
38,0.156607866287,0.00625491142273,0.00704884529114,0.00154900550842,7.05706715584
39,0.157124042511,0.00625205039978,0.0069899559021,0.00156188011169,7.35207009315
40,0.157222270966,0.00659608840942,0.00719499588013,0.00157809257507,7.3820848465
41,0.15659403801,0.00625705718994,0.00727009773254,0.00155401229858,7.49208593369
42,0.156862020493,0.00647902488708,0.00690007209778,0.00154590606689,7.60435700417
43,0.157215833664,0.00678086280823,0.00686597824097,0.00158596038818,7.63610982895
44,0.156233787537,0.00629210472107,0.00704717636108,0.00155186653137,7.95135498047
45,0.15732884407,0.00638699531555,0.00703692436218,0.00176095962524,8.11602902412
46,0.158283948898,0.00640392303467,0.00708889961243,0.00176811218262,8.08881592751
47,0.159070014954,0.00640392303467,0.00712490081787,0.00154685974121,8.30957317352
48,0.157385110855,0.00673604011536,0.00692701339722,0.00157999992371,8.6044049263
49,0.156938314438,0.00881290435791,0.00688099861145,0.00154685974121,9.10045194626
50,0.161579847336,0.00644111633301,0.00689792633057,0.00160884857178,8.9943549633
51,0.157654285431,0.00644183158875,0.00704097747803,0.00159692764282,8.88218617439
52,0.160375118256,0.00632095336914,0.00691890716553,0.00154590606689,9.51645922661
53,0.164526939392,0.00688099861145,0.00695705413818,0.00162792205811,9.44708514214
54,0.161031007767,0.00644183158875,0.00696516036987,0.00155401229858,9.76368403435
55,0.160228967667,0.00630807876587,0.0070960521698,0.0015549659729,9.8997490406
56,0.511849164963,0.0063591003418,0.00708699226379,0.00162100791931,9.95186090469
57,0.158315896988,0.00644087791443,0.0069739818573,0.00160503387451,10.204611063
58,0.157819986343,0.0066180229187,0.00722503662109,0.00154089927673,10.1595678329
59,0.157191753387,0.00636601448059,0.00700998306274,0.00182509422302,10.5891361237
60,0.161086082458,0.00634002685547,0.00703692436218,0.00154614448547,10.6521830559
61,0.160577058792,0.00641012191772,0.00705790519714,0.00160098075867,10.8013851643
62,0.158034086227,0.0065290927887,0.00689601898193,0.00175309181213,11.0028839111
63,0.159528970718,0.00696706771851,0.00721383094788,0.00157284736633,10.8625771999
64,0.161001205444,0.00636410713196,0.00704288482666,0.00155401229858,11.1937110424
65,0.156522035599,0.0064001083374,0.00714302062988,0.00166797637939,11.6677439213
66,0.159244060516,0.00661516189575,0.00704598426819,0.0015869140625,11.6537699699
67,0.162729978561,0.00675797462463,0.00712299346924,0.00172996520996,11.7449550629
68,0.157676935196,0.00638389587402,0.00700902938843,0.00176787376404,12.1794810295
69,0.15712594986,0.00640892982483,0.00705194473267,0.00178122520447,12.1188938618
70,0.159708023071,0.00700879096985,0.00702786445618,0.00155401229858,12.0795469284
71,0.158453941345,0.00667500495911,0.00698900222778,0.00156188011169,12.3111388683
72,0.160997867584,0.00685095787048,0.00735092163086,0.00154900550842,12.7813131809
73,0.15807723999,0.0065770149231,0.00700497627258,0.00154900550842,13.0020849705
74,0.157819032669,0.0064001083374,0.00686597824097,0.00160503387451,12.8503389359
75,0.163902044296,0.00661587715149,0.00708723068237,0.00156784057617,12.7189137936
76,0.158019065857,0.00640916824341,0.00733113288879,0.00175809860229,13.2414500713
77,0.157850980759,0.00645112991333,0.00703597068787,0.00177407264709,13.3798248768
78,0.158844947815,0.00699996948242,0.00714111328125,0.00156116485596,13.4147059917
79,0.163391828537,0.00648999214172,0.00727701187134,0.00170302391052,13.7974820137
80,0.657033920288,0.00663709640503,0.0072169303894,0.00163698196411,13.9132800102
81,0.157337188721,0.00639796257019,0.0071280002594,0.00154805183411,14.1910469532
82,0.157737255096,0.0063328742981,0.00699305534363,0.00181984901428,14.3250439167
83,0.160611867905,0.00635290145874,0.00710511207581,0.00163197517395,14.1974461079
84,0.158539056778,0.00715589523315,0.00704908370972,0.00180602073669,14.4165580273
85,0.159054994583,0.00692987442017,0.00730991363525,0.00155091285706,14.6971328259
86,0.160701990128,0.00671195983887,0.00711798667908,0.00160002708435,15.5542509556
87,0.156862974167,0.00651097297668,0.00698900222778,0.00171899795532,15.4891691208
88,0.159121990204,0.00665688514709,0.00714302062988,0.00156497955322,15.2675640583
89,0.706025123596,0.00688099861145,0.00732398033142,0.00166296958923,15.5770349503
90,0.161187171936,0.00661110877991,0.00719499588013,0.00155901908875,15.8090000153
91,0.157843828201,0.00686502456665,0.00706005096436,0.0017728805542,16.1295762062
92,0.157107830048,0.00650000572205,0.0070698261261,0.00155806541443,16.2021679878
93,0.160447120667,0.00649785995483,0.00698518753052,0.00185585021973,16.0292370319
94,0.162081956863,0.00673508644104,0.00699615478516,0.00156903266907,16.1539301872
95,0.158164024353,0.00662899017334,0.00719785690308,0.00155782699585,16.4985790253
96,0.156698226929,0.00674200057983,0.00736784934998,0.00154900550842,16.7219779491
97,0.158368110657,0.00702786445618,0.00706696510315,0.00155687332153,17.2232580185
98,0.161674022675,0.00657320022583,0.00709795951843,0.00178503990173,17.4182989597
99,0.157675266266,0.00689315795898,0.00728797912598,0.00155687332153,16.9962148666
