step,run,get,set,free,run_up_to_step
0,0.247965812683,0.0132780075073,0.0152280330658,0.00323104858398,0.245954990387
1,0.24295091629,0.0142340660095,0.0157148838043,0.00333213806152,0.492626905441
2,0.238956689835,0.0136270523071,0.0147230625153,0.00317811965942,0.763926029205
3,0.846715927124,0.0137979984283,0.0152089595795,0.00365900993347,1.02149319649
4,0.314651012421,0.0158278942108,0.0338640213013,0.0032320022583,1.23297190666
5,0.247995138168,0.0138220787048,0.0150430202484,0.00410294532776,1.443349123
6,0.240659952164,0.0133590698242,0.0168659687042,0.00383806228638,1.7007958889
7,0.244265079498,0.0138099193573,0.0152499675751,0.00320410728455,2.44986796379
8,0.275157928467,0.0136430263519,0.0150189399719,0.00360989570618,2.18498206139
9,0.238770008087,0.0138330459595,0.0148499011993,0.00328397750854,2.61337709427
10,0.240157842636,0.0140488147736,0.0159249305725,0.00400614738464,2.66560697556
11,0.24122595787,0.0153510570526,0.0150361061096,0.00334286689758,3.08937001228
12,0.310523986816,0.0137538909912,0.0152759552002,0.00323104858398,3.61596679688
13,0.246649980545,0.0144879817963,0.0149340629578,0.00319910049438,3.61763310432
14,0.244311094284,0.0143868923187,0.0155131816864,0.00317597389221,4.01590681076
15,0.238271951675,0.0144848823547,0.0151188373566,0.00319910049438,3.95256209373
16,0.267957925797,0.0137829780579,0.0150651931763,0.00347995758057,4.35277485847
17,0.250928878784,0.0142390727997,0.0156488418579,0.00330400466919,5.33964204788
18,0.249949932098,0.0140559673309,0.0155329704285,0.00345396995544,4.67803812027
19,0.239620923996,0.013799905777,0.0155739784241,0.00321483612061,5.74771404266
20,0.239846944809,0.0143990516663,0.0150249004364,0.00364899635315,5.41269898415
21,0.234858751297,0.0138959884644,0.015035867691,0.00316500663757,6.12017202377
22,0.235640048981,0.0142710208893,0.0155410766602,0.0039689540863,5.86871314049
23,0.248417854309,0.0142660140991,0.015303850174,0.00330305099487,6.20499491692
24,0.252716064453,0.0139820575714,0.0148499011993,0.00323796272278,7.24276018143
25,0.275401115417,0.0138530731201,0.0150039196014,0.00319194793701,6.7376229763
26,0.943489074707,0.014111995697,0.0151860713959,0.00324988365173,6.65021920204
27,0.262845039368,0.0163719654083,0.0146532058716,0.00323820114136,7.04941296577
28,0.237521886826,0.0143351554871,0.0147659778595,0.00317406654358,7.2116291523
29,0.247927188873,0.0132839679718,0.0147910118103,0.00319004058838,8.15373086929
30,0.2457010746,0.0137250423431,0.0151951313019,0.00320315361023,7.73953604698
31,0.259060144424,0.0148270130157,0.014741897583,0.00354290008545,8.4221098423
32,0.236614227295,0.0139038562775,0.0146958827972,0.00318789482117,8.33855891228
33,0.241102933884,0.013473033905,0.0145919322968,0.00316905975342,8.99500799179
34,0.236441850662,0.0136761665344,0.0158150196075,0.00322008132935,9.14903998375
35,0.272262096405,0.0144698619843,0.0147340297699,0.00354886054993,9.2543399334
36,0.248003005981,0.0136919021606,0.0148949623108,0.0032331943512,9.82796883583
37,0.234265327454,0.0131180286407,0.0160219669342,0.00432181358337,10.3873500824
38,0.235418796539,0.0132079124451,0.0190880298615,0.00314402580261,10.1458220482
39,0.245943784714,0.0131421089172,0.0345678329468,0.00316596031189,11.7700920105
40,0.23390007019,0.0137410163879,0.0147349834442,0.0036289691925,10.7635290623
41,0.23753619194,0.0331318378448,0.0149030685425,0.00315690040588,10.7837300301
42,0.236316919327,0.0135631561279,0.036388874054,0.00321698188782,11.043284893
43,0.244297027588,0.0134489536285,0.0156090259552,0.0031590461731,11.6553609371
44,0.234884023666,0.0135807991028,0.0152251720428,0.00318598747253,11.585999012
45,0.246975898743,0.0135209560394,0.0146839618683,0.0031909942627,12.1081969738
46,0.235921859741,0.0131812095642,0.0147480964661,0.00325894355774,12.0719490051
47,0.266431093216,0.0141041278839,0.0146839618683,0.00314497947693,11.9645938873
48,0.235863924026,0.0134871006012,0.014652967453,0.00321984291077,12.988656044
49,0.260078907013,0.0157079696655,0.0146639347076,0.00314402580261,13.1722669601
50,0.242973804474,0.0132150650024,0.0174169540405,0.00481009483337,13.1251661777
51,0.238903045654,0.0132660865784,0.0146679878235,0.00322389602661,13.15711689
52,0.250071763992,0.0134499073029,0.0174360275269,0.00398015975952,13.787263155
53,0.24107003212,0.0132870674133,0.0172381401062,0.00405693054199,14.0266499519
54,0.262141942978,0.0132279396057,0.0148069858551,0.00317192077637,14.3360140324
55,0.244834184647,0.0135090351105,0.0149471759796,0.00329995155334,14.1039881706
56,0.239706039429,0.0134029388428,0.0158779621124,0.00361704826355,14.2411270142
57,0.627760887146,0.0134098529816,0.0152471065521,0.00323605537415,14.9010331631
58,0.238648891449,0.0130829811096,0.0147829055786,0.0031840801239,15.6223330498
59,0.245152711868,0.0132319927216,0.0149059295654,0.00317788124084,15.6223340034
60,0.235148191452,0.0131120681763,0.0206370353699,0.00389504432678,15.5226068497
61,0.245820045471,0.0150301456451,0.0147278308868,0.00314402580261,16.6486780643
62,0.244446992874,0.0142869949341,0.0200519561768,0.00430703163147,16.2062308788
63,0.312050819397,0.0132048130035,0.0147981643677,0.00322508811951,16.6622991562
64,0.242234945297,0.0136339664459,0.0149328708649,0.00317001342773,16.495798111
65,0.238475084305,0.0132060050964,0.0149500370026,0.0031750202179,16.8220629692
66,0.235424995422,0.0136618614197,0.0154240131378,0.00344705581665,16.7380080223
67,0.236115932465,0.013414144516,0.0145931243896,0.0031590461731,17.5853860378
68,0.236476898193,0.0136349201202,0.0147099494934,0.00313019752502,18.8481600285
69,0.238780975342,0.0133039951324,0.0161130428314,0.00384116172791,17.7946221828
70,0.252483844757,0.0133521556854,0.0176730155945,0.00420212745667,18.5310361385
71,0.258904218674,0.0137219429016,0.0146670341492,0.0031418800354,18.1763358116
72,0.26485490799,0.0135760307312,0.0146808624268,0.0031750202179,18.5992240906
73,0.236116170883,0.01331615448,0.0149710178375,0.00319981575012,18.8296928406
74,0.238549232483,0.0133769512177,0.0149388313293,0.00323796272278,19.1682209969
75,0.241375923157,0.0140600204468,0.0148470401764,0.00323700904846,19.7278530598
76,0.245614767075,0.0135500431061,0.0148861408234,0.00322699546814,20.7697050571
77,0.758621931076,0.0145537853241,0.0170700550079,0.0032479763031,19.7641880512
78,0.238037109375,0.0142140388489,0.0156998634338,0.00359702110291,19.9485449791
79,0.750863075256,0.0141110420227,0.015410900116,0.00328516960144,19.8704879284
80,0.239202022552,0.0135190486908,0.0176169872284,0.00498080253601,20.3069469929
81,0.24010014534,0.0131669044495,0.0148310661316,0.00348901748657,20.7031769753
82,0.236524820328,0.0133349895477,0.0166139602661,0.00415396690369,21.1899409294
83,0.23462677002,0.0124471187592,0.0141820907593,0.00328207015991,21.1352949142
84,0.237614154816,0.0148429870605,0.0141649246216,0.00315690040588,21.1993532181
85,0.23576593399,0.0128350257874,0.0139319896698,0.00314807891846,21.452174902
86,0.256496906281,0.0128970146179,0.0145180225372,0.00326800346375,23.3439440727
87,0.247646808624,0.0128681659698,0.0140898227692,0.003084897995,21.7664220333
88,0.235188007355,0.0122871398926,0.0140669345856,0.00317907333374,22.7499930859
89,0.23514008522,0.0128581523895,0.0159838199615,0.00338983535767,22.0343029499
90,0.776118993759,0.0127651691437,0.0141010284424,0.00320100784302,23.003839016
91,0.236027956009,0.0143489837646,0.0148589611053,0.00309610366821,22.6077048779
92,0.240596055984,0.0137298107147,0.0146670341492,0.00319409370422,23.3212449551
93,0.236158132553,0.0131750106812,0.0152590274811,0.00313496589661,23.862336874
94,0.235992908478,0.0134818553925,0.0146279335022,0.0032069683075,23.6399960518
95,0.237015962601,0.0134611129761,0.0151970386505,0.00316190719604,24.853525877
96,0.235835075378,0.0140841007233,0.0146989822388,0.0031750202179,24.5468420982
97,0.261311769485,0.0135388374329,0.0146148204803,0.00318717956543,25.2487719059
98,0.250408887863,0.0158290863037,0.0147180557251,0.0031681060791,24.9401311874
99,0.244222164154,0.0132739543915,0.0149359703064,0.00343108177185,25.1702778339
