step,run,get,set,free,run_up_to_step
0,0.295722007751,0.00494003295898,0.00480198860168,0.000509023666382,0.292368173599
1,0.304741859436,0.00476312637329,0.00517392158508,0.000606060028076,0.587052106857
2,0.287169933319,0.00473284721375,0.00517082214355,0.000565052032471,1.3377931118
3,0.288300991058,0.00488209724426,0.00522613525391,0.000587940216064,1.6604590416
4,0.296909093857,0.0049889087677,0.00540518760681,0.00059700012207,1.4571480751
5,0.292372941971,0.00469994544983,0.00559306144714,0.00055980682373,1.78597402573
6,0.287197113037,0.00475096702576,0.00538516044617,0.000550985336304,2.07855200768
7,0.291440010071,0.00505805015564,0.00544214248657,0.00054407119751,2.31788086891
8,0.287164926529,0.00474286079407,0.00557112693787,0.000571966171265,2.61189603806
9,0.287895202637,0.00506114959717,0.00546383857727,0.000595092773438,2.91814398766
10,0.30020403862,0.00508594512939,0.00552201271057,0.000602960586548,3.20553183556
11,0.289939880371,0.00466394424438,0.00537705421448,0.000565052032471,3.98154497147
12,0.294224739075,0.00463604927063,0.0053699016571,0.000552177429199,3.79710507393
13,0.289616107941,0.00491786003113,0.00539398193359,0.000634908676147,4.02649593353
14,0.287328720093,0.00496697425842,0.00540709495544,0.000586032867432,4.9074678421
15,0.287835121155,0.00494003295898,0.0053870677948,0.000802040100098,4.5782790184
16,0.289423942566,0.00484704971313,0.0055148601532,0.000585079193115,4.82508802414
17,0.283431053162,0.0044481754303,0.00534200668335,0.000645160675049,5.47388792038
18,0.2893409729,0.00500702857971,0.00542998313904,0.000735998153687,5.50900292397
19,0.282227993011,0.00486493110657,0.00540018081665,0.000595092773438,6.09778118134
20,0.299012899399,0.0047390460968,0.00538182258606,0.000608205795288,6.5108320713
21,0.292793989182,0.00492000579834,0.00534701347351,0.000577926635742,6.7351539135
22,0.284610033035,0.00481605529785,0.00550198554993,0.000591993331909,7.08262085915
23,0.293756961823,0.00490689277649,0.00547289848328,0.000657081604004,7.13096880913
24,0.294178962708,0.00500106811523,0.00568318367004,0.000686168670654,7.99476599693
25,0.297173023224,0.0048348903656,0.00554895401001,0.000597953796387,8.24427604675
26,0.285354852676,0.00517416000366,0.00542807579041,0.00061297416687,8.01188516617
27,0.294260978699,0.00472092628479,0.00585007667542,0.000587940216064,8.66148400307
28,0.283630847931,0.00486493110657,0.005695104599,0.000593900680542,8.67338418961
29,0.28847527504,0.00469183921814,0.00545310974121,0.000617027282715,9.02645111084
30,0.293397903442,0.00475192070007,0.00575685501099,0.000592947006226,9.32997894287
31,0.294564962387,0.00510597229004,0.00569581985474,0.000802040100098,9.27012491226
32,0.287837266922,0.00476288795471,0.00549578666687,0.00061297416687,9.67734718323
33,0.289187908173,0.00521898269653,0.00556898117065,0.000617980957031,9.74341702461
34,0.284663200378,0.00468492507935,0.00541114807129,0.000813961029053,10.5511758327
35,0.288408994675,0.00467896461487,0.00539898872375,0.000671148300171,10.6181159019
36,0.291522026062,0.00466895103455,0.00537109375,0.000608921051025,11.0089359283
37,0.296371936798,0.00505399703979,0.00562810897827,0.000727891921997,10.9876830578
38,0.294844150543,0.004958152771,0.0057909488678,0.00068998336792,11.482375145
39,0.29355096817,0.00467300415039,0.00541806221008,0.000627040863037,11.9434399605
40,0.293985128403,0.00489091873169,0.00556111335754,0.000617027282715,12.2150571346
41,0.291218042374,0.00472116470337,0.00564289093018,0.000617027282715,12.5805120468
42,0.287853956223,0.00495600700378,0.00559997558594,0.000684022903442,12.8208558559
43,0.286618947983,0.00472712516785,0.00547695159912,0.000637054443359,13.0989990234
44,0.298441886902,0.00487303733826,0.00575304031372,0.000618934631348,13.5645518303
45,0.299033164978,0.00485491752625,0.00558614730835,0.000633001327515,13.976526022
46,0.562417984009,0.00499200820923,0.00567293167114,0.000666856765747,14.3088319302
47,0.294777870178,0.00496697425842,0.0056140422821,0.00060510635376,14.2327759266
48,0.298080921173,0.00479316711426,0.00530004501343,0.000619888305664,14.9689660072
49,0.291731119156,0.00492191314697,0.00554513931274,0.000615835189819,15.0508790016
50,0.297744989395,0.00482201576233,0.00538086891174,0.000613927841187,15.5420510769
51,0.29522895813,0.00497007369995,0.00580906867981,0.000638008117676,15.6889610291
52,0.295494794846,0.00495481491089,0.00571298599243,0.000638008117676,16.0438611507
53,0.302680969238,0.00482797622681,0.00548100471497,0.000669956207275,16.0969269276
54,0.291515111923,0.00490093231201,0.00556397438049,0.000616073608398,16.4878020287
55,0.291213989258,0.0051281452179,0.00554203987122,0.000607967376709,16.7977929115
56,0.299790859222,0.00510787963867,0.00554513931274,0.000808954238892,17.0184640884
57,0.286900043488,0.00466418266296,0.00543594360352,0.000622034072876,17.5433840752
58,0.297534942627,0.00481200218201,0.00546789169312,0.000819206237793,17.8379921913
59,0.296822071075,0.0050790309906,0.00569581985474,0.000622987747192,17.9760038853
60,0.295668840408,0.00489115715027,0.00571012496948,0.00061297416687,18.3297841549
61,0.286694049835,0.004723072052,0.0056037902832,0.000809192657471,18.260436058
62,0.290917873383,0.00474691390991,0.0055239200592,0.000813007354736,18.4977648258
63,0.289932250977,0.00472521781921,0.00566482543945,0.00068187713623,18.6242320538
64,0.285953998566,0.005038022995,0.00562310218811,0.000638008117676,19.1364660263
65,0.298581838608,0.00503492355347,0.00562620162964,0.000658988952637,19.5724041462
66,0.287900924683,0.00493812561035,0.0057430267334,0.000761985778809,19.7260568142
67,0.286011219025,0.00493407249451,0.00549697875977,0.000793933868408,20.1780748367
68,0.289384126663,0.00486898422241,0.00560402870178,0.000606060028076,20.1612000465
69,0.293632984161,0.00485491752625,0.00561285018921,0.000608921051025,20.7822401524
70,0.287156820297,0.00471901893616,0.00571608543396,0.000623941421509,21.0860340595
71,0.290493011475,0.00496697425842,0.00563812255859,0.000777006149292,21.4907200336
72,0.281748056412,0.00514197349548,0.00556302070618,0.00061297416687,21.7860720158
73,0.29273891449,0.00493288040161,0.00565886497498,0.000637054443359,21.9705958366
74,0.291334152222,0.00496506690979,0.00574588775635,0.00083589553833,22.5030879974
75,0.299157142639,0.00499296188354,0.0057430267334,0.000854969024658,22.8435678482
76,0.302187204361,0.00518298149109,0.00580286979675,0.000802993774414,22.8388459682
77,0.287972927094,0.00498104095459,0.00565505027771,0.000590085983276,23.1074140072
78,0.287703037262,0.00510406494141,0.00575590133667,0.000733852386475,23.921145916
79,0.288286924362,0.00461602210999,0.00587391853333,0.000631809234619,23.8578979969
80,0.295958995819,0.00504112243652,0.00573110580444,0.000647068023682,24.0660669804
81,0.293571949005,0.00516581535339,0.00587296485901,0.000624895095825,24.8866100311
82,0.297549962997,0.00490593910217,0.00589489936829,0.000840902328491,24.9405660629
83,0.287147045135,0.00477886199951,0.0056049823761,0.000640869140625,24.3563890457
84,0.298274040222,0.00502896308899,0.00572896003723,0.00062894821167,25.0521080494
85,0.285009860992,0.00501894950867,0.00593280792236,0.000833988189697,25.2215321064
86,0.295982122421,0.00495409965515,0.00614595413208,0.000699996948242,25.544852972
87,0.292647838593,0.00521922111511,0.00571298599243,0.000638008117676,25.6583299637
88,0.297529935837,0.00502014160156,0.00553202629089,0.000611782073975,26.4422571659
89,0.294138669968,0.0050208568573,0.0058798789978,0.000637054443359,26.388917923
90,0.292954921722,0.0051109790802,0.00583004951477,0.000630855560303,26.9750869274
91,0.294599056244,0.00523805618286,0.00594711303711,0.000786066055298,27.1280670166
92,0.293637990952,0.00495100021362,0.00556302070618,0.000633001327515,27.5118620396
93,0.29719877243,0.00519585609436,0.00599408149719,0.000608205795288,28.1377158165
94,0.291445016861,0.00494813919067,0.00575494766235,0.00062894821167,28.1531360149
95,0.290465116501,0.0049889087677,0.00595283508301,0.000620126724243,28.1310870647
96,0.3193359375,0.00506401062012,0.0056791305542,0.000766038894653,28.6346719265
97,0.299741983414,0.00518989562988,0.00571489334106,0.000654935836792,28.9666068554
98,0.814661026001,0.00507712364197,0.00586700439453,0.000781059265137,29.8469600677
99,0.2980260849,0.00514388084412,0.00586485862732,0.00076699256897,29.3867928982
