step,run,get,set,free,run_up_to_step
0,0.149769067764,0.00765419006348,0.00726699829102,0.00162696838379,0.17446398735
1,0.149852991104,0.00736498832703,0.00737690925598,0.0013689994812,0.329351902008
2,0.151427030563,0.00661492347717,0.00758504867554,0.00152993202209,0.457185983658
3,0.147952318192,0.00693392753601,0.0078489780426,0.00195288658142,0.607004165649
4,0.147696018219,0.00701808929443,0.0074028968811,0.00166296958923,0.767590999603
5,0.149051904678,0.00732016563416,0.00745391845703,0.00169086456299,0.908833026886
6,0.151061058044,0.00721120834351,0.0079607963562,0.00204205513,1.05626606941
7,0.149417877197,0.00716090202332,0.00745987892151,0.00173711776733,1.21833896637
8,0.149119853973,0.00747108459473,0.00745606422424,0.00172090530396,1.35719895363
9,0.151943922043,0.00705885887146,0.00728702545166,0.00172114372253,1.52707505226
10,0.150531053543,0.00679302215576,0.00757098197937,0.00171089172363,2.26893901825
11,0.735689878464,0.0067310333252,0.00750494003296,0.00172591209412,1.80407810211
12,0.147411108017,0.00703597068787,0.00730395317078,0.00168704986572,2.56344795227
13,0.149672985077,0.00746202468872,0.00743412971497,0.00171279907227,2.11988186836
14,0.148759841919,0.00668501853943,0.00760102272034,0.00168991088867,2.63595581055
15,0.151374101639,0.00796580314636,0.00753784179688,0.00169610977173,2.42839503288
16,0.150789022446,0.00671696662903,0.00747179985046,0.00168991088867,3.21833205223
17,0.148944139481,0.00671815872192,0.00745487213135,0.00171303749084,3.25855398178
18,0.149019956589,0.00758695602417,0.00756096839905,0.00169396400452,2.87243819237
19,0.149029970169,0.00776600837708,0.00752210617065,0.00171089172363,2.99845600128
20,0.147221088409,0.00688505172729,0.0074999332428,0.00169086456299,3.49842000008
21,0.150984048843,0.00763607025146,0.00751090049744,0.00170707702637,3.35278606415
22,0.147696256638,0.00698018074036,0.00748586654663,0.00174689292908,4.04185009003
23,0.153515100479,0.00726914405823,0.00755286216736,0.00173306465149,3.56906414032
24,0.147628068924,0.00672507286072,0.00764799118042,0.0017249584198,4.33333396912
25,0.151687860489,0.0102479457855,0.00763297080994,0.00180602073669,3.89580798149
26,0.153548002243,0.00741577148438,0.00773310661316,0.00170588493347,4.06048703194
27,0.148818016052,0.00740814208984,0.00766181945801,0.00174999237061,4.90504097939
28,0.150231122971,0.00687408447266,0.00765490531921,0.00170087814331,4.77341294289
29,0.154364109039,0.00791311264038,0.00770306587219,0.00171995162964,4.49893116951
30,0.148014068604,0.00673317909241,0.00762701034546,0.0019588470459,5.20859718323
31,0.149748086929,0.00774002075195,0.00760912895203,0.00188899040222,4.79460597038
32,0.147898197174,0.0071120262146,0.00762820243835,0.00170302391052,5.20299816132
33,0.148042917252,0.00669503211975,0.00767087936401,0.00171089172363,5.76223397255
34,0.147998094559,0.00682806968689,0.00757122039795,0.00177216529846,5.72181892395
35,0.14759016037,0.0066990852356,0.00762319564819,0.00170183181763,6.00713014603
36,0.148506879807,0.00704193115234,0.00767397880554,0.0017421245575,6.01381611824
37,0.827789068222,0.00678086280823,0.00755190849304,0.00169801712036,5.67565512657
38,0.155534744263,0.00677800178528,0.00794911384583,0.00174403190613,5.99053692818
39,0.148828029633,0.00718712806702,0.00770401954651,0.00170183181763,6.42728304863
40,0.147742033005,0.0068371295929,0.00763988494873,0.00173711776733,6.52548599243
41,0.148761034012,0.00690388679504,0.00764298439026,0.00201010704041,6.59733891487
42,0.153122186661,0.00720405578613,0.0080099105835,0.00177788734436,6.76279115677
43,0.147784948349,0.00688695907593,0.00778317451477,0.00171995162964,7.34105706215
44,0.151532173157,0.0068678855896,0.00763607025146,0.00191402435303,7.24462890625
45,0.151255130768,0.00683903694153,0.00811910629272,0.0018458366394,7.43432402611
46,0.147379875183,0.00670790672302,0.00765299797058,0.00170803070068,7.58927893639
47,0.147319078445,0.00675702095032,0.00783801078796,0.00172090530396,8.00397396088
48,0.147583007812,0.00702404975891,0.00768995285034,0.00173091888428,7.70363593102
49,0.151468992233,0.00749397277832,0.00794696807861,0.00176596641541,7.95038819313
50,0.47194981575,0.00689601898193,0.0077178478241,0.00174999237061,8.20295000076
51,0.148263931274,0.00676012039185,0.00771117210388,0.0017511844635,8.57862687111
52,0.146713972092,0.00695300102234,0.00771498680115,0.00187611579895,8.54141306877
53,0.148149013519,0.00679802894592,0.00768709182739,0.00177097320557,8.73134613037
54,0.149821281433,0.00692009925842,0.00766801834106,0.00171804428101,8.49376821518
55,0.149127960205,0.00689196586609,0.00773191452026,0.00171494483948,8.66131210327
56,0.147439241409,0.00681710243225,0.00767707824707,0.00171494483948,8.93173098564
57,0.148196220398,0.00681591033936,0.00758194923401,0.00171899795532,8.87556505203
58,0.149829149246,0.00759100914001,0.00768899917603,0.00172209739685,9.02017402649
59,0.156090021133,0.00719404220581,0.00764989852905,0.00175619125366,9.7144100666
60,0.149182081223,0.00707101821899,0.00769400596619,0.00193095207214,9.5353500843
61,0.153499126434,0.00720500946045,0.00769400596619,0.00175285339355,9.84900283813
62,0.152513027191,0.00724697113037,0.00806093215942,0.00171589851379,9.97287392616
63,0.178634166718,0.00727915763855,0.00783395767212,0.00171589851379,10.3024849892
64,0.148097991943,0.00704407691956,0.00767111778259,0.00194311141968,10.1436610222
65,0.14969086647,0.00692009925842,0.00779891014099,0.00194501876831,10.3007030487
66,0.149667978287,0.00754690170288,0.00774002075195,0.00176811218262,10.2611830235
67,0.147830963135,0.00678777694702,0.00778603553772,0.00175404548645,10.9007949829
68,0.148773908615,0.00690412521362,0.00791716575623,0.00171804428101,10.8405749798
69,0.149398088455,0.00761008262634,0.0077178478241,0.00189995765686,10.6958458424
70,0.150127887726,0.00757384300232,0.00775599479675,0.00172305107117,10.7947211266
71,0.148405790329,0.00688982009888,0.0077109336853,0.00174999237061,11.2375810146
72,0.15252661705,0.00756812095642,0.00804090499878,0.00206589698792,11.0290191174
73,0.149687051773,0.00699019432068,0.00778102874756,0.00194787979126,11.6834380627
74,0.150115251541,0.00722503662109,0.00774693489075,0.00177502632141,11.6725809574
75,0.148292779922,0.00732493400574,0.00787210464478,0.00174498558044,11.9590210915
76,0.151382923126,0.00702881813049,0.00997400283813,0.00171494483948,11.9964621067
77,0.149928808212,0.0075089931488,0.00771903991699,0.00172090530396,11.9466021061
78,0.148655653,0.00705885887146,0.00795412063599,0.00171995162964,12.2089121342
79,0.149121046066,0.00740599632263,0.0079300403595,0.00177001953125,12.7322559357
80,0.149537086487,0.0072979927063,0.00781607627869,0.00171899795532,12.8574709892
81,0.153922080994,0.00693297386169,0.00783801078796,0.00171995162964,13.2238178253
82,0.149495840073,0.007169008255,0.00776100158691,0.00198292732239,12.9639410973
83,0.151500940323,0.00701403617859,0.00783705711365,0.00174593925476,13.0290110111
84,0.151607275009,0.00693488121033,0.00780892372131,0.00174689292908,13.5003190041
85,0.148082971573,0.00696897506714,0.00794386863708,0.00196099281311,13.4495449066
86,0.148801088333,0.00746488571167,0.0077211856842,0.00178003311157,13.2971310616
87,0.152526855469,0.00745391845703,0.00772595405579,0.00174403190613,13.4792530537
88,0.150862216949,0.00715899467468,0.00773596763611,0.00194215774536,13.6418480873
89,0.149925231934,0.00736713409424,0.00784611701965,0.00171303749084,13.9192218781
90,0.148246049881,0.00692892074585,0.0076858997345,0.00187397003174,13.7940180302
91,0.149548053741,0.00747489929199,0.0079038143158,0.0017421245575,14.3596401215
92,0.150388002396,0.00714683532715,0.00793981552124,0.00175404548645,14.507723093
93,0.155884981155,0.0076310634613,0.007817029953,0.00200080871582,14.6855480671
94,0.14835691452,0.00706601142883,0.00774598121643,0.00201296806335,14.673099041
95,0.151529073715,0.00743317604065,0.00785088539124,0.0020158290863,14.9307060242
96,0.184088230133,0.00734996795654,0.00786209106445,0.00198292732239,15.352656126
97,0.181579113007,0.0070629119873,0.00773286819458,0.00172686576843,15.4682469368
98,0.14922618866,0.00730609893799,0.00773906707764,0.00195503234863,15.3906080723
99,0.15204000473,0.00753092765808,0.00807094573975,0.00179195404053,15.4178938866
