step,run,get,set,free,run_up_to_step
0,0.150741100311,0.00788617134094,0.00783705711365,0.00155711174011,0.154191017151
1,0.1530148983,0.00803589820862,0.00682997703552,0.00127482414246,0.578124046326
2,0.152369737625,0.00702214241028,0.00693893432617,0.00132012367249,0.457815170288
3,0.161847114563,0.00778889656067,0.00720906257629,0.00147891044617,0.626796007156
4,0.14879322052,0.00730013847351,0.00700902938843,0.00160503387451,0.794766902924
5,0.152997970581,0.00759506225586,0.00704407691956,0.00162720680237,0.921002864838
6,0.186954975128,0.00739502906799,0.0069580078125,0.00157499313354,1.29050278664
7,0.15423989296,0.00717496871948,0.0080988407135,0.00187492370605,1.64519786835
8,0.157394886017,0.00767993927002,0.00725793838501,0.00181102752686,1.57264494896
9,0.158960819244,0.00739502906799,0.00729393959045,0.00174689292908,1.57958602905
10,0.179010868073,0.00792193412781,0.00696921348572,0.00160789489746,1.76955294609
11,0.150735855103,0.00724482536316,0.00726413726807,0.00168704986572,2.51333999634
12,0.151728153229,0.00726389884949,0.00683403015137,0.00160694122314,2.01586914062
13,0.148946285248,0.00675082206726,0.00759410858154,0.00177884101868,2.6043279171
14,0.162739038467,0.00804901123047,0.00738787651062,0.00219106674194,2.43602991104
15,0.167638301849,0.0074450969696,0.00765013694763,0.0020158290863,2.49252295494
16,0.148909330368,0.00701212882996,0.00757193565369,0.00174784660339,2.82291603088
17,0.158592939377,0.00717186927795,0.00750398635864,0.00182199478149,2.89313411713
18,0.158679008484,0.00830388069153,0.00749921798706,0.00175309181213,3.03748393059
19,0.149621963501,0.00700402259827,0.00712203979492,0.00168204307556,3.80041003227
20,0.184009790421,0.00888895988464,0.0070629119873,0.00163507461548,3.42777109146
21,0.164696931839,0.0087251663208,0.00751280784607,0.001708984375,3.63222098351
22,0.15686917305,0.00749206542969,0.0078501701355,0.00196480751038,3.94145417213
23,0.155811786652,0.00728607177734,0.00696206092834,0.00175809860229,3.87746787071
24,0.153980731964,0.00714588165283,0.00796699523926,0.00200915336609,4.17359805107
25,0.149932861328,0.00733304023743,0.0077178478241,0.00174283981323,4.73571610451
26,0.162554979324,0.00793600082397,0.00755190849304,0.00173497200012,4.61760497093
27,0.149282932281,0.00733804702759,0.00836491584778,0.0019268989563,4.33333802223
28,0.149651050568,0.00682187080383,0.00789880752563,0.00172996520996,5.11192297935
29,0.151056051254,0.00697708129883,0.00696301460266,0.001629114151,5.40662193298
30,0.174201011658,0.0073549747467,0.00801587104797,0.00175213813782,5.32607913017
31,0.161488771439,0.00718593597412,0.0078718662262,0.00182199478149,5.43197512627
32,0.173424005508,0.00748109817505,0.00737714767456,0.00168800354004,5.03876185417
33,0.152078866959,0.00700402259827,0.00716781616211,0.00168204307556,6.06907200813
34,0.151161909103,0.0072340965271,0.00705409049988,0.00158905982971,6.11686015129
35,0.147503137589,0.00676488876343,0.00693321228027,0.00166821479797,5.95690393448
36,0.146794080734,0.00670695304871,0.00697302818298,0.00162601470947,6.24887895584
37,0.159422159195,0.00686597824097,0.00808000564575,0.00190210342407,6.47183704376
38,0.166271686554,0.00742411613464,0.00726699829102,0.00164413452148,6.69745016098
39,0.148224830627,0.00696301460266,0.00756812095642,0.00177907943726,6.6808590889
40,0.15679693222,0.00691699981689,0.00705099105835,0.00172996520996,7.06323313713
41,0.149665117264,0.0067880153656,0.00733685493469,0.00156593322754,7.17989897728
42,0.151436805725,0.00679016113281,0.00717306137085,0.00157618522644,7.66174888611
43,0.154099941254,0.00718998908997,0.00722408294678,0.00192213058472,7.56090807915
44,0.220709085464,0.00799489021301,0.0073401927948,0.00165605545044,7.67957282066
45,0.148369789124,0.00708889961243,0.0080509185791,0.00201296806335,7.32357192039
46,0.155631065369,0.00704598426819,0.00705194473267,0.00207614898682,7.60125398636
47,0.154896736145,0.00674104690552,0.00684785842896,0.00156903266907,8.09270310402
48,0.151062726974,0.00699901580811,0.00722217559814,0.00200796127319,8.20368909836
49,0.154440164566,0.00687503814697,0.00723910331726,0.00157189369202,8.53281807899
50,0.158898830414,0.00824403762817,0.00701594352722,0.00179505348206,8.25975298882
51,0.149641275406,0.00712084770203,0.00766682624817,0.00250101089478,8.58836007118
52,0.150513887405,0.00717115402222,0.00705409049988,0.00153708457947,8.8931851387
53,0.15169095993,0.00672388076782,0.00680804252625,0.00159382820129,8.95198011398
54,0.150134086609,0.00675892829895,0.00692009925842,0.00157904624939,9.34050011635
55,0.155466079712,0.00697803497314,0.00702881813049,0.0016348361969,9.0140478611
56,0.149094820023,0.00694012641907,0.00708198547363,0.00159311294556,9.32964110374
57,0.148694992065,0.0068461894989,0.00717115402222,0.00158500671387,9.47056293488
58,0.149471998215,0.00727701187134,0.00698614120483,0.00157499313354,9.75781702995
59,0.18870306015,0.00746512413025,0.00728583335876,0.00184893608093,10.0364239216
60,0.155142784119,0.00735402107239,0.00729298591614,0.00162506103516,9.65643405914
61,0.513823270798,0.00726199150085,0.00707101821899,0.00169992446899,9.85326004028
62,0.150192022324,0.00735807418823,0.00696015357971,0.00156688690186,10.1397390366
63,0.148509979248,0.00675797462463,0.00693607330322,0.00161290168762,10.3505568504
64,0.151079893112,0.0068690776825,0.00736284255981,0.00161409378052,10.8641488552
65,0.147055149078,0.00696015357971,0.00697898864746,0.00163412094116,11.1102468967
66,0.15226483345,0.00695109367371,0.00694799423218,0.00156784057617,10.904761076
67,0.591266870499,0.00727295875549,0.00710606575012,0.00167083740234,11.3906130791
68,0.178359031677,0.00696611404419,0.0071918964386,0.00162887573242,10.8830931187
69,0.148972272873,0.00660800933838,0.00815296173096,0.00195097923279,12.189289093
70,0.147915124893,0.00687599182129,0.00690507888794,0.00172185897827,11.3936109543
71,0.172430753708,0.006756067276,0.00710296630859,0.00165700912476,11.5229189396
72,0.148848056793,0.00686001777649,0.00699496269226,0.00155901908875,12.0709049702
73,0.14954996109,0.0070788860321,0.00710415840149,0.00156998634338,11.6970911026
74,0.148051023483,0.00696396827698,0.00709795951843,0.00175094604492,12.1729030609
75,0.151841878891,0.00693202018738,0.00697612762451,0.00159502029419,12.0048000813
76,0.147930145264,0.00671195983887,0.00805187225342,0.0018630027771,13.0642440319
77,0.149101734161,0.00715899467468,0.00730109214783,0.00168800354004,12.6462521553
78,0.158196210861,0.00738310813904,0.00718283653259,0.00176811218262,13.0296030045
79,0.147325992584,0.00687217712402,0.00680994987488,0.00161099433899,13.3394808769
80,0.172755002975,0.00692987442017,0.00705099105835,0.00158309936523,12.9811179638
81,0.15229678154,0.00665402412415,0.00688099861145,0.00166392326355,13.0105690956
82,0.188040733337,0.00747799873352,0.00725317001343,0.00156807899475,14.2013640404
83,0.147177934647,0.00667691230774,0.00730490684509,0.00160789489746,13.5175058842
84,0.147543907166,0.00670409202576,0.00696301460266,0.00162386894226,13.8622810841
85,0.153818130493,0.00699090957642,0.00729703903198,0.00166797637939,13.8751149178
86,0.147436141968,0.00707483291626,0.00737404823303,0.00161504745483,13.6491010189
87,0.153032779694,0.00716400146484,0.00707602500916,0.00160694122314,14.046492815
88,0.149586200714,0.00726509094238,0.00699090957642,0.00167298316956,14.2948479652
89,0.147742271423,0.00706577301025,0.00710511207581,0.00196599960327,15.4386279583
90,0.148178100586,0.00640988349915,0.00749087333679,0.00170397758484,16.223870039
91,0.149923801422,0.00718212127686,0.00718784332275,0.00160503387451,15.322510004
92,0.153351068497,0.00717210769653,0.00693678855896,0.0015709400177,16.6911771297
93,0.149863004684,0.00661897659302,0.00706815719604,0.00159215927124,14.8725888729
94,0.205382823944,0.00738501548767,0.00736808776855,0.00163292884827,15.858328104
95,0.153604984283,0.00713300704956,0.00731086730957,0.00167107582092,17.6289038658
96,0.149983882904,0.00715208053589,0.00731086730957,0.00165605545044,16.5372321606
97,0.245650291443,0.00847291946411,0.0073709487915,0.00159692764282,17.7067980766
98,0.147740125656,0.00726294517517,0.00702404975891,0.00167679786682,16.7727749348
99,0.148463010788,0.00673389434814,0.00768113136292,0.0016918182373,16.5302860737
