step,run,get,set,free,run_up_to_step
0,0.180217027664,0.0138609409332,0.0132720470428,0.00266695022583,0.181085109711
1,0.202032089233,0.0153820514679,0.0127511024475,0.0026581287384,0.361598014832
2,0.180418968201,0.01282787323,0.0128040313721,0.00287103652954,0.562036991119
3,0.191865921021,0.0130450725555,0.0135641098022,0.00283002853394,0.724104166031
4,0.187117099762,0.0130729675293,0.0134551525116,0.00284504890442,1.00026798248
5,0.181085348129,0.0136728286743,0.0131900310516,0.0029079914093,1.18524098396
6,0.179092884064,0.013120174408,0.0134291648865,0.00341200828552,1.27520799637
7,0.182584047318,0.0311880111694,0.0181050300598,0.00479507446289,1.88696408272
8,0.190189838409,0.0134899616241,0.0138208866119,0.00305008888245,1.69247293472
9,0.176777124405,0.0126190185547,0.0138330459595,0.00287413597107,1.81124901772
10,0.24576997757,0.0140171051025,0.0140328407288,0.00304698944092,2.01979994774
11,0.177289247513,0.0131540298462,0.0165371894836,0.00466704368591,2.23106002808
12,0.233518123627,0.0161690711975,0.013454914093,0.00360894203186,2.35337400436
13,0.191771268845,0.0148491859436,0.0132651329041,0.00284504890442,2.79838204384
14,0.18233704567,0.013149023056,0.0133039951324,0.00289297103882,2.70330190659
15,0.189090013504,0.0134398937225,0.0132188796997,0.00312399864197,2.93012213707
16,0.979725122452,0.0145971775055,0.0131189823151,0.00286602973938,3.09914398193
17,0.176485061646,0.0126769542694,0.0141520500183,0.00299406051636,3.81180810928
18,0.178274154663,0.0129129886627,0.0133171081543,0.00285196304321,3.89745593071
19,0.182397127151,0.0126719474792,0.0132791996002,0.00287199020386,4.0588760376
20,0.176287889481,0.0128071308136,0.0133800506592,0.00294995307922,4.33138108253
21,0.179319858551,0.0126619338989,0.0134041309357,0.00287890434265,4.43077278137
22,0.830924987793,0.0147180557251,0.013240814209,0.00289106369019,4.29015994072
23,0.17684173584,0.013307094574,0.0144779682159,0.00382518768311,4.39942502975
24,0.177594900131,0.0135741233826,0.0132441520691,0.0029079914093,4.69733595848
25,0.179928064346,0.0128939151764,0.0190408229828,0.00481986999512,5.19399785995
26,0.188288211823,0.0137569904327,0.0133409500122,0.00285601615906,4.90982913971
27,0.21479010582,0.017166852951,0.0135509967804,0.00332403182983,5.9369020462
28,0.176959037781,0.0135111808777,0.0140850543976,0.00327897071838,5.26268410683
29,0.175180912018,0.0128540992737,0.0134379863739,0.00287485122681,5.78359603882
30,0.184930801392,0.0129301548004,0.0134510993958,0.00332403182983,6.10205101967
31,0.177919864655,0.0139122009277,0.0133519172668,0.00292587280273,5.92097997665
32,0.237703084946,0.0128679275513,0.0135991573334,0.00289106369019,6.49521398544
33,0.180765867233,0.0129561424255,0.0136280059814,0.00330400466919,6.59669613838
34,0.181900024414,0.0131578445435,0.0134398937225,0.00296902656555,6.96497011185
35,0.176080703735,0.0128409862518,0.0148138999939,0.00287079811096,7.38241791725
36,0.191073179245,0.0129148960114,0.0147120952606,0.00344610214233,7.2269051075
37,0.207463026047,0.0172770023346,0.0136258602142,0.00293803215027,7.48550796509
38,0.203281164169,0.0129070281982,0.013377904892,0.00287890434265,7.525370121
39,0.178526163101,0.0136289596558,0.014848947525,0.00330185890198,7.39764714241
40,0.223790168762,0.0171349048615,0.0135548114777,0.00291109085083,7.98274803162
41,0.189545869827,0.0128569602966,0.0197148323059,0.00438404083252,7.98453617096
42,0.174983978271,0.012806892395,0.0132908821106,0.00323605537415,8.54026389122
43,0.19779086113,0.0131611824036,0.0134871006012,0.00287199020386,8.55483698845
44,0.176151990891,0.0131640434265,0.0313141345978,0.00290203094482,8.58369898796
45,0.174545049667,0.0126791000366,0.0180480480194,0.003986120224,8.84487390518
46,0.226292133331,0.0187990665436,0.0136699676514,0.00292301177979,8.69086408615
47,0.208451032639,0.0131959915161,0.0187680721283,0.00416398048401,9.34829902649
48,0.176606893539,0.0121500492096,0.0130879878998,0.00280809402466,9.20186400414
49,0.176834821701,0.0123910903931,0.0130610466003,0.00282406806946,9.33992600441
50,0.182499885559,0.0128591060638,0.0137648582458,0.0034761428833,9.68409609795
51,0.188857078552,0.0127000808716,0.0134320259094,0.00359392166138,9.96749091148
52,0.176922798157,0.0127239227295,0.0126419067383,0.00313711166382,9.76795601845
53,0.176680803299,0.0123670101166,0.0128350257874,0.00286293029785,10.5063068867
54,0.182047843933,0.0122630596161,0.0132441520691,0.00289988517761,11.3250479698
55,0.178995132446,0.0121009349823,0.0129251480103,0.00324296951294,10.6116259098
56,0.17616891861,0.0126659870148,0.0131039619446,0.00300288200378,10.8371319771
57,0.558609962463,0.0125880241394,0.0131211280823,0.00316405296326,11.2218408585
58,0.182235956192,0.0137100219727,0.0135810375214,0.00289702415466,11.4705979824
59,0.177964925766,0.0127499103546,0.0134830474854,0.0029239654541,11.5027601719
60,0.182801961899,0.0131330490112,0.0137329101562,0.00451612472534,11.3917078972
61,0.181394100189,0.0139920711517,0.0141160488129,0.00324416160583,11.3999500275
62,0.184234857559,0.013552904129,0.0141859054565,0.00303077697754,11.6643989086
63,0.176232099533,0.0133528709412,0.0143048763275,0.00288200378418,12.9268591404
64,0.189231872559,0.0139360427856,0.0139501094818,0.0028989315033,12.5823910236
65,0.182918071747,0.0134561061859,0.0139620304108,0.00281381607056,16.1153798103
66,0.181551933289,0.0132710933685,0.0138289928436,0.00288009643555,12.9387249947
67,0.188412189484,0.0133028030396,0.0158040523529,0.00350594520569,13.8257219791
68,1.00337409973,0.0151841640472,0.0137219429016,0.00295305252075,13.5270628929
69,0.207808732986,0.014121055603,0.0139031410217,0.00353097915649,13.1090681553
70,0.178030014038,0.0132369995117,0.0137360095978,0.0032069683075,14.3350670338
71,0.179094076157,0.0134379863739,0.0139360427856,0.0029468536377,15.0070068836
72,0.17787027359,0.0139269828796,0.0140881538391,0.00297498703003,13.7951500416
73,0.180738925934,0.0129001140594,0.0135431289673,0.00382900238037,14.9508619308
74,0.183593034744,0.0132160186768,0.0135548114777,0.00362300872803,13.7992949486
75,0.178032875061,0.0134890079498,0.0131731033325,0.00283288955688,13.9605801105
76,0.176681041718,0.0130839347839,0.0168089866638,0.00356507301331,14.368085146
77,0.176922082901,0.0132310390472,0.0137348175049,0.00334787368774,15.4579091072
78,0.205652952194,0.0129430294037,0.013925075531,0.00301003456116,14.8366541862
79,0.17572593689,0.0133099555969,0.0159368515015,0.00350403785706,15.0395569801
80,0.186631917953,0.0135271549225,0.0137758255005,0.00305604934692,15.1344759464
81,0.178550958633,0.0133600234985,0.013610124588,0.00303792953491,15.2425498962
82,0.176772117615,0.0132541656494,0.0134429931641,0.00284886360168,15.5465428829
83,0.182627916336,0.0134468078613,0.0144209861755,0.00344514846802,15.7484099865
84,0.177561044693,0.0138890743256,0.0138208866119,0.00290894508362,15.481637001
85,0.181212902069,0.0138230323792,0.0137481689453,0.00293302536011,16.0668098927
86,0.179243803024,0.0131998062134,0.0137610435486,0.00327014923096,18.1571700573
87,0.177272081375,0.0137670040131,0.0133850574493,0.00292801856995,16.5401699543
88,0.177490949631,0.0151009559631,0.0147089958191,0.0033700466156,17.3516309261
89,0.194644212723,0.0146508216858,0.0137979984283,0.00294804573059,18.9175670147
90,0.178406000137,0.0131349563599,0.0141038894653,0.00375080108643,18.4511079788
91,0.189586877823,0.0140180587769,0.0135960578918,0.00328302383423,17.641092062
92,0.17752289772,0.0130050182343,0.0144331455231,0.00340700149536,17.2493929863
93,0.181349754333,0.0135641098022,0.0137569904327,0.00294089317322,17.7828230858
94,0.176823854446,0.0129110813141,0.0132570266724,0.00297808647156,17.5595397949
95,0.177281141281,0.0133948326111,0.0168969631195,0.00284910202026,19.4603638649
96,0.215308666229,0.0136959552765,0.0142869949341,0.00291705131531,18.0631189346
97,0.17299413681,0.0129840373993,0.0136520862579,0.00347900390625,18.5142469406
98,0.823605060577,0.0137269496918,0.0142920017242,0.00313282012939,18.3106691837
99,0.180157899857,0.0142030715942,0.0152339935303,0.00332307815552,18.7363119125
