step,run,get,set,free,run_up_to_step
0,0.28329706192,0.00302791595459,0.00359487533569,0.000333070755005,0.282837867737
1,0.294154167175,0.00295686721802,0.00367307662964,0.000314950942993,0.580232858658
2,0.285593032837,0.00308990478516,0.00351595878601,0.000350952148438,0.863233804703
3,0.28307890892,0.00292897224426,0.00358581542969,0.000437021255493,1.13866305351
4,0.28341293335,0.00301480293274,0.0035560131073,0.000340938568115,1.42365813255
5,0.282166957855,0.00309705734253,0.00370311737061,0.000354051589966,1.68169689178
6,0.288172006607,0.00297093391418,0.00362682342529,0.000384092330933,2.22847509384
7,0.281194925308,0.00307202339172,0.00363683700562,0.000349044799805,2.27336287498
8,0.28425693512,0.0032160282135,0.00372099876404,0.000353097915649,2.98819303513
9,0.283757925034,0.0031590461731,0.00379204750061,0.000439882278442,2.80160999298
10,0.268746137619,0.0030460357666,0.00364708900452,0.000354051589966,3.73943996429
11,0.28882598877,0.00296020507812,0.00364995002747,0.000316143035889,3.70343995094
12,0.287542104721,0.00311398506165,0.00370192527771,0.000414133071899,3.64183688164
13,0.278195858002,0.00304889678955,0.00359296798706,0.000398874282837,3.96783494949
14,0.28420996666,0.00318884849548,0.00367593765259,0.000303983688354,4.23162198067
15,0.284606933594,0.00303792953491,0.00362610816956,0.000308036804199,4.44623994827
16,0.285399198532,0.00319814682007,0.00364804267883,0.00034499168396,4.83988690376
17,0.290989160538,0.00319290161133,0.00373816490173,0.000367879867554,5.09461307526
18,0.278694152832,0.00322008132935,0.00370502471924,0.000341892242432,5.34319281578
19,0.277135133743,0.00312089920044,0.00373983383179,0.000355958938599,5.86098694801
20,0.285161972046,0.00317716598511,0.00381398200989,0.000350952148438,6.20815300941
21,0.277539014816,0.0029878616333,0.00386309623718,0.000358819961548,6.17397212982
22,0.285115003586,0.00318503379822,0.00387692451477,0.000365972518921,6.47059106827
23,0.280339956284,0.00304102897644,0.00376892089844,0.000375032424927,7.08355379105
24,0.292255878448,0.00337100028992,0.00374293327332,0.000380039215088,7.11046481133
25,0.291775941849,0.00338292121887,0.00371718406677,0.000519990921021,7.27607703209
26,0.858392000198,0.00310206413269,0.00365710258484,0.000386953353882,7.67787289619
27,0.288327217102,0.00314807891846,0.00368809700012,0.000363111495972,8.05337905884
28,0.284379720688,0.00307393074036,0.00373601913452,0.000371932983398,8.55094790459
29,0.286224126816,0.00310087203979,0.00364089012146,0.000367164611816,8.85498785973
30,0.277858972549,0.00314998626709,0.00370907783508,0.000370025634766,9.01979494095
31,0.277697086334,0.0030689239502,0.00364398956299,0.00035285949707,9.0078868866
32,0.282993078232,0.00311207771301,0.00369501113892,0.000380039215088,9.45248603821
33,0.285404205322,0.00330805778503,0.00371718406677,0.000391006469727,9.61468911171
34,0.792320966721,0.0032320022583,0.00384402275085,0.000427961349487,9.8543741703
35,0.288645744324,0.00311708450317,0.00368404388428,0.000497817993164,10.578387022
36,0.278213024139,0.00310492515564,0.00368499755859,0.000386953353882,10.7290649414
37,0.286571979523,0.00325608253479,0.00371885299683,0.00048303604126,11.0135948658
38,0.28457903862,0.00321197509766,0.00377988815308,0.000442981719971,11.2836389542
39,0.2818171978,0.00311398506165,0.00370693206787,0.000402927398682,11.5723969936
40,0.278313875198,0.00310301780701,0.00373196601868,0.000402927398682,11.7832808495
41,0.285001039505,0.00318002700806,0.00398898124695,0.000407934188843,12.1720168591
42,0.274201869965,0.00309991836548,0.00381207466125,0.000508069992065,12.6290869713
43,0.27890586853,0.00320100784302,0.00377488136292,0.00039005279541,12.8518898487
44,0.284502983093,0.00315713882446,0.0037260055542,0.000397920608521,12.5926470757
45,0.278567075729,0.00306487083435,0.00370192527771,0.000402927398682,12.9547970295
46,0.276379823685,0.00308990478516,0.00371599197388,0.000499963760376,13.4821147919
47,0.284819126129,0.00311803817749,0.00376105308533,0.000399112701416,13.6072120667
48,0.280306816101,0.00316500663757,0.00364398956299,0.000397920608521,13.9194159508
49,0.539942979813,0.00338196754456,0.00389504432678,0.000508069992065,14.4764688015
50,0.282710790634,0.00323605537415,0.00372195243835,0.000405073165894,14.5039308071
51,0.281785011292,0.00315403938293,0.00381112098694,0.000416994094849,14.9263641834
52,0.28514790535,0.0032320022583,0.00373983383179,0.000420808792114,15.4078409672
53,0.290219783783,0.00327682495117,0.00384092330933,0.000416994094849,15.302325964
54,0.281236171722,0.00318884849548,0.0037670135498,0.000473976135254,15.6299459934
55,0.277517795563,0.00318098068237,0.00379395484924,0.00043797492981,16.0800580978
56,0.289489030838,0.00320887565613,0.00358295440674,0.000391960144043,16.1692669392
57,0.29004406929,0.00326013565063,0.00379800796509,0.000412940979004,16.8600308895
58,0.596790790558,0.00344491004944,0.00383806228638,0.000545978546143,17.421380043
59,0.284240961075,0.00307607650757,0.00372409820557,0.000392913818359,17.4275100231
60,0.291789054871,0.00331211090088,0.00376892089844,0.000408887863159,17.8023018837
61,0.277737140656,0.0031418800354,0.00376510620117,0.000438928604126,18.0789740086
62,0.283539056778,0.00319409370422,0.00385499000549,0.000430822372437,18.4725060463
63,0.653238773346,0.00347900390625,0.00389313697815,0.000520944595337,18.8392920494
64,0.290904998779,0.00321006774902,0.00386095046997,0.000403881072998,19.0246047974
65,0.276589870453,0.00311279296875,0.00379586219788,0.000406980514526,19.0285670757
66,0.279304981232,0.00310492515564,0.00384497642517,0.000555992126465,19.4803791046
67,0.280875205994,0.00310206413269,0.00385713577271,0.00040602684021,19.7150039673
68,0.293482065201,0.00327205657959,0.00379109382629,0.000548124313354,20.2523880005
69,0.287177801132,0.00312805175781,0.00373888015747,0.000416040420532,20.1340200901
70,0.285841941833,0.00313186645508,0.00389194488525,0.000375986099243,20.8725309372
71,0.278686285019,0.0031681060791,0.00372195243835,0.000411033630371,20.8433330059
72,0.289342164993,0.00311899185181,0.00385999679565,0.000416040420532,21.1305129528
73,0.291605234146,0.00318813323975,0.0035560131073,0.000403881072998,21.4850180149
74,0.284696102142,0.00326299667358,0.00377488136292,0.000420093536377,21.6292731762
75,0.290229082108,0.00335121154785,0.00367379188538,0.000398874282837,21.6443212032
76,0.286860227585,0.00320601463318,0.0038058757782,0.000404119491577,22.4404439926
77,0.279288053513,0.00311589241028,0.00373697280884,0.000411033630371,22.3381931782
78,0.288743972778,0.00311803817749,0.00373506546021,0.000438928604126,23.053374052
79,0.290013074875,0.00319194793701,0.00416994094849,0.000440120697021,23.240334034
80,0.288633823395,0.00315093994141,0.00384211540222,0.00040602684021,23.3443539143
81,0.287695884705,0.00314521789551,0.0037989616394,0.000414133071899,23.68126297
82,0.276695728302,0.00323486328125,0.00387191772461,0.000426054000854,23.966573
83,0.284065008163,0.00315093994141,0.00386691093445,0.000494956970215,23.9408509731
84,0.280224084854,0.00307106971741,0.00379920005798,0.000411987304688,24.1904819012
85,0.287644147873,0.00309705734253,0.00379776954651,0.000434160232544,24.6036617756
86,0.282421827316,0.00311589241028,0.00376510620117,0.000416994094849,24.8013179302
87,0.285207033157,0.003084897995,0.00383114814758,0.000411033630371,25.4030091763
88,0.281493902206,0.00309491157532,0.00368905067444,0.000412940979004,25.4433829784
89,0.283757209778,0.00311398506165,0.00384712219238,0.000416994094849,26.0635378361
90,0.28914308548,0.00315403938293,0.00378608703613,0.000420093536377,26.190089941
91,0.283909082413,0.00314688682556,0.00372910499573,0.00049090385437,25.8288269043
92,0.280883073807,0.0031270980835,0.00387597084045,0.000409841537476,26.1802070141
93,0.283197641373,0.00323009490967,0.00367403030396,0.000415086746216,26.5690059662
94,0.283797025681,0.00322294235229,0.00366401672363,0.000413179397583,27.4606080055
95,0.284145116806,0.00324201583862,0.00374794006348,0.000495910644531,27.5094950199
96,0.286776065826,0.0031578540802,0.00389313697815,0.000427961349487,27.0717611313
97,0.280164003372,0.00313186645508,0.00377893447876,0.000480890274048,27.3378977776
98,0.279896020889,0.00319290161133,0.00396299362183,0.000412940979004,27.7113969326
99,0.28243303299,0.00310015678406,0.00374293327332,0.000458955764771,27.942663908
