step,run,get,set,free,run_up_to_step
0,0.129520177841,0.00314497947693,0.00289297103882,0.000402212142944,0.131242036819
1,0.127089262009,0.00249791145325,0.00267505645752,0.000384092330933,0.574471950531
2,0.127588033676,0.00280404090881,0.00297784805298,0.000577926635742,0.389715909958
3,0.15279006958,0.00272488594055,0.00284719467163,0.000441074371338,0.671972036362
4,0.124443769455,0.0026969909668,0.0030300617218,0.000533819198608,0.992891073227
5,0.149307012558,0.00284790992737,0.00292611122131,0.000657796859741,0.954079151154
6,0.128447055817,0.00265002250671,0.00338006019592,0.000843048095703,0.900153875351
7,0.131296873093,0.00273990631104,0.00271797180176,0.000514030456543,1.53578996658
8,0.130661010742,0.00280618667603,0.00291419029236,0.000579118728638,1.19612288475
9,0.12858581543,0.00278091430664,0.00279784202576,0.000539064407349,1.52577996254
10,0.129456043243,0.00277614593506,0.00291204452515,0.000641107559204,1.40100598335
11,0.128865003586,0.00269889831543,0.00275492668152,0.000611066818237,2.11866807938
12,0.125989198685,0.00281190872192,0.00290298461914,0.000663995742798,1.65725517273
13,0.12560915947,0.00281691551208,0.00273895263672,0.000602960586548,1.81761693954
14,0.125357866287,0.00284886360168,0.00288200378418,0.00067400932312,1.92607402802
15,0.12700176239,0.00276899337769,0.00269508361816,0.000609159469604,2.43098092079
16,0.136876821518,0.00293898582458,0.00273609161377,0.00062108039856,2.19065403938
17,0.125603914261,0.00253391265869,0.00267505645752,0.000610113143921,2.60752010345
18,0.181858062744,0.00278520584106,0.00284290313721,0.000684022903442,3.06370902061
19,0.127726793289,0.00258708000183,0.00291299819946,0.000620126724243,3.39077782631
20,0.130900144577,0.00262212753296,0.0027449131012,0.000617980957031,3.29037809372
21,0.126242876053,0.00259304046631,0.00275611877441,0.000614881515503,3.34545683861
22,0.126636981964,0.00287008285522,0.00285601615906,0.000625848770142,2.97749686241
23,0.127286195755,0.00278902053833,0.00283598899841,0.000624179840088,3.07947492599
24,0.139947891235,0.00265216827393,0.00288605690002,0.000634908676147,3.99966907501
25,0.126602888107,0.00281500816345,0.00278997421265,0.000617027282715,3.82546782494
26,0.133141994476,0.00275993347168,0.00294709205627,0.000669956207275,3.51329016685
27,0.12545800209,0.00267004966736,0.00274109840393,0.00062894821167,4.47614789009
28,0.126227140427,0.00283789634705,0.0028510093689,0.000648975372314,3.97776913643
29,0.809083938599,0.002769947052,0.00298595428467,0.000657081604004,3.88990497589
30,0.129861116409,0.00263595581055,0.00271201133728,0.000618934631348,4.57031202316
31,0.138647079468,0.00290203094482,0.00288105010986,0.000734090805054,4.39365386963
32,0.126986026764,0.00264811515808,0.00273895263672,0.000639915466309,4.92908096313
33,0.130328893661,0.00269889831543,0.00290012359619,0.000730037689209,4.80852413177
34,0.129314184189,0.00261878967285,0.00292301177979,0.000705003738403,4.923361063
35,0.128618955612,0.00294399261475,0.00288486480713,0.00068998336792,5.48699998856
36,0.126219034195,0.00281310081482,0.0027220249176,0.00061821937561,5.13410186768
37,0.157731771469,0.00267887115479,0.00280499458313,0.000623941421509,5.13355708122
38,0.132627010345,0.00270986557007,0.00272488594055,0.000619888305664,5.02449512482
39,0.12620806694,0.0025360584259,0.00279402732849,0.000624179840088,5.37988400459
40,0.126703977585,0.00254917144775,0.00285792350769,0.000620126724243,5.7743871212
41,0.12628698349,0.00262594223022,0.00272607803345,0.000629901885986,5.6851849556
42,0.128914117813,0.00265312194824,0.00283908843994,0.000640153884888,5.7844619751
43,0.12563586235,0.00255107879639,0.00283789634705,0.000664949417114,6.2886288166
44,0.125520944595,0.00255703926086,0.00276517868042,0.000612020492554,6.18209409714
45,0.126646280289,0.00261187553406,0.0027551651001,0.000623941421509,6.51893091202
46,0.128221750259,0.00260591506958,0.00273203849792,0.000631809234619,6.54930305481
47,0.13124370575,0.00264811515808,0.00274705886841,0.000622034072876,6.63890099525
48,0.125926017761,0.00273299217224,0.00329208374023,0.000739097595215,6.72679305077
49,0.125683069229,0.00259709358215,0.00275492668152,0.000614881515503,6.8594648838
50,0.12415599823,0.00261902809143,0.00313997268677,0.000756025314331,7.01583099365
51,0.124229669571,0.00267004966736,0.00279998779297,0.000651121139526,7.55235600471
52,0.125932216644,0.00260090827942,0.00278806686401,0.000617980957031,7.08342313766
53,0.130083084106,0.00278902053833,0.00294899940491,0.000782012939453,7.14561510086
54,0.12689781189,0.00263094902039,0.00284504890442,0.00062084197998,7.71425104141
55,0.125206947327,0.0026171207428,0.00276899337769,0.000622987747192,7.83423805237
56,0.127398967743,0.00262022018433,0.00284004211426,0.000627994537354,8.06018304825
57,0.129763841629,0.00258088111877,0.00273203849792,0.000623941421509,7.95795702934
58,0.129472970963,0.00256109237671,0.00283598899841,0.000699996948242,8.43852496147
59,0.125141620636,0.00252985954285,0.00275802612305,0.000685930252075,8.74937081337
60,0.155699014664,0.00275301933289,0.00273704528809,0.000622987747192,8.50215101242
61,0.125935077667,0.0028510093689,0.00273299217224,0.000653982162476,8.3377790451
62,0.126750707626,0.00260186195374,0.00271105766296,0.000626087188721,8.64557814598
63,0.127614974976,0.00263500213623,0.00280094146729,0.000624179840088,8.634111166
64,0.125643014908,0.00273108482361,0.00278687477112,0.000627040863037,8.93246889114
65,0.126503705978,0.00276708602905,0.0027379989624,0.000622987747192,9.34162187576
66,0.1312251091,0.00258493423462,0.00292611122131,0.000625133514404,9.49730706215
67,0.126038074493,0.00281095504761,0.00281596183777,0.000643968582153,9.61667299271
68,0.126337051392,0.00272107124329,0.00293302536011,0.000653982162476,9.22269916534
69,0.125778198242,0.0026650428772,0.00270104408264,0.000625848770142,9.69352793694
70,0.128172159195,0.00261902809143,0.00277709960938,0.000629186630249,9.88607001305
71,0.125830173492,0.0026159286499,0.00278997421265,0.00062084197998,10.1928100586
72,0.131360054016,0.00263500213623,0.0027220249176,0.00062084197998,10.3532719612
73,0.134380817413,0.0026650428772,0.00283408164978,0.000669956207275,10.2324931622
74,0.132396936417,0.00262784957886,0.00299215316772,0.000649929046631,10.7486579418
75,0.125138282776,0.00256109237671,0.0027379989624,0.000633001327515,10.4311010838
76,0.126929759979,0.00267386436462,0.00283479690552,0.000618934631348,10.8101580143
77,0.131904840469,0.0025749206543,0.00271105766296,0.000629186630249,10.68531394
78,0.124882698059,0.00261497497559,0.00273299217224,0.000629901885986,11.1161730289
79,0.129387140274,0.00260996818542,0.00277996063232,0.000702857971191,11.1225039959
80,0.174853801727,0.00330209732056,0.00294089317322,0.000712871551514,11.2159831524
81,0.125783920288,0.00254988670349,0.0028088092804,0.000637054443359,11.5873510838
82,0.133345365524,0.00277709960938,0.00274801254272,0.000664949417114,11.8874020576
83,0.13870716095,0.00267004966736,0.0028350353241,0.000657081604004,11.3079941273
84,0.128299951553,0.00260281562805,0.00324416160583,0.000849962234497,11.6878819466
85,0.12580871582,0.00261211395264,0.00272989273071,0.000625848770142,11.7631468773
86,0.125338077545,0.00263810157776,0.00273585319519,0.000632047653198,12.8502991199
87,0.129105806351,0.00265407562256,0.00276017189026,0.000671863555908,12.1643240452
88,0.129610776901,0.0026478767395,0.0027379989624,0.000647068023682,12.0082101822
89,0.134405851364,0.00278401374817,0.00272798538208,0.000656843185425,12.020966053
90,0.127009153366,0.00253987312317,0.0027961730957,0.000678062438965,12.4322881699
91,0.181590795517,0.0026159286499,0.00285792350769,0.000622987747192,12.8344261646
92,0.137856960297,0.00255703926086,0.00273704528809,0.000627040863037,13.0097110271
93,0.150712013245,0.00368189811707,0.00278997421265,0.000693082809448,12.3746049404
94,0.146470069885,0.00277209281921,0.00279998779297,0.000671148300171,13.2017998695
95,0.131588935852,0.00258708000183,0.00282096862793,0.000663995742798,14.4304349422
96,0.143994092941,0.00263094902039,0.0029890537262,0.000732898712158,14.0546498299
97,0.126042127609,0.0027220249176,0.00297808647156,0.000635147094727,14.3102180958
98,0.150432109833,0.00282001495361,0.00276398658752,0.000663995742798,13.5658609867
99,0.12829208374,0.00254607200623,0.00270390510559,0.000625848770142,14.1004519463
