step,run,get,set,free,run_up_to_step
0,0.164819955826,0.00484418869019,0.00415802001953,0.000783205032349,0.1606528759
1,0.148079156876,0.00407981872559,0.0041720867157,0.000713109970093,0.297025918961
2,0.144809246063,0.00397706031799,0.004390001297,0.00106287002563,0.46720290184
3,0.146608829498,0.00408315658569,0.00428986549377,0.000880002975464,0.598536968231
4,0.142424106598,0.00381803512573,0.00416302680969,0.000942945480347,0.717891931534
5,0.141812086105,0.00386309623718,0.00436496734619,0.00100612640381,0.878700971603
6,0.147850036621,0.0041081905365,0.00470113754272,0.00130796432495,1.02960395813
7,0.140803337097,0.00387001037598,0.00422096252441,0.00100708007812,1.30006098747
8,0.16504073143,0.00430488586426,0.0041868686676,0.000941038131714,1.46971607208
9,0.197452068329,0.00442504882812,0.00448679924011,0.00115394592285,1.46063709259
10,0.225502967834,0.00464987754822,0.00440192222595,0.00106811523438,2.42271208763
11,0.164655208588,0.004478931427,0.00417399406433,0.000972986221313,1.95611286163
12,0.163785934448,0.00416493415833,0.0046501159668,0.00110507011414,2.32396411896
13,0.139978885651,0.00397896766663,0.00493192672729,0.00141882896423,2.10016298294
14,0.172155857086,0.00414705276489,0.00431609153748,0.00100302696228,2.42863917351
15,0.163010120392,0.00412487983704,0.00434708595276,0.00102019309998,2.52636289597
16,0.167223930359,0.004065990448,0.00439190864563,0.00107908248901,2.75973200798
17,0.145946025848,0.00399518013,0.00464200973511,0.0011260509491,3.16672492027
18,0.163586139679,0.00399994850159,0.00418996810913,0.00104093551636,2.99218201637
19,0.159737110138,0.00411605834961,0.00462293624878,0.00106310844421,2.94378209114
20,0.153750181198,0.00419402122498,0.00411796569824,0.000988960266113,3.05541086197
21,0.264111042023,0.00482201576233,0.00436520576477,0.000977993011475,4.88134789467
22,0.139940977097,0.00388979911804,0.00406789779663,0.000946998596191,3.99801397324
23,0.15244603157,0.00419998168945,0.00460886955261,0.00133204460144,3.56835818291
24,0.196463823318,0.00406885147095,0.00428915023804,0.00105285644531,4.16765213013
25,0.162986040115,0.00394988059998,0.00421404838562,0.000962018966675,4.61014890671
26,0.142338037491,0.0039050579071,0.00444102287292,0.00108885765076,4.29282712936
27,0.148064851761,0.00406908988953,0.00437617301941,0.000977993011475,4.12522602081
28,0.156438827515,0.00380611419678,0.0255811214447,0.000959873199463,4.85073900223
29,0.142650127411,0.00410389900208,0.00432395935059,0.00107908248901,4.53238391876
30,0.141756296158,0.00397801399231,0.0050208568573,0.00133800506592,4.56767511368
31,0.141803741455,0.00403809547424,0.00423192977905,0.00102996826172,5.36889505386
32,0.181347846985,0.00396299362183,0.00443410873413,0.00103092193604,5.69281291962
33,0.153850078583,0.00406908988953,0.00478196144104,0.00120091438293,5.72433209419
34,0.14627790451,0.00401091575623,0.00438690185547,0.00114679336548,6.21475601196
35,0.148126840591,0.00400996208191,0.00455093383789,0.00111198425293,6.04071903229
36,0.149134874344,0.0039598941803,0.00427293777466,0.00096607208252,6.12899780273
37,0.168500900269,0.00429201126099,0.00448393821716,0.00111103057861,5.75573897362
38,0.167609930038,0.00411796569824,0.004478931427,0.001051902771,5.92435002327
39,0.153203964233,0.00383687019348,0.00426912307739,0.00100708007812,6.66792392731
40,0.162264108658,0.00404405593872,0.00501894950867,0.00127100944519,7.18969488144
41,0.152471065521,0.00386905670166,0.00469517707825,0.00120401382446,7.29854607582
42,0.161409854889,0.00420904159546,0.00479006767273,0.00136494636536,6.98680186272
43,0.153198242188,0.00402212142944,0.00421690940857,0.000969171524048,7.69374513626
44,0.142951011658,0.00383901596069,0.00474095344543,0.000946998596191,7.75643801689
45,0.149892091751,0.00413203239441,0.00421714782715,0.00100302696228,7.32694292068
46,0.158035039902,0.00419592857361,0.00433421134949,0.0011191368103,7.90861105919
47,0.162688970566,0.00388288497925,0.00428605079651,0.000982046127319,7.65396714211
48,0.159015893936,0.00432515144348,0.00425791740417,0.000982046127319,7.81691288948
49,0.14820098877,0.00388503074646,0.0282728672028,0.00110816955566,8.22735095024
50,0.143769025803,0.00406813621521,0.00428009033203,0.0010359287262,8.49763989449
51,0.163320064545,0.00385904312134,0.00429201126099,0.000962018966675,8.69815087318
52,0.157648086548,0.00404381752014,0.00449419021606,0.00094199180603,8.91070199013
53,0.144608259201,0.0039689540863,0.00455784797668,0.00098705291748,8.93138599396
54,0.141639947891,0.00384187698364,0.00430083274841,0.00103092193604,9.00409507751
55,0.16171503067,0.0039210319519,0.00410008430481,0.000946998596191,9.22390294075
56,0.14644408226,0.00399804115295,0.00434899330139,0.00102186203003,9.17368006706
57,0.160043001175,0.00395488739014,0.00422406196594,0.000967979431152,9.71114301682
58,0.149756193161,0.00385689735413,0.00425696372986,0.000956058502197,9.62316894531
59,0.142938137054,0.00411200523376,0.00406694412231,0.000940084457397,9.77544593811
60,0.160707950592,0.00400495529175,0.00494503974915,0.0012218952179,9.98643994331
61,0.145401000977,0.00409984588623,0.00449395179749,0.00123596191406,11.2072298527
62,0.143224000931,0.00382995605469,0.00440001487732,0.00102496147156,10.7984828949
63,0.147542953491,0.00418496131897,0.00432205200195,0.00109696388245,10.1707839966
64,0.16402888298,0.0041880607605,0.00423216819763,0.000937938690186,10.221077919
65,0.149704217911,0.00394010543823,0.00418400764465,0.000961065292358,11.0046219826
66,0.155596971512,0.00387907028198,0.00423097610474,0.000931024551392,11.0006210804
67,0.164339065552,0.00421595573425,0.00417995452881,0.00107192993164,10.8325221539
68,0.145153999329,0.0038800239563,0.0043420791626,0.00112295150757,12.4495580196
69,0.146425247192,0.004075050354,0.0040979385376,0.00100612640381,11.1659498215
70,0.168303966522,0.00418400764465,0.00419902801514,0.00097393989563,11.8280029297
71,0.144913196564,0.00386691093445,0.00421094894409,0.00142002105713,12.3006510735
72,0.151125907898,0.00407099723816,0.00417995452881,0.00099515914917,11.4319190979
73,0.153064966202,0.00413393974304,0.00450301170349,0.00148296356201,11.9965059757
74,0.143998146057,0.00406312942505,0.00415897369385,0.000962018966675,12.1152360439
75,0.148405075073,0.00400614738464,0.00453305244446,0.00105404853821,12.8318300247
76,0.145368814468,0.00410199165344,0.00429606437683,0.0010449886322,12.1951060295
77,0.160680055618,0.00432395935059,0.00434494018555,0.00107097625732,12.5270698071
78,0.170312166214,0.00392007827759,0.00423789024353,0.000984191894531,13.0446209908
79,0.164849996567,0.00415396690369,0.00425291061401,0.00102806091309,13.2853350639
80,0.147998809814,0.00390696525574,0.00425481796265,0.00109910964966,12.5103709698
81,0.145032167435,0.00435090065002,0.00442099571228,0.000958919525146,12.9137129784
82,0.148254156113,0.00406002998352,0.00434708595276,0.000976085662842,13.0886271
83,0.349859237671,0.00435304641724,0.00428199768066,0.00106596946716,14.1167991161
84,0.170436143875,0.00396013259888,0.00436496734619,0.000977993011475,13.9612379074
85,0.143341779709,0.00397205352783,0.005047082901,0.0010187625885,13.2695908546
86,0.16557598114,0.00427198410034,0.00435590744019,0.00098991394043,13.8093919754
87,0.144114732742,0.00391292572021,0.00468707084656,0.00125002861023,14.3201329708
88,0.161938905716,0.00425791740417,0.00420880317688,0.00108695030212,14.1028199196
89,0.159879207611,0.00379920005798,0.0045120716095,0.00109100341797,14.4013578892
90,0.148601055145,0.00415802001953,0.00407910346985,0.000952959060669,14.2844688892
91,0.152576208115,0.00404620170593,0.00411200523376,0.000977993011475,14.8360788822
92,0.149253129959,0.00413703918457,0.00459599494934,0.00104308128357,15.3981947899
93,0.14949297905,0.00406002998352,0.0044891834259,0.000943183898926,14.9399461746
94,0.152989864349,0.00414800643921,0.00452303886414,0.00097393989563,15.0466060638
95,0.157160043716,0.00418710708618,0.00444412231445,0.00101208686829,15.5792150497
96,0.146675825119,0.00404787063599,0.00479793548584,0.00117301940918,15.9983870983
97,0.167363166809,0.00422286987305,0.00435400009155,0.00110697746277,15.5282099247
98,0.145493984222,0.0039529800415,0.00422286987305,0.000962972640991,15.5827250481
99,0.144602060318,0.00396203994751,0.0238139629364,0.000963926315308,15.5058200359
