step,run,get,set,free,run_up_to_step
0,0.287513017654,0.00612115859985,0.00638794898987,0.000693798065186,0.290418148041
1,0.283023834229,0.00567102432251,0.00676202774048,0.000674962997437,0.561691999435
2,0.264460802078,0.00563502311707,0.00675177574158,0.000660181045532,0.811197042465
3,0.263200998306,0.0056049823761,0.00679802894592,0.000680923461914,1.08641600609
4,0.267215967178,0.00556802749634,0.00668692588806,0.000798940658569,1.36903691292
5,0.26159787178,0.00560283660889,0.00662803649902,0.000651836395264,2.15448188782
6,0.268020868301,0.00587797164917,0.00688219070435,0.000694036483765,1.90313506126
7,0.267445802689,0.00590586662292,0.00653290748596,0.00068187713623,2.12732815742
8,0.261691093445,0.00565505027771,0.00663876533508,0.000674962997437,2.40700817108
9,0.262787103653,0.00583600997925,0.00652408599854,0.000651121139526,2.65051198006
10,0.258451938629,0.00554585456848,0.00646805763245,0.00065279006958,3.1853530407
11,0.267220020294,0.00568199157715,0.00648307800293,0.000669956207275,3.50290203094
12,0.246232032776,0.00602197647095,0.00663614273071,0.000651121139526,3.50120019913
13,0.266964912415,0.00585889816284,0.00640797615051,0.00087308883667,3.7144548893
14,0.267629861832,0.00608992576599,0.00668501853943,0.000885009765625,3.96597695351
15,0.275089979172,0.00574207305908,0.00684309005737,0.000613927841187,4.38940286636
16,0.261239051819,0.00574898719788,0.00665283203125,0.000826120376587,4.53269290924
17,0.264196157455,0.00560092926025,0.00653004646301,0.000689029693604,5.26090216637
18,0.259062051773,0.00577306747437,0.00656294822693,0.000643014907837,5.36880612373
19,0.262573957443,0.00585508346558,0.00668501853943,0.000686883926392,5.32470703125
20,0.261897802353,0.0060248374939,0.00644397735596,0.000605821609497,5.56236696243
21,0.260992050171,0.00546407699585,0.00661396980286,0.000684022903442,6.27364611626
22,0.267950057983,0.00582098960876,0.00687599182129,0.000859022140503,6.13216114044
23,0.262776136398,0.00558304786682,0.00664305686951,0.000739097595215,6.40534615517
24,0.261509895325,0.00576901435852,0.00681090354919,0.000669956207275,7.10660505295
25,0.279860973358,0.00590896606445,0.00671601295471,0.000675916671753,6.86455512047
26,0.2746052742,0.0059859752655,0.00684785842896,0.000927209854126,7.25377321243
27,0.265695095062,0.00588297843933,0.00680685043335,0.000663995742798,7.44196105003
28,0.264237880707,0.00608587265015,0.00655508041382,0.00070595741272,7.72921490669
29,0.269762039185,0.00585913658142,0.00650691986084,0.000681161880493,8.27499985695
30,0.26074385643,0.00573801994324,0.00641298294067,0.000665903091431,8.78555703163
31,0.260365962982,0.00608897209167,0.00682401657104,0.000661849975586,8.44549703598
32,0.259809017181,0.00574398040771,0.00647497177124,0.000683784484863,9.20002794266
33,0.266069889069,0.00594401359558,0.00667405128479,0.00078296661377,9.20433592796
34,0.268728971481,0.00553202629089,0.0065381526947,0.000699043273926,9.62099909782
35,0.954752922058,0.00584483146667,0.00684404373169,0.000774145126343,9.49223017693
36,0.266344070435,0.00567698478699,0.00652098655701,0.000692844390869,10.1757688522
37,0.267671108246,0.00609302520752,0.0067880153656,0.000670909881592,10.525509119
38,0.257882833481,0.00581216812134,0.00698900222778,0.000709056854248,10.6050219536
39,0.261027097702,0.00556492805481,0.00672698020935,0.000734090805054,11.0303180218
40,0.26380109787,0.00587296485901,0.00677585601807,0.000694990158081,11.2124750614
41,0.264147996902,0.0056369304657,0.00697898864746,0.000663995742798,11.6708748341
42,0.269034862518,0.00570106506348,0.00657320022583,0.000707864761353,11.8364439011
43,0.261451005936,0.00563502311707,0.00674510002136,0.000710010528564,12.0263531208
44,0.26503777504,0.00574684143066,0.00673604011536,0.000879049301147,12.2042469978
45,0.26168012619,0.00562214851379,0.00688910484314,0.000683069229126,12.4100971222
46,0.260020971298,0.0056631565094,0.00661516189575,0.000693798065186,12.6089999676
47,0.262668132782,0.00578904151917,0.00654602050781,0.000861167907715,12.7334980965
48,0.267751932144,0.00580596923828,0.00663089752197,0.000710964202881,13.3775250912
49,0.264912843704,0.00570201873779,0.00675892829895,0.000722169876099,13.673511982
50,0.267274141312,0.00600504875183,0.00671410560608,0.000704050064087,13.9277420044
51,0.259124279022,0.0056779384613,0.00692009925842,0.000712156295776,14.3185589314
52,0.266309022903,0.00580501556396,0.00666284561157,0.000978946685791,14.3545358181
53,0.265866994858,0.00565099716187,0.00685620307922,0.000698089599609,14.5830450058
54,0.265200853348,0.00559902191162,0.00704598426819,0.000726938247681,14.8340749741
55,0.257339954376,0.00573706626892,0.006667137146,0.000729084014893,15.2695851326
56,0.265811681747,0.00572991371155,0.00654697418213,0.000718116760254,15.447655201
57,0.264587879181,0.00606393814087,0.0067720413208,0.000680208206177,15.9414961338
58,0.268957138062,0.00573110580444,0.00667595863342,0.00068187713623,15.9469950199
59,0.245104074478,0.00596308708191,0.00672793388367,0.000717163085938,15.7456130981
60,0.263923883438,0.00605797767639,0.00698399543762,0.000724792480469,16.138436079
61,0.267319917679,0.00574016571045,0.00665307044983,0.00071907043457,16.6700279713
62,0.268105983734,0.00576591491699,0.00703287124634,0.000761032104492,16.6447720528
63,0.271872997284,0.00622010231018,0.00680184364319,0.000669002532959,17.6614689827
64,0.263520240784,0.00561904907227,0.00672793388367,0.000713109970093,17.7640459538
65,0.264347314835,0.00590491294861,0.00684714317322,0.000720977783203,17.76781106
66,0.260823011398,0.00570797920227,0.00693798065186,0.000958919525146,17.994795084
67,0.269315958023,0.00571799278259,0.00664591789246,0.000942945480347,18.5171899796
68,0.2696788311,0.00629091262817,0.00712013244629,0.000929832458496,18.4317858219
69,0.269176959991,0.00591897964478,0.00678896903992,0.000716209411621,19.1437821388
70,0.263020277023,0.00557899475098,0.00700998306274,0.000723838806152,19.3893668652
71,0.264530181885,0.00572490692139,0.00693988800049,0.000915050506592,19.6170868874
72,0.271857976913,0.00572896003723,0.00677704811096,0.000731945037842,20.2126839161
73,0.256359100342,0.00598001480103,0.00702095031738,0.00074315071106,20.0754749775
74,0.264623880386,0.00576591491699,0.00685906410217,0.000711917877197,20.1796560287
75,0.259795188904,0.00560712814331,0.00688195228577,0.000992059707642,20.4635539055
76,0.267359972,0.00625705718994,0.00677013397217,0.000720977783203,20.6315350533
77,0.264811992645,0.00619888305664,0.00735688209534,0.000729084014893,21.2624700069
78,0.262089014053,0.00594401359558,0.00654721260071,0.000725984573364,21.1777338982
79,0.2786860466,0.00582790374756,0.00706601142883,0.000913858413696,21.6866412163
80,0.687960863113,0.00626301765442,0.00719404220581,0.000894069671631,21.7653141022
81,0.270783185959,0.00577712059021,0.00679302215576,0.000689029693604,22.2878558636
82,0.260100841522,0.00594401359558,0.00664806365967,0.000761032104492,22.4407930374
83,0.268023014069,0.00571799278259,0.00698184967041,0.000709056854248,22.7939171791
84,0.268224239349,0.00568914413452,0.00685811042786,0.000670909881592,22.9130191803
85,0.265232086182,0.00565409660339,0.00675916671753,0.000712871551514,23.2028090954
86,0.270566940308,0.00590896606445,0.00686717033386,0.000898838043213,23.7715599537
87,0.254631996155,0.00605607032776,0.00742101669312,0.000876903533936,23.9653069973
88,0.275653839111,0.00616884231567,0.00696802139282,0.000905990600586,24.1473789215
89,0.270195007324,0.0061719417572,0.00680494308472,0.000763893127441,24.3006989956
90,0.263667106628,0.00571894645691,0.00686192512512,0.000725030899048,24.6872048378
91,0.267340898514,0.0058000087738,0.00723695755005,0.000900030136108,24.9525671005
92,0.265430927277,0.00592398643494,0.00657200813293,0.000712156295776,25.087198019
93,0.267189979553,0.00597310066223,0.00658392906189,0.000699996948242,25.5749549866
94,0.268164873123,0.00573801994324,0.00666308403015,0.000710010528564,26.0867919922
95,0.264860868454,0.00564408302307,0.00707697868347,0.00068998336792,25.9751901627
96,0.260956287384,0.00596809387207,0.00671410560608,0.000802040100098,26.040345192
97,0.263000011444,0.00628995895386,0.00692319869995,0.000910997390747,26.5093810558
98,0.261667013168,0.00600790977478,0.00677895545959,0.000658988952637,26.6078019142
99,0.266389846802,0.0058958530426,0.00692296028137,0.00072193145752,26.9036698341
