step,run,get,set,free,run_up_to_step
0,0.322057008743,0.0148079395294,0.0133299827576,0.00281715393066,0.297921895981
1,0.298990011215,0.0122289657593,0.0135409832001,0.00316286087036,0.606426954269
2,0.29335308075,0.0121378898621,0.0130949020386,0.0028932094574,0.959913015366
3,0.291223049164,0.0116951465607,0.0131280422211,0.00280404090881,1.18861293793
4,0.29350733757,0.0129718780518,0.0134260654449,0.00293517112732,1.56934404373
5,0.31924200058,0.0121870040894,0.0130481719971,0.00284099578857,1.84013104439
6,0.292505979538,0.0128209590912,0.0130109786987,0.00278902053833,2.0912899971
7,0.292454004288,0.0119678974152,0.0131449699402,0.00296998023987,3.27209186554
8,0.301270008087,0.012690782547,0.013533115387,0.00362992286682,2.74153804779
9,0.297533273697,0.0130178928375,0.0379199981689,0.00310206413269,3.01205897331
10,0.335464000702,0.0126969814301,0.0131888389587,0.0029661655426,3.30839109421
11,0.286576986313,0.0122981071472,0.0131270885468,0.00288486480713,3.98122692108
12,0.292562007904,0.0118229389191,0.0370070934296,0.00285911560059,4.59560513496
13,0.290965080261,0.0119910240173,0.0132341384888,0.00283885002136,4.95220994949
14,0.328747272491,0.0125348567963,0.014270067215,0.0038800239563,4.55066394806
15,0.295850992203,0.0120530128479,0.0131559371948,0.0030472278595,5.23023700714
16,0.287858963013,0.0130050182343,0.0128421783447,0.00278401374817,5.04146099091
17,0.345499992371,0.0125489234924,0.0132420063019,0.00336909294128,5.39876317978
18,0.295573711395,0.0129067897797,0.0130698680878,0.00315403938293,5.65029621124
19,0.309400081635,0.0116350650787,0.0130650997162,0.00281596183777,6.66199803352
20,0.306689977646,0.0131189823151,0.0129480361938,0.00284814834595,6.2273581028
21,0.282284259796,0.0118699073792,0.0129368305206,0.00286507606506,6.88784408569
22,0.283722162247,0.0132598876953,0.0133709907532,0.00284814834595,7.24573493004
23,0.726643800735,0.0141959190369,0.0132489204407,0.00288796424866,8.07114195824
24,0.352456092834,0.0122239589691,0.0129678249359,0.00279688835144,7.72285890579
25,0.290040969849,0.0131809711456,0.0130829811096,0.00279188156128,7.73088312149
26,0.289180755615,0.0131378173828,0.0171749591827,0.00281882286072,7.98988699913
27,0.299292087555,0.0142929553986,0.0146989822388,0.00336408615112,8.70825314522
28,0.301990032196,0.0126450061798,0.0128920078278,0.00299310684204,8.61449098587
29,0.283978700638,0.0115668773651,0.0130708217621,0.00296306610107,9.15292000771
30,0.291892051697,0.0128691196442,0.0129799842834,0.00285601615906,9.92264103889
31,0.318799972534,0.0117712020874,0.0133900642395,0.00278902053833,10.5304119587
32,0.288177967072,0.0124468803406,0.0128409862518,0.00276207923889,10.401446104
33,0.29172205925,0.0126309394836,0.0131368637085,0.00278115272522,10.0589430332
34,0.2909719944,0.013267993927,0.0129489898682,0.00283098220825,10.4161391258
35,0.287771940231,0.0147840976715,0.0130109786987,0.00297403335571,11.4241628647
36,0.288057088852,0.0117838382721,0.0131390094757,0.00280499458313,11.4113788605
37,0.291383981705,0.012225151062,0.0135397911072,0.00318098068237,11.7998101711
38,0.286967039108,0.0116028785706,0.0131900310516,0.00281190872192,11.7380948067
39,0.288222789764,0.0369582176208,0.0135610103607,0.00276708602905,12.7504711151
40,0.310581207275,0.0129609107971,0.0372548103333,0.00286197662354,12.1467878819
41,0.280163049698,0.011607170105,0.0132389068604,0.00279498100281,13.2955579758
42,0.281283855438,0.0120329856873,0.0131289958954,0.00284004211426,13.2864551544
43,0.279469013214,0.0116078853607,0.0129959583282,0.00283193588257,13.5851838589
44,0.311633110046,0.0118668079376,0.0131289958954,0.00304198265076,14.2234930992
45,0.281881809235,0.0117611885071,0.0135111808777,0.00292706489563,14.2506670952
46,0.277734994888,0.0115690231323,0.0135819911957,0.00285315513611,14.488312006
47,0.278192996979,0.0115280151367,0.0133979320526,0.0028600692749,15.4093871117
48,0.279247999191,0.0118250846863,0.013473033905,0.00283694267273,15.5242228508
49,0.345839977264,0.0115599632263,0.0134661197662,0.00281882286072,16.2023210526
50,0.278571844101,0.0117180347443,0.013356924057,0.0027928352356,16.0984520912
51,0.287826061249,0.0122418403625,0.0136768817902,0.00289583206177,16.0559868813
52,0.302123069763,0.0119550228119,0.0140550136566,0.00311303138733,17.190625906
53,0.309851884842,0.012099981308,0.0129239559174,0.00288605690002,16.7082059383
54,0.315428972244,0.0127110481262,0.0131230354309,0.0028190612793,17.0440380573
55,0.287978172302,0.0121610164642,0.0131299495697,0.00303483009338,17.32695508
56,0.280200958252,0.0122439861298,0.0132510662079,0.00295805931091,17.5333940983
57,0.311976909637,0.0144550800323,0.0193321704865,0.00364208221436,18.2485039234
58,0.289928913116,0.0131850242615,0.0130331516266,0.00306415557861,18.5489599705
59,0.3150639534,0.0131390094757,0.0132210254669,0.00359201431274,18.7960560322
60,0.310856819153,0.0119109153748,0.0129241943359,0.002760887146,20.4928460121
61,0.312042951584,0.0129859447479,0.0143949985504,0.00301313400269,20.0633890629
62,0.341991901398,0.0129699707031,0.0138421058655,0.00301313400269,20.5333709717
63,0.304487943649,0.0135130882263,0.0141410827637,0.0028190612793,20.8737149239
64,0.305918931961,0.0126361846924,0.0191531181335,0.00445199012756,21.8993749619
65,0.318338871002,0.012414932251,0.0128939151764,0.00283002853394,21.7433638573
66,0.322015047073,0.0122458934784,0.0137851238251,0.00307297706604,22.3134918213
67,0.308635950089,0.0173110961914,0.012992143631,0.00284719467163,23.347495079
68,0.327047109604,0.012510061264,0.0135459899902,0.00302004814148,22.349709034
69,0.365050077438,0.0133390426636,0.0135910511017,0.00323295593262,23.4235589504
70,0.301760911942,0.0124230384827,0.0137078762054,0.00319504737854,22.896420002
71,0.297709941864,0.0130038261414,0.014132976532,0.00325608253479,23.3658461571
72,0.323374032974,0.0130150318146,0.014466047287,0.0031840801239,25.3509700298
73,0.288440227509,0.0119769573212,0.013594865799,0.00281405448914,24.6973440647
74,0.299561023712,0.0126469135284,0.0133972167969,0.00332808494568,24.7763390541
75,0.300713300705,0.0131590366364,0.0212590694427,0.00578379631042,25.9572770596
76,0.306325912476,0.0136520862579,0.0136749744415,0.0031590461731,26.095140934
77,0.291701793671,0.0124959945679,0.0130519866943,0.00349903106689,26.0953230858
78,0.299922227859,0.012619972229,0.0135550498962,0.00341796875,26.4093329906
79,0.314465999603,0.0122771263123,0.0137519836426,0.00309705734253,25.6761701107
80,0.318931818008,0.0134651660919,0.0145320892334,0.00323390960693,28.3694620132
81,0.94171500206,0.0133748054504,0.0152668952942,0.00312614440918,26.5507400036
82,0.363842010498,0.0117092132568,0.0135221481323,0.00321102142334,28.2359011173
83,0.326930046082,0.0134568214417,0.0133888721466,0.00290894508362,29.768214941
84,0.313761949539,0.0124690532684,0.0129489898682,0.00325107574463,27.9867379665
85,0.316015005112,0.013377904892,0.013561964035,0.00328803062439,28.3355760574
86,0.314586162567,0.0123448371887,0.0138468742371,0.00295782089233,29.5557498932
87,0.299968004227,0.0124781131744,0.0136342048645,0.00342297554016,30.9829490185
88,0.336292028427,0.0126378536224,0.0134248733521,0.0031840801239,29.8312838078
89,0.325378894806,0.0125451087952,0.0141961574554,0.00293803215027,30.7157719135
90,0.318377971649,0.0125179290771,0.0137128829956,0.00366902351379,30.8991761208
91,0.315098047256,0.0128099918365,0.0137121677399,0.00327110290527,30.6020240784
92,0.318284034729,0.0130159854889,0.012974023819,0.00320196151733,30.9272451401
93,0.302432060242,0.0124340057373,0.0136728286743,0.00322580337524,29.9959089756
94,0.303756952286,0.0124278068542,0.0129988193512,0.00282001495361,31.3252539635
95,0.322718143463,0.0115501880646,0.0139150619507,0.0032799243927,31.0258159637
96,0.315117120743,0.0130209922791,0.0186738967896,0.00549697875977,32.2177040577
97,0.305579900742,0.0125761032104,0.0142819881439,0.00310301780701,33.2267839909
98,0.317779779434,0.012549161911,0.0132448673248,0.00284218788147,30.4029889107
99,0.314363956451,0.0117340087891,0.0129201412201,0.00280904769897,31.1142909527
