step,run,get,set,free,run_up_to_step
0,0.138001918793,0.0037579536438,0.00341701507568,0.000522136688232,0.143416166306
1,0.140445947647,0.00322914123535,0.00332593917847,0.000524997711182,0.281359910965
2,0.132758140564,0.00314402580261,0.00366997718811,0.000725030899048,0.416276931763
3,0.133262872696,0.00333404541016,0.00349688529968,0.000809907913208,0.551568031311
4,0.142646074295,0.00313901901245,0.00343203544617,0.000707864761353,0.699696063995
5,0.131657838821,0.00316691398621,0.00334501266479,0.000741004943848,0.81657910347
6,0.134136915207,0.00317311286926,0.00342297554016,0.000741004943848,1.39706492424
7,0.140739917755,0.00331997871399,0.00348806381226,0.000817060470581,1.08733582497
8,0.13182425499,0.00319886207581,0.00336194038391,0.000794887542725,1.21108698845
9,0.139649152756,0.00314998626709,0.00367307662964,0.000954866409302,1.36034393311
10,0.154837369919,0.00318694114685,0.00342702865601,0.000895977020264,2.36081695557
11,0.14306807518,0.00329303741455,0.00339198112488,0.00082802772522,1.67027497292
12,0.143296003342,0.00328993797302,0.00349712371826,0.000865936279297,1.84200310707
13,0.141673088074,0.00345301628113,0.00337600708008,0.000771999359131,2.46386408806
14,0.132853984833,0.00347208976746,0.00346207618713,0.000861883163452,2.07187008858
15,0.144312858582,0.00337791442871,0.00368595123291,0.00104689598083,2.2208878994
16,0.142334938049,0.00318789482117,0.00354099273682,0.00090217590332,3.29492998123
17,0.183860778809,0.00353384017944,0.0037100315094,0.00118708610535,2.49135303497
18,0.146178245544,0.00346493721008,0.00456404685974,0.0011579990387,3.02462911606
19,0.14587688446,0.00323987007141,0.0034818649292,0.000767946243286,3.70600605011
20,0.139660835266,0.00339293479919,0.00347089767456,0.000847101211548,2.88437700272
21,0.188430070877,0.00322604179382,0.0035080909729,0.000779867172241,3.31429600716
22,0.132126092911,0.00325798988342,0.00337290763855,0.000797033309937,3.46008491516
23,0.14418888092,0.00328922271729,0.00334095954895,0.000759124755859,3.35716700554
24,0.136487960815,0.00327110290527,0.00350999832153,0.000931978225708,3.48656010628
25,0.144827842712,0.00330305099487,0.00344800949097,0.00078296661377,3.64403104782
26,0.142189025879,0.00365304946899,0.0035388469696,0.000833988189697,3.72454404831
27,0.140768051147,0.00310707092285,0.00347399711609,0.000779151916504,4.1538670063
28,0.138041973114,0.00327777862549,0.00336503982544,0.000766038894653,3.91546916962
29,0.130201101303,0.00314807891846,0.00344705581665,0.000883817672729,4.38353610039
30,0.139829874039,0.00321984291077,0.00339198112488,0.000807046890259,4.78987693787
31,0.146880865097,0.00334095954895,0.00350904464722,0.000810146331787,4.41115307808
32,0.133836984634,0.00315499305725,0.00346398353577,0.000771045684814,4.83757591248
33,0.145443916321,0.00334978103638,0.0036199092865,0.000787973403931,4.76268100739
34,0.136969804764,0.00323796272278,0.00369215011597,0.000780820846558,5.11504006386
35,0.162784814835,0.00327014923096,0.00345587730408,0.000823974609375,5.81917214394
36,0.13139796257,0.00308990478516,0.00336909294128,0.000793933868408,5.36455702782
37,0.13992190361,0.00315117835999,0.00336694717407,0.000858068466187,5.62502598763
38,0.160202026367,0.00322484970093,0.00380706787109,0.000771999359131,5.35676193237
39,0.144085168839,0.0031270980835,0.00355315208435,0.000834941864014,5.8145070076
40,0.140064954758,0.00316500663757,0.00418400764465,0.00103783607483,5.94477677345
41,0.13632774353,0.00330591201782,0.00344014167786,0.000769138336182,6.82794284821
42,0.132800102234,0.00309705734253,0.00385093688965,0.000772953033447,6.48547792435
43,0.161846160889,0.00345587730408,0.00338101387024,0.00101089477539,6.72627615929
44,0.140814065933,0.00319218635559,0.00347399711609,0.000797986984253,6.56953716278
45,0.13622713089,0.00341606140137,0.00343012809753,0.00076699256897,6.86391615868
46,0.132700920105,0.00312805175781,0.00340795516968,0.000764846801758,7.69466590881
47,0.139213085175,0.00326609611511,0.0034019947052,0.000779867172241,6.6707508564
48,0.143532991409,0.00355887413025,0.00366187095642,0.000761985778809,6.9570069313
49,0.143494129181,0.00331282615662,0.00376486778259,0.00108909606934,7.13118696213
50,0.130807161331,0.00309085845947,0.00381398200989,0.00104379653931,7.40522313118
51,0.146651983261,0.00312089920044,0.00342297554016,0.000777959823608,8.49050307274
52,0.141227245331,0.00308609008789,0.00335907936096,0.000766038894653,7.52119708061
53,0.130653858185,0.00306701660156,0.00333499908447,0.000755786895752,7.8270778656
54,0.131217002869,0.00305604934692,0.00336313247681,0.000759124755859,7.65457010269
55,0.139495849609,0.00325584411621,0.00334000587463,0.000792026519775,8.06822896004
56,0.136544942856,0.00304985046387,0.00343203544617,0.000808000564575,8.25308203697
57,0.139111280441,0.00314712524414,0.00350284576416,0.00076699256897,8.56507611275
58,0.132015943527,0.00312805175781,0.00357294082642,0.00075888633728,8.65840101242
59,0.138849020004,0.00313901901245,0.00347089767456,0.00105881690979,8.61182689667
60,0.161148071289,0.0032479763031,0.00367093086243,0.00119996070862,9.26355600357
61,0.142372131348,0.00301814079285,0.00331902503967,0.000937938690186,9.05245804787
62,0.163990974426,0.00340795516968,0.00349116325378,0.000790119171143,8.88965082169
63,0.147613286972,0.00306701660156,0.00355005264282,0.000849962234497,9.49785399437
64,0.140780925751,0.00328016281128,0.00345301628113,0.000823974609375,9.86235690117
65,0.135328054428,0.00328707695007,0.00339603424072,0.000836849212646,9.9167509079
66,0.13184094429,0.00318789482117,0.00342893600464,0.000825881958008,9.87482619286
67,0.133523225784,0.00321006774902,0.00339293479919,0.000787019729614,9.90381097794
68,0.154247999191,0.00323605537415,0.00336098670959,0.000963926315308,10.2496709824
69,0.148302078247,0.00327706336975,0.00346302986145,0.000908136367798,10.2492949963
70,0.133254766464,0.00322818756104,0.00334310531616,0.000763893127441,9.96052908897
71,0.133641004562,0.0032000541687,0.00338888168335,0.000802993774414,10.1791508198
72,0.14053106308,0.00316691398621,0.00335502624512,0.000875949859619,10.7471759319
73,0.15770483017,0.00310397148132,0.00348901748657,0.000818967819214,10.8677899837
74,0.140102863312,0.00312900543213,0.00337815284729,0.000808000564575,10.8000349998
75,0.139221906662,0.00302696228027,0.00335311889648,0.000806093215942,11.3610060215
76,0.139939785004,0.00328278541565,0.0033860206604,0.000801086425781,11.313521862
77,0.137862920761,0.00317788124084,0.00342082977295,0.000880002975464,11.5775790215
78,0.142983913422,0.00309896469116,0.0034019947052,0.00081992149353,11.1885910034
79,0.133316755295,0.00311303138733,0.00362420082092,0.000841856002808,11.6923999786
80,0.132030963898,0.00315809249878,0.00343084335327,0.00084400177002,11.3209960461
81,0.151083946228,0.00313687324524,0.00342917442322,0.000811100006104,11.7456219196
82,0.140497207642,0.00318598747253,0.00341796875,0.000831127166748,12.1221561432
83,0.131801128387,0.00311899185181,0.00338506698608,0.000831842422485,12.0172049999
84,0.144850969315,0.00339198112488,0.00350093841553,0.000808000564575,12.1900231838
85,0.133238077164,0.00326609611511,0.00337386131287,0.000797033309937,12.2414119244
86,0.14150595665,0.00312781333923,0.00345206260681,0.000809907913208,13.6622948647
87,0.139240980148,0.00317215919495,0.00339484214783,0.000828981399536,12.8857550621
88,0.137017726898,0.00310897827148,0.00489091873169,0.00129008293152,12.9672989845
89,0.144227027893,0.00317692756653,0.00336217880249,0.000774145126343,13.8234050274
90,0.140532016754,0.00310707092285,0.00333499908447,0.000766038894653,13.3505039215
91,0.139789104462,0.00320792198181,0.0034761428833,0.00083589553833,13.553030014
92,0.13938999176,0.00325298309326,0.00342583656311,0.000807046890259,13.760340929
93,0.141530752182,0.00323796272278,0.00339794158936,0.000851154327393,13.4218809605
94,0.141415119171,0.00356888771057,0.00337600708008,0.000789165496826,13.9213869572
95,0.144992828369,0.00325417518616,0.00359916687012,0.000878810882568,13.76947999
96,0.133036136627,0.00311803817749,0.00336790084839,0.000838994979858,14.1203939915
97,0.145554065704,0.00334405899048,0.00339198112488,0.000820159912109,14.4447209835
98,0.144529104233,0.00321793556213,0.0240678787231,0.000842809677124,14.4354550838
99,0.164407253265,0.0032742023468,0.00349307060242,0.00100517272949,14.4377200603
