step,run,get,set,free,run_up_to_step
0,0.726554870605,0.0371370315552,0.0332419872284,0.00647211074829,0.686408996582
1,0.439474821091,0.0308198928833,0.0389878749847,0.008141040802,1.20390295982
2,0.44870018959,0.0307559967041,0.0349409580231,0.00695610046387,1.71951293945
3,0.450669050217,0.0281779766083,0.0365340709686,0.00649094581604,2.17493200302
4,0.4305768013,0.0305321216583,0.0343930721283,0.0066659450531,2.68952393532
5,0.44557595253,0.0300068855286,0.0352199077606,0.00668597221375,4.22856783867
6,0.456938743591,0.031702041626,0.0353629589081,0.00760006904602,4.00998806953
7,0.433541059494,0.0304009914398,0.0355200767517,0.00694513320923,4.53668904305
8,0.45991897583,0.0311410427094,0.0308759212494,0.00645589828491,5.34917593002
9,0.432244062424,0.030946969986,0.0323870182037,0.0064070224762,5.7935769558
10,0.432543039322,0.0302419662476,0.0334391593933,0.00921106338501,6.71007704735
11,0.482336997986,0.0372560024261,0.0316240787506,0.00654697418213,7.14082407951
12,0.432425022125,0.0312979221344,0.0331270694733,0.00877618789673,7.80968999863
13,0.433569908142,0.0296130180359,0.0325229167938,0.00809717178345,7.95108699799
14,0.437965154648,0.0301470756531,0.0355961322784,0.00690698623657,8.96256995201
15,0.432916164398,0.0314860343933,0.0337359905243,0.00703406333923,7.78673696518
16,1.10434103012,0.0309970378876,0.0348389148712,0.00985503196716,9.48907709122
17,0.44702911377,0.0287771224976,0.0338051319122,0.00677704811096,10.4848818779
18,0.474176883698,0.0330240726471,0.0356349945068,0.00669312477112,11.0531108379
19,0.450237035751,0.0309510231018,0.0316491127014,0.00741410255432,12.3561010361
20,0.478733062744,0.03160405159,0.0341720581055,0.00665307044983,11.4124879837
21,0.461104869843,0.0294740200043,0.0358710289001,0.00689387321472,11.7776200771
22,0.473554134369,0.0321500301361,0.0335581302643,0.00722408294678,12.4779498577
23,0.480720043182,0.0313768386841,0.0321869850159,0.00724601745605,13.1381039619
24,0.453294038773,0.0285859107971,0.0310509204865,0.00654697418213,14.2857708931
25,0.428612232208,0.0290701389313,0.0317049026489,0.00634598731995,16.9810569286
26,0.473289966583,0.0288550853729,0.0316588878632,0.00684404373169,16.233798027
27,0.44483089447,0.027764081955,0.0318219661713,0.00682902336121,15.8953430653
28,0.455597877502,0.0280318260193,0.0316278934479,0.00673699378967,17.3751139641
29,0.458330869675,0.0287380218506,0.0331518650055,0.00991892814636,17.6831679344
30,0.452264070511,0.0320420265198,0.0351238250732,0.00771284103394,18.2673330307
31,0.453073740005,0.0308961868286,0.0329639911652,0.00637197494507,19.3471469879
32,0.46574306488,0.0294950008392,0.0321280956268,0.0063910484314,20.1197230816
33,0.443375110626,0.0298500061035,0.0350458621979,0.0070960521698,18.8236789703
34,0.443156242371,0.0320019721985,0.0353860855103,0.00646495819092,19.0157110691
35,0.44807600975,0.0293009281158,0.0365169048309,0.00660586357117,17.6755731106
36,0.431977987289,0.0288560390472,0.0327520370483,0.00651407241821,20.9271879196
37,0.443742990494,0.0315868854523,0.0353710651398,0.00737595558167,21.6850640774
38,0.452058076859,0.0333869457245,0.0340340137482,0.00654292106628,23.5153610706
39,0.960134029388,0.0293140411377,0.0368671417236,0.00777196884155,24.4602620602
40,0.483964920044,0.0291650295258,0.0342149734497,0.00655508041382,25.2701230049
41,0.446532964706,0.02876496315,0.0396511554718,0.0102059841156,27.1425640583
42,0.471413850784,0.0292000770569,0.0314478874207,0.00637292861938,24.0765149593
43,0.452069044113,0.0281450748444,0.0313770771027,0.00681900978088,26.4905920029
44,0.451357126236,0.0280420780182,0.0322117805481,0.00641107559204,24.9724750519
45,0.467000007629,0.029116153717,0.0330400466919,0.00653290748596,25.2424190044
46,0.444302082062,0.0280241966248,0.0325908660889,0.00657796859741,25.5336210728
47,0.456982135773,0.027694940567,0.0345389842987,0.006502866745,28.1934831142
48,0.465617179871,0.0321180820465,0.0374600887299,0.00707983970642,27.6907260418
49,0.449405431747,0.0305850505829,0.0334630012512,0.00670194625854,28.9279639721
50,0.451858758926,0.028293132782,0.0325510501862,0.00665903091431,30.1089680195
51,0.449965000153,0.0292279720306,0.0353271961212,0.00769710540771,27.4100840092
52,0.81932091713,0.0329461097717,0.0374240875244,0.00780010223389,31.5020289421
53,0.448821783066,0.0322349071503,0.031702041626,0.0069580078125,35.7981128693
54,0.436996936798,0.0283379554749,0.0343430042267,0.00659394264221,29.965927124
55,0.444808006287,0.0295660495758,0.0311198234558,0.00633811950684,34.425153017
56,0.465537071228,0.0289931297302,0.0321638584137,0.0069580078125,35.8205339909
57,0.47479891777,0.0295701026917,0.0316610336304,0.00652289390564,33.611276865
58,0.470988988876,0.0314090251923,0.0331280231476,0.00637006759644,35.3093550205
59,0.43096613884,0.0295839309692,0.0358521938324,0.00646805763245,35.8252298832
60,0.465335845947,0.0297698974609,0.0345900058746,0.00640892982483,35.2929930687
61,0.430868148804,0.0308198928833,0.0317330360413,0.00663280487061,39.4199681282
62,0.45926618576,0.0328829288483,0.0309109687805,0.00748586654663,38.6080508232
63,0.430582046509,0.0285940170288,0.0354228019714,0.00754499435425,36.9762699604
64,0.432726144791,0.0299530029297,0.0317440032959,0.00672388076782,39.8474068642
65,0.454107761383,0.031308889389,0.0358290672302,0.00641584396362,44.2394502163
66,0.448251008987,0.0282270908356,0.0310521125793,0.00770497322083,34.0223829746
67,0.451101064682,0.0357420444489,0.0312530994415,0.00637793540955,39.9131920338
68,0.4660820961,0.0284678936005,0.0314610004425,0.00631403923035,41.4892969131
69,0.867594003677,0.0315132141113,0.0319571495056,0.0072238445282,37.2738931179
70,0.432785272598,0.0284190177917,0.0307910442352,0.00639986991882,36.3425898552
71,0.431186676025,0.0287191867828,0.0329248905182,0.00777411460876,37.9643280506
72,0.43706202507,0.0286130905151,0.0311088562012,0.00632810592651,43.7194418907
73,0.438409090042,0.0290961265564,0.0334649085999,0.00784301757812,50.8716239929
74,0.917850017548,0.0317800045013,0.0321319103241,0.00675892829895,48.6317851543
75,0.43411231041,0.0301849842072,0.0317358970642,0.0063579082489,43.1503050327
76,0.433728933334,0.0277528762817,0.0312459468842,0.00727486610413,48.3333289623
77,0.448042154312,0.0285711288452,0.0312120914459,0.00646901130676,44.3577179909
78,0.434071063995,0.0280249118805,0.0343630313873,0.0063910484314,50.4002950191
79,0.435672283173,0.029433965683,0.0322291851044,0.00633406639099,44.5473999977
80,0.432418823242,0.0307769775391,0.0315940380096,0.00635194778442,48.0001330376
81,0.429777145386,0.0278820991516,0.0323050022125,0.00654983520508,44.3123030663
82,0.447410106659,0.0306520462036,0.0330200195312,0.00653696060181,46.173830986
83,0.441061973572,0.0304021835327,0.0336050987244,0.00663495063782,46.6533181667
84,0.476986885071,0.0331768989563,0.0328719615936,0.00641202926636,54.4882440567
85,0.432323217392,0.0300860404968,0.0348069667816,0.00686597824097,48.0730960369
86,0.983949184418,0.0348770618439,0.0384340286255,0.00815105438232,50.8002049923
87,0.433478116989,0.0285630226135,0.0372841358185,0.0063898563385,51.5926690102
88,0.428163051605,0.0304050445557,0.0364019870758,0.00680112838745,55.8313550949
89,0.43151807785,0.030886888504,0.0318620204926,0.0067617893219,57.801115036
90,0.431681871414,0.0295898914337,0.0359959602356,0.00629186630249,55.6703000069
91,0.434487104416,0.029237985611,0.0336649417877,0.006432056427,56.9810581207
92,0.445587158203,0.0309591293335,0.0334341526031,0.00662302970886,54.789839983
93,0.437983989716,0.0294117927551,0.0346670150757,0.00663304328918,57.8924970627
94,0.462070226669,0.03297996521,0.034560918808,0.00641918182373,63.8332448006
95,0.467631340027,0.0305209159851,0.0347299575806,0.00657296180725,63.1263442039
96,0.453819274902,0.0315699577332,0.0385708808899,0.00658082962036,58.9976592064
97,0.454522132874,0.0297510623932,0.0316379070282,0.00784301757812,54.8692259789
98,0.432247161865,0.030660867691,0.0341889858246,0.00654888153076,59.372795105
99,0.434813022614,0.0279831886292,0.0317149162292,0.00647497177124,53.4308850765
