step,run,get,set,free,run_up_to_step
0,0.725346088409,0.0479798316956,0.0481090545654,0.00902009010315,0.666460990906
1,0.650092124939,0.0414960384369,0.0471818447113,0.0096549987793,1.25537204742
2,0.611378908157,0.0400359630585,0.050078868866,0.0110960006714,2.5003888607
3,0.62682890892,0.042181968689,0.0461909770966,0.0113949775696,2.53551197052
4,0.619180202484,0.042228937149,0.0440380573273,0.00907397270203,3.50613307953
5,0.646661996841,0.0422010421753,0.0448820590973,0.00938582420349,4.15740394592
6,0.633754968643,0.040543794632,0.0452029705048,0.0100479125977,4.44032907486
7,0.809559106827,0.0497441291809,0.0447881221771,0.00937294960022,5.04647707939
8,0.624904155731,0.0407528877258,0.0503950119019,0.0100870132446,5.69008493423
9,0.614184856415,0.0404291152954,0.0460901260376,0.00941300392151,6.28532409668
10,0.613780975342,0.0405831336975,0.0445840358734,0.0102119445801,6.75295305252
11,0.638623714447,0.0409560203552,0.0454351902008,0.00906896591187,8.14799904823
12,0.604322195053,0.0411009788513,0.048919916153,0.0106818675995,8.22379302979
13,0.615124940872,0.0404770374298,0.0543339252472,0.0109481811523,9.22046113014
14,0.681611061096,0.0443308353424,0.0465040206909,0.00997185707092,9.37772989273
15,0.630379199982,0.0419211387634,0.0506660938263,0.0100390911102,10.1869149208
16,0.674481868744,0.042356967926,0.0675230026245,0.010213136673,10.468834877
17,0.637534141541,0.0432388782501,0.0479049682617,0.00956583023071,12.3573029041
18,0.637587070465,0.0431230068207,0.0471708774567,0.00950002670288,13.4223129749
19,0.693199157715,0.0407700538635,0.0708000659943,0.00977182388306,14.7879188061
20,0.634632110596,0.0445821285248,0.0461339950562,0.00916004180908,13.9007129669
21,1.5131649971,0.0424220561981,0.0499000549316,0.0114140510559,14.2599179745
22,0.620355129242,0.0409460067749,0.0465850830078,0.0100378990173,15.3227419853
23,0.612221956253,0.042601108551,0.0471658706665,0.0103178024292,15.6212730408
24,0.627752780914,0.0424909591675,0.0457549095154,0.00913095474243,16.3871600628
25,0.623309850693,0.0394899845123,0.0458071231842,0.00921607017517,16.9689049721
26,0.619949817657,0.0433831214905,0.045608997345,0.00930905342102,16.9698851109
27,0.674920320511,0.0462210178375,0.0442318916321,0.00969696044922,18.206469059
28,0.638898134232,0.0394361019135,0.0480239391327,0.00983691215515,19.0844860077
29,0.607627868652,0.0405881404877,0.0461661815643,0.00922584533691,19.3565750122
30,0.623353004456,0.0407118797302,0.0469360351562,0.00944399833679,19.9574158192
31,0.651296854019,0.0422189235687,0.0469260215759,0.00954914093018,21.115087986
32,0.659130096436,0.0462238788605,0.0481488704681,0.00953793525696,21.4640181065
33,0.597357034683,0.0404698848724,0.0457589626312,0.00963401794434,21.7864511013
34,0.641053915024,0.0433828830719,0.0461192131042,0.00944495201111,22.882256031
35,0.663819074631,0.0413329601288,0.0654079914093,0.0097279548645,22.7952158451
36,0.627898216248,0.0463089942932,0.0482571125031,0.00937294960022,25.2485649586
37,0.610364198685,0.0417079925537,0.046483039856,0.00960803031921,25.3002610207
38,0.600974798203,0.0399098396301,0.0451459884644,0.00918197631836,25.4186630249
39,0.65617609024,0.0420949459076,0.0514118671417,0.00995206832886,26.3156561852
40,0.617277145386,0.0401270389557,0.0446290969849,0.00906705856323,26.1737341881
41,0.637227773666,0.0471510887146,0.0461339950562,0.00953793525696,26.2295019627
42,0.628155231476,0.0406060218811,0.045713186264,0.011589050293,28.8265140057
43,0.659209012985,0.0421290397644,0.0471739768982,0.0114560127258,28.6932959557
44,0.620639801025,0.0404829978943,0.0470609664917,0.00982809066772,29.5748400688
45,0.656316995621,0.0428929328918,0.046826839447,0.00953507423401,30.4662511349
46,0.625674962997,0.0415589809418,0.0468831062317,0.00956296920776,31.4410231113
47,0.633539915085,0.0411069393158,0.0461790561676,0.00910186767578,31.1314690113
48,0.60337471962,0.0397138595581,0.0488820075989,0.00961494445801,31.314800024
49,0.613130092621,0.0420269966125,0.0467360019684,0.0102310180664,33.5325300694
50,0.60598897934,0.0467309951782,0.0543260574341,0.00918102264404,33.4523711205
51,0.633264780045,0.0418169498444,0.0461721420288,0.00935101509094,34.274764061
52,0.689702033997,0.0432238578796,0.0465199947357,0.00917911529541,35.1844279766
53,0.632727146149,0.0423839092255,0.0502090454102,0.00970816612244,35.3933861256
54,0.639193058014,0.0387170314789,0.0459969043732,0.00958204269409,34.925891161
55,0.622934818268,0.0572040081024,0.0455169677734,0.00927782058716,36.2045369148
56,0.626800060272,0.0407791137695,0.0444359779358,0.00930404663086,36.97864604
57,0.627816677094,0.0403180122375,0.045725107193,0.00923705101013,37.6844201088
58,1.02953982353,0.0440299510956,0.0465228557587,0.0133152008057,36.187746048
59,0.601452827454,0.0449259281158,0.0465970039368,0.00954985618591,38.7926499844
60,0.656886100769,0.0429630279541,0.0501420497894,0.00949692726135,39.7202689648
61,0.601491928101,0.0412039756775,0.0479030609131,0.00932002067566,39.275578022
62,0.608716011047,0.0498070716858,0.0459630489349,0.00906991958618,39.7238709927
63,0.595423936844,0.0388929843903,0.0459859371185,0.0106890201569,40.1114690304
64,0.59592294693,0.0415468215942,0.0447149276733,0.00906109809875,41.2933280468
65,0.607786893845,0.0420589447021,0.0452270507812,0.00915288925171,41.647413969
66,0.61748290062,0.0428869724274,0.0454421043396,0.00909495353699,41.394315958
67,0.620724916458,0.0414152145386,0.0450699329376,0.00907611846924,42.5700571537
68,0.601181983948,0.0422949790955,0.0467450618744,0.00966501235962,42.9135677814
69,0.605698823929,0.0419931411743,0.0540590286255,0.0152480602264,43.7277438641
70,0.62359213829,0.0409519672394,0.0460350513458,0.00910806655884,43.6096818447
71,0.596061229706,0.0417339801788,0.0448498725891,0.00944304466248,44.5208759308
72,0.594850063324,0.0421040058136,0.0451719760895,0.00905704498291,44.3904578686
73,0.601639986038,0.0392570495605,0.045912027359,0.00975704193115,46.6271431446
74,0.594319820404,0.0412149429321,0.0481278896332,0.010559797287,46.7804448605
75,0.596447944641,0.0394041538239,0.0455129146576,0.0103998184204,48.8624591827
76,0.601625919342,0.0408139228821,0.0460770130157,0.00960612297058,47.6455218792
77,0.618278264999,0.0398650169373,0.0455830097198,0.00937914848328,51.0992290974
78,0.605778932571,0.0418219566345,0.0551838874817,0.0113301277161,53.2060239315
79,0.603000879288,0.039510011673,0.0459508895874,0.00925016403198,49.8138360977
80,0.593324899673,0.0421161651611,0.0457129478455,0.00944399833679,50.0748999119
81,0.599494934082,0.0420851707458,0.0444459915161,0.00911283493042,51.0338509083
82,0.601412773132,0.0421679019928,0.0446259975433,0.00907897949219,52.1827831268
83,0.60231423378,0.0393760204315,0.0449030399323,0.00953102111816,51.893750906
84,0.615139961243,0.0414538383484,0.0468828678131,0.00976777076721,53.4805250168
85,0.645973920822,0.0410439968109,0.0448620319366,0.00907611846924,55.2476768494
86,0.597067117691,0.0412230491638,0.0660150051117,0.0092179775238,57.8616828918
87,0.634182214737,0.0403940677643,0.0458900928497,0.00947499275208,59.938585043
88,0.634197950363,0.0423629283905,0.0493569374084,0.00958585739136,59.4115209579
89,0.647735118866,0.0436398983002,0.0460419654846,0.0101280212402,65.5649030209
90,0.666392087936,0.0428159236908,0.0454299449921,0.00905299186707,61.7776648998
91,0.60344171524,0.0395829677582,0.0666921138763,0.00903487205505,59.1427140236
92,0.627747058868,0.0409648418427,0.0450000762939,0.00944781303406,61.9124219418
93,0.596466064453,0.0409531593323,0.0494601726532,0.009840965271,61.2643389702
94,0.598709821701,0.0404469966888,0.0459780693054,0.00970983505249,59.9689068794
95,0.593616724014,0.04163813591,0.0467238426208,0.00928401947021,59.2419309616
96,0.609574079514,0.0422558784485,0.0457010269165,0.00904297828674,59.6531820297
97,0.604077100754,0.040983915329,0.0441620349884,0.00908493995667,64.3884189129
98,0.752798080444,0.0422320365906,0.0461280345917,0.00914311408997,61.4722471237
99,0.600831031799,0.040472984314,0.0805940628052,0.0090970993042,63.7305870056
