step,run,get,set,free,run_up_to_step
0,0.165333986282,0.00596785545349,0.00530910491943,0.0011351108551,0.163285017014
1,0.157286167145,0.00550699234009,0.00545287132263,0.00127911567688,0.352355957031
2,0.158775091171,0.00463795661926,0.00531506538391,0.00106287002563,0.495239973068
3,0.152869939804,0.00489497184753,0.00536489486694,0.0013689994812,0.679062843323
4,0.141583204269,0.00468301773071,0.00510883331299,0.00133204460144,0.79453086853
5,0.181324005127,0.00670909881592,0.00504398345947,0.00128293037415,1.00707292557
6,0.146013021469,0.00474190711975,0.0056529045105,0.00140500068665,1.10222792625
7,0.173770904541,0.00500512123108,0.00510001182556,0.00121688842773,1.22878980637
8,0.155967950821,0.00488710403442,0.00495290756226,0.00114011764526,1.40230703354
9,0.143476009369,0.0049159526825,0.00525498390198,0.00119185447693,2.44749093056
10,0.14820098877,0.00490021705627,0.00507593154907,0.00117301940918,2.2143740654
11,0.14363527298,0.00506711006165,0.00539588928223,0.00149297714233,1.80596804619
12,0.143669128418,0.005126953125,0.0051748752594,0.00131916999817,1.99054288864
13,0.162377119064,0.00502705574036,0.00513792037964,0.00115394592285,2.22426795959
14,0.150610923767,0.00470590591431,0.00505495071411,0.00117802619934,3.58243608475
15,0.147601127625,0.00524997711182,0.00505399703979,0.00116086006165,2.39242506027
16,0.14368891716,0.00483298301697,0.00511598587036,0.00122594833374,3.1618680954
17,0.142463922501,0.00488090515137,0.0107071399689,0.00114679336548,3.01305317879
18,0.14392209053,0.00508189201355,0.00554704666138,0.00160813331604,2.82771396637
19,0.155380964279,0.00522708892822,0.00513601303101,0.00120711326599,3.00436496735
20,0.144000053406,0.00513005256653,0.00518298149109,0.00123620033264,3.16593003273
21,0.146058082581,0.00508594512939,0.00510597229004,0.00115895271301,3.26745200157
22,0.143780946732,0.00526785850525,0.00517702102661,0.0012378692627,3.40735316277
23,0.198829889297,0.00639295578003,0.0051748752594,0.00114107131958,4.35340499878
24,0.145760059357,0.00461602210999,0.00505709648132,0.00120186805725,4.41705608368
25,0.145555019379,0.00567483901978,0.00503778457642,0.00117802619934,3.86424994469
26,0.142166852951,0.00468897819519,0.00518107414246,0.00117492675781,4.69307684898
27,0.148545026779,0.00496506690979,0.00529313087463,0.00118708610535,4.57423901558
28,0.205410003662,0.00768089294434,0.0050630569458,0.00118613243103,5.2097890377
29,0.15150308609,0.00517320632935,0.00508499145508,0.00122404098511,4.47442293167
30,0.145559072495,0.00475096702576,0.00519704818726,0.00116610527039,4.97442483902
31,0.155233860016,0.00478315353394,0.00559997558594,0.00122809410095,5.62442588806
32,0.143682956696,0.00457191467285,0.00516891479492,0.00116086006165,5.29334807396
33,0.145779132843,0.00479698181152,0.00509095191956,0.00118398666382,5.88933706284
34,0.156735897064,0.00479006767273,0.00564408302307,0.00122308731079,6.08890509605
35,0.148455858231,0.00509595870972,0.00579786300659,0.00125598907471,5.68736410141
36,0.145623207092,0.00492382049561,0.00716876983643,0.00166511535645,6.12657499313
37,0.142477750778,0.00453281402588,0.00519394874573,0.00117206573486,7.0384221077
38,0.14266371727,0.00470614433289,0.0055570602417,0.00115489959717,6.22232508659
39,0.14156126976,0.00459599494934,0.00525498390198,0.00114703178406,6.22325086594
40,0.171565055847,0.00489401817322,0.005126953125,0.00113987922668,6.57431983948
41,0.142243146896,0.00466704368591,0.00527906417847,0.00118684768677,6.50347399712
42,0.147339105606,0.00860691070557,0.00529384613037,0.00118398666382,6.47013783455
43,0.143595933914,0.00473213195801,0.00542807579041,0.00113892555237,6.80474281311
44,0.148847103119,0.00466203689575,0.00595188140869,0.00131797790527,7.28882884979
45,0.17782998085,0.00474405288696,0.00527286529541,0.00121712684631,8.67417001724
46,0.142529964447,0.00472617149353,0.00528597831726,0.0011351108551,7.77576184273
47,0.144733905792,0.00523996353149,0.00526118278503,0.00117087364197,7.50743889809
48,0.143862962723,0.00480008125305,0.00508308410645,0.0011420249939,7.62998700142
49,0.145729064941,0.00465393066406,0.00542902946472,0.00128102302551,8.09575605392
50,0.151502132416,0.00462198257446,0.00521802902222,0.00113892555237,7.9437930584
51,0.149708032608,0.00493502616882,0.00541687011719,0.00117301940918,8.6366250515
52,0.148499250412,0.00476217269897,0.00514101982117,0.00114607810974,8.82152295113
53,0.144243240356,0.00514984130859,0.00515508651733,0.00117921829224,8.51238799095
54,0.141172170639,0.00470113754272,0.00539398193359,0.00118899345398,8.72722792625
55,0.153056144714,0.00459814071655,0.00576996803284,0.00134706497192,9.84593892097
56,0.155652761459,0.00486707687378,0.00520396232605,0.0011568069458,9.49112510681
57,0.145688056946,0.00484395027161,0.00514698028564,0.00116801261902,9.48604893684
58,0.142592906952,0.00476288795471,0.00520300865173,0.00115180015564,9.7488360405
59,0.153613090515,0.00468683242798,0.00510787963867,0.00139999389648,9.38207983971
60,0.152261972427,0.00471687316895,0.00514984130859,0.00114107131958,10.5509109497
61,0.142221212387,0.00472402572632,0.00518608093262,0.00118684768677,10.3597230911
62,0.150968074799,0.00490999221802,0.00522303581238,0.00116014480591,9.67864918709
63,0.141623020172,0.00480890274048,0.00518488883972,0.00125193595886,9.81334114075
64,0.143141031265,0.00456213951111,0.00515604019165,0.00116491317749,10.2213170528
65,0.142278194427,0.00474500656128,0.00530695915222,0.00117206573486,10.5413250923
66,0.147817611694,0.00476408004761,0.00533390045166,0.0013530254364,10.1898670197
67,0.204868078232,0.00654697418213,0.00544118881226,0.00123000144958,10.9563131332
68,0.14289188385,0.00475001335144,0.00583505630493,0.00139808654785,10.9155790806
69,0.143388986588,0.00493192672729,0.00522398948669,0.00117301940918,12.4041929245
70,0.142463207245,0.00512290000916,0.00524497032166,0.00148415565491,10.9586920738
71,0.145370960236,0.00455594062805,0.00516581535339,0.00115394592285,11.1566319466
72,0.150215864182,0.00501608848572,0.00521206855774,0.00151205062866,11.9277200699
73,0.157701969147,0.0047128200531,0.00518298149109,0.00119614601135,13.0534448624
74,0.177430152893,0.00482201576233,0.00529599189758,0.00127506256104,11.9747231007
75,0.14760184288,0.00509905815125,0.00564694404602,0.00118112564087,12.6154689789
76,0.148823022842,0.00521802902222,0.00540018081665,0.00121092796326,11.9871599674
77,0.141786813736,0.00461912155151,0.00519800186157,0.00115394592285,12.2456948757
78,0.143748760223,0.00513696670532,0.00515699386597,0.0011510848999,12.8939929008
79,0.143743038177,0.00509691238403,0.00643515586853,0.00127005577087,12.4819819927
80,0.157510757446,0.00484108924866,0.00535893440247,0.00131893157959,12.6225059032
81,0.195963859558,0.00513505935669,0.00539493560791,0.00116991996765,13.0781750679
82,0.171584844589,0.00563216209412,0.00521898269653,0.0012309551239,13.5505428314
83,0.15273809433,0.00507402420044,0.0051589012146,0.00118899345398,14.2193210125
84,0.145371675491,0.00487184524536,0.00530099868774,0.00125193595886,14.2562439442
85,0.153903007507,0.0046489238739,0.00542306900024,0.00122404098511,13.702121973
86,0.185651779175,0.00490212440491,0.00528907775879,0.00150585174561,14.5554018021
87,0.171975851059,0.00477695465088,0.0067310333252,0.00144100189209,14.424626112
88,0.159315824509,0.00486278533936,0.00546002388,0.00116801261902,13.864759922
89,0.146805047989,0.00479602813721,0.00527095794678,0.00127696990967,13.7193770409
90,0.184122085571,0.00519108772278,0.00520920753479,0.00119304656982,15.08385396
91,0.175194740295,0.0049901008606,0.00517916679382,0.00129818916321,14.2386319637
92,0.1427257061,0.00518202781677,0.00520086288452,0.00123405456543,14.3503110409
93,0.15141582489,0.00481605529785,0.00529098510742,0.00116896629333,14.6565210819
94,0.1773250103,0.00497817993164,0.00503301620483,0.00119781494141,15.3531610966
95,0.152839183807,0.00510501861572,0.00529289245605,0.00129199028015,18.12596488
96,0.14347910881,0.00514698028564,0.00577592849731,0.00117301940918,15.3167889118
97,0.151325941086,0.00498080253601,0.00543689727783,0.00120496749878,15.9184439182
98,0.143252134323,0.00461316108704,0.00527119636536,0.00116777420044,15.5696530342
99,0.144513130188,0.004714012146,0.00549101829529,0.00116109848022,16.2354929447
