step,run,get,set,free,run_up_to_step
0,0.303066015244,0.0105369091034,0.0119998455048,0.00251007080078,0.289571046829
1,0.295607328415,0.0109720230103,0.0122239589691,0.00254201889038,0.562196969986
2,0.274930953979,0.0117189884186,0.0119230747223,0.00254511833191,0.864447116852
3,0.273835897446,0.0115089416504,0.0117461681366,0.00256299972534,1.20712804794
4,0.27720785141,0.0108690261841,0.012060880661,0.00253701210022,1.36826300621
5,0.273041009903,0.0108389854431,0.0121018886566,0.00259208679199,2.25652503967
6,0.302864074707,0.0116810798645,0.0124909877777,0.00311398506165,2.72884297371
7,0.388505935669,0.0123009681702,0.0114960670471,0.00257110595703,3.15278601646
8,0.272496938705,0.0109479427338,0.0135719776154,0.00273299217224,3.15010595322
9,0.26972079277,0.0106961727142,0.0120890140533,0.00256395339966,2.80977487564
10,0.303292036057,0.0110430717468,0.0118160247803,0.00266599655151,3.15154099464
11,0.270885944366,0.0116260051727,0.0123879909515,0.00297498703003,3.38337612152
12,0.300909996033,0.0110471248627,0.0119621753693,0.00259685516357,3.68557500839
13,0.272171974182,0.0105240345001,0.0121688842773,0.00255703926086,4.59977793694
14,0.289519071579,0.011293888092,0.0114200115204,0.00292301177979,4.08266115189
15,0.276942014694,0.0109848976135,0.0114748477936,0.00270199775696,4.4162800312
16,0.274652004242,0.0105838775635,0.0121440887451,0.0025200843811,5.3636879921
17,0.282157897949,0.010938167572,0.0119731426239,0.00283312797546,5.14618706703
18,0.276641845703,0.0104250907898,0.0116400718689,0.00274300575256,6.23818707466
19,0.296523094177,0.0110430717468,0.0115687847137,0.00255107879639,5.69864082336
20,0.310127019882,0.0109879970551,0.0117950439453,0.00266194343567,6.63230395317
21,0.272675991058,0.0108759403229,0.011775970459,0.00252103805542,6.34093213081
22,0.268077135086,0.0111260414124,0.0116760730743,0.00252985954285,6.98230218887
23,0.268962860107,0.0109210014343,0.012845993042,0.00276684761047,6.96835708618
24,0.68409705162,0.0118601322174,0.0345299243927,0.00273299217224,7.29058909416
25,0.287369012833,0.0108890533447,0.0116817951202,0.00255513191223,7.87511992455
26,0.273237943649,0.0111479759216,0.0118958950043,0.00256609916687,7.73805093765
27,0.289828062057,0.0113680362701,0.0119650363922,0.00261116027832,8.30431199074
28,0.303199052811,0.0105309486389,0.0116908550262,0.0027768611908,8.68350195885
29,0.292912960052,0.0110330581665,0.0120329856873,0.00288391113281,8.38889908791
30,0.270227909088,0.0112891197205,0.0121419429779,0.00272583961487,8.73922085762
31,0.268538951874,0.0109510421753,0.0129728317261,0.00299906730652,9.4118168354
32,0.319105863571,0.0111839771271,0.0123138427734,0.00273299217224,9.78582811356
33,0.277796030045,0.010626077652,0.0118980407715,0.00262188911438,9.98695993423
34,0.272082090378,0.0109460353851,0.0121800899506,0.00263714790344,10.6996741295
35,0.269670963287,0.0114350318909,0.0117659568787,0.0029079914093,10.5776159763
36,0.300776958466,0.0110850334167,0.0122451782227,0.00257396697998,10.1886148453
37,0.268196105957,0.0109190940857,0.0119318962097,0.00264000892639,10.3865289688
38,0.282867193222,0.0105640888214,0.0121548175812,0.00264596939087,11.2224731445
39,0.280198812485,0.0108559131622,0.012363910675,0.0027539730072,11.6702349186
40,0.273933887482,0.0110189914703,0.0118038654327,0.0025269985199,12.0816020966
41,0.770931959152,0.0122199058533,0.0122759342194,0.00260400772095,12.004306078
42,0.280986070633,0.0110621452332,0.0125451087952,0.00265216827393,11.6549680233
43,0.282046079636,0.0106570720673,0.0115320682526,0.0025110244751,13.0736420155
44,0.269545078278,0.0107481479645,0.0118291378021,0.0025839805603,14.5759789944
45,0.267678976059,0.0107040405273,0.0118079185486,0.00254678726196,16.2396371365
46,0.268371105194,0.0107619762421,0.0118801593781,0.0025839805603,13.7459290028
47,0.281522274017,0.0109589099884,0.0116691589355,0.00260901451111,14.7728359699
48,0.284882068634,0.011302947998,0.0116150379181,0.00261402130127,15.3653810024
49,0.271486997604,0.0113368034363,0.0140960216522,0.00255393981934,14.9336779118
50,0.272566795349,0.0112419128418,0.0130059719086,0.00299692153931,14.7437381744
51,0.269548892975,0.0103459358215,0.0134329795837,0.00313305854797,15.4063019753
52,0.280547857285,0.0115351676941,0.012943983078,0.00285816192627,16.5452589989
53,0.290645122528,0.0112900733948,0.0120208263397,0.00311994552612,15.6132090092
54,0.295276165009,0.010910987854,0.0116190910339,0.00253486633301,15.8582470417
55,0.289890050888,0.0105979442596,0.0120561122894,0.0025110244751,16.3912408352
56,0.274776697159,0.0107929706573,0.0120759010315,0.00260281562805,16.7655889988
57,0.284517765045,0.0110311508179,0.0121591091156,0.00254082679749,17.072524786
58,0.274674892426,0.0107138156891,0.0131101608276,0.00258994102478,17.0813910961
59,0.273232221603,0.0113430023193,0.0117230415344,0.00270986557007,18.411493063
60,0.273720026016,0.0108921527863,0.0123219490051,0.00312495231628,17.2058119774
61,0.30085515976,0.010244846344,0.0128061771393,0.00293898582458,18.7084300518
62,0.29843378067,0.0114579200745,0.01211810112,0.00253987312317,18.4053580761
63,0.273912191391,0.0112199783325,0.0118460655212,0.00249290466309,18.561234951
64,0.268621921539,0.0109949111938,0.0119671821594,0.00267815589905,18.3040828705
65,0.272948980331,0.0112268924713,0.0124971866608,0.00299000740051,18.8537220955
66,0.290647029877,0.0119609832764,0.0116431713104,0.00256991386414,19.1491830349
67,0.271846055984,0.0109269618988,0.0117981433868,0.00252795219421,18.8339920044
68,0.272187948227,0.0112450122833,0.0118191242218,0.00263094902039,20.5438230038
69,0.274462938309,0.0107629299164,0.03466796875,0.0025269985199,20.509868145
70,0.270406961441,0.0110931396484,0.0115389823914,0.00262784957886,19.2409188747
71,0.273200035095,0.0105180740356,0.0115969181061,0.00251698493958,20.1898150444
72,0.273736953735,0.0103249549866,0.0124161243439,0.00254797935486,19.9130020142
73,0.275549173355,0.0103230476379,0.0114560127258,0.00250101089478,20.7212910652
74,0.267241954803,0.0105969905853,0.0115358829498,0.0025041103363,20.588629961
75,0.274770021439,0.0102829933167,0.0121359825134,0.00274395942688,22.0552020073
76,0.269053936005,0.0108020305634,0.0122611522675,0.00248789787292,21.0025911331
77,0.270147800446,0.0105791091919,0.0121879577637,0.00251197814941,21.9472448826
78,0.277546882629,0.0106449127197,0.0118100643158,0.0025999546051,22.9182078838
79,0.268621921539,0.0103619098663,0.0118789672852,0.00258588790894,23.4178040028
80,0.267925024033,0.0102870464325,0.011754989624,0.00250697135925,23.2257449627
81,0.270179986954,0.0105020999908,0.0115029811859,0.0028018951416,24.9437129498
82,0.272027015686,0.010223865509,0.0116519927979,0.00248694419861,24.15715909
83,0.271821975708,0.0110709667206,0.012188911438,0.00316405296326,24.418184042
84,0.267833948135,0.0112180709839,0.011904001236,0.0025999546051,24.6414241791
85,0.271074771881,0.0104289054871,0.0121278762817,0.00251388549805,24.1524510384
86,0.268961191177,0.0106890201569,0.0118951797485,0.00253486633301,24.3268530369
87,0.26664185524,0.0104169845581,0.0115978717804,0.0025110244751,24.2382371426
88,0.270025253296,0.0106098651886,0.0119938850403,0.00249886512756,26.1207060814
89,0.27078294754,0.0106389522552,0.0122051239014,0.00258183479309,25.9925649166
90,0.883913755417,0.0114321708679,0.0127680301666,0.00315380096436,25.5810139179
91,0.274046182632,0.011087179184,0.0116240978241,0.00306606292725,26.0019111633
92,0.266226053238,0.0109028816223,0.01189494133,0.00249886512756,26.5098288059
93,0.266905069351,0.0111379623413,0.0114929676056,0.00259494781494,27.708698988
94,0.279088973999,0.0103597640991,0.0118758678436,0.00247883796692,28.9948170185
95,0.279088973999,0.0103318691254,0.0123569965363,0.00267481803894,27.1445541382
96,0.885058879852,0.0119049549103,0.0121469497681,0.00297093391418,30.5567438602
97,0.272866249084,0.010870218277,0.0127899646759,0.00273394584656,28.1490910053
98,0.274555921555,0.0107779502869,0.0123000144958,0.00303292274475,28.1983940601
99,0.279961109161,0.0108370780945,0.0119709968567,0.00259399414062,29.2765860558
