step,run,get,set,free,run_up_to_step
0,0.210651159286,0.00592017173767,0.00547695159912,0.0012800693512,0.213587999344
1,0.20952296257,0.00495481491089,0.00552606582642,0.00104999542236,1.1077299118
2,0.217458248138,0.00527095794678,0.00581097602844,0.00121998786926,0.653240203857
3,0.22083902359,0.00558400154114,0.00577998161316,0.00127220153809,0.873385906219
4,0.22602891922,0.00551199913025,0.00553417205811,0.00119686126709,1.15693712234
5,0.214626073837,0.00549912452698,0.00568294525146,0.00127911567688,1.30839204788
6,0.227179050446,0.00534701347351,0.00549292564392,0.00124406814575,2.06059384346
7,0.218802928925,0.00545811653137,0.00558114051819,0.00120902061462,1.83360004425
8,0.211767196655,0.00573992729187,0.00689506530762,0.00159096717834,2.2944920063
9,0.206556081772,0.00558400154114,0.00557208061218,0.0012629032135,2.21473503113
10,0.20405292511,0.0061628818512,0.00554084777832,0.00125789642334,2.31281518936
11,0.197090148926,0.00607395172119,0.00567007064819,0.00139212608337,2.64924407005
12,0.210803031921,0.00559210777283,0.00565600395203,0.00136995315552,2.78542995453
13,0.199469804764,0.0060670375824,0.00564908981323,0.00141286849976,3.05710411072
14,0.198390007019,0.00605392456055,0.00687313079834,0.00143504142761,3.16986393929
15,0.199609041214,0.00557994842529,0.00571608543396,0.00121688842773,4.3355448246
16,0.1987657547,0.00590109825134,0.00589513778687,0.00144195556641,3.54763698578
17,0.267215967178,0.00779604911804,0.0056369304657,0.0012218952179,3.908162117
18,0.197639942169,0.00599098205566,0.00702404975891,0.00157594680786,4.11443996429
19,0.195304870605,0.00528311729431,0.0056939125061,0.0012309551239,4.49074196815
20,0.228458166122,0.00541591644287,0.00585508346558,0.00147199630737,4.72657608986
21,0.200998067856,0.00532603263855,0.00569915771484,0.00128793716431,5.09364891052
22,0.195847034454,0.00531697273254,0.00579714775085,0.00128293037415,5.13445901871
23,0.195706129074,0.00530815124512,0.00566506385803,0.00125122070312,5.42007780075
24,0.224313735962,0.00603103637695,0.0062780380249,0.00147318840027,5.1876809597
25,0.197335958481,0.0053927898407,0.00568890571594,0.00124597549438,6.05229592323
26,0.196038007736,0.00559210777283,0.00574493408203,0.00129795074463,6.14972686768
27,0.198863983154,0.00609421730042,0.00597405433655,0.00129199028015,6.22290301323
28,0.205994844437,0.00570702552795,0.00719499588013,0.00173807144165,7.0393178463
29,0.197587013245,0.0053539276123,0.00586104393005,0.00134801864624,7.07003998756
30,0.203191041946,0.00539898872375,0.00594997406006,0.00125193595886,7.01812410355
31,0.195322036743,0.00550103187561,0.00565600395203,0.00139784812927,7.07999801636
32,0.201442956924,0.00608396530151,0.0057361125946,0.00144696235657,7.26465892792
33,0.209604978561,0.00543403625488,0.0057110786438,0.00126314163208,7.25288295746
34,0.224102735519,0.00618004798889,0.00570821762085,0.00146508216858,8.12712407112
35,0.199161052704,0.00528812408447,0.00578689575195,0.00134921073914,7.78224992752
36,0.195864915848,0.00529789924622,0.00577402114868,0.00123500823975,8.15885901451
37,0.208033084869,0.00622987747192,0.00642609596252,0.0013210773468,8.5129981041
38,0.227241754532,0.00559902191162,0.00603199005127,0.0013370513916,8.82734489441
39,0.207637071609,0.00556397438049,0.00576305389404,0.00137305259705,9.46204209328
40,0.241236925125,0.00587606430054,0.00579404830933,0.00126194953918,9.2167160511
41,0.231451034546,0.00579404830933,0.00599098205566,0.00131607055664,9.47727799416
42,0.208298921585,0.00568509101868,0.0057680606842,0.00125503540039,9.69730210304
43,0.202254056931,0.0055890083313,0.00599789619446,0.00136017799377,10.0081739426
44,0.194751977921,0.00536799430847,0.00583600997925,0.00124883651733,9.2909219265
45,0.205192804337,0.00538110733032,0.00598096847534,0.00146698951721,9.93086886406
46,0.196012020111,0.00530385971069,0.00572299957275,0.0013439655304,10.1501760483
47,0.269278049469,0.00743508338928,0.00574088096619,0.00144696235657,10.3267638683
48,0.215656757355,0.00568890571594,0.00591802597046,0.00146818161011,10.248210907
49,0.244153022766,0.00604200363159,0.00565600395203,0.00125002861023,10.790569067
50,0.20746421814,0.00550007820129,0.0058319568634,0.00125098228455,10.9488201141
51,0.211393117905,0.00603604316711,0.00578188896179,0.00140500068665,10.9445660114
52,0.220921039581,0.00553607940674,0.00574493408203,0.00139594078064,11.5270910263
53,0.222932815552,0.00578093528748,0.00628185272217,0.00137591362,11.7994680405
54,0.214492082596,0.00550293922424,0.00672602653503,0.00122499465942,11.8986639977
55,0.19647192955,0.0051600933075,0.00559186935425,0.0012309551239,11.8383049965
56,0.198002815247,0.00520801544189,0.00560808181763,0.00124001502991,12.1947200298
57,0.201690912247,0.00554013252258,0.00559902191162,0.00124502182007,12.9211959839
58,0.2124979496,0.0060830116272,0.00582098960876,0.00140404701233,13.1295721531
59,0.202662229538,0.0059130191803,0.00601410865784,0.00158405303955,12.5143220425
60,0.601593017578,0.00608110427856,0.00605607032776,0.00126385688782,13.0351228714
61,0.237640142441,0.00625514984131,0.00594401359558,0.00131702423096,12.9085400105
62,0.211077213287,0.00616502761841,0.00586485862732,0.00125408172607,13.8150188923
63,0.200011014938,0.00549602508545,0.00652503967285,0.00130891799927,13.999461174
64,0.198609828949,0.00586795806885,0.00584506988525,0.00130915641785,14.244756937
65,0.197684049606,0.00591707229614,0.00585293769836,0.00128388404846,14.2412409782
66,0.198250770569,0.00603604316711,0.00581502914429,0.00143003463745,14.0409250259
67,0.222753047943,0.00544714927673,0.00592112541199,0.00126099586487,14.5740950108
68,0.629570245743,0.00566411018372,0.005854845047,0.00137805938721,15.0308880806
69,0.199011087418,0.00601291656494,0.0058970451355,0.0012891292572,14.718321085
70,0.19802904129,0.00552821159363,0.00606608390808,0.00127983093262,15.4346261024
71,0.208185195923,0.0057430267334,0.00593709945679,0.00144600868225,15.528222084
72,0.229320049286,0.00562500953674,0.00596880912781,0.00129795074463,15.7178530693
73,0.202733039856,0.00586485862732,0.0066499710083,0.00155997276306,16.2127480507
74,0.228156089783,0.00578188896179,0.00594997406006,0.00130295753479,16.3501808643
75,0.2057929039,0.00688815116882,0.00605297088623,0.00126886367798,16.3722310066
76,0.217622995377,0.00575518608093,0.00597095489502,0.00137400627136,16.5706660748
77,0.200488090515,0.00554513931274,0.00592303276062,0.00127196311951,16.6510920525
78,0.240890979767,0.00634694099426,0.00620198249817,0.00129890441895,16.8875079155
79,0.199711084366,0.00582098960876,0.00590181350708,0.00126314163208,17.2954909801
80,0.235129356384,0.00570511817932,0.00602698326111,0.00130796432495,17.3807809353
81,0.20644402504,0.00576710700989,0.00606393814087,0.00142097473145,17.3958351612
82,0.198589801788,0.00689697265625,0.00600695610046,0.00145196914673,17.6502461433
83,0.199735403061,0.00607991218567,0.00593304634094,0.00151181221008,18.1444530487
84,0.198935985565,0.0344069004059,0.00606417655945,0.00138688087463,18.28480196
85,0.198786973953,0.00593304634094,0.00595593452454,0.00126695632935,18.5086920261
86,0.199886083603,0.00589108467102,0.00599694252014,0.00150609016418,18.367595911
87,0.197246789932,0.00617599487305,0.00600600242615,0.00129985809326,18.7970268726
88,0.220424890518,0.00612497329712,0.00615215301514,0.00137805938721,18.996762991
89,0.208822965622,0.00583100318909,0.00598001480103,0.00126886367798,19.4902639389
90,0.206502199173,0.00567412376404,0.00599098205566,0.00127291679382,19.2596950531
91,0.198355913162,0.00612998008728,0.00595808029175,0.00126886367798,19.9383478165
92,0.199723005295,0.00596499443054,0.00598502159119,0.00146007537842,20.0173749924
93,0.205823898315,0.00572991371155,0.00589799880981,0.00164103507996,19.7510011196
94,0.198683977127,0.00555014610291,0.00809288024902,0.00168514251709,20.5672841072
95,0.261853933334,0.00602293014526,0.00650691986084,0.00195789337158,20.1116640568
96,0.196185827255,0.00570487976074,0.00591707229614,0.00133514404297,20.7639930248
97,0.285804986954,0.00653600692749,0.0060498714447,0.0012800693512,20.74979496
98,0.196332931519,0.00565886497498,0.00692200660706,0.00129985809326,21.4811151028
99,0.198442935944,0.00594401359558,0.00602388381958,0.00126099586487,21.656788826
