step,run,get,set,free,run_up_to_step
0,0.122783899307,0.00314998626709,0.00291299819946,0.000381946563721,0.146687984467
1,0.121524095535,0.00258207321167,0.00279188156128,0.000396013259888,0.247250080109
2,0.344038248062,0.00264620780945,0.00284910202026,0.000458002090454,0.368324041367
3,0.1221139431,0.0026650428772,0.0028178691864,0.000423908233643,0.525647163391
4,0.122992038727,0.00271391868591,0.00288915634155,0.000478982925415,0.618396043777
5,0.126127958298,0.00272607803345,0.00287795066833,0.000465869903564,0.741133928299
6,0.121560096741,0.00262498855591,0.00290393829346,0.000498056411743,0.864054918289
7,0.122986793518,0.00287699699402,0.00285410881042,0.000530004501343,0.98593211174
8,0.123023986816,0.00279998779297,0.0028510093689,0.000577926635742,1.10207295418
9,0.122361898422,0.00282907485962,0.00284910202026,0.00065803527832,1.22198200226
10,0.123043775558,0.00284790992737,0.00294303894043,0.000612020492554,1.35423994064
11,0.12664604187,0.00272178649902,0.00300192832947,0.00070595741272,1.48304200172
12,0.125154972076,0.00279211997986,0.00286293029785,0.000648021697998,1.58509111404
13,0.125761985779,0.00289011001587,0.00290012359619,0.00065279006958,1.70299100876
14,0.124045848846,0.00289988517761,0.00288105010986,0.000653028488159,1.83193588257
15,0.123503923416,0.00286912918091,0.00285601615906,0.000662088394165,1.99465107918
16,0.121814966202,0.00258803367615,0.00285196304321,0.000659942626953,2.6358089447
17,0.123460769653,0.00291585922241,0.002934217453,0.000836133956909,2.19511198997
18,0.123344898224,0.0028669834137,0.00283694267273,0.000660181045532,2.31200695038
19,0.124762058258,0.00287079811096,0.00288105010986,0.00073504447937,2.45263600349
20,0.123807907104,0.00290584564209,0.00282096862793,0.000663995742798,2.54232192039
21,0.122375965118,0.00269317626953,0.00291395187378,0.000667095184326,3.27454805374
22,0.123880147934,0.00288105010986,0.00285506248474,0.000670909881592,2.87406110764
23,0.123299121857,0.00289392471313,0.00287389755249,0.000672101974487,2.91275000572
24,0.123251676559,0.00293707847595,0.00298309326172,0.000700950622559,3.06086301804
25,0.12180519104,0.00263905525208,0.00285291671753,0.000671148300171,3.48910808563
26,0.123236894608,0.00294494628906,0.0028190612793,0.000663042068481,3.28320121765
27,0.124332904816,0.0028920173645,0.0028760433197,0.000684022903442,3.40157699585
28,0.123637199402,0.00300693511963,0.00284910202026,0.000694036483765,3.53506612778
29,0.125648021698,0.00293588638306,0.00308513641357,0.000702857971191,4.15235805511
30,0.122753143311,0.00266408920288,0.00294208526611,0.000665187835693,4.28173899651
31,0.121178865433,0.002601146698,0.00291800498962,0.000668048858643,4.53355407715
32,0.12185382843,0.00265407562256,0.00302505493164,0.000664949417114,4.39456510544
33,0.12247467041,0.00265097618103,0.00296092033386,0.000685930252075,4.15643191338
34,0.126347303391,0.00285720825195,0.00288915634155,0.000705003738403,4.46181321144
35,0.12273311615,0.00273084640503,0.00289702415466,0.000664949417114,4.7674241066
36,0.122348308563,0.00262999534607,0.00294184684753,0.00072717666626,4.9676721096
37,0.121852874756,0.00261902809143,0.00288391113281,0.00069785118103,4.9066259861
38,0.122416973114,0.00264692306519,0.00282716751099,0.000665187835693,5.07630801201
39,0.125527143478,0.00266599655151,0.00284719467163,0.000733137130737,5.12939214706
40,0.124152898788,0.00265192985535,0.00299000740051,0.000741004943848,5.66434597969
41,0.121293067932,0.002601146698,0.00282716751099,0.000661849975586,5.58715105057
42,0.120657920837,0.00257992744446,0.00296092033386,0.000663042068481,5.53745102882
43,0.120314836502,0.0025908946991,0.00294613838196,0.000672101974487,5.92111706734
44,0.125339984894,0.0027289390564,0.00287294387817,0.000678062438965,5.98926401138
45,0.120604038239,0.00275802612305,0.00282096862793,0.000700950622559,5.76628804207
46,0.122319936752,0.0026490688324,0.00290203094482,0.000666856765747,6.08426403999
47,0.12186384201,0.00271606445312,0.00283408164978,0.00068998336792,6.12249994278
48,0.121303081512,0.00262093544006,0.00282001495361,0.000696182250977,6.34181499481
49,0.123039007187,0.00258493423462,0.00294899940491,0.00067400932312,6.69488596916
50,0.124592065811,0.0026330947876,0.00282096862793,0.000665903091431,6.58984613419
51,0.12090587616,0.00264596939087,0.00284910202026,0.000663995742798,6.91491699219
52,0.120703935623,0.0025999546051,0.00291991233826,0.000701904296875,6.94562792778
53,0.120710849762,0.00258207321167,0.0029399394989,0.000670194625854,7.15499997139
54,0.12110209465,0.00260305404663,0.00292205810547,0.000669956207275,7.15968894958
55,0.120733976364,0.00261688232422,0.00282502174377,0.000669002532959,7.39058804512
56,0.122268915176,0.00270986557007,0.0029878616333,0.000704050064087,7.14783406258
57,0.122045040131,0.00262498855591,0.00284790992737,0.000672101974487,7.55648398399
58,0.120069980621,0.00261807441711,0.0028829574585,0.000665187835693,7.65592002869
59,0.121848106384,0.00263500213623,0.00293684005737,0.000669956207275,7.57214999199
60,0.122026205063,0.00265598297119,0.00289797782898,0.000669002532959,7.81601285934
61,0.122555017471,0.00264191627502,0.00298810005188,0.000663995742798,8.21042704582
62,0.121737003326,0.0026957988739,0.00291991233826,0.000669002532959,8.38116407394
63,0.121594905853,0.00268697738647,0.00281500816345,0.000766038894653,8.04944992065
64,0.124738931656,0.00278186798096,0.00291800498962,0.000672101974487,8.56415891647
65,0.121037960052,0.0025999546051,0.00295305252075,0.000669002532959,8.62637090683
66,0.122008085251,0.00282788276672,0.00284695625305,0.000743865966797,8.55885791779
67,0.121152877808,0.0028281211853,0.00285696983337,0.000700950622559,8.60027503967
68,0.124674081802,0.00272703170776,0.00292611122131,0.000709772109985,8.962444067
69,0.121103048325,0.00262212753296,0.00294399261475,0.000663995742798,9.05464601517
70,0.120122909546,0.0027220249176,0.00285601615906,0.000672817230225,9.04241013527
71,0.123111963272,0.00269913673401,0.00285196304321,0.00066089630127,8.98293995857
72,0.123594045639,0.00266194343567,0.00289392471313,0.000658988952637,9.29618287086
73,0.12140417099,0.00287699699402,0.00282192230225,0.000667095184326,9.7972099781
74,0.121005296707,0.00259494781494,0.00294613838196,0.000664949417114,9.79089093208
75,0.126096963882,0.00271391868591,0.00289702415466,0.00071907043457,10.0231730938
76,0.121816158295,0.00264501571655,0.00283408164978,0.000669956207275,10.0730881691
77,0.122549057007,0.00276398658752,0.0028510093689,0.000672101974487,10.0800719261
78,0.12081694603,0.0027711391449,0.00288701057434,0.00069522857666,9.68890094757
79,0.121551036835,0.00258493423462,0.00293612480164,0.000665903091431,10.2587740421
80,0.121059894562,0.00258493423462,0.00285506248474,0.000668048858643,10.1373989582
81,0.120377063751,0.00260305404663,0.00285077095032,0.000662088394165,10.3406119347
82,0.121456861496,0.00286793708801,0.0028600692749,0.000722885131836,10.4139399529
83,0.122565984726,0.00260996818542,0.00282907485962,0.000702857971191,10.6841800213
84,0.124477863312,0.00267195701599,0.00289082527161,0.000735998153687,10.9485728741
85,0.122136354446,0.00269198417664,0.00287699699402,0.000669956207275,10.7640619278
86,0.125749826431,0.002601146698,0.00285696983337,0.000680923461914,11.3107059002
87,0.122904062271,0.0025999546051,0.0028920173645,0.000672101974487,11.5123748779
88,0.122565031052,0.00267100334167,0.00289607048035,0.000696182250977,11.0915920734
89,0.121659994125,0.00264406204224,0.00282406806946,0.000667095184326,11.4404559135
90,0.120940923691,0.00261211395264,0.00287103652954,0.000669956207275,11.7594559193
91,0.125096082687,0.00283598899841,0.00282502174377,0.000671148300171,11.7644529343
92,0.121339082718,0.00272703170776,0.0028989315033,0.000694990158081,11.9070329666
93,0.121740102768,0.00263500213623,0.00289702415466,0.000654935836792,11.9383358955
94,0.125624895096,0.00268316268921,0.00291204452515,0.000668048858643,11.8879868984
95,0.121075868607,0.0025680065155,0.00281310081482,0.000725984573364,12.1319139004
96,0.121242046356,0.00277400016785,0.0029571056366,0.000668048858643,12.5705199242
97,0.121014118195,0.00270700454712,0.00281310081482,0.000663995742798,12.5951890945
98,0.152470827103,0.00259399414062,0.00288510322571,0.000723838806152,12.7374539375
99,0.121957063675,0.00269103050232,0.0028989315033,0.000663042068481,12.6934838295
