step,run,get,set,free,run_up_to_step
0,0.561580181122,0.019828081131,0.0243542194366,0.00200200080872,0.547112941742
1,0.546453952789,0.0198571681976,0.0251219272614,0.00208020210266,1.07181501389
2,0.518982172012,0.0205380916595,0.0245101451874,0.00210499763489,1.61854815483
3,0.54424405098,0.0205590724945,0.0248820781708,0.00213098526001,2.13376879692
4,0.539041042328,0.0200109481812,0.0252010822296,0.00206089019775,2.62001395226
5,0.517465114594,0.020781993866,0.0242400169373,0.00192189216614,3.25635504723
6,0.544245243073,0.0199899673462,0.0243029594421,0.00204586982727,3.7337808609
7,0.534258842468,0.019917011261,0.0239222049713,0.00204396247864,4.25568890572
8,0.538025856018,0.0207090377808,0.0246789455414,0.00201916694641,5.49833202362
9,0.527056694031,0.0199139118195,0.0244469642639,0.00204992294312,5.35187411308
10,0.527806043625,0.0203309059143,0.0242910385132,0.00204610824585,6.54503393173
11,0.539154052734,0.0201110839844,0.0245280265808,0.00201797485352,6.43749308586
12,0.552416801453,0.0201869010925,0.0253019332886,0.00203394889832,6.95086693764
13,0.537263870239,0.0206758975983,0.0244297981262,0.00203800201416,7.44984912872
14,0.5333943367,0.0200109481812,0.0244460105896,0.00269198417664,8.05209302902
15,0.536182880402,0.0202071666718,0.0247039794922,0.00203704833984,9.18393707275
16,0.535043954849,0.0199239253998,0.0245740413666,0.00208806991577,8.98296999931
17,0.538358211517,0.0207378864288,0.0242118835449,0.00203108787537,9.58722901344
18,0.535833120346,0.0206480026245,0.0251910686493,0.00206112861633,10.0908341408
19,0.536103248596,0.019896030426,0.0253570079803,0.00201201438904,11.1710970402
20,0.523812055588,0.0202131271362,0.0242490768433,0.00203990936279,11.5192730427
21,0.52968788147,0.020359992981,0.0248029232025,0.00207996368408,11.7209560871
22,0.532588720322,0.0198338031769,0.0245280265808,0.00205516815186,12.8600399494
23,0.582406997681,0.0204119682312,0.025130033493,0.00205087661743,12.7330579758
24,0.523694038391,0.02064204216,0.025533914566,0.00204801559448,13.2990779877
25,0.53076505661,0.0203669071198,0.0253829956055,0.00208592414856,13.9950120449
26,0.548168182373,0.0195360183716,0.0242488384247,0.0020740032196,14.8263661861
27,0.54447889328,0.02015209198,0.0255179405212,0.00202012062073,15.4669368267
28,0.550267219543,0.0201408863068,0.0246748924255,0.002032995224,16.0594270229
29,0.528687953949,0.0199420452118,0.024649143219,0.00240087509155,16.4617021084
30,0.545454978943,0.0207300186157,0.0243721008301,0.0020010471344,16.5244297981
31,0.539679050446,0.0197970867157,0.024334192276,0.00203204154968,17.9451189041
32,0.522985219955,0.0203700065613,0.0241100788116,0.00202703475952,17.5366280079
33,0.539558887482,0.0194580554962,0.0248601436615,0.00203800201416,18.7292070389
34,0.533175945282,0.0200879573822,0.0239009857178,0.0019199848175,19.1497368813
35,0.595244884491,0.0197281837463,0.0249979496002,0.00272107124329,19.5611989498
36,0.565359354019,0.0194358825684,0.0249040126801,0.00202083587646,20.0919370651
37,0.561300039291,0.0192279815674,0.0237209796906,0.00206303596497,20.589774847
38,0.556507110596,0.0194010734558,0.0245110988617,0.00233316421509,21.4885420799
39,0.559679746628,0.0190510749817,0.0245170593262,0.00195097923279,21.7198560238
40,0.546568155289,0.0192668437958,0.0243670940399,0.00200486183167,22.2294569016
41,1.22453427315,0.0199429988861,0.0245440006256,0.0021710395813,22.7070832253
42,0.553303003311,0.0195488929749,0.0247027873993,0.00204992294312,23.0521528721
43,0.564538002014,0.0197908878326,0.0251100063324,0.00203204154968,24.2659008503
44,0.566699981689,0.0194778442383,0.0243518352509,0.00204920768738,24.6805410385
45,0.559416055679,0.0198359489441,0.0241711139679,0.00225710868835,25.0635139942
46,0.56440615654,0.0198831558228,0.0245459079742,0.00204801559448,25.6615180969
47,0.562608957291,0.0203258991241,0.0254390239716,0.0020170211792,26.6182169914
48,0.548002004623,0.0205700397491,0.0249931812286,0.00204610824585,26.6090159416
49,0.571326971054,0.0204169750214,0.024955034256,0.00202798843384,27.1251420975
50,0.558837175369,0.0196509361267,0.0241549015045,0.00202608108521,27.9791150093
51,0.564962863922,0.0210680961609,0.0243060588837,0.00204682350159,28.0702250004
52,0.546902894974,0.0199768543243,0.0246851444244,0.00206995010376,29.5781559944
53,0.548542737961,0.0203490257263,0.025153875351,0.00208497047424,29.5153381824
54,0.568344831467,0.0197229385376,0.0246579647064,0.00203919410706,30.3141999245
55,0.547283887863,0.0196709632874,0.0248079299927,0.00208401679993,30.8307800293
56,0.554891109467,0.0194079875946,0.0264449119568,0.00205302238464,31.3427288532
57,0.556078910828,0.019415140152,0.0247430801392,0.00204205513,32.2218461037
58,0.548851966858,0.0209228992462,0.0244839191437,0.00203609466553,32.6610250473
59,0.555268764496,0.0199449062347,0.0245959758759,0.00206899642944,33.2880749702
60,0.548961877823,0.0194809436798,0.0245230197906,0.00207591056824,33.3215610981
61,0.544899225235,0.0196158885956,0.0242421627045,0.00204181671143,33.5904018879
62,0.549955844879,0.0206341743469,0.0243790149689,0.00205183029175,34.4619989395
63,0.550164222717,0.0203940868378,0.0246789455414,0.00206398963928,35.3488380909
64,0.554571151733,0.0201439857483,0.0239849090576,0.00204992294312,35.7432739735
65,0.556308031082,0.0200550556183,0.02476811409,0.00206398963928,36.2635099888
66,0.5612180233,0.0198841094971,0.0251030921936,0.00203990936279,36.6072800159
67,0.575710058212,0.0198750495911,0.0247240066528,0.00213098526001,38.3043179512
68,0.552900314331,0.0200481414795,0.0243449211121,0.00203680992126,38.2326231003
69,0.563010931015,0.0208652019501,0.0246748924255,0.00205397605896,38.7176678181
70,0.556678056717,0.0203649997711,0.0247631072998,0.00207614898682,39.3047120571
71,0.561655044556,0.0204980373383,0.0241711139679,0.00205612182617,40.1147830486
72,0.566832780838,0.0194311141968,0.0244400501251,0.002032995224,40.7606799603
73,0.549808979034,0.0202169418335,0.0251121520996,0.00221681594849,40.7897670269
74,0.566739082336,0.0210809707642,0.0243310928345,0.00204586982727,41.7550499439
75,0.567111968994,0.0201511383057,0.0241560935974,0.00205898284912,42.9862098694
76,0.557710886002,0.0201599597931,0.0242669582367,0.00204300880432,42.1631529331
77,0.553128242493,0.0199868679047,0.0242509841919,0.00209307670593,42.6605291367
78,0.557912111282,0.0202310085297,0.0241627693176,0.00195288658142,43.1559598446
79,0.549247741699,0.020406961441,0.0242218971252,0.00202918052673,43.4821279049
80,0.555197954178,0.019189119339,0.0241799354553,0.00201296806335,44.8007488251
81,0.543403148651,0.0199520587921,0.0242040157318,0.00204586982727,44.687338829
82,0.577928066254,0.0200219154358,0.0249879360199,0.00203108787537,46.5799090862
83,0.551236867905,0.0200548171997,0.0249090194702,0.00216293334961,45.8228020668
84,0.568446874619,0.0203380584717,0.0248920917511,0.00206804275513,46.573374033
85,0.553040981293,0.0199139118195,0.0246570110321,0.00205898284912,47.50299716
86,0.555052757263,0.0208039283752,0.0260939598083,0.00201320648193,48.7370078564
87,0.545161962509,0.0196969509125,0.0245981216431,0.0020580291748,48.1080131531
88,0.540900230408,0.0197880268097,0.0237679481506,0.00194501876831,49.5998950005
89,0.549894094467,0.019357919693,0.0241589546204,0.00199580192566,49.0857698917
90,0.551815986633,0.0200850963593,0.0246131420135,0.00204610824585,51.5276920795
91,0.5648021698,0.0203521251678,0.0244739055634,0.00200510025024,50.7998960018
92,0.556637048721,0.0197610855103,0.024582862854,0.00208115577698,51.3500859737
93,0.559297084808,0.0202689170837,0.0245950222015,0.00208210945129,51.8286399841
94,0.555071115494,0.019739151001,0.0241520404816,0.00203490257263,52.8452439308
95,0.569864988327,0.0203421115875,0.0243079662323,0.00203704833984,52.7080450058
96,0.555615901947,0.0195660591125,0.0245931148529,0.00205993652344,53.5068831444
97,0.548961162567,0.0199558734894,0.0243790149689,0.00203013420105,53.638504982
98,0.556202888489,0.0200741291046,0.0252149105072,0.0022599697113,54.9939758778
99,0.554412841797,0.0201799869537,0.0249519348145,0.00204014778137,55.9336640835
