step,run,get,set,free,run_up_to_step
0,0.135865926743,0.00407600402832,0.003821849823,0.000613927841187,0.161349773407
1,0.134802818298,0.0034499168396,0.00390911102295,0.000709056854248,0.278339862823
2,0.134952068329,0.00376296043396,0.00400495529175,0.000768899917603,0.420701026917
3,0.134558916092,0.00393199920654,0.00417518615723,0.00105595588684,0.552404165268
4,0.133741855621,0.00350594520569,0.00392889976501,0.00100016593933,0.691068887711
5,0.133870840073,0.00382709503174,0.00394892692566,0.000898122787476,1.52693319321
6,0.139937162399,0.00378608703613,0.00395393371582,0.000952959060669,0.945492982864
7,0.13772892952,0.00392293930054,0.00417304039001,0.00102305412292,1.08156490326
8,0.135438919067,0.00370502471924,0.00406098365784,0.000979900360107,1.22518801689
9,0.1340239048,0.00358414649963,0.00390696525574,0.00100493431091,1.86556792259
10,0.135401010513,0.00386881828308,0.00390100479126,0.000991106033325,1.4922451973
11,0.134245872498,0.00354814529419,0.00391006469727,0.00102996826172,2.02876901627
12,0.640795946121,0.00378489494324,0.00397300720215,0.000937938690186,1.77709197998
13,0.140685081482,0.00382900238037,0.00394892692566,0.00111603736877,1.90457701683
14,0.134366035461,0.00394296646118,0.00411009788513,0.00111508369446,2.05910396576
15,0.133428096771,0.00371503829956,0.00390315055847,0.000931024551392,2.85383486748
16,0.1335978508,0.00368785858154,0.00404596328735,0.000977993011475,2.76546192169
17,0.135571241379,0.00398111343384,0.00439500808716,0.0012788772583,2.41589403152
18,0.140456914902,0.0037829875946,0.0038959980011,0.000936985015869,2.55827212334
19,0.135688066483,0.00409412384033,0.00391912460327,0.00102710723877,2.73608398438
20,0.139947891235,0.00390481948853,0.00391101837158,0.000976085662842,2.83149313927
21,0.134157896042,0.00349402427673,0.00393295288086,0.000955104827881,3.29330205917
22,0.134959936142,0.00394797325134,0.0042610168457,0.00111889839172,3.08735704422
23,0.133610010147,0.00356888771057,0.00414299964905,0.000942945480347,4.03321480751
24,0.134124040604,0.00395917892456,0.00429821014404,0.00117206573486,3.35620880127
25,0.139549016953,0.00362801551819,0.00406408309937,0.00105786323547,4.20170402527
26,0.13898396492,0.00360202789307,0.00405192375183,0.00104093551636,4.2464299202
27,0.135945796967,0.00393295288086,0.00394010543823,0.00105381011963,3.76093506813
28,0.133730888367,0.00350093841553,0.00411605834961,0.000998020172119,4.26599287987
29,0.133053302765,0.00371503829956,0.00401401519775,0.00102496147156,4.65050196648
30,0.138137817383,0.00370597839355,0.00396990776062,0.00105500221252,4.56330609322
31,0.135257959366,0.0037989616394,0.0041401386261,0.0010199546814,4.70020413399
32,0.136693239212,0.00391316413879,0.0040431022644,0.00102114677429,4.45972704887
33,0.134112119675,0.00357794761658,0.00398778915405,0.0010039806366,5.26484298706
34,0.134261846542,0.00357007980347,0.0040910243988,0.000977039337158,5.16525793076
35,0.134801864624,0.00386500358582,0.00407218933105,0.000975847244263,5.32619214058
36,0.132106781006,0.00370788574219,0.00428891181946,0.00107002258301,5.30035209656
37,0.133920192719,0.00364017486572,0.00394296646118,0.000935792922974,5.68063211441
38,0.134514093399,0.00355792045593,0.00401902198792,0.000917196273804,5.99702501297
39,0.139165878296,0.00373601913452,0.00394105911255,0.00101494789124,5.7990629673
40,0.134600162506,0.00371599197388,0.00393605232239,0.00104308128357,6.14229106903
41,0.134673833847,0.00349307060242,0.00394701957703,0.000993967056274,6.27572107315
42,0.135811090469,0.00350594520569,0.00415086746216,0.000956058502197,6.48073911667
43,0.133821964264,0.00368285179138,0.00399804115295,0.000988960266113,6.4238421917
44,0.138058900833,0.00367879867554,0.00394201278687,0.0010039806366,6.80674219131
45,0.137760877609,0.00367593765259,0.00397109985352,0.000975847244263,6.93111395836
46,0.133697032928,0.00358915328979,0.00396513938904,0.00107383728027,6.90722489357
47,0.139856338501,0.00368690490723,0.00386095046997,0.000968933105469,6.77273106575
48,0.137079954147,0.00368881225586,0.00403213500977,0.000941038131714,7.29563903809
49,0.134325027466,0.00359892845154,0.0040488243103,0.000989198684692,7.30897784233
50,0.134777784348,0.00354385375977,0.00406002998352,0.000960111618042,7.52335786819
51,0.134450912476,0.00382995605469,0.00484299659729,0.00104904174805,7.53411602974
52,0.140113115311,0.00375008583069,0.00409317016602,0.00103282928467,7.62121200562
53,0.133597135544,0.00364685058594,0.00390100479126,0.00112700462341,7.83736181259
54,0.135143995285,0.00357699394226,0.00408005714417,0.000963926315308,7.76316905022
55,0.135651826859,0.00408816337585,0.00397896766663,0.00109720230103,7.75102806091
56,0.139753818512,0.00386595726013,0.00403189659119,0.000926971435547,7.99960803986
57,0.135949134827,0.00367999076843,0.00393319129944,0.000984907150269,8.69860100746
58,0.134390830994,0.00361394882202,0.00388622283936,0.00092601776123,8.4154958725
59,0.135526895523,0.00369691848755,0.00437188148499,0.00109601020813,8.48958706856
60,0.135992288589,0.0039689540863,0.00391292572021,0.00101804733276,8.37604904175
61,0.141253232956,0.00391507148743,0.00394511222839,0.00102996826172,8.78523588181
62,0.135486125946,0.00390195846558,0.00401282310486,0.000964164733887,9.29885792732
63,0.134406089783,0.00373697280884,0.00390815734863,0.00098991394043,9.57249188423
64,0.135524988174,0.00356316566467,0.0041389465332,0.00106811523438,9.15755295753
65,0.134562015533,0.00353598594666,0.00394296646118,0.000895977020264,9.84476995468
66,0.657243967056,0.00377798080444,0.00418710708618,0.00110483169556,9.48939704895
67,0.134172916412,0.00346398353577,0.00395393371582,0.000972032546997,9.92325401306
68,0.134348154068,0.0035719871521,0.00391793251038,0.00098705291748,9.97012495995
69,0.139984130859,0.00395107269287,0.00403785705566,0.0011739730835,9.7789888382
70,0.134193181992,0.00355792045593,0.00392007827759,0.000952005386353,10.1344339848
71,0.13987493515,0.00355815887451,0.0039701461792,0.000945091247559,10.4417600632
72,0.134736776352,0.00386095046997,0.00418400764465,0.00098991394043,10.7301311493
73,0.135902881622,0.00351786613464,0.00400900840759,0.000916957855225,10.9836740494
74,0.135121822357,0.00349497795105,0.00390601158142,0.00100898742676,11.004776001
75,0.138622999191,0.00370001792908,0.00391817092896,0.000955104827881,10.5123579502
76,0.134739160538,0.00359797477722,0.00396704673767,0.000919818878174,10.7449879646
77,0.134622812271,0.00374317169189,0.00397896766663,0.00101780891418,11.6407821178
78,0.133045196533,0.00365805625916,0.00385594367981,0.00101709365845,11.0807211399
79,0.139209985733,0.00349998474121,0.00387501716614,0.00101494789124,11.471547842
80,0.134345054626,0.00380802154541,0.00399088859558,0.000919818878174,11.3107511997
81,0.139271020889,0.00364995002747,0.00398302078247,0.00116395950317,11.6316080093
82,0.135260820389,0.00364899635315,0.00399303436279,0.000976085662842,11.9409279823
83,0.136781930923,0.00379800796509,0.00397109985352,0.0010039806366,11.6417908669
84,0.135426044464,0.003741979599,0.00395202636719,0.00098705291748,12.1284458637
85,0.136835098267,0.00358605384827,0.00396394729614,0.000937938690186,12.4781720638
86,0.134762048721,0.00363397598267,0.0039050579071,0.000988006591797,12.4335551262
87,0.133915901184,0.00371813774109,0.00391292572021,0.000907182693481,12.337061882
88,0.135695934296,0.00373721122742,0.00393486022949,0.000957012176514,12.9953970909
89,0.134603023529,0.00371384620667,0.0038890838623,0.000929117202759,13.250469923
90,0.134522199631,0.00359487533569,0.00387620925903,0.000942945480347,12.6586689949
91,0.134150981903,0.00341796875,0.00394988059998,0.00103616714478,12.9535439014
92,0.137670040131,0.00360894203186,0.00393414497375,0.000977039337158,13.0610198975
93,0.133767127991,0.00361299514771,0.00404286384583,0.000983953475952,13.1201860905
94,0.134028911591,0.00344014167786,0.00410389900208,0.000977039337158,13.4355549812
95,0.134674072266,0.00364708900452,0.00398683547974,0.000972032546997,13.2934811115
96,0.134426116943,0.00387597084045,0.00398206710815,0.00093412399292,14.2670030594
97,0.887089967728,0.00447583198547,0.0041971206665,0.00115489959717,14.0791661739
98,0.134033918381,0.00352001190186,0.00394797325134,0.00096607208252,14.0505340099
99,0.138854980469,0.00345611572266,0.00402212142944,0.000955104827881,13.8562200069
