step,run,get,set,free,run_up_to_step
0,0.291325092316,0.0239658355713,0.0246160030365,0.00511288642883,0.324900150299
1,0.28049993515,0.022763967514,0.0245320796967,0.00515103340149,0.572290897369
2,0.275094032288,0.0215899944305,0.0239660739899,0.00516295433044,0.843899011612
3,0.279917955399,0.0220727920532,0.0239970684052,0.0051600933075,1.16190695763
4,0.276051044464,0.0229020118713,0.0253269672394,0.0061399936676,1.43385910988
5,0.283849239349,0.0222458839417,0.0241191387177,0.00515794754028,1.66982293129
6,0.279310941696,0.022335767746,0.0242080688477,0.00517511367798,1.92743206024
7,0.271176099777,0.0230870246887,0.0241811275482,0.0052011013031,3.1867620945
8,0.268232822418,0.021635055542,0.0240030288696,0.00519108772278,2.87044119835
9,0.269890785217,0.0216839313507,0.0238978862762,0.00516986846924,2.75661301613
10,0.2689640522,0.0229580402374,0.0247178077698,0.00515389442444,3.03859114647
11,0.268488168716,0.0229289531708,0.0250170230865,0.00616502761841,3.3621571064
12,0.278127908707,0.0230250358582,0.0241189002991,0.005774974823,3.72524595261
13,0.269482135773,0.0229649543762,0.0240399837494,0.00516605377197,3.87448000908
14,0.272886037827,0.0233778953552,0.0242669582367,0.0057590007782,4.15732097626
15,0.283409118652,0.0272789001465,0.024099111557,0.00519418716431,4.83429312706
16,0.268729925156,0.0240018367767,0.0239989757538,0.0052011013031,4.72460794449
17,0.266042947769,0.0214219093323,0.0240960121155,0.00516986846924,5.38001894951
18,0.277362823486,0.0232789516449,0.0289700031281,0.0061628818512,5.20391821861
19,0.270773172379,0.0238721370697,0.0239779949188,0.00519394874573,5.53378510475
20,0.268749713898,0.0235910415649,0.0240099430084,0.00514698028564,5.80258107185
21,0.276871204376,0.0217080116272,0.0240700244904,0.00518703460693,6.49865293503
22,0.273031949997,0.0229079723358,0.0241191387177,0.00520515441895,6.32898521423
23,0.270300865173,0.0238921642303,0.0241739749908,0.0051851272583,6.62167811394
24,0.269305229187,0.0237290859222,0.0240960121155,0.00518989562988,7.18692016602
25,0.280713796616,0.023857831955,0.0239198207855,0.0056459903717,7.10465502739
26,0.264343976974,0.0215659141541,0.0240671634674,0.00516295433044,8.02379703522
27,0.272975921631,0.0238389968872,0.0241329669952,0.00516486167908,7.76889204979
28,0.269044160843,0.0222260951996,0.0250418186188,0.00516796112061,8.28303599358
29,0.267158031464,0.0226979255676,0.0241119861603,0.00517082214355,8.61948013306
30,0.277915000916,0.0227501392365,0.0244560241699,0.00574493408203,8.84632396698
31,0.267769098282,0.0226538181305,0.0241899490356,0.00520491600037,9.17492294312
32,0.267310857773,0.0235319137573,0.0240440368652,0.00516200065613,9.78928494453
33,1.10683679581,0.0215830802917,0.0240871906281,0.00526309013367,9.41634988785
34,0.267881155014,0.0230820178986,0.0240089893341,0.00518202781677,10.1681258678
35,0.26758480072,0.021203994751,0.0242741107941,0.00517892837524,10.9382500648
36,0.268213272095,0.0213599205017,0.0240831375122,0.00522494316101,10.6259520054
37,0.269908189774,0.0225319862366,0.0241429805756,0.00520586967468,10.9212291241
38,0.278312921524,0.021791934967,0.0240111351013,0.00576114654541,10.930120945
39,0.267589092255,0.0212299823761,0.0240869522095,0.00520300865173,11.4487631321
40,0.272217035294,0.0211310386658,0.0237019062042,0.00518012046814,12.5630831718
41,0.266638040543,0.0215919017792,0.0241389274597,0.00516605377197,12.0692639351
42,0.263725042343,0.0217988491058,0.0242309570312,0.00518012046814,12.3517701626
43,0.267416000366,0.0224590301514,0.0239670276642,0.00576710700989,12.2080349922
44,0.269395112991,0.0213270187378,0.0240669250488,0.00517201423645,12.8813800812
45,0.280938863754,0.0212609767914,0.0242528915405,0.0052170753479,13.4524240494
46,0.265772819519,0.021595954895,0.0242748260498,0.00519299507141,13.3867959976
47,0.265714168549,0.0214519500732,0.0241410732269,0.00520014762878,13.890474081
48,0.26576423645,0.0212960243225,0.0239009857178,0.00516891479492,13.9140520096
49,0.267096996307,0.0212891101837,0.0240409374237,0.00517106056213,14.9784989357
50,0.268639087677,0.0214741230011,0.024090051651,0.00516390800476,15.2588100433
51,0.264135122299,0.0219559669495,0.0248830318451,0.0051600933075,15.5289230347
52,0.278294801712,0.0219600200653,0.0251770019531,0.00515508651733,15.0613899231
53,0.278682947159,0.0233352184296,0.0246450901031,0.00517392158508,15.9033958912
54,0.276417970657,0.0212190151215,0.0240287780762,0.00515484809875,15.4196748734
55,0.275009870529,0.0211968421936,0.0240180492401,0.00519299507141,16.2191200256
56,0.269752979279,0.0221300125122,0.0250051021576,0.00516200065613,16.5714120865
57,0.280736207962,0.0230982303619,0.0239441394806,0.00518918037415,17.3119089603
58,0.263916254044,0.0216290950775,0.0242171287537,0.00522303581238,16.577685833
59,0.281559944153,0.0239500999451,0.0241010189056,0.00516104698181,16.6613960266
60,0.264094829559,0.0217151641846,0.0240972042084,0.00519895553589,16.9930920601
61,0.269912004471,0.0212550163269,0.0242371559143,0.00516080856323,18.4621360302
62,0.26396894455,0.0236749649048,0.0245459079742,0.00516295433044,17.4857358932
63,0.26705789566,0.0227360725403,0.0241329669952,0.00519704818726,18.9738950729
64,0.278071880341,0.0235121250153,0.0246551036835,0.00517702102661,18.0642981529
65,0.277841091156,0.0220301151276,0.0247509479523,0.00515913963318,19.0181028843
66,0.276473999023,0.022675037384,0.0239679813385,0.00515699386597,19.8523061275
67,0.276522874832,0.0215919017792,0.0239441394806,0.00517988204956,19.0450358391
68,0.279572963715,0.021064043045,0.0240759849548,0.00520515441895,19.4537920952
69,0.267220973969,0.023677110672,0.0250248908997,0.00519490242004,19.4776248932
70,0.275431156158,0.0223522186279,0.024092912674,0.00520491600037,21.1062309742
71,0.268346786499,0.0211520195007,0.0240879058838,0.00522303581238,20.3807668686
72,0.271099090576,0.0229918956757,0.023980140686,0.00519704818726,20.0488359928
73,0.266939163208,0.022164106369,0.0239799022675,0.00516295433044,20.9077279568
74,0.26728105545,0.0265810489655,0.0241458415985,0.00517296791077,21.9165551662
75,0.26963019371,0.021833896637,0.0239460468292,0.00566601753235,21.0893819332
76,0.265655994415,0.0212380886078,0.0240149497986,0.00515699386597,21.7492609024
77,0.26856303215,0.021684885025,0.0243771076202,0.00519514083862,22.1585259438
78,0.268041133881,0.0212368965149,0.0239949226379,0.00520181655884,22.1005489826
79,0.278966903687,0.0237069129944,0.0240271091461,0.00515103340149,22.4803171158
80,0.26416182518,0.0211219787598,0.0240681171417,0.00515699386597,22.8503339291
81,0.270481109619,0.0238749980927,0.0239639282227,0.00519204139709,22.7621500492
82,0.278687238693,0.0221359729767,0.0254969596863,0.00516605377197,24.061923027
83,0.267549276352,0.0217781066895,0.0238280296326,0.00515413284302,24.2689938545
84,0.267431020737,0.0219790935516,0.0240020751953,0.00517296791077,23.680480957
85,0.799507856369,0.0222570896149,0.0241441726685,0.00527882575989,24.3720879555
86,0.267946004868,0.0216090679169,0.024698972702,0.00515389442444,25.5017259121
87,0.273025989532,0.0212051868439,0.0241429805756,0.00571894645691,24.7417559624
88,0.266113042831,0.0221090316772,0.024307012558,0.00524687767029,24.5567040443
89,0.270864009857,0.025025844574,0.02397108078,0.00521397590637,25.4435710907
90,0.268226861954,0.0214829444885,0.0240609645844,0.00516796112061,25.6156840324
91,0.268186092377,0.0216019153595,0.0242321491241,0.00517296791077,26.0883049965
92,0.26802611351,0.0225820541382,0.0240089893341,0.0051748752594,25.9211490154
93,0.269734144211,0.0227439403534,0.024071931839,0.00518608093262,26.5843780041
94,0.265782356262,0.022253036499,0.0240490436554,0.00518584251404,26.2361030579
95,0.273591041565,0.0226008892059,0.0241229534149,0.00520610809326,27.143073082
96,0.26754283905,0.0211780071259,0.0239579677582,0.00519990921021,27.2972819805
97,0.268310785294,0.0219910144806,0.0241630077362,0.00515818595886,27.5467870235
98,0.270853996277,0.0235180854797,0.0240948200226,0.00515389442444,27.6356658936
99,0.280658006668,0.0220232009888,0.0253081321716,0.00515604019165,28.1683859825
