step,run,get,set,free,run_up_to_step
0,0.720156908035,0.029433965683,0.0315108299255,0.00283718109131,0.734718799591
1,0.490050077438,0.0259709358215,0.033961057663,0.00279593467712,1.73656392097
2,0.506759881973,0.0267570018768,0.0309860706329,0.00277805328369,1.69993305206
3,0.489962100983,0.0265679359436,0.031965970993,0.00362205505371,2.19998812675
4,0.491658210754,0.0257031917572,0.0307290554047,0.00278997421265,2.71813297272
5,0.486312866211,0.026150226593,0.0310180187225,0.0028088092804,3.21023106575
6,0.483967781067,0.0268838405609,0.0318779945374,0.00284504890442,3.71191596985
7,0.502319097519,0.0271849632263,0.0312139987946,0.00280904769897,4.22204017639
8,0.492136716843,0.026309967041,0.0311050415039,0.00356006622314,4.67686796188
9,0.49501490593,0.026083946228,0.0320670604706,0.00283694267273,5.52728700638
10,0.493482351303,0.0262160301208,0.0322079658508,0.00279498100281,5.79398393631
11,0.495491981506,0.0273368358612,0.0317480564117,0.00377106666565,6.17719697952
12,0.508729696274,0.027575969696,0.0313060283661,0.0042519569397,6.78966021538
13,0.515180110931,0.0264620780945,0.031909942627,0.00280117988586,7.61001515388
14,0.508744955063,0.027911901474,0.0316460132599,0.00277900695801,7.62230396271
15,0.493939876556,0.0267808437347,0.0329339504242,0.00358104705811,8.1963198185
16,0.50258898735,0.0269389152527,0.0318868160248,0.00280904769897,9.15992999077
17,0.499114990234,0.0263319015503,0.0315148830414,0.00279188156128,9.54207491875
18,0.503014802933,0.0280418395996,0.0314319133759,0.00276207923889,9.75705099106
19,0.507665872574,0.0274000167847,0.031131029129,0.00278186798096,10.1639659405
20,0.498332023621,0.0262389183044,0.031986951828,0.00282096862793,11.1274178028
21,0.507766962051,0.0273489952087,0.0324420928955,0.00281095504761,11.2910380363
22,0.509642839432,0.027664899826,0.0325040817261,0.00284004211426,11.8889050484
23,0.49104475975,0.0267150402069,0.0322179794312,0.00280213356018,12.6170918941
24,0.494559288025,0.0269989967346,0.0320630073547,0.00281810760498,13.2504789829
25,0.499483108521,0.0266699790955,0.0317041873932,0.00279211997986,13.8094880581
26,0.508406877518,0.0263409614563,0.03165102005,0.0028030872345,14.2564120293
27,0.505728006363,0.0275318622589,0.0318372249603,0.00379991531372,14.1666760445
28,0.511593818665,0.0276679992676,0.0318188667297,0.00277400016785,15.0222251415
29,0.505490064621,0.0276429653168,0.0324010848999,0.00279498100281,15.4674210548
30,0.497249126434,0.0269448757172,0.0326240062714,0.0028190612793,15.8014378548
31,0.500488042831,0.026095867157,0.0317509174347,0.00289011001587,16.6568908691
32,0.505674123764,0.0271139144897,0.0314748287201,0.00281596183777,17.0335669518
33,0.500718832016,0.0260090827942,0.0317211151123,0.00283193588257,17.7311010361
34,0.503733873367,0.0272479057312,0.0313949584961,0.00357604026794,17.955218792
35,0.517718076706,0.0277938842773,0.0318458080292,0.00278401374817,18.0846560001
36,0.492257833481,0.0274059772491,0.0312268733978,0.00282192230225,18.6776661873
37,0.488565206528,0.0271401405334,0.0306959152222,0.00276303291321,18.8525259495
38,0.485558986664,0.0263469219208,0.0315148830414,0.002760887146,19.4709951878
39,0.481913805008,0.0258581638336,0.0310280323029,0.00281810760498,20.1830060482
40,0.49153637886,0.0259389877319,0.0313630104065,0.00367116928101,20.859030962
41,0.485110998154,0.0254628658295,0.0307550430298,0.00279378890991,21.0075969696
42,0.479083061218,0.0265171527863,0.0316319465637,0.00290894508362,21.1339609623
43,0.4831199646,0.0257120132446,0.0313749313354,0.00299191474915,22.018253088
44,0.480038166046,0.0270500183105,0.0310130119324,0.00281500816345,22.626709938
45,0.478842020035,0.0258440971375,0.0312120914459,0.0028760433197,22.8486089706
46,0.476335048676,0.0266880989075,0.0306310653687,0.00276899337769,22.9098200798
47,0.479610919952,0.0258889198303,0.0319931507111,0.00370097160339,23.6667878628
48,0.477988958359,0.0268619060516,0.0310878753662,0.00275802612305,24.241697073
49,0.480913877487,0.0263011455536,0.0313348770142,0.00291299819946,25.0557949543
50,0.478939771652,0.0256688594818,0.0321729183197,0.00279903411865,25.3028318882
51,0.48194694519,0.0253009796143,0.031632900238,0.00277900695801,25.765843153
52,0.482846975327,0.025545835495,0.0307550430298,0.00272917747498,26.3549079895
53,0.486263036728,0.0257170200348,0.0308711528778,0.00279092788696,26.8122479916
54,0.485734939575,0.0272629261017,0.0309820175171,0.00276494026184,27.7622737885
55,0.481684923172,0.0257830619812,0.0316429138184,0.00375819206238,27.6294159889
56,0.484033107758,0.0264821052551,0.0316450595856,0.00277400016785,29.0092701912
57,0.501664876938,0.0265991687775,0.0314390659332,0.00277519226074,29.9363458157
58,0.488690137863,0.0258889198303,0.0316431522369,0.00279903411865,30.3417680264
59,0.476176977158,0.0250971317291,0.0312099456787,0.00266408920288,30.037124157
60,0.492076158524,0.0252630710602,0.0312688350677,0.002760887146,30.2661709785
61,0.478103876114,0.0251128673553,0.0311250686646,0.00281596183777,30.6186819077
62,0.477093935013,0.0269770622253,0.0317509174347,0.00279498100281,30.845785141
63,0.490583896637,0.0255250930786,0.0311930179596,0.00274395942688,31.6843519211
64,0.48272895813,0.0266489982605,0.0315868854523,0.00277614593506,31.8845450878
65,0.496771097183,0.0265650749207,0.0314710140228,0.00278997421265,32.3833520412
66,0.488291978836,0.0264689922333,0.0311439037323,0.00268983840942,33.2094788551
67,0.491169214249,0.026260137558,0.0319888591766,0.00277590751648,34.2569110394
68,0.495577096939,0.0270669460297,0.0313601493835,0.00278902053833,35.297342062
69,0.500468969345,0.0266129970551,0.0322780609131,0.00302791595459,35.3567399979
70,0.497349023819,0.0260560512543,0.0318620204926,0.00278186798096,36.4695379734
71,0.483325958252,0.0266649723053,0.0319159030914,0.00267004966736,36.8659408092
72,0.504172086716,0.0271940231323,0.0321049690247,0.0027539730072,36.8488600254
73,0.482264041901,0.0266268253326,0.0305569171906,0.00274586677551,36.8120369911
74,0.484117984772,0.0257921218872,0.0310888290405,0.00277495384216,36.5025758743
75,0.484166145325,0.0261428356171,0.0303430557251,0.00278401374817,38.2593090534
76,0.482022762299,0.0259780883789,0.030925989151,0.00275015830994,38.1169421673
77,0.480734109879,0.027302980423,0.0312201976776,0.00274300575256,38.3652248383
78,0.491909980774,0.0256209373474,0.0310912132263,0.0035982131958,38.3812420368
79,0.478591680527,0.0259997844696,0.031270980835,0.00282311439514,39.7496538162
80,0.495460987091,0.0256872177124,0.0304219722748,0.00276803970337,40.758302927
81,0.478119850159,0.0257170200348,0.0305750370026,0.00272011756897,40.2336919308
82,0.491261005402,0.0252540111542,0.0311419963837,0.00277495384216,41.0729391575
83,0.49566078186,0.0266768932343,0.0312352180481,0.00283408164978,41.8618950844
84,0.486111164093,0.025386095047,0.0321590900421,0.00281715393066,42.5617051125
85,0.490795135498,0.0261511802673,0.0310990810394,0.00278401374817,43.7160019875
86,0.492210149765,0.0255751609802,0.030827999115,0.00282096862793,43.2700219154
87,0.491525173187,0.0255870819092,0.0311739444733,0.0033860206604,43.226583004
88,0.478616952896,0.0251619815826,0.0315670967102,0.00281691551208,44.3795700073
89,0.481763124466,0.0255959033966,0.0316641330719,0.00280785560608,44.3253889084
90,0.483824253082,0.025426864624,0.0324249267578,0.00291109085083,45.6056699753
91,0.500560998917,0.0261662006378,0.0311689376831,0.0027871131897,47.683686018
92,0.486758947372,0.0283761024475,0.0317769050598,0.00282502174377,47.394354105
93,0.499541044235,0.0262382030487,0.0327360630035,0.00282883644104,47.5886869431
94,0.476224184036,0.0267670154572,0.0316817760468,0.0027391910553,48.6462459564
95,0.492811918259,0.0257890224457,0.0315270423889,0.00274300575256,47.7610259056
96,0.488794803619,0.0267851352692,0.030641078949,0.00277209281921,48.4699351788
97,0.482536077499,0.0264348983765,0.0311341285706,0.00270795822144,48.3574500084
98,0.476641178131,0.0266051292419,0.0306091308594,0.00276708602905,48.6990180016
99,0.490464925766,0.0262799263,0.0312359333038,0.00278091430664,49.2071449757
