step,run,get,set,free,run_up_to_step
0,0.145606994629,0.00499892234802,0.00454902648926,0.000722885131836,0.147504091263
1,0.172371864319,0.00423407554626,0.00453400611877,0.000779867172241,0.292845010757
2,0.145818948746,0.00433897972107,0.00458312034607,0.000873804092407,0.452879190445
3,0.144092798233,0.00427794456482,0.00464606285095,0.000930070877075,0.58674788475
4,0.147395849228,0.00422501564026,0.00462508201599,0.00100588798523,0.752633094788
5,0.144253015518,0.00429797172546,0.00461196899414,0.00100684165955,0.905043840408
6,0.143504858017,0.00435590744019,0.00471997261047,0.00113701820374,1.0343170166
7,0.143816947937,0.00433492660522,0.00453495979309,0.00106000900269,1.16184520721
8,0.142999172211,0.00430202484131,0.00459098815918,0.00103092193604,1.742385149
9,0.143155097961,0.00430798530579,0.00532793998718,0.0011670589447,2.02429485321
10,0.180325746536,0.00471997261047,0.0045690536499,0.00103688240051,1.62036085129
11,0.145980834961,0.00471305847168,0.00466704368591,0.00102806091309,2.01289415359
12,0.176122188568,0.0048201084137,0.00466799736023,0.00107097625732,1.9248020649
13,0.148506164551,0.00431799888611,0.00525283813477,0.00123906135559,2.14965200424
14,0.148228883743,0.0046010017395,0.00467205047607,0.00101399421692,2.23135304451
15,0.142708778381,0.00420308113098,0.00465321540833,0.00106596946716,3.05772399902
16,0.143532037735,0.00448703765869,0.00464105606079,0.00106406211853,2.89191889763
17,0.191731929779,0.00481104850769,0.00460505485535,0.00106906890869,3.38530492783
18,0.152935028076,0.00458192825317,0.00475406646729,0.00107002258301,3.3492629528
19,0.147623062134,0.00448989868164,0.00454497337341,0.0010039806366,3.0508749485
20,0.147967815399,0.00440812110901,0.00457406044006,0.0010359287262,3.05318903923
21,0.146541118622,0.00418519973755,0.00461196899414,0.00100994110107,3.56309199333
22,0.144934654236,0.00455689430237,0.00514602661133,0.0011420249939,3.36295700073
23,0.166916131973,0.00505208969116,0.00462913513184,0.0010039806366,3.47675299644
24,0.143184900284,0.00447106361389,0.00460910797119,0.00105309486389,4.43749499321
25,0.1428129673,0.00423192977905,0.00473189353943,0.00108695030212,4.28283309937
26,0.14573597908,0.00476503372192,0.00467801094055,0.00100302696228,4.0655298233
27,0.14857006073,0.00428509712219,0.00458097457886,0.00110507011414,4.64874386787
28,0.14301609993,0.00430488586426,0.00469899177551,0.00101184844971,5.13613700867
29,0.141784191132,0.00429105758667,0.00467610359192,0.00100898742676,4.91369700432
30,0.145658016205,0.00431108474731,0.00478291511536,0.00104212760925,4.9919822216
31,0.145177125931,0.00449013710022,0.00460696220398,0.00100994110107,4.97257900238
32,0.143020153046,0.00435900688171,0.00551104545593,0.00100684165955,5.28246688843
33,0.148424863815,0.00443005561829,0.00461292266846,0.00101780891418,5.08311080933
34,0.144992113113,0.00478911399841,0.00462198257446,0.00100994110107,5.10037779808
35,0.174593925476,0.00415992736816,0.00476598739624,0.00101804733276,6.10691690445
36,0.144928216934,0.00447511672974,0.00466990470886,0.00103402137756,5.89761590958
37,0.142518997192,0.00436282157898,0.00474119186401,0.00105094909668,6.02099919319
38,0.143825054169,0.00419402122498,0.00465178489685,0.00100183486938,6.71131515503
39,0.181314706802,0.00556802749634,0.00468921661377,0.00101208686829,6.25647902489
40,0.141649246216,0.00424599647522,0.00464487075806,0.00102114677429,6.633852005
41,0.149765014648,0.00428891181946,0.00486207008362,0.00105619430542,6.67620491982
42,0.539127111435,0.00480198860168,0.00470900535583,0.00110197067261,6.74504303932
43,0.152724981308,0.00432205200195,0.00468897819519,0.00103306770325,6.63070702553
44,0.144414186478,0.00449395179749,0.00467205047607,0.0012001991272,7.14962601662
45,0.174706697464,0.00462794303894,0.00479006767273,0.00102686882019,7.46102905273
46,0.147924900055,0.0043478012085,0.00470995903015,0.00101089477539,7.29431819916
47,0.148584127426,0.00426602363586,0.00487017631531,0.00106596946716,7.80248117447
48,0.142049074173,0.00441217422485,0.00512790679932,0.0010678768158,7.46023106575
49,0.148451089859,0.00442314147949,0.00477600097656,0.00102400779724,8.08022093773
50,0.142831802368,0.00430917739868,0.00474786758423,0.00100803375244,7.96366095543
51,0.155325889587,0.00419402122498,0.00465083122253,0.00100898742676,8.45461702347
52,0.144253969193,0.00434398651123,0.0046489238739,0.00141596794128,8.34609699249
53,0.143621921539,0.00464701652527,0.00474810600281,0.00100994110107,8.34327197075
54,0.160901069641,0.00469493865967,0.00476694107056,0.00101590156555,8.2334280014
55,0.145449876785,0.00426888465881,0.00481009483337,0.00102806091309,8.99331688881
56,0.150710105896,0.00478196144104,0.00467896461487,0.00131392478943,8.88586807251
57,0.142554998398,0.00423097610474,0.00468397140503,0.00104808807373,9.0055539608
58,0.142791986465,0.00427889823914,0.00472187995911,0.00105810165405,9.3736000061
59,0.145509719849,0.004390001297,0.00480389595032,0.00102496147156,9.64143800735
60,0.143263101578,0.0043089389801,0.00482988357544,0.00107192993164,9.80522704124
61,0.143439054489,0.00432205200195,0.0047299861908,0.00102806091309,10.1726388931
62,0.141658067703,0.00453805923462,0.00476598739624,0.00103211402893,9.80807089806
63,0.144086122513,0.00478005409241,0.00467705726624,0.00114512443542,9.93333101273
64,0.185446023941,0.00464797019958,0.00487017631531,0.0011579990387,10.1318969727
65,0.141429901123,0.00422310829163,0.00496602058411,0.00102806091309,10.4943609238
66,0.142368793488,0.00434112548828,0.00487208366394,0.00121521949768,10.0522530079
67,0.143448829651,0.00469994544983,0.00487589836121,0.00103092193604,10.5358829498
68,0.147622108459,0.00475311279297,0.00481081008911,0.00102686882019,10.9093329906
69,0.144706964493,0.00448489189148,0.00488901138306,0.00102400779724,10.8338148594
70,0.148339033127,0.00472211837769,0.00493979454041,0.00116300582886,11.3970592022
71,0.711021184921,0.00452995300293,0.00475001335144,0.00105905532837,11.2712550163
72,0.183394193649,0.00470900535583,0.00486588478088,0.00124716758728,10.9430921078
73,0.17400598526,0.00473189353943,0.00498199462891,0.00107097625732,11.384365797
74,0.146918058395,0.00422883033752,0.00458598136902,0.00103807449341,11.8945910931
75,0.169272899628,0.00494694709778,0.00489497184753,0.00119209289551,12.0018649101
76,0.143108129501,0.0043830871582,0.00631499290466,0.0014750957489,11.7208850384
77,0.143486738205,0.00432801246643,0.00477600097656,0.00109004974365,12.0858550072
78,0.14252781868,0.00430607795715,0.00464415550232,0.00102686882019,12.7197749615
79,0.142627000809,0.00427103042603,0.00470995903015,0.00102281570435,12.4426500797
80,0.14794588089,0.00425815582275,0.00473880767822,0.00106906890869,12.9506869316
81,0.19812297821,0.00559115409851,0.00473213195801,0.0010290145874,12.3228387833
82,0.171203136444,0.00467014312744,0.00478196144104,0.00105905532837,12.7619590759
83,0.148111104965,0.0045759677887,0.00473308563232,0.00103998184204,13.1473701
84,0.141634225845,0.00475096702576,0.00475096702576,0.0010290145874,12.937237978
85,0.142750263214,0.00466012954712,0.00473618507385,0.00106310844421,13.5080339909
86,0.146858930588,0.00441884994507,0.00458693504333,0.00163507461548,13.722165823
87,0.142642974854,0.0044629573822,0.0047299861908,0.00101900100708,13.7240240574
88,0.178815126419,0.00436401367188,0.00483393669128,0.00116896629333,14.1511518955
89,0.175328969955,0.00432300567627,0.00475001335144,0.00102305412292,13.538146019
90,0.143306970596,0.00465607643127,0.00484013557434,0.00102591514587,14.0442659855
91,0.142786026001,0.00429606437683,0.00480198860168,0.0010290145874,13.9413459301
92,0.143373966217,0.00441694259644,0.0047299861908,0.00117802619934,14.3760550022
93,0.144961833954,0.00451302528381,0.0047709941864,0.00104403495789,14.6727640629
94,0.142972946167,0.00443696975708,0.00498580932617,0.00113677978516,15.1774427891
95,0.153839111328,0.00454807281494,0.00468897819519,0.0010449886322,15.3336160183
96,0.19212603569,0.00489091873169,0.00483894348145,0.00110387802124,15.7412388325
97,0.154392004013,0.00439596176147,0.00691795349121,0.00154709815979,15.3831760883
98,0.151391983032,0.00458097457886,0.00481796264648,0.00103402137756,15.8212549686
99,0.198507785797,0.00567102432251,0.00496506690979,0.00105810165405,15.3303492069
