step,run,get,set,free,run_up_to_step
0,0.325273036957,0.009446144104,0.01016497612,0.000970125198364,0.324875116348
1,0.322746038437,0.0089271068573,0.010311126709,0.000980138778687,0.642921209335
2,0.314693212509,0.00837898254395,0.0104122161865,0.00103688240051,0.957092046738
3,0.321009159088,0.00888609886169,0.010547876358,0.00102806091309,1.29440712929
4,0.316313028336,0.00883197784424,0.0106060504913,0.00102210044861,1.59601902962
5,0.314664125443,0.00872588157654,0.00998210906982,0.00105714797974,1.88806605339
6,0.30962896347,0.00859785079956,0.0101819038391,0.000978946685791,2.80972695351
7,0.32189822197,0.0087251663208,0.0103781223297,0.00114011764526,2.9662361145
8,0.317113161087,0.00901103019714,0.0106389522552,0.00127792358398,2.80400109291
9,0.314340114594,0.0090320110321,0.0103049278259,0.0010449886322,3.13172602654
10,0.317817211151,0.00900983810425,0.01034116745,0.0010359287262,3.45771288872
11,0.326459884644,0.00928211212158,0.0104961395264,0.00107097625732,3.83416104317
12,0.325263977051,0.0091540813446,0.0103399753571,0.00136208534241,4.09091806412
13,0.319849252701,0.00963497161865,0.0105800628662,0.0011990070343,4.33478188515
14,0.324270963669,0.00859904289246,0.0110769271851,0.00132989883423,5.07767796516
15,0.325508832932,0.00919985771179,0.0103619098663,0.00107288360596,5.11460709572
16,0.318135023117,0.00853800773621,0.0104448795319,0.0010199546814,5.57323908806
17,0.316150903702,0.00865793228149,0.0102808475494,0.00128507614136,5.5940349102
18,0.314804077148,0.00908279418945,0.0106048583984,0.00129795074463,6.04228997231
19,0.319506883621,0.00856304168701,0.0103039741516,0.00106000900269,6.62435507774
20,0.317548751831,0.00880718231201,0.0104591846466,0.000993013381958,6.91147494316
21,0.322550058365,0.0091290473938,0.0107219219208,0.00103402137756,6.90880608559
22,0.311214923859,0.00868201255798,0.0105049610138,0.0013599395752,7.56282496452
23,0.319419145584,0.00836801528931,0.0106289386749,0.00106310844421,7.90727591515
24,0.314605951309,0.00860905647278,0.0104911327362,0.00104403495789,8.27110004425
25,0.747479200363,0.00860404968262,0.0108489990234,0.00104093551636,8.03256917
26,0.337781906128,0.00896000862122,0.0102369785309,0.00134015083313,8.77211284637
27,0.319979906082,0.00851988792419,0.0104029178619,0.00107192993164,8.9976940155
28,0.315850019455,0.00932002067566,0.0107939243317,0.00133299827576,9.1284661293
29,0.328220844269,0.00987100601196,0.0105409622192,0.00135183334351,9.44238615036
30,0.313447952271,0.008957862854,0.0103650093079,0.00106382369995,10.0857269764
31,0.320540189743,0.00922203063965,0.0106680393219,0.00104379653931,10.4878661633
32,0.316369056702,0.00910091400146,0.0109210014343,0.00101613998413,10.6777100563
33,0.315084934235,0.00967717170715,0.0102491378784,0.00107502937317,10.7315778732
34,0.323137044907,0.0094690322876,0.010675907135,0.00113701820374,10.9342839718
35,0.326431035995,0.00890302658081,0.0103139877319,0.00137305259705,11.5842370987
36,0.32245016098,0.00905203819275,0.0108008384705,0.00112414360046,12.0782558918
37,0.320018291473,0.00867605209351,0.0107879638672,0.0010449886322,12.3919630051
38,0.316118240356,0.00876402854919,0.0107579231262,0.00098180770874,12.6968650818
39,0.319503068924,0.00880098342896,0.0110759735107,0.00110292434692,12.7654879093
40,0.332373142242,0.00906205177307,0.0106620788574,0.00108599662781,13.2524418831
41,0.316988945007,0.0086658000946,0.0109970569611,0.00107789039612,13.6538939476
42,0.316915035248,0.00849795341492,0.011036157608,0.0010449886322,14.1541678905
43,0.325739145279,0.00881600379944,0.0108699798584,0.00107884407043,14.4789569378
44,0.32012295723,0.00898599624634,0.0108280181885,0.00105595588684,14.8380029202
45,0.319859981537,0.00851798057556,0.0107591152191,0.00105786323547,15.0391049385
46,0.327059030533,0.00911402702332,0.0109510421753,0.00109815597534,15.3633430004
47,0.30332493782,0.00893211364746,0.010724067688,0.00104188919067,15.3505420685
48,0.303904056549,0.0085129737854,0.0109770298004,0.00135588645935,15.9591789246
49,0.317868947983,0.00868082046509,0.0104460716248,0.00107502937317,16.2739520073
50,0.330649137497,0.00901293754578,0.011146068573,0.00134801864624,16.5232169628
51,0.318062067032,0.00903105735779,0.0109419822693,0.00104117393494,16.6206219196
52,0.320651054382,0.00858092308044,0.0104379653931,0.00107097625732,17.264247179
53,0.32492184639,0.00890803337097,0.0111849308014,0.00110006332397,17.5574259758
54,0.320836782455,0.0089111328125,0.0107800960541,0.00135397911072,17.697617054
55,0.307490110397,0.00896406173706,0.0106420516968,0.00131297111511,17.4196820259
56,0.305166006088,0.00887513160706,0.01083111763,0.00106501579285,18.1009318829
57,0.319758892059,0.0091278553009,0.0109128952026,0.00144290924072,18.8613710403
58,0.317903757095,0.00856399536133,0.0104501247406,0.00140500068665,18.9230849743
59,0.321417093277,0.00889110565186,0.0107789039612,0.00103306770325,19.1208529472
60,0.316734790802,0.00884985923767,0.0108969211578,0.000893115997314,20.0118730068
61,0.316823959351,0.00936412811279,0.010754108429,0.00107884407043,20.0316028595
62,0.325707912445,0.00927090644836,0.0107710361481,0.00142312049866,20.3483948708
63,0.319066047668,0.00892901420593,0.0105028152466,0.00166797637939,20.3019809723
64,0.328664064407,0.00891995429993,0.0109260082245,0.00106501579285,20.6542069912
65,0.320646047592,0.00913405418396,0.011500120163,0.00105404853821,21.5651879311
66,0.324319839478,0.0087890625,0.0109841823578,0.00118780136108,21.6576049328
67,0.310106992722,0.00872421264648,0.0110759735107,0.00144600868225,21.8564009666
68,0.321571111679,0.00902605056763,0.010586977005,0.00106501579285,22.096077919
69,0.32249879837,0.00884294509888,0.0108108520508,0.0010678768158,22.4572730064
70,0.313555955887,0.00899004936218,0.0106730461121,0.00133299827576,22.9177980423
71,0.318365097046,0.00924801826477,0.0104868412018,0.00105905532837,22.9922699928
72,0.314093112946,0.00944304466248,0.0105631351471,0.001296043396,23.4648611546
73,0.321298122406,0.00876092910767,0.0106770992279,0.0013530254364,23.4406919479
74,0.325667142868,0.00906896591187,0.0108261108398,0.00110697746277,24.1218039989
75,0.311558008194,0.00859498977661,0.01056599617,0.00109195709229,24.307033062
76,0.320068836212,0.00890707969666,0.0110158920288,0.00141501426697,24.6647679806
77,0.32608628273,0.0097291469574,0.0105209350586,0.00103688240051,25.1087138653
78,0.314262866974,0.00878119468689,0.0107510089874,0.00111198425293,25.6276459694
79,0.3145840168,0.00867486000061,0.0111529827118,0.00144195556641,26.005188942
80,0.313161849976,0.00881481170654,0.0108840465546,0.00105810165405,25.8587610722
81,0.321036815643,0.00889205932617,0.0108778476715,0.00102305412292,26.6153359413
82,0.322723865509,0.00911593437195,0.0110898017883,0.00105285644531,26.8971350193
83,0.323375940323,0.00881314277649,0.0113949775696,0.00105285644531,27.5356969833
84,0.321360111237,0.00890493392944,0.0106859207153,0.00107097625732,27.1273360252
85,0.329390048981,0.00924015045166,0.0107450485229,0.00104904174805,27.9354121685
86,0.327829122543,0.00892901420593,0.010351896286,0.00110006332397,28.0906500816
87,0.313601016998,0.00894904136658,0.010822057724,0.00107502937317,27.8317329884
88,0.316179990768,0.00883817672729,0.0113470554352,0.00144982337952,29.0342898369
89,0.319765090942,0.00873112678528,0.0108258724213,0.00137591362,28.7205440998
90,0.320048809052,0.00877094268799,0.0107388496399,0.00106310844421,29.1221680641
91,0.327867031097,0.00914883613586,0.0105838775635,0.00107288360596,29.5529830456
92,0.340705871582,0.00966596603394,0.0107259750366,0.00133895874023,29.8798158169
93,0.323519945145,0.00889801979065,0.0109519958496,0.00105094909668,30.2902369499
94,0.312959909439,0.0087718963623,0.0109629631042,0.0011031627655,30.0807950497
95,0.313871860504,0.00920796394348,0.0106399059296,0.0014169216156,30.7535500526
96,0.834824085236,0.00935697555542,0.0113091468811,0.00138092041016,30.8266978264
97,0.30407500267,0.00898289680481,0.0108978748322,0.0011351108551,30.3113641739
98,0.316462039948,0.00936484336853,0.0104079246521,0.00143694877625,31.0385808945
99,0.30907201767,0.0089750289917,0.0104568004608,0.00134587287903,31.7317378521
