step,run,get,set,free,run_up_to_step
0,0.136826992035,0.0235469341278,0.521299123764,0.00347495079041,0.137152194977
1,0.136879920959,0.0454359054565,2.19742894173,0.00632190704346,0.278633832932
2,0.136794090271,0.0943419933319,1.05947399139,0.0123229026794,0.419268131256
3,0.141875743866,0.0992980003357,1.05071401596,0.021537065506,0.558511972427
4,0.139713048935,0.203724145889,0.313832998276,0.040470123291,0.696135997772
5,0.140431880951,0.213994979858,2.21368002892,0.0521268844604,0.841593980789
6,0.138731956482,0.214001893997,2.20149612427,0.0675480365753,0.975665092468
7,0.150455951691,0.228678941727,0.354973077774,0.0493221282959,1.12562298775
8,0.144806861877,0.441462039948,0.857779979706,0.122287034988,1.29786205292
9,0.144642829895,0.457471847534,2.314691782,0.0856049060822,2.08296298981
10,0.13814496994,0.479358911514,1.20005702972,0.103537797928,1.54850101471
11,0.141920089722,0.462420940399,1.25925397873,0.0753371715546,1.69622302055
12,0.140820980072,0.450212955475,0.688862085342,0.0807399749756,1.83219695091
13,0.142632961273,0.480533123016,1.24202084541,0.071722984314,1.94932603836
14,0.143134117126,0.466042995453,1.27365899086,0.0827419757843,2.0803539753
15,0.142910003662,0.449410915375,1.26542901993,0.0684859752655,2.27283501625
16,0.13781785965,0.89657497406,1.4278459549,0.173022985458,2.63841199875
17,0.138486146927,0.969636201859,0.985453128815,0.187225103378,2.49796485901
18,0.753664016724,0.932857990265,1.46047091484,0.170017957687,2.67909097672
19,0.136763334274,0.892827987671,2.63200616837,0.176963806152,3.1363799572
20,0.140092849731,0.892611026764,1.41674780846,0.179317951202,3.43158197403
21,0.134874820709,0.882430076599,1.46388220787,0.193063020706,3.44074392319
22,0.15483379364,0.904476165771,2.64187598228,0.184579849243,3.61060214043
23,0.140199899673,1.00882291794,0.964266061783,0.170992851257,3.32681298256
24,0.138435125351,0.95651102066,1.52202916145,0.156949996948,3.4932179451
25,0.143126010895,0.987340211868,1.50075101852,0.202570199966,3.63048696518
26,0.13944196701,0.972944021225,1.44612979889,0.155914068222,3.90575695038
27,0.139516830444,1.0043361187,0.976935148239,0.169201850891,3.89136505127
28,0.136682987213,0.941714048386,1.46929097176,0.174297094345,4.46657395363
29,0.136700868607,0.916915893555,2.54365420341,0.158889055252,4.60236287117
30,0.137607097626,0.994709968567,1.52467894554,0.209326028824,4.28936100006
31,0.136917114258,0.946270942688,1.47145700455,0.165394067764,4.71237206459
32,0.139913082123,1.88372397423,3.02390098572,0.360471010208,5.08844590187
33,0.14128613472,1.857213974,1.91478896141,0.354945898056,5.24596095085
34,0.137847185135,1.87508201599,1.95722103119,0.382920980453,5.54255700111
35,0.144057035446,1.8669860363,1.84321188927,0.331372976303,5.38706493378
36,0.141656160355,1.92457699776,1.92197990417,0.348179101944,5.52643489838
37,0.143235206604,1.87171387672,1.89271211624,0.345450878143,7.22199702263
38,0.14133810997,1.88110399246,2.95238399506,0.364094018936,6.07177686691
39,0.136167049408,1.8329668045,1.86510586739,0.349261045456,5.87890386581
40,0.142777919769,1.84030890465,1.86689782143,0.334449052811,6.22571611404
41,0.1389939785,1.84705495834,1.97488903999,0.407019138336,5.88071990013
42,0.136867046356,1.84093809128,1.85349202156,0.362717866898,6.21876788139
43,0.14068198204,1.8394639492,2.95545697212,0.345916986465,6.64339709282
44,0.138200998306,1.87948799133,5.31317710876,0.328863143921,7.26891708374
45,0.137357950211,1.89474701881,2.99679899216,0.335222959518,7.11311411858
46,0.137606859207,1.9120349884,2.96341705322,0.329869031906,7.08784198761
47,0.143750190735,1.86958098412,5.23276400566,0.334675073624,7.01503300667
48,0.174659967422,2.39419293404,2.92305207253,0.348362922668,7.47747182846
49,0.136219739914,1.99838495255,2.96138286591,0.336271047592,7.42191815376
50,0.140727043152,1.85709500313,3.11801600456,0.321950912476,7.57830309868
51,0.137606859207,1.87129807472,1.89916181564,0.380599021912,7.72659802437
52,0.136601924896,1.9017701149,1.88488602638,0.349659919739,8.12788796425
53,0.144471883774,1.94520688057,1.92950987816,0.386878967285,8.2593691349
54,0.14664721489,1.88054990768,5.25059199333,0.357240200043,8.24594807625
55,0.142720937729,1.86608195305,3.05089712143,0.351879835129,8.48641419411
56,0.151457071304,1.87467718124,5.21863889694,0.351220846176,8.51097202301
57,0.140506982803,1.84675121307,3.04054403305,0.337421178818,8.77219891548
58,0.137494802475,1.84168386459,5.21777701378,0.348278999329,8.77977609634
59,0.143307209015,1.85315394402,3.00740790367,0.349235057831,9.13308501244
60,0.140032052994,1.90804886818,1.96794486046,0.376677036285,9.43985199928
61,0.146291255951,1.92144012451,3.04306912422,0.371437072754,9.19270205498
62,0.139466047287,1.93974208832,3.20990991592,0.332206964493,9.37884616852
63,0.137782096863,1.87494516373,3.13713598251,0.374670982361,9.61352300644
64,0.165006875992,1.98676204681,3.06162714958,0.39561009407,9.77808904648
65,0.146625995636,3.94259190559,3.96515488625,0.744612932205,9.85755610466
66,0.138158798218,3.8667049408,3.86141681671,0.718638896942,9.81964683533
67,0.137155294418,3.86604404449,4.02346086502,0.721787929535,10.2012310028
68,0.137745857239,3.88989806175,3.8758790493,0.726011037827,10.4806931019
69,0.140378952026,3.88463711739,3.88525104523,0.767843961716,10.4243960381
70,0.137397289276,3.88723707199,3.95604395866,0.693772792816,10.2282478809
71,0.138049125671,3.81632781029,6.56683301926,0.731738090515,12.2148821354
72,0.138419866562,3.87045383453,6.26724410057,0.729923009872,11.2381129265
73,0.135595798492,3.74500203133,3.90455412865,0.715769052505,10.9890699387
74,0.137913942337,3.89118409157,3.95635104179,0.736855983734,11.4558711052
75,0.138401269913,4.09614706039,4.00626516342,0.755375862122,11.6533911228
76,0.137120246887,3.85680198669,3.97952008247,0.725296974182,11.6462278366
77,0.137200832367,3.81013512611,6.16886091232,0.697311878204,12.048470974
78,0.139454841614,3.75622606277,3.92933082581,0.687288045883,11.8571898937
79,0.139381885529,3.88899207115,6.22025299072,0.708297014236,11.5577120781
80,0.136394023895,4.47375106812,6.27364897728,0.646039009094,12.0866971016
81,0.138847827911,3.89255785942,6.12645292282,0.698645114899,12.16157794
82,0.143505096436,3.81693196297,6.11573505402,0.666195869446,12.3937628269
83,0.139913082123,3.89270591736,3.84805703163,0.694097995758,12.4101381302
84,0.138329029083,3.83671402931,6.21088004112,0.705387115479,12.885392189
85,0.13901591301,3.83638501167,3.92214083672,0.73301410675,12.811164856
86,0.138700008392,3.8435959816,6.01785206795,0.712289094925,13.3932750225
87,0.1423869133,3.82383489609,6.21085095406,0.685841083527,13.2988750935
88,0.140258073807,3.85580205917,6.34864115715,0.710000991821,14.0926580429
89,0.161462068558,3.92589688301,6.24704003334,0.694624900818,13.5522119999
90,0.136246919632,3.87872409821,6.14771103859,0.661170005798,13.5529921055
91,0.140518903732,3.83002400398,4.02865409851,0.721044063568,14.089785099
92,0.139360904694,4.12293410301,4.04012084007,0.765030860901,14.2376358509
93,0.136809825897,3.90209388733,6.26136088371,0.728893041611,13.7185409069
94,0.142387866974,3.86647582054,6.29492306709,0.752539873123,14.4640891552
95,0.139125823975,4.08504509926,6.0627579689,0.766577959061,14.3010900021
96,0.196588039398,4.05660009384,6.2631521225,0.698030948639,15.6535429955
97,0.138513803482,3.92039895058,6.4623439312,0.770200967789,14.8523049355
98,0.140715837479,4.13704609871,6.33514809608,0.74850487709,14.8756649494
99,0.138194084167,3.95841598511,4.19558501244,0.777850151062,15.6427829266
