step,run,get,set,free,run_up_to_step
0,0.247714996338,0.0117869377136,0.0131838321686,0.00288701057434,0.266036987305
1,0.236496925354,0.0111930370331,0.0129420757294,0.00284600257874,1.1266078949
2,0.237571001053,0.0120642185211,0.012964963913,0.00287294387817,0.730862140656
3,0.236892938614,0.0111598968506,0.0128741264343,0.00288009643555,1.75127601624
4,0.239341974258,0.0112271308899,0.0136690139771,0.00344491004944,1.22196292877
5,0.236817836761,0.0117628574371,0.0129179954529,0.00287294387817,1.49140191078
6,0.237709760666,0.0116400718689,0.0128951072693,0.00287008285522,1.68970799446
7,0.236177921295,0.0117571353912,0.0131530761719,0.0028669834137,1.94620394707
8,0.855460166931,0.0112290382385,0.0129261016846,0.00286602973938,2.16681694984
9,0.241466999054,0.011901140213,0.0128910541534,0.00290894508362,2.40080189705
10,0.237592220306,0.0125820636749,0.0129170417786,0.00291395187378,2.75127196312
11,0.240956068039,0.0125210285187,0.0133340358734,0.00289988517761,2.96997189522
12,0.241755008698,0.0125679969788,0.013946056366,0.00344395637512,3.14110398293
13,0.241910934448,0.011589050293,0.012955904007,0.00290513038635,4.09093499184
14,0.244379997253,0.0117630958557,0.0136339664459,0.00343012809753,3.74076509476
15,0.237706899643,0.0113770961761,0.0129308700562,0.0029091835022,4.30558300018
16,0.239075899124,0.0121350288391,0.0129888057709,0.0028510093689,4.0917429924
17,0.23969078064,0.0125498771667,0.0129301548004,0.00288391113281,4.31717896461
18,0.251754999161,0.011785030365,0.0131011009216,0.00290513038635,4.58986401558
19,0.235780715942,0.0116579532623,0.0129020214081,0.00287508964539,5.19049286842
20,0.242324113846,0.0123701095581,0.012934923172,0.0028510093689,5.06473588943
21,0.236122846603,0.0112950801849,0.0130460262299,0.00287199020386,5.69116902351
22,0.23885679245,0.0125958919525,0.0129070281982,0.00288391113281,5.52977800369
23,0.236464977264,0.0120489597321,0.0133790969849,0.0031578540802,6.18454909325
24,0.236667156219,0.0122489929199,0.0134119987488,0.00287485122681,6.44269704819
25,0.239460229874,0.0125069618225,0.0129089355469,0.0028669834137,6.57927489281
26,0.240308046341,0.011157989502,0.0130441188812,0.00288987159729,7.06319618225
27,0.239608049393,0.0120968818665,0.0129020214081,0.00287818908691,7.24705696106
28,0.239663124084,0.0112361907959,0.0130338668823,0.00288200378418,7.57100009918
29,0.238829135895,0.011981010437,0.0132210254669,0.00287795066833,7.79643511772
30,0.24342918396,0.0116128921509,0.0132939815521,0.00285696983337,7.9335000515
31,0.23881983757,0.0124940872192,0.0129041671753,0.0028510093689,8.09678411484
32,0.248538732529,0.0126678943634,0.0135178565979,0.00285816192627,8.29303884506
33,0.242084741592,0.0126430988312,0.0129759311676,0.00288200378418,8.71938085556
34,0.245877981186,0.0124719142914,0.0132119655609,0.00288081169128,8.74818611145
35,0.238677740097,0.0111920833588,0.0129292011261,0.00286412239075,8.67154097557
36,0.235764026642,0.0111060142517,0.0138440132141,0.00287795066833,9.42061901093
37,0.239499807358,0.0118839740753,0.0131258964539,0.00285601615906,9.70111894608
38,0.238440990448,0.0123829841614,0.0134930610657,0.00289011001587,9.8130440712
39,0.238255023956,0.0123438835144,0.0128710269928,0.00285911560059,10.3638072014
40,0.24263715744,0.0111041069031,0.012925863266,0.00316309928894,10.2388420105
41,0.239851236343,0.0111968517303,0.012913942337,0.00290012359619,10.8368520737
42,0.239831924438,0.0114631652832,0.0130989551544,0.00288391113281,10.8465971947
43,0.241565942764,0.0113780498505,0.0129110813141,0.00291395187378,10.9026219845
44,0.239863157272,0.0111310482025,0.0129799842834,0.00286316871643,11.411646843
45,0.236701965332,0.0111150741577,0.013247013092,0.0028920173645,11.4697909355
46,0.245312213898,0.0111789703369,0.0129759311676,0.00290989875793,11.6592628956
47,0.23726606369,0.0115721225739,0.0129058361053,0.00286912918091,11.8998010159
48,0.247727870941,0.011204957962,0.0137331485748,0.00285792350769,12.4409210682
49,0.245344161987,0.011470079422,0.0130767822266,0.0028760433197,12.204228878
50,0.237449169159,0.0120389461517,0.0132150650024,0.0028600692749,13.1856091022
51,0.239361047745,0.0111801624298,0.0129239559174,0.00285696983337,13.1596050262
52,0.237429857254,0.0125169754028,0.0129001140594,0.00318098068237,12.8425638676
53,0.238613843918,0.0112950801849,0.0128939151764,0.00287389755249,13.2676110268
54,0.236674070358,0.0113320350647,0.0129342079163,0.00287103652954,13.7939379215
55,0.246699810028,0.0126960277557,0.0130870342255,0.00290417671204,13.6311540604
56,0.236809015274,0.011106967926,0.0129868984222,0.00284910202026,14.3252801895
57,0.240791797638,0.0112619400024,0.0128769874573,0.0028760433197,14.7247810364
58,0.237066745758,0.0116090774536,0.0134341716766,0.00291991233826,14.7982339859
59,0.237531900406,0.0113348960876,0.0130841732025,0.00285696983337,14.7538928986
60,0.241430997849,0.0113761425018,0.0131340026855,0.00288486480713,14.9834051132
61,0.645623922348,0.0120801925659,0.0131299495697,0.00300216674805,15.1803729534
62,0.236056089401,0.0114669799805,0.0132298469543,0.00287580490112,15.98427701
63,0.237271785736,0.0124399662018,0.0129070281982,0.00285792350769,15.6678268909
64,0.246423959732,0.0122978687286,0.0132069587708,0.0028669834137,15.8592531681
65,0.240623950958,0.0116391181946,0.0132329463959,0.00291204452515,15.9928178787
66,0.235312223434,0.0113761425018,0.0131878852844,0.00285792350769,16.6975018978
67,0.235342979431,0.0111508369446,0.0132029056549,0.00285387039185,16.9868831635
68,0.237160682678,0.0122871398926,0.0129489898682,0.00286793708801,16.9626290798
69,0.239526033401,0.0125548839569,0.0132670402527,0.00288200378418,17.6963458061
70,0.237082242966,0.0118429660797,0.0131130218506,0.00285077095032,17.6132678986
71,0.238273143768,0.0118911266327,0.0134720802307,0.00285387039185,17.6881699562
72,0.235877990723,0.011195898056,0.0128488540649,0.00285506248474,18.2493629456
73,0.237623929977,0.0122621059418,0.0136358737946,0.00287699699402,18.3904738426
74,0.243932008743,0.0123670101166,0.0129821300507,0.00285506248474,19.438585043
75,0.237647294998,0.0117990970612,0.0138051509857,0.0028920173645,19.2734861374
76,0.238316059113,0.0126059055328,0.0134809017181,0.00287079811096,19.3943669796
77,0.239389181137,0.0121791362762,0.0133140087128,0.00286793708801,19.7885529995
78,0.237940073013,0.0119481086731,0.013561964035,0.00288200378418,20.4636929035
79,0.237329006195,0.0116529464722,0.0128939151764,0.00287318229675,19.650537014
80,0.236362934113,0.0118129253387,0.0130372047424,0.00295805931091,19.6688559055
81,0.241717100143,0.0154721736908,0.0129909515381,0.00288414955139,20.0772531033
82,0.237063884735,0.0115959644318,0.013200044632,0.00297403335571,20.5111801624
83,0.241290092468,0.0111010074615,0.0130031108856,0.00291204452515,21.6377811432
84,0.243220806122,0.0120959281921,0.0133540630341,0.00287985801697,21.0566000938
85,0.244988918304,0.0114421844482,0.0138030052185,0.00291013717651,21.8634719849
86,0.240784168243,0.0122368335724,0.0132131576538,0.00287318229675,21.9706981182
87,0.240360021591,0.0115940570831,0.012904882431,0.00289177894592,22.0547127724
88,0.246408224106,0.0111639499664,0.0129959583282,0.00287699699402,22.8382840157
89,0.237853050232,0.0111949443817,0.0129668712616,0.0032160282135,22.0969378948
90,0.236819028854,0.0111029148102,0.0132749080658,0.0028829574585,23.1984639168
91,0.242419958115,0.0112218856812,0.0131390094757,0.00316596031189,23.2181079388
92,0.236788988113,0.0114438533783,0.0129609107971,0.00285506248474,23.024353981
93,0.2383248806,0.0110619068146,0.0132441520691,0.00290107727051,23.2084641457
94,0.237715005875,0.0112419128418,0.0129179954529,0.00285291671753,23.37200284
95,0.242743730545,0.011656999588,0.0129020214081,0.00286197662354,23.4578340054
96,0.241735935211,0.0112879276276,0.0128810405731,0.00286197662354,23.8240141869
97,0.240852832794,0.0116000175476,0.0133352279663,0.00287294387817,23.913902998
98,0.239738225937,0.0114722251892,0.0130789279938,0.00288105010986,24.17958498
99,0.235980033875,0.0111379623413,0.0130469799042,0.00285506248474,24.6117098331
