step,run,get,set,free,run_up_to_step
0,0.311459779739,0.0325231552124,0.0327641963959,0.0067720413208,0.343688964844
1,0.276007890701,0.0306839942932,0.0323801040649,0.00703692436218,0.60187292099
2,0.304351091385,0.0279200077057,0.0316851139069,0.00677514076233,0.954627990723
3,0.308762073517,0.0297691822052,0.031583070755,0.0066659450531,1.23191785812
4,0.273631811142,0.0295791625977,0.0330860614777,0.00731801986694,1.51021909714
5,0.288394927979,0.0311379432678,0.0316050052643,0.00670194625854,2.5467569828
6,0.302546262741,0.029492855072,0.0325119495392,0.00673794746399,2.75839519501
7,0.316227912903,0.0300230979919,0.0317161083221,0.0067298412323,3.15221619606
8,0.274543762207,0.0297961235046,0.0333890914917,0.00813102722168,2.90018987656
9,0.275261878967,0.0297400951385,0.0315551757812,0.00670194625854,3.10491800308
10,0.305903911591,0.0300018787384,0.0323159694672,0.00724411010742,3.66450691223
11,0.277616024017,0.0283160209656,0.0319740772247,0.00684595108032,4.20213103294
12,0.275614023209,0.028568983078,0.0316390991211,0.00670194625854,4.82633090019
13,0.271669864655,0.0279099941254,0.0314409732819,0.00664114952087,4.54900312424
14,0.303694725037,0.0311980247498,0.0336751937866,0.00756406784058,5.51739215851
15,0.3168861866,0.0305871963501,0.0324211120605,0.0078911781311,5.37436008453
16,0.284753084183,0.0302481651306,0.0314548015594,0.00747799873352,5.41844105721
17,0.2755651474,0.0307369232178,0.0318131446838,0.00677394866943,6.14319896698
18,0.278218984604,0.0299229621887,0.0315511226654,0.00697898864746,5.81135201454
19,0.287191867828,0.0322911739349,0.0334980487823,0.00756096839905,7.06534218788
20,0.272131919861,0.0305590629578,0.0319919586182,0.00674510002136,7.15029811859
21,0.274266958237,0.0291550159454,0.0315990447998,0.00675415992737,8.14028501511
22,0.275633096695,0.0317769050598,0.0322868824005,0.00742101669312,8.12669301033
23,0.27768611908,0.0309798717499,0.0623450279236,0.0109710693359,8.8117108345
24,0.277817726135,0.0286300182343,0.0317749977112,0.00691318511963,9.73062705994
25,0.300090074539,0.0307958126068,0.0595500469208,0.00700283050537,7.75234103203
26,0.288952827454,0.0310690402985,0.0325088500977,0.00692701339722,9.28542709351
27,0.285468816757,0.0308978557587,0.0315248966217,0.0080349445343,11.3564260006
28,0.300026893616,0.0275211334229,0.0328631401062,0.00806617736816,11.0906708241
29,0.285650968552,0.0307409763336,0.0317959785461,0.00697302818298,10.4906070232
30,0.275107860565,0.0293397903442,0.0314691066742,0.00759696960449,12.7450211048
31,0.308336019516,0.0296409130096,0.0315351486206,0.00664496421814,12.5228409767
32,0.273138999939,0.027801990509,0.0315680503845,0.0066831111908,13.0446808338
33,0.270425081253,0.0286099910736,0.0334851741791,0.00753593444824,12.815912962
34,0.274070978165,0.0293960571289,0.0318651199341,0.00692200660706,12.8788881302
35,0.275264024734,0.0277669429779,0.0332720279694,0.00677108764648,15.0193090439
36,0.274078130722,0.027939081192,0.0315868854523,0.00671291351318,12.1175630093
37,0.309808969498,0.0277650356293,0.031683921814,0.00681900978088,14.8108921051
38,0.283317089081,0.0289371013641,0.0317690372467,0.00679898262024,13.940819025
39,1.25259208679,0.0283329486847,0.0317931175232,0.00686383247375,14.0569040775
40,0.277296066284,0.027144908905,0.0353090763092,0.00687289237976,13.4586391449
41,0.286186218262,0.0301158428192,0.031641960144,0.00759792327881,15.0688281059
42,0.282127857208,0.0297701358795,0.0316519737244,0.00889801979065,14.2192668915
43,0.312839031219,0.0300028324127,0.0324749946594,0.00691795349121,16.8929929733
44,0.30301618576,0.0281331539154,0.0315928459167,0.00665187835693,14.2257919312
45,0.270774841309,0.0274970531464,0.0315470695496,0.00670313835144,17.2264399529
46,0.27170586586,0.0288591384888,0.0328409671783,0.00731015205383,17.865334034
47,0.273583889008,0.028468132019,0.0326361656189,0.0068039894104,18.2912077904
48,0.275856018066,0.0289931297302,0.0324211120605,0.00681376457214,17.8344419003
49,0.307339906693,0.0299689769745,0.0325150489807,0.00671291351318,18.3054671288
50,0.269524812698,0.0280511379242,0.0321581363678,0.00665903091431,19.623803854
51,0.310303926468,0.0282618999481,0.0330212116241,0.00665712356567,18.6925890446
52,0.284008264542,0.0298919677734,0.0320320129395,0.00670003890991,19.047410965
53,0.272974252701,0.0289208889008,0.0320680141449,0.00679397583008,19.9276008606
54,0.274011850357,0.0303981304169,0.032655954361,0.00682687759399,17.5474190712
55,0.273776054382,0.0276010036469,0.0317130088806,0.00673389434814,21.6397409439
56,0.273951768875,0.0274958610535,0.032222032547,0.00682091712952,20.1778430939
57,0.308729887009,0.0280539989471,0.0315690040588,0.00676798820496,18.9350240231
58,0.271234035492,0.0277810096741,0.0321269035339,0.00705814361572,25.3149030209
59,0.276026248932,0.0292110443115,0.0329010486603,0.00668001174927,21.3978300095
60,0.675797224045,0.0284540653229,0.0325529575348,0.00684499740601,21.4640190601
61,0.274330854416,0.0318641662598,0.0321140289307,0.00719213485718,19.699739933
62,0.669549942017,0.0291109085083,0.0316979885101,0.00688695907593,23.5937449932
63,0.275199890137,0.0309610366821,0.0326969623566,0.00664305686951,23.4895868301
64,0.303832054138,0.0271270275116,0.0324380397797,0.00664710998535,23.6567001343
65,0.287714004517,0.0287420749664,0.032506942749,0.00723505020142,24.9252409935
66,0.275442123413,0.0297868251801,0.0314199924469,0.0068461894989,22.4667618275
67,0.273675918579,0.0276908874512,0.0322561264038,0.00715303421021,26.2106769085
68,0.278107881546,0.0284948348999,0.0324640274048,0.0067138671875,24.1362130642
69,0.277736902237,0.0293312072754,0.0316731929779,0.00683283805847,28.7547860146
70,0.271991014481,0.0285189151764,0.0330760478973,0.00715899467468,23.519851923
71,0.28540802002,0.0278580188751,0.0315570831299,0.00699090957642,25.3538980484
72,0.284446001053,0.0286810398102,0.0316870212555,0.00679993629456,28.1624279022
73,0.272747993469,0.0281851291656,0.0323829650879,0.00679588317871,28.2212769985
74,0.279783010483,0.0283670425415,0.0391340255737,0.00689697265625,29.5127570629
75,0.273138046265,0.0301060676575,0.0322229862213,0.00669097900391,30.1354448795
76,0.284950017929,0.0286190509796,0.0330519676208,0.00752902030945,26.4475889206
77,0.27717590332,0.0299170017242,0.0316300392151,0.00680994987488,29.5951838493
78,0.271932840347,0.0292811393738,0.0334670543671,0.00721120834351,27.0236611366
79,0.274046897888,0.0298209190369,0.0319011211395,0.00673699378967,28.7660939693
80,0.271703243256,0.0313379764557,0.0314729213715,0.00706481933594,31.0520780087
81,0.272307872772,0.027960062027,0.0319669246674,0.00686979293823,27.6169400215
82,0.307680130005,0.0304260253906,0.0316188335419,0.00676202774048,28.8531579971
83,0.284424781799,0.0284039974213,0.0314910411835,0.00674700737,29.6572139263
84,0.277820825577,0.0305891036987,0.0327520370483,0.00680899620056,31.0775640011
85,0.27090215683,0.0286149978638,0.0315878391266,0.00679707527161,34.218708992
86,0.271328210831,0.0275490283966,0.0321021080017,0.00872111320496,31.8717660904
87,0.285626888275,0.0277659893036,0.0314791202545,0.00682497024536,29.4685120583
88,0.272947311401,0.0295808315277,0.0328328609467,0.00688505172729,36.606388092
89,0.273454904556,0.0291237831116,0.0319368839264,0.00694608688354,31.4352288246
90,0.278580904007,0.028195142746,0.0328950881958,0.00710797309875,30.9788441658
91,0.272791862488,0.0286929607391,0.0315458774567,0.00768804550171,30.0882940292
92,0.278202056885,0.0294411182404,0.0317349433899,0.00665521621704,32.6215291023
93,0.273694992065,0.0285530090332,0.0326058864594,0.00669813156128,33.7378571033
94,0.275187969208,0.0293769836426,0.0316429138184,0.00785684585571,40.5705561638
95,0.271044015884,0.0285129547119,0.0315930843353,0.0067720413208,31.6401050091
96,0.30331993103,0.0284440517426,0.0318541526794,0.00773978233337,34.5009009838
97,0.290567874908,0.0303778648376,0.031790971756,0.00666189193726,33.3658390045
98,0.273175001144,0.0286829471588,0.0316319465637,0.00669598579407,35.3577339649
99,0.319894075394,0.0294499397278,0.0315198898315,0.00676608085632,39.3710949421
