step,run,get,set,free,run_up_to_step
0,0.444575071335,0.0148820877075,0.0192060470581,0.00161004066467,0.432163000107
1,0.318706989288,0.0151679515839,0.0187239646912,0.00171089172363,0.79269695282
2,0.314651727676,0.014585018158,0.0193340778351,0.00167512893677,1.12472891808
3,0.314436674118,0.0151970386505,0.0182781219482,0.0016770362854,1.41102313995
4,0.313068151474,0.0149071216583,0.0183820724487,0.0016930103302,1.79488682747
5,0.307404756546,0.015221118927,0.0199790000916,0.00165295600891,2.35421895981
6,0.312520980835,0.0161759853363,0.019299030304,0.00179290771484,2.37340688705
7,0.315104961395,0.0157558917999,0.0187251567841,0.00171303749084,2.70628190041
8,0.308868169785,0.0159239768982,0.0189189910889,0.00226712226868,3.18087291718
9,0.312916994095,0.0163190364838,0.0186030864716,0.00172996520996,3.61846089363
10,0.31125998497,0.0145790576935,0.0185060501099,0.00163078308105,4.28514814377
11,0.316245794296,0.0154891014099,0.0184350013733,0.00219202041626,4.88372612
12,0.317167043686,0.0160710811615,0.0185470581055,0.00172805786133,4.3335518837
13,0.318377017975,0.0157709121704,0.019012928009,0.00215816497803,5.28848814964
14,0.313601016998,0.0158929824829,0.0187499523163,0.00175619125366,5.78808093071
15,0.31810593605,0.0157380104065,0.0191400051117,0.00217604637146,5.84951519966
16,0.311553955078,0.0160820484161,0.0186650753021,0.00170683860779,6.04040718079
17,0.313574075699,0.0163600444794,0.0187668800354,0.00168704986572,5.74414587021
18,0.324584960938,0.016489982605,0.0193910598755,0.00224685668945,6.74075198174
19,0.326308965683,0.0157289505005,0.0187029838562,0.00230002403259,6.96429800987
20,0.310415029526,0.0165219306946,0.0192492008209,0.00170707702637,6.94910812378
21,0.315962076187,0.0150120258331,0.0188801288605,0.00168204307556,8.52136492729
22,0.312031984329,0.0153610706329,0.0182030200958,0.00164389610291,8.41555595398
23,0.313745260239,0.0148320198059,0.0187149047852,0.00173497200012,8.92364096642
24,0.308330059052,0.0146639347076,0.0189960002899,0.00173497200012,9.25816988945
25,0.318478822708,0.0147008895874,0.0187699794769,0.00168681144714,9.60769796371
26,0.319168806076,0.0149631500244,0.0186800956726,0.00168991088867,10.5120670795
27,0.311174154282,0.0147230625153,0.0187430381775,0.00168704986572,11.2294230461
28,0.310261249542,0.0145280361176,0.0185530185699,0.00162506103516,9.47351002693
29,0.316640138626,0.0150620937347,0.0189862251282,0.0016930103302,10.207461834
30,0.314570188522,0.0146839618683,0.0192840099335,0.00165915489197,11.570843935
31,0.31357717514,0.0159220695496,0.0182378292084,0.00213384628296,10.5312969685
32,0.312690019608,0.0154337882996,0.0185511112213,0.00241494178772,11.8416759968
33,0.316168069839,0.0162329673767,0.0192279815674,0.00169491767883,12.1478950977
34,0.311603069305,0.0153429508209,0.0192971229553,0.00172114372253,13.2195570469
35,0.31431388855,0.0148441791534,0.0194451808929,0.00202298164368,12.0645070076
36,0.317033052444,0.0152249336243,0.0191950798035,0.00172805786133,12.8973429203
37,0.325434923172,0.0155868530273,0.0197219848633,0.00173306465149,13.0144569874
38,0.319460868835,0.0147428512573,0.0191910266876,0.00169515609741,15.2074620724
39,0.314030170441,0.0152881145477,0.0196161270142,0.00176191329956,14.4155459404
40,0.311239242554,0.0150279998779,0.0185778141022,0.00225210189819,15.2013020515
41,0.308943986893,0.0147280693054,0.0189669132233,0.00171494483948,15.8232219219
42,0.306923866272,0.0149059295654,0.0185039043427,0.00230503082275,14.7305779457
43,1.0483341217,0.0151078701019,0.0198109149933,0.00178003311157,18.0990769863
44,0.312384843826,0.015594959259,0.0188870429993,0.00179386138916,16.1357750893
45,0.31231880188,0.0150380134583,0.0187790393829,0.0022668838501,15.9221339226
46,0.316040754318,0.0148680210114,0.0192799568176,0.00165104866028,16.6463620663
47,0.313512086868,0.0151851177216,0.0200901031494,0.00171113014221,15.9331049919
48,0.321287870407,0.0151700973511,0.0197179317474,0.00172090530396,16.6785109043
49,0.316378116608,0.0154249668121,0.0187349319458,0.00227808952332,19.6283290386
50,0.321318864822,0.0156190395355,0.0192520618439,0.00263404846191,19.1096310616
51,0.327018976212,0.015417098999,0.0200610160828,0.00170302391052,18.1783640385
52,0.313292741776,0.0148730278015,0.0186769962311,0.00170183181763,18.0015420914
53,0.320151090622,0.0152168273926,0.0187649726868,0.00167894363403,19.9931528568
54,0.318264961243,0.0149960517883,0.0194268226624,0.00178503990173,18.5804810524
55,0.311249017715,0.0151691436768,0.0197250843048,0.001708984375,19.0690500736
56,0.321990728378,0.0161180496216,0.019896030426,0.00175404548645,20.2854540348
57,0.317045927048,0.0158429145813,0.0198600292206,0.0016918182373,20.9548840523
58,0.315163135529,0.0157260894775,0.0198490619659,0.00171089172363,21.3525829315
59,0.32274389267,0.0156989097595,0.019170999527,0.00172019004822,21.2920560837
60,0.318553924561,0.0164070129395,0.0187900066376,0.00173902511597,20.492607832
61,0.313698768616,0.0151569843292,0.0186190605164,0.00168609619141,23.8801589012
62,0.324514627457,0.0162680149078,0.0193660259247,0.00173807144165,22.9230749607
63,0.320547819138,0.0152969360352,0.0193159580231,0.00168895721436,23.3538429737
64,0.317798852921,0.0151169300079,0.0198841094971,0.00169110298157,25.2826640606
65,0.325855016708,0.0155341625214,0.0190970897675,0.00171208381653,24.9451301098
66,0.32887506485,0.0160851478577,0.0199790000916,0.00172805786133,23.2191929817
67,0.320034980774,0.0156559944153,0.0189478397369,0.00174307823181,24.8594760895
68,0.324560165405,0.0158789157867,0.0197801589966,0.00225210189819,25.4430170059
69,0.317522287369,0.0152659416199,0.0197169780731,0.00166392326355,27.4997370243
70,0.323856115341,0.0158319473267,0.0192887783051,0.00172400474548,24.5646848679
71,0.313880205154,0.0157299041748,0.0190100669861,0.00167798995972,27.1093738079
72,0.317267179489,0.015839099884,0.0199828147888,0.00171685218811,27.2944397926
73,0.327198028564,0.0162670612335,0.0200979709625,0.00173401832581,28.8521530628
74,0.322068929672,0.0153760910034,0.0194270610809,0.00222396850586,26.276045084
75,0.320680856705,0.0152070522308,0.0189001560211,0.00245094299316,27.6040680408
76,0.747773170471,0.0162031650543,0.0204100608826,0.00190901756287,27.5514280796
77,0.325600147247,0.0159718990326,0.0182509422302,0.00185489654541,29.2886829376
78,0.336223125458,0.0162439346313,0.0188550949097,0.00234413146973,28.4354259968
79,0.779145240784,0.0169839859009,0.0196740627289,0.00186109542847,29.4857389927
80,0.321067094803,0.0152099132538,0.0204610824585,0.00250601768494,27.1681509018
81,0.32569527626,0.0153210163116,0.0191779136658,0.00176382064819,27.7760930061
82,0.321470022202,0.0160160064697,0.0184328556061,0.00226187705994,31.3015780449
83,0.325809001923,0.0155999660492,0.0200529098511,0.0017352104187,31.8975400925
84,0.320719957352,0.0162599086761,0.0188319683075,0.00239014625549,31.0090909004
85,0.324090957642,0.0155558586121,0.0195989608765,0.00228905677795,33.0706880093
86,0.32959318161,0.0164520740509,0.0198619365692,0.00171494483948,30.4567329884
87,0.325402975082,0.0151228904724,0.0183548927307,0.00226593017578,32.2327408791
88,0.32172369957,0.0157780647278,0.0188190937042,0.00174808502197,32.6370449066
89,0.31870508194,0.0157489776611,0.0183570384979,0.00173377990723,33.5672121048
90,0.315212011337,0.0156900882721,0.018856048584,0.00228214263916,32.0732860565
91,0.321218013763,0.0157399177551,0.0194110870361,0.00180602073669,32.3575069904
92,0.309740304947,0.0158619880676,0.0192520618439,0.00229716300964,32.5628550053
93,0.313835859299,0.01535987854,0.0189328193665,0.00227499008179,32.9170439243
94,0.324956178665,0.0163669586182,0.0185518264771,0.00235795974731,32.6505429745
95,0.331364154816,0.0157301425934,0.0188109874725,0.00239682197571,36.0089218616
96,0.318336963654,0.0155169963837,0.0187652111053,0.00227904319763,34.6855199337
97,0.316684961319,0.0157151222229,0.0196490287781,0.0022759437561,32.6310040951
98,0.31064915657,0.0152130126953,0.0196290016174,0.00170493125916,35.6319360733
99,0.310513019562,0.0154008865356,0.0195288658142,0.00229501724243,32.9466118813
