step,run,get,set,free,run_up_to_step
0,0.127888202667,0.00246095657349,0.00232100486755,0.000332117080688,0.132057905197
1,0.136861801147,0.00221300125122,0.00236511230469,0.000365972518921,0.830055952072
2,0.15106010437,0.00220990180969,0.00231313705444,0.000406980514526,0.467315912247
3,0.130061864853,0.00216293334961,0.00226306915283,0.000388860702515,0.509850978851
4,0.130583047867,0.00220584869385,0.00242805480957,0.000458002090454,0.667215824127
5,0.430104017258,0.0022120475769,0.00232982635498,0.000433921813965,0.77325296402
6,0.12766289711,0.00228404998779,0.00228691101074,0.000411033630371,0.892092943192
7,0.132848024368,0.00229811668396,0.00232601165771,0.000476121902466,1.03125500679
8,0.145430088043,0.00234007835388,0.00261807441711,0.000491857528687,1.31444406509
9,0.133704185486,0.00223422050476,0.00228500366211,0.000463008880615,1.30980610847
10,0.140815973282,0.00244092941284,0.00243306159973,0.000546932220459,1.46670484543
11,0.133224010468,0.00221180915833,0.00234818458557,0.000515937805176,1.67676305771
12,0.128381967545,0.00223088264465,0.00239491462708,0.000529050827026,2.01859092712
13,0.154923915863,0.00237083435059,0.00243496894836,0.000561952590942,2.09020495415
14,0.127953052521,0.00224709510803,0.00312304496765,0.000792980194092,1.94250297546
15,0.137706041336,0.00254201889038,0.00264883041382,0.000740051269531,3.80947494507
16,0.17978811264,0.00252389907837,0.00240588188171,0.000565052032471,2.41287112236
17,0.136005878448,0.00217294692993,0.00247097015381,0.000519990921021,2.9002931118
18,0.132907867432,0.00224900245667,0.00236678123474,0.000574827194214,2.4650349617
19,0.139935970306,0.00228309631348,0.00241684913635,0.000580072402954,2.59737896919
20,0.129249095917,0.0023729801178,0.00234913825989,0.000517129898071,2.75627398491
21,0.144275188446,0.00253105163574,0.0023889541626,0.000539064407349,2.96880507469
22,0.144104003906,0.00246596336365,0.00229907035828,0.000519037246704,3.54990291595
23,0.128343820572,0.00222992897034,0.00236392021179,0.000547885894775,3.49315309525
24,0.151714801788,0.00240516662598,0.00229382514954,0.000533103942871,3.47012281418
25,0.139179944992,0.00236415863037,0.00239896774292,0.000545024871826,3.70421004295
26,0.126569986343,0.00218105316162,0.00228381156921,0.000516176223755,4.33313703537
27,0.141359806061,0.00245308876038,0.00255918502808,0.000537157058716,4.54582500458
28,0.129236936569,0.00221681594849,0.0225701332092,0.000540971755981,4.15967202187
29,0.145482063293,0.00226593017578,0.00233292579651,0.000549077987671,4.57429504395
30,0.128952026367,0.00230288505554,0.0023090839386,0.000543117523193,3.99136590958
31,0.130885839462,0.00218892097473,0.00229096412659,0.000529050827026,4.75867700577
32,0.15588593483,0.00230002403259,0.00245094299316,0.000536918640137,4.2720079422
33,0.152297019958,0.00234699249268,0.00230312347412,0.000520944595337,4.77185487747
34,0.138329029083,0.0022120475769,0.00235414505005,0.000554084777832,5.27961397171
35,0.127089977264,0.00224614143372,0.00237894058228,0.000586032867432,5.6368329525
36,0.138183116913,0.00231003761292,0.002366065979,0.000542879104614,4.80221700668
37,0.144534826279,0.00235414505005,0.00236201286316,0.000555992126465,5.15938282013
38,0.129009008408,0.0022759437561,0.00252914428711,0.000627994537354,5.48134899139
39,0.142162084579,0.00233197212219,0.002366065979,0.000532150268555,5.73015284538
40,0.131551027298,0.00227880477905,0.00238108634949,0.000535011291504,5.7144510746
41,0.134709835052,0.00232481956482,0.00237202644348,0.000566959381104,5.97116088867
42,0.128774881363,0.00211906433105,0.00238490104675,0.000545024871826,6.95460605621
43,0.127206087112,0.00213718414307,0.00237488746643,0.000519990921021,5.97658014297
44,0.127444982529,0.00222301483154,0.00232195854187,0.000524044036865,6.32638597488
45,0.127529859543,0.0022280216217,0.00229692459106,0.000554800033569,6.76236891747
46,0.143596172333,0.00218987464905,0.0023729801178,0.000519990921021,6.88110899925
47,0.127013206482,0.00235104560852,0.00233292579651,0.000524044036865,6.29941797256
48,0.154474973679,0.00216197967529,0.00232005119324,0.000519990921021,7.03776097298
49,0.138226032257,0.00225400924683,0.0023500919342,0.000549077987671,7.84685897827
50,0.139130115509,0.00224900245667,0.0022931098938,0.000524997711182,7.21425390244
51,0.131728172302,0.0021960735321,0.0023820400238,0.000517845153809,7.14952397346
52,0.127326250076,0.00222396850586,0.00233483314514,0.000523805618286,7.74600291252
53,0.129830121994,0.00226211547852,0.00227999687195,0.000534057617188,7.95514297485
54,0.143355846405,0.00247311592102,0.00231790542603,0.000543832778931,7.51008915901
55,0.130534887314,0.00219798088074,0.00235486030579,0.00052809715271,8.07647895813
56,0.155081987381,0.00239205360413,0.00236392021179,0.000532150268555,8.25112700462
57,0.126824140549,0.00222897529602,0.00245594978333,0.000623941421509,8.00216293335
58,0.133394002914,0.00219702720642,0.00238394737244,0.000538110733032,8.25153398514
59,0.13535785675,0.002277135849,0.00248908996582,0.000579118728638,9.09058594704
60,0.128483057022,0.00220394134521,0.00238084793091,0.000575065612793,8.43854093552
61,0.128352165222,0.00228404998779,0.00243091583252,0.000520944595337,8.90573000908
62,0.127264976501,0.00216197967529,0.00235319137573,0.000533819198608,8.78000307083
63,0.142301082611,0.00228881835938,0.00264310836792,0.000683069229126,9.37198400497
64,0.148366928101,0.0023238658905,0.00243711471558,0.000556945800781,9.65036702156
65,0.147506952286,0.00229907035828,0.00237202644348,0.000576019287109,9.29345488548
66,0.12854385376,0.00241804122925,0.00240993499756,0.00054407119751,9.04622912407
67,0.135185003281,0.00226402282715,0.00233197212219,0.000555038452148,9.73008203506
68,0.128269910812,0.00215888023376,0.00231194496155,0.000517129898071,10.8345329762
69,0.129651069641,0.0022280216217,0.00238990783691,0.000532865524292,9.94374918938
70,0.131507158279,0.00242519378662,0.00231599807739,0.000590085983276,10.1801631451
71,0.12811088562,0.00226712226868,0.00257992744446,0.000597953796387,10.4881110191
72,0.132030248642,0.00224709510803,0.00240707397461,0.000682830810547,10.3700969219
73,0.128458023071,0.00220489501953,0.00232481956482,0.000517845153809,10.8561520576
74,0.127755880356,0.00231695175171,0.00234699249268,0.000519037246704,10.3267259598
75,0.126874923706,0.00213718414307,0.00237894058228,0.000577926635742,12.2886118889
76,0.149880886078,0.00240802764893,0.0024139881134,0.000566959381104,10.6668279171
77,0.138038873672,0.00216579437256,0.00232815742493,0.000531196594238,10.5821619034
78,0.129771947861,0.0023090839386,0.00231409072876,0.000541925430298,10.9981708527
79,0.143839120865,0.00223398208618,0.00238990783691,0.000541925430298,11.3875098228
80,0.135811090469,0.00227522850037,0.00258612632751,0.00062108039856,11.3313241005
81,0.128494977951,0.00236487388611,0.0024049282074,0.000557899475098,10.9808762074
82,0.140555143356,0.00262904167175,0.00232291221619,0.000540971755981,11.3630239964
83,0.131824016571,0.00222492218018,0.00239086151123,0.000553131103516,10.8012280464
84,0.129010915756,0.00220489501953,0.00241804122925,0.000536203384399,11.6201369762
85,0.128340005875,0.00243210792542,0.00272798538208,0.000665903091431,12.1725170612
86,0.128021001816,0.00228095054626,0.002436876297,0.000530958175659,13.0412700176
87,0.131524085999,0.00218987464905,0.00234389305115,0.00062084197998,11.9793851376
88,0.127860069275,0.00219202041626,0.00239896774292,0.00063419342041,12.5711500645
89,0.681892871857,0.00236392021179,0.00232005119324,0.000637054443359,12.2603998184
90,0.135987043381,0.00230097770691,0.00236105918884,0.000559091567993,12.6630930901
91,0.12880897522,0.00231504440308,0.00232696533203,0.000529050827026,12.5755290985
92,0.215838909149,0.00252795219421,0.00233101844788,0.00055193901062,12.8996348381
93,0.128443002701,0.00229692459106,0.00230097770691,0.000568866729736,13.1093740463
94,0.128675937653,0.00240612030029,0.00238490104675,0.000569820404053,13.4158689976
95,0.146543979645,0.00238800048828,0.00235104560852,0.000540018081665,13.1793329716
96,0.131543874741,0.00233197212219,0.00236010551453,0.000547170639038,14.3266019821
97,0.130163908005,0.00228404998779,0.00224900245667,0.000519037246704,14.0253219604
98,0.14683508873,0.0022828578949,0.0023250579834,0.000561952590942,14.463351965
99,0.130941152573,0.00232195854187,0.0022759437561,0.000523805618286,14.0338759422
