step,run,get,set,free,run_up_to_step
0,0.205914974213,0.0142779350281,0.0130369663239,0.00281310081482,0.203315973282
1,0.213936328888,0.0136730670929,0.0146591663361,0.00329208374023,0.408489942551
2,0.210436820984,0.0130338668823,0.0136570930481,0.00289678573608,0.611202001572
3,0.204357147217,0.0136060714722,0.0133819580078,0.00314402580261,1.36281991005
4,0.207981109619,0.0126731395721,0.0134019851685,0.00354313850403,1.04834008217
5,0.197408914566,0.012815952301,0.0148119926453,0.00297689437866,1.24962306023
6,0.204061985016,0.0141201019287,0.0139348506927,0.00338292121887,1.45061397552
7,0.20592713356,0.0135459899902,0.0133819580078,0.00290584564209,1.63858008385
8,0.207698106766,0.0157120227814,0.0124249458313,0.0032069683075,1.84375309944
9,0.220373153687,0.0143098831177,0.0125210285187,0.00330185890198,2.07415699959
10,0.201899051666,0.0147609710693,0.0139441490173,0.00347805023193,2.25152206421
11,0.208539247513,0.0144970417023,0.0296220779419,0.00319314002991,2.46820402145
12,0.21443605423,0.0142049789429,0.0134899616241,0.00386595726013,2.7857260704
13,0.21382689476,0.0139129161835,0.0124380588531,0.00328493118286,2.93525409698
14,0.226910829544,0.0143220424652,0.0139198303223,0.00296187400818,3.68182516098
15,0.215553998947,0.0118899345398,0.0135600566864,0.00301098823547,3.87775206566
16,0.201117038727,0.0133049488068,0.0135250091553,0.00320816040039,3.57732391357
17,0.209455728531,0.0139269828796,0.0128078460693,0.00290107727051,3.71326494217
18,0.196135997772,0.0116641521454,0.0137150287628,0.0030620098114,3.77897191048
19,0.206926107407,0.0125229358673,0.0125801563263,0.0031909942627,4.04111289978
20,0.196493148804,0.0136978626251,0.0142729282379,0.00312089920044,4.29087090492
21,0.200500011444,0.0127701759338,0.0133728981018,0.00291395187378,4.98304009438
22,0.226218938828,0.0126988887787,0.0361490249634,0.00284600257874,5.07476401329
23,0.225316047668,0.0133249759674,0.0130491256714,0.0031909942627,5.55320596695
24,0.635303020477,0.0131890773773,0.013769865036,0.0029981136322,5.28592586517
25,0.202752828598,0.012284040451,0.0142800807953,0.00340914726257,5.89389896393
26,0.197608232498,0.0136771202087,0.0135979652405,0.00325298309326,6.04202198982
27,0.209511041641,0.0133938789368,0.0130281448364,0.00294208526611,6.23175001144
28,0.201460838318,0.0132160186768,0.0134699344635,0.00376796722412,6.28784012794
29,0.221644878387,0.0131750106812,0.0142028331757,0.00305604934692,6.65427088737
30,0.212749004364,0.0124771595001,0.0130739212036,0.00300407409668,6.97463297844
31,0.197990179062,0.0130770206451,0.0146780014038,0.0218760967255,7.20819497108
32,0.211775064468,0.0153830051422,0.0152690410614,0.00379085540771,6.92694592476
33,0.214573860168,0.0135519504547,0.0125880241394,0.00277805328369,7.24348592758
34,0.203248023987,0.0127329826355,0.0125329494476,0.00289297103882,7.78483295441
35,0.213767051697,0.0128300189972,0.012326002121,0.00271797180176,7.98524093628
36,0.201760292053,0.013210773468,0.0131301879883,0.00371098518372,7.79283499718
37,0.224251270294,0.0127379894257,0.0148901939392,0.00308680534363,8.79944896698
38,0.217176198959,0.0141370296478,0.0122981071472,0.00275897979736,8.37008500099
39,0.199126005173,0.012815952301,0.0134968757629,0.00301694869995,8.72644209862
40,0.198175907135,0.0132188796997,0.0124199390411,0.00278210639954,8.95057010651
41,0.20259308815,0.0126869678497,0.0127651691437,0.00294208526611,9.31614685059
42,0.197016000748,0.0136411190033,0.0335519313812,0.00294017791748,9.64398503304
43,0.203984022141,0.0140399932861,0.0140068531036,0.00323796272278,9.61135101318
44,0.199846982956,0.0137541294098,0.0135910511017,0.00302410125732,9.91164398193
45,0.196161031723,0.0130009651184,0.0129978656769,0.00291705131531,11.2563149929
46,0.212541103363,0.0134041309357,0.014142036438,0.00320196151733,10.1858770847
47,0.199594020844,0.0129351615906,0.0124049186707,0.00363302230835,11.3572380543
48,0.225307941437,0.013571023941,0.0140578746796,0.00321912765503,10.5904707909
49,0.202806949615,0.0130269527435,0.0137450695038,0.0031111240387,10.930382967
50,0.199208974838,0.0125350952148,0.0138020515442,0.00289702415466,11.4018511772
51,0.200463056564,0.0133121013641,0.0296010971069,0.00274705886841,11.3446369171
52,0.195811271667,0.0139770507812,0.012326002121,0.00320911407471,11.0031511784
53,0.231637954712,0.0132591724396,0.014830827713,0.00329208374023,11.7559640408
54,0.220420122147,0.0136320590973,0.0127639770508,0.00306391716003,12.294875145
55,0.195945739746,0.0124459266663,0.0132710933685,0.00283813476562,11.9907238483
56,0.214792728424,0.0120930671692,0.0126869678497,0.00323700904846,12.5458891392
57,0.208346843719,0.0121169090271,0.0130321979523,0.00289392471313,12.4014799595
58,0.200843095779,0.0125889778137,0.0141639709473,0.00290179252625,15.8029329777
59,0.20786690712,0.0125110149384,0.01265001297,0.00313997268677,13.0774059296
60,0.191487789154,0.0134530067444,0.0128989219666,0.00278401374817,12.9117109776
61,0.22728395462,0.0131030082703,0.0138671398163,0.00401592254639,13.5677859783
62,0.239540100098,0.0135700702667,0.0123841762543,0.00296306610107,14.0014679432
63,0.201772928238,0.0122539997101,0.0127840042114,0.0028247833252,13.9852051735
64,0.222436189651,0.0122709274292,0.0123171806335,0.00302004814148,14.4639360905
65,0.197956085205,0.0120921134949,0.0128691196442,0.00282621383667,13.7704780102
66,0.191988945007,0.0143921375275,0.0144679546356,0.00315380096436,14.0483629704
67,0.193800210953,0.011971950531,0.0136930942535,0.00299787521362,15.0716679096
68,0.644075870514,0.0133988857269,0.013060092926,0.00289702415466,14.415006876
69,0.266933917999,0.0142180919647,0.0124640464783,0.00296092033386,14.8191399574
70,0.198942184448,0.01349401474,0.0143580436707,0.00344300270081,15.0119519234
71,0.20015501976,0.0122590065002,0.0123200416565,0.00340390205383,16.5124950409
72,0.197424173355,0.0132329463959,0.0323920249939,0.00275301933289,15.2685408592
73,0.223365783691,0.013120174408,0.013524055481,0.00283193588257,15.3285169601
74,0.226195812225,0.0130040645599,0.0123019218445,0.00274181365967,15.912925005
75,0.204890966415,0.0135860443115,0.0139508247375,0.00290203094482,16.9161388874
76,0.198513746262,0.0128481388092,0.015515089035,0.00347590446472,17.3602259159
77,0.197720050812,0.0126399993896,0.0145039558411,0.00306606292725,17.2171740532
78,0.2034740448,0.0127940177917,0.0133190155029,0.00293016433716,17.1624360085
79,0.204065084457,0.0124320983887,0.0137319564819,0.00288915634155,17.4817049503
80,0.200693130493,0.013130903244,0.0130131244659,0.00280213356018,18.1869990826
81,0.196792840958,0.0123600959778,0.0139870643616,0.0029628276825,17.5027070045
82,0.199905157089,0.0129401683807,0.0138781070709,0.00343084335327,17.9456999302
83,0.226077079773,0.0132029056549,0.0133152008057,0.00349807739258,18.4883790016
84,0.211670160294,0.0132830142975,0.0157959461212,0.00334310531616,18.1659331322
85,0.215342998505,0.0123529434204,0.0138618946075,0.00371599197388,17.6809489727
86,0.202169895172,0.01376080513,0.0127491950989,0.00297904014587,18.4347679615
87,0.205871105194,0.0132429599762,0.0127000808716,0.00283098220825,18.7294290066
88,0.20484995842,0.0131649971008,0.0295329093933,0.00271892547607,19.4143769741
89,0.200376033783,0.012552022934,0.0127501487732,0.00357699394226,18.9791929722
90,0.201858997345,0.0132172107697,0.0130450725555,0.00299906730652,18.9868388176
91,0.800432682037,0.0135879516602,0.0132200717926,0.00300002098083,19.3771848679
92,0.201920747757,0.0134949684143,0.0121519565582,0.00332093238831,20.7234530449
93,0.201113939285,0.0132591724396,0.0138177871704,0.0040590763092,20.6776759624
94,0.200706958771,0.013396024704,0.0121469497681,0.00313782691956,21.3036239147
95,0.202644824982,0.0131440162659,0.0136778354645,0.00287199020386,22.2761359215
96,0.202281951904,0.0135650634766,0.0128180980682,0.00346684455872,20.4789299965
97,0.204606056213,0.0128130912781,0.0128309726715,0.00283908843994,20.587968111
98,0.201386928558,0.0134861469269,0.0167169570923,0.00416803359985,21.2435250282
99,0.206298828125,0.0128810405731,0.0134179592133,0.00306391716003,21.6804430485
