step,run,get,set,free,run_up_to_step
0,0.725765943527,0.0329618453979,0.0374891757965,0.00333714485168,0.712724208832
1,0.652139902115,0.0314819812775,0.0374879837036,0.00335502624512,1.34266591072
2,0.661700248718,0.0318329334259,0.0360758304596,0.00331902503967,1.99553608894
3,0.652318000793,0.030886888504,0.0365080833435,0.00332283973694,2.55434513092
4,0.656677961349,0.0312070846558,0.0380220413208,0.00420808792114,3.14899396896
5,0.654226303101,0.0314190387726,0.0372428894043,0.00341415405273,3.77329516411
6,0.646042823792,0.0315289497375,0.0373210906982,0.00345897674561,4.37010192871
7,0.658178091049,0.0307049751282,0.0362000465393,0.00329303741455,4.98311781883
8,0.640490055084,0.0303971767426,0.037257194519,0.00336503982544,6.17842912674
9,0.654415130615,0.0313498973846,0.0371570587158,0.00422596931458,6.17808699608
10,0.658355951309,0.0320520401001,0.0369791984558,0.00334906578064,6.88740801811
11,0.641140937805,0.0315899848938,0.0359709262848,0.00328397750854,7.57015800476
12,0.630519151688,0.0320229530334,0.0371160507202,0.00335001945496,7.98445415497
13,0.590552091599,0.0317151546478,0.0362770557404,0.00333905220032,8.49893498421
14,0.618581056595,0.0304410457611,0.0353980064392,0.00318098068237,9.04211711884
15,0.610862255096,0.0318238735199,0.0360999107361,0.00332999229431,9.5208799839
16,0.619798183441,0.0312080383301,0.0374448299408,0.00359201431274,10.3282067776
17,0.611463069916,0.0320160388947,0.0365290641785,0.00325322151184,10.9381520748
18,0.613816738129,0.0313348770142,0.0365569591522,0.00334286689758,11.4566869736
19,0.594763994217,0.0317690372467,0.0387511253357,0.00357699394226,12.7639369965
20,0.593546867371,0.0317862033844,0.0366160869598,0.00331807136536,12.6608638763
21,0.606429815292,0.0320129394531,0.036285161972,0.00337505340576,13.5644068718
22,0.606910943985,0.0318717956543,0.0373041629791,0.00330901145935,14.0380849838
23,0.604565858841,0.030818939209,0.0372710227966,0.00321817398071,14.8599410057
24,0.600591182709,0.0319919586182,0.0365660190582,0.00463199615479,15.3246369362
25,0.605709791183,0.0316500663757,0.0364110469818,0.00327086448669,16.2590801716
26,0.601270914078,0.0313849449158,0.0364630222321,0.00330495834351,17.5117530823
27,0.595628976822,0.0315730571747,0.0366580486298,0.00335788726807,17.5482580662
28,0.968168020248,0.0302121639252,0.0364229679108,0.00347685813904,17.9041919708
29,0.617024183273,0.0325040817261,0.0368139743805,0.00339221954346,18.1984579563
30,0.593038082123,0.0323870182037,0.0366110801697,0.00333690643311,19.3980140686
31,0.597770690918,0.0305240154266,0.0378789901733,0.00339388847351,19.9752938747
32,0.611335754395,0.0318341255188,0.0367820262909,0.00333404541016,20.5959029198
33,0.61206817627,0.0317499637604,0.0372021198273,0.00341010093689,21.2159609795
34,0.596867084503,0.0302109718323,0.0367858409882,0.00336003303528,22.7393298149
35,0.596263885498,0.0310499668121,0.0370280742645,0.00333905220032,22.1514680386
36,0.598454236984,0.0315220355988,0.037220954895,0.00335693359375,22.7704820633
37,0.599432945251,0.0303618907928,0.0366179943085,0.00335788726807,24.066890955
38,0.588672876358,0.0306439399719,0.0373480319977,0.00342607498169,24.2232861519
39,0.608285188675,0.0307469367981,0.0382452011108,0.00337409973145,26.1027069092
40,0.607336997986,0.0305969715118,0.0366590023041,0.00335907936096,26.2236588001
41,0.599019050598,0.0301280021667,0.0376489162445,0.00344300270081,25.3444569111
42,0.593225002289,0.0297870635986,0.0356252193451,0.00324392318726,26.6255540848
43,0.590705871582,0.0303010940552,0.0375669002533,0.0033860206604,27.8063941002
44,0.598818063736,0.0312111377716,0.0365421772003,0.00377702713013,28.1652579308
45,0.602802991867,0.0293779373169,0.0365989208221,0.00327706336975,27.7523179054
46,0.605876922607,0.0307171344757,0.0371589660645,0.00333690643311,29.2528879642
47,0.604157924652,0.0313901901245,0.0369989871979,0.00332808494568,29.9960110188
48,0.615770101547,0.0308270454407,0.0366628170013,0.00407099723816,30.6225159168
49,0.62119603157,0.0311839580536,0.0363161563873,0.00335311889648,30.457490921
50,0.607435703278,0.0310270786285,0.0373339653015,0.00337886810303,32.2896010876
51,0.618084907532,0.0315070152283,0.0363821983337,0.00327587127686,32.0266318321
52,0.910068273544,0.0315480232239,0.0365240573883,0.00349402427673,32.2892348766
53,0.607640981674,0.0303139686584,0.0358488559723,0.00338101387024,34.159070015
54,0.611493110657,0.0305800437927,0.0375080108643,0.00335097312927,32.9805448055
55,0.62185883522,0.0312190055847,0.0372030735016,0.00331997871399,34.4456400871
56,0.626977920532,0.0310418605804,0.0366899967194,0.00332593917847,35.1392300129
57,0.615249872208,0.0311298370361,0.0375571250916,0.00350689888,37.0975799561
58,0.640434980392,0.0311839580536,0.0375127792358,0.00338888168335,37.5014669895
59,0.633481025696,0.0308299064636,0.0375669002533,0.00334095954895,38.6446959972
60,0.651197910309,0.030485868454,0.0379660129547,0.00335693359375,37.7120490074
61,0.637675762177,0.0334718227386,0.0371429920197,0.00348496437073,38.1084148884
62,1.0278069973,0.0321669578552,0.0368831157684,0.00510001182556,38.3846080303
63,0.648322105408,0.0301899909973,0.0375139713287,0.00344300270081,41.9473900795
64,0.637840032578,0.0313169956207,0.0372631549835,0.00335597991943,40.8091990948
65,0.640072822571,0.0320329666138,0.0360929965973,0.00330901145935,40.084526062
66,0.649665117264,0.0310490131378,0.0373249053955,0.00340008735657,41.0605609417
67,0.650954961777,0.030800819397,0.0370788574219,0.00331997871399,43.1159501076
68,0.652819871902,0.0305678844452,0.0362598896027,0.00334191322327,42.6888790131
69,0.652233839035,0.0299761295319,0.0374450683594,0.00333905220032,42.8253068924
70,0.661361932755,0.0319290161133,0.0362668037415,0.00334596633911,45.0205869675
71,0.636579036713,0.0309500694275,0.0363280773163,0.00329804420471,45.3583290577
72,0.644500017166,0.030308008194,0.0408000946045,0.00333094596863,43.9816288948
73,0.644889831543,0.0309369564056,0.0367169380188,0.00336599349976,47.0520231724
74,0.599710941315,0.0306279659271,0.0373830795288,0.00332808494568,46.5883378983
75,0.673392057419,0.0310730934143,0.0368809700012,0.0033848285675,47.3472681046
76,0.658231973648,0.0315821170807,0.0370240211487,0.00327014923096,47.3124818802
77,0.647104024887,0.0314469337463,0.0363328456879,0.00330901145935,47.7320578098
78,0.637398958206,0.0304491519928,0.0371270179749,0.00329995155334,47.3981869221
79,1.10180878639,0.0324862003326,0.03671002388,0.00367498397827,48.4027218819
80,0.665171861649,0.0318028926849,0.0370259284973,0.00332903862,49.4920320511
81,0.642361879349,0.0313332080841,0.0365109443665,0.00349187850952,50.8318059444
82,0.650078058243,0.0302238464355,0.0362050533295,0.00337195396423,50.197863102
83,0.639332771301,0.0300738811493,0.0367798805237,0.00333690643311,52.2312219143
84,0.655982255936,0.0302128791809,0.0374729633331,0.00333404541016,51.9976639748
85,0.640693902969,0.0302710533142,0.0373439788818,0.00335311889648,52.2585630417
86,0.644781827927,0.0307738780975,0.0351860523224,0.00327491760254,53.8708119392
87,0.643761873245,0.0299980640411,0.0371057987213,0.00330400466919,53.6817810535
88,0.639923810959,0.0305140018463,0.0359749794006,0.00335097312927,53.8525869846
89,0.649683952332,0.034982919693,0.0378570556641,0.00333881378174,57.2510459423
90,0.644942045212,0.0308420658112,0.0370349884033,0.00497603416443,59.631196022
91,0.649746894836,0.0310509204865,0.0367789268494,0.00333905220032,56.3315048218
92,0.651811122894,0.0310881137848,0.038391828537,0.00342988967896,57.406195879
93,0.664863824844,0.0309991836548,0.0374209880829,0.00339102745056,58.1232960224
94,0.652026176453,0.0316071510315,0.0361099243164,0.00334882736206,58.0862989426
95,0.644825935364,0.0366911888123,0.0364189147949,0.00331902503967,61.7523519993
96,0.640580892563,0.0313730239868,0.037425994873,0.00325298309326,58.4919838905
97,0.643139123917,0.0300581455231,0.0361890792847,0.00325798988342,58.6414151192
98,0.656815052032,0.0300929546356,0.0359740257263,0.00331497192383,60.0462019444
99,0.634983062744,0.0304930210114,0.0368549823761,0.00333905220032,63.4811041355
