step,run,get,set,free,run_up_to_step
0,0.233169078827,0.00188994407654,0.00203394889832,0.000181198120117,0.234122991562
1,0.240693092346,0.00194692611694,0.00207710266113,0.000262975692749,0.474901914597
2,0.236354112625,0.00181198120117,0.00211000442505,0.000191926956177,0.709122896194
3,0.238585233688,0.00191712379456,0.00208401679993,0.000250101089478,0.938866138458
4,0.23478102684,0.00176906585693,0.00205588340759,0.000204086303711,1.16393399239
5,0.240557193756,0.00178694725037,0.00206589698792,0.000175952911377,1.41864299774
6,0.22501206398,0.00181412696838,0.00216221809387,0.000249147415161,1.67769598961
7,0.232919931412,0.00183987617493,0.00202918052673,0.000205993652344,1.91556811333
8,0.236463069916,0.00186610221863,0.00208592414856,0.000249862670898,2.14507389069
9,0.23991394043,0.00182199478149,0.00206112861633,0.000209093093872,2.36106681824
10,0.23660826683,0.00187397003174,0.00211000442505,0.000214099884033,2.57710695267
11,0.238859891891,0.00183296203613,0.00210905075073,0.000207901000977,2.80535984039
12,0.236171245575,0.00184988975525,0.00210881233215,0.000211000442505,3.07800388336
13,0.236151218414,0.00179982185364,0.00209498405457,0.000174045562744,3.27834415436
14,0.238831043243,0.00177788734436,0.00210976600647,0.000211000442505,3.51403713226
15,0.235754966736,0.00179815292358,0.00203204154968,0.000194072723389,3.98310208321
16,0.23135304451,0.00181484222412,0.00207901000977,0.000213146209717,4.04049992561
17,0.233108997345,0.00173711776733,0.00210094451904,0.000175952911377,4.51498103142
18,0.225916862488,0.00186085700989,0.0021059513092,0.000205993652344,4.70870804787
19,0.238572120667,0.00181818008423,0.00212693214417,0.000243902206421,4.69701194763
20,0.234068632126,0.00181698799133,0.00205683708191,0.000204086303711,4.926456213
21,0.236316919327,0.00182580947876,0.00210213661194,0.000234127044678,5.133934021
22,0.234936952591,0.00176405906677,0.00207996368408,0.000205993652344,5.89182209969
23,0.234968185425,0.00176000595093,0.00202703475952,0.000187158584595,5.97963619232
24,0.234910011292,0.00181698799133,0.00208210945129,0.00020694732666,5.90020799637
25,0.239958047867,0.00179409980774,0.00215196609497,0.000213146209717,6.29375290871
26,0.235915184021,0.00175285339355,0.00215601921082,0.000214099884033,6.66911792755
27,0.235408067703,0.00172209739685,0.00210905075073,0.000209093093872,6.87946105003
28,0.243025064468,0.00190591812134,0.0021071434021,0.000275850296021,6.79746007919
29,0.248462915421,0.0018208026886,0.00205683708191,0.000208139419556,7.08924007416
30,0.234675884247,0.00173997879028,0.00206589698792,0.000219106674194,7.65427184105
31,0.235645055771,0.00177597999573,0.00204610824585,0.000210046768188,7.43335914612
32,0.233468294144,0.00173211097717,0.00214505195618,0.000211000442505,8.29435300827
33,0.234569072723,0.00174713134766,0.00208806991577,0.000202894210815,7.94497895241
34,0.236186027527,0.00186014175415,0.00209403038025,0.000254154205322,8.22547888756
35,0.240211009979,0.00179815292358,0.00206089019775,0.000200986862183,8.99811291695
36,0.23810505867,0.00182485580444,0.0020899772644,0.000211000442505,8.9579308033
37,0.238090991974,0.00179696083069,0.00209498405457,0.00021505355835,8.93008995056
38,0.240623950958,0.00176882743835,0.00211501121521,0.000211954116821,9.48028802872
39,0.237560987473,0.00175404548645,0.00206685066223,0.000207901000977,9.76138091087
40,0.235710859299,0.00172781944275,0.00216388702393,0.000211000442505,9.89364004135
41,0.237298965454,0.00173187255859,0.00203680992126,0.000205993652344,10.2329640388
42,0.245624303818,0.00182199478149,0.00201892852783,0.000246047973633,10.148075819
43,0.241455078125,0.00182604789734,0.00208306312561,0.000218152999878,10.5232059956
44,0.242522001266,0.00176382064819,0.00207901000977,0.000211000442505,10.7248699665
45,0.237924098969,0.00180697441101,0.00205492973328,0.000211954116821,11.1914420128
46,0.240417003632,0.00184082984924,0.00206685066223,0.000180959701538,11.4298219681
47,0.239932060242,0.00180816650391,0.00203609466553,0.000219106674194,11.5762360096
48,0.235597848892,0.00177097320557,0.00205707550049,0.000213861465454,12.1593840122
49,0.235815048218,0.00167393684387,0.00203394889832,0.000213146209717,12.2413859367
50,0.508415222168,0.00196194648743,0.00214815139771,0.000327110290527,12.4345510006
51,0.235244035721,0.00188302993774,0.0020899772644,0.000211954116821,12.3285088539
52,0.233736991882,0.0017831325531,0.00211501121521,0.000235080718994,13.0156180859
53,0.240960836411,0.00180697441101,0.00210285186768,0.000211954116821,13.2948770523
54,0.233493804932,0.00177597999573,0.00216484069824,0.000236988067627,13.3752470016
55,0.240043878555,0.00185394287109,0.00205683708191,0.000220060348511,13.5490028858
56,0.232709884644,0.00193095207214,0.00205993652344,0.000234127044678,13.6047830582
57,0.239775180817,0.00176000595093,0.00215601921082,0.00019097328186,13.7164609432
58,0.239374160767,0.001788854599,0.00200390815735,0.000205039978027,14.2561118603
59,0.222756147385,0.00173306465149,0.00200986862183,0.000210046768188,14.4612419605
60,0.244576215744,0.00183606147766,0.00207495689392,0.00021505355835,14.6120400429
61,0.234278202057,0.0017249584198,0.00204682350159,0.000210046768188,14.7769241333
62,0.238273143768,0.00166606903076,0.00209712982178,0.000214099884033,14.975069046
63,0.238955020905,0.00181984901428,0.00209999084473,0.000213146209717,14.9536099434
64,0.235729217529,0.00176095962524,0.00198888778687,0.000231027603149,15.648925066
65,0.236488103867,0.00187206268311,0.00214982032776,0.000223875045776,16.0891880989
66,0.237810850143,0.00168418884277,0.00231313705444,0.00019907951355,15.9989249706
67,0.235515117645,0.00172209739685,0.00209188461304,0.000216960906982,16.0259790421
68,0.235383987427,0.00179505348206,0.00205707550049,0.000200033187866,16.7656269073
69,0.240053892136,0.00184297561646,0.00206208229065,0.000209093093872,17.3447299004
70,0.239325046539,0.0018138885498,0.00213289260864,0.000204086303711,16.980836153
71,0.235528230667,0.001797914505,0.00206112861633,0.000205993652344,17.4357740879
72,0.244233846664,0.00171685218811,0.00202989578247,0.000200986862183,17.6661121845
73,0.23744893074,0.00169515609741,0.00211405754089,0.000203847885132,17.9910030365
74,0.236871004105,0.00176620483398,0.00204706192017,0.000200033187866,18.2849159241
75,0.23681807518,0.00179290771484,0.00202107429504,0.000215768814087,18.2697649002
76,0.237402200699,0.00176501274109,0.00201082229614,0.000205993652344,18.7965979576
77,0.235271215439,0.00172710418701,0.00205183029175,0.000204086303711,18.651417017
78,0.236363887787,0.00175404548645,0.00211620330811,0.000201940536499,19.1050889492
79,0.236918926239,0.00187802314758,0.00183606147766,0.000208854675293,18.9578490257
80,0.234302282333,0.00172710418701,0.00199794769287,0.000210046768188,19.7389559746
81,0.240730047226,0.00173497200012,0.00211501121521,0.000213146209717,19.7347331047
82,0.237912893295,0.00172185897827,0.00207304954529,0.000219821929932,19.8910169601
83,0.23375082016,0.0016450881958,0.00203204154968,0.00020694732666,20.1552760601
84,0.240890026093,0.00178599357605,0.00211596488953,0.000208854675293,20.4347660542
85,0.237540960312,0.0018048286438,0.00204205513,0.0002281665802,20.5214049816
86,0.23507475853,0.00183796882629,0.00204205513,0.000208854675293,20.9701189995
87,0.238512039185,0.00182199478149,0.00211906433105,0.0002121925354,21.141669035
88,0.246115922928,0.00181794166565,0.00207304954529,0.000228881835938,21.4443559647
89,0.237354040146,0.00178194046021,0.00209593772888,0.000211000442505,21.7518210411
90,0.237468004227,0.00178813934326,0.00210380554199,0.000262975692749,21.7712688446
91,0.238569021225,0.00178599357605,0.00204992294312,0.000211954116821,22.1153199673
92,0.242932081223,0.00184392929077,0.00204682350159,0.00019097328186,22.409154892
93,0.237820863724,0.00178623199463,0.00209903717041,0.000189065933228,22.5682370663
94,0.236896038055,0.0017569065094,0.0021378993988,0.000200986862183,22.9341111183
95,0.236563920975,0.00185108184814,0.00204086303711,0.000203132629395,23.0655140877
96,0.238509893417,0.0019850730896,0.00206089019775,0.000275135040283,23.4338450432
97,0.237107038498,0.0016930103302,0.00207209587097,0.000205039978027,23.1199908257
98,0.240792989731,0.00181007385254,0.00197291374207,0.000205993652344,23.7386548519
99,0.232842922211,0.00187301635742,0.00214815139771,0.000272035598755,23.983082056
