step,run,get,set,free,run_up_to_step
0,0.254827022552,0.00565695762634,0.00562500953674,0.000714063644409,0.246120929718
1,0.247593164444,0.00498604774475,0.00566101074219,0.000550985336304,0.508456945419
2,0.261063098907,0.00495505332947,0.00577092170715,0.000575065612793,0.770649909973
3,0.257157087326,0.00510597229004,0.00546908378601,0.000704050064087,1.00673103333
4,0.255726099014,0.00495910644531,0.00571084022522,0.000699043273926,1.28618097305
5,0.248088121414,0.005047082901,0.005695104599,0.000576019287109,1.55043888092
6,0.2531208992,0.00520396232605,0.00554609298706,0.000752925872803,1.78832793236
7,0.248411893845,0.00527000427246,0.00573682785034,0.00058388710022,1.99979901314
8,0.253992080688,0.00535202026367,0.00554585456848,0.000596046447754,2.24900817871
9,0.837646961212,0.00513887405396,0.00572299957275,0.000610113143921,2.47974491119
10,0.247857093811,0.00507116317749,0.00564908981323,0.000568866729736,2.74595499039
11,0.240264892578,0.00515103340149,0.00585985183716,0.000578880310059,3.00332307816
12,0.247601985931,0.00514602661133,0.00579881668091,0.000576019287109,3.24468994141
13,0.251801252365,0.00536298751831,0.00584888458252,0.000668048858643,3.4904589653
14,0.254880189896,0.00488090515137,0.00559306144714,0.000561952590942,3.75457596779
15,0.248509883881,0.00501608848572,0.00563597679138,0.00056791305542,4.54014706612
16,0.2574467659,0.00498104095459,0.0056209564209,0.000586032867432,4.24706602097
17,0.251022100449,0.00523209571838,0.00568413734436,0.00057315826416,4.54035305977
18,0.255084037781,0.00510501861572,0.0058650970459,0.000591993331909,5.05008196831
19,0.250434875488,0.00487303733826,0.00549793243408,0.000577926635742,5.4443230629
20,0.240952730179,0.0051600933075,0.00558400154114,0.000568866729736,5.22766804695
21,0.243633985519,0.0050950050354,0.00604510307312,0.000590801239014,5.501983881
22,0.25017285347,0.00496292114258,0.00555300712585,0.000595092773438,6.19826889038
23,0.250141143799,0.00510883331299,0.0056369304657,0.000575065612793,6.21585392952
24,0.249600172043,0.00519609451294,0.00578308105469,0.000577926635742,6.29506516457
25,0.250228881836,0.00524306297302,0.005784034729,0.000568866729736,6.54084992409
26,0.240144014359,0.00492310523987,0.00559997558594,0.000576019287109,6.89912390709
27,0.257835149765,0.00512290000916,0.00587201118469,0.000560998916626,7.00054788589
28,0.255781888962,0.00502014160156,0.00562691688538,0.000633955001831,7.24474096298
29,0.252392053604,0.0052490234375,0.00553417205811,0.000555038452148,7.5990459919
30,0.248116016388,0.00511789321899,0.00558590888977,0.000562906265259,8.30781888962
31,0.243529081345,0.00520706176758,0.00592112541199,0.000672101974487,8.22550296783
32,0.253810882568,0.00499200820923,0.00561499595642,0.000577926635742,8.81591820717
33,0.252539157867,0.00499200820923,0.00575280189514,0.000569105148315,8.9386100769
34,0.251760959625,0.00516295433044,0.00574088096619,0.000564098358154,9.15343403816
35,0.254930973053,0.00510191917419,0.00561594963074,0.000602960586548,9.42687606812
36,0.255839824677,0.00504899024963,0.00582003593445,0.000600099563599,9.69761300087
37,0.252380847931,0.00513291358948,0.00548696517944,0.000568866729736,10.1685860157
38,0.24939084053,0.00490283966064,0.00564384460449,0.000602960586548,10.3983678818
39,0.25097489357,0.00497698783875,0.00557708740234,0.000542879104614,10.5181620121
40,0.246670007706,0.00493597984314,0.0054669380188,0.000570058822632,10.6130440235
41,0.248162984848,0.00509214401245,0.00571894645691,0.000598907470703,10.7862539291
42,0.241086959839,0.0048189163208,0.00564384460449,0.000602006912231,10.8175880909
43,0.248692035675,0.00501084327698,0.00562810897827,0.000576019287109,11.2442791462
44,0.241019964218,0.00496292114258,0.00562000274658,0.000578165054321,11.5133779049
45,0.250470876694,0.00494289398193,0.00574898719788,0.000562906265259,11.7385978699
46,0.249502182007,0.00499200820923,0.0057430267334,0.000622034072876,11.9848191738
47,0.246992826462,0.0048520565033,0.00564789772034,0.000550031661987,12.3859210014
48,0.253207921982,0.00517988204956,0.00561690330505,0.000603914260864,12.4901559353
49,0.243452072144,0.00513911247253,0.00577902793884,0.000562906265259,12.771116972
50,0.251284837723,0.00510406494141,0.00555086135864,0.000581979751587,13.1107890606
51,0.239910840988,0.00506401062012,0.00539994239807,0.000543117523193,13.3899240494
52,0.24699306488,0.00497388839722,0.00575399398804,0.000594854354858,13.6369459629
53,0.240990161896,0.00496101379395,0.00582599639893,0.000576972961426,14.274520874
54,0.253248691559,0.00497817993164,0.00578904151917,0.000576972961426,14.1376140118
55,0.256060123444,0.00518298149109,0.00594997406006,0.000571012496948,14.3415751457
56,0.243520021439,0.0052969455719,0.00577688217163,0.000574111938477,14.4916980267
57,0.250466108322,0.00505495071411,0.00584697723389,0.000587940216064,14.9401741028
58,0.253440618515,0.00497198104858,0.0057168006897,0.000576972961426,15.4793241024
59,0.251418828964,0.00511598587036,0.00576996803284,0.000571012496948,15.437361002
60,0.25489616394,0.00506806373596,0.00583696365356,0.000614166259766,15.9351801872
61,0.246295213699,0.00504517555237,0.00581002235413,0.000568866729736,15.6926231384
62,0.254724025726,0.0048668384552,0.0055570602417,0.000657081604004,15.9909818172
63,0.24177479744,0.00492310523987,0.00568294525146,0.000561952590942,16.611082077
64,0.24245095253,0.00507497787476,0.00562119483948,0.000571966171265,16.699598074
65,0.254954099655,0.00498008728027,0.00590682029724,0.000570058822632,16.8414869308
66,0.608360052109,0.00523900985718,0.00574207305908,0.000676870346069,17.3241410255
67,0.247697114944,0.00487995147705,0.00552988052368,0.000561952590942,17.7059421539
68,0.25556397438,0.00511288642883,0.00566697120667,0.000566959381104,18.0038809776
69,0.247407913208,0.00501704216003,0.00558400154114,0.000724077224731,18.1816420555
70,0.254508018494,0.00504994392395,0.00575613975525,0.000598192214966,18.2575550079
71,0.256305217743,0.00496912002563,0.00584506988525,0.000533819198608,18.7599420547
72,0.253833055496,0.00500583648682,0.00556993484497,0.00056004524231,18.7323889732
73,0.258260965347,0.00497698783875,0.00578498840332,0.000568866729736,19.1155841351
74,0.250617027283,0.00520420074463,0.00568199157715,0.000558853149414,19.1406788826
75,0.247965097427,0.00500583648682,0.00576615333557,0.000608921051025,19.2586979866
76,0.24836397171,0.0049569606781,0.00561189651489,0.000554084777832,19.4304139614
77,0.244342803955,0.00501298904419,0.00568294525146,0.000585079193115,20.0666861534
78,0.253665208817,0.0049729347229,0.00569605827332,0.00056791305542,20.3658790588
79,0.25054192543,0.00498414039612,0.0056049823761,0.00056004524231,20.5998530388
80,0.243843078613,0.00495100021362,0.00612092018127,0.000581979751587,20.8240940571
81,0.253237009048,0.00504517555237,0.00572800636292,0.000564813613892,20.6615309715
82,0.24964427948,0.00513482093811,0.00554394721985,0.000560998916626,21.2206978798
83,0.2495470047,0.00524687767029,0.00578999519348,0.000559091567993,21.6588129997
84,0.243422985077,0.00481581687927,0.00558185577393,0.000565052032471,21.6720180511
85,0.251400947571,0.00506281852722,0.00557994842529,0.000601053237915,22.1442902088
86,0.250231742859,0.0047390460968,0.00553798675537,0.000570058822632,21.954556942
87,0.242959976196,0.00499200820923,0.00572419166565,0.000566005706787,22.1374909878
88,0.25089597702,0.00501394271851,0.00566720962524,0.000566959381104,22.5447430611
89,0.251891851425,0.00524306297302,0.00573587417603,0.000562906265259,22.8207099438
90,0.253174066544,0.00479912757874,0.00564193725586,0.000578165054321,22.9044020176
91,0.247803926468,0.00496816635132,0.00581288337708,0.000566959381104,23.7046780586
92,0.252899169922,0.00517201423645,0.0057418346405,0.000570058822632,23.5842969418
93,0.240262985229,0.0049889087677,0.00548410415649,0.000557899475098,23.8987629414
94,0.246293783188,0.00525093078613,0.00590705871582,0.000602006912231,23.2301058769
95,0.240197896957,0.00504112243652,0.0056779384613,0.000565052032471,24.3992578983
96,0.249383926392,0.00524401664734,0.00581097602844,0.00054407119751,24.5757939816
97,0.757065057755,0.00553011894226,0.00563502311707,0.000763177871704,24.3494489193
98,0.246798992157,0.00510907173157,0.00567698478699,0.00059700012207,24.7439908981
99,0.250509262085,0.00493502616882,0.0058171749115,0.000566959381104,25.4569399357
