step,run,get,set,free,run_up_to_step
0,0.151265144348,0.0032331943512,0.00310611724854,0.000535011291504,0.152596950531
1,0.158373117447,0.00300478935242,0.00318002700806,0.000518798828125,0.29993391037
2,0.145480155945,0.00287103652954,0.00316405296326,0.000594854354858,0.457451105118
3,0.146824836731,0.0029079914093,0.00330495834351,0.000715970993042,1.18698501587
4,0.140164136887,0.00295805931091,0.00334000587463,0.000916004180908,0.73831319809
5,0.137685060501,0.00277590751648,0.00325608253479,0.00075888633728,0.872776031494
6,0.143985271454,0.00282096862793,0.00315093994141,0.000830173492432,1.00487709045
7,0.151109933853,0.00306391716003,0.00312805175781,0.000710964202881,1.15615200996
8,0.140957832336,0.00305390357971,0.00325083732605,0.000752925872803,1.28090500832
9,0.151081085205,0.00297904014587,0.00299501419067,0.00073504447937,1.42427301407
10,0.141142129898,0.00289607048035,0.00340390205383,0.000769853591919,1.58579993248
11,0.145639896393,0.0029661655426,0.00325393676758,0.000784873962402,1.71648311615
12,0.144741773605,0.00312614440918,0.00304913520813,0.00068998336792,1.90250205994
13,0.139003992081,0.00293183326721,0.00318002700806,0.000749111175537,2.5800049305
14,0.136969089508,0.00294494628906,0.00311803817749,0.000713109970093,2.4931769371
15,0.153437137604,0.00315308570862,0.00304985046387,0.000705003738403,2.33866906166
16,0.138833045959,0.00305986404419,0.00319600105286,0.000756025314331,2.37827181816
17,0.148400068283,0.0030210018158,0.0032799243927,0.000745058059692,2.94367408752
18,0.139882326126,0.00295495986938,0.00332403182983,0.000826835632324,3.00915503502
19,0.141439199448,0.0028510093689,0.0031590461731,0.000756025314331,3.3336789608
20,0.142701148987,0.00303220748901,0.00318098068237,0.000697135925293,2.99521613121
21,0.15216588974,0.00323700904846,0.00313997268677,0.000740051269531,3.15890598297
22,0.137255907059,0.0029239654541,0.00309896469116,0.00086498260498,3.78370714188
23,0.154323816299,0.00301384925842,0.0032331943512,0.000723123550415,4.09359407425
24,0.155594348907,0.00322699546814,0.00320291519165,0.000761032104492,4.10528111458
25,0.163496017456,0.00310707092285,0.00316691398621,0.000760793685913,4.26121211052
26,0.149145126343,0.00310301780701,0.00304293632507,0.000816106796265,3.94342589378
27,0.145306110382,0.00320291519165,0.00302982330322,0.000690937042236,4.19533514977
28,0.155193090439,0.0033438205719,0.00335502624512,0.000850915908813,4.26251411438
29,0.145807266235,0.00318193435669,0.00334596633911,0.00088906288147,4.31622004509
30,0.143694877625,0.00315499305725,0.00328302383423,0.000830888748169,5.08968305588
31,0.143690109253,0.00292897224426,0.0032331943512,0.000761985778809,5.17597603798
32,0.141658782959,0.00308108329773,0.00326800346375,0.000700950622559,4.69480204582
33,0.145248889923,0.00337886810303,0.00317192077637,0.00080394744873,4.84802508354
34,0.154221057892,0.00288319587708,0.00302815437317,0.00071382522583,5.24968719482
35,0.13996386528,0.003005027771,0.00330781936646,0.000823974609375,5.59344911575
36,0.142462015152,0.0030460357666,0.0032639503479,0.000782012939453,5.56892800331
37,0.150098800659,0.00292897224426,0.00326704978943,0.00102519989014,6.09995794296
38,0.142239093781,0.00302982330322,0.0031578540802,0.00078296661377,5.84353303909
39,0.146306276321,0.00289106369019,0.00321292877197,0.000786066055298,6.45121502876
40,0.14728474617,0.00280213356018,0.00312113761902,0.000866174697876,6.84022498131
41,0.140091896057,0.00294899940491,0.00303101539612,0.000765085220337,6.6013610363
42,0.142353057861,0.00302314758301,0.00361585617065,0.00113296508789,6.51015901566
43,0.139964103699,0.00294089317322,0.00315499305725,0.000799179077148,6.48218917847
44,0.144886016846,0.00292897224426,0.00326204299927,0.000785112380981,7.05062103271
45,0.14655995369,0.0030300617218,0.00345802307129,0.000771999359131,7.23886108398
46,0.148334980011,0.00299310684204,0.00339603424072,0.000813961029053,7.75330114365
47,0.150687932968,0.00317001342773,0.00314998626709,0.000770092010498,7.34231686592
48,0.141840934753,0.00280785560608,0.00305485725403,0.000866889953613,7.75322914124
49,0.152069091797,0.00312399864197,0.0236620903015,0.000838041305542,7.76327085495
50,0.142257213593,0.00315618515015,0.00318789482117,0.000703096389771,8.0625231266
51,0.139683008194,0.00299191474915,0.00327014923096,0.000734090805054,8.11220407486
52,0.152158975601,0.00308704376221,0.00324392318726,0.000842809677124,8.29326105118
53,0.151404857635,0.00314712524414,0.0235300064087,0.000849962234497,8.0758600235
54,0.150198936462,0.00309491157532,0.00371885299683,0.000748157501221,8.87331104279
55,0.149173021317,0.00295996665955,0.00324988365173,0.000911951065063,9.07531499863
56,0.158145904541,0.00306296348572,0.00329685211182,0.00078296661377,9.28805613518
57,0.153652906418,0.00303506851196,0.00320196151733,0.000707149505615,9.6084549427
58,0.149260044098,0.0031259059906,0.0034601688385,0.000901937484741,9.44135403633
59,0.153073072433,0.00294494628906,0.0031590461731,0.000740051269531,9.657310009
60,0.150377035141,0.00298309326172,0.00343799591064,0.00088095664978,9.61444807053
61,0.148944139481,0.00320100784302,0.00314807891846,0.000726938247681,9.96299791336
62,0.139675140381,0.0029981136322,0.0230338573456,0.000748157501221,9.73539304733
63,0.148724079132,0.00286388397217,0.00324320793152,0.000859022140503,10.4012098312
64,0.155327796936,0.00302290916443,0.00303387641907,0.000699996948242,10.2293868065
65,0.138239145279,0.00282096862793,0.00335502624512,0.000815153121948,10.2314639091
66,0.140944957733,0.00308513641357,0.00313997268677,0.000710010528564,10.2813668251
67,0.148192882538,0.00291013717651,0.00315999984741,0.000739097595215,10.7994840145
68,0.154932022095,0.00313997268677,0.00310087203979,0.000786066055298,11.1363658905
69,0.156913995743,0.00307488441467,0.00328898429871,0.000735998153687,11.5383810997
70,0.16795706749,0.0032479763031,0.00341701507568,0.000745058059692,11.1236729622
71,0.147608995438,0.00300598144531,0.00343179702759,0.000933885574341,11.4346220493
72,0.15805888176,0.00302004814148,0.0223560333252,0.000750064849854,12.2479188442
73,0.143187046051,0.00308895111084,0.00307297706604,0.00084400177002,11.9172339439
74,0.146516084671,0.00318598747253,0.00319004058838,0.000740051269531,12.1978008747
75,0.156292200089,0.00297379493713,0.00356292724609,0.00112915039062,11.7786540985
76,0.15439081192,0.00346994400024,0.00319504737854,0.00072979927063,13.7336230278
77,0.160547018051,0.00323700904846,0.0240871906281,0.000770807266235,12.7883529663
78,0.155055999756,0.00311493873596,0.0226559638977,0.000746965408325,12.8547108173
79,0.155113935471,0.00314092636108,0.00319886207581,0.000702857971191,13.7896749973
80,0.151981115341,0.00301194190979,0.00307393074036,0.000710010528564,12.6372709274
81,0.154554128647,0.00320100784302,0.00325107574463,0.000807046890259,12.9623129368
82,0.147983074188,0.00300312042236,0.00321817398071,0.000754833221436,12.9821050167
83,0.681726932526,0.00352501869202,0.00308179855347,0.000739097595215,12.8358418941
84,0.143546104431,0.00299286842346,0.00334000587463,0.000752925872803,13.0657999516
85,0.156194210052,0.00293183326721,0.00306296348572,0.000768184661865,13.4479470253
86,0.139291286469,0.00298595428467,0.00298714637756,0.000714778900146,13.0521609783
87,0.145073652267,0.00294494628906,0.00332999229431,0.000839233398438,13.1788859367
88,0.138169765472,0.00290894508362,0.00311303138733,0.00075101852417,13.4428379536
89,0.139549732208,0.00289106369019,0.0030300617218,0.000703811645508,13.5991649628
90,0.140933036804,0.0029149055481,0.00336003303528,0.000814914703369,14.3168840408
91,0.138885974884,0.00279593467712,0.00302290916443,0.000720024108887,13.7142629623
92,0.141472101212,0.00294709205627,0.00311613082886,0.000746011734009,14.0695102215
93,0.15092587471,0.00300693511963,0.00313305854797,0.000797986984253,14.2724201679
94,0.917261123657,0.00367498397827,0.00394201278687,0.00106596946716,14.4358930588
95,0.14209485054,0.00298595428467,0.00319385528564,0.00071907043457,14.6910369396
96,0.179822921753,0.00296211242676,0.0030620098114,0.000694990158081,14.897300005
97,0.163980007172,0.00332903862,0.00309801101685,0.000723838806152,15.8511810303
98,0.145116090775,0.00285792350769,0.00340795516968,0.00075888633728,15.1801629066
99,0.180901050568,0.00327801704407,0.00319910049438,0.00071382522583,15.906938076
