step,run,get,set,free,run_up_to_step
0,0.55997300148,0.0412588119507,0.0432569980621,0.00872087478638,0.56078004837
1,0.571439027786,0.0384271144867,0.0410490036011,0.0081639289856,1.10235595703
2,1.10276412964,0.0374810695648,0.040500164032,0.00821399688721,1.5926258564
3,0.507210969925,0.0362870693207,0.0410761833191,0.00817894935608,2.07337403297
4,0.518168210983,0.0369899272919,0.040962934494,0.00869393348694,2.64834785461
5,0.522709608078,0.0366199016571,0.0409832000732,0.00820183753967,3.26683592796
6,0.517482042313,0.0373728275299,0.0453319549561,0.00911283493042,3.6291680336
7,0.543787240982,0.0373091697693,0.0413069725037,0.00823402404785,4.07570290565
8,0.524612903595,0.0363941192627,0.0412838459015,0.00814008712769,4.84814190865
9,0.527701854706,0.0374929904938,0.0414841175079,0.00840902328491,6.35157203674
10,0.543250083923,0.0368211269379,0.0423429012299,0.00880289077759,6.52465701103
11,0.499685049057,0.0366880893707,0.0414848327637,0.00830507278442,7.06245589256
12,0.557372093201,0.0414938926697,0.0446400642395,0.0102269649506,7.45395207405
13,0.496874094009,0.0375280380249,0.0420868396759,0.00836491584778,7.58522701263
14,0.514479875565,0.037101984024,0.0409078598022,0.00827693939209,8.38714289665
15,0.500155210495,0.039055109024,0.0418899059296,0.00823211669922,8.39188599586
16,0.527101993561,0.0378739833832,0.0410768985748,0.00911998748779,9.45157313347
17,0.517773628235,0.0376510620117,0.0409078598022,0.00832986831665,9.24300408363
18,0.519550800323,0.0375440120697,0.0413930416107,0.0102159976959,9.68033909798
19,0.549545049667,0.0383458137512,0.0489130020142,0.0098979473114,10.4317560196
20,0.502436876297,0.0381400585175,0.0433919429779,0.00890517234802,10.6510300636
21,0.512055158615,0.0360119342804,0.0405030250549,0.00814604759216,13.3613319397
22,0.510984897614,0.0376570224762,0.0413980484009,0.00828313827515,11.560708046
23,1.21589303017,0.0404889583588,0.0409898757935,0.00824117660522,12.1296849251
24,0.513431072235,0.0365841388702,0.0419991016388,0.0087890625,12.8676109314
25,0.542053699493,0.0372629165649,0.0408341884613,0.00814485549927,13.278293848
26,0.570195913315,0.037248134613,0.0416491031647,0.00818204879761,14.240309
27,0.537134885788,0.0372231006622,0.0411159992218,0.00810503959656,14.2861378193
28,0.519104957581,0.0411241054535,0.0482280254364,0.0103569030762,14.7489950657
29,0.531789779663,0.0380170345306,0.0411701202393,0.0098249912262,16.4232950211
30,0.501384019852,0.0374038219452,0.0413649082184,0.00821304321289,15.7561151981
31,1.16257405281,0.0371098518372,0.0449597835541,0.0103800296783,16.4088339806
32,0.537609100342,0.0391719341278,0.0416350364685,0.00993394851685,17.1527211666
33,0.511620998383,0.0380718708038,0.0426259040833,0.00818610191345,18.032859087
34,0.512605905533,0.0385911464691,0.042053937912,0.00816011428833,18.224394083
35,1.1761276722,0.0380189418793,0.0420830249786,0.00870108604431,18.7702128887
36,0.500522851944,0.0378980636597,0.0410130023956,0.00866889953613,19.5119841099
37,0.495834112167,0.0402760505676,0.0422971248627,0.00855302810669,20.5610148907
38,0.505849838257,0.0362279415131,0.0409338474274,0.00870704650879,20.105973959
39,0.536936044693,0.0366020202637,0.041200876236,0.00828504562378,21.2928929329
40,0.553702831268,0.037976026535,0.0422480106354,0.0085289478302,21.4099800587
41,0.56934094429,0.0403878688812,0.0399930477142,0.00819516181946,22.7935550213
42,0.510139942169,0.0352599620819,0.0434620380402,0.00859904289246,22.0438330173
43,0.79806804657,0.0373721122742,0.0419268608093,0.00912094116211,23.0015540123
44,0.509298086166,0.0356040000916,0.0414071083069,0.00864315032959,22.645097971
45,0.81881403923,0.0368320941925,0.0411739349365,0.00821399688721,24.700124979
46,0.824943065643,0.0359878540039,0.0406229496002,0.00830101966858,24.3401019573
47,0.512816905975,0.0350890159607,0.0395979881287,0.00815987586975,25.0658800602
48,0.496527194977,0.03542304039,0.0486969947815,0.0104598999023,25.0393488407
49,0.522714138031,0.0343880653381,0.0409460067749,0.00861001014709,26.1644170284
50,0.499916315079,0.0361428260803,0.0413761138916,0.011018037796,25.690625906
51,0.502084970474,0.035315990448,0.0396897792816,0.00820899009705,27.8750591278
52,0.551540136337,0.0418629646301,0.0405340194702,0.00809097290039,26.9104199409
53,0.500998735428,0.0350661277771,0.0405931472778,0.0100610256195,27.9326059818
54,0.517726182938,0.0347509384155,0.0404930114746,0.00852584838867,28.4283289909
55,0.522284984589,0.0374610424042,0.0397660732269,0.0270299911499,28.7746629715
56,0.518440008163,0.0352728366852,0.0401251316071,0.00814008712769,28.951198101
57,0.494612932205,0.0349011421204,0.040668964386,0.00855398178101,30.5260119438
58,0.49719786644,0.0369229316711,0.0413000583649,0.00825309753418,32.8086531162
59,0.518089056015,0.0367701053619,0.0415050983429,0.00835490226746,31.7974619865
60,0.527982711792,0.0354750156403,0.0409719944,0.00830292701721,31.757185936
61,0.52251625061,0.0368649959564,0.0413510799408,0.00813794136047,33.3965320587
62,0.497450828552,0.0351021289825,0.0420069694519,0.0088210105896,32.309513092
63,0.497534990311,0.0351481437683,0.0400359630585,0.00804209709167,33.0418691635
64,0.503271818161,0.0360670089722,0.0401148796082,0.00804996490479,33.1668658257
65,0.543843984604,0.0355820655823,0.0445818901062,0.00809001922607,33.3190901279
66,0.540016889572,0.0349750518799,0.0402319431305,0.00821089744568,35.0623750687
67,0.495541095734,0.0363709926605,0.0411219596863,0.00809717178345,36.3504600525
68,0.525529146194,0.0351901054382,0.0404810905457,0.00817513465881,35.9406809807
69,0.486311197281,0.0357489585876,0.043151140213,0.00857710838318,37.45657897
70,0.499500751495,0.0371448993683,0.0403928756714,0.0083429813385,36.5248060226
71,0.498731136322,0.0357739925385,0.0402739048004,0.00862407684326,38.4877550602
72,0.514564990997,0.0364921092987,0.0402009487152,0.00803589820862,38.6997079849
73,0.506990909576,0.0372569561005,0.0400769710541,0.00810790061951,37.886742115
74,0.499614953995,0.0343351364136,0.0416209697723,0.0105609893799,38.763256073
75,0.592924833298,0.0369350910187,0.0410070419312,0.00824999809265,38.722826004
76,0.495450019836,0.0366361141205,0.0401110649109,0.0080680847168,40.9147560596
77,0.501407146454,0.0357458591461,0.0408890247345,0.00862908363342,39.8392071724
78,0.639652967453,0.052551984787,0.0400679111481,0.00837111473083,40.5615968704
79,0.501034021378,0.0357139110565,0.0411520004272,0.00841593742371,42.6108269691
80,0.673717021942,0.0548939704895,0.0416219234467,0.00874614715576,43.0308198929
81,0.542960166931,0.0350880622864,0.0406701564789,0.00838494300842,43.8022229671
82,0.520569086075,0.036661863327,0.0412850379944,0.00840997695923,43.9800720215
83,0.519912719727,0.0353400707245,0.0413389205933,0.00950908660889,43.9783599377
84,0.491006135941,0.0364151000977,0.0399630069733,0.00806283950806,45.2279570103
85,0.491035938263,0.0345129966736,0.0413770675659,0.00851202011108,45.0727720261
86,0.530524969101,0.0358979701996,0.047073841095,0.0187118053436,44.620839119
87,0.517567157745,0.0378520488739,0.0415999889374,0.00878715515137,47.0025191307
88,0.507922887802,0.0360360145569,0.0412487983704,0.00804901123047,46.3429021835
89,0.527400016785,0.0362079143524,0.0411641597748,0.00832605361938,46.8869609833
90,0.513569116592,0.0372438430786,0.044319152832,0.00865817070007,46.9033060074
91,0.520248174667,0.0361440181732,0.0399279594421,0.00808882713318,48.8385179043
92,0.497532129288,0.0359480381012,0.0407049655914,0.00814700126648,48.2330470085
93,0.504351854324,0.03764295578,0.0403208732605,0.00824403762817,48.2127227783
94,0.510117053986,0.0375411510468,0.0403039455414,0.0081000328064,50.3299310207
95,0.609392881393,0.0581619739532,0.0409409999847,0.00806999206543,49.4275290966
96,0.504821062088,0.0362179279327,0.0401880741119,0.0080509185791,53.5606770515
97,0.488158226013,0.0363969802856,0.0394749641418,0.0112090110779,51.6626429558
98,0.533821821213,0.0361931324005,0.0542330741882,0.0111091136932,50.3295481205
99,0.504282951355,0.0362060070038,0.0399429798126,0.00906801223755,51.656635046
