step,run,get,set,free,run_up_to_step
0,0.539975166321,0.0352749824524,0.0375380516052,0.00762414932251,0.550348043442
1,0.500956058502,0.0311570167542,0.0347018241882,0.00726699829102,1.11815190315
2,0.485136032104,0.0372478961945,0.0346300601959,0.00732517242432,1.6284840107
3,0.488149166107,0.0311291217804,0.0346088409424,0.00771307945251,2.32749795914
4,0.514141798019,0.0318500995636,0.0346651077271,0.00778293609619,2.58983397484
5,0.483819007874,0.0316779613495,0.0357580184937,0.00756907463074,3.42924284935
6,0.487585783005,0.031464099884,0.0344471931458,0.00784993171692,3.86289381981
7,0.488099098206,0.0314719676971,0.0357630252838,0.00745987892151,5.35335803032
8,0.486967802048,0.0342829227448,0.0369420051575,0.00776815414429,4.79775500298
9,0.489447832108,0.0312938690186,0.0341699123383,0.00795984268188,5.18270301819
10,0.508531093597,0.0314130783081,0.0348701477051,0.00958895683289,5.86393499374
11,0.484647035599,0.0324831008911,0.0343108177185,0.00739002227783,7.32563519478
12,0.486346006393,0.0302829742432,0.034362077713,0.0079710483551,6.69832992554
13,0.48798084259,0.0331861972809,0.0344939231873,0.00751495361328,7.95610308647
14,0.51300406456,0.0321040153503,0.0347290039062,0.00777792930603,8.36094117165
15,0.485365867615,0.0322089195251,0.0347740650177,0.00802803039551,9.39347815514
16,0.489682197571,0.0339179039001,0.035845041275,0.0117840766907,8.60930490494
17,0.494002103806,0.0363631248474,0.034383058548,0.00734615325928,10.3087320328
18,0.502397060394,0.0297679901123,0.0339469909668,0.00790691375732,9.54907393456
19,0.488309144974,0.0332610607147,0.0340378284454,0.00771498680115,10.6650300026
20,0.491187810898,0.0333020687103,0.0346360206604,0.0075581073761,10.7872240543
21,0.488089084625,0.0314891338348,0.0341579914093,0.00762605667114,12.4440050125
22,0.487383127213,0.0333030223846,0.0359489917755,0.00792002677917,12.1775450706
23,0.50363111496,0.0318200588226,0.0351221561432,0.00757598876953,12.7794370651
24,0.495047807693,0.0320689678192,0.0348901748657,0.00835514068604,13.7862877846
25,0.487696886063,0.0297269821167,0.034539937973,0.00947284698486,14.0233530998
26,0.486776828766,0.033087015152,0.0359740257263,0.00800704956055,14.916795969
27,0.485625982285,0.0331411361694,0.0348892211914,0.00815391540527,16.6714410782
28,0.487387895584,0.0325260162354,0.0395860671997,0.00737714767456,16.116081953
29,0.506384134293,0.0330729484558,0.03466796875,0.00767207145691,14.7807359695
30,0.479693889618,0.0311839580536,0.0345458984375,0.00747108459473,16.7540280819
31,0.487783908844,0.0314280986786,0.0375311374664,0.00807213783264,16.3160629272
32,0.489217996597,0.0301721096039,0.0343339443207,0.00799894332886,17.5563671589
33,0.490759134293,0.0303599834442,0.0349819660187,0.0079128742218,18.2713708878
34,0.490455150604,0.0324418544769,0.034029006958,0.0073938369751,21.1628940105
35,0.483361005783,0.0301878452301,0.0342290401459,0.00770902633667,20.9208800793
36,0.504705905914,0.0329189300537,0.0341720581055,0.00766181945801,19.0451600552
37,0.497989177704,0.0318150520325,0.0362339019775,0.00750088691711,19.6250550747
38,0.491758823395,0.0355470180511,0.0343198776245,0.0088038444519,20.6050038338
39,0.505825996399,0.0304479598999,0.0341951847076,0.00748896598816,22.9616839886
40,0.491686820984,0.0312688350677,0.0355389118195,0.00776791572571,22.6598849297
41,0.487345933914,0.0329191684723,0.0339620113373,0.0100049972534,25.1853787899
42,0.481240987778,0.0307779312134,0.0351557731628,0.00756907463074,22.8958320618
43,0.481912851334,0.0298521518707,0.0368797779083,0.00759506225586,24.4636249542
44,0.492328882217,0.0326170921326,0.0345242023468,0.0074450969696,22.4586620331
45,0.486824989319,0.0307559967041,0.03431391716,0.00758504867554,24.9797589779
46,0.86793088913,0.032604932785,0.0342690944672,0.00784802436829,23.598585844
47,0.497584104538,0.0297300815582,0.0350940227509,0.00797605514526,27.0886399746
48,0.499915838242,0.0307471752167,0.0350089073181,0.00796508789062,29.3051691055
49,0.48689699173,0.0314600467682,0.0342659950256,0.00767803192139,27.2091128826
50,0.500482082367,0.030189037323,0.0344591140747,0.00764298439026,27.0326972008
51,0.497300863266,0.0307440757751,0.0351691246033,0.00776314735413,29.5138978958
52,0.492883205414,0.0307919979095,0.0342841148376,0.00785899162292,29.2581858635
53,0.495027780533,0.0301089286804,0.036691904068,0.0076220035553,31.568351984
54,0.483898162842,0.0305678844452,0.0346069335938,0.00819110870361,31.2043619156
55,0.498991966248,0.0305290222168,0.0360679626465,0.00777196884155,34.3939011097
56,0.502939939499,0.0318148136139,0.0344889163971,0.007483959198,30.2187809944
57,0.487145185471,0.031494140625,0.0359048843384,0.00771903991699,33.7282691002
58,0.483418226242,0.0301868915558,0.0363798141479,0.00788688659668,33.6504769325
59,0.481814861298,0.0303730964661,0.0351850986481,0.00786089897156,33.576488018
60,0.488800048828,0.0314259529114,0.0354628562927,0.00734806060791,31.2982349396
61,0.503032207489,0.0319128036499,0.0353240966797,0.00783896446228,35.7599930763
62,0.482306003571,0.0314958095551,0.0378658771515,0.00793600082397,33.5005269051
63,0.488826274872,0.0306549072266,0.0345280170441,0.00948286056519,32.0013568401
64,0.48290514946,0.0297639369965,0.0347428321838,0.00794696807861,39.6291239262
65,0.490273952484,0.0313220024109,0.0374569892883,0.00770616531372,40.9512779713
66,0.485871076584,0.030454158783,0.0354840755463,0.00811791419983,42.2538089752
67,0.507208824158,0.0313799381256,0.0354261398315,0.0077121257782,39.8399910927
68,0.487882852554,0.0311300754547,0.0352468490601,0.00764608383179,39.3977649212
69,0.483995199203,0.0332040786743,0.0366070270538,0.00789785385132,36.3943669796
70,0.501209020615,0.0305449962616,0.0345289707184,0.00762915611267,36.9083180428
71,0.488295793533,0.0314381122589,0.0355770587921,0.007483959198,40.733438015
72,0.484352111816,0.0320539474487,0.0343019962311,0.00774598121643,40.1913321018
73,0.50433588028,0.0305051803589,0.0343611240387,0.00756001472473,40.0830461979
74,0.493724822998,0.0311741828918,0.0363788604736,0.00824999809265,37.3853869438
75,0.483891963959,0.0328562259674,0.0346319675446,0.00776386260986,46.5695619583
76,0.489409208298,0.0300109386444,0.0367140769958,0.00788187980652,43.6253728867
77,0.492810249329,0.0311779975891,0.0351779460907,0.00721096992493,42.4329681396
78,0.506861925125,0.0320200920105,0.034912109375,0.00766897201538,44.673869133
79,0.485793352127,0.0319519042969,0.0349490642548,0.00733304023743,45.9105570316
80,0.490948200226,0.0314271450043,0.0355439186096,0.00768208503723,44.7066838741
81,0.489059925079,0.0326449871063,0.0353260040283,0.00786113739014,43.3219099045
82,0.484764099121,0.0316500663757,0.0341861248016,0.00756907463074,47.7135329247
83,0.487523078918,0.0325300693512,0.0359470844269,0.00756001472473,42.5344290733
84,0.491583824158,0.0331249237061,0.0346841812134,0.00767397880554,52.7891960144
85,0.489648103714,0.034777879715,0.0342769622803,0.00811195373535,46.8701570034
86,0.490139961243,0.0305650234222,0.0348780155182,0.00788378715515,50.8881318569
87,0.484923124313,0.0299518108368,0.0359170436859,0.00784516334534,44.2521390915
88,0.511088132858,0.0308549404144,0.0359969139099,0.00756096839905,50.4903841019
89,0.490245103836,0.0302209854126,0.0342800617218,0.00763916969299,52.7497661114
90,0.485718011856,0.0305840969086,0.0348980426788,0.00722503662109,55.0233869553
91,0.503834962845,0.031457901001,0.0369880199432,0.00782179832458,49.753911972
92,0.486752748489,0.0321609973907,0.038008928299,0.00789403915405,54.3581011295
93,0.490151882172,0.0315818786621,0.0345959663391,0.00752401351929,52.8588769436
94,0.484045982361,0.0305068492889,0.034243106842,0.00733995437622,55.4213960171
95,0.490472078323,0.0307450294495,0.0352079868317,0.00767588615417,52.6338539124
96,0.488565921783,0.0324840545654,0.0355319976807,0.00784015655518,55.6836178303
97,0.490761995316,0.0328929424286,0.0339739322662,0.00754189491272,54.9914081097
98,0.49728512764,0.0315041542053,0.0349080562592,0.0074360370636,53.4824259281
99,0.484802961349,0.0296249389648,0.0350229740143,0.0077531337738,56.7635860443
