step,run,get,set,free,run_up_to_step
0,0.31028008461,0.0238330364227,0.0244889259338,0.00493097305298,0.308625936508
1,0.261680841446,0.0215430259705,0.0274868011475,0.00564217567444,0.581480026245
2,0.262628793716,0.0232591629028,0.0237829685211,0.00497388839722,0.863314151764
3,0.26288485527,0.0217881202698,0.024111032486,0.00497317314148,1.12538099289
4,0.265241861343,0.0228190422058,0.0253448486328,0.00639915466309,1.4003059864
5,0.287628889084,0.0238299369812,0.0252418518066,0.00525307655334,1.65126514435
6,0.273832082748,0.023236989975,0.0246679782867,0.00499296188354,2.47854804993
7,0.265346050262,0.0226759910583,0.0256330966949,0.00524091720581,2.21313285828
8,0.273499011993,0.024756193161,0.0249850749969,0.00525403022766,2.53064322472
9,0.262774705887,0.022166967392,0.0243709087372,0.00538301467896,2.69925904274
10,0.269015073776,0.0232849121094,0.0437150001526,0.00502109527588,2.9952352047
11,0.285058021545,0.0244119167328,0.023561000824,0.004958152771,3.32189202309
12,0.262387037277,0.0228850841522,0.0239651203156,0.004958152771,3.5270588398
13,0.263952970505,0.0233609676361,0.0262620449066,0.00502991676331,4.39042115211
14,0.313886165619,0.0242438316345,0.025013923645,0.00496888160706,4.24654603004
15,0.268264055252,0.0231101512909,0.0252549648285,0.00600719451904,4.33074808121
16,0.2661049366,0.023108959198,0.0248658657074,0.005038022995,5.36147284508
17,0.39137506485,0.0282280445099,0.0263600349426,0.00684094429016,5.17144584656
18,0.270896911621,0.0227420330048,0.0250420570374,0.00498199462891,5.19085097313
19,0.271834135056,0.0240840911865,0.0251541137695,0.00499105453491,5.44078707695
20,0.263433933258,0.0223259925842,0.0235660076141,0.00493311882019,5.87062215805
21,0.273940086365,0.0247220993042,0.0243978500366,0.0049421787262,6.4870569706
22,0.273195981979,0.0254271030426,0.025899887085,0.00501799583435,6.30035400391
23,0.26303601265,0.0214281082153,0.0255999565125,0.00502800941467,7.32537198067
24,0.264766931534,0.0231080055237,0.0294110774994,0.00631093978882,6.79304504395
25,0.971522092819,0.0251371860504,0.0277349948883,0.00539898872375,7.46127915382
26,0.275233983994,0.0230870246887,0.0271909236908,0.00768089294434,8.32237386703
27,0.263406991959,0.0225191116333,0.0248260498047,0.00603294372559,8.10462403297
28,0.283059835434,0.0252110958099,0.02410197258,0.00496387481689,8.34386897087
29,0.280305147171,0.0242450237274,0.0258059501648,0.00501894950867,8.83879613876
30,0.305712938309,0.0260848999023,0.0241980552673,0.00502300262451,8.8348171711
31,0.268043994904,0.0221869945526,0.0251610279083,0.00495314598083,9.18319487572
32,0.268225193024,0.0227091312408,0.0254230499268,0.00547885894775,9.34826588631
33,0.270654916763,0.0220289230347,0.0240521430969,0.00507092475891,9.22587299347
34,0.264914751053,0.0220649242401,0.0245931148529,0.00588989257812,10.0124390125
35,0.303959131241,0.0247180461884,0.0254130363464,0.00533819198608,10.6392109394
36,0.844435930252,0.0222628116608,0.0242700576782,0.00514483451843,9.95160913467
37,0.264407873154,0.0210890769958,0.0249660015106,0.0049741268158,11.0042319298
38,0.274336099625,0.0220131874084,0.0249319076538,0.00591611862183,11.0042328835
39,0.362914085388,0.0255579948425,0.0243239402771,0.00494289398193,11.758056879
40,0.264413118362,0.0212860107422,0.0236918926239,0.00497198104858,11.3401019573
41,0.260866165161,0.0225059986115,0.0251188278198,0.00650215148926,11.7512600422
42,0.261672735214,0.0236070156097,0.023677110672,0.00493001937866,11.8153009415
43,0.269207000732,0.0242278575897,0.0242669582367,0.00540113449097,12.6854319572
44,0.268486976624,0.0215539932251,0.0251910686493,0.00540399551392,12.7250058651
45,0.265481233597,0.0213119983673,0.0235850811005,0.00572800636292,13.2105500698
46,0.266022920609,0.0212578773499,0.02450299263,0.00507092475891,13.1981458664
47,0.264889240265,0.0249869823456,0.0246160030365,0.00536298751831,13.347700119
48,0.265774726868,0.0247690677643,0.0262501239777,0.0056939125061,13.9099030495
49,0.26543211937,0.0247249603271,0.0245621204376,0.004958152771,13.7191588879
50,0.268592119217,0.0235641002655,0.0263268947601,0.00512290000916,14.4465210438
51,0.263165950775,0.0228188037872,0.0241320133209,0.00495791435242,14.6403012276
52,0.274926185608,0.0241279602051,0.024829864502,0.00497007369995,14.9551858902
53,0.262326955795,0.021577835083,0.0253591537476,0.00506401062012,15.6221570969
54,0.261350870132,0.0211811065674,0.0248601436615,0.00499606132507,16.1568520069
55,0.265251874924,0.0218150615692,0.030914068222,0.00807499885559,15.9309909344
56,0.274134874344,0.0210289955139,0.0250899791718,0.00494408607483,16.759139061
57,0.271639108658,0.02210688591,0.0249779224396,0.00528788566589,15.93445611
58,0.265582084656,0.0212829113007,0.0240039825439,0.00497889518738,16.4777259827
59,0.266523361206,0.0216100215912,0.02512383461,0.00500106811523,17.3799700737
60,0.265558958054,0.0218710899353,0.0239608287811,0.00495600700378,18.1459760666
61,0.263578891754,0.0223069190979,0.023864030838,0.00496697425842,18.9552090168
62,0.269476890564,0.0217521190643,0.0236802101135,0.00500512123108,17.5819320679
63,0.26682305336,0.0212581157684,0.0254440307617,0.00528717041016,19.1982150078
64,0.26303601265,0.022301197052,0.0240879058838,0.00492691993713,18.9151630402
65,0.27875995636,0.0227921009064,0.0248959064484,0.00503706932068,18.0068650246
66,0.714156866074,0.0222959518433,0.0243220329285,0.00497794151306,19.0723478794
67,0.698132038116,0.0229651927948,0.0243570804596,0.0050151348114,18.5640010834
68,0.267287969589,0.0218110084534,0.0246629714966,0.00496578216553,21.2150921822
69,0.308619976044,0.0229370594025,0.0246620178223,0.00519609451294,19.9480128288
70,0.325150966644,0.0255980491638,0.0246229171753,0.0050220489502,19.8262000084
71,0.265208005905,0.0219919681549,0.0244472026825,0.00523805618286,20.2708959579
72,0.269213914871,0.022068977356,0.0250928401947,0.00539898872375,20.5812571049
73,0.728133201599,0.0236370563507,0.0240910053253,0.00532698631287,21.6761250496
74,0.265089988708,0.022766828537,0.0251681804657,0.00514388084412,20.5961849689
75,0.273138046265,0.0224008560181,0.0256190299988,0.00512504577637,22.2924568653
76,0.264363050461,0.0218589305878,0.025102853775,0.00507497787476,22.5183689594
77,0.263111114502,0.0217020511627,0.025365114212,0.00544714927673,22.0719799995
78,0.26824593544,0.0224678516388,0.0252108573914,0.00523591041565,22.9199900627
79,0.268520355225,0.0216040611267,0.0263359546661,0.00506496429443,22.5741810799
80,0.263592004776,0.0215020179749,0.0245981216431,0.00500583648682,22.9687888622
81,0.265745162964,0.0213890075684,0.0257000923157,0.00535702705383,22.7387180328
82,0.266875982285,0.0214519500732,0.0248589515686,0.00502896308899,23.2757639885
83,0.270072937012,0.0221412181854,0.024050951004,0.00564694404602,24.0281190872
84,0.278970718384,0.0223388671875,0.0250630378723,0.0062620639801,23.5154378414
85,0.375904083252,0.021106004715,0.0253148078918,0.00570392608643,24.7113800049
86,0.265152931213,0.0240840911865,0.0253748893738,0.00512909889221,24.0587151051
87,0.264991044998,0.021831035614,0.04252409935,0.00502991676331,25.928155899
88,0.274927139282,0.0216021537781,0.0240869522095,0.00517106056213,24.8170228004
89,0.261979103088,0.0215721130371,0.0242731571198,0.00506114959717,27.1289980412
90,0.280235052109,0.0240390300751,0.0261209011078,0.00500798225403,25.4143679142
91,0.30757188797,0.0230720043182,0.0293560028076,0.00520014762878,25.8457159996
92,0.263751983643,0.023323059082,0.0257179737091,0.00530481338501,27.3588459492
93,0.263670921326,0.0222399234772,0.0243790149689,0.0055079460144,26.7691781521
94,0.268311023712,0.0225150585175,0.026153087616,0.00540804862976,27.6079990864
95,0.265112876892,0.0226809978485,0.0265769958496,0.00500798225403,27.6686220169
96,0.268467903137,0.0229289531708,0.0267388820648,0.00541400909424,27.5511889458
97,0.269539117813,0.0219359397888,0.0263350009918,0.00521492958069,32.9991381168
98,0.283300876617,0.02268409729,0.0246980190277,0.00530314445496,28.6033148766
99,0.262931108475,0.0233161449432,0.0250988006592,0.00530600547791,28.6769149303
