step,run,get,set,free,run_up_to_step
0,0.300680875778,0.00322604179382,0.00371813774109,0.000361204147339,0.301788806915
1,0.290504217148,0.0030779838562,0.00365090370178,0.000355958938599,0.594688177109
2,0.29362988472,0.00318002700806,0.00378799438477,0.000362873077393,0.871633052826
3,0.278621912003,0.00319910049438,0.00386714935303,0.000356912612915,1.5041949749
4,0.291005849838,0.00323605537415,0.00401902198792,0.000481843948364,1.46222496033
5,0.294090032578,0.00329113006592,0.00388503074646,0.000366926193237,1.74301791191
6,0.296159029007,0.00321102142334,0.00390696525574,0.000462055206299,2.04565811157
7,0.291531085968,0.00337100028992,0.00389003753662,0.000434875488281,2.36206912994
8,0.301575899124,0.00315594673157,0.00398516654968,0.000442028045654,2.61817193031
9,0.278319835663,0.00340914726257,0.00383400917053,0.000378847122192,2.8924369812
10,0.290514945984,0.00337386131287,0.00387096405029,0.000359058380127,3.2193210125
11,0.603544950485,0.00320386886597,0.00399112701416,0.000378131866455,3.44591593742
12,0.290597915649,0.00331997871399,0.00388383865356,0.000366926193237,3.7407040596
13,0.283674001694,0.00334906578064,0.0037829875946,0.000395059585571,4.04244995117
14,0.289489030838,0.00331091880798,0.00385403633118,0.000372171401978,4.31676602364
15,0.289937973022,0.00330114364624,0.00392198562622,0.000370979309082,5.30678391457
16,0.277956008911,0.00326609611511,0.00392508506775,0.000370979309082,5.37166213989
17,0.289178133011,0.00339102745056,0.00386595726013,0.000375986099243,5.23889303207
18,0.295080184937,0.00344014167786,0.00390291213989,0.00049614906311,5.48753786087
19,0.290702819824,0.00338292121887,0.00407409667969,0.00037693977356,5.81795096397
20,0.283073186874,0.00314497947693,0.00380206108093,0.000380039215088,6.30389094353
21,0.291745901108,0.00344491004944,0.00398898124695,0.000508785247803,6.31689786911
22,0.290794849396,0.0032970905304,0.003986120224,0.000375986099243,7.04096889496
23,0.300490856171,0.00354599952698,0.00396299362183,0.000456809997559,6.98759198189
24,0.294903039932,0.00319719314575,0.00402212142944,0.000379085540771,7.79511904716
25,0.28919506073,0.00324010848999,0.00383901596069,0.000365972518921,8.00372815132
26,0.293844223022,0.00331592559814,0.00393795967102,0.000396966934204,8.12943887711
27,0.290371179581,0.00335097312927,0.00392699241638,0.000365018844604,8.38260507584
28,0.289524078369,0.00349807739258,0.00391602516174,0.00054407119751,8.45803689957
29,0.294695854187,0.0032958984375,0.00394821166992,0.000476837158203,9.29332280159
30,0.294309854507,0.0032651424408,0.00384998321533,0.000381946563721,9.34390711784
31,0.292323827744,0.00327014923096,0.0039050579071,0.000386953353882,9.74539279938
32,0.28431391716,0.00318908691406,0.00378704071045,0.000379085540771,9.66562604904
33,0.28221821785,0.00324082374573,0.00394701957703,0.000391960144043,9.7195110321
34,0.7375831604,0.00328803062439,0.00385689735413,0.000375986099243,9.73814892769
35,0.290547132492,0.00332283973694,0.00379395484924,0.000497102737427,10.7228329182
36,0.291797399521,0.00319600105286,0.00391602516174,0.000389814376831,11.0111207962
37,0.288063049316,0.00329804420471,0.00393414497375,0.000403881072998,11.4339621067
38,0.294521808624,0.0032160282135,0.00379300117493,0.000387907028198,11.5380940437
39,0.290682077408,0.00334715843201,0.00395798683167,0.00042200088501,11.9133868217
40,0.283357143402,0.00337290763855,0.00392413139343,0.000385999679565,11.8961718082
41,0.283824920654,0.00346088409424,0.00395321846008,0.000463008880615,12.2296659946
42,0.298100948334,0.00342202186584,0.00408601760864,0.000446081161499,13.2888021469
43,0.284543991089,0.00323104858398,0.0039439201355,0.000406980514526,12.7210211754
44,0.29429101944,0.00328516960144,0.00411510467529,0.000558853149414,13.8193559647
45,0.296924829483,0.00332808494568,0.00410199165344,0.000408887863159,13.8336288929
46,0.300489902496,0.00337386131287,0.00397109985352,0.000410795211792,14.346143961
47,0.307193279266,0.00338101387024,0.00391483306885,0.000412940979004,14.5801749229
48,0.29985499382,0.00325512886047,0.00408101081848,0.000409841537476,14.9386649132
49,0.295949935913,0.00329208374023,0.0040180683136,0.000411033630371,15.0138480663
50,0.298305034637,0.00325489044189,0.00394296646118,0.000408172607422,15.7325801849
51,0.292223215103,0.00327682495117,0.00413107872009,0.000411033630371,15.7037420273
52,0.295193195343,0.00340700149536,0.00410008430481,0.000391006469727,15.9572329521
53,0.300040245056,0.00325894355774,0.00398993492126,0.000396013259888,16.3875799179
54,0.291943073273,0.0033860206604,0.00398707389832,0.00040602684021,16.4832379818
55,0.292409896851,0.00324296951294,0.00409507751465,0.000410079956055,16.7784428596
56,0.29169178009,0.00339102745056,0.00400495529175,0.000515937805176,17.2006168365
57,0.304162979126,0.00332498550415,0.00395703315735,0.000426054000854,17.5697381496
58,0.30374288559,0.00329399108887,0.00392889976501,0.000545024871826,17.7024888992
59,0.295475959778,0.00334310531616,0.00398397445679,0.000468015670776,17.8039579391
60,0.291261911392,0.00343799591064,0.00396490097046,0.000505924224854,17.9581120014
61,0.293365001678,0.0034499168396,0.0039279460907,0.000425815582275,18.4460721016
62,0.297646999359,0.00333285331726,0.00402998924255,0.000418901443481,18.8506510258
63,0.292504072189,0.0032320022583,0.00396800041199,0.000421047210693,19.029392004
64,0.298044204712,0.00337409973145,0.004065990448,0.000444889068604,19.0556452274
65,0.294258117676,0.00332498550415,0.00415110588074,0.000430822372437,19.8679528236
66,0.298475265503,0.00326609611511,0.00400996208191,0.000412940979004,20.1296460629
67,0.295928001404,0.00329899787903,0.0040431022644,0.000416994094849,20.334954977
68,0.295367956161,0.00336098670959,0.00408482551575,0.000425100326538,20.6116650105
69,0.283629894257,0.00331211090088,0.00390696525574,0.000427961349487,20.7647821903
70,0.279370069504,0.00335788726807,0.00401711463928,0.000419855117798,21.276238203
71,0.291832923889,0.00321197509766,0.00393295288086,0.000389099121094,21.3599538803
72,0.299088954926,0.00335907936096,0.00410485267639,0.000416994094849,21.4249110222
73,0.297433137894,0.00332999229431,0.00398802757263,0.000421047210693,21.8627450466
74,0.300031900406,0.00327587127686,0.00413799285889,0.000416994094849,22.3793289661
75,0.291076183319,0.00330591201782,0.00402212142944,0.000417947769165,22.3702588081
76,0.292588949203,0.00345611572266,0.00390315055847,0.000524044036865,22.6029958725
77,0.294338226318,0.00332617759705,0.00391101837158,0.000415086746216,23.0526108742
78,0.298106193542,0.00330400466919,0.00413990020752,0.000436067581177,23.8859350681
79,0.291799068451,0.00324702262878,0.00382709503174,0.000398874282837,24.0384361744
80,0.294805049896,0.00342893600464,0.00411510467529,0.000410079956055,24.1336770058
81,0.297569036484,0.0032639503479,0.00392198562622,0.000417947769165,24.3985350132
82,0.299131155014,0.00340914726257,0.0041229724884,0.00042200088501,25.324352026
83,0.299612998962,0.00335597991943,0.0040647983551,0.000503063201904,25.0667221546
84,0.3011906147,0.00331211090088,0.00405287742615,0.000437021255493,25.5367209911
85,0.313131809235,0.00324511528015,0.00397801399231,0.000453948974609,25.8532509804
86,0.29424405098,0.00336599349976,0.0041069984436,0.000524044036865,26.5100870132
87,0.300373077393,0.00333619117737,0.00405097007751,0.000438213348389,26.2167639732
88,0.289783000946,0.0033860206604,0.00396108627319,0.000526905059814,26.75187397
89,0.299914836884,0.00337719917297,0.00393605232239,0.000504016876221,26.8747169971
90,0.297389030457,0.00329494476318,0.00415420532227,0.00040602684021,27.0983519554
91,0.300158023834,0.00325703620911,0.00401997566223,0.00045108795166,27.7993152142
92,0.29861998558,0.00341200828552,0.00396203994751,0.000432968139648,28.2834639549
93,0.291944026947,0.00336599349976,0.00410890579224,0.000422954559326,28.5356888771
94,0.310637950897,0.00348806381226,0.00398397445679,0.000387191772461,29.0586810112
95,0.294273853302,0.0034191608429,0.00397491455078,0.000442028045654,29.2642579079
96,0.789721250534,0.0034818649292,0.00396919250488,0.000473976135254,29.2817029953
97,0.29131269455,0.00340604782104,0.00407409667969,0.000409126281738,29.0603590012
98,0.297249794006,0.00333905220032,0.00399780273438,0.00042200088501,29.8101129532
99,0.296792984009,0.00329804420471,0.00409913063049,0.000433921813965,30.1225020885
