step,run,get,set,free,run_up_to_step
0,0.157947778702,0.00451397895813,0.00445795059204,0.00100088119507,0.184427022934
1,0.161311864853,0.0040910243988,0.00462198257446,0.000830888748169,0.31848692894
2,0.149789810181,0.00405788421631,0.00455713272095,0.000939130783081,0.475482940674
3,0.152907848358,0.00412106513977,0.00455904006958,0.0010130405426,0.631788015366
4,0.150582790375,0.00412797927856,0.00490212440491,0.00124216079712,0.778635978699
5,0.148983955383,0.0041868686676,0.00450611114502,0.0010929107666,1.36561107635
6,0.150300979614,0.00418496131897,0.00447416305542,0.0010838508606,1.08828401566
7,0.15137386322,0.00432515144348,0.00528693199158,0.00104784965515,1.24347090721
8,0.154370069504,0.00441217422485,0.00453114509583,0.0010449886322,2.33910989761
9,0.151607036591,0.00460314750671,0.0047550201416,0.00107192993164,1.5790810585
10,0.152483940125,0.00478720664978,0.00465297698975,0.00105500221252,1.692953825
11,0.155401945114,0.00435709953308,0.00465202331543,0.00105500221252,2.48635387421
12,0.154607057571,0.00437211990356,0.00469303131104,0.0010838508606,2.00585699081
13,0.149986743927,0.00446701049805,0.00470995903015,0.00104808807373,2.7097299099
14,0.151226997375,0.0047709941864,0.004634141922,0.00106501579285,2.34524393082
15,0.1515147686,0.00471997261047,0.00481104850769,0.00117111206055,2.48194289207
16,0.151199817657,0.00473999977112,0.00478410720825,0.00129103660583,2.60375905037
17,0.149536132812,0.00423192977905,0.00470304489136,0.00118589401245,3.07284712791
18,0.151031017303,0.00472402572632,0.00465393066406,0.00105810165405,2.92994213104
19,0.151103019714,0.00468897819519,0.00473117828369,0.00105714797974,3.08385801315
20,0.152766942978,0.00447702407837,0.00469303131104,0.00105595588684,3.59971690178
21,0.153822898865,0.00479292869568,0.00478196144104,0.00137400627136,3.36843204498
22,0.153375148773,0.00444912910461,0.00472784042358,0.00108599662781,3.77174711227
23,0.150062084198,0.0043408870697,0.00490593910217,0.00105905532837,4.18596506119
24,0.151146888733,0.00483703613281,0.00474619865417,0.0010838508606,3.81744384766
25,0.153300046921,0.00488710403442,0.00474095344543,0.00106406211853,4.00730895996
26,0.150153160095,0.00448489189148,0.00476408004761,0.00115990638733,4.91052317619
27,0.151667118073,0.00489115715027,0.00472807884216,0.00107908248901,4.26166796684
28,0.15248298645,0.00502896308899,0.00479698181152,0.00113487243652,4.48069620132
29,0.150625944138,0.00444293022156,0.00487208366394,0.00108695030212,5.29364919662
30,0.154963254929,0.00460600852966,0.00470113754272,0.00123882293701,4.84302020073
31,0.151462078094,0.0047779083252,0.00477194786072,0.00109696388245,4.8804731369
32,0.149391174316,0.00422501564026,0.00483012199402,0.00107097625732,5.61913704872
33,0.150895833969,0.00434494018555,0.00540804862976,0.00106716156006,5.69344091415
34,0.150485992432,0.00457000732422,0.0047619342804,0.00107884407043,5.68686413765
35,0.152959108353,0.00416207313538,0.00475406646729,0.00106191635132,5.88474798203
36,0.149568080902,0.00439286231995,0.00486397743225,0.00106692314148,6.17045998573
37,0.147137403488,0.00421500205994,0.00475692749023,0.00120806694031,6.45068216324
38,0.147874832153,0.00424695014954,0.0048999786377,0.00107598304749,6.22554898262
39,0.147802829742,0.0042290687561,0.004802942276,0.00108003616333,6.46197199821
40,0.148851156235,0.00433588027954,0.00486087799072,0.00110292434692,6.69698500633
41,0.149239063263,0.00462484359741,0.00485587120056,0.00113201141357,6.72857093811
42,0.147878885269,0.00421500205994,0.00466299057007,0.0010678768158,7.0947368145
43,0.14843082428,0.00470209121704,0.00484800338745,0.00110483169556,7.24251389503
44,0.442927837372,0.00436401367188,0.00818395614624,0.00108194351196,7.41040301323
45,0.150074005127,0.00468993186951,0.00476503372192,0.00108098983765,7.21024012566
46,0.147873878479,0.00427913665771,0.00476098060608,0.00108098983765,7.87467718124
47,0.148369789124,0.00441098213196,0.00483584403992,0.00107789039612,7.76699614525
48,0.149196147919,0.00425291061401,0.00478219985962,0.00122094154358,7.71767187119
49,0.14840388298,0.00423192977905,0.00493597984314,0.00107216835022,8.12712693214
50,0.148277997971,0.00430011749268,0.00505614280701,0.0011157989502,8.16686701775
51,0.153153181076,0.00427508354187,0.00489211082458,0.00108098983765,8.43559288979
52,0.15319275856,0.0042769908905,0.0049409866333,0.00108909606934,8.60096907616
53,0.147647619247,0.00424695014954,0.00480389595032,0.00111603736877,8.81830716133
54,0.151952028275,0.00426506996155,0.00495195388794,0.0012321472168,9.01964497566
55,0.153482913971,0.00457501411438,0.00496983528137,0.00108695030212,9.09057497978
56,0.149401187897,0.00438499450684,0.00475597381592,0.00113606452942,9.24267315865
57,0.149259090424,0.00467705726624,0.00482606887817,0.00110220909119,9.35181879997
58,0.148972988129,0.00435709953308,0.00493001937866,0.00108194351196,9.65666294098
59,0.152109861374,0.00428605079651,0.00489401817322,0.00111699104309,9.76697897911
60,0.148734092712,0.00428295135498,0.00472784042358,0.00113296508789,10.0805268288
61,0.150017976761,0.00465321540833,0.00479483604431,0.00107789039612,10.2069060802
62,0.156003952026,0.0044949054718,0.00483298301697,0.00108814239502,10.1867580414
63,0.15176486969,0.00459790229797,0.00490498542786,0.00108504295349,10.4289238453
64,0.150228023529,0.00472712516785,0.0048360824585,0.00109004974365,10.5742368698
65,0.153409004211,0.00426578521729,0.00494503974915,0.00110816955566,10.7516028881
66,0.150551080704,0.00435400009155,0.00491404533386,0.00109100341797,11.0058050156
67,0.14875793457,0.00431299209595,0.00497794151306,0.00119495391846,11.0214259624
68,0.149939775467,0.00481986999512,0.00492906570435,0.00108408927917,10.7323739529
69,0.155839920044,0.00468611717224,0.00485396385193,0.00119304656982,11.3478710651
70,0.154422998428,0.00440001487732,0.00504589080811,0.00108790397644,11.1776239872
71,0.148967981339,0.00435709953308,0.00487208366394,0.00112915039062,11.6544308662
72,0.152173042297,0.00449204444885,0.00497102737427,0.00118899345398,11.6425850391
73,0.149861097336,0.00457096099854,0.005047082901,0.00110411643982,11.6463339329
74,0.148714065552,0.00463104248047,0.00505805015564,0.00108003616333,12.1866889
75,0.14852309227,0.00462412834167,0.00477600097656,0.00108289718628,12.4281280041
76,0.153574228287,0.00441598892212,0.00496912002563,0.00109100341797,12.7909760475
77,0.14962887764,0.00428485870361,0.00492000579834,0.0010838508606,12.8691170216
78,0.149957180023,0.00444602966309,0.00494384765625,0.00109004974365,12.8437771797
79,0.149876832962,0.0042929649353,0.00484204292297,0.00126695632935,12.697052002
80,0.147522211075,0.00451397895813,0.00489902496338,0.00108814239502,12.9596209526
81,0.148762226105,0.00435209274292,0.00484299659729,0.00109696388245,12.9034609795
82,0.153163194656,0.0047299861908,0.00487995147705,0.00109791755676,13.0203931332
83,0.153428077698,0.00448083877563,0.00486183166504,0.00129103660583,13.2462921143
84,0.148329257965,0.00447702407837,0.00482201576233,0.00110197067261,13.4890458584
85,0.152717113495,0.00460982322693,0.0048668384552,0.00120091438293,13.9619209766
86,0.149240732193,0.00444912910461,0.00485610961914,0.00108599662781,13.9012880325
87,0.149049043655,0.00452613830566,0.00495004653931,0.0010838508606,14.4261250496
88,0.151852846146,0.00445294380188,0.00485992431641,0.0012640953064,14.1766369343
89,0.148769140244,0.00431394577026,0.00495195388794,0.00119590759277,14.2451300621
90,0.150879144669,0.00487208366394,0.00501203536987,0.00119996070862,14.4068219662
91,0.152840852737,0.0046329498291,0.0048999786377,0.00128102302551,14.6476931572
92,0.148432016373,0.00469398498535,0.00488805770874,0.00107598304749,14.7072799206
93,0.149919986725,0.00464391708374,0.00488209724426,0.00119495391846,14.9107780457
94,0.152076005936,0.00463891029358,0.00484299659729,0.00108885765076,15.1171379089
95,0.150806903839,0.00474309921265,0.00491118431091,0.00108003616333,15.5517690182
96,0.152260780334,0.00440096855164,0.00491404533386,0.00113296508789,15.5338630676
97,0.150270938873,0.00478291511536,0.0048828125,0.00111103057861,15.368732214
98,0.149027824402,0.00448393821716,0.00484895706177,0.0010871887207,16.2558131218
99,0.150144100189,0.00449705123901,0.00493097305298,0.0010941028595,16.3206210136
