step,run,get,set,free,run_up_to_step
0,0.304787874222,0.00665903091431,0.00731706619263,0.000720977783203,0.307054042816
1,0.302583932877,0.00605607032776,0.00778222084045,0.000707149505615,0.602077960968
2,0.298368930817,0.00627493858337,0.0071108341217,0.000694036483765,0.884368896484
3,0.299855947495,0.00653910636902,0.00723195075989,0.000711917877197,1.20547199249
4,0.301244020462,0.00617599487305,0.00760006904602,0.000933885574341,1.50697207451
5,0.302073717117,0.00609707832336,0.00747394561768,0.000723123550415,1.82909202576
6,0.308940887451,0.00648617744446,0.00761198997498,0.000737905502319,2.14099097252
7,0.298268079758,0.00655102729797,0.00737500190735,0.000736951828003,2.39863681793
8,0.303910970688,0.00657916069031,0.00779700279236,0.000826120376587,2.6925880909
9,0.303790092468,0.00636696815491,0.00768995285034,0.000751972198486,3.30981302261
10,0.303021907806,0.00626611709595,0.00750398635864,0.000925064086914,3.32535004616
11,0.298508167267,0.00623893737793,0.00754714012146,0.00074315071106,4.10974478722
12,0.299216985703,0.00662994384766,0.00730586051941,0.000766038894653,3.90426397324
13,0.303750276566,0.00670003890991,0.00771188735962,0.000777959823608,4.23805403709
14,0.298655986786,0.00653886795044,0.0075421333313,0.000767946243286,4.75737500191
15,0.307685852051,0.00664901733398,0.00767278671265,0.000972986221313,4.85495185852
16,0.303946971893,0.00651121139526,0.00740003585815,0.000761985778809,5.11454200745
17,0.932956933975,0.00660085678101,0.00739002227783,0.000752925872803,5.38589382172
18,0.305299043655,0.00664186477661,0.00755500793457,0.000764131546021,5.79504394531
19,0.303297758102,0.00635194778442,0.00791501998901,0.000979900360107,6.51040816307
20,0.635437250137,0.00642108917236,0.00763487815857,0.000787019729614,6.24686813354
21,0.304386854172,0.00682401657104,0.00804805755615,0.000807046890259,6.58836698532
22,0.29999089241,0.00626802444458,0.00757884979248,0.000757217407227,7.38313913345
23,0.2963950634,0.00670480728149,0.00757098197937,0.000797033309937,7.22567915916
24,0.298027038574,0.00616312026978,0.00799298286438,0.00078296661377,8.09574198723
25,0.300397872925,0.00693321228027,0.0075261592865,0.000777959823608,7.83675694466
26,0.298763036728,0.00641489028931,0.00787806510925,0.000995874404907,8.31894493103
27,0.307137966156,0.00636196136475,0.00760984420776,0.000776052474976,8.9425239563
28,0.299608945847,0.00681400299072,0.00763893127441,0.000786066055298,8.6457259655
29,0.298892021179,0.00672292709351,0.00759983062744,0.00107002258301,9.02634716034
30,0.304560184479,0.00637793540955,0.00737190246582,0.000750064849854,9.3375210762
31,0.29508972168,0.00622010231018,0.00766110420227,0.000831842422485,9.72352290154
32,0.286947965622,0.00628399848938,0.00757098197937,0.00108408927917,10.2866439819
33,0.310449838638,0.00641012191772,0.00748801231384,0.000776052474976,10.6908910275
34,0.30135178566,0.00637793540955,0.00742101669312,0.000795841217041,11.0208721161
35,0.303512096405,0.0063419342041,0.00751900672913,0.000757932662964,11.2151360512
36,0.808031082153,0.00676107406616,0.00791907310486,0.000767946243286,11.1678071022
37,0.299602031708,0.0062620639801,0.00776410102844,0.000797033309937,11.5668821335
38,0.304904699326,0.00635099411011,0.00773215293884,0.000808000564575,11.9976828098
39,0.302728891373,0.00639986991882,0.00760388374329,0.00104403495789,12.4061920643
40,0.304710865021,0.00628995895386,0.00774383544922,0.000787973403931,12.5203459263
41,0.298738002777,0.00643396377563,0.00784802436829,0.00079607963562,12.8621160984
42,0.297371864319,0.00630116462708,0.00761413574219,0.000770807266235,13.2491948605
43,0.295575141907,0.006352186203,0.00743317604065,0.000764131546021,13.4671189785
44,0.310988903046,0.00646495819092,0.00740599632263,0.000775814056396,13.7646718025
45,0.283742666245,0.00624799728394,0.00782108306885,0.000763893127441,13.3076720238
46,0.303632974625,0.00643491744995,0.00768899917603,0.000805139541626,14.5221889019
47,0.302319049835,0.00633692741394,0.00759792327881,0.000823974609375,14.6216840744
48,0.306206941605,0.00627994537354,0.00741004943848,0.000786066055298,15.3265969753
49,0.304697990417,0.0064058303833,0.00742197036743,0.000798940658569,15.5169870853
50,0.303391218185,0.00645518302917,0.00758004188538,0.000802040100098,15.733779192
51,0.307863235474,0.00633597373962,0.00742793083191,0.00103306770325,15.9450941086
52,0.304426908493,0.0064709186554,0.00743508338928,0.000766038894653,16.5145509243
53,0.302230834961,0.00648093223572,0.00782108306885,0.000840902328491,16.7585699558
54,0.309871196747,0.00645399093628,0.00767397880554,0.000792026519775,16.9803848267
55,0.301220178604,0.00632810592651,0.00762510299683,0.00078821182251,17.2610528469
56,0.302733898163,0.00649404525757,0.00763416290283,0.000986099243164,17.6838541031
57,0.301393032074,0.00638890266418,0.00742602348328,0.000931024551392,17.8152990341
58,0.305911779404,0.00659680366516,0.00779700279236,0.000815153121948,17.8311400414
59,0.30496096611,0.00639986991882,0.00767087936401,0.000792980194092,18.509873867
60,0.301537036896,0.00659608840942,0.0075089931488,0.000808000564575,18.8277709484
61,0.304491996765,0.00669097900391,0.00744700431824,0.000795841217041,19.0200970173
62,0.299668073654,0.00626802444458,0.00779604911804,0.000787973403931,19.6918859482
63,0.30100607872,0.00642991065979,0.00774908065796,0.000818014144897,19.6531591415
64,0.303399085999,0.00652098655701,0.0077121257782,0.000795125961304,20.5100200176
65,0.308151006699,0.00657820701599,0.0077269077301,0.000784873962402,20.5813751221
66,0.320320129395,0.00678706169128,0.00758099555969,0.000843048095703,20.8470339775
67,0.308794736862,0.00680112838745,0.00769996643066,0.000996828079224,21.0799319744
68,0.303366184235,0.00644516944885,0.00750184059143,0.00103092193604,20.9953939915
69,0.299186944962,0.00658917427063,0.00780010223389,0.000724077224731,21.6225340366
70,0.306431055069,0.00670194625854,0.00779604911804,0.00106811523438,22.2430729866
71,0.30043721199,0.00641107559204,0.0075249671936,0.000998973846436,21.9658439159
72,0.305904626846,0.00651812553406,0.00761795043945,0.00103282928467,22.2989587784
73,0.302309036255,0.00658798217773,0.00782895088196,0.000983953475952,22.9709210396
74,0.308130979538,0.00681018829346,0.00773000717163,0.000822067260742,22.9662799835
75,0.300389051437,0.00676298141479,0.00764989852905,0.000782012939453,23.3745520115
76,0.297383785248,0.00648093223572,0.00789999961853,0.000776052474976,23.9223430157
77,0.303728818893,0.00646114349365,0.00735092163086,0.00103306770325,23.8566358089
78,0.305547714233,0.00678205490112,0.00794100761414,0.000804901123047,24.0934860706
79,0.734023094177,0.00680804252625,0.00809288024902,0.000865936279297,24.5051989555
80,0.307276725769,0.00649094581604,0.00756406784058,0.00103402137756,24.975083828
81,0.307976961136,0.00663900375366,0.00835013389587,0.00101089477539,24.7709681988
82,0.298783063889,0.00647306442261,0.00784993171692,0.00101113319397,25.1815359592
83,0.30385518074,0.00659704208374,0.00761890411377,0.00106191635132,25.394892931
84,0.300054073334,0.00662016868591,0.00785613059998,0.00080394744873,25.9870581627
85,0.301769256592,0.00655698776245,0.00762510299683,0.00106716156006,26.00030303
86,0.298175811768,0.00638580322266,0.00795006752014,0.000797986984253,26.6664090157
87,0.300961971283,0.00667500495911,0.00779485702515,0.000782012939453,26.7107470036
88,0.30521607399,0.00676798820496,0.00800895690918,0.000792026519775,27.4601478577
89,0.304935932159,0.0067458152771,0.00755596160889,0.000797033309937,27.0801930428
90,0.300508022308,0.00668811798096,0.00758600234985,0.000988006591797,27.7096600533
91,0.299436092377,0.00665593147278,0.00790095329285,0.000802040100098,27.7911248207
92,0.296622991562,0.00655007362366,0.00797414779663,0.000786066055298,28.4214789867
93,0.289251089096,0.00654411315918,0.00770807266235,0.000792026519775,28.2672128677
94,0.303362846375,0.00679492950439,0.00776410102844,0.00101208686829,28.5950849056
95,0.303323984146,0.00647306442261,0.00773286819458,0.00079083442688,29.1533770561
96,0.283887147903,0.00645303726196,0.00824689865112,0.000785827636719,29.1247181892
97,0.298027038574,0.00677299499512,0.0074188709259,0.00100803375244,29.7065780163
98,0.294236898422,0.00684285163879,0.0074360370636,0.0010712146759,29.9408080578
99,0.297267198563,0.00660014152527,0.00775218009949,0.00081992149353,29.8697860241
