step,run,get,set,free,run_up_to_step
0,0.187747001648,0.00850510597229,0.00781893730164,0.00150799751282,0.218240022659
1,0.168386220932,0.00694799423218,0.00815200805664,0.001788854599,0.346396923065
2,0.170711994171,0.00682687759399,0.00803589820862,0.00165390968323,0.513122081757
3,0.20215010643,0.00702500343323,0.00786590576172,0.00173592567444,0.717787027359
4,0.176059961319,0.007000207901,0.00811386108398,0.00182914733887,0.891575098038
5,0.168687820435,0.00697898864746,0.00908493995667,0.00202202796936,1.12364506721
6,0.173379898071,0.00711894035339,0.00811505317688,0.00177097320557,1.21090102196
7,0.169883012772,0.00743699073792,0.00779104232788,0.00194191932678,1.34684300423
8,0.180590867996,0.00758695602417,0.0082540512085,0.00198101997375,1.56918811798
9,0.172007799149,0.00726914405823,0.00821185112,0.00178122520447,1.88292884827
10,0.193093061447,0.0076789855957,0.00831198692322,0.00184988975525,2.21155595779
11,0.176127672195,0.00725102424622,0.00786805152893,0.00193119049072,2.1006231308
12,0.189911842346,0.00798583030701,0.00870490074158,0.00195598602295,2.38675403595
13,0.177531003952,0.00763201713562,0.00836086273193,0.00172305107117,2.84732604027
14,0.197192192078,0.00723218917847,0.00850105285645,0.00212693214417,2.58777117729
15,0.169919013977,0.00769591331482,0.007817029953,0.00199198722839,2.81134605408
16,0.180179834366,0.00748014450073,0.00784611701965,0.0017409324646,3.00166988373
17,0.167456150055,0.00775480270386,0.0080029964447,0.00177597999573,3.09970402718
18,0.18382191658,0.00739097595215,0.00779008865356,0.00187993049622,3.91414093971
19,0.190498113632,0.00750589370728,0.00805902481079,0.00174903869629,3.80484294891
20,0.166831016541,0.00735092163086,0.00798511505127,0.00168180465698,3.72285509109
21,0.16845703125,0.00734496116638,0.0265319347382,0.00171208381653,3.83236098289
22,0.21067905426,0.00744605064392,0.0083179473877,0.00189900398254,4.8801150322
23,0.204893827438,0.00708603858948,0.00842905044556,0.00187397003174,4.78559923172
24,0.171167135239,0.00741004943848,0.00790905952454,0.0017261505127,4.67484092712
25,0.892835140228,0.00775003433228,0.00822305679321,0.00194406509399,4.52895092964
26,0.170405864716,0.00710606575012,0.0077121257782,0.00174307823181,5.15100693703
27,0.189293861389,0.00796985626221,0.00849294662476,0.00218105316162,4.95962405205
28,0.16841006279,0.00739812850952,0.00796103477478,0.00201821327209,5.12391805649
29,0.175169944763,0.00706100463867,0.0079619884491,0.00179600715637,5.92944598198
30,0.187519311905,0.00918197631836,0.00802803039551,0.00167512893677,5.54961895943
31,0.178738832474,0.00687694549561,0.00798892974854,0.0018310546875,6.09321904182
32,0.167386054993,0.00711417198181,0.00802707672119,0.00171589851379,6.55238580704
33,0.173678636551,0.00819516181946,0.00821900367737,0.00190591812134,6.3343911171
34,0.178825139999,0.00705885887146,0.00769305229187,0.0017728805542,6.70759105682
35,0.168916940689,0.00691699981689,0.00797009468079,0.00166416168213,6.22659802437
36,0.171314001083,0.00729179382324,0.00841689109802,0.00202393531799,6.87429308891
37,0.196045160294,0.00704216957092,0.00796508789062,0.00166916847229,7.28396892548
38,0.175284862518,0.0080258846283,0.00797295570374,0.00187706947327,7.35387802124
39,0.184857845306,0.00749206542969,0.00795602798462,0.00187802314758,7.25195288658
40,0.18045091629,0.0076310634613,0.00779700279236,0.0016930103302,7.60028481483
41,0.173953056335,0.00720310211182,0.00864887237549,0.00204420089722,8.09962391853
42,0.173192024231,0.00718593597412,0.00847196578979,0.00173497200012,7.84418582916
43,0.176656961441,0.00736212730408,0.00842308998108,0.00200915336609,7.93658590317
44,0.172063112259,0.00706076622009,0.00811290740967,0.00173091888428,8.56978607178
45,0.172803163528,0.00735902786255,0.00830292701721,0.00178194046021,8.74704194069
46,0.169219017029,0.00747990608215,0.00848197937012,0.00177717208862,8.89805984497
47,0.178595066071,0.00720500946045,0.00843095779419,0.00206899642944,8.72764110565
48,0.204152107239,0.00732898712158,0.00822591781616,0.00199389457703,8.97750306129
49,0.170229911804,0.00717496871948,0.00832009315491,0.00173711776733,9.03641891479
50,0.172872066498,0.00701379776001,0.00815987586975,0.00213813781738,9.28750801086
51,0.172996044159,0.00701713562012,0.00844502449036,0.00194597244263,9.65534114838
52,0.175955057144,0.00758385658264,0.00824499130249,0.00184297561646,9.7140378952
53,0.173232078552,0.00711393356323,0.00818800926208,0.00179219245911,10.0553061962
54,0.169152975082,0.00734901428223,0.00849103927612,0.00175714492798,10.2708749771
55,0.166200876236,0.0073459148407,0.00861120223999,0.00195813179016,10.1051290035
56,0.186944961548,0.00769400596619,0.0081570148468,0.00207686424255,10.8038680553
57,0.1764960289,0.00764393806458,0.00815105438232,0.00175094604492,10.577917099
58,0.178233146667,0.00756001472473,0.00859189033508,0.00193190574646,11.2805080414
59,0.178297996521,0.00770616531372,0.00891590118408,0.0019588470459,11.328649044
60,0.178799152374,0.00749206542969,0.0079140663147,0.00168704986572,10.9334540367
61,0.180046081543,0.00764799118042,0.00795388221741,0.00171303749084,11.4369399548
62,0.583937168121,0.00740003585815,0.00801587104797,0.00170421600342,11.2866969109
63,0.192404985428,0.00760293006897,0.0083589553833,0.00189280509949,12.0100538731
64,0.17510509491,0.00704503059387,0.00806784629822,0.00172710418701,12.2552399635
65,0.174920082092,0.00758004188538,0.00781512260437,0.00192403793335,12.0486629009
66,0.16813993454,0.00741100311279,0.00818419456482,0.00181198120117,11.6990990639
67,0.195459127426,0.00791096687317,0.00905203819275,0.00204086303711,11.7660229206
68,0.1841340065,0.00772595405579,0.00886702537537,0.00187087059021,12.6650848389
69,0.183082818985,0.00833296775818,0.00820589065552,0.00172519683838,12.7211849689
70,0.633584022522,0.00748300552368,0.00920701026917,0.00186896324158,13.2738730907
71,0.181738138199,0.00801301002502,0.00812411308289,0.0017991065979,13.1493258476
72,0.169927835464,0.00747203826904,0.00819706916809,0.00178098678589,13.4044401646
73,0.181981086731,0.00716805458069,0.00856995582581,0.00173211097717,13.5886209011
74,0.172176122665,0.00747013092041,0.00845384597778,0.00206398963928,13.8443770409
75,0.173339128494,0.00797390937805,0.00820398330688,0.00180101394653,13.5837130547
76,0.227385044098,0.00756692886353,0.00802397727966,0.00173902511597,13.5998489857
77,0.173315048218,0.0076048374176,0.00807285308838,0.00176882743835,13.9915699959
78,0.173652887344,0.00740194320679,0.00879883766174,0.00234794616699,14.2006549835
79,0.172123908997,0.00770711898804,0.00843214988708,0.00180602073669,14.6281769276
80,0.170150995255,0.0075569152832,0.00848793983459,0.00202417373657,15.1116981506
81,0.172608137131,0.00726699829102,0.00797200202942,0.00175786018372,14.2612240314
82,0.172475814819,0.00756287574768,0.00815415382385,0.00176215171814,15.2456071377
83,0.17206788063,0.00722813606262,0.00859498977661,0.00212097167969,15.3579559326
84,0.174061775208,0.007159948349,0.00851511955261,0.00197505950928,15.4816308022
85,0.176599979401,0.00726389884949,0.00852108001709,0.00183296203613,16.1623120308
86,0.173088788986,0.00724196434021,0.00795102119446,0.00191402435303,16.2061378956
87,0.170475006104,0.00702118873596,0.00797510147095,0.00204300880432,15.3370859623
88,0.165532827377,0.00749492645264,0.00795912742615,0.00168490409851,15.9031271935
89,0.16711807251,0.00767683982849,0.00811696052551,0.00168991088867,16.2183868885
90,0.166062116623,0.00843906402588,0.00815796852112,0.00195598602295,15.9250290394
91,0.165093898773,0.00732612609863,0.00822997093201,0.00168299674988,15.8897907734
92,0.165680170059,0.0074188709259,0.00784182548523,0.00186586380005,17.1911888123
93,0.172661066055,0.00736999511719,0.00786399841309,0.00171685218811,17.3256809711
94,0.172566175461,0.007483959198,0.00798392295837,0.00197100639343,16.6516129971
95,0.176560163498,0.00755095481873,0.00846695899963,0.00195693969727,17.1937608719
96,0.172334194183,0.00815296173096,0.00811004638672,0.00209212303162,17.5354738235
97,0.172783374786,0.00740599632263,0.00832486152649,0.00178599357605,17.3627049923
98,0.175557851791,0.00743794441223,0.00873208045959,0.00170803070068,17.8951370716
99,0.168534994125,0.00743103027344,0.00776791572571,0.00170493125916,17.8264629841
