step,run,get,set,free,run_up_to_step
0,0.758102893829,0.0249600410461,0.0264618396759,0.00513887405396,0.709911108017
1,0.737325906754,0.0225539207458,0.0248069763184,0.00516414642334,1.4868581295
2,0.737982749939,0.0234360694885,0.0276489257812,0.00558710098267,2.19683814049
3,0.75035405159,0.0239660739899,0.0259318351746,0.00515079498291,2.82186198235
4,0.703499078751,0.0232329368591,0.0270960330963,0.00540900230408,3.52889108658
5,0.744822978973,0.0237381458282,0.0268888473511,0.0053129196167,4.95897388458
6,0.728152990341,0.0235719680786,0.0275311470032,0.00555896759033,5.23189806938
7,0.784002780914,0.0241160392761,0.0259268283844,0.00520801544189,5.98491811752
8,0.697061777115,0.0236089229584,0.0288498401642,0.00521898269653,6.60068511963
9,0.777742147446,0.0223340988159,0.0282139778137,0.0053288936615,8.35747790337
10,0.764807939529,0.0243020057678,0.024619102478,0.00509309768677,8.90412902832
11,0.741115093231,0.0240790843964,0.0283811092377,0.00569319725037,8.82554793358
12,0.704966068268,0.0227599143982,0.0280840396881,0.00609683990479,9.5708231926
13,0.698500156403,0.022686958313,0.0265629291534,0.00599217414856,10.2639329433
14,0.72512793541,0.0221741199493,0.0292620658875,0.00568079948425,11.3530740738
15,0.70151591301,0.0230069160461,0.0273380279541,0.00630116462708,11.6405580044
16,0.7473051548,0.0249412059784,0.0263080596924,0.0051691532135,12.8208818436
17,0.723336935043,0.02401304245,0.0250658988953,0.00547409057617,13.4482159615
18,0.698217868805,0.0226690769196,0.0247139930725,0.00509715080261,14.4225568771
19,0.705286979675,0.0246860980988,0.0270318984985,0.00536799430847,14.5007359982
20,0.760489940643,0.0238330364227,0.027086019516,0.00512480735779,15.5822739601
21,0.752456188202,0.0236780643463,0.0275111198425,0.00602602958679,16.0816149712
22,0.707069158554,0.0234129428864,0.0271639823914,0.00579595565796,17.0463922024
23,0.791923999786,0.0248990058899,0.0257840156555,0.00535917282104,19.4086000919
24,0.736820936203,0.0244278907776,0.0267040729523,0.00578093528748,19.1182560921
25,0.750507831573,0.024995803833,0.0272951126099,0.00593304634094,19.3002779484
26,0.770663976669,0.0254650115967,0.0258491039276,0.00560808181763,19.854019165
27,0.736404895782,0.0238859653473,0.0254640579224,0.00546503067017,20.978924036
28,0.759194135666,0.0243909358978,0.026468038559,0.00576496124268,22.6716182232
29,0.747158050537,0.0237669944763,0.0256161689758,0.00550889968872,22.2633619308
30,1.79933619499,0.0242059230804,0.0265710353851,0.00586104393005,22.5538871288
31,0.731253147125,0.0226628780365,0.0286240577698,0.00591421127319,23.8587269783
32,0.755056142807,0.0235359668732,0.02760887146,0.00712108612061,24.8562040329
33,0.748564958572,0.0235230922699,0.0277230739594,0.00563788414001,26.1459989548
34,0.730931043625,0.0224738121033,0.0263621807098,0.00570702552795,26.7278268337
35,0.762733221054,0.0237271785736,0.027911901474,0.00765299797058,27.4060349464
36,0.806009054184,0.0246498584747,0.0266129970551,0.00538802146912,27.6747510433
37,0.77738904953,0.0226600170135,0.0298719406128,0.00702285766602,28.6772060394
38,0.791987895966,0.0244979858398,0.0276939868927,0.00577092170715,29.9300677776
39,0.795616149902,0.0235350131989,0.025484085083,0.00513792037964,30.6743710041
40,0.804277658463,0.024838924408,0.0274260044098,0.00558805465698,32.1126129627
41,0.787041902542,0.0254249572754,0.0270481109619,0.00579190254211,32.530397892
42,0.746031999588,0.0244901180267,0.0284860134125,0.00560879707336,32.7952051163
43,0.747464895248,0.0232441425323,0.0280821323395,0.0058228969574,33.444439888
44,0.783707141876,0.024337053299,0.0279290676117,0.0107769966125,34.0789699554
45,0.783164024353,0.0230240821838,0.0257911682129,0.00565886497498,34.129803896
46,0.721094846725,0.022047996521,0.0261681079865,0.00548696517944,34.7654378414
47,0.76308298111,0.0224750041962,0.0253689289093,0.00540494918823,36.3854060173
48,0.741024255753,0.022803068161,0.025554895401,0.00556802749634,37.6199860573
49,0.740495204926,0.0236189365387,0.0249009132385,0.00557398796082,37.0231919289
50,0.733843803406,0.022665977478,0.0278558731079,0.00552892684937,39.4679639339
51,0.807831048965,0.0236940383911,0.0262880325317,0.00536799430847,39.9223670959
52,0.779966115952,0.0235350131989,0.0274708271027,0.0270090103149,41.1093130112
53,0.772152662277,0.0252139568329,0.0248990058899,0.00561285018921,41.5550069809
54,0.795183897018,0.0238909721375,0.026064157486,0.00550222396851,41.5990979671
55,0.758725881577,0.0220499038696,0.0265290737152,0.00625610351562,44.183701992
56,0.751397371292,0.02561378479,0.0266449451447,0.00552201271057,43.3615689278
57,0.739018201828,0.0234050750732,0.0259840488434,0.00594091415405,44.0305709839
58,0.813714265823,0.0242381095886,0.02716588974,0.0084490776062,44.2336900234
59,0.764297962189,0.022341966629,0.026319026947,0.00523018836975,45.9425899982
60,0.769601106644,0.022922039032,0.0283241271973,0.00556588172913,48.5290510654
61,0.764842748642,0.0233800411224,0.0253598690033,0.00514507293701,46.4540390968
62,0.74395108223,0.0228118896484,0.0280780792236,0.0059871673584,46.3933701515
63,0.751658916473,0.0260751247406,0.0268549919128,0.00581908226013,48.9718968868
64,0.789134740829,0.0243289470673,0.0261859893799,0.0056300163269,48.4103298187
65,0.731431007385,0.0221350193024,0.02663397789,0.00545883178711,49.5020499229
66,0.753643751144,0.0234649181366,0.0256810188293,0.00660419464111,50.3440849781
67,0.7784512043,0.0234169960022,0.0278251171112,0.00557708740234,53.4282319546
68,0.758970975876,0.0257620811462,0.0256140232086,0.00535297393799,53.7907919884
69,0.721954107285,0.0232219696045,0.0275568962097,0.00527405738831,53.0369758606
70,0.696635961533,0.0397100448608,0.0251231193542,0.00527095794678,51.154296875
71,0.71755862236,0.023316860199,0.026750087738,0.00519895553589,53.7593810558
72,0.715675830841,0.0224270820618,0.0258960723877,0.0054349899292,52.1043479443
73,0.718108892441,0.0218100547791,0.025955915451,0.00555109977722,53.0970311165
74,0.69093298912,0.0219428539276,0.0247368812561,0.00562286376953,53.5088632107
75,0.718062877655,0.0222079753876,0.0254309177399,0.00524401664734,54.7655730247
76,0.70473575592,0.0236151218414,0.0276248455048,0.00532913208008,55.3009610176
77,0.696938991547,0.0220010280609,0.0299601554871,0.00508809089661,55.8546350002
78,0.69176197052,0.0224668979645,0.0252749919891,0.0052638053894,56.3606770039
79,0.744333982468,0.0223660469055,0.025787115097,0.00515818595886,59.2601661682
80,0.742077827454,0.0227108001709,0.0266280174255,0.00570106506348,60.4910399914
81,0.728467941284,0.0217080116272,0.0267400741577,0.00554203987122,60.7744960785
82,0.694398164749,0.0224089622498,0.027792930603,0.00536489486694,61.8200399876
83,0.727298974991,0.0236310958862,0.0274798870087,0.00507616996765,60.3133091927
84,0.887726068497,0.025484085083,0.0256979465485,0.00537800788879,61.3926229477
85,0.72343993187,0.0243349075317,0.0268959999084,0.00526094436646,62.336288929
86,0.700846195221,0.022481918335,0.0264179706573,0.00514888763428,64.5318748951
87,0.713264942169,0.0223281383514,0.024924993515,0.00517797470093,64.4987459183
88,0.700400114059,0.022941827774,0.0254638195038,0.00513505935669,67.3444139957
89,0.735352039337,0.0228371620178,0.0254719257355,0.00512599945068,67.1198232174
90,0.74164223671,0.0235438346863,0.0259261131287,0.00510716438293,64.8324820995
91,0.722939014435,0.0230300426483,0.0257959365845,0.00508093833923,68.5053739548
92,0.732112169266,0.0237069129944,0.0251140594482,0.00507783889771,66.4500849247
93,0.737015008926,0.0231738090515,0.0271739959717,0.00546002388,68.4242730141
94,0.709201097488,0.0233302116394,0.0255699157715,0.00541591644287,70.3216080666
95,0.70133972168,0.0232138633728,0.0259680747986,0.00573182106018,70.0571389198
96,0.731748104095,0.0218660831451,0.0261180400848,0.0052649974823,73.5305891037
97,0.704514741898,0.0238211154938,0.0254318714142,0.00615096092224,73.2584137917
98,0.731020927429,0.0223848819733,0.0252969264984,0.00507712364197,74.1398770809
99,0.701320886612,0.023857831955,0.0285370349884,0.00631713867188,78.2608890533
