step,run,get,set,free,run_up_to_step
0,0.140072107315,0.00440287590027,0.00380897521973,0.000734090805054,0.162599802017
1,0.144101858139,0.0036039352417,0.00391292572021,0.000607013702393,0.294622182846
2,0.140296936035,0.0036678314209,0.00395607948303,0.000663042068481,0.432929039001
3,0.143260002136,0.00384092330933,0.00396513938904,0.000760078430176,0.576246023178
4,0.139809131622,0.00394201278687,0.00398993492126,0.00102090835571,0.717414140701
5,0.146768093109,0.00393414497375,0.00390720367432,0.000845909118652,0.859999895096
6,0.140114068985,0.00416803359985,0.00398111343384,0.000863790512085,1.00842785835
7,0.142151117325,0.00404620170593,0.00411915779114,0.00095009803772,1.15081095695
8,0.140186071396,0.00398397445679,0.00396394729614,0.000870943069458,1.63942289352
9,0.146780014038,0.00390100479126,0.00397396087646,0.000911951065063,1.43574500084
10,0.145545005798,0.00426912307739,0.00398802757263,0.000946998596191,1.58008289337
11,0.520190000534,0.0039279460907,0.00405883789062,0.000897169113159,1.71473002434
12,0.142658948898,0.00420308113098,0.00394415855408,0.00101089477539,1.84599113464
13,0.142033100128,0.00413084030151,0.00384116172791,0.000874996185303,2.02330899239
14,0.144999980927,0.00413584709167,0.00404191017151,0.000868082046509,2.1624109745
15,0.142683029175,0.00431203842163,0.00394701957703,0.000998020172119,2.31611180305
16,0.145932912827,0.00438904762268,0.00402998924255,0.000885009765625,2.40237903595
17,0.138427019119,0.00383400917053,0.00398588180542,0.000885009765625,2.89949584007
18,0.145672798157,0.00442314147949,0.0039701461792,0.000898122787476,2.73633408546
19,0.140488862991,0.00436091423035,0.00400805473328,0.000952959060669,2.89172101021
20,0.149449110031,0.00410795211792,0.00413179397583,0.000936031341553,2.99851298332
21,0.140808820724,0.00442695617676,0.00403189659119,0.000975131988525,3.1238451004
22,0.145252943039,0.00433397293091,0.00397706031799,0.000956058502197,3.30755591393
23,0.138468027115,0.00383615493774,0.0040340423584,0.000900983810425,3.43163204193
24,0.143893957138,0.00377488136292,0.00410485267639,0.00108504295349,4.09269094467
25,0.142852783203,0.00417113304138,0.00435996055603,0.00107002258301,3.70439481735
26,0.148512601852,0.00432896614075,0.00399208068848,0.00104904174805,3.8666369915
27,0.139279127121,0.00391817092896,0.00404596328735,0.00103712081909,4.34241008759
28,0.143070697784,0.00381994247437,0.00404596328735,0.000956058502197,4.52159905434
29,0.13888502121,0.00380206108093,0.00399398803711,0.000900030136108,4.2683570385
30,0.144633054733,0.004319190979,0.00416207313538,0.000935077667236,4.39195513725
31,0.140915155411,0.00462794303894,0.00422096252441,0.000902891159058,4.55925488472
32,0.141649007797,0.00384497642517,0.00405788421631,0.000913858413696,5.21478486061
33,0.142838954926,0.00439691543579,0.00405979156494,0.000910043716431,4.84986686707
34,0.142750024796,0.00381517410278,0.00430107116699,0.000931024551392,5.54027605057
35,0.144438028336,0.00411987304688,0.00394082069397,0.00100207328796,5.11333298683
36,0.1428399086,0.00400614738464,0.00414705276489,0.000972032546997,5.58275580406
37,0.139950990677,0.00392293930054,0.00416398048401,0.000919103622437,5.63652992249
38,0.141863822937,0.00381708145142,0.00420093536377,0.000939130783081,6.01569914818
39,0.144803762436,0.00390410423279,0.00403094291687,0.000909090042114,6.11464595795
40,0.141274929047,0.00385999679565,0.00414896011353,0.00090503692627,6.45545101166
41,0.143930912018,0.00442695617676,0.00412487983704,0.000895023345947,5.97247314453
42,0.141033172607,0.00409483909607,0.00414609909058,0.00104117393494,6.70336008072
43,0.756295919418,0.00398087501526,0.00409197807312,0.000936031341553,6.26545977592
44,0.139049053192,0.00390100479126,0.00408506393433,0.000910997390747,6.88273692131
45,0.147823095322,0.00392317771912,0.00418400764465,0.000975131988525,6.96921396255
46,0.14043879509,0.00396990776062,0.00414204597473,0.000897169113159,7.01745796204
47,0.147454023361,0.00419306755066,0.00417900085449,0.000931024551392,7.02094507217
48,0.140315771103,0.0039689540863,0.00419807434082,0.000922918319702,7.35791707039
49,0.147595882416,0.00378012657166,0.00410199165344,0.000899076461792,7.86313319206
50,0.142533063889,0.0039541721344,0.0041081905365,0.00096583366394,7.66587996483
51,0.147742271423,0.00421190261841,0.00423097610474,0.000941038131714,7.98073816299
52,0.138088941574,0.00388979911804,0.00418901443481,0.000916004180908,8.14203500748
53,0.143331050873,0.00412511825562,0.0041720867157,0.000977993011475,7.87839603424
54,0.141757965088,0.00404095649719,0.0042290687561,0.000920057296753,8.10488891602
55,0.143836021423,0.00386810302734,0.00417304039001,0.000914096832275,8.59697914124
56,0.139292240143,0.00388813018799,0.00449991226196,0.00094199180603,8.34648704529
57,0.145518779755,0.00433897972107,0.00429606437683,0.000957012176514,8.35216999054
58,0.140557050705,0.00409698486328,0.00411295890808,0.000916957855225,8.93584918976
59,0.143827915192,0.00424218177795,0.00413680076599,0.000928163528442,8.91501712799
60,0.139606952667,0.00382709503174,0.00413107872009,0.000916004180908,9.25446081161
61,0.143360137939,0.00396800041199,0.0041241645813,0.000914096832275,9.49935007095
62,0.140915155411,0.00396180152893,0.00408220291138,0.0010130405426,9.51974701881
63,0.143724918365,0.00402188301086,0.00420713424683,0.000919103622437,9.40453505516
64,0.143938064575,0.00420308113098,0.00414705276489,0.000974893569946,9.56665301323
65,0.145658731461,0.00398111343384,0.00419688224792,0.000923871994019,10.0100359917
66,0.145365953445,0.00423288345337,0.00426888465881,0.00092601776123,9.8467810154
67,0.141794204712,0.0041389465332,0.0041868686676,0.000975131988525,10.4940989017
68,0.144632101059,0.00395393371582,0.00430703163147,0.000939130783081,10.3195619583
69,0.140824079514,0.00420689582825,0.00417804718018,0.000931978225708,10.7455558777
70,0.146165847778,0.00413203239441,0.00424599647522,0.000916004180908,10.9135959148
71,0.139188289642,0.0041778087616,0.0041618347168,0.00106906890869,10.5225222111
72,0.144508838654,0.00383496284485,0.00420498847961,0.000927925109863,10.784487009
73,0.139060020447,0.00403499603271,0.00422215461731,0.000962018966675,11.1126220226
74,0.144701957703,0.00406289100647,0.00413799285889,0.00092887878418,11.0307221413
75,0.139798164368,0.00393509864807,0.00419807434082,0.000935077667236,11.1703979969
76,0.176955938339,0.00419020652771,0.00424194335938,0.000966787338257,11.3642649651
77,0.139122009277,0.00420117378235,0.00416898727417,0.000969171524048,11.8825449944
78,0.147754907608,0.00395584106445,0.00425219535828,0.000961065292358,12.0021748543
79,0.138351917267,0.00393795967102,0.00427603721619,0.000939130783081,11.8945710659
80,0.14689874649,0.00433421134949,0.00421714782715,0.00100302696228,11.5812079906
81,0.140726089478,0.00408601760864,0.00400614738464,0.000958919525146,11.8632600307
82,0.144807100296,0.00396394729614,0.00416994094849,0.000931978225708,12.217427969
83,0.143526792526,0.00392889976501,0.00417304039001,0.000931024551392,12.6777689457
84,0.147255182266,0.00401592254639,0.00420093536377,0.000926971435547,12.7381458282
85,0.142817020416,0.00401878356934,0.0041868686676,0.000956058502197,12.9245510101
86,0.146836996078,0.00399589538574,0.00416994094849,0.000998020172119,13.0218060017
87,0.14093375206,0.00405693054199,0.00426197052002,0.000941038131714,13.3970479965
88,0.141584873199,0.00389099121094,0.00421690940857,0.000926971435547,13.1417629719
89,0.145081043243,0.00408983230591,0.00421786308289,0.00107789039612,13.2846930027
90,0.142256736755,0.00408291816711,0.00433301925659,0.0010941028595,13.4690790176
91,0.142518043518,0.00394082069397,0.00413203239441,0.000933885574341,13.6385338306
92,0.141655921936,0.00387001037598,0.00426816940308,0.000957012176514,13.9439599514
93,0.140867948532,0.00406193733215,0.00420880317688,0.00103402137756,14.043792963
94,0.139980077744,0.00410413742065,0.00419998168945,0.000932931900024,14.0633141994
95,0.143664121628,0.00402498245239,0.00408601760864,0.00107979774475,14.4411160946
96,0.139610052109,0.00400304794312,0.00424599647522,0.00100493431091,14.7638771534
97,0.144373893738,0.00436687469482,0.00408411026001,0.000933885574341,14.2845139503
98,0.143393039703,0.00397896766663,0.00424695014954,0.000954866409302,15.0306348801
99,0.144150972366,0.00431895256042,0.00431299209595,0.00106477737427,14.8090121746
