step,run,get,set,free,run_up_to_step
0,0.322125911713,0.0298659801483,0.0297479629517,0.00598502159119,0.291420936584
1,0.306367874146,0.0286757946014,0.0288350582123,0.00612688064575,0.621309041977
2,0.302343130112,0.0296099185944,0.0287652015686,0.00614500045776,0.88755607605
3,0.284461975098,0.0290350914001,0.028783082962,0.00606489181519,1.19581198692
4,0.318402051926,0.0288379192352,0.0286331176758,0.00606203079224,1.44850516319
5,0.286190986633,0.0305449962616,0.028804063797,0.00604295730591,3.16074919701
6,0.667217969894,0.0295269489288,0.0286519527435,0.0061240196228,2.14986300468
7,0.286665916443,0.0304110050201,0.0286710262299,0.00610399246216,2.37283802032
8,0.29581284523,0.0287230014801,0.0332999229431,0.009113073349,2.89404296875
9,0.291398048401,0.0297451019287,0.0286140441895,0.00604200363159,2.96585416794
10,0.306260347366,0.0296950340271,0.0287837982178,0.00602197647095,3.35772490501
11,0.303236722946,0.0298089981079,0.0283560752869,0.0060248374939,3.76102209091
12,0.304795026779,0.0309879779816,0.0310711860657,0.00637292861938,4.16725492477
13,0.32722902298,0.0309128761292,0.0417339801788,0.010381937027,4.18468093872
14,0.301211833954,0.0295939445496,0.0314118862152,0.00670194625854,6.27457094193
15,0.304692029953,0.0305621623993,0.0297439098358,0.00655794143677,4.78851294518
16,0.290271282196,0.0281648635864,0.0293920040131,0.00690197944641,5.458963871
17,0.29664683342,0.0309557914734,0.029590845108,0.00622701644897,5.60836601257
18,0.340023994446,0.0365681648254,0.0286569595337,0.00992608070374,5.70664095879
19,0.313467025757,0.0316159725189,0.0295011997223,0.00650811195374,6.55585718155
20,0.305013895035,0.0307409763336,0.0296738147736,0.00761795043945,7.50654911995
21,0.294364929199,0.0304939746857,0.0285410881042,0.00604200363159,7.07647514343
22,0.429597139359,0.0424621105194,0.0304579734802,0.00601696968079,6.88054609299
23,0.31321310997,0.0328738689423,0.0313239097595,0.00608706474304,7.78896999359
24,0.297751903534,0.0300180912018,0.0298221111298,0.00628018379211,8.12690186501
25,0.294766902924,0.0280089378357,0.0292179584503,0.00614309310913,8.74352407455
26,0.325069904327,0.0368900299072,0.0299339294434,0.00642991065979,9.76108598709
27,0.312553882599,0.0322771072388,0.0288457870483,0.00619220733643,8.78728103638
28,0.289901971817,0.027881860733,0.0299987792969,0.00728011131287,9.32212591171
29,0.288147926331,0.0310528278351,0.0288269519806,0.00604104995728,8.87322998047
30,0.33301782608,0.0278220176697,0.028862953186,0.00679898262024,11.047301054
31,0.28485417366,0.0282900333405,0.0295629501343,0.0064480304718,9.82731604576
32,0.291382074356,0.0276119709015,0.0293731689453,0.00620198249817,10.5076849461
33,0.289999961853,0.0309059619904,0.0299999713898,0.00742387771606,10.7253661156
34,0.286870718002,0.0290238857269,0.0293998718262,0.00622200965881,10.9008700848
35,0.417788028717,0.0399119853973,0.0291309356689,0.00621199607849,11.366052866
36,0.286753892899,0.0286149978638,0.0339779853821,0.00885200500488,11.5620701313
37,0.284344911575,0.0295579433441,0.0290551185608,0.0060670375824,12.2275629044
38,0.297902107239,0.0308589935303,0.0297329425812,0.00603008270264,11.5476200581
39,0.305301189423,0.0306918621063,0.0284957885742,0.00610995292664,12.7904670238
40,0.297913789749,0.0287029743195,0.0308270454407,0.00665187835693,13.1711351871
41,0.285847902298,0.0275068283081,0.0292539596558,0.00603699684143,14.0095121861
42,0.289672851562,0.028345823288,0.028627872467,0.00605297088623,13.7105209827
43,0.28741979599,0.0282089710236,0.0298020839691,0.00641202926636,13.3505990505
44,0.287486076355,0.0291900634766,0.0296530723572,0.00634694099426,14.1141929626
45,0.29153585434,0.0287988185883,0.028911113739,0.00618386268616,14.0760409832
46,0.288370847702,0.0311059951782,0.0320820808411,0.00779390335083,14.1022930145
47,0.292835950851,0.0291609764099,0.03133893013,0.00695204734802,15.6191058159
48,0.289129257202,0.0281879901886,0.0287730693817,0.0062038898468,15.0049290657
49,0.289698839188,0.0281329154968,0.0295598506927,0.00626587867737,15.8818509579
50,0.403179168701,0.0335462093353,0.0288238525391,0.00610494613647,15.5255260468
51,0.285649776459,0.0277760028839,0.0290629863739,0.00621700286865,16.0002479553
52,0.369401931763,0.0343549251556,0.0291469097137,0.00748801231384,16.2383580208
53,0.286765098572,0.030296087265,0.029217004776,0.00618696212769,17.3226821423
54,0.326982021332,0.038321018219,0.0340900421143,0.00707411766052,17.3412351608
55,0.28712439537,0.028783082962,0.0288529396057,0.00613594055176,18.0435121059
56,0.300408840179,0.0281500816345,0.033597946167,0.0074679851532,17.9337251186
57,0.319217205048,0.0295970439911,0.0314140319824,0.00622701644897,18.3926768303
58,0.705239057541,0.0292677879333,0.0296368598938,0.00624489784241,17.7104709148
59,0.286166906357,0.0305871963501,0.0426421165466,0.00842785835266,18.3649091721
60,0.28440618515,0.0274379253387,0.0318360328674,0.00602698326111,18.9100971222
61,0.314206123352,0.0306670665741,0.0290901660919,0.00612807273865,20.6948390007
62,0.372724056244,0.0299270153046,0.0328650474548,0.00614595413208,19.6372969151
63,0.298055171967,0.0290110111237,0.0352740287781,0.00656199455261,19.400113821
64,0.290414094925,0.0294868946075,0.0291631221771,0.00605010986328,19.9641799927
65,0.320353031158,0.0295870304108,0.0303518772125,0.0096070766449,21.4912259579
66,0.295515775681,0.0309269428253,0.0292789936066,0.00611519813538,21.9298250675
67,0.335744857788,0.0299119949341,0.0290749073029,0.00630187988281,20.8159701824
68,0.29328083992,0.0297410488129,0.0292508602142,0.00601100921631,20.976692915
69,0.381921768188,0.0390350818634,0.0432140827179,0.0111629962921,21.3115708828
70,0.29927778244,0.0287179946899,0.0289039611816,0.00628590583801,23.5247189999
71,0.293738126755,0.0297329425812,0.0304100513458,0.00613713264465,22.5514271259
72,0.291007041931,0.0305850505829,0.0289599895477,0.0075261592865,22.5359430313
73,0.295191049576,0.0309219360352,0.028716802597,0.00622510910034,22.4197380543
74,0.813859939575,0.0284159183502,0.0294008255005,0.00618600845337,23.5962250233
75,0.282504081726,0.0264890193939,0.0278289318085,0.00595617294312,24.0408968925
76,0.291605710983,0.0290830135345,0.027841091156,0.00667595863342,23.2871689796
77,0.297902107239,0.0281579494476,0.0298058986664,0.00712394714355,24.1578001976
78,0.302759170532,0.0299651622772,0.0297758579254,0.00615286827087,25.127245903
79,0.314122200012,0.0280168056488,0.0297939777374,0.00650906562805,25.1267330647
80,0.2874147892,0.0333430767059,0.0308949947357,0.00611305236816,24.9396209717
81,0.335148334503,0.0307669639587,0.0302500724792,0.00615215301514,26.3469521999
82,0.318535089493,0.0310659408569,0.029149055481,0.0061469078064,26.8376629353
83,0.293347835541,0.0288701057434,0.0288980007172,0.00620603561401,27.8191869259
84,0.318779230118,0.0285668373108,0.0291938781738,0.00617909431458,26.251955986
85,0.293672800064,0.02876496315,0.0294268131256,0.00716400146484,26.5062851906
86,0.298040390015,0.02867603302,0.030592918396,0.00661206245422,26.7729969025
87,0.294800043106,0.0307219028473,0.0360879898071,0.00749802589417,29.1043159962
88,0.305860042572,0.0536761283875,0.0300889015198,0.00613903999329,28.8078079224
89,0.293414831161,0.0310471057892,0.0288889408112,0.00781297683716,28.2109379768
90,0.28889298439,0.0304470062256,0.0303800106049,0.00610113143921,27.709939003
91,0.290734052658,0.0317080020905,0.030002117157,0.00753402709961,28.7227320671
92,0.299864053726,0.0324528217316,0.0331110954285,0.00698804855347,29.3665881157
93,0.293832778931,0.0353457927704,0.0304319858551,0.00621104240417,30.326187849
94,0.302258968353,0.0294070243835,0.030485868454,0.0063681602478,31.5286169052
95,0.291593790054,0.0291111469269,0.0306391716003,0.00610518455505,31.2689700127
96,0.294508934021,0.0335369110107,0.0299558639526,0.00750803947449,30.0264339447
97,0.328459978104,0.0334742069244,0.0298371315002,0.00614786148071,30.1922080517
98,0.328576803207,0.0290899276733,0.0289878845215,0.00610208511353,30.7323729992
99,0.327964067459,0.0299379825592,0.0318169593811,0.0061149597168,30.9053890705
