step,run,get,set,free,run_up_to_step
0,0.436391830444,0.182919979095,0.183149814606,0.0458471775055,0.445790052414
1,0.423001289368,0.176851034164,0.191448926926,0.0674300193787,0.849493026733
2,0.446343898773,0.184758901596,0.19217300415,0.0508460998535,1.34437680244
3,0.437423229218,0.193878889084,0.186011075974,0.0472540855408,1.77160596848
4,0.446165084839,0.177851915359,0.189842939377,0.0491530895233,2.255600214
5,0.430371999741,0.177204847336,0.18586397171,0.0512351989746,2.66965794563
6,0.419911146164,0.185190200806,0.174765825272,0.0494930744171,3.03921508789
7,0.423511981964,0.200761079788,0.204653024673,0.0505709648132,3.93186807632
8,0.44291806221,0.173729896545,0.189708948135,0.0504579544067,4.12157702446
9,0.420715808868,0.181793212891,0.194386005402,0.0549569129944,4.46271395683
10,0.435619115829,0.179296016693,0.197829008102,0.0485579967499,5.08939099312
11,0.438571929932,0.194738864899,0.176461935043,0.057400226593,5.19817090034
12,0.421519994736,0.189621925354,0.204908132553,0.0509531497955,5.57216882706
13,0.834933042526,0.198694944382,0.193630933762,0.0611159801483,6.26924610138
14,0.432378053665,0.180798768997,0.177766084671,0.0448589324951,6.7714009285
15,0.433166742325,0.182439088821,0.182533025742,0.0483648777008,7.10616803169
16,0.580596923828,0.197264909744,0.176142930984,0.0419390201569,7.84817910194
17,0.435086727142,0.173825025558,0.18693780899,0.0463528633118,8.10002112389
18,0.445955753326,0.195199966431,0.211365938187,0.0453729629517,8.64939308167
19,0.448804140091,0.179156064987,0.181555986404,0.0485088825226,9.0344851017
20,0.436137199402,0.178889036179,0.197720050812,0.0462079048157,9.54814910889
21,0.432775974274,0.178586006165,0.190060853958,0.0631468296051,9.62062215805
22,0.436174154282,0.183557987213,0.186511993408,0.0661571025848,12.4766590595
23,0.43280506134,0.161198139191,0.18013715744,0.0411839485168,11.2298429012
24,0.426398038864,0.169975042343,0.179785013199,0.0434348583221,11.5869488716
25,0.421338796616,0.203022003174,0.178586959839,0.0472078323364,11.8926930428
26,0.430671930313,0.180102109909,0.178364992142,0.0485408306122,12.0915179253
27,0.424321889877,0.171298027039,0.180719852448,0.050929069519,12.8615980148
28,0.431978940964,0.177573919296,0.178246974945,0.0421848297119,13.1720240116
29,0.477432727814,0.180130958557,0.173741102219,0.0721399784088,13.4409739971
30,0.433669090271,0.168807983398,0.182055950165,0.0445368289948,14.3775539398
31,0.44168806076,0.1657538414,0.217461824417,0.045923948288,14.183316946
32,0.420742034912,0.185085058212,0.181249856949,0.047956943512,15.0407998562
33,0.446589946747,0.170949935913,0.170935869217,0.0488340854645,15.7549500465
34,0.412905216217,0.200289964676,0.181218147278,0.0435950756073,15.6257379055
35,0.455301046371,0.175576925278,0.18054318428,0.0484070777893,15.8543181419
36,0.435641050339,0.16148519516,0.177099943161,0.0444362163544,16.2961609364
37,0.416553020477,0.171792984009,0.184685945511,0.0434370040894,16.7738308907
38,0.441648960114,0.177680015564,0.188111066818,0.0414381027222,17.5630099773
39,0.431186914444,0.171995162964,0.184763908386,0.0467128753662,18.0126428604
40,0.484417676926,0.180056095123,0.192318916321,0.0498249530792,18.6957499981
41,0.45397901535,0.165582180023,0.192671060562,0.0461640357971,19.0700318813
42,0.43473815918,0.187698125839,0.202688932419,0.0637249946594,19.6057868004
43,0.437294244766,0.173312902451,0.18794798851,0.0481908321381,19.8113698959
44,0.416127920151,0.166939020157,0.193010091782,0.0462198257446,20.1998200417
45,0.416087865829,0.171132087708,0.187056064606,0.0576298236847,19.8601200581
46,0.415571928024,0.185177087784,0.194545030594,0.0509049892426,20.4620978832
47,0.420021057129,0.167010068893,0.182285785675,0.0462591648102,20.8565948009
48,0.413131952286,0.178894996643,0.183672904968,0.0489821434021,21.8015129566
49,0.422278881073,0.167018890381,0.183285951614,0.0471980571747,21.9251799583
50,0.417351961136,0.169124126434,0.198754072189,0.0555689334869,22.5292110443
51,0.42295384407,0.16246008873,0.181306838989,0.0491359233856,22.4828879833
52,0.432312011719,0.182455062866,0.187386035919,0.0550889968872,23.3687300682
53,0.444841146469,0.197994947433,0.182489156723,0.0447371006012,24.7380139828
54,0.429776906967,0.165191888809,0.17898106575,0.0475561618805,24.3917121887
55,0.423990011215,0.172523975372,0.176075935364,0.0690748691559,25.4357988834
56,0.441067934036,0.185088157654,0.195055007935,0.0513370037079,26.0317640305
57,0.433005094528,0.173541069031,0.177690029144,0.047336101532,26.7602720261
58,0.478055953979,0.17355799675,0.191526889801,0.0521919727325,26.6925079823
59,0.428208827972,0.179933071136,0.186798095703,0.0520689487457,28.0231301785
60,0.422928094864,0.173522949219,0.176770925522,0.0482580661774,26.7662501335
61,0.436314105988,0.176333904266,0.188439846039,0.0548169612885,27.5071549416
62,0.425040960312,0.165881872177,0.185687065125,0.0404500961304,28.6925499439
63,0.425431013107,0.170866966248,0.180197954178,0.049341917038,28.6919879913
64,0.41357088089,0.195286989212,0.191303014755,0.0472049713135,29.7721419334
65,0.423122167587,0.184237003326,0.183003902435,0.0569591522217,30.1361939907
66,0.444847106934,0.180107831955,0.176116943359,0.0449838638306,30.7738800049
67,0.446182966232,0.162975072861,0.169826984406,0.0631051063538,30.3291869164
68,0.435221195221,0.167233943939,0.1746571064,0.0471639633179,31.4094388485
69,0.444006919861,0.169630050659,0.192205905914,0.0521919727325,31.495541811
70,0.452850818634,0.167294025421,0.188738107681,0.0472791194916,31.6268219948
71,0.41695690155,0.16704583168,0.172236204147,0.0487449169159,31.6581029892
72,0.416591882706,0.179027080536,0.194962978363,0.049525976181,32.0134959221
73,0.425812005997,0.16064620018,0.207612037659,0.04705286026,32.7522649765
74,0.420577049255,0.167939186096,0.178336858749,0.0550298690796,33.9541099072
75,0.54138302803,0.174414873123,0.175402164459,0.0475740432739,33.8792731762
76,0.412858963013,0.174083948135,0.191965103149,0.0493359565735,34.6716890335
77,0.428527832031,0.179833889008,0.220486879349,0.0545477867126,36.2794060707
78,0.483103990555,0.178350925446,0.193120002747,0.0557661056519,35.9717319012
79,0.436950683594,0.194775819778,0.179280996323,0.049880027771,36.5358371735
80,0.430624961853,0.169656038284,0.192749977112,0.0512681007385,36.9537870884
81,0.427628993988,0.176978111267,0.180095911026,0.0487620830536,37.7799110413
82,0.433284044266,0.182359933853,0.183947086334,0.0541870594025,37.7528619766
83,0.426999092102,0.162271022797,0.187824010849,0.0502109527588,39.1512470245
84,0.458758831024,0.177929162979,0.182229995728,0.0507071018219,39.2404158115
85,0.513190984726,0.201427936554,0.178250074387,0.0505011081696,38.7867050171
86,0.427284955978,0.179686069489,0.216933965683,0.0569977760315,40.9885420799
87,0.452450990677,0.189457893372,0.211936950684,0.0548031330109,40.1113131046
88,0.44402384758,0.192454099655,0.203545093536,0.0592570304871,39.7924909592
89,0.626196146011,0.23148393631,0.180690050125,0.050225019455,39.4361810684
90,0.431858062744,0.176593065262,0.192492961884,0.0454788208008,40.4425339699
91,0.435135126114,0.176620006561,0.188755989075,0.0493469238281,40.0806629658
92,0.468127965927,0.205188035965,0.170466899872,0.0449259281158,42.2441010475
93,0.421940803528,0.168396949768,0.180666208267,0.0497670173645,41.3642070293
94,0.433096170425,0.17595410347,0.169157981873,0.0398750305176,41.6585869789
95,0.438973903656,0.174705982208,0.18035197258,0.0462100505829,42.3688080311
96,0.432510852814,0.173485040665,0.185779094696,0.0469789505005,41.5283150673
97,0.4450507164,0.177407979965,0.200840950012,0.0453019142151,41.6391642094
98,0.415518045425,0.171732902527,0.191311836243,0.0502688884735,43.0842840672
99,0.432379007339,0.189223051071,0.179587125778,0.0485389232635,42.577493906
