step,run,get,set,free,run_up_to_step
0,0.759958982468,0.171812057495,0.219816923141,0.0683290958405,0.718854188919
1,0.687288045883,0.211276054382,0.178206920624,0.0540311336517,1.44003391266
2,0.687503814697,0.159508943558,0.188090085983,0.0497119426727,2.10988402367
3,0.665328025818,0.166238069534,0.176357030869,0.0475080013275,2.85548710823
4,0.646552801132,0.165183782578,0.182851076126,0.0530250072479,3.40321397781
5,0.657789945602,0.156846046448,0.196371078491,0.0482909679413,4.04215502739
6,0.647060871124,0.173542022705,0.173084974289,0.0475370883942,5.09953594208
7,0.646384954453,0.173346996307,0.175312042236,0.0472331047058,5.85298991203
8,0.801687002182,0.267648935318,0.176217079163,0.0483219623566,6.04220199585
9,0.655653715134,0.158101081848,0.175230026245,0.0488920211792,6.88853096962
10,0.669799089432,0.159852027893,0.173367977142,0.0547091960907,8.37945985794
11,0.655040740967,0.151345014572,0.175039052963,0.04816198349,9.89330482483
12,0.671845912933,0.155090808868,0.176607847214,0.0480949878693,8.58977293968
13,0.687694072723,0.158452033997,0.1833319664,0.0568220615387,9.77404499054
14,0.691605806351,0.191874980927,0.173432826996,0.047502040863,10.9696581364
15,0.702893257141,0.164804935455,0.173190116882,0.0449750423431,10.7906699181
16,0.961841821671,0.19969201088,0.173112154007,0.0474720001221,12.0297448635
17,0.655102014542,0.161684036255,0.171635866165,0.047434091568,13.5288078785
18,0.64963889122,0.158335208893,0.174190044403,0.048278093338,13.3754990101
19,1.07278895378,0.223948001862,0.192104101181,0.0521168708801,14.0927112103
20,0.677700042725,0.163801908493,0.305402040482,0.0542089939117,14.345993042
21,0.67151594162,0.164667844772,0.176759958267,0.0478160381317,15.5935881138
22,1.20823693275,0.158386945724,0.172126054764,0.047523021698,15.3271009922
23,0.674149990082,0.15771317482,0.176278829575,0.0481610298157,16.2030899525
24,0.904803752899,0.241013765335,0.191545009613,0.0476989746094,16.7010951042
25,0.670771837234,0.162999153137,0.174531936646,0.0455660820007,17.6218919754
26,0.69102191925,0.160921812057,0.173882961273,0.0501232147217,18.9313621521
27,0.660367965698,0.153615951538,0.184834957123,0.0475580692291,19.8478078842
28,0.712806940079,0.157134056091,0.182090044022,0.0499739646912,20.2151200771
29,0.680536985397,0.154679059982,0.177186012268,0.0492038726807,21.2285628319
30,0.69933795929,0.208348035812,0.174191951752,0.0485489368439,21.4460270405
31,0.670880079269,0.159935951233,0.175709009171,0.0485339164734,22.2198870182
32,0.652546882629,0.157527923584,0.175055027008,0.0706570148468,24.4629020691
33,0.670720100403,0.158704042435,0.18249797821,0.0471229553223,23.3488218784
34,0.673779249191,0.162971973419,0.192717075348,0.0476009845734,24.1243019104
35,0.657491922379,0.154720783234,0.171849012375,0.0463950634003,24.3554260731
36,0.680905818939,0.151111841202,0.177230119705,0.0509428977966,25.8010950089
37,0.703137159348,0.16320514679,0.177829027176,0.0476639270782,25.7192089558
38,0.650489807129,0.159924983978,0.180726051331,0.0474548339844,26.2971138954
39,0.678712129593,0.157675027847,0.178693056107,0.0483210086823,27.0809319019
40,0.65568780899,0.162323951721,0.193253040314,0.0470390319824,27.2870049477
41,0.672618150711,0.181280851364,0.173923015594,0.0473370552063,28.5291128159
42,0.651767015457,0.155879974365,0.175981998444,0.0476717948914,36.2273368835
43,0.679187059402,0.163016796112,0.180624961853,0.0485551357269,30.1058239937
44,0.65120100975,0.159158945084,0.235381126404,0.0475401878357,30.5251939297
45,0.649875879288,0.160035133362,0.206799983978,0.0482909679413,30.7354249954
46,0.717141866684,0.157141923904,0.178442001343,0.045480966568,32.001773119
47,0.679837942123,0.156394958496,0.175166130066,0.0480928421021,32.7875790596
48,0.661039829254,0.162040948868,0.179435014725,0.0497620105743,33.4944050312
49,1.00839090347,0.15744805336,0.176414012909,0.0475511550903,33.7406477928
50,0.655220746994,0.181962966919,0.19649887085,0.0464580059052,36.1125221252
51,0.673056840897,0.161278009415,0.181154966354,0.0500440597534,35.1376640797
52,0.682879209518,0.16085600853,0.17853307724,0.0477259159088,36.1934859753
53,0.649540185928,0.158623933792,0.1752140522,0.047513961792,37.5118370056
54,0.659567832947,0.154085874557,0.180738925934,0.0473191738129,38.3846309185
55,1.0220811367,0.175309181213,0.183687925339,0.0537760257721,38.9336049557
56,0.671414852142,0.160545825958,0.1754322052,0.0481860637665,38.152354002
57,0.649828910828,0.162661075592,0.17574095726,0.0475258827209,39.186743021
58,0.704085111618,0.158668994904,0.174268960953,0.0480978488922,39.8859519958
59,0.653904914856,0.157835006714,0.175185918808,0.047532081604,42.66924119
60,0.652108192444,0.173460960388,0.178164958954,0.0471680164337,41.4122779369
61,0.694704294205,0.160487890244,0.191468000412,0.0475249290466,43.8091111183
62,0.655782938004,0.160099983215,0.174971103668,0.0473120212555,44.1688120365
63,0.684136867523,0.157033920288,0.175644874573,0.0475521087646,44.9215579033
64,0.654045820236,0.157718896866,0.190845966339,0.0482950210571,43.8511681557
65,1.12293195724,0.156305074692,0.191297054291,0.0502741336823,45.090831995
66,0.676944971085,0.15793800354,0.177113056183,0.049455165863,46.6831958294
67,1.08229899406,0.161122083664,0.176450014114,0.0482568740845,46.1441001892
68,0.734851837158,0.16507101059,0.17898607254,0.0478219985962,47.5941269398
69,0.703668832779,0.162863969803,0.191479921341,0.053414106369,49.5457539558
70,0.658854961395,0.162740945816,0.185807943344,0.0532698631287,48.8469350338
71,0.664079904556,0.163143873215,0.175737857819,0.0476989746094,50.928344965
72,0.676580905914,0.169409036636,0.18027806282,0.0528149604797,50.6776559353
73,0.665542840958,0.161741018295,0.179553985596,0.0483310222626,51.6460809708
74,0.735744953156,0.159469127655,0.178295135498,0.0489280223846,51.7041258812
75,0.812878370285,0.166677951813,0.189815998077,0.0678908824921,52.65989995
76,0.656054973602,0.160079956055,0.174978017807,0.0472519397736,54.650482893
77,0.77827000618,0.207663059235,0.178285121918,0.0496349334717,54.9945619106
78,0.700305700302,0.160389900208,0.183714866638,0.0481300354004,55.5212390423
79,0.676085948944,0.152713060379,0.162224054337,0.0453050136566,53.9685921669
80,0.65968298912,0.138947963715,0.163743019104,0.043937921524,54.2630548477
81,0.649456739426,0.144585847855,0.16224694252,0.0443480014801,58.2385962009
82,0.68074297905,0.149154186249,0.181391954422,0.0643320083618,55.7038729191
83,0.654327869415,0.180157899857,0.176392793655,0.0474309921265,57.7001919746
84,0.669761896133,0.156850814819,0.17484498024,0.0532910823822,57.1773328781
85,0.657069921494,0.181999921799,0.177352905273,0.0681428909302,58.7435839176
86,0.674112081528,0.162140130997,0.176737070084,0.0481698513031,59.0234930515
87,0.706329107285,0.160276889801,0.176615953445,0.047956943512,61.6118459702
88,0.660635948181,0.160913944244,0.180433034897,0.0502469539642,62.9288232327
89,0.660837173462,0.160612821579,0.176658153534,0.0492060184479,61.2594180107
90,0.733931779861,0.162491083145,0.176758050919,0.0507771968842,61.9457628727
91,0.685929059982,0.159445047379,0.181337833405,0.0494389533997,62.438724041
92,1.31200766563,0.167463064194,0.179316997528,0.0525479316711,64.043492794
93,1.36716866493,0.160865068436,0.179337024689,0.0492050647736,63.7294409275
94,0.688465833664,0.16318321228,0.184314012527,0.0477800369263,64.3679850101
95,0.661360263824,0.162137031555,0.201914072037,0.0484931468964,66.3591709137
96,0.670409917831,0.162267923355,0.176470041275,0.0486950874329,67.756319046
97,0.662977933884,0.191041946411,0.175943136215,0.0472440719604,68.3775818348
98,0.682121038437,0.159599065781,0.178241968155,0.0463669300079,68.7792980671
99,0.664577245712,0.187254905701,0.200552940369,0.0477919578552,68.9828679562
