step,run,get,set,free,run_up_to_step
0,0.173124074936,0.0038058757782,0.00337100028992,0.000587940216064,0.145364999771
1,0.140597820282,0.00321698188782,0.00352787971497,0.000639915466309,0.287541151047
2,0.139220237732,0.00303292274475,0.00327897071838,0.000638008117676,0.431597948074
3,0.138998746872,0.00308799743652,0.00338912010193,0.000725984573364,0.589119911194
4,0.14126086235,0.00322008132935,0.00323605537415,0.000649929046631,0.751410961151
5,0.142694950104,0.00323796272278,0.00327801704407,0.000724077224731,0.871052026749
6,0.146350383759,0.00332999229431,0.00324583053589,0.000710964202881,1.01969194412
7,0.144810914993,0.00311493873596,0.00362706184387,0.00111889839172,1.16080999374
8,0.144785165787,0.00307607650757,0.0033860206604,0.000786066055298,1.43879508972
9,0.165355205536,0.00353288650513,0.00332999229431,0.000755786895752,1.45276999474
10,0.141497135162,0.00301194190979,0.00338101387024,0.000879049301147,2.1909430027
11,0.140444993973,0.00339889526367,0.00329303741455,0.000761032104492,1.73054504395
12,0.142194032669,0.00354886054993,0.0033700466156,0.000772953033447,1.96186089516
13,0.138869047165,0.0030460357666,0.00350618362427,0.000826120376587,2.03178215027
14,0.175806045532,0.00368809700012,0.00365996360779,0.00084400177002,2.31197690964
15,0.139225244522,0.00325798988342,0.00325202941895,0.000756025314331,2.69839692116
16,0.160257101059,0.00324487686157,0.00330209732056,0.000829935073853,3.0869910717
17,0.141090154648,0.00342297554016,0.00330495834351,0.00088095664978,2.69087696075
18,0.149938821793,0.00363397598267,0.00331592559814,0.000852108001709,2.82154893875
19,0.149461269379,0.0032320022583,0.00341892242432,0.000778913497925,3.03297996521
20,0.144849061966,0.00340986251831,0.00358819961548,0.00081205368042,3.17770504951
21,0.146202087402,0.00360822677612,0.00372219085693,0.000862836837769,3.2884619236
22,0.145000219345,0.00351905822754,0.00348806381226,0.00078821182251,3.87959599495
23,0.145352363586,0.00329995155334,0.00344705581665,0.000792026519775,4.19792795181
24,0.139240980148,0.00333309173584,0.00324702262878,0.00074291229248,3.64752912521
25,0.138591766357,0.00302910804749,0.00326085090637,0.000740051269531,4.29552578926
26,0.183811903,0.00341105461121,0.00324487686157,0.000740051269531,3.96594810486
27,0.141652107239,0.00318002700806,0.00367999076843,0.000811100006104,4.34384894371
28,0.139530897141,0.0033061504364,0.00340700149536,0.000761985778809,4.36878681183
29,0.143542051315,0.00320100784302,0.00362515449524,0.000777006149292,5.21659994125
30,0.138732910156,0.00316786766052,0.00354385375977,0.000749111175537,4.98725700378
31,0.138401985168,0.00311303138733,0.00338196754456,0.000749111175537,5.32171177864
32,0.145310163498,0.00336003303528,0.00363898277283,0.000788927078247,5.43713092804
33,0.138829946518,0.00303292274475,0.00352001190186,0.000815868377686,5.94171690941
34,0.14985203743,0.00320291519165,0.00343489646912,0.000770092010498,5.61304616928
35,0.168346881866,0.00372910499573,0.00359606742859,0.000832080841064,5.82387900352
36,0.139863967896,0.00323081016541,0.0033860206604,0.000764131546021,6.30586409569
37,0.146754980087,0.00338697433472,0.00370121002197,0.000830888748169,6.1881070137
38,0.170085906982,0.00354290008545,0.00341010093689,0.000777959823608,6.21461987495
39,0.138421058655,0.00298690795898,0.0033130645752,0.000805854797363,6.74505591393
40,0.138617992401,0.00315403938293,0.00333499908447,0.000768899917603,6.15683221817
41,0.138136863708,0.0030369758606,0.00340819358826,0.00090217590332,6.87516498566
42,0.139537096024,0.00321793556213,0.00350499153137,0.000766038894653,7.1624109745
43,0.144877672195,0.00333499908447,0.00335597991943,0.00077486038208,6.8592171669
44,0.205148220062,0.00356507301331,0.00328397750854,0.000777006149292,7.61228585243
45,0.146905183792,0.00326490402222,0.00334310531616,0.00074291229248,7.2128059864
46,0.171293020248,0.0033860206604,0.00351309776306,0.000794172286987,7.39573502541
47,0.146226882935,0.00313901901245,0.00342202186584,0.000766038894653,7.807502985
48,0.150355100632,0.00349998474121,0.00336599349976,0.000792980194092,7.93249797821
49,0.144860982895,0.00296092033386,0.00335812568665,0.000744104385376,8.4704208374
50,0.147295951843,0.00331616401672,0.00342202186584,0.000823020935059,8.26158905029
51,0.141527175903,0.0032479763031,0.00348806381226,0.000747919082642,8.52693390846
52,0.139127016068,0.00327301025391,0.00333881378174,0.000761032104492,8.39188504219
53,0.145971775055,0.00338101387024,0.00363183021545,0.000916957855225,8.10348701477
54,0.158696889877,0.00375509262085,0.003662109375,0.000968933105469,8.83392119408
55,0.1395611763,0.00295901298523,0.00337195396423,0.000792980194092,8.63118886948
56,0.142587184906,0.00324511528015,0.00349187850952,0.00101208686829,9.23931312561
57,0.161142110825,0.00364804267883,0.00351810455322,0.000756978988647,9.13958191872
58,0.141330003738,0.00331902503967,0.00342202186584,0.000797986984253,9.04211997986
59,0.147997140884,0.00332593917847,0.00328397750854,0.000744104385376,9.84922409058
60,0.140262126923,0.00330185890198,0.00361204147339,0.000904083251953,8.99898505211
61,0.13808965683,0.00306797027588,0.00356793403625,0.000883102416992,11.2123019695
62,0.138829946518,0.00318813323975,0.00324583053589,0.000755071640015,9.79719901085
63,0.170398950577,0.00322008132935,0.00358819961548,0.000893115997314,10.2293720245
64,0.138995885849,0.00327205657959,0.00353908538818,0.000830888748169,10.0100588799
65,0.141037940979,0.00320100784302,0.00354099273682,0.000790119171143,10.4617359638
66,0.142435789108,0.00321412086487,0.00332188606262,0.000793218612671,10.6178228855
67,0.166039943695,0.00305700302124,0.0035240650177,0.000828981399536,10.4582231045
68,0.147197961807,0.0033061504364,0.00331997871399,0.000748157501221,11.5882229805
69,0.599052190781,0.00338387489319,0.00354814529419,0.000914812088013,10.8767998219
70,0.137904882431,0.00299310684204,0.00329089164734,0.000775098800659,11.3542330265
71,0.143658876419,0.00321507453918,0.00347805023193,0.00075888633728,11.2503781319
72,0.143856048584,0.00321292877197,0.00334787368774,0.000763893127441,11.6371068954
73,0.14218711853,0.00302600860596,0.00332498550415,0.00075101852417,11.492057085
74,0.22262597084,0.00395083427429,0.00339698791504,0.000935077667236,12.7752490044
75,0.144608020782,0.00357985496521,0.00324702262878,0.000741958618164,11.5907139778
76,0.144097089767,0.00334596633911,0.00341510772705,0.000792980194092,12.2810311317
77,0.13965010643,0.00314807891846,0.00336098670959,0.00075101852417,12.4475979805
78,0.140870094299,0.00307893753052,0.00331401824951,0.000833034515381,12.1496920586
79,0.141874313354,0.00299406051636,0.00331902503967,0.000741004943848,13.0104279518
80,0.138978004456,0.00310897827148,0.00335788726807,0.000773906707764,12.1682319641
81,0.174534797668,0.00316596031189,0.00333309173584,0.000810146331787,12.7280128002
82,0.140569925308,0.00340795516968,0.00347495079041,0.000828981399536,12.4437329769
83,0.145838022232,0.00341105461121,0.00331592559814,0.000789880752563,13.1784241199
84,0.14299082756,0.00311994552612,0.00347805023193,0.000833034515381,13.0579900742
85,0.144476890564,0.00301098823547,0.00357794761658,0.000753164291382,13.7009968758
86,0.140757083893,0.00325417518616,0.00333285331726,0.000751972198486,13.4714140892
87,0.138990879059,0.00329685211182,0.00341010093689,0.000775098800659,13.9921472073
88,0.14545083046,0.00331687927246,0.00328707695007,0.000756025314331,13.644742012
89,0.144506931305,0.00319886207581,0.00337600708008,0.000761032104492,13.638614893
90,0.145875930786,0.00298881530762,0.00328922271729,0.000871896743774,14.1399300098
91,0.150457143784,0.00313305854797,0.00331521034241,0.000741004943848,14.6401498318
92,0.143825054169,0.00319600105286,0.00340795516968,0.000811100006104,14.5258719921
93,0.164165973663,0.00354099273682,0.00347900390625,0.000764131546021,14.3046700954
94,0.143457174301,0.00322008132935,0.00336289405823,0.000744104385376,14.4724152088
95,0.167754888535,0.00331401824951,0.00338888168335,0.000831842422485,14.9210529327
96,0.139947891235,0.00327706336975,0.0041720867157,0.000931978225708,16.0719931126
97,0.14167714119,0.00330185890198,0.00345802307129,0.000761985778809,15.0675339699
98,0.155627250671,0.00305390357971,0.00331997871399,0.000783205032349,15.6172389984
99,0.157083272934,0.0031681060791,0.00328779220581,0.00075101852417,15.8333089352
