step,run,get,set,free,run_up_to_step
0,0.267218112946,0.00431299209595,0.0046980381012,0.000949859619141,0.300027132034
1,0.258723974228,0.00416803359985,0.00502395629883,0.00114393234253,0.509923934937
2,0.267024993896,0.00511813163757,0.00474905967712,0.00112390518188,0.831732988358
3,0.293163061142,0.00430488586426,0.00472116470337,0.00103998184204,1.02116298676
4,0.263883113861,0.00435185432434,0.00469088554382,0.00109505653381,1.29666900635
5,0.265031099319,0.00445008277893,0.00473499298096,0.00120091438293,1.99807786942
6,0.260484933853,0.00454092025757,0.00512599945068,0.00125312805176,1.83815288544
7,0.279250144958,0.00465202331543,0.00473880767822,0.00110006332397,2.28915190697
8,0.254137039185,0.00434589385986,0.00472784042358,0.0010199546814,2.29664897919
9,0.267892122269,0.00483298301697,0.00474095344543,0.00105977058411,3.09744787216
10,0.253353834152,0.00459790229797,0.00472807884216,0.00108098983765,3.56571483612
11,0.264246225357,0.00470590591431,0.00475192070007,0.00110387802124,3.29987001419
12,0.266614198685,0.0044379234314,0.00469422340393,0.00101900100708,3.99942517281
13,0.25484418869,0.00461506843567,0.00475001335144,0.00107383728027,3.78170013428
14,0.257858037949,0.00482106208801,0.00481581687927,0.00111794471741,3.94853401184
15,0.248607873917,0.00449204444885,0.00468301773071,0.00101399421692,4.57909488678
16,0.247619152069,0.00464701652527,0.00473093986511,0.00101208686829,4.26961898804
17,0.260564088821,0.00420188903809,0.00473594665527,0.00104594230652,4.53793883324
18,0.252444028854,0.00462102890015,0.00470614433289,0.00112104415894,5.01958680153
19,0.257874011993,0.00474405288696,0.00471901893616,0.00105094909668,5.31865000725
20,0.266027927399,0.00460314750671,0.00476503372192,0.00101590156555,5.90697908401
21,0.256100177765,0.00421786308289,0.00483298301697,0.00102186203003,6.58822107315
22,0.264390945435,0.00483894348145,0.00481510162354,0.00119996070862,5.99901103973
23,0.303651094437,0.00450277328491,0.00484895706177,0.00115919113159,6.64420604706
24,0.259162187576,0.00473117828369,0.00474786758423,0.00107002258301,7.5335021019
25,0.262506008148,0.00436592102051,0.00492095947266,0.00104689598083,7.54350304604
26,0.254958152771,0.0042450428009,0.00483703613281,0.00107598304749,7.08368086815
27,0.287102937698,0.0048451423645,0.00470304489136,0.00101590156555,7.64447498322
28,0.249377012253,0.00424909591675,0.00475192070007,0.00104594230652,7.97506403923
29,0.252552032471,0.0043249130249,0.00470089912415,0.0010130405426,7.70953989029
30,0.270883083344,0.00461792945862,0.00479316711426,0.00102400779724,8.21265101433
31,0.260207891464,0.00440192222595,0.00487589836121,0.00112795829773,9.17909693718
32,0.260894775391,0.00422406196594,0.00476098060608,0.00105214118958,9.5046942234
33,0.252204179764,0.00424385070801,0.00490403175354,0.00109195709229,9.37112808228
34,0.249242782593,0.00440907478333,0.00474905967712,0.00102400779724,9.45662212372
35,0.24494099617,0.00448703765869,0.00479793548584,0.00108194351196,9.66665410995
36,0.252601861954,0.00437307357788,0.004802942276,0.00106692314148,10.3252699375
37,0.262074947357,0.00434708595276,0.00478196144104,0.00108981132507,10.5067110062
38,0.29740691185,0.00440192222595,0.00501894950867,0.00126099586487,10.6624600887
39,0.247887134552,0.00437307357788,0.00483798980713,0.00111198425293,10.8241550922
40,0.25036406517,0.00429701805115,0.00475096702576,0.00104117393494,11.2244319916
41,0.314382076263,0.00450587272644,0.00472187995911,0.00114488601685,11.2500600815
42,0.252965927124,0.00426387786865,0.00476908683777,0.00101399421692,11.6703369617
43,0.296108961105,0.00429892539978,0.00488495826721,0.0010712146759,12.07472682
44,0.245146036148,0.00432300567627,0.00470614433289,0.00113105773926,12.4832549095
45,0.27782702446,0.00423622131348,0.00467205047607,0.00104308128357,12.5882511139
46,0.257668972015,0.00425004959106,0.00485491752625,0.00110220909119,12.8808631897
47,0.288136720657,0.00432705879211,0.00478410720825,0.00107908248901,13.0865077972
48,0.288608074188,0.00433015823364,0.004714012146,0.00103497505188,13.4033100605
49,0.273804187775,0.00460004806519,0.00481009483337,0.00102591514587,13.420897007
50,0.278175830841,0.00444602966309,0.00485801696777,0.00109195709229,14.2627248764
51,0.260835170746,0.00449013710022,0.00479412078857,0.00101685523987,13.7800028324
52,0.253808021545,0.00462293624878,0.0046820640564,0.00108313560486,14.5455658436
53,0.249472856522,0.00420999526978,0.00593495368958,0.00142002105713,14.8632440567
54,0.255848884583,0.00478100776672,0.00469994544983,0.00106406211853,15.1556448936
55,0.251272916794,0.00430488586426,0.0048999786377,0.00112509727478,16.0628228188
56,0.274278879166,0.0044538974762,0.00485515594482,0.0010461807251,15.9859879017
57,0.253015995026,0.00430798530579,0.00476694107056,0.00108218193054,15.3772749901
58,0.286328077316,0.0045690536499,0.00479698181152,0.00108599662781,16.1056408882
59,0.253111124039,0.00435018539429,0.00482201576233,0.0011100769043,16.7218170166
60,0.280755996704,0.00441002845764,0.00484609603882,0.00101518630981,16.3220579624
61,0.25644493103,0.00425577163696,0.00471901893616,0.00104403495789,17.312525034
62,0.265567779541,0.00480318069458,0.00482702255249,0.00137901306152,17.3637399673
63,0.266044139862,0.00438499450684,0.00473999977112,0.00104093551636,17.5331919193
64,0.267639160156,0.00426483154297,0.00465989112854,0.00106000900269,17.8473269939
65,0.294091939926,0.00443720817566,0.00468707084656,0.00111889839172,17.9838140011
66,0.270188331604,0.00441002845764,0.00460910797119,0.0010781288147,18.6930749416
67,0.268589019775,0.00420093536377,0.00472211837769,0.00111699104309,19.2345628738
68,0.253516197205,0.00423407554626,0.00470995903015,0.00104093551636,19.016067028
69,0.262166976929,0.00422692298889,0.00471496582031,0.00107192993164,18.5598521233
70,0.257392883301,0.00453996658325,0.00513195991516,0.00120210647583,19.0579509735
71,0.25199508667,0.00412321090698,0.00464701652527,0.00101494789124,20.3149819374
72,0.247930049896,0.00421214103699,0.00457906723022,0.00104713439941,19.4839069843
73,0.259402990341,0.00415396690369,0.00490808486938,0.00121402740479,19.8734970093
74,0.253929853439,0.00447201728821,0.00461578369141,0.00101184844971,20.8638358116
75,0.249352931976,0.00414204597473,0.00463700294495,0.00107097625732,20.062983036
76,0.248029947281,0.00462698936462,0.00463700294495,0.00112390518188,20.4022271633
77,0.256263971329,0.00446105003357,0.00461912155151,0.0010461807251,21.8057699203
78,0.253012657166,0.00447916984558,0.00470304489136,0.00107598304749,21.2157638073
79,0.276248931885,0.0042359828949,0.00493907928467,0.00106191635132,21.2097990513
80,0.250549077988,0.00416707992554,0.00466394424438,0.00124907493591,22.8294842243
81,0.258262872696,0.00437712669373,0.00490498542786,0.00102186203003,22.9072170258
82,0.258463859558,0.00433397293091,0.0050060749054,0.00110292434692,23.0490570068
83,0.296760320663,0.00426602363586,0.00462794303894,0.0011351108551,23.5726418495
84,0.255696296692,0.00417709350586,0.00483894348145,0.00108098983765,22.751666069
85,0.249773979187,0.0041401386261,0.00463485717773,0.00105500221252,22.7987210751
86,0.288987874985,0.004065990448,0.00462484359741,0.00103878974915,23.4827430248
87,0.256975889206,0.00404906272888,0.00474190711975,0.0011248588562,23.1854140759
88,0.256904125214,0.00419807434082,0.00463199615479,0.00104689598083,23.538244009
89,0.256685972214,0.00443696975708,0.00464105606079,0.00105214118958,24.3288378716
90,0.252587080002,0.0041139125824,0.00456809997559,0.00105214118958,24.1091430187
91,0.251364946365,0.00436401367188,0.00481486320496,0.00108695030212,24.9522750378
92,0.262443065643,0.00412392616272,0.00479602813721,0.00114703178406,25.0760929585
93,0.289134979248,0.00504398345947,0.00468111038208,0.00103998184204,25.459884882
94,0.248439073563,0.00478601455688,0.00464200973511,0.00109601020813,25.5262088776
95,0.250643014908,0.00406908988953,0.00464200973511,0.00106811523438,25.318171978
96,0.249799966812,0.00415301322937,0.00469303131104,0.00106406211853,25.6297450066
97,0.250033140182,0.00421786308289,0.00471305847168,0.00107598304749,25.465775013
98,0.253059864044,0.00459599494934,0.00471210479736,0.00104808807373,27.656206131
99,0.256278038025,0.00411295890808,0.00575494766235,0.00103998184204,27.1564750671
