step,run,get,set,free,run_up_to_step
0,0.326841115952,0.00936484336853,0.00974297523499,0.000946998596191,0.326890945435
1,0.316303014755,0.0084331035614,0.00988101959229,0.000943899154663,0.647798061371
2,0.311008930206,0.00902509689331,0.0099401473999,0.000936985015869,0.955436944962
3,0.316485881805,0.00856685638428,0.00999689102173,0.00121212005615,1.27663397789
4,0.31120800972,0.00832605361938,0.00978589057922,0.000972032546997,1.54635691643
5,0.318459033966,0.00890588760376,0.00970816612244,0.00098705291748,1.86076998711
6,0.319532155991,0.00873112678528,0.010097026825,0.00108218193054,2.23755717278
7,0.320770025253,0.00880694389343,0.00956106185913,0.000993013381958,2.51483893394
8,0.32216501236,0.00886702537537,0.00990295410156,0.000982999801636,3.23963713646
9,0.320198059082,0.00898289680481,0.00986504554749,0.000961065292358,3.17038202286
10,0.320313930511,0.00906586647034,0.0101399421692,0.00122213363647,3.50022912025
11,0.320516347885,0.00876688957214,0.00973296165466,0.000985860824585,3.82058811188
12,0.31916809082,0.00893998146057,0.00997805595398,0.00116801261902,4.14197397232
13,0.31761097908,0.00927090644836,0.00979280471802,0.0011420249939,4.41794800758
14,0.318338871002,0.00854682922363,0.0101299285889,0.000991106033325,4.81360197067
15,0.317404985428,0.00900197029114,0.00987482070923,0.00103116035461,5.16243910789
16,0.317605733871,0.00852584838867,0.00955891609192,0.00101685523987,5.91831493378
17,0.319973945618,0.00907588005066,0.010115146637,0.000972986221313,5.87445402145
18,0.322804927826,0.00910687446594,0.00992798805237,0.00105690956116,6.26362609863
19,0.314617156982,0.00854706764221,0.00993609428406,0.000964879989624,6.8371360302
20,0.315734863281,0.00917601585388,0.00981402397156,0.000974893569946,6.757158041
21,0.324624061584,0.00874400138855,0.00979590415955,0.00102305412292,7.44461202621
22,0.324005842209,0.00896787643433,0.0101969242096,0.00117802619934,7.4416680336
23,0.319823026657,0.00923299789429,0.00967407226562,0.000972986221313,7.70934486389
24,0.312779903412,0.00916504859924,0.0101730823517,0.000990152359009,8.02331399918
25,0.317740917206,0.00888109207153,0.0101809501648,0.00100898742676,8.30653882027
26,0.300247907639,0.00898694992065,0.00972604751587,0.00129103660583,8.59152913094
27,0.293365955353,0.00890612602234,0.0101070404053,0.00104403495789,9.20285797119
28,0.289526939392,0.00896596908569,0.00987410545349,0.000982046127319,9.17819690704
29,0.280477046967,0.00887894630432,0.00972294807434,0.000986099243164,9.5036110878
30,0.278878927231,0.00853204727173,0.00960898399353,0.00102710723877,10.1841568947
31,0.277986764908,0.00923681259155,0.00984787940979,0.00100302696228,9.89265203476
32,0.275781154633,0.00911092758179,0.00998711585999,0.00101709365845,10.2667951584
33,0.274415254593,0.00838613510132,0.0101239681244,0.000986814498901,11.0417599678
34,0.276544094086,0.00863909721375,0.00991606712341,0.00100302696228,11.0633859634
35,0.278712034225,0.00892090797424,0.0102100372314,0.000997066497803,11.229624033
36,0.280303955078,0.00860214233398,0.00985288619995,0.00124502182007,11.62520504
37,0.282129049301,0.00860500335693,0.00981593132019,0.000972032546997,11.9610850811
38,0.273321866989,0.00876498222351,0.00950503349304,0.0010290145874,12.2471182346
39,0.279689788818,0.00889205932617,0.00968599319458,0.00104689598083,12.2982721329
40,0.277489185333,0.00856518745422,0.00985717773438,0.000981092453003,12.778842926
41,0.277395009995,0.00855708122253,0.00975298881531,0.000981092453003,13.2367110252
42,0.276762962341,0.00879311561584,0.00970506668091,0.00111103057861,13.3702259064
43,0.276580095291,0.00869607925415,0.00985598564148,0.000988960266113,13.6263890266
44,0.275272846222,0.00877809524536,0.00968480110168,0.00102710723877,13.7360739708
45,0.277905702591,0.00850510597229,0.00973010063171,0.0010199546814,14.7146191597
46,0.277817964554,0.00845384597778,0.00978207588196,0.00102496147156,15.051970005
47,0.280600070953,0.00889492034912,0.0100290775299,0.00102210044861,15.0983748436
48,0.2720079422,0.00893688201904,0.00963997840881,0.00109314918518,14.7492229939
49,0.272073984146,0.0088222026825,0.0100448131561,0.00101900100708,15.1663241386
50,0.275683879852,0.00869107246399,0.0103659629822,0.00100612640381,15.094753027
51,0.273962974548,0.00875496864319,0.00989103317261,0.00101709365845,15.7345559597
52,0.280381917953,0.00894904136658,0.00971579551697,0.00103187561035,16.4372839928
53,0.274947881699,0.00857210159302,0.0101540088654,0.00100994110107,16.6949119568
54,0.28662610054,0.00865697860718,0.0101277828217,0.00101804733276,17.1941180229
55,0.285505771637,0.00871992111206,0.00986695289612,0.000993013381958,17.4366431236
56,0.273689985275,0.00839900970459,0.0100328922272,0.00100684165955,17.7016558647
57,0.270895719528,0.00876498222351,0.00981903076172,0.00107097625732,17.9725801945
58,0.279550075531,0.00880789756775,0.0100009441376,0.00100493431091,17.8566551208
59,0.268266916275,0.00853204727173,0.00994610786438,0.00102281570435,18.3143918514
60,0.271284818649,0.00879192352295,0.0104820728302,0.00101399421692,18.507078886
61,0.282248020172,0.00925493240356,0.00990605354309,0.00106883049011,18.5741989613
62,0.281240940094,0.00882506370544,0.0100429058075,0.00104594230652,19.3957929611
63,0.288580179214,0.00878310203552,0.0102849006653,0.00104308128357,19.4057440758
64,0.285446882248,0.00915908813477,0.0100078582764,0.000991106033325,20.0789320469
65,0.290023088455,0.00875210762024,0.0103130340576,0.00105404853821,20.6946518421
66,0.286575078964,0.00905799865723,0.00992798805237,0.00103092193604,20.6364550591
67,0.281121015549,0.00869393348694,0.010262966156,0.00124597549438,21.1514120102
68,0.295105218887,0.00887989997864,0.0099790096283,0.00101518630981,20.681866169
69,0.281245946884,0.0084490776062,0.00997400283813,0.00103211402893,21.1092710495
70,0.277814865112,0.00858116149902,0.00993084907532,0.00101399421692,21.8055558205
71,0.282920837402,0.00865316390991,0.0101878643036,0.00101518630981,21.9571108818
72,0.279621839523,0.00886702537537,0.0101878643036,0.00105595588684,22.0046570301
73,0.276432037354,0.00870585441589,0.00993609428406,0.00102782249451,21.9575128555
74,0.275350809097,0.00876116752625,0.00993084907532,0.00102591514587,22.5216970444
75,0.277877092361,0.00890707969666,0.00970792770386,0.00108504295349,23.4275579453
76,0.279150724411,0.00872802734375,0.00985908508301,0.00103116035461,23.001595974
77,0.279846906662,0.00881314277649,0.00990009307861,0.00100207328796,23.3103909492
78,0.279755830765,0.00877499580383,0.010468006134,0.00141191482544,23.7613642216
79,0.274862289429,0.00866293907166,0.00971508026123,0.0013120174408,23.2915918827
80,0.277631998062,0.00876188278198,0.00979208946228,0.0010199546814,23.8407618999
81,0.285184860229,0.0090069770813,0.00986099243164,0.00105595588684,24.4357759953
82,0.281396865845,0.00888395309448,0.00997591018677,0.00110793113708,24.9713280201
83,0.275217056274,0.0087571144104,0.0099048614502,0.00102496147156,24.91852808
84,0.281676054001,0.00883793830872,0.0102610588074,0.00106000900269,25.6926238537
85,0.292306184769,0.00881195068359,0.00978088378906,0.00135707855225,25.9989819527
86,0.284065961838,0.00902605056763,0.0100040435791,0.00105309486389,26.2033350468
87,0.279472112656,0.0088791847229,0.0101001262665,0.00101900100708,26.797492981
88,0.285464048386,0.00911688804626,0.0101110935211,0.000998973846436,26.6193320751
89,0.281079053879,0.00893211364746,0.0104720592499,0.00100803375244,27.1574118137
90,0.284778833389,0.00891208648682,0.0100350379944,0.00102591514587,27.3388221264
91,0.284831762314,0.00896811485291,0.0100388526917,0.00108289718628,27.5043811798
92,0.288414955139,0.00914192199707,0.0115079879761,0.00107908248901,28.766518116
93,0.283205986023,0.00889301300049,0.0106959342957,0.00111603736877,28.2561089993
94,0.2828540802,0.00881791114807,0.0106709003448,0.00108504295349,28.7166659832
95,0.277575969696,0.00862598419189,0.0103139877319,0.00102615356445,29.2461719513
96,0.284974813461,0.00879096984863,0.0100247859955,0.00103616714478,29.3743989468
97,0.290374040604,0.0088939666748,0.01056599617,0.00107288360596,29.7056748867
98,0.280105829239,0.00877404212952,0.010134935379,0.00102400779724,29.9875049591
99,0.287847042084,0.00915598869324,0.0101511478424,0.00109505653381,29.6647319794
