step,run,get,set,free,run_up_to_step
0,0.135390996933,0.00437784194946,0.00386691093445,0.000536918640137,0.158625841141
1,0.139627218246,0.00362205505371,0.00390100479126,0.000591039657593,0.26900100708
2,0.133208036423,0.00357294082642,0.00390195846558,0.000685930252075,0.403968811035
3,0.134254217148,0.00368499755859,0.00394201278687,0.00075101852417,0.541371107101
4,0.1333091259,0.00362014770508,0.00386190414429,0.000820159912109,1.07456493378
5,0.134926080704,0.00366592407227,0.00387501716614,0.000868082046509,0.805923938751
6,0.133419036865,0.0037100315094,0.00393486022949,0.000883102416992,1.2666580677
7,0.134358882904,0.00369596481323,0.00391888618469,0.000927925109863,1.07158589363
8,0.138083934784,0.00403714179993,0.00400805473328,0.000993013381958,1.21631598473
9,0.135493993759,0.00385189056396,0.0039119720459,0.000937938690186,1.35480499268
10,0.138614177704,0.00385904312134,0.00392603874207,0.000914812088013,1.48649382591
11,0.132946014404,0.00364995002747,0.00387716293335,0.000911951065063,2.27802085876
12,0.133180856705,0.00389099121094,0.00393891334534,0.00091814994812,2.1125831604
13,0.133197784424,0.00369000434875,0.0039050579071,0.00092601776123,2.37520384789
14,0.133820056915,0.00388407707214,0.00386214256287,0.000921964645386,2.42267417908
15,0.134387969971,0.00400400161743,0.00423002243042,0.00108098983765,2.16669797897
16,0.135399103165,0.00416111946106,0.00451993942261,0.000924110412598,2.28020906448
17,0.133695840836,0.00388097763062,0.00399303436279,0.000944137573242,3.08831787109
18,0.139311075211,0.0039050579071,0.00399708747864,0.000949144363403,2.55137014389
19,0.137835025787,0.00394821166992,0.00396203994751,0.0010199546814,3.29234194756
20,0.141333818436,0.00390696525574,0.00388193130493,0.000916004180908,2.81503486633
21,0.136800050735,0.0039370059967,0.00400519371033,0.000968933105469,3.31476593018
22,0.135634899139,0.00373101234436,0.00405621528625,0.000970125198364,3.4606180191
23,0.135220050812,0.00398397445679,0.00388193130493,0.000946998596191,3.23470497131
24,0.134093046188,0.003741979599,0.0040910243988,0.000914096832275,3.93653893471
25,0.132751941681,0.00372409820557,0.0039529800415,0.000914096832275,3.96831202507
26,0.135691165924,0.004065990448,0.00394511222839,0.000922918319702,3.62292909622
27,0.133267879486,0.00369095802307,0.00392389297485,0.000949859619141,4.03655815125
28,0.13371014595,0.00369906425476,0.00406885147095,0.000931978225708,3.90872216225
29,0.133260011673,0.00365900993347,0.00397205352783,0.000921964645386,4.24513602257
30,0.132901191711,0.00384306907654,0.00413393974304,0.00105714797974,4.64331197739
31,0.137396097183,0.00376081466675,0.00395512580872,0.000917911529541,4.61209201813
32,0.134266853333,0.00373196601868,0.00401091575623,0.000962018966675,4.87740087509
33,0.132975101471,0.00370907783508,0.00413680076599,0.000929117202759,5.06587290764
34,0.134075164795,0.00377988815308,0.00411510467529,0.000974893569946,5.14215016365
35,0.133902072906,0.00365209579468,0.00402092933655,0.000916004180908,5.16895699501
36,0.133687973022,0.00364899635315,0.00398898124695,0.000921010971069,5.63950800896
37,0.13414978981,0.00366711616516,0.00397992134094,0.000917911529541,5.52915716171
38,0.133962869644,0.00366806983948,0.00404810905457,0.000921010971069,5.74029994011
39,0.134453058243,0.00374102592468,0.00408601760864,0.00091814994812,5.58966398239
40,0.135618925095,0.0037829875946,0.00409913063049,0.000919103622437,5.92551994324
41,0.135165214539,0.00363683700562,0.00416898727417,0.00091290473938,5.82416200638
42,0.135522127151,0.00369596481323,0.00395202636719,0.000920057296753,6.39873600006
43,0.133173942566,0.00364017486572,0.00405097007751,0.000910997390747,6.24013209343
44,0.133803129196,0.00372982025146,0.00405406951904,0.00095796585083,6.35918998718
45,0.133641004562,0.00363492965698,0.00397992134094,0.000910997390747,6.66979122162
46,0.134992361069,0.00374603271484,0.00406908988953,0.00104808807373,6.6269800663
47,0.134571075439,0.0038001537323,0.00400400161743,0.000921010971069,6.89821696281
48,0.136996030807,0.00362801551819,0.00402784347534,0.00091814994812,7.17920017242
49,0.134081125259,0.00364995002747,0.00392007827759,0.000948905944824,7.14024996758
50,0.134268760681,0.00418400764465,0.00404810905457,0.000983953475952,7.25265789032
51,0.134211063385,0.00377297401428,0.00409197807312,0.000916004180908,7.59284806252
52,0.138808250427,0.0036780834198,0.00393080711365,0.000951051712036,7.60743498802
53,0.132932901382,0.00372409820557,0.00407791137695,0.000916957855225,7.90252399445
54,0.134074926376,0.00378489494324,0.0040111541748,0.000939846038818,7.94944405556
55,0.133239984512,0.00375699996948,0.00413918495178,0.000920057296753,8.05572199821
56,0.135740280151,0.00386309623718,0.00400996208191,0.000955104827881,8.21149682999
57,0.13770198822,0.00354385375977,0.00401091575623,0.000916004180908,8.47803115845
58,0.134952783585,0.00392198562622,0.0039529800415,0.000930786132812,8.27979803085
59,0.136934995651,0.00384211540222,0.00407004356384,0.000925064086914,8.51985383034
60,0.13426399231,0.00391507148743,0.00396108627319,0.000921010971069,8.74288702011
61,0.138139724731,0.00371289253235,0.00401616096497,0.000926971435547,8.49641704559
62,0.138443946838,0.00392723083496,0.00415802001953,0.000982046127319,8.72755599022
63,0.135518074036,0.00395202636719,0.00393486022949,0.000924825668335,9.19626808167
64,0.135065793991,0.00390791893005,0.00389099121094,0.000919103622437,9.51155996323
65,0.134310245514,0.00382995605469,0.0040590763092,0.000911951065063,9.5410220623
66,0.134171009064,0.00391507148743,0.0040431022644,0.000916957855225,9.55287694931
67,0.133078813553,0.00369000434875,0.00404500961304,0.000924110412598,9.51686191559
68,0.136108875275,0.00389790534973,0.00415802001953,0.00103306770325,9.75034213066
69,0.133913040161,0.00388383865356,0.00389099121094,0.000949859619141,10.1668131351
70,0.138065099716,0.00381898880005,0.00411605834961,0.000932931900024,10.3992629051
71,0.134905815125,0.00386691093445,0.00404000282288,0.000921010971069,10.4749898911
72,0.137007951736,0.00379395484924,0.00397109985352,0.000967025756836,10.371035099
73,0.134585857391,0.00379800796509,0.0039849281311,0.00093412399292,10.6141810417
74,0.133375883102,0.0037248134613,0.00397086143494,0.000921964645386,10.5989260674
75,0.133645057678,0.00385904312134,0.00404691696167,0.000928163528442,10.8698070049
76,0.133030891418,0.00370192527771,0.00404381752014,0.000945091247559,11.0053818226
77,0.135612010956,0.0041389465332,0.00402402877808,0.000927925109863,10.8475840092
78,0.134506225586,0.00398397445679,0.00408697128296,0.00104403495789,11.271682024
79,0.13463306427,0.00399303436279,0.00415015220642,0.000907897949219,11.4683971405
80,0.13413977623,0.00378608703613,0.00399494171143,0.000930070877075,11.5802249908
81,0.137296199799,0.00373792648315,0.00396704673767,0.000962972640991,11.8021969795
82,0.134626865387,0.00371384620667,0.00420212745667,0.000936031341553,11.7716519833
83,0.134148836136,0.00361609458923,0.00399398803711,0.000921964645386,12.1843290329
84,0.13633108139,0.00368690490723,0.00407290458679,0.000931024551392,12.1712419987
85,0.13490986824,0.00368499755859,0.00407195091248,0.000938892364502,12.2114019394
86,0.139137029648,0.00399994850159,0.00424909591675,0.000998020172119,12.6019051075
87,0.133980035782,0.00374794006348,0.0041651725769,0.000936031341553,12.2652440071
88,0.14027094841,0.00398015975952,0.00417995452881,0.000926971435547,12.3428940773
89,0.13828420639,0.00375890731812,0.00415110588074,0.000939846038818,12.7675712109
90,0.137313842773,0.00366902351379,0.00417804718018,0.000924110412598,13.1559679508
91,0.138132810593,0.00376296043396,0.00401711463928,0.00106310844421,12.9512410164
92,0.13417506218,0.0041778087616,0.00405693054199,0.00100779533386,13.0815041065
93,0.13929104805,0.00378108024597,0.00409007072449,0.000980854034424,13.3106291294
94,0.134221076965,0.00393104553223,0.00400996208191,0.0010039806366,13.1464009285
95,0.135084867477,0.00368905067444,0.00411796569824,0.00096607208252,13.7908608913
96,0.139515161514,0.0039370059967,0.00429487228394,0.000975847244263,13.5392029285
97,0.137605905533,0.00399398803711,0.00416493415833,0.000954866409302,13.6952090263
98,0.140896081924,0.00373792648315,0.00447702407837,0.000967979431152,13.97757411
99,0.134730100632,0.00384902954102,0.00400614738464,0.000931978225708,13.843214035
