step,run,get,set,free,run_up_to_step
0,0.137839078903,0.00293898582458,0.00273513793945,0.000394105911255,0.136384010315
1,0.144693851471,0.00261497497559,0.00274085998535,0.000424861907959,0.277650117874
2,0.134735107422,0.00269794464111,0.00276684761047,0.000455856323242,0.42352604866
3,0.134366989136,0.00261807441711,0.00288009643555,0.000582933425903,0.553026914597
4,0.138603210449,0.00269317626953,0.00271916389465,0.000485897064209,0.704303979874
5,0.136795759201,0.00264000892639,0.00282406806946,0.000532150268555,0.8636739254
6,0.142228841782,0.00270104408264,0.00278902053833,0.000578880310059,0.993741035461
7,0.136209964752,0.00278377532959,0.00280594825745,0.000652074813843,1.13801789284
8,0.162769079208,0.00286602973938,0.00282597541809,0.000621795654297,1.24811410904
9,0.146689176559,0.00305604934692,0.00294589996338,0.000722885131836,2.24158501625
10,0.135711669922,0.00287103652954,0.00275993347168,0.000617027282715,2.05869317055
11,0.135803937912,0.00275588035583,0.00284099578857,0.000648975372314,2.26292705536
12,0.185978889465,0.00282597541809,0.00284099578857,0.000647068023682,2.46506810188
13,0.138422966003,0.00286602973938,0.00296211242676,0.000741958618164,1.95809912682
14,0.137237787247,0.00260591506958,0.00275993347168,0.000643968582153,2.55871009827
15,0.137943029404,0.0028669834137,0.00285816192627,0.000685930252075,2.26219987869
16,0.135154724121,0.00287890434265,0.00286722183228,0.000677824020386,2.3648750782
17,0.141747236252,0.00281000137329,0.00301694869995,0.000778913497925,2.99147701263
18,0.157332897186,0.00270819664001,0.00277996063232,0.000642061233521,3.14791512489
19,0.142892122269,0.00281095504761,0.00297880172729,0.000698804855347,2.80077290535
20,0.142135858536,0.00278997421265,0.00292301177979,0.000643014907837,2.94240188599
21,0.159680843353,0.00304079055786,0.00330710411072,0.000774145126343,3.34524297714
22,0.137323856354,0.00299191474915,0.00288605690002,0.000734090805054,3.31642413139
23,0.134627103806,0.00283598899841,0.00284600257874,0.000632047653198,4.33575606346
24,0.138200998306,0.0028920173645,0.00275611877441,0.000694990158081,3.43662190437
25,0.135464191437,0.00290203094482,0.00291991233826,0.000690937042236,4.30145382881
26,0.135475158691,0.00261497497559,0.00291895866394,0.000699996948242,4.3307762146
27,0.139355897903,0.00270104408264,0.00288105010986,0.000630855560303,4.28113508224
28,0.142440795898,0.00284886360168,0.0029981136322,0.000670909881592,3.97021794319
29,0.136629104614,0.00276207923889,0.00283288955688,0.000632047653198,4.93150210381
30,0.135499954224,0.00274705886841,0.00282096862793,0.000627040863037,4.70965313911
31,0.16910815239,0.00261187553406,0.00291800498962,0.000643014907837,4.77366614342
32,0.139547109604,0.00273609161377,0.00273203849792,0.000633955001831,5.27343797684
33,0.135429143906,0.00282597541809,0.00276803970337,0.000627040863037,4.95290088654
34,0.136193990707,0.00297284126282,0.00281405448914,0.000653028488159,4.89569401741
35,0.138153076172,0.00285005569458,0.00277996063232,0.000671863555908,4.93494296074
36,0.135525226593,0.00257587432861,0.00295305252075,0.000723123550415,6.10439586639
37,0.142456054688,0.00273513793945,0.00291609764099,0.000632047653198,6.02953505516
38,0.141040086746,0.00287795066833,0.00281095504761,0.00065016746521,5.3312921524
39,0.1380610466,0.00283598899841,0.00287199020386,0.000685930252075,6.65631604195
40,0.13476896286,0.00269889831543,0.00275707244873,0.000718832015991,6.17151999474
41,0.156434059143,0.00307583808899,0.00281810760498,0.000637054443359,5.94390702248
42,0.150697946548,0.00271201133728,0.00283598899841,0.000638008117676,6.51600003242
43,0.136039018631,0.0025749206543,0.00308513641357,0.000694990158081,6.60588502884
44,0.135406017303,0.00256395339966,0.002769947052,0.000638008117676,7.12956595421
45,0.134929895401,0.00277185440063,0.00294399261475,0.000684976577759,7.08042097092
46,0.619040966034,0.0029559135437,0.0028510093689,0.000674962997437,7.25535607338
47,0.140918016434,0.00260877609253,0.00289297103882,0.00068998336792,6.76510500908
48,0.144356250763,0.00270891189575,0.00300002098083,0.000767946243286,6.9676220417
49,0.171536207199,0.00284290313721,0.00278186798096,0.000697135925293,8.36371994019
50,0.136389017105,0.00293803215027,0.00278401374817,0.000674962997437,7.60447096825
51,0.141492128372,0.00270199775696,0.00294184684753,0.000619888305664,7.653247118
52,0.137860298157,0.00284290313721,0.002849817276,0.000658988952637,7.77264094353
53,0.144221067429,0.00292587280273,0.00291204452515,0.000673055648804,8.39467406273
54,0.137701034546,0.0025839805603,0.00280404090881,0.000637054443359,8.44362187386
55,0.180552005768,0.00274205207825,0.00282907485962,0.000669956207275,8.37931489944
56,0.138498067856,0.00260305404663,0.002760887146,0.000622987747192,8.15984511375
57,0.135133981705,0.0025749206543,0.00278306007385,0.000664949417114,8.57127690315
58,0.134647130966,0.00256395339966,0.00277590751648,0.000631809234619,8.61367797852
59,0.140608072281,0.00269389152527,0.00274705886841,0.000646114349365,9.0671339035
60,0.134647130966,0.00266695022583,0.0027928352356,0.000678777694702,8.6793050766
61,0.13637804985,0.00269603729248,0.00277280807495,0.000622034072876,9.5389149189
62,0.134802818298,0.0028121471405,0.00273394584656,0.00062894821167,9.50845003128
63,0.138740777969,0.0028760433197,0.00293183326721,0.000641822814941,9.89871096611
64,0.137361049652,0.00283002853394,0.00302696228027,0.000720024108887,10.2046108246
65,0.139041900635,0.00273299217224,0.00281000137329,0.00072193145752,10.0832879543
66,0.13885474205,0.00260710716248,0.00288820266724,0.000797033309937,10.053565979
67,0.137025117874,0.00281310081482,0.00283598899841,0.000826120376587,9.9140560627
68,0.16545009613,0.00253391265869,0.00277709960938,0.000698089599609,10.2960128784
69,0.138532161713,0.00255393981934,0.00292205810547,0.000691890716553,11.5373740196
70,0.138651132584,0.00256013870239,0.00278186798096,0.000627040863037,10.1838259697
71,0.142611980438,0.00264191627502,0.00283408164978,0.000643968582153,10.5032351017
72,0.137094020844,0.00261902809143,0.00284600257874,0.000630140304565,10.5968868732
73,0.142844200134,0.00300908088684,0.00280594825745,0.000730991363525,10.7612280846
74,0.139790058136,0.00262999534607,0.00276494026184,0.000635862350464,11.0012350082
75,0.135557889938,0.00264716148376,0.00277495384216,0.000640153884888,11.782186985
76,0.139243125916,0.002610206604,0.0028510093689,0.000649213790894,12.302038908
77,0.137002706528,0.00258994102478,0.00280284881592,0.000640153884888,11.767950058
78,0.139047145844,0.00258588790894,0.00290203094482,0.000655889511108,12.0073289871
79,0.141010046005,0.00316405296326,0.00290107727051,0.000715970993042,12.0585830212
80,0.171626091003,0.0028600692749,0.00281095504761,0.000708103179932,12.9625110626
81,0.143182039261,0.00286102294922,0.00300788879395,0.000669002532959,12.6563138962
82,0.143121004105,0.00280618667603,0.00283312797546,0.000655174255371,12.2144827843
83,0.16579914093,0.00300312042236,0.00288009643555,0.000715970993042,12.673525095
84,0.143751859665,0.00260496139526,0.00278401374817,0.00065803527832,12.8326380253
85,0.143309831619,0.00277900695801,0.00278902053833,0.000653028488159,12.5294539928
86,0.136916875839,0.00266599655151,0.00288796424866,0.000667095184326,13.2802300453
87,0.142030954361,0.00259613990784,0.00285005569458,0.000641107559204,13.4835910797
88,0.138665914536,0.0027379989624,0.00275111198425,0.000809192657471,13.3663079739
89,0.136362075806,0.00259900093079,0.00315284729004,0.000881910324097,13.6548249722
90,0.138782024384,0.00261116027832,0.00315308570862,0.00075888633728,13.1112971306
91,0.168895959854,0.0026741027832,0.00286793708801,0.000638008117676,13.5756270885
92,0.135955095291,0.00282788276672,0.00274610519409,0.000685930252075,13.7500488758
93,0.135291099548,0.00265789031982,0.00276899337769,0.000637054443359,13.7132618427
94,0.166751146317,0.00269603729248,0.00297999382019,0.000658988952637,13.8023920059
95,0.140740156174,0.00268816947937,0.00286316871643,0.000622034072876,15.6798789501
96,0.136705160141,0.00265383720398,0.00281190872192,0.000648975372314,14.4689018726
97,0.138405799866,0.00274395942688,0.00305414199829,0.000838994979858,14.0293731689
98,0.138088941574,0.00272822380066,0.00279808044434,0.000823020935059,15.1099581718
99,0.135728120804,0.0027060508728,0.00278306007385,0.000648021697998,15.1154251099
