step,run,get,set,free,run_up_to_step
0,0.133694887161,0.00304102897644,0.00293612480164,0.000440835952759,0.134811162949
1,0.13454914093,0.00278520584106,0.00303101539612,0.000478982925415,0.282342910767
2,0.136662006378,0.00280594825745,0.00310301780701,0.000465869903564,0.446183919907
3,0.141346216202,0.0029981136322,0.00292587280273,0.000513076782227,0.540667057037
4,0.139040231705,0.00287485122681,0.00315594673157,0.000661134719849,0.673190832138
5,0.146603822708,0.00289082527161,0.00293493270874,0.00059700012207,0.864238023758
6,0.138107061386,0.00283908843994,0.00296878814697,0.000593185424805,0.939796924591
7,0.244395017624,0.0029411315918,0.00301694869995,0.000647068023682,1.82093787193
8,0.132677078247,0.00281500816345,0.0029559135437,0.000658988952637,1.20191192627
9,0.133102893829,0.00282883644104,0.0030369758606,0.000706911087036,1.71119999886
10,0.136005163193,0.00278115272522,0.00295305252075,0.000763893127441,1.95647597313
11,0.132755041122,0.00281310081482,0.00297594070435,0.000677824020386,2.15833306313
12,0.133630990982,0.00277495384216,0.00305604934692,0.000679016113281,2.31181001663
13,0.132421016693,0.00282692909241,0.00304889678955,0.000751972198486,1.85344195366
14,0.144179105759,0.00291395187378,0.00296807289124,0.000666856765747,2.03508210182
15,0.144181013107,0.00282597541809,0.00302410125732,0.000673055648804,2.13727712631
16,0.147022724152,0.00289988517761,0.00308108329773,0.000679969787598,2.23908090591
17,0.13250374794,0.0028190612793,0.00308799743652,0.000741004943848,2.62168502808
18,0.137775659561,0.00296092033386,0.00304412841797,0.000744819641113,2.57362413406
19,0.131979942322,0.00271105766296,0.00294280052185,0.000676870346069,3.42902898788
20,0.154387950897,0.00291895866394,0.0029079914093,0.000674962997437,3.2523560524
21,0.131258010864,0.00280714035034,0.00312900543213,0.000717163085938,3.24649596214
22,0.656803131104,0.00297689437866,0.00296211242676,0.000699043273926,3.19866681099
23,0.139580011368,0.00276589393616,0.00301694869995,0.00071907043457,3.50923705101
24,0.143932819366,0.00290417671204,0.00291991233826,0.000669002532959,3.40453314781
25,0.133420944214,0.00279092788696,0.00292110443115,0.000758171081543,3.83838486671
26,0.135591983795,0.00290203094482,0.00302004814148,0.000741958618164,3.6081609726
27,0.131662130356,0.0027060508728,0.00301003456116,0.000760078430176,4.26462101936
28,0.145768165588,0.00280404090881,0.00305795669556,0.000676870346069,4.4400408268
29,0.169438838959,0.00288200378418,0.00297904014587,0.000710964202881,4.63931202888
30,0.132605075836,0.00287199020386,0.00295400619507,0.000673055648804,4.13845920563
31,0.134321928024,0.00285601615906,0.00303506851196,0.000831127166748,4.22450017929
32,0.158416748047,0.00289106369019,0.00297498703003,0.000673055648804,4.99643588066
33,0.134105920792,0.00286412239075,0.00292706489563,0.000658988952637,4.60726499557
34,0.131175756454,0.00271105766296,0.00303101539612,0.000669002532959,5.16084885597
35,0.146767139435,0.00285696983337,0.00302290916443,0.000780820846558,5.29689192772
36,0.143751144409,0.00288391113281,0.00330305099487,0.000929832458496,5.40347695351
37,0.132709741592,0.00276589393616,0.0029468536377,0.000715017318726,5.54623699188
38,0.138746976852,0.0027539730072,0.00290894508362,0.000729084014893,7.08653092384
39,0.144682168961,0.00300097465515,0.00309300422668,0.00067400932312,6.05739784241
40,0.154145002365,0.00289011001587,0.00297689437866,0.000670194625854,6.1001060009
41,0.131507873535,0.00273895263672,0.00303292274475,0.000823020935059,6.01808905602
42,0.132697820663,0.00280904769897,0.00298881530762,0.000695943832397,6.70425605774
43,0.131503105164,0.00276708602905,0.00298404693604,0.000684022903442,6.59910702705
44,0.138559103012,0.00281596183777,0.00310206413269,0.00073504447937,6.65525007248
45,0.136106967926,0.00271797180176,0.00331902503967,0.000715017318726,6.85167694092
46,0.134220123291,0.00268006324768,0.00305008888245,0.000699996948242,6.77136301994
47,0.131815195084,0.00281596183777,0.0034511089325,0.000897169113159,6.91924500465
48,0.13347697258,0.002681016922,0.003084897995,0.000665903091431,7.9203619957
49,0.136659860611,0.00278520584106,0.0030210018158,0.000731945037842,7.44823694229
50,0.133712768555,0.0028760433197,0.00306677818298,0.000668048858643,7.75236606598
51,0.138617038727,0.00287294387817,0.00301003456116,0.000741004943848,7.25272297859
52,0.14915394783,0.00304985046387,0.0249907970428,0.000680923461914,7.77843499184
53,0.161984920502,0.00288701057434,0.00307321548462,0.000674962997437,7.59156703949
54,0.166921138763,0.00284790992737,0.00337386131287,0.000884056091309,8.05163908005
55,0.132086038589,0.00277709960938,0.00302886962891,0.000688076019287,9.02157211304
56,0.149564743042,0.00297594070435,0.00304698944092,0.000685930252075,8.42540097237
57,0.132033109665,0.00288391113281,0.00306582450867,0.000890016555786,8.46474003792
58,0.13822722435,0.00273394584656,0.0028829574585,0.000715017318726,8.80980110168
59,0.131597280502,0.002690076828,0.00341606140137,0.000731229782104,8.73448109627
60,0.137482881546,0.00274586677551,0.00297093391418,0.00067400932312,8.51174116135
61,0.131995439529,0.00280594825745,0.00326085090637,0.000789165496826,9.80690002441
62,0.133415937424,0.00279211997986,0.00297904014587,0.000711917877197,9.45899510384
63,0.137587070465,0.00292205810547,0.00293207168579,0.000699996948242,8.7170522213
64,0.134097099304,0.00278806686401,0.00297808647156,0.000712871551514,9.48570299149
65,0.194357872009,0.00300002098083,0.00290012359619,0.000717878341675,9.90301895142
66,0.131667137146,0.00278496742249,0.00295400619507,0.00070595741272,9.77991914749
67,0.622271060944,0.00318694114685,0.00300002098083,0.000720977783203,9.87144899368
68,0.137512922287,0.00282096862793,0.00313210487366,0.000784873962402,9.53395295143
69,0.139542818069,0.00274205207825,0.00305604934692,0.000742197036743,10.2101459503
70,0.137366056442,0.00306105613708,0.00303196907043,0.000755786895752,10.3568890095
71,0.132561206818,0.00271797180176,0.00296902656555,0.000668048858643,10.7394778728
72,0.19847035408,0.00290894508362,0.0029890537262,0.000730037689209,11.127810955
73,0.132878065109,0.00280809402466,0.00292205810547,0.000674962997437,10.506882906
74,0.133266925812,0.00283908843994,0.00301289558411,0.000684976577759,10.6187579632
75,0.132422685623,0.00281405448914,0.00297808647156,0.000669002532959,10.9254539013
76,0.1419069767,0.00282216072083,0.00305509567261,0.000692844390869,11.2964890003
77,0.134291887283,0.00270700454712,0.00305986404419,0.000683069229126,11.5289471149
78,0.135144233704,0.00269818305969,0.00296998023987,0.00066614151001,13.0075409412
79,0.14955997467,0.00279307365417,0.00300407409668,0.000695943832397,11.9401960373
80,0.150461196899,0.00308299064636,0.00342297554016,0.000885963439941,11.6606929302
81,0.134929180145,0.00299191474915,0.00326704978943,0.000901937484741,12.7460920811
82,0.137450933456,0.00283098220825,0.00314116477966,0.000749826431274,12.3045110703
83,0.145219087601,0.00286388397217,0.00301694869995,0.000675916671753,12.1875519753
84,0.150355100632,0.00296807289124,0.00288605690002,0.000696182250977,14.6944639683
85,0.148283958435,0.0027871131897,0.00315809249878,0.000732183456421,13.0624790192
86,0.138740062714,0.00279498100281,0.00315380096436,0.000741004943848,12.7702469826
87,0.14505815506,0.00280690193176,0.00292301177979,0.000674962997437,13.2003359795
88,0.154534816742,0.00314998626709,0.00311994552612,0.00072193145752,12.9138879776
89,0.141319990158,0.00308299064636,0.00294494628906,0.000706911087036,13.3965520859
90,0.143056869507,0.00287795066833,0.00295305252075,0.000684022903442,13.5186500549
91,0.134082078934,0.00283288955688,0.00304794311523,0.000720024108887,14.9206180573
92,0.136043071747,0.00283908843994,0.00325393676758,0.000698089599609,13.0368540287
93,0.134356975555,0.00288009643555,0.00295090675354,0.000739097595215,13.8243629932
94,0.13414812088,0.00274586677551,0.00287580490112,0.000664949417114,13.5950391293
95,0.142751932144,0.00277400016785,0.00297594070435,0.00068187713623,14.0910210609
96,0.156473875046,0.00296592712402,0.00328397750854,0.00106811523438,13.7327640057
97,0.158215045929,0.00284910202026,0.00296902656555,0.000720977783203,14.3303120136
98,0.168351650238,0.00273609161377,0.00334787368774,0.000831127166748,14.155174017
99,0.141227245331,0.00303602218628,0.00337195396423,0.000761985778809,15.4156548977
