step,run,get,set,free,run_up_to_step
0,0.272218942642,0.00906586647034,0.0107440948486,0.0025999546051,0.28986787796
1,0.26158118248,0.00961899757385,0.0103690624237,0.00256204605103,0.536637067795
2,0.258671045303,0.00970697402954,0.0107190608978,0.0023250579834,1.23680090904
3,0.276090145111,0.00915503501892,0.0103149414062,0.0031099319458,1.08322906494
4,0.260483980179,0.00923204421997,0.0104901790619,0.00242590904236,1.32980394363
5,0.261245727539,0.0100591182709,0.0102388858795,0.00259590148926,1.65867996216
6,0.261538982391,0.00969314575195,0.0104568004608,0.00251603126526,1.92790794373
7,0.262877225876,0.0097119808197,0.0104939937592,0.00241303443909,2.13767290115
8,0.26003074646,0.00945997238159,0.0104370117188,0.00257706642151,2.38275289536
9,0.266505241394,0.00985503196716,0.0107479095459,0.00253105163574,2.65003108978
10,0.269767999649,0.0102047920227,0.0102269649506,0.00244784355164,3.92112588882
11,0.261022090912,0.00992798805237,0.0105829238892,0.00241208076477,3.18436980247
12,0.273812055588,0.0104460716248,0.0106360912323,0.00248003005981,3.46233105659
13,0.272667169571,0.0102880001068,0.0106639862061,0.00245213508606,4.34375810623
14,0.264287948608,0.0107138156891,0.0108761787415,0.00254011154175,3.98994708061
15,0.263429164886,0.0104339122772,0.010390996933,0.00264596939087,4.21863484383
16,0.272244930267,0.00939917564392,0.0106010437012,0.00247287750244,5.15388083458
17,0.262235641479,0.0100660324097,0.0104839801788,0.00244188308716,4.76229906082
18,0.264254808426,0.0105009078979,0.0105991363525,0.0023410320282,5.0526869297
19,0.275993108749,0.0102479457855,0.0106499195099,0.00240087509155,5.26750302315
20,0.263133049011,0.0103070735931,0.0106480121613,0.00272417068481,5.80352592468
21,0.263532876968,0.0102050304413,0.0108878612518,0.00260901451111,5.88086485863
22,0.264241933823,0.00949811935425,0.0106229782104,0.00242590904236,6.47619986534
23,0.261604785919,0.0100719928741,0.0106182098389,0.00246596336365,6.86942386627
24,0.26299071312,0.0102789402008,0.0112841129303,0.00322508811951,6.64921092987
25,1.17460823059,0.00933289527893,0.0105679035187,0.00263595581055,6.87809705734
26,0.273885011673,0.0101079940796,0.0112490653992,0.00242710113525,7.16365814209
27,0.263044118881,0.0103600025177,0.0107569694519,0.00240111351013,8.74144005775
28,0.262636184692,0.0104920864105,0.0111010074615,0.00247001647949,7.72624707222
29,0.260737895966,0.00990796089172,0.0107409954071,0.00282788276672,7.95737290382
30,1.20963191986,0.00969099998474,0.0108408927917,0.00252819061279,8.26011800766
31,0.264722824097,0.0099310874939,0.0103869438171,0.00234389305115,9.26043915749
32,0.260611772537,0.00925803184509,0.0108549594879,0.00247693061829,9.90016102791
33,0.27198600769,0.0100250244141,0.0108690261841,0.00265097618103,9.03115391731
34,0.263428926468,0.0101680755615,0.0103230476379,0.0027220249176,9.28380012512
35,0.271136283875,0.00919985771179,0.0106310844421,0.0023889541626,9.8253159523
36,0.26131606102,0.00948619842529,0.0103828907013,0.00232696533203,10.4599480629
37,0.263096094131,0.0100538730621,0.0106639862061,0.00250101089478,10.1395039558
38,0.263493299484,0.0104048252106,0.0101361274719,0.00246715545654,10.3707849979
39,0.25910115242,0.00935006141663,0.0103969573975,0.00246405601501,11.313762188
40,0.258924007416,0.0090970993042,0.0101010799408,0.00252389907837,11.6611971855
41,0.263650894165,0.00935316085815,0.0101659297943,0.00292015075684,11.661303997
42,0.258735179901,0.00925588607788,0.0108377933502,0.00233697891235,12.1973268986
43,0.27658200264,0.00964403152466,0.010379076004,0.00242590904236,12.7115650177
44,0.258968114853,0.00901889801025,0.0105600357056,0.0027289390564,12.6148810387
45,0.264891862869,0.00977897644043,0.0107138156891,0.00250887870789,12.4599409103
46,0.262215852737,0.00988912582397,0.0105509757996,0.00241899490356,13.4244360924
47,0.270050764084,0.00973796844482,0.0101778507233,0.00253009796143,13.3869919777
48,0.27121424675,0.00997805595398,0.0104298591614,0.00247597694397,13.3407378197
49,0.260772943497,0.00979995727539,0.0106220245361,0.00246500968933,13.6794829369
50,0.265672922134,0.00954413414001,0.0105500221252,0.00256180763245,13.9693889618
51,0.259985923767,0.00916790962219,0.0103271007538,0.00259399414062,14.6089410782
52,0.271635055542,0.00924897193909,0.0110611915588,0.00239706039429,15.3244791031
53,0.259530067444,0.00928997993469,0.0104670524597,0.0025429725647,15.1679329872
54,0.260432004929,0.00936317443848,0.0104868412018,0.00261497497559,15.3981189728
55,0.260197877884,0.00972390174866,0.0103640556335,0.00258016586304,15.144329071
56,0.264323234558,0.00885796546936,0.0106658935547,0.00244498252869,15.8307890892
57,0.260132074356,0.00970101356506,0.0104601383209,0.00234413146973,15.8315229416
58,0.267852067947,0.00915694236755,0.0106160640717,0.00245690345764,15.9275820255
59,0.265097618103,0.0098021030426,0.01051902771,0.00242495536804,16.2640089989
60,0.268117904663,0.00904893875122,0.0108559131622,0.00237202644348,16.4302017689
61,0.260004281998,0.00965785980225,0.0104792118073,0.00246119499207,17.1714890003
62,0.263120889664,0.00947093963623,0.01060795784,0.00239109992981,17.4895060062
63,0.261729001999,0.00982093811035,0.0107848644257,0.0026650428772,17.7436959743
64,0.261489152908,0.00954580307007,0.010843038559,0.002357006073,18.0763261318
65,0.262107849121,0.00956296920776,0.0108959674835,0.00242900848389,18.6090681553
66,0.267029047012,0.009113073349,0.0109930038452,0.00251317024231,18.2113130093
67,0.262274980545,0.0092830657959,0.0104169845581,0.00250720977783,18.5745270252
68,0.258772134781,0.00940179824829,0.0102949142456,0.00243186950684,18.8377790451
69,0.262215852737,0.01016497612,0.0103778839111,0.00255799293518,19.4604921341
70,0.269061803818,0.00932598114014,0.010626077652,0.00248408317566,19.6230101585
71,0.261102199554,0.00956296920776,0.0105640888214,0.00249195098877,20.2585740089
72,0.259752035141,0.00933313369751,0.0106530189514,0.00242185592651,20.0413529873
73,0.271511077881,0.00964498519897,0.0106658935547,0.00248003005981,21.5796689987
74,0.266360998154,0.00940108299255,0.0108201503754,0.00256299972534,20.9476687908
75,0.2681453228,0.0090651512146,0.0108501911163,0.00249600410461,20.5730910301
76,0.261088132858,0.00938487052917,0.0110008716583,0.0025999546051,20.700428009
77,0.26239991188,0.00964307785034,0.0104880332947,0.00255703926086,20.995650053
78,0.2601749897,0.00924015045166,0.0103330612183,0.00245809555054,21.7443039417
79,0.263832092285,0.00937700271606,0.010598897934,0.00242304801941,22.4537510872
80,0.265580892563,0.00958681106567,0.0104939937592,0.00248289108276,22.6882910728
81,0.276823043823,0.00937700271606,0.0108301639557,0.00246405601501,22.3095169067
82,0.262047052383,0.00991010665894,0.0105090141296,0.0024049282074,22.5197429657
83,0.260655164719,0.00974702835083,0.0103840827942,0.00248312950134,22.9971830845
84,0.277942895889,0.0100059509277,0.0107309818268,0.0024881362915,23.6359808445
85,0.264274835587,0.00976204872131,0.0106661319733,0.00257682800293,24.0024390221
86,0.260393857956,0.00913500785828,0.0108208656311,0.00246405601501,23.7848479748
87,0.261496067047,0.0101001262665,0.0103859901428,0.00240302085876,24.5771009922
88,0.260023832321,0.0100259780884,0.0102100372314,0.00233483314514,25.0165829659
89,0.260444879532,0.00947189331055,0.0104329586029,0.00235819816589,24.6554830074
90,0.2630610466,0.00966382026672,0.010626077652,0.00250315666199,26.4290969372
91,0.26601099968,0.00978112220764,0.0108168125153,0.0024631023407,25.2472560406
92,0.271768093109,0.0102620124817,0.0106911659241,0.00245094299316,26.2786669731
93,0.263217926025,0.012601852417,0.0108759403229,0.00246500968933,26.2811758518
94,0.260305166245,0.00932502746582,0.0107309818268,0.0025589466095,26.7246789932
95,0.267297029495,0.00945901870728,0.0106358528137,0.00249195098877,25.8730487823
96,0.264799118042,0.00940799713135,0.0107431411743,0.00255608558655,26.462157011
97,0.263691186905,0.00968194007874,0.0115768909454,0.00241899490356,27.312114954
98,0.262984991074,0.00995397567749,0.0105159282684,0.00247192382812,27.4105811119
99,0.263781070709,0.0106048583984,0.0103509426117,0.00236892700195,26.8535330296
