step,run,get,set,free,run_up_to_step
0,0.162765979767,0.00376105308533,0.00327801704407,0.00047492980957,0.152739048004
1,0.138674020767,0.00317287445068,0.00325798988342,0.000507831573486,0.283974170685
2,0.136211872101,0.00317597389221,0.00328898429871,0.00053596496582,0.41255402565
3,0.135301113129,0.00308918952942,0.00350093841553,0.00072193145752,0.579303979874
4,0.140824079514,0.00313019752502,0.00323987007141,0.000679016113281,0.687967061996
5,0.134446144104,0.00296592712402,0.00344896316528,0.000851154327393,0.861342906952
6,0.161263227463,0.00358510017395,0.00368404388428,0.000869989395142,1.13519382477
7,0.136410951614,0.00309610366821,0.00335693359375,0.000725030899048,1.18987607956
8,0.135585069656,0.00328493118286,0.00336503982544,0.000811100006104,1.32114887238
9,0.135973930359,0.00328898429871,0.00333309173584,0.000735998153687,2.14976716042
10,0.134794950485,0.00314903259277,0.00333213806152,0.000779151916504,1.86328196526
11,0.157772064209,0.00358581542969,0.00325202941895,0.000734090805054,1.68319582939
12,0.135690927505,0.00330996513367,0.00334095954895,0.000759840011597,1.80630898476
13,0.780956983566,0.00312089920044,0.00381994247437,0.000909090042114,1.95132803917
14,0.136322021484,0.00344491004944,0.003338098526,0.000768899917603,2.15370798111
15,0.136118888855,0.00332307815552,0.00332307815552,0.000737905502319,2.24369192123
16,0.138495206833,0.00328397750854,0.00336408615112,0.000770092010498,3.11879110336
17,0.140736103058,0.00320887565613,0.00326991081238,0.000749111175537,2.48860192299
18,0.136280059814,0.00342702865601,0.00327491760254,0.000730037689209,2.60602378845
19,0.138065099716,0.0029399394989,0.00327587127686,0.000742197036743,3.37409687042
20,0.138680696487,0.00311398506165,0.00342297554016,0.000739097595215,3.2591779232
21,0.171455860138,0.00327706336975,0.00334191322327,0.000749111175537,3.04115605354
22,0.136981248856,0.00332117080688,0.00334191322327,0.000784873962402,3.23856115341
23,0.135921955109,0.00333595275879,0.00436401367188,0.00116419792175,3.28824806213
24,0.138382673264,0.00324702262878,0.00332403182983,0.000800848007202,4.59318399429
25,0.150886058807,0.00306510925293,0.00323700904846,0.000739097595215,3.95595216751
26,0.136863946915,0.00331592559814,0.00328207015991,0.000770092010498,3.7469060421
27,0.14613199234,0.00311303138733,0.00339412689209,0.000759840011597,4.64401006699
28,0.155090093613,0.00367999076843,0.0032320022583,0.000731945037842,4.07503700256
29,0.193981170654,0.00330901145935,0.00355005264282,0.00082802772522,4.90889191628
30,0.138826847076,0.00299692153931,0.00347113609314,0.000746011734009,4.7602391243
31,0.135288000107,0.00304794311523,0.00346207618713,0.000795125961304,4.8537709713
32,0.139602184296,0.00336694717407,0.00332903862,0.000858068466187,4.72227716446
33,0.13650393486,0.00336194038391,0.00344896316528,0.000770092010498,5.03202009201
34,0.143013000488,0.00339698791504,0.00332403182983,0.000733137130737,5.10090398788
35,0.142087221146,0.00310087203979,0.00350904464722,0.000827074050903,6.08953809738
36,0.139754056931,0.0032320022583,0.00347399711609,0.00078010559082,5.83337688446
37,0.139287948608,0.00301790237427,0.00370407104492,0.00100111961365,5.88476896286
38,0.137286901474,0.00294208526611,0.0033130645752,0.000750064849854,6.04776096344
39,0.139554977417,0.00306296348572,0.00326490402222,0.000742197036743,6.36131691933
40,0.138795137405,0.003005027771,0.00335502624512,0.000741004943848,6.14485096931
41,0.134783744812,0.00296497344971,0.00332093238831,0.000795125961304,6.54026293755
42,0.135016918182,0.0030300617218,0.00333714485168,0.000763893127441,6.68753910065
43,0.14111995697,0.00300598144531,0.00348091125488,0.000737905502319,6.63862395287
44,0.135679006577,0.00301885604858,0.00329995155334,0.000741004943848,6.6793589592
45,0.138494968414,0.00318789482117,0.00329113006592,0.000795841217041,6.77760505676
46,0.174464941025,0.00315189361572,0.00333213806152,0.000800132751465,6.78167915344
47,0.134607076645,0.00296092033386,0.00328016281128,0.000739097595215,7.29537606239
48,0.134037971497,0.00301909446716,0.00349903106689,0.000797986984253,7.61318707466
49,0.140891075134,0.00300598144531,0.00334000587463,0.000739097595215,7.80845403671
50,0.182013034821,0.00424814224243,0.00333786010742,0.000738143920898,7.7896130085
51,0.139276027679,0.00322580337524,0.00427889823914,0.000938892364502,8.04581689835
52,0.134454011917,0.00295305252075,0.00335097312927,0.000746011734009,8.14961791039
53,0.134572029114,0.0030689239502,0.00329804420471,0.000753879547119,8.4926970005
54,0.135210990906,0.00319600105286,0.00337195396423,0.000757932662964,8.19397497177
55,0.135563135147,0.00300192832947,0.00345587730408,0.000797033309937,8.27568507195
56,0.572812080383,0.00357007980347,0.00338387489319,0.000783920288086,8.90779495239
57,0.172415971756,0.00333595275879,0.00332713127136,0.000739097595215,9.09616184235
58,0.141715049744,0.0032799243927,0.00330591201782,0.00078010559082,9.53545403481
59,0.168742895126,0.00322294235229,0.00342607498169,0.000784158706665,9.02304911613
60,0.170634031296,0.00303101539612,0.00326585769653,0.000730991363525,9.08211684227
61,0.133540630341,0.00293803215027,0.00334501266479,0.000760793685913,9.47406983376
62,0.136332988739,0.0034019947052,0.00336313247681,0.000761985778809,9.67632484436
63,0.142221927643,0.00304698944092,0.00331115722656,0.000761985778809,10.0012710094
64,0.184038877487,0.00305485725403,0.00331091880798,0.000786066055298,9.77363586426
65,0.139792919159,0.00308704376221,0.00337409973145,0.00076699256897,10.2020800114
66,0.177351951599,0.00307416915894,0.00338506698608,0.000756978988647,10.4918358326
67,0.139629125595,0.00342106819153,0.00336790084839,0.00080394744873,10.6631479263
68,0.162939071655,0.00317311286926,0.00329613685608,0.000747203826904,10.731003046
69,0.157285928726,0.00313711166382,0.00362586975098,0.000900983810425,10.5295689106
70,0.178458690643,0.00319194793701,0.00436305999756,0.00101804733276,10.8786320686
71,0.137144804001,0.00319600105286,0.00332117080688,0.00077486038208,10.3706729412
72,0.139961004257,0.00305199623108,0.00334215164185,0.000747919082642,10.7496950626
73,0.136224985123,0.00301599502563,0.00328993797302,0.000748157501221,10.7547848225
74,0.136281967163,0.00307393074036,0.00325012207031,0.000854969024658,11.0820350647
75,0.139029979706,0.00300693511963,0.00336599349976,0.000748872756958,11.4641721249
76,0.185702800751,0.00406312942505,0.00342392921448,0.000772953033447,12.3316860199
77,0.139278888702,0.00300407409668,0.00382208824158,0.000882148742676,11.7052590847
78,0.140496015549,0.00309491157532,0.0034019947052,0.000835180282593,11.7333509922
79,0.13831615448,0.00313091278076,0.00329899787903,0.000745058059692,12.3678650856
80,0.138261079788,0.00305080413818,0.00336694717407,0.000805139541626,12.129846096
81,0.140424013138,0.00326895713806,0.00351595878601,0.000795841217041,13.1791481972
82,0.135089635849,0.00310516357422,0.00327801704407,0.00074315071106,12.383204937
83,0.135360240936,0.00324010848999,0.0034019947052,0.000754117965698,12.9047379494
84,0.143135070801,0.00305700302124,0.00339007377625,0.000759124755859,12.4229969978
85,0.164716959,0.00319814682007,0.00341105461121,0.000828981399536,13.1100430489
86,0.138938903809,0.00321793556213,0.00341606140137,0.000797033309937,12.5312800407
87,0.143062829971,0.00302290916443,0.00346207618713,0.000761032104492,13.3677968979
88,0.139480113983,0.00293207168579,0.00339603424072,0.000767946243286,13.6149361134
89,0.145635843277,0.00310611724854,0.00354504585266,0.000876903533936,13.4476461411
90,0.141053915024,0.00299906730652,0.00326108932495,0.000839948654175,13.7801468372
91,0.13745880127,0.00296711921692,0.00332307815552,0.000744104385376,13.9314620495
92,0.138712882996,0.00306296348572,0.00334501266479,0.000738143920898,13.7152059078
93,0.147829771042,0.0029878616333,0.00328707695007,0.000730037689209,14.4277949333
94,0.13973402977,0.00314903259277,0.003338098526,0.000740051269531,14.3911759853
95,0.139395952225,0.00298595428467,0.00342297554016,0.000767946243286,14.8035540581
96,0.139849901199,0.0030038356781,0.00327515602112,0.000787973403931,14.4432170391
97,0.138841152191,0.00316786766052,0.00340104103088,0.000736951828003,15.3369328976
98,0.134541988373,0.00318789482117,0.00330209732056,0.000788927078247,15.1743919849
99,0.155371904373,0.00296783447266,0.00335097312927,0.000767946243286,15.7770299911
