step,run,get,set,free,run_up_to_step
0,0.464781999588,0.0546700954437,0.0590329170227,0.00559496879578,0.464976072311
1,0.44703912735,0.0524020195007,0.0561189651489,0.00559997558594,0.929342985153
2,0.450813055038,0.0536551475525,0.0599551200867,0.00609517097473,1.39390683174
3,0.455892801285,0.0559771060944,0.0617308616638,0.00647783279419,1.85687017441
4,0.448881149292,0.0543899536133,0.0585241317749,0.00976514816284,2.33562302589
5,0.444933652878,0.0546720027924,0.0586090087891,0.00631189346313,2.82203316689
6,0.445328235626,0.0545558929443,0.055722951889,0.00924491882324,3.21951818466
7,0.439923048019,0.0496251583099,0.0556800365448,0.00564908981323,4.17865490913
8,0.445237874985,0.0551099777222,0.0541849136353,0.00616216659546,4.12988495827
9,0.446120023727,0.0558350086212,0.0595409870148,0.00642704963684,4.59999108315
10,1.03904008865,0.0499551296234,0.0590450763702,0.00573515892029,5.10699510574
11,0.43465590477,0.0500071048737,0.0567150115967,0.00572800636292,5.95963096619
12,0.437957286835,0.0538401603699,0.0555410385132,0.00831604003906,5.96047306061
13,0.445110082626,0.0548210144043,0.0581068992615,0.00749397277832,6.45916008949
14,0.438657045364,0.0575079917908,0.0571410655975,0.00848007202148,6.87314891815
15,0.446901082993,0.0545101165771,0.060485124588,0.00848817825317,7.34321784973
16,0.448437929153,0.0564949512482,0.0573079586029,0.00867605209351,7.85707116127
17,0.457067012787,0.0564019680023,0.0572879314423,0.00883221626282,8.28100299835
18,0.465008974075,0.0535390377045,0.0590560436249,0.0061559677124,8.67809700966
19,0.45764708519,0.0515961647034,0.0557518005371,0.00801801681519,9.5290749073
20,0.4430103302,0.0520560741425,0.0565538406372,0.00633001327515,9.74948883057
21,0.463392019272,0.0537388324738,0.0587358474731,0.00830984115601,9.96110701561
22,0.45121717453,0.0507709980011,0.0565450191498,0.00582003593445,10.8383011818
23,0.449227809906,0.0502860546112,0.0550179481506,0.00560784339905,11.2792289257
24,0.932137966156,0.050390958786,0.0559239387512,0.00838398933411,11.2656140327
25,0.45242190361,0.049220085144,0.0549378395081,0.00564503669739,12.3628060818
26,0.467680215836,0.0500929355621,0.0548460483551,0.00610709190369,12.8104259968
27,0.458357095718,0.0487248897552,0.0552279949188,0.00632119178772,13.0769510269
28,0.455599784851,0.0536978244781,0.057498216629,0.00937509536743,13.2681131363
29,0.452330112457,0.0529940128326,0.0565528869629,0.00551891326904,14.2242560387
30,0.449364185333,0.0509350299835,0.057116985321,0.00565481185913,14.9663119316
31,0.45260310173,0.0554840564728,0.0576791763306,0.00898694992065,14.5461730957
32,0.449186086655,0.0496129989624,0.0567319393158,0.00568699836731,15.3742589951
33,0.444972991943,0.0512549877167,0.0566370487213,0.0065610408783,15.794298172
34,0.446080207825,0.0525441169739,0.0560419559479,0.00775408744812,16.1025900841
35,0.448354005814,0.0509898662567,0.0560450553894,0.00565791130066,16.7227299213
36,0.449100971222,0.0507841110229,0.0569050312042,0.00567007064819,17.3513259888
37,0.455856800079,0.0566110610962,0.0583710670471,0.00906801223755,17.5084769726
38,0.458827018738,0.056939125061,0.058571100235,0.00896811485291,18.116008997
39,0.450505018234,0.0508680343628,0.0571069717407,0.00914406776428,18.7425410748
40,0.45362496376,0.0504920482635,0.0573251247406,0.00589394569397,19.1771421432
41,0.451821088791,0.0534529685974,0.0582871437073,0.00561499595642,19.9185318947
42,0.456692934036,0.0519950389862,0.0577700138092,0.00569796562195,20.0712988377
43,0.438862085342,0.0519170761108,0.0573840141296,0.0056631565094,20.7874760628
44,0.443742036819,0.053503036499,0.0587589740753,0.00619292259216,21.366286993
45,0.456351041794,0.0524740219116,0.0578348636627,0.00891995429993,21.5207080841
46,0.451200008392,0.0530691146851,0.0561149120331,0.00920605659485,21.8583869934
47,0.462987184525,0.0511150360107,0.0582749843597,0.00572299957275,22.2546420097
48,0.451560258865,0.0518438816071,0.0559990406036,0.00566601753235,22.8265860081
49,0.45151591301,0.0517089366913,0.0557210445404,0.0055730342865,23.3715009689
50,0.455476999283,0.0521099567413,0.056694984436,0.00658893585205,23.6511058807
51,0.449558973312,0.0531220436096,0.0571849346161,0.00565695762634,24.1215860844
52,0.458413124084,0.0530908107758,0.0603687763214,0.00573801994324,24.5205879211
53,0.450679063797,0.0496649742126,0.0557889938354,0.00841999053955,25.1459491253
54,0.454942941666,0.0498790740967,0.056086063385,0.00547099113464,25.614385128
55,0.455305099487,0.0529689788818,0.0573680400848,0.00574684143066,25.9109408855
56,0.451638221741,0.0548751354218,0.0631499290466,0.00573396682739,25.9393250942
57,0.46524310112,0.055281162262,0.0585520267487,0.00573706626892,27.3621509075
58,0.446350097656,0.0556921958923,0.05575299263,0.00567197799683,27.6592299938
59,0.4509370327,0.0517511367798,0.0568840503693,0.00571393966675,27.3432040215
60,0.445706129074,0.0526819229126,0.0592019557953,0.00571393966675,27.879019022
61,0.449723958969,0.0544979572296,0.0589640140533,0.00727820396423,28.4992539883
62,0.447750806808,0.0545361042023,0.0585491657257,0.00567102432251,28.9649910927
63,0.451369047165,0.0523879528046,0.0568330287933,0.00576186180115,29.3783779144
64,0.457361936569,0.052855014801,0.0589609146118,0.00567388534546,29.7108681202
65,0.446771860123,0.0525329113007,0.0586948394775,0.00564694404602,30.718775034
66,0.443189144135,0.0533089637756,0.0595939159393,0.0061399936676,30.9288649559
67,0.450299978256,0.0527348518372,0.0582039356232,0.00969696044922,31.2085039616
68,0.449908018112,0.0544369220734,0.0568308830261,0.00880193710327,31.8367919922
69,0.445741176605,0.0519440174103,0.0567619800568,0.00578618049622,32.242151022
70,0.458755016327,0.0498511791229,0.0576989650726,0.00657200813293,33.1469249725
71,0.458577871323,0.051118850708,0.0588059425354,0.00573801994324,33.568297863
72,0.458293199539,0.0527360439301,0.0592329502106,0.00910401344299,34.3480620384
73,0.456755876541,0.0526750087738,0.0576539039612,0.00802302360535,34.5797691345
74,0.4711561203,0.0538828372955,0.0577120780945,0.0085928440094,34.6072800159
75,0.454076051712,0.054221868515,0.0598239898682,0.00918412208557,35.5618450642
76,0.464383840561,0.0517330169678,0.0577919483185,0.00561285018921,35.9328210354
77,0.444780349731,0.0504131317139,0.0574369430542,0.00658893585205,36.3554770947
78,0.448797225952,0.0536391735077,0.0577528476715,0.0085391998291,36.0106630325
79,0.443932771683,0.0531969070435,0.0594639778137,0.00578212738037,36.2059319019
80,0.450237751007,0.0528569221497,0.0568799972534,0.00811314582825,37.2142159939
81,0.447964906693,0.0553867816925,0.0585789680481,0.00837397575378,37.5518798828
82,0.45373415947,0.0537269115448,0.059198141098,0.00563788414001,37.4834041595
83,0.440835952759,0.0511910915375,0.0587201118469,0.00580096244812,38.5293169022
84,0.459381103516,0.0523400306702,0.0569591522217,0.00816679000854,39.1397061348
85,0.443556070328,0.0499629974365,0.0580909252167,0.00566005706787,39.3487141132
86,0.445608854294,0.0511600971222,0.0553300380707,0.00887703895569,39.8072400093
87,0.443786144257,0.0508499145508,0.058531999588,0.00824403762817,39.941988945
88,0.450597047806,0.0524489879608,0.0567660331726,0.00888419151306,40.4979479313
89,0.448376893997,0.0527667999268,0.0554828643799,0.00876998901367,40.9234161377
90,0.443211078644,0.0513679981232,0.0574431419373,0.00829410552979,41.2283937931
91,0.45254778862,0.0510518550873,0.0566620826721,0.00782108306885,41.7125151157
92,0.443435907364,0.0533051490784,0.0619008541107,0.00984597206116,42.313380003
93,0.443855047226,0.0521879196167,0.0560059547424,0.00795388221741,42.7399950027
94,0.447762966156,0.052120923996,0.0582301616669,0.00882196426392,43.3211650848
95,0.44155216217,0.0528500080109,0.0591928958893,0.00577807426453,43.6200711727
96,0.447676181793,0.0539920330048,0.0581231117249,0.00871610641479,44.2664818764
97,0.445235967636,0.0520560741425,0.0573480129242,0.00904297828674,44.8853418827
98,0.447724819183,0.0512030124664,0.0543911457062,0.00793504714966,45.2634539604
99,0.452394008636,0.0537099838257,0.0579349994659,0.00841307640076,45.7180519104
