step,run,get,set,free,run_up_to_step
0,0.340523004532,0.00796818733215,0.00836205482483,0.000865936279297,0.356323003769
1,0.352378129959,0.00744104385376,0.00824499130249,0.000832080841064,0.704544067383
2,0.341736078262,0.00715208053589,0.00818419456482,0.000893831253052,1.06092905998
3,0.351232051849,0.00773096084595,0.00830984115601,0.000885009765625,1.43003892899
4,0.363086938858,0.00754904747009,0.00867700576782,0.000916004180908,1.76552605629
5,0.361768960953,0.00756597518921,0.00835394859314,0.000869989395142,2.13682198524
6,0.357164859772,0.0078558921814,0.00852513313293,0.00087308883667,2.48165202141
7,0.350115060806,0.00787901878357,0.00864195823669,0.000890016555786,2.86956191063
8,0.364614963531,0.00773596763611,0.00854516029358,0.0011191368103,3.20130801201
9,0.358200073242,0.00803399085999,0.00831604003906,0.00090503692627,3.516477108
10,0.359585046768,0.00756621360779,0.00830817222595,0.000912189483643,4.25937604904
11,0.359511137009,0.00793099403381,0.00851488113403,0.00089693069458,4.28274488449
12,0.358866930008,0.00795602798462,0.00857186317444,0.00120997428894,4.6472530365
13,0.361438035965,0.00792598724365,0.00880193710327,0.000905990600586,4.9892039299
14,0.358376026154,0.0076949596405,0.00863194465637,0.000891923904419,5.64158892632
15,0.361310005188,0.00827789306641,0.00869703292847,0.000949859619141,5.71349096298
16,0.350932121277,0.00740599632263,0.00868701934814,0.000936985015869,6.66339206696
17,0.364411115646,0.00798296928406,0.00866293907166,0.000954866409302,6.47621917725
18,0.354335069656,0.00742292404175,0.00837302207947,0.000881910324097,6.75601792336
19,0.359307050705,0.00769901275635,0.00871801376343,0.000881910324097,7.15376806259
20,0.363776922226,0.00806093215942,0.00889301300049,0.00116801261902,7.43657708168
21,0.355345964432,0.00815296173096,0.00867605209351,0.0012640953064,7.89077496529
22,0.35512304306,0.00790691375732,0.00883197784424,0.0012001991272,8.13788509369
23,0.361361980438,0.00749206542969,0.00874614715576,0.000944852828979,8.78072214127
24,0.37020611763,0.00824117660522,0.00893807411194,0.000942945480347,8.94135594368
25,0.369318008423,0.00842595100403,0.00844097137451,0.00117611885071,9.31732988358
26,0.34193611145,0.0080418586731,0.00846290588379,0.000921964645386,9.57460379601
27,0.356951236725,0.00743079185486,0.008455991745,0.000917196273804,10.1600849628
28,0.355117082596,0.00751996040344,0.0084400177002,0.000946998596191,10.847771883
29,0.35432600975,0.00754189491272,0.00865197181702,0.000921964645386,10.9866569042
30,0.362273216248,0.00756907463074,0.00920009613037,0.000959157943726,11.2454550266
31,0.359979152679,0.00786089897156,0.00865888595581,0.000931978225708,11.584332943
32,0.371626138687,0.00757098197937,0.00889897346497,0.000948905944824,12.2149322033
33,0.351787090302,0.00815510749817,0.00871896743774,0.000945806503296,11.9846470356
34,0.360079288483,0.00762796401978,0.00875282287598,0.000988006591797,12.541203022
35,0.361093997955,0.0075991153717,0.00856804847717,0.000963926315308,13.441010952
36,0.358992099762,0.00773906707764,0.00896406173706,0.000982046127319,13.4969370365
37,0.35835313797,0.00758099555969,0.00882196426392,0.000941038131714,13.8787930012
38,0.354699134827,0.0074520111084,0.00867986679077,0.000945806503296,14.4112958908
39,0.355175018311,0.00755405426025,0.00884890556335,0.00118803977966,14.5140538216
40,0.361676692963,0.00790309906006,0.00868701934814,0.00130200386047,14.4937708378
41,0.356584787369,0.00789713859558,0.00848603248596,0.00122404098511,14.8571810722
42,0.35690331459,0.00748801231384,0.00867390632629,0.000931024551392,15.330714941
43,0.36056804657,0.00777006149292,0.00862884521484,0.000951051712036,15.939428091
44,0.354737281799,0.00750494003296,0.00883889198303,0.000970840454102,16.3704741001
45,0.348660707474,0.00752902030945,0.00910997390747,0.000972032546997,16.4987258911
46,0.358469009399,0.00763297080994,0.00844597816467,0.00121593475342,17.0623350143
47,0.358728170395,0.00766611099243,0.00877118110657,0.000999927520752,17.4453530312
48,0.357626199722,0.0081479549408,0.00864100456238,0.000907897949219,17.6512880325
49,0.367732048035,0.00782585144043,0.00915598869324,0.000998973846436,18.1569530964
50,0.354700088501,0.00797414779663,0.00862884521484,0.00128602981567,18.5978598595
51,0.361852884293,0.00829315185547,0.00914216041565,0.00135397911072,18.5605881214
52,0.353451967239,0.00788402557373,0.00904417037964,0.000933885574341,19.0284199715
53,0.357318162918,0.00786399841309,0.00864911079407,0.000947952270508,19.742784977
54,0.350669145584,0.00778412818909,0.0088050365448,0.000974893569946,20.1567699909
55,0.357356786728,0.0081570148468,0.00873994827271,0.0012469291687,20.0603721142
56,0.35249710083,0.00777411460876,0.00927090644836,0.000969171524048,20.6223058701
57,0.680474758148,0.00793814659119,0.00873303413391,0.00101900100708,21.0580868721
58,0.353188037872,0.00769114494324,0.00887203216553,0.00104999542236,21.3540270329
59,0.351557970047,0.00770401954651,0.00863599777222,0.00125098228455,21.6878378391
60,0.361951112747,0.00795006752014,0.00909280776978,0.00119495391846,21.8341579437
61,0.35532617569,0.00762414932251,0.00913977622986,0.00094199180603,22.6256740093
62,0.353623867035,0.00806403160095,0.0091860294342,0.000978946685791,22.800647974
63,0.358960866928,0.00798892974854,0.00879406929016,0.000944137573242,23.2669270039
64,0.358822107315,0.00788617134094,0.008957862854,0.000977993011475,23.4223840237
65,0.366875171661,0.00791788101196,0.00861406326294,0.000931024551392,23.7339019775
66,0.336231946945,0.0073070526123,0.0088222026825,0.000918865203857,23.6673488617
67,0.363276958466,0.00774788856506,0.00906896591187,0.00121808052063,24.6000659466
68,0.35845208168,0.00807499885559,0.00912809371948,0.000957012176514,24.5904560089
69,0.358560085297,0.00773191452026,0.00892281532288,0.00101900100708,24.9908230305
70,0.356840848923,0.00816082954407,0.00888609886169,0.000946998596191,25.4457349777
71,0.356235980988,0.00789594650269,0.00868916511536,0.00104188919067,25.9196789265
72,0.358956098557,0.00751304626465,0.00909614562988,0.000929117202759,26.3900229931
73,0.341573953629,0.00802111625671,0.00898694992065,0.00125193595886,25.8521361351
74,0.356573820114,0.00792193412781,0.00913596153259,0.000946044921875,26.8446750641
75,0.360061168671,0.007817029953,0.0090799331665,0.000938892364502,27.5883190632
76,0.354258060455,0.00793194770813,0.00905418395996,0.00092601776123,28.2544560432
77,0.356153011322,0.00810694694519,0.00919103622437,0.00123715400696,28.2413778305
78,0.355666875839,0.00797200202942,0.0087718963623,0.000937938690186,28.4854979515
79,0.362467765808,0.00778484344482,0.0100810527802,0.00123500823975,28.9195430279
80,0.3510658741,0.00786304473877,0.00871992111206,0.000937938690186,29.1227431297
81,0.358245849609,0.00784397125244,0.00888609886169,0.00109314918518,29.7819039822
82,0.359306097031,0.00795984268188,0.00896000862122,0.000921010971069,29.9953439236
83,0.354697942734,0.00774693489075,0.00888919830322,0.00128793716431,30.025069952
84,0.358711004257,0.00764608383179,0.00879597663879,0.00122714042664,30.4213809967
85,0.361207008362,0.00795888900757,0.00925779342651,0.00133395195007,31.0681238174
86,0.347909212112,0.00773501396179,0.00885605812073,0.000931978225708,31.1070818901
87,0.354959964752,0.00805521011353,0.00914692878723,0.00122690200806,31.8054997921
88,0.357158184052,0.00810313224792,0.00901699066162,0.00097918510437,31.8032739162
89,0.358016014099,0.0079128742218,0.0090479850769,0.00130701065063,32.2158470154
90,0.356437683105,0.00782299041748,0.00884509086609,0.00091290473938,32.3167369366
91,0.355497837067,0.00794100761414,0.00879812240601,0.00125503540039,32.9580600262
92,0.365036964417,0.00823402404785,0.0087571144104,0.000957012176514,33.1572198868
93,0.357869148254,0.00789999961853,0.00862908363342,0.000914096832275,34.0398151875
94,0.35650396347,0.00811409950256,0.00911378860474,0.000946998596191,33.9675338268
95,0.356736660004,0.00800514221191,0.00901389122009,0.000925064086914,34.9444100857
96,0.360393047333,0.00834798812866,0.00951194763184,0.000932216644287,34.5363819599
97,0.357573270798,0.00794792175293,0.00893115997314,0.00094199180603,35.5247530937
98,0.354274988174,0.00826215744019,0.00931692123413,0.000959157943726,35.2446100712
99,0.354856014252,0.00792908668518,0.00896191596985,0.000921964645386,35.9315369129
