step,run,get,set,free,run_up_to_step
0,0.245788097382,0.0321638584137,0.0350008010864,0.00693702697754,0.237887144089
1,0.256521224976,0.0340211391449,0.0333678722382,0.00659203529358,0.479048013687
2,0.220817089081,0.0295197963715,0.0354988574982,0.00667786598206,0.697000980377
3,0.274144887924,0.0374958515167,0.0341138839722,0.00713396072388,0.926196813583
4,0.238614082336,0.0291209220886,0.0329971313477,0.00706315040588,1.19662690163
5,0.259036064148,0.0305180549622,0.0347020626068,0.00734686851501,1.7633998394
6,0.222564935684,0.0291039943695,0.0324859619141,0.00669097900391,1.97949004173
7,0.229358911514,0.0294551849365,0.0324068069458,0.00657892227173,2.20298409462
8,0.231230974197,0.029746055603,0.0332691669464,0.00673294067383,2.20813179016
9,0.236327171326,0.0302681922913,0.0317549705505,0.00655794143677,3.04819512367
10,0.228314876556,0.0313749313354,0.0333828926086,0.00736308097839,2.48037099838
11,0.232039928436,0.029335975647,0.0332069396973,0.00674700737,3.20910787582
12,0.242229938507,0.0344460010529,0.0548100471497,0.00744891166687,2.9632461071
13,0.252369880676,0.0309689044952,0.0352380275726,0.00732779502869,4.10596609116
14,0.819725036621,0.0288679599762,0.0328030586243,0.00678992271423,3.57336902618
15,0.226854801178,0.0305299758911,0.0323128700256,0.0067138671875,4.84013199806
16,0.223129749298,0.033607006073,0.033066034317,0.00707578659058,3.97638201714
17,0.224470853806,0.0309851169586,0.0326249599457,0.00737190246582,4.25250697136
18,0.222857236862,0.0281310081482,0.0321321487427,0.00668501853943,4.81563901901
19,0.223154067993,0.0308029651642,0.0343410968781,0.00711894035339,4.88337111473
20,0.221727132797,0.0316541194916,0.0345079898834,0.00705909729004,5.42361307144
21,0.227630138397,0.0290238857269,0.0347199440002,0.00681614875793,5.25293397903
22,0.236109972,0.0306768417358,0.0346229076385,0.00706815719604,5.85889101028
23,0.219933986664,0.02960896492,0.0337882041931,0.00666904449463,6.12099003792
24,0.23607301712,0.0317671298981,0.0349018573761,0.00800895690918,5.7731089592
25,0.220613956451,0.0324819087982,0.0346148014069,0.00719904899597,5.95418405533
26,0.226853847504,0.0296869277954,0.0318620204926,0.00663495063782,6.37281084061
27,0.262866973877,0.0314610004425,0.0633249282837,0.00711703300476,7.05111098289
28,0.247262001038,0.0300271511078,0.0324499607086,0.0286228656769,7.08175587654
29,0.226026058197,0.0304861068726,0.0339570045471,0.00668907165527,7.42233705521
30,0.228800058365,0.0302720069885,0.0347888469696,0.00726389884949,7.36176013947
31,0.228939056396,0.0282280445099,0.0338449478149,0.00684690475464,7.68847084045
32,0.802973031998,0.0297520160675,0.0331950187683,0.00682306289673,7.87094402313
33,0.22585773468,0.0302939414978,0.0330171585083,0.00652098655701,8.7396569252
34,0.220235109329,0.0295269489288,0.0329871177673,0.00676894187927,8.78413701057
35,0.244141817093,0.0327830314636,0.0339710712433,0.00661015510559,8.57000589371
36,0.220918178558,0.029855966568,0.0320589542389,0.00672388076782,8.7300131321
37,0.228736162186,0.0291991233826,0.0353879928589,0.00919985771179,9.27540493011
38,0.238551855087,0.0302639007568,0.0322878360748,0.00659894943237,9.80691003799
39,0.22212600708,0.0280978679657,0.0331878662109,0.0065929889679,10.2469730377
40,0.232407808304,0.0310909748077,0.0405099391937,0.00881910324097,9.77795696259
41,0.251574039459,0.0298399925232,0.0356028079987,0.00727796554565,10.2041940689
42,0.22970700264,0.0296070575714,0.0339868068695,0.00696611404419,10.6656541824
43,0.234465837479,0.0333459377289,0.034795999527,0.00701212882996,19.1162850857
44,0.229607820511,0.028678894043,0.0342388153076,0.0070161819458,11.2087781429
45,0.21861076355,0.0278000831604,0.0321290493011,0.00665998458862,11.3211219311
46,0.221835136414,0.0289278030396,0.0367238521576,0.00809407234192,11.5906050205
47,0.232659816742,0.0300390720367,0.0321788787842,0.00652098655701,12.6479899883
48,0.224954843521,0.0317349433899,0.0346179008484,0.0073139667511,11.957447052
49,0.221196174622,0.030021905899,0.0351531505585,0.00748801231384,12.3373990059
50,0.226623058319,0.0298149585724,0.0339360237122,0.00717878341675,12.7945370674
51,0.219951152802,0.0286459922791,0.0347371101379,0.00922298431396,12.6169478893
52,0.22198009491,0.0281701087952,0.0319888591766,0.00654292106628,13.1738090515
53,0.220133066177,0.0295479297638,0.0334429740906,0.00924515724182,12.7358019352
54,0.231828927994,0.0286478996277,0.033637046814,0.00776100158691,13.1351499557
55,0.231750011444,0.0521810054779,0.032989025116,0.0065701007843,14.0401010513
56,0.244504928589,0.0293440818787,0.0339472293854,0.00652408599854,13.8721680641
57,0.228784799576,0.0283920764923,0.0320098400116,0.00692391395569,13.6462209225
58,0.230573892593,0.0291740894318,0.0319030284882,0.00655293464661,14.7128629684
59,0.247776269913,0.0315408706665,0.0346999168396,0.00750207901001,14.4992480278
60,0.227247953415,0.0297050476074,0.0317978858948,0.00677609443665,14.4259331226
61,0.226390123367,0.0284938812256,0.0332050323486,0.00647878646851,15.2326648235
62,0.233752012253,0.0293521881104,0.032655954361,0.00872302055359,15.8705029488
63,0.239432096481,0.0297000408173,0.0335698127747,0.00781607627869,15.3443250656
64,0.241125822067,0.029345035553,0.0334799289703,0.00848793983459,15.8127808571
65,0.23382806778,0.028843164444,0.0322439670563,0.00671410560608,16.5989449024
66,0.234364032745,0.0306868553162,0.0329570770264,0.00649213790894,16.5584418774
67,0.22784113884,0.0280811786652,0.0323140621185,0.00690007209778,17.0229599476
68,0.229765176773,0.0322041511536,0.033842086792,0.00687098503113,17.1981358528
69,0.225424766541,0.0287199020386,0.0315871238708,0.006511926651,16.5978288651
70,0.250972986221,0.0310590267181,0.0326080322266,0.00663995742798,17.3225769997
71,0.231562614441,0.0284271240234,0.0336768627167,0.00652098655701,17.6041688919
72,0.220865726471,0.0282440185547,0.0338139533997,0.00655889511108,17.759472847
73,0.222205162048,0.0279130935669,0.03306889534,0.0065279006958,17.8705220222
74,0.224797010422,0.0291550159454,0.0333180427551,0.00665879249573,18.6964828968
75,0.227313995361,0.0281870365143,0.033303976059,0.00680708885193,18.8288879395
76,0.220046043396,0.0285708904266,0.0320539474487,0.00654411315918,19.101006031
77,0.22719502449,0.028028011322,0.0328199863434,0.00692701339722,19.0717990398
78,0.22146487236,0.0286350250244,0.0330491065979,0.00653290748596,19.3903729916
79,0.239977121353,0.0297179222107,0.0366041660309,0.00674915313721,19.3688549995
80,0.226808071136,0.032075881958,0.0409028530121,0.00687789916992,19.7806851864
81,0.294436693192,0.0344829559326,0.0327100753784,0.00668406486511,19.2357029915
82,0.231763124466,0.0285401344299,0.0403871536255,0.007159948349,20.0787119865
83,0.237241029739,0.0295150279999,0.0329940319061,0.0065701007843,20.3074359894
84,0.237766742706,0.0314090251923,0.0374128818512,0.007896900177,21.6785311699
85,0.282788991928,0.029757976532,0.0337200164795,0.00656700134277,20.6944668293
86,0.227018117905,0.029235124588,0.0337371826172,0.00703191757202,21.2230980396
87,0.253054857254,0.0340051651001,0.0348629951477,0.00720000267029,21.6289968491
88,0.256037950516,0.0313460826874,0.0333018302917,0.00669097900391,22.3748619556
89,0.224826097488,0.0297870635986,0.0343527793884,0.00696015357971,21.5384171009
90,0.247389793396,0.0295848846436,0.0318551063538,0.00653505325317,22.6767129898
91,0.238413095474,0.0296721458435,0.0355970859528,0.00721383094788,22.3979949951
92,0.226122379303,0.0319900512695,0.03338098526,0.007404088974,22.9656610489
93,0.220703840256,0.0302641391754,0.0320708751678,0.00664901733398,25.2260861397
94,0.224557161331,0.0288209915161,0.0318489074707,0.00761198997498,23.3941810131
95,0.225190877914,0.0287299156189,0.0330140590668,0.00655817985535,23.60019207
96,0.239114999771,0.0289249420166,0.0365970134735,0.00688791275024,23.9338021278
97,0.300009965897,0.0330970287323,0.0326509475708,0.00657200813293,24.1503551006
98,0.22110915184,0.0281829833984,0.0322780609131,0.00664091110229,24.951102972
99,0.223441839218,0.0292010307312,0.0339679718018,0.00853800773621,23.3936190605
