step,run,get,set,free,run_up_to_step
0,0.155420064926,0.00416016578674,0.00427079200745,0.000740051269531,0.177531957626
1,0.154720067978,0.00375080108643,0.00408601760864,0.000957012176514,0.317294120789
2,0.154765129089,0.00385212898254,0.00426387786865,0.00106406211853,0.475964069366
3,0.155965328217,0.00382590293884,0.00428891181946,0.000985145568848,0.630345106125
4,0.16127204895,0.00405502319336,0.00421810150146,0.00109791755676,0.785384893417
5,0.156529188156,0.00389909744263,0.00426697731018,0.00107598304749,0.94405913353
6,0.156875133514,0.00408101081848,0.004469871521,0.00119519233704,1.09525799751
7,0.160908937454,0.00463891029358,0.00445318222046,0.00102019309998,1.24887800217
8,0.156560897827,0.0042998790741,0.00418901443481,0.00112009048462,1.4141600132
9,0.154489040375,0.00383400917053,0.00434589385986,0.00104594230652,1.57202506065
10,0.156276702881,0.00426292419434,0.00433492660522,0.00111603736877,1.71991896629
11,0.154816150665,0.00427484512329,0.00430202484131,0.00108003616333,2.64590716362
12,0.156341075897,0.00397610664368,0.00430607795715,0.00105500221252,2.43372702599
13,0.156318902969,0.0045108795166,0.00411105155945,0.00121092796326,2.16670608521
14,0.156064033508,0.00459480285645,0.0045120716095,0.000991106033325,2.31047296524
15,0.155450820923,0.00403809547424,0.00426506996155,0.0011248588562,2.91181111336
16,0.156811952591,0.00431084632874,0.00447106361389,0.00119590759277,2.62552785873
17,0.157130241394,0.0044949054718,0.00435018539429,0.0011351108551,2.81462883949
18,0.155669927597,0.00402808189392,0.00419592857361,0.00105285644531,3.49075889587
19,0.158977985382,0.00402879714966,0.00434613227844,0.00113201141357,3.55836701393
20,0.159786224365,0.00396394729614,0.00419402122498,0.00113296508789,3.70463490486
21,0.155447006226,0.00390887260437,0.0043089389801,0.00109791755676,3.92738890648
22,0.153580188751,0.00392413139343,0.00442004203796,0.00108098983765,4.23505687714
23,0.159442186356,0.00393295288086,0.00443196296692,0.00102710723877,4.35997009277
24,0.154444694519,0.00389218330383,0.00444006919861,0.00111484527588,4.46018695831
25,0.161055326462,0.00405502319336,0.00429511070251,0.00102090835571,4.47718095779
26,0.153697013855,0.00389099121094,0.00422787666321,0.00103497505188,4.20552611351
27,0.155799150467,0.00450205802917,0.00442099571228,0.00100898742676,4.39235496521
28,0.155200004578,0.00384998321533,0.00427579879761,0.00148296356201,5.33914208412
29,0.161019086838,0.00429821014404,0.00431299209595,0.00108599662781,4.63683199883
30,0.157027959824,0.00404095649719,0.00450301170349,0.00110411643982,5.20406413078
31,0.161390066147,0.00421500205994,0.00429105758667,0.0012571811676,5.00268912315
32,0.156400918961,0.00434994697571,0.0045268535614,0.00133395195007,5.11274695396
33,0.159783840179,0.00385499000549,0.00444793701172,0.00100684165955,5.91234707832
34,0.156372785568,0.00425887107849,0.00425601005554,0.00107789039612,5.46299600601
35,0.154669046402,0.00404000282288,0.00435495376587,0.0012309551239,6.24464893341
36,0.156471967697,0.00438284873962,0.0042839050293,0.00128388404846,5.72508883476
37,0.162547826767,0.00390195846558,0.00441694259644,0.00109004974365,6.12917900085
38,0.154495000839,0.00399398803711,0.00432682037354,0.00131988525391,6.5805439949
39,0.155478000641,0.00392198562622,0.00450587272644,0.00116920471191,6.64274406433
40,0.1584379673,0.0041971206665,0.00454998016357,0.00110602378845,6.88845086098
41,0.156143665314,0.00410318374634,0.00448989868164,0.00113296508789,6.91059708595
42,0.154594898224,0.0038628578186,0.0045018196106,0.00115704536438,7.28896307945
43,0.155215978622,0.0042450428009,0.00424981117249,0.00107789039612,7.4379401207
44,0.157933950424,0.0039210319519,0.00447797775269,0.00105309486389,7.6429040432
45,0.155015945435,0.00400519371033,0.00484800338745,0.00113320350647,7.60345816612
46,0.156652212143,0.0040340423584,0.00454497337341,0.00112295150757,7.73125910759
47,0.157021045685,0.00401520729065,0.00449991226196,0.00106596946716,7.76578593254
48,0.161436080933,0.00391888618469,0.00430798530579,0.00122809410095,8.20581793785
49,0.154742956161,0.0040078163147,0.00438189506531,0.00110602378845,8.24548101425
50,0.155431985855,0.00433301925659,0.00428104400635,0.0012059211731,8.50238204002
51,0.161976099014,0.00441384315491,0.00465106964111,0.00118708610535,8.21416497231
52,0.156442165375,0.00425410270691,0.00431108474731,0.00107383728027,9.03650808334
53,0.156695127487,0.00427198410034,0.00448107719421,0.00110602378845,8.91936612129
54,0.156300783157,0.00392198562622,0.00448083877563,0.00135207176208,9.20322108269
55,0.157340764999,0.00430297851562,0.00441288948059,0.00104188919067,8.87845110893
56,0.155755758286,0.00407195091248,0.00437998771667,0.00110101699829,9.26229405403
57,0.155518054962,0.00404191017151,0.00440502166748,0.00101590156555,9.76903009415
58,0.160046100616,0.00404095649719,0.0045440196991,0.00101685523987,10.0135850906
59,0.156295776367,0.00426912307739,0.00444889068604,0.00102686882019,10.1655831337
60,0.161162853241,0.00402998924255,0.00439214706421,0.00122404098511,10.1558001041
61,0.15527009964,0.00421380996704,0.00453686714172,0.00108909606934,10.1553139687
62,0.156275033951,0.0042359828949,0.00450301170349,0.00121212005615,10.5275309086
63,0.161437034607,0.00410914421082,0.00425696372986,0.00101613998413,10.3836810589
64,0.156013011932,0.00413012504578,0.00444412231445,0.00108695030212,11.0140860081
65,0.162337779999,0.00410985946655,0.00441598892212,0.00106191635132,10.9124889374
66,0.155558109283,0.00433897972107,0.00447082519531,0.00105094909668,11.1150507927
67,0.162211894989,0.0039598941803,0.00440788269043,0.00121784210205,11.3816521168
68,0.162812948227,0.00450491905212,0.00465679168701,0.00120997428894,11.1093461514
69,0.156110048294,0.00396108627319,0.00453591346741,0.00112295150757,11.7600009441
70,0.160658121109,0.00398302078247,0.00444102287292,0.00122594833374,11.7581040859
71,0.157527923584,0.00466704368591,0.00485396385193,0.00107407569885,11.358684063
72,0.154217720032,0.00407290458679,0.00446701049805,0.00101613998413,11.7966060638
73,0.161026000977,0.00411701202393,0.0045051574707,0.00108289718628,12.2740328312
74,0.155704021454,0.00402498245239,0.00451612472534,0.00122404098511,12.306481123
75,0.162172079086,0.00425982475281,0.00441694259644,0.00114011764526,12.2751600742
76,0.156216144562,0.00437021255493,0.00455904006958,0.00113797187805,12.4936010838
77,0.155809879303,0.00435614585876,0.00451302528381,0.00112009048462,13.1587450504
78,0.154435157776,0.00400304794312,0.00461506843567,0.00106883049011,13.036440134
79,0.155246257782,0.00418400764465,0.00439691543579,0.00111413002014,13.1933469772
80,0.154516935349,0.00401282310486,0.00453495979309,0.00111079216003,13.3300700188
81,0.157011985779,0.00403714179993,0.00447010993958,0.00118398666382,13.9839599133
82,0.160600185394,0.0041651725769,0.00465202331543,0.00111389160156,13.6505260468
83,0.155040025711,0.0040500164032,0.00442910194397,0.00120711326599,14.1264710426
84,0.155171871185,0.00378084182739,0.00457406044006,0.00129103660583,13.9638559818
85,0.155174970627,0.00408601760864,0.00429606437683,0.00117802619934,14.0174958706
86,0.15518283844,0.00417304039001,0.00449585914612,0.00117206573486,14.1922450066
87,0.155059814453,0.00399494171143,0.00448799133301,0.00101613998413,14.3863379955
88,0.157186031342,0.00445294380188,0.00436687469482,0.00109577178955,14.2268998623
89,0.160358190536,0.00406813621521,0.0045268535614,0.0012800693512,14.4484109879
90,0.156633853912,0.00402808189392,0.00463891029358,0.00109386444092,14.5460429192
91,0.154524087906,0.0042610168457,0.00440812110901,0.00113296508789,15.5043730736
92,0.156053066254,0.00439095497131,0.00480103492737,0.00103306770325,15.0396981239
93,0.157649993896,0.00456309318542,0.00457096099854,0.00131607055664,15.7249810696
94,0.154712915421,0.00404405593872,0.00465106964111,0.00111985206604,15.2928299904
95,0.16109919548,0.00418281555176,0.00471591949463,0.0010998249054,15.3790919781
96,0.156086921692,0.00416707992554,0.0045919418335,0.00107192993164,15.8761711121
97,0.159970998764,0.00418710708618,0.00445604324341,0.00107097625732,15.7892608643
98,0.155316114426,0.00406002998352,0.00463914871216,0.00135517120361,16.2625319958
99,0.155590057373,0.00407099723816,0.00455808639526,0.00103998184204,16.1340250969
