step,run,get,set,free,run_up_to_step
0,0.247174978256,0.0194330215454,0.0182449817657,0.00397396087646,0.231832027435
1,0.215693950653,0.0174880027771,0.0189940929413,0.00404906272888,1.02584886551
2,0.217175006866,0.0188510417938,0.0187270641327,0.00396203994751,0.698078155518
3,0.215914964676,0.0186049938202,0.0190689563751,0.00391817092896,0.892444849014
4,0.220544099808,0.0202760696411,0.0185091495514,0.00397491455078,1.09982299805
5,0.228557109833,0.01904296875,0.0430340766907,0.00432515144348,1.32905888557
6,0.926502943039,0.0180580615997,0.0185689926147,0.00408005714417,1.55135607719
7,0.218334913254,0.0181708335876,0.0356380939484,0.00394201278687,2.400867939
8,0.219059944153,0.018383026123,0.0427010059357,0.00397801399231,1.99824213982
9,0.225759983063,0.0179431438446,0.0193250179291,0.00431180000305,2.21411108971
10,0.212108850479,0.0180780887604,0.019779920578,0.00456476211548,2.39999985695
11,0.242236852646,0.0196540355682,0.0189468860626,0.004065990448,3.17522001266
12,0.219907283783,0.019583940506,0.0184271335602,0.00414204597473,2.85107302666
13,0.225694179535,0.0194520950317,0.0190680027008,0.00411200523376,3.53281283379
14,0.213020086288,0.0178089141846,0.018648147583,0.00409197807312,3.93641591072
15,0.213917016983,0.0171220302582,0.0189778804779,0.00403714179993,4.29756498337
16,0.213692188263,0.0191178321838,0.017382144928,0.00444293022156,3.71787500381
17,0.216455936432,0.019700050354,0.018856048584,0.00401902198792,3.90015697479
18,0.218991041183,0.0214259624481,0.0193901062012,0.00473213195801,4.13402986526
19,0.217284917831,0.0179901123047,0.0186789035797,0.003986120224,5.13131308556
20,0.212930679321,0.0175809860229,0.0186262130737,0.00397777557373,5.2364590168
21,0.214987039566,0.0206248760223,0.017688035965,0.00390100479126,5.2822329998
22,0.226921796799,0.0202789306641,0.0181119441986,0.00406503677368,5.60887694359
23,0.679871082306,0.0202970504761,0.0193009376526,0.00415802001953,5.31110811234
24,0.216983795166,0.0179059505463,0.0185449123383,0.00482296943665,6.0348880291
25,0.257695198059,0.0198740959167,0.0226879119873,0.00517416000366,6.18741798401
26,0.241455078125,0.0190210342407,0.0178980827332,0.00452399253845,6.07523488998
27,0.241785764694,0.0177240371704,0.0178692340851,0.00396800041199,6.67674398422
28,0.217189073563,0.017853975296,0.0183379650116,0.0044629573822,6.85257911682
29,0.216980218887,0.0177688598633,0.0180962085724,0.00396990776062,7.18915820122
30,0.21924495697,0.0180518627167,0.0182430744171,0.00435209274292,6.92485618591
31,0.219172239304,0.0186131000519,0.0184400081635,0.00393390655518,6.9809319973
32,0.215152025223,0.0213010311127,0.0184581279755,0.00396394729614,7.5605969429
33,0.216758012772,0.0176649093628,0.0194900035858,0.00433802604675,7.7766149044
34,0.310678243637,0.0204191207886,0.0224409103394,0.00624203681946,8.00587701797
35,0.236088991165,0.0187709331512,0.0393981933594,0.00423884391785,8.4294731617
36,0.219547986984,0.0185260772705,0.0192050933838,0.00442004203796,8.42359399796
37,0.224725008011,0.017550945282,0.0208411216736,0.00467705726624,8.57249188423
38,0.217818975449,0.0192239284515,0.0367360115051,0.00449895858765,9.90104603767
39,0.214142084122,0.0174980163574,0.0186131000519,0.00501394271851,9.25954008102
40,0.221106052399,0.0175950527191,0.018012046814,0.00391793251038,9.43816900253
41,0.213645219803,0.0175201892853,0.0177190303802,0.00389885902405,11.3265781403
42,0.213685035706,0.0178849697113,0.0179738998413,0.00394797325134,9.65661406517
43,0.213829994202,0.0175340175629,0.0183718204498,0.00435400009155,10.0144040585
44,0.21288394928,0.0173079967499,0.0178520679474,0.00392985343933,10.0680279732
45,0.214664936066,0.0182301998138,0.0182280540466,0.00410604476929,10.6322450638
46,0.215046882629,0.0181300640106,0.0372610092163,0.00395011901855,10.4764630795
47,0.217665910721,0.0170288085938,0.020956993103,0.0050208568573,10.8761949539
48,0.212582111359,0.0172100067139,0.0179131031036,0.00393605232239,11.1630678177
49,0.226133823395,0.0177810192108,0.0223109722137,0.00432205200195,11.3532209396
50,0.221881866455,0.018700838089,0.0182280540466,0.00419807434082,11.3556427956
51,0.218136787415,0.0174300670624,0.0383579730988,0.00395607948303,11.8799898624
52,0.215027809143,0.0169491767883,0.0186738967896,0.00434279441833,12.2891280651
53,0.218827009201,0.0180289745331,0.0191240310669,0.00401282310486,13.0112969875
54,0.213601112366,0.017511844635,0.0398969650269,0.00404191017151,12.4363610744
55,0.217784881592,0.0180380344391,0.0355010032654,0.00450205802917,12.7525138855
56,0.219218969345,0.0171420574188,0.0196340084076,0.00393509864807,13.9793508053
57,0.217423915863,0.0189828872681,0.0179300308228,0.00394916534424,13.0360040665
58,0.217046022415,0.0174140930176,0.018257856369,0.00419092178345,13.2774710655
59,0.217381954193,0.0184140205383,0.018002986908,0.00423192977905,13.4386270046
60,0.212501049042,0.0174150466919,0.0178909301758,0.00392317771912,14.170208931
61,0.212044000626,0.0178010463715,0.0185680389404,0.00405287742615,15.2967660427
62,0.239602088928,0.0181150436401,0.0181109905243,0.00395393371582,15.2610919476
63,0.220346689224,0.0182540416718,0.0180568695068,0.00479602813721,14.4835751057
64,0.214443922043,0.0178120136261,0.0179331302643,0.00391316413879,14.3072910309
65,0.213561296463,0.0180690288544,0.0184819698334,0.00393199920654,15.8946080208
66,0.223281860352,0.0180199146271,0.0180490016937,0.00435495376587,14.8521308899
67,0.227267026901,0.0180151462555,0.0184779167175,0.00393414497375,16.217015028
68,0.216247797012,0.019366979599,0.0191550254822,0.00398015975952,15.3523700237
69,0.224997997284,0.0189361572266,0.0190348625183,0.00423908233643,16.2805051804
70,0.218415021896,0.0188128948212,0.0222561359406,0.00488996505737,16.2954580784
71,0.214143037796,0.0171601772308,0.0194120407104,0.00420117378235,16.7264301777
72,0.220784902573,0.0186960697174,0.0180130004883,0.00391817092896,16.6298770905
73,0.214419841766,0.0175130367279,0.0254509449005,0.00546908378601,17.1993298531
74,0.21685385704,0.0184979438782,0.0178551673889,0.00390291213989,17.1993510723
75,0.21550488472,0.0179450511932,0.0178000926971,0.00389003753662,18.1899590492
76,0.225057125092,0.0181729793549,0.0206670761108,0.00514602661133,17.7179090977
77,0.219666004181,0.0170438289642,0.0187921524048,0.00412106513977,17.8150401115
78,0.216789722443,0.0180969238281,0.0188069343567,0.00416898727417,18.4688820839
79,0.214202880859,0.0177810192108,0.0179100036621,0.00390911102295,18.0874521732
80,0.292712450027,0.0219159126282,0.0191810131073,0.00394797325134,18.189718008
81,0.217101812363,0.0182387828827,0.021192073822,0.00506019592285,18.4041268826
82,0.218712091446,0.0182120800018,0.0178530216217,0.00394988059998,18.6516180038
83,0.214251041412,0.0180041790009,0.0183169841766,0.00395393371582,18.4995720387
84,0.218414068222,0.017333984375,0.0186939239502,0.00422406196594,19.0972008705
85,0.213865280151,0.0182280540466,0.0182280540466,0.00391793251038,19.4434831142
86,0.212965965271,0.0177059173584,0.0185279846191,0.00422716140747,20.1298508644
87,0.214282989502,0.0186989307404,0.0186650753021,0.0039598941803,19.7695679665
88,0.217610120773,0.0176000595093,0.0189490318298,0.00393104553223,20.4780168533
89,0.218669176102,0.0176038742065,0.0177850723267,0.00391411781311,21.4413259029
90,0.21541595459,0.0176110267639,0.0200490951538,0.00412917137146,26.166921854
91,0.219824790955,0.0190849304199,0.0191769599915,0.00429201126099,21.3981089592
92,0.218219995499,0.0185399055481,0.0180780887604,0.00398397445679,21.6336071491
93,0.217589855194,0.0193750858307,0.0234141349792,0.00491309165955,21.2751469612
94,0.225107908249,0.0184729099274,0.0188989639282,0.00462198257446,21.9247229099
95,0.21568107605,0.0202789306641,0.0177388191223,0.00391793251038,22.2182090282
96,0.820224046707,0.0197448730469,0.0193018913269,0.00454092025757,21.7066988945
97,0.284774065018,0.0208430290222,0.0213038921356,0.00460290908813,22.0476839542
98,0.221572160721,0.017993927002,0.0194430351257,0.00395917892456,22.8712289333
99,0.226482152939,0.0175950527191,0.0181210041046,0.00411295890808,22.885641098
