step,run,get,set,free,run_up_to_step
0,0.185425043106,0.00740003585815,0.00932502746582,0.00182795524597,0.17816901207
1,0.180691003799,0.0072820186615,0.00877285003662,0.00170183181763,0.400101184845
2,0.180999040604,0.00750184059143,0.00814008712769,0.00179290771484,0.535807132721
3,0.184237003326,0.00757789611816,0.00830888748169,0.00183916091919,1.12459993362
4,0.179630041122,0.00792694091797,0.0275042057037,0.00191187858582,0.902574062347
5,0.174117803574,0.00746202468872,0.00866985321045,0.00185203552246,1.39934182167
6,0.178318023682,0.00743293762207,0.00838279724121,0.00206780433655,1.27173781395
7,0.176634788513,0.00745296478271,0.00832986831665,0.00194692611694,1.39947295189
8,0.171705245972,0.00716209411621,0.00912094116211,0.00188112258911,2.33786201477
9,0.177514076233,0.00749206542969,0.00950217247009,0.00216698646545,1.81108999252
10,0.183933734894,0.0079391002655,0.00839781761169,0.00174403190613,2.05622601509
11,0.181427001953,0.00790309906006,0.00853180885315,0.00179100036621,2.10902285576
12,0.179785013199,0.00872111320496,0.00854301452637,0.00178384780884,2.3539648056
13,0.173330068588,0.0105431079865,0.00839281082153,0.00178098678589,2.43015408516
14,0.173003196716,0.00781202316284,0.00836396217346,0.0017409324646,2.63702702522
15,0.174324035645,0.00777411460876,0.00854396820068,0.00182795524597,2.81293821335
16,0.17294883728,0.00760006904602,0.00848793983459,0.00176310539246,3.23905801773
17,0.179686069489,0.00788998603821,0.00873899459839,0.00190901756287,3.17421388626
18,0.172248125076,0.00784587860107,0.00827503204346,0.00181293487549,3.28259015083
19,0.175726890564,0.00742483139038,0.00839304924011,0.00217700004578,4.04181098938
20,0.179297924042,0.00847196578979,0.00851798057556,0.00200700759888,3.70389914513
21,0.628310918808,0.00711894035339,0.00896096229553,0.00184512138367,3.83877801895
22,0.181903839111,0.00764989852905,0.00798010826111,0.00196099281311,4.24357509613
23,0.183697938919,0.00787901878357,0.00882005691528,0.00209784507751,4.43639588356
24,0.187335968018,0.00795602798462,0.00846004486084,0.00192308425903,5.10512900352
25,0.179949760437,0.00752997398376,0.0085301399231,0.00203108787537,5.16460418701
26,0.179561853409,0.00740790367126,0.00865697860718,0.0018470287323,5.41657400131
27,0.178953170776,0.00759315490723,0.00877118110657,0.00194096565247,5.67872405052
28,0.197313070297,0.00804710388184,0.00875997543335,0.00185012817383,5.66145706177
29,0.181202888489,0.00828504562378,0.00943493843079,0.00194597244263,5.38895201683
30,0.179786920547,0.0081250667572,0.00885415077209,0.00180411338806,6.0586180687
31,0.214512109756,0.00876593589783,0.00812792778015,0.00197100639343,5.80431103706
32,0.181439876556,0.00757908821106,0.00881290435791,0.00200200080872,6.4918987751
33,0.177249908447,0.00747990608215,0.00964713096619,0.0021710395813,6.77544093132
34,0.181120157242,0.00772500038147,0.00829815864563,0.00184178352356,6.39680600166
35,0.194578170776,0.0074200630188,0.00893592834473,0.00205183029175,6.98721408844
36,0.182793140411,0.0072021484375,0.00833201408386,0.00177001953125,7.07442998886
37,0.180260896683,0.00732207298279,0.00878691673279,0.00194883346558,7.24309897423
38,0.17146897316,0.00746297836304,0.00885200500488,0.00181198120117,7.24177312851
39,0.174737215042,0.00761890411377,0.00878000259399,0.00189113616943,7.73264694214
40,0.177623271942,0.00753092765808,0.0081729888916,0.00174617767334,7.68694496155
41,0.171582937241,0.00746083259583,0.00868511199951,0.00224208831787,7.59207010269
42,0.171441316605,0.00744295120239,0.00832581520081,0.00179600715637,8.01957702637
43,0.17499089241,0.00761198997498,0.00896310806274,0.0019588470459,8.21191000938
44,0.505385160446,0.00781011581421,0.00905680656433,0.00180912017822,8.63940596581
45,0.173866987228,0.0076858997345,0.00894212722778,0.0018150806427,8.48247718811
46,0.180138111115,0.00762486457825,0.00932288169861,0.00197696685791,8.79037904739
47,0.175882816315,0.00771594047546,0.00913596153259,0.00207901000977,8.78191685677
48,0.170523166656,0.00711703300476,0.00834798812866,0.00176000595093,9.49329614639
49,0.176994085312,0.00847792625427,0.00865697860718,0.00176906585693,9.44057106972
50,0.198291063309,0.00819802284241,0.00923991203308,0.0019268989563,10.0360581875
51,0.176138162613,0.00735092163086,0.00930500030518,0.00195789337158,10.1603138447
52,0.186929941177,0.00957202911377,0.00887584686279,0.00201201438904,10.1400399208
53,0.183393239975,0.00778007507324,0.00914406776428,0.00212907791138,10.7693240643
54,0.186466932297,0.00809001922607,0.00853109359741,0.00186204910278,10.6149148941
55,0.180667161942,0.00815200805664,0.00899195671082,0.00223994255066,10.826693058
56,0.549809932709,0.00755000114441,0.00912404060364,0.00187587738037,10.6277008057
57,0.174346923828,0.00749492645264,0.00869798660278,0.00185990333557,11.0980420113
58,0.177369117737,0.00739407539368,0.00864100456238,0.00219702720642,11.089250803
59,0.176461696625,0.00746703147888,0.00860500335693,0.00208401679993,10.9428050518
60,0.177850961685,0.00798511505127,0.00960803031921,0.00257992744446,11.3568820953
61,0.186959028244,0.00809502601624,0.00947880744934,0.00190210342407,11.8045840263
62,0.182455062866,0.0075671672821,0.00828695297241,0.00191593170166,12.5413219929
63,0.203423023224,0.00795006752014,0.00868582725525,0.00194692611694,11.7834038734
64,0.184980869293,0.00774884223938,0.0100479125977,0.00226187705994,12.4962718487
65,0.189128875732,0.00910401344299,0.00898480415344,0.00217008590698,12.466301918
66,0.172721147537,0.00770092010498,0.00868105888367,0.00177097320557,13.0078380108
67,0.176596879959,0.00813913345337,0.00961399078369,0.00190305709839,13.2668850422
68,0.1784491539,0.0073299407959,0.00998091697693,0.00209903717041,12.9260179996
69,0.186363935471,0.00775218009949,0.00869917869568,0.00174808502197,13.6730909348
70,0.178111076355,0.00797700881958,0.00951480865479,0.00202202796936,13.6727600098
71,0.175726890564,0.0080029964447,0.00946712493896,0.00176286697388,14.1984009743
72,0.171706914902,0.00759601593018,0.00892901420593,0.00306701660156,14.0552840233
73,0.180512905121,0.00822997093201,0.00907802581787,0.00185203552246,14.2326431274
74,0.26314496994,0.00824499130249,0.00863409042358,0.00203609466553,15.0387170315
75,0.8131980896,0.00831723213196,0.00899291038513,0.0019690990448,14.3439331055
76,0.222038984299,0.00853109359741,0.0100679397583,0.00195002555847,14.853926897
77,0.189392805099,0.00816917419434,0.00862193107605,0.00215816497803,15.3460149765
78,0.172450065613,0.00752186775208,0.00881409645081,0.00232315063477,15.5693190098
79,0.173617124557,0.00794100761414,0.00878214836121,0.00175094604492,15.414593935
80,0.180288076401,0.00794005393982,0.00828504562378,0.0022029876709,15.4360699654
81,0.197890043259,0.00778889656067,0.0103998184204,0.00194096565247,15.7061870098
82,0.201778173447,0.00813102722168,0.00899910926819,0.00214314460754,15.8836197853
83,0.193695068359,0.00910520553589,0.0085141658783,0.00209403038025,15.4857409
84,0.211408853531,0.00831484794617,0.00890016555786,0.00181198120117,15.7010910511
85,0.19111084938,0.00862598419189,0.0102410316467,0.00236415863037,16.7059860229
86,0.224326848984,0.00796914100647,0.00897884368896,0.00188398361206,16.3211190701
87,0.180507183075,0.00747609138489,0.00897598266602,0.00194907188416,16.9716181755
88,0.177584171295,0.00808691978455,0.00916004180908,0.00186586380005,17.1851930618
89,0.171255111694,0.00792503356934,0.00929594039917,0.00211501121521,17.0700190067
90,0.176921844482,0.00785183906555,0.00953102111816,0.00195288658142,16.686152935
91,0.176177740097,0.00789308547974,0.00885891914368,0.00175213813782,17.304817915
92,0.178730964661,0.00779604911804,0.00905585289001,0.00188612937927,18.1808969975
93,0.17761015892,0.00867605209351,0.0087149143219,0.00216388702393,17.7761778831
94,0.174043178558,0.00745105743408,0.00862908363342,0.00206208229065,18.2226798534
95,0.231376171112,0.00755786895752,0.00906801223755,0.00196886062622,17.8178179264
96,0.200202941895,0.0083441734314,0.00825500488281,0.00191187858582,18.2763681412
97,0.174777984619,0.00764083862305,0.00816416740417,0.00206398963928,18.0678699017
98,0.177536249161,0.00798583030701,0.00933718681335,0.00200319290161,18.6994287968
99,0.176014184952,0.00822615623474,0.00818705558777,0.00180196762085,18.9020121098
