step,run,get,set,free,run_up_to_step
0,0.350249052048,0.00982904434204,0.0100250244141,0.00214719772339,0.323843002319
1,0.331251144409,0.00891399383545,0.00964403152466,0.00214099884033,0.65772986412
2,0.347444057465,0.00971484184265,0.011834859848,0.0023250579834,0.97491312027
3,0.361747980118,0.0110170841217,0.0100939273834,0.00239682197571,1.45484805107
4,0.31850194931,0.00985312461853,0.0110290050507,0.00269293785095,1.74890303612
5,0.351193904877,0.00921702384949,0.0105421543121,0.00235390663147,2.08287405968
6,0.354732990265,0.0100870132446,0.00989484786987,0.00227880477905,2.82178997993
7,0.331723928452,0.00911784172058,0.0109350681305,0.00224494934082,2.55323410034
8,0.371636867523,0.0102429389954,0.0104441642761,0.00253105163574,3.0936729908
9,0.328585863113,0.00985383987427,0.00952315330505,0.00223302841187,3.20022392273
10,0.328459024429,0.0094530582428,0.010204076767,0.00221014022827,3.66754198074
11,0.327844142914,0.0094940662384,0.0111989974976,0.00219297409058,3.89342999458
12,0.329113006592,0.00946688652039,0.010468006134,0.00232911109924,4.31612992287
13,0.325541734695,0.0090229511261,0.0109639167786,0.00263500213623,5.45171689987
14,0.322451114655,0.00921201705933,0.0101809501648,0.00240397453308,5.14901399612
15,0.339582920074,0.00892400741577,0.0277860164642,0.00220108032227,6.21343517303
16,0.321879386902,0.00926780700684,0.00984001159668,0.00219416618347,5.69293618202
17,0.36323595047,0.0098340511322,0.0102279186249,0.00231909751892,5.83930516243
18,0.322393655777,0.00950598716736,0.00990295410156,0.00219702720642,6.74464511871
19,0.370825052261,0.0100059509277,0.01056599617,0.00233697891235,6.54484581947
20,0.318644762039,0.00888395309448,0.00970911979675,0.00223612785339,7.50838899612
21,0.350461959839,0.0108308792114,0.0106379985809,0.00222110748291,7.60972118378
22,0.331223964691,0.00946998596191,0.01069688797,0.00244092941284,7.60408186913
23,0.351436138153,0.0098979473114,0.011204957962,0.0024950504303,8.00330114365
24,0.359268188477,0.00975608825684,0.0100560188293,0.00232315063477,8.87297916412
25,0.34670996666,0.00927996635437,0.0099630355835,0.00214314460754,9.81739807129
26,0.327772855759,0.00928711891174,0.0120060443878,0.00282382965088,9.87382102013
27,0.340914011002,0.010094165802,0.0107610225677,0.00225400924683,9.94529700279
28,0.32831788063,0.00961399078369,0.0099630355835,0.00240397453308,9.79556894302
29,0.35645699501,0.00879001617432,0.00993704795837,0.00219011306763,10.1997299194
30,0.323194980621,0.00958013534546,0.010468006134,0.00230121612549,10.8719241619
31,0.327016115189,0.00942301750183,0.0103490352631,0.00220799446106,10.8520798683
32,0.374705076218,0.0106270313263,0.0121822357178,0.00303792953491,11.4256188869
33,0.368885993958,0.00973701477051,0.0108668804169,0.00232887268066,12.1781408787
34,0.336010932922,0.00952100753784,0.0107572078705,0.00230288505554,12.0432720184
35,0.347675800323,0.00944876670837,0.0111510753632,0.00240397453308,12.2740030289
36,1.03765702248,0.0391969680786,0.012825012207,0.00290703773499,12.6574828625
37,0.32733631134,0.0094039440155,0.0107200145721,0.00255393981934,12.8520522118
38,0.326540231705,0.00956797599792,0.0118589401245,0.00217700004578,13.7291259766
39,0.344763994217,0.0100080966949,0.0101549625397,0.0027289390564,13.6239919662
40,0.341423988342,0.00998997688293,0.00999903678894,0.00230693817139,14.6626977921
41,0.330837011337,0.00913190841675,0.01043009758,0.00238513946533,15.067234993
42,0.34104013443,0.00960493087769,0.0103180408478,0.00215983390808,14.7877829075
43,0.359493017197,0.00982785224915,0.00992298126221,0.00223803520203,15.4874329567
44,0.346512079239,0.00993490219116,0.00983500480652,0.00232696533203,17.0117399693
45,0.329319000244,0.00980806350708,0.0117690563202,0.00253081321716,15.6407208443
46,0.325882911682,0.00947713851929,0.0111598968506,0.00234818458557,16.6358888149
47,0.327883243561,0.00936007499695,0.0101699829102,0.00249409675598,16.113421917
48,0.445151090622,0.0112829208374,0.0117671489716,0.00222682952881,16.668033123
49,0.326060295105,0.00970506668091,0.00985503196716,0.00233697891235,17.3620579243
50,0.322345018387,0.00929284095764,0.00987696647644,0.00214099884033,18.8954691887
51,0.326877832413,0.00900411605835,0.00977921485901,0.00215697288513,18.385174036
52,0.31742811203,0.00946593284607,0.0101568698883,0.00253295898438,17.7861821651
53,0.323617696762,0.00919198989868,0.0103809833527,0.00216889381409,17.8326790333
54,0.337574005127,0.0101239681244,0.010910987854,0.00218319892883,19.7435789108
55,0.322361946106,0.00954103469849,0.0109100341797,0.0030689239502,19.7161340714
56,0.329103946686,0.00908088684082,0.010449886322,0.00222682952881,20.2672920227
57,0.318870067596,0.00925493240356,0.0100288391113,0.00225400924683,19.7921760082
58,0.33042383194,0.00938010215759,0.00999188423157,0.00217294692993,19.1638050079
59,0.327172040939,0.008957862854,0.0100519657135,0.00216507911682,20.0718250275
60,0.319473028183,0.00917506217957,0.0104269981384,0.0021870136261,20.1445360184
61,0.317518234253,0.00927495956421,0.00974702835083,0.00218105316162,20.4465529919
62,0.41072511673,0.0103921890259,0.0100741386414,0.0022029876709,21.4304449558
63,0.340749025345,0.0092339515686,0.00994300842285,0.00215101242065,21.8589639664
64,0.316434860229,0.00907897949219,0.0105819702148,0.0022189617157,21.7281610966
65,0.338059902191,0.00959420204163,0.0105881690979,0.00233006477356,23.3786361217
66,0.327480077744,0.00913405418396,0.0104939937592,0.00220584869385,23.2104940414
67,0.341612100601,0.00913190841675,0.0104579925537,0.00225400924683,23.1766958237
68,0.323103904724,0.00889587402344,0.00990080833435,0.00228095054626,22.6697371006
69,0.321281909943,0.00958299636841,0.0105180740356,0.00223112106323,23.2738959789
70,0.31640791893,0.00889801979065,0.0101020336151,0.00213408470154,23.3647818565
71,0.318064928055,0.00893402099609,0.0100159645081,0.00226902961731,23.7774910927
72,0.319929838181,0.00885200500488,0.0100500583649,0.00220012664795,24.1427140236
73,0.31742978096,0.00913882255554,0.010153055191,0.00223207473755,25.2092871666
74,0.322872161865,0.00927996635437,0.00986099243164,0.00218200683594,24.9331099987
75,0.342839002609,0.00905418395996,0.0101609230042,0.00224614143372,26.3459601402
76,0.326057910919,0.0088050365448,0.00990891456604,0.00235414505005,26.4388151169
77,0.321979999542,0.0088939666748,0.0122389793396,0.00277900695801,26.7378709316
78,0.325603961945,0.00974988937378,0.0107569694519,0.00224709510803,27.1925568581
79,0.329716920853,0.00977802276611,0.0103840827942,0.00224900245667,26.9651298523
80,0.334454298019,0.00964498519897,0.00988388061523,0.00215697288513,28.8264529705
81,0.33367395401,0.00903391838074,0.010311126709,0.0021698474884,28.372398138
82,0.326066017151,0.00943613052368,0.00971007347107,0.00253582000732,30.0386149883
83,0.316408157349,0.00878810882568,0.0104849338531,0.00230097770691,28.3387420177
84,0.324739933014,0.00908017158508,0.009840965271,0.00228905677795,28.9724471569
85,0.875044107437,0.00997400283813,0.0106561183929,0.002357006073,28.7086181641
86,0.331346988678,0.0097451210022,0.0108850002289,0.0025200843811,30.8442111015
87,0.350375890732,0.0101180076599,0.0104079246521,0.00219297409058,31.2414500713
88,0.361599683762,0.0100820064545,0.0098090171814,0.00239396095276,31.3651759624
89,0.320850133896,0.00915098190308,0.0113801956177,0.00279092788696,31.1776359081
90,0.330576896667,0.00925493240356,0.0112459659576,0.00268888473511,30.7013168335
91,0.362493991852,0.0103559494019,0.011118888855,0.00248885154724,31.8461959362
92,0.323953866959,0.00882601737976,0.0104129314423,0.00225400924683,31.4861731529
93,0.320358753204,0.00929093360901,0.0121119022369,0.00289487838745,34.5382390022
94,0.335702180862,0.00925803184509,0.0105800628662,0.00229287147522,33.893709898
95,0.320008993149,0.00969696044922,0.010372877121,0.0022029876709,34.4248309135
96,0.318462133408,0.00960302352905,0.00990390777588,0.00224018096924,34.4764759541
97,0.33624124527,0.0101809501648,0.010390996933,0.00223302841187,33.1836848259
98,0.339060783386,0.00967502593994,0.011036157608,0.00251913070679,34.8611898422
99,0.327557086945,0.0100450515747,0.0111839771271,0.00232410430908,34.1585450172
