step,run,get,set,free,run_up_to_step
0,0.579138994217,0.0497400760651,0.0681841373444,0.0194511413574,0.582731962204
1,0.566461086273,0.0442299842834,0.0478549003601,0.0121488571167,1.40131211281
2,0.567565917969,0.0424270629883,0.0488519668579,0.0113899707794,1.68458795547
3,0.565963745117,0.0432500839233,0.04851603508,0.0125811100006,2.30938100815
4,0.548702001572,0.0460348129272,0.046914100647,0.0121910572052,2.88333892822
5,0.544631958008,0.0430769920349,0.0495071411133,0.0140309333801,3.46476602554
6,0.553961992264,0.0418560504913,0.04647397995,0.012631893158,3.91792416573
7,0.5953540802,0.0431489944458,0.0481998920441,0.0120878219604,5.15341186523
8,0.549309015274,0.0427620410919,0.0467100143433,0.0121340751648,5.02927803993
9,0.554664850235,0.0434591770172,0.0502781867981,0.0134329795837,5.56859779358
10,0.547204971313,0.045294046402,0.048045873642,0.0118799209595,6.39563798904
11,0.542352199554,0.0445930957794,0.0478818416595,0.0123629570007,6.70787906647
12,0.549014806747,0.0457808971405,0.0482678413391,0.0122051239014,7.30116701126
13,0.570051908493,0.0451710224152,0.0478420257568,0.0137641429901,7.76824688911
14,0.573231935501,0.0465128421783,0.0577487945557,0.0115180015564,8.49035096169
15,0.563353776932,0.0469949245453,0.0467751026154,0.0132927894592,9.13202691078
16,0.540906906128,0.0448160171509,0.0491540431976,0.0125079154968,9.48112106323
17,0.569368124008,0.0416781902313,0.0480070114136,0.0123341083527,10.6568701267
18,0.546442985535,0.0691931247711,0.0480949878693,0.0125432014465,11.5118761063
19,0.544375896454,0.0467178821564,0.0478489398956,0.0121891498566,11.0771639347
20,0.551691055298,0.0430209636688,0.0518012046814,0.0122439861298,12.1891038418
21,0.542593002319,0.0432569980621,0.0469698905945,0.012521982193,12.7507500648
22,0.548262834549,0.0446979999542,0.0489819049835,0.0121891498566,13.3076980114
23,0.543912172318,0.0442690849304,0.048278093338,0.0153818130493,14.9501540661
24,0.567013025284,0.0454790592194,0.0478301048279,0.0134770870209,16.048981905
25,0.541499137878,0.0473129749298,0.0491790771484,0.0114409923553,14.8982219696
26,0.562855958939,0.0462129116058,0.0486829280853,0.0122270584106,15.5488290787
27,1.04430508614,0.0410280227661,0.0487701892853,0.0126168727875,15.7001729012
28,0.555102109909,0.0400788784027,0.0479400157928,0.0127940177917,16.4694430828
29,0.590596914291,0.0443489551544,0.0478348731995,0.0133001804352,18.3603000641
30,0.538734197617,0.0427238941193,0.0497839450836,0.0127191543579,18.8899629116
31,0.55316901207,0.044853925705,0.0491590499878,0.0126268863678,19.4098069668
32,0.541382074356,0.0453169345856,0.0502471923828,0.0120639801025,18.8435230255
33,0.543365240097,0.041855096817,0.0496258735657,0.0126359462738,20.3342149258
34,0.57336306572,0.0455038547516,0.0478069782257,0.0125138759613,20.2591309547
35,0.544605970383,0.0430631637573,0.0496799945831,0.0105609893799,20.6386401653
36,0.605861902237,0.042209148407,0.072573184967,0.0116260051727,21.6011970043
37,0.562061786652,0.0418331623077,0.0480999946594,0.0114748477936,22.5951049328
38,0.56769990921,0.0438759326935,0.0468349456787,0.0126700401306,23.0084490776
39,0.57114815712,0.0416100025177,0.0479860305786,0.0122590065002,22.8753211498
40,0.560750961304,0.0438959598541,0.0468051433563,0.013078212738,24.2365841866
41,0.568513870239,0.0427689552307,0.0508501529694,0.0123119354248,24.6266100407
42,0.566820859909,0.0448470115662,0.0481679439545,0.0124537944794,24.541852951
43,0.568548202515,0.0425930023193,0.0505609512329,0.0122561454773,24.9656360149
44,0.571895122528,0.0420408248901,0.0484988689423,0.0123038291931,26.3205599785
45,0.568022966385,0.045804977417,0.0471379756927,0.0123319625854,28.6121520996
46,0.565805196762,0.0443649291992,0.0511949062347,0.0126240253448,27.4718689919
47,0.539110898972,0.0406668186188,0.0495328903198,0.0126850605011,28.3885428905
48,0.590307950974,0.0417609214783,0.0483450889587,0.0126838684082,28.3049221039
49,0.538353919983,0.0415868759155,0.050400018692,0.0127460956573,29.7181141376
50,0.542806863785,0.0425548553467,0.0477700233459,0.0130438804626,29.2825400829
51,0.57609295845,0.0471620559692,0.0514199733734,0.0146000385284,32.5478899479
52,0.547782182693,0.043741941452,0.0489220619202,0.0127780437469,30.3754880428
53,0.573482990265,0.0410900115967,0.0486841201782,0.011482000351,32.2463741302
54,0.572678089142,0.0444350242615,0.0479938983917,0.0111558437347,31.9789500237
55,0.545517683029,0.0438802242279,0.0481100082397,0.0122399330139,32.3650641441
56,0.567416906357,0.0447030067444,0.0525360107422,0.0125408172607,33.8187439442
57,0.551455974579,0.0454668998718,0.0470509529114,0.0133898258209,34.4408800602
58,0.549049139023,0.0417008399963,0.0481390953064,0.0114679336548,34.4749369621
59,0.547585964203,0.0427389144897,0.0496029853821,0.012433052063,34.0372781754
60,0.549772024155,0.0692570209503,0.0463678836823,0.0122058391571,37.0253350735
61,0.549175977707,0.0414049625397,0.061527967453,0.0169379711151,34.9507060051
62,0.53976392746,0.0418038368225,0.0482079982758,0.0125641822815,38.9629240036
63,0.739171981812,0.0545620918274,0.0483739376068,0.012228012085,38.9637420177
64,0.543040990829,0.0432620048523,0.0487470626831,0.0125508308411,37.8360390663
65,0.546108007431,0.0416879653931,0.0487198829651,0.013463973999,37.3838570118
66,0.540560007095,0.0457229614258,0.0488798618317,0.0123269557953,38.0653438568
67,0.545166015625,0.0439240932465,0.0489680767059,0.012876033783,39.6142230034
68,0.563249111176,0.0443968772888,0.0495240688324,0.0122470855713,41.6344370842
69,0.562514305115,0.0454049110413,0.0484988689423,0.0130949020386,42.7737038136
70,0.563297986984,0.0421459674835,0.0487558841705,0.0124831199646,39.9429218769
71,0.562711954117,0.0422899723053,0.0535531044006,0.018424987793,43.0840809345
72,0.561026096344,0.0452799797058,0.0491030216217,0.0116019248962,41.0708138943
73,0.538833856583,0.0544800758362,0.0484969615936,0.0124568939209,43.9667749405
74,0.592673778534,0.0443561077118,0.0523798465729,0.0153238773346,42.4196119308
75,0.543405771255,0.0439381599426,0.0481760501862,0.0109829902649,44.6742110252
76,0.557919740677,0.0432999134064,0.0487329959869,0.0119411945343,46.3892149925
77,0.537762880325,0.042729139328,0.0480020046234,0.0130450725555,45.9426410198
78,0.5375020504,0.0418131351471,0.0485179424286,0.0137000083923,46.6412889957
79,0.545594930649,0.0466799736023,0.0483191013336,0.012195110321,47.0567817688
80,0.544291973114,0.0421090126038,0.0479509830475,0.0127639770508,45.5825619698
81,0.562113046646,0.0446529388428,0.0489468574524,0.0116469860077,46.0227270126
82,0.564540147781,0.0441131591797,0.0487999916077,0.0122349262238,49.7845962048
83,0.54480099678,0.0427370071411,0.0674312114716,0.020583152771,47.5982880592
84,0.572230815887,0.0432178974152,0.0487349033356,0.0122909545898,49.9420409203
85,0.605882167816,0.0498089790344,0.0509569644928,0.013689994812,52.4131901264
86,0.588222026825,0.0442728996277,0.0493547916412,0.0122449398041,49.7216928005
87,0.566572904587,0.0430591106415,0.0483911037445,0.0125598907471,52.0639679432
88,0.548397302628,0.0447249412537,0.0479350090027,0.0125110149384,53.3712050915
89,0.542459964752,0.0444140434265,0.0478792190552,0.0125029087067,51.5451569557
90,0.569845199585,0.0458950996399,0.0486099720001,0.0127968788147,55.7334489822
91,0.604215145111,0.0557210445404,0.0490050315857,0.0122911930084,54.0926501751
92,0.541960954666,0.0453040599823,0.0488018989563,0.01189494133,53.5370149612
93,0.547963857651,0.0423948764801,0.0485730171204,0.0121850967407,53.4540188313
94,0.545189142227,0.0467450618744,0.0504760742188,0.0119318962097,58.5221199989
95,0.567925930023,0.0467488765717,0.0483641624451,0.0120100975037,55.2596819401
96,0.548821210861,0.0436058044434,0.049455165863,0.011904001236,55.9404809475
97,0.591345071793,0.0453259944916,0.0490319728851,0.0137228965759,57.2210700512
98,0.551424026489,0.0442490577698,0.0492081642151,0.0119318962097,56.0507969856
99,0.542958021164,0.0473699569702,0.051157951355,0.0135159492493,59.7898108959
