step,run,get,set,free,run_up_to_step
0,0.259868144989,0.0112538337708,0.011177778244,0.00111699104309,0.260606050491
1,0.270277738571,0.010379076004,0.010400056839,0.00123190879822,0.518642187119
2,0.259012699127,0.010397195816,0.0107438564301,0.00119113922119,0.792805194855
3,0.265216112137,0.0108449459076,0.0109131336212,0.00129318237305,1.04391002655
4,0.267997264862,0.0110149383545,0.010792016983,0.0016028881073,1.33709383011
5,0.267766952515,0.0108540058136,0.0104558467865,0.00120306015015,1.5731959343
6,0.263145923615,0.0105440616608,0.0105249881744,0.00155019760132,1.87022185326
7,0.261275053024,0.0103228092194,0.0106048583984,0.00118803977966,2.43153190613
8,0.260386943817,0.0102679729462,0.0104598999023,0.00117588043213,2.36328005791
9,0.26327586174,0.0105900764465,0.0102939605713,0.00121402740479,2.62064099312
10,0.260413885117,0.0101990699768,0.0104339122772,0.0012149810791,3.49909806252
11,0.267440319061,0.010931968689,0.0103869438171,0.00153779983521,3.16414117813
12,0.269409894943,0.010803937912,0.0103430747986,0.00152397155762,3.40240812302
13,0.264881849289,0.0109589099884,0.010556936264,0.00122594833374,3.64585399628
14,0.261009216309,0.0107209682465,0.0112359523773,0.00138711929321,3.94622206688
15,0.264264822006,0.0105919837952,0.0108380317688,0.00158715248108,4.17645001411
16,0.260670185089,0.0101959705353,0.0104551315308,0.00121307373047,5.08748292923
17,0.266448736191,0.0104269981384,0.0104269981384,0.00128316879272,5.09736800194
18,0.264132022858,0.0101001262665,0.0106029510498,0.00121116638184,5.27631115913
19,0.662854671478,0.0105729103088,0.0108540058136,0.00143599510193,5.22354888916
20,0.261456012726,0.0107429027557,0.0107669830322,0.00166392326355,5.512830019
21,0.266604185104,0.0108251571655,0.0103600025177,0.0015549659729,5.83444094658
22,0.27180981636,0.0111980438232,0.0108408927917,0.00154995918274,6.20081806183
23,0.259094953537,0.0100009441376,0.010901927948,0.00126814842224,6.62415289879
24,0.267688989639,0.0111470222473,0.0110559463501,0.00121116638184,6.59530878067
25,0.26841878891,0.0107979774475,0.0104432106018,0.00118017196655,7.19638991356
26,0.273464918137,0.0101289749146,0.0109531879425,0.00127196311951,7.4782910347
27,0.26921916008,0.0111780166626,0.0108249187469,0.001296043396,7.43711900711
28,0.269979953766,0.0110890865326,0.0108790397644,0.00146698951721,7.68994617462
29,0.269224882126,0.011020898819,0.0105340480804,0.00155115127563,7.98008394241
30,0.259399175644,0.0100078582764,0.0108449459076,0.00122594833374,8.59685897827
31,0.266411066055,0.0107929706573,0.0106790065765,0.0011739730835,8.39302492142
32,0.264586925507,0.0100491046906,0.0107049942017,0.00123906135559,9.20749807358
33,0.271678924561,0.0110058784485,0.0106470584869,0.00127482414246,8.93413305283
34,0.265612125397,0.0102438926697,0.0107760429382,0.0012309551239,9.65162014961
35,0.267008066177,0.0101211071014,0.0107488632202,0.00126504898071,9.93290615082
36,0.268579959869,0.0104999542236,0.0108959674835,0.00125408172607,10.0142679214
37,0.266443967819,0.0100879669189,0.0107729434967,0.00122404098511,10.2877471447
38,0.264409065247,0.0101499557495,0.0111680030823,0.00118899345398,10.627311945
39,0.271409034729,0.0109930038452,0.0105299949646,0.00114917755127,10.4844219685
40,0.262779712677,0.00989413261414,0.0110161304474,0.0012149810791,10.8365240097
41,0.266367912292,0.0103571414948,0.0106120109558,0.00144100189209,11.58852005
42,0.270248889923,0.0101931095123,0.0108759403229,0.00120401382446,11.5611038208
43,0.27303814888,0.0103261470795,0.0110170841217,0.00152492523193,11.8638999462
44,0.266436100006,0.0100541114807,0.0104751586914,0.00121283531189,12.180218935
45,0.26741194725,0.0101230144501,0.0104510784149,0.00149393081665,12.4432461262
46,0.267137050629,0.0101189613342,0.0109360218048,0.0012309551239,12.5263690948
47,0.273693323135,0.0107071399689,0.0105710029602,0.00128316879272,13.0511541367
48,0.26969909668,0.0106110572815,0.0106070041656,0.00146198272705,13.3482289314
49,0.273987054825,0.0102970600128,0.0109951496124,0.00124311447144,13.4857420921
50,0.543262720108,0.010705947876,0.0107338428497,0.00181889533997,13.6710147858
51,0.272473812103,0.010488986969,0.0103511810303,0.00156497955322,14.1096980572
52,0.269411087036,0.0103578567505,0.0112600326538,0.00122690200806,14.3248510361
53,0.264714241028,0.0100228786469,0.0112009048462,0.00120401382446,14.5737230778
54,0.263123989105,0.010066986084,0.0105679035187,0.00117611885071,14.8246500492
55,0.267235994339,0.010232925415,0.0107710361481,0.00122714042664,15.1769709587
56,0.263628005981,0.00983691215515,0.0107929706573,0.00125789642334,15.2286930084
57,0.26211309433,0.00992703437805,0.0108070373535,0.00136613845825,15.4275407791
58,0.267036914825,0.0100128650665,0.0107021331787,0.00120115280151,15.7938899994
59,0.260979890823,0.0107259750366,0.0105710029602,0.00120902061462,15.7695059776
60,0.266355037689,0.0101509094238,0.0106179714203,0.00118112564087,16.260051012
61,0.265709877014,0.0104730129242,0.0105800628662,0.00118184089661,16.4202039242
62,0.261463880539,0.0100309848785,0.0104250907898,0.0012149810791,16.8314268589
63,0.267721891403,0.0102279186249,0.0109460353851,0.00120711326599,17.2266058922
64,0.264996051788,0.0103368759155,0.0107269287109,0.00125098228455,17.4246981144
65,0.266496181488,0.0100519657135,0.0109369754791,0.00122404098511,17.3742611408
66,0.266838312149,0.0099949836731,0.010596036911,0.00119495391846,17.8062169552
67,0.271427869797,0.0105268955231,0.0107960700989,0.00120401382446,18.1438810825
68,0.271942853928,0.0106101036072,0.0107140541077,0.00121188163757,18.5758039951
69,0.26799082756,0.0103631019592,0.0112171173096,0.00123906135559,18.7327511311
70,0.275994062424,0.0103850364685,0.0105650424957,0.00116515159607,19.3209679127
71,0.262852907181,0.0101850032806,0.0104620456696,0.0011990070343,19.655228138
72,0.276714086533,0.0106248855591,0.010498046875,0.00120401382446,19.7903370857
73,0.261975049973,0.0100481510162,0.010586977005,0.00119113922119,19.9382221699
74,0.278092861176,0.0104179382324,0.0109891891479,0.00128698348999,20.1455569267
75,0.265553951263,0.0103859901428,0.0108270645142,0.00118184089661,20.7441661358
76,0.271950006485,0.0102441310883,0.0106439590454,0.00122690200806,20.3991510868
77,0.26669383049,0.0103580951691,0.0106408596039,0.00120401382446,21.2014639378
78,0.268308877945,0.0103590488434,0.0107131004333,0.0011830329895,21.5325438976
79,0.268547058105,0.0103549957275,0.0104150772095,0.00118398666382,21.3929691315
80,0.269179105759,0.0099880695343,0.0107018947601,0.00118088722229,21.9579319954
81,0.273605823517,0.0106229782104,0.0108778476715,0.00127005577087,22.2684440613
82,0.270503759384,0.0107009410858,0.0105910301208,0.00119209289551,22.6936359406
83,0.262868881226,0.0102980136871,0.0106709003448,0.00121307373047,22.7695119381
84,0.276179075241,0.0102279186249,0.0107660293579,0.0012321472168,23.0459940434
85,0.27027797699,0.00998902320862,0.0107190608978,0.00153303146362,22.9718470573
86,0.266425132751,0.00990581512451,0.0106890201569,0.00124597549438,23.5908088684
87,0.269232988358,0.0103929042816,0.0105249881744,0.00122284889221,23.7397041321
88,0.270998954773,0.0102779865265,0.0108029842377,0.00119209289551,23.7948060036
89,0.26259303093,0.00994920730591,0.0102550983429,0.0011739730835,23.9517760277
90,0.263965129852,0.00997996330261,0.0104639530182,0.00119209289551,24.4641342163
91,0.264642000198,0.0102870464325,0.0104658603668,0.00116300582886,24.5729310513
92,0.263873100281,0.0100319385529,0.0104289054871,0.00116991996765,25.2317941189
93,0.270352125168,0.0101330280304,0.0107018947601,0.00117206573486,25.1596508026
94,0.262547969818,0.00992107391357,0.010293006897,0.00117301940918,25.1182317734
95,0.272151947021,0.0101599693298,0.0103490352631,0.00119209289551,25.4476571083
96,0.268697977066,0.01016497612,0.0106220245361,0.00122094154358,25.884829998
97,0.266238927841,0.0104730129242,0.0111231803894,0.00145196914673,26.0800559521
98,0.258984804153,0.0102939605713,0.011018037796,0.00137400627136,26.5354819298
99,0.265335798264,0.00995683670044,0.0105950832367,0.00120806694031,26.8179781437
