step,run,get,set,free,run_up_to_step
0,1.14084196091,0.063579082489,0.0737719535828,0.00880289077759,1.16664719582
1,0.923323154449,0.0593891143799,0.0729918479919,0.00854587554932,2.08466291428
2,0.953099966049,0.0619571208954,0.0720770359039,0.00926208496094,3.27045798302
3,0.913958072662,0.0585978031158,0.070898771286,0.00834584236145,3.9551949501
4,0.912588834763,0.0585429668427,0.0697221755981,0.008376121521,5.11309313774
5,0.9300801754,0.0573499202728,0.0708661079407,0.0088632106781,5.78179001808
6,0.906669855118,0.0596940517426,0.0702698230743,0.00864791870117,6.7106449604
7,0.942597866058,0.0582849979401,0.0718350410461,0.00855612754822,7.7354259491
8,0.930432081223,0.0571260452271,0.0712559223175,0.00995087623596,8.66076612473
9,0.922846078873,0.0586681365967,0.0711328983307,0.00878381729126,9.65824103355
10,1.35087227821,0.057844877243,0.0718250274658,0.00920295715332,10.5449528694
11,0.944035053253,0.0596330165863,0.0716469287872,0.00848388671875,11.4262421131
12,0.924988985062,0.0599811077118,0.071937084198,0.00891494750977,12.8495459557
13,0.918220043182,0.0586669445038,0.0708999633789,0.00855183601379,13.344907999
14,0.934711933136,0.06036901474,0.0690369606018,0.00843095779419,14.4777569771
15,0.940990209579,0.0578711032867,0.0712339878082,0.00882387161255,15.9409189224
16,0.939764022827,0.0595371723175,0.0694990158081,0.00883817672729,16.3377189636
17,0.948718070984,0.0602478981018,0.071270942688,0.00854110717773,17.2232711315
18,0.943552017212,0.060702085495,0.0711870193481,0.0085928440094,18.5179531574
19,0.978018760681,0.0604147911072,0.0698051452637,0.00890803337097,19.4282281399
20,0.950779914856,0.0583069324493,0.0712480545044,0.00867700576782,20.6815040112
21,0.911386013031,0.0588629245758,0.0707879066467,0.00882792472839,21.3797750473
22,0.93625497818,0.0606641769409,0.0703418254852,0.00876498222351,22.2693071365
23,0.950965881348,0.0613830089569,0.0701901912689,0.00887393951416,22.8472030163
24,0.933406114578,0.0573539733887,0.0720729827881,0.00868701934814,24.6313519478
25,0.948772192001,0.0609090328217,0.0713398456573,0.00842905044556,25.0429930687
26,0.902487039566,0.0568020343781,0.0699760913849,0.0085301399231,25.6641640663
27,0.935315132141,0.0607829093933,0.0705778598785,0.0084240436554,26.0697231293
28,0.925110816956,0.058079957962,0.0712320804596,0.00816607475281,27.5159859657
29,0.919637918472,0.0601329803467,0.0694139003754,0.00823307037354,28.9838831425
30,0.905992031097,0.0577299594879,0.0706398487091,0.00871014595032,29.2732279301
31,0.932813882828,0.0582818984985,0.06951212883,0.00850200653076,30.1621057987
32,0.916301965714,0.0586218833923,0.070433139801,0.00827288627625,31.0859019756
33,1.00896596909,0.0596420764923,0.0684578418732,0.00834202766418,32.1241381168
34,0.926156282425,0.0579440593719,0.0717520713806,0.00911903381348,34.9950149059
35,0.91870880127,0.0604610443115,0.0710558891296,0.00938892364502,34.2926859856
36,0.963032960892,0.0605928897858,0.0700769424438,0.00876712799072,35.4754068851
37,0.928858041763,0.0597050189972,0.0694420337677,0.0085289478302,37.0337409973
38,0.926216125488,0.0590670108795,0.0704441070557,0.00907397270203,37.8306639194
39,1.41883277893,0.0571539402008,0.0717470645905,0.00869393348694,39.1902639866
40,0.940292835236,0.0595860481262,0.0694580078125,0.00851798057556,39.8760709763
41,0.938810110092,0.0601491928101,0.0718250274658,0.00866603851318,40.3891339302
42,0.941788911819,0.0593619346619,0.0703990459442,0.00820016860962,41.1948730946
43,0.920440196991,0.0572409629822,0.0697541236877,0.00848579406738,41.0430080891
44,0.912421941757,0.0564320087433,0.0702040195465,0.00794291496277,41.9544079304
45,0.91924905777,0.0572600364685,0.0710990428925,0.00901389122009,44.2843971252
46,0.944170951843,0.0577170848846,0.0709249973297,0.00860190391541,44.9996318817
47,0.926441907883,0.0598449707031,0.0685889720917,0.00829195976257,45.412528038
48,0.910043001175,0.0573830604553,0.069354057312,0.00879096984863,46.1233239174
49,0.925080060959,0.0594220161438,0.068510055542,0.00841188430786,47.5386381149
50,0.928092002869,0.0588390827179,0.0693788528442,0.00877690315247,48.6579189301
51,0.914900779724,0.0570061206818,0.069981098175,0.00831508636475,50.2093999386
52,0.938179016113,0.0594899654388,0.0714471340179,0.00887298583984,50.8355090618
53,0.945330858231,0.0578780174255,0.0713739395142,0.00886988639832,52.6336629391
54,0.91949224472,0.0570249557495,0.0736451148987,0.00869703292847,52.6283140182
55,0.942306995392,0.0588059425354,0.0702459812164,0.00859189033508,53.5397770405
56,0.932385921478,0.0572900772095,0.0699579715729,0.008633852005,54.128177166
57,0.948650121689,0.0610780715942,0.0693421363831,0.00850892066956,55.8983438015
58,0.916360855103,0.0596780776978,0.0704319477081,0.00854682922363,55.5079939365
59,0.942855358124,0.0578370094299,0.0686910152435,0.00818109512329,57.8436789513
60,0.926128864288,0.0572741031647,0.0688350200653,0.00829792022705,57.0991871357
61,0.916659832001,0.0585639476776,0.0712070465088,0.00834012031555,58.6037390232
62,0.92224407196,0.0569729804993,0.0700531005859,0.0082950592041,60.4187300205
63,0.911942958832,0.0582408905029,0.0704679489136,0.00873112678528,60.5486490726
64,0.915465831757,0.0571191310883,0.0696861743927,0.00844717025757,62.2489109039
65,0.951085090637,0.0569779872894,0.0695929527283,0.00827288627625,63.2514021397
66,0.956280231476,0.0571038722992,0.0702981948853,0.00851702690125,64.8882229328
67,0.939608097076,0.0590059757233,0.0713109970093,0.00930905342102,65.1934859753
68,0.930555105209,0.0591521263123,0.0703120231628,0.00819087028503,65.898401022
69,0.959821939468,0.0592319965363,0.0682740211487,0.00820684432983,67.1179330349
70,0.905886173248,0.0571551322937,0.0713429450989,0.00858306884766,66.7634561062
71,0.933981895447,0.058629989624,0.0693202018738,0.00829291343689,68.4474608898
72,0.932992219925,0.0588598251343,0.0693199634552,0.00867295265198,69.5923340321
73,0.926907062531,0.0572729110718,0.0705478191376,0.00838994979858,69.5267109871
74,0.911895275116,0.0575559139252,0.069531917572,0.00828981399536,70.7719619274
75,0.914621114731,0.0585889816284,0.0715968608856,0.00848293304443,73.2233719826
76,0.931751966476,0.0594367980957,0.0691330432892,0.00821399688721,73.425344944
77,0.938131093979,0.0571908950806,0.0694591999054,0.00825500488281,74.7132470608
78,0.944109916687,0.0585110187531,0.0701730251312,0.00838613510132,76.3248510361
79,0.945276021957,0.0585191249847,0.0677030086517,0.00802993774414,77.5110168457
80,0.929174900055,0.05917096138,0.0684928894043,0.00838899612427,76.1334969997
81,0.922121047974,0.0577409267426,0.0698418617249,0.00832796096802,78.0588569641
82,0.929533958435,0.0576100349426,0.0692839622498,0.00816488265991,77.8139557838
83,0.907612800598,0.0578181743622,0.0687479972839,0.0081570148468,78.5577540398
84,0.918036699295,0.0574789047241,0.0731401443481,0.00898289680481,80.6107778549
85,0.908797025681,0.0561339855194,0.0724580287933,0.00850009918213,80.9415750504
86,0.914852142334,0.0587379932404,0.0708250999451,0.00816202163696,83.8626770973
87,0.92830324173,0.060338973999,0.0701169967651,0.00819396972656,84.4028728008
88,0.909690141678,0.0575859546661,0.070004940033,0.00844812393188,84.0962219238
89,0.926953077316,0.0592539310455,0.0709269046783,0.00798678398132,84.7344088554
90,0.902771949768,0.0560548305511,0.0709030628204,0.00849008560181,85.7189218998
91,0.911597013474,0.0571539402008,0.0704500675201,0.00828099250793,85.7540590763
92,0.907964944839,0.0570361614227,0.0698721408844,0.00899004936218,88.3423650265
93,0.915958881378,0.0602738857269,0.0709230899811,0.00852298736572,88.8330409527
94,1.4424200058,0.0597109794617,0.0680129528046,0.00905513763428,89.0614237785
95,0.903319120407,0.0568020343781,0.0692009925842,0.00843095779419,88.1004068851
96,1.43876600266,0.058324098587,0.06787109375,0.00871396064758,88.7220640182
97,0.913932085037,0.0569858551025,0.0691030025482,0.00831389427185,89.7557079792
98,0.920128107071,0.0568480491638,0.0690340995789,0.00864505767822,93.4162321091
99,0.928029060364,0.0569519996643,0.068696975708,0.00808119773865,94.3917369843
