step,run,get,set,free,run_up_to_step
0,0.193741083145,0.0057258605957,0.00573086738586,0.00100898742676,0.213452100754
1,0.224935054779,0.00516605377197,0.00587487220764,0.00113296508789,0.649131059647
2,0.194234848022,0.00524210929871,0.00645804405212,0.00162887573242,0.580234050751
3,0.188839912415,0.0054349899292,0.005784034729,0.00133204460144,0.763680934906
4,0.189124107361,0.0054919719696,0.007493019104,0.0012800693512,1.56518411636
5,0.1919298172,0.00563311576843,0.00592398643494,0.00141501426697,1.14790296555
6,0.191517829895,0.0056209564209,0.00569581985474,0.00126910209656,1.93142199516
7,0.526731967926,0.00583410263062,0.00582790374756,0.00130605697632,1.53602004051
8,0.182769060135,0.00557994842529,0.0057418346405,0.00133395195007,2.01892614365
9,0.180058002472,0.00552797317505,0.00568795204163,0.00129199028015,2.49845290184
10,0.178167819977,0.00544810295105,0.00588798522949,0.00137996673584,2.07909798622
11,0.180354833603,0.00567603111267,0.00578999519348,0.00130605697632,3.09484791756
12,0.177932977676,0.00555992126465,0.00598216056824,0.00140190124512,2.40801000595
13,0.201395988464,0.00546717643738,0.006432056427,0.00149011611938,3.06585717201
14,0.181353807449,0.00564098358154,0.00615191459656,0.00165700912476,2.87622094154
15,0.176623106003,0.00558114051819,0.0059711933136,0.0014820098877,3.03688788414
16,0.180959224701,0.00582599639893,0.00586104393005,0.00133800506592,3.18058085442
17,0.175537109375,0.00560712814331,0.00588393211365,0.00138878822327,3.93788409233
18,0.228194952011,0.00567317008972,0.0061411857605,0.00160121917725,3.45870804787
19,0.181272029877,0.00574803352356,0.0059449672699,0.00133204460144,3.73070001602
20,0.180639028549,0.00580096244812,0.00588893890381,0.00133013725281,3.98671388626
21,0.176970243454,0.00588703155518,0.00626587867737,0.00153994560242,4.26463985443
22,0.177855968475,0.00551605224609,0.00595092773438,0.00147008895874,4.89418792725
23,0.207567930222,0.0059700012207,0.0058479309082,0.00130105018616,4.54374480247
24,0.180258989334,0.00557589530945,0.00580596923828,0.00148296356201,5.10479402542
25,0.194293022156,0.0058741569519,0.00599503517151,0.00130915641785,5.18628120422
26,0.179904222488,0.00566816329956,0.0253889560699,0.00179004669189,4.90566182137
27,0.205225944519,0.00550603866577,0.00595307350159,0.00139284133911,5.55243206024
28,0.176360845566,0.00547003746033,0.00591802597046,0.00133109092712,5.8598139286
29,0.196303129196,0.0055091381073,0.00605583190918,0.00145602226257,6.02830481529
30,0.190403223038,0.00607490539551,0.00606203079224,0.001305103302,6.16966605186
31,0.189386129379,0.00556111335754,0.00606083869934,0.00135207176208,6.5681078434
32,0.186945199966,0.00572800636292,0.00603699684143,0.0014820098877,6.55055904388
33,0.177476882935,0.00546813011169,0.00598192214966,0.0013108253479,6.77220916748
34,0.941350221634,0.00606513023376,0.00655603408813,0.00141596794128,6.62587094307
35,0.175614833832,0.00538110733032,0.00617909431458,0.00142693519592,6.95775794983
36,0.178796052933,0.00538897514343,0.0061252117157,0.00136184692383,7.60183501244
37,0.179574012756,0.00545620918274,0.00621604919434,0.0014271736145,7.79480195045
38,0.18591594696,0.0058331489563,0.00610303878784,0.00157999992371,8.0284678936
39,0.21221780777,0.00617098808289,0.00615906715393,0.00156497955322,7.91997885704
40,0.202167987823,0.00575399398804,0.00607705116272,0.00140309333801,8.53243088722
41,0.176598072052,0.00554203987122,0.00724291801453,0.00178694725037,8.34676790237
42,0.182816982269,0.00576400756836,0.00659513473511,0.00138783454895,8.39858984947
43,0.201649904251,0.00602293014526,0.00625109672546,0.00145292282104,8.83597207069
44,0.178599834442,0.00549697875977,0.00589108467102,0.00149893760681,8.94027209282
45,0.200991153717,0.00550580024719,0.00616097450256,0.00132894515991,9.17225503922
46,0.213600873947,0.00576305389404,0.00618004798889,0.00139093399048,9.40116095543
47,0.564924716949,0.00655388832092,0.0060670375824,0.00137400627136,9.49376511574
48,0.179632663727,0.00629806518555,0.00616693496704,0.00137901306152,9.55367708206
49,0.495726108551,0.00570821762085,0.00608396530151,0.00134921073914,10.431456089
50,0.179080247879,0.00536203384399,0.00643491744995,0.00158190727234,10.0895540714
51,0.19065618515,0.00628900527954,0.0067081451416,0.00165200233459,10.6136088371
52,0.193735837936,0.0057909488678,0.00713706016541,0.00167107582092,10.6267540455
53,0.178457975388,0.00551199913025,0.00615382194519,0.00132513046265,10.7536220551
54,0.186662912369,0.00609397888184,0.00679397583008,0.0014660358429,10.7921600342
55,0.179749965668,0.00557398796082,0.00636219978333,0.00139904022217,11.0327088833
56,0.181331157684,0.00607490539551,0.00646495819092,0.00142693519592,11.36409688
57,0.195454120636,0.0061469078064,0.00606107711792,0.00147199630737,11.1686730385
58,0.1851811409,0.00589513778687,0.00600695610046,0.0014169216156,11.7450809479
59,0.592592000961,0.00626015663147,0.00679898262024,0.00141406059265,12.0061650276
60,0.177700042725,0.00569486618042,0.00631904602051,0.00174403190613,12.1447999477
61,0.181030035019,0.00587511062622,0.00607490539551,0.00137114524841,11.9624860287
62,0.17893576622,0.00557494163513,0.00616502761841,0.00145411491394,12.2901849747
63,0.197188854218,0.00632286071777,0.0070059299469,0.00148797035217,12.6136448383
64,0.178961992264,0.00583577156067,0.00618290901184,0.00137186050415,12.9380128384
65,0.189654111862,0.00618410110474,0.0066020488739,0.0014660358429,13.0854661465
66,0.178396940231,0.00595688819885,0.00624299049377,0.00151491165161,13.0031890869
67,0.177611112595,0.00597906112671,0.00622510910034,0.0016028881073,12.9993441105
68,0.178651094437,0.00565886497498,0.00596904754639,0.00155806541443,13.6528611183
69,0.185576200485,0.00608110427856,0.00593090057373,0.0013599395752,13.2345228195
70,0.195974111557,0.00586795806885,0.00635695457458,0.00132608413696,13.5506279469
71,0.184684991837,0.00596809387207,0.00625896453857,0.001620054245,13.7840089798
72,0.183636903763,0.00600099563599,0.00619006156921,0.00141477584839,14.1166651249
73,0.18136882782,0.00636100769043,0.00599098205566,0.00133299827576,13.9455399513
74,0.177294015884,0.00557899475098,0.00639319419861,0.00169205665588,14.6282021999
75,0.177921772003,0.00586485862732,0.00606393814087,0.00136804580688,14.829529047
76,0.176445007324,0.00567722320557,0.00618195533752,0.00134992599487,15.1495280266
77,0.176656007767,0.00561785697937,0.00606298446655,0.00155210494995,15.0548479557
78,0.18313908577,0.00602912902832,0.0062460899353,0.00159502029419,15.2094039917
79,0.180845737457,0.00629782676697,0.006667137146,0.00145602226257,14.7357671261
80,0.179632902145,0.00572085380554,0.00723004341125,0.00208902359009,15.8989388943
81,0.180744171143,0.00595498085022,0.00649499893188,0.00132489204407,15.4806909561
82,0.177460193634,0.00585913658142,0.00609397888184,0.00157999992371,15.9999630451
83,0.184089899063,0.0056688785553,0.006098985672,0.00132989883423,16.0517420769
84,0.171898841858,0.00587677955627,0.00632882118225,0.00142002105713,17.0842671394
85,0.168390989304,0.00577020645142,0.00616598129272,0.00134420394897,16.915307045
86,0.177143096924,0.00552177429199,0.00702285766602,0.00166606903076,16.5278060436
87,0.207090854645,0.00567007064819,0.00610184669495,0.00137996673584,17.8700098991
88,0.23458480835,0.00570297241211,0.00601005554199,0.0013279914856,16.8819999695
89,0.199964046478,0.00577306747437,0.00613284111023,0.00159406661987,17.042181015
90,0.168969869614,0.00588393211365,0.00604295730591,0.00158405303955,17.1027760506
91,0.177593946457,0.00594711303711,0.00609612464905,0.00156497955322,17.4654090405
92,0.176482915878,0.00587105751038,0.00597286224365,0.00137090682983,17.403703928
93,0.196223020554,0.00647497177124,0.00633001327515,0.00149989128113,17.7436578274
94,0.181767940521,0.00610899925232,0.00616192817688,0.0013530254364,18.0145189762
95,0.18119597435,0.00615191459656,0.00616216659546,0.00152397155762,18.4915120602
96,0.176531076431,0.00590920448303,0.00600504875183,0.00157308578491,18.6940197945
97,0.172831058502,0.00628709793091,0.00674104690552,0.00159406661987,18.3734431267
98,0.198974132538,0.00575089454651,0.00636196136475,0.00150299072266,19.2649729252
99,0.181445121765,0.00595498085022,0.00629496574402,0.00162816047668,19.7629590034
