step,run,get,set,free,run_up_to_step
0,0.265797138214,0.0105991363525,0.0119998455048,0.00279903411865,0.296641111374
1,0.246163845062,0.0114130973816,0.0120289325714,0.00278997421265,0.543694972992
2,0.244719982147,0.0111589431763,0.0125620365143,0.00327396392822,0.78248000145
3,0.247290849686,0.0108351707458,0.0121538639069,0.00279998779297,1.02785205841
4,0.24452495575,0.0110309123993,0.0119771957397,0.00276398658752,1.28838086128
5,0.245666980743,0.0113489627838,0.0122430324554,0.00277805328369,1.52397203445
6,0.246876001358,0.0110168457031,0.0119562149048,0.00277709960938,2.34052801132
7,0.244550704956,0.0111889839172,0.0122580528259,0.00274109840393,2.05279517174
8,0.245380878448,0.0109059810638,0.0121309757233,0.00278401374817,2.37093091011
9,0.24964094162,0.0111989974976,0.0119841098785,0.00276112556458,2.75669407845
10,0.249862909317,0.0119440555573,0.0122799873352,0.00277400016785,2.91397500038
11,0.255021095276,0.0118520259857,0.0119678974152,0.00275206565857,3.04167413712
12,0.248937129974,0.0115911960602,0.0119769573212,0.00307893753052,3.28219389915
13,0.254390954971,0.0118160247803,0.0120708942413,0.00277996063232,3.71539211273
14,0.254654169083,0.0111980438232,0.0120098590851,0.00307297706604,4.18464708328
15,0.249086141586,0.0114929676056,0.0120198726654,0.00278091430664,4.03176593781
16,0.246802806854,0.0118219852448,0.0120460987091,0.0027539730072,4.27958583832
17,0.250620126724,0.0118169784546,0.0123898983002,0.00274705886841,4.55579185486
18,0.956377029419,0.01060795784,0.0120460987091,0.00278997421265,5.17777681351
19,0.24916601181,0.010843038559,0.0119938850403,0.00277900695801,5.55245184898
20,0.254656076431,0.0109658241272,0.0119800567627,0.00278210639954,6.11385893822
21,0.245622873306,0.0117609500885,0.0119819641113,0.00277590751648,5.79661488533
22,0.241884946823,0.0105378627777,0.0120718479156,0.00277996063232,6.97681307793
23,0.249799013138,0.011137008667,0.0124750137329,0.00328183174133,6.06203699112
24,0.262120008469,0.0117890834808,0.0119760036469,0.00277495384216,6.32939195633
25,0.248382091522,0.0117328166962,0.0123219490051,0.00277018547058,6.57362008095
26,0.254369974136,0.0105841159821,0.0120730400085,0.00279211997986,7.31009888649
27,0.247442960739,0.0111570358276,0.0119690895081,0.00278806686401,7.55281996727
28,0.24645113945,0.0117499828339,0.0120220184326,0.00275015830994,7.32214403152
29,0.247990131378,0.0110690593719,0.0119919776917,0.00305700302124,7.73932695389
30,0.245692968369,0.0107681751251,0.0121340751648,0.00285887718201,8.28115391731
31,0.252692222595,0.0108330249786,0.0119888782501,0.00279998779297,8.88170099258
32,0.25430893898,0.0104780197144,0.0119800567627,0.00276899337769,9.01470685005
33,0.253467798233,0.01051902771,0.0119948387146,0.00279593467712,9.24707579613
34,0.250236749649,0.0107982158661,0.0122811794281,0.00282597541809,10.4711010456
35,0.258239746094,0.0107088088989,0.0122601985931,0.00277304649353,9.96250581741
36,0.245141983032,0.0109918117523,0.0120089054108,0.00308394432068,10.1885671616
37,0.246823072433,0.0117859840393,0.0120191574097,0.00306391716003,9.51772594452
38,0.250488996506,0.0110960006714,0.0120100975037,0.00279498100281,10.5289320946
39,0.246847867966,0.0109040737152,0.0121269226074,0.00275301933289,10.5940511227
40,0.245091199875,0.0108368396759,0.0125141143799,0.00312113761902,10.6821639538
41,0.244213104248,0.0105698108673,0.0120120048523,0.00277495384216,10.732047081
42,0.24477314949,0.0109429359436,0.0119659900665,0.00274801254272,11.3529651165
43,0.24433016777,0.0104839801788,0.0120120048523,0.0027539730072,11.6569070816
44,0.250859975815,0.010960817337,0.0122699737549,0.00279998779297,11.6602561474
45,0.258296012878,0.0104880332947,0.0119960308075,0.00281119346619,12.3732771873
46,0.258583068848,0.0108799934387,0.0120937824249,0.00279402732849,13.0097310543
47,0.246360778809,0.0105431079865,0.0126831531525,0.00275111198425,12.8301711082
48,0.249017953873,0.0110249519348,0.0119760036469,0.00274801254272,13.2795670033
49,0.249506950378,0.0113289356232,0.0121121406555,0.0027539730072,14.0016019344
50,0.245561122894,0.0106720924377,0.0121831893921,0.00281381607056,13.3567550182
51,0.258655071259,0.0115270614624,0.0120601654053,0.00275015830994,13.5971560478
52,0.245924949646,0.0107789039612,0.0120167732239,0.00276398658752,13.9606039524
53,0.248932123184,0.0110638141632,0.0122001171112,0.00278306007385,14.3595030308
54,0.246276855469,0.0112779140472,0.0120408535004,0.00290703773499,14.9379382133
55,0.248169183731,0.0105180740356,0.011999130249,0.00280499458313,14.7523980141
56,0.255286931992,0.0105681419373,0.0119941234589,0.00277996063232,14.7027938366
57,0.256607055664,0.0107951164246,0.0119550228119,0.00279808044434,14.9385089874
58,0.255629062653,0.0113608837128,0.0119669437408,0.00280404090881,15.7163081169
59,0.257282972336,0.0107569694519,0.0120170116425,0.00277805328369,15.3961958885
60,0.249173164368,0.0107500553131,0.0122888088226,0.00277900695801,15.7878820896
61,0.258775949478,0.0110659599304,0.0123329162598,0.00277900695801,16.2958610058
62,0.245556116104,0.0107760429382,0.0122921466827,0.0027551651001,16.581994772
63,0.245436906815,0.0108850002289,0.0125510692596,0.00274801254272,17.3097281456
64,0.259704828262,0.0109188556671,0.0127739906311,0.00279092788696,17.1367051601
65,0.253453969955,0.0110099315643,0.0119850635529,0.00287389755249,17.3697900772
66,0.24670290947,0.011011838913,0.0122468471527,0.00276207923889,18.4794619083
67,0.24410700798,0.0108530521393,0.0120151042938,0.002769947052,17.7700400352
68,0.245440006256,0.0107340812683,0.0120079517365,0.00279188156128,18.6755568981
69,0.245445251465,0.0106000900269,0.0121419429779,0.00279712677002,17.9145829678
70,0.255593061447,0.0117869377136,0.0119798183441,0.00279307365417,18.9486949444
71,0.24507689476,0.0109930038452,0.0119819641113,0.00278806686401,19.1364090443
72,0.244793891907,0.010754108429,0.0121018886566,0.00275015830994,18.5538392067
73,0.245115995407,0.0108668804169,0.012433052063,0.00277304649353,19.6323068142
74,0.255826950073,0.0106520652771,0.0122649669647,0.00274991989136,21.1452059746
75,0.247364997864,0.0111269950867,0.0120108127594,0.00277495384216,21.375328064
76,0.246054172516,0.0107970237732,0.0122411251068,0.00277900695801,19.7312090397
77,0.246545791626,0.0110158920288,0.0121438503265,0.00275015830994,20.118489027
78,0.245290994644,0.01051902771,0.0124199390411,0.00277209281921,22.3364601135
79,0.245857954025,0.0104188919067,0.0119738578796,0.00275802612305,20.8534059525
80,0.251055002213,0.0107851028442,0.0123748779297,0.00278615951538,20.9247279167
81,0.252363920212,0.0107100009918,0.0119760036469,0.00275993347168,22.3457758427
82,0.254919052124,0.0118458271027,0.0122520923615,0.00278997421265,21.2023360729
83,0.246236085892,0.0110759735107,0.0120489597321,0.00276899337769,23.1974620819
84,0.251414060593,0.0105090141296,0.0119829177856,0.00275492668152,22.946611166
85,0.255002975464,0.0106000900269,0.0122480392456,0.00279879570007,22.0142099857
86,0.247421741486,0.0114140510559,0.0122530460358,0.00277709960938,22.9666428566
87,0.245557069778,0.0108988285065,0.0119879245758,0.00281810760498,24.1393549442
88,0.246490240097,0.0110380649567,0.012412071228,0.00275206565857,22.7656419277
89,0.251736879349,0.0111417770386,0.0122580528259,0.00279092788696,24.6136741638
90,0.247370958328,0.0105807781219,0.0122389793396,0.00278091430664,25.3076510429
91,0.25234413147,0.0106019973755,0.0120661258698,0.00309109687805,23.6648569107
92,0.246196985245,0.0108189582825,0.0124518871307,0.00280499458313,23.7259459496
93,0.257698774338,0.0115962028503,0.0119750499725,0.00274705886841,25.5935840607
94,0.254014968872,0.0112280845642,0.0120069980621,0.00289416313171,26.3986928463
95,0.246802091599,0.0106618404388,0.0121350288391,0.00275111198425,26.594440937
96,0.247006177902,0.0107982158661,0.0123929977417,0.00274682044983,25.0385959148
97,0.24812412262,0.010733127594,0.0126421451569,0.0027711391449,26.0513179302
98,0.896663188934,0.0112450122833,0.0121638774872,0.00289583206177,25.9240300655
99,0.25399684906,0.0120761394501,0.012001991272,0.00276589393616,26.6541640759
