step,run,get,set,free,run_up_to_step
0,0.73291015625,0.0379199981689,0.0315120220184,0.0068621635437,0.722919940948
1,0.706824064255,0.0283498764038,0.0307741165161,0.00633597373962,1.44446206093
2,0.740474939346,0.0277149677277,0.0368409156799,0.00644207000732,2.07681798935
3,0.728319883347,0.0285160541534,0.034542798996,0.00767087936401,2.8398668766
4,0.690301895142,0.0282480716705,0.032103061676,0.0071849822998,3.5249350071
5,0.710427045822,0.0283019542694,0.0371739864349,0.0075159072876,4.49810504913
6,0.712144136429,0.0291278362274,0.0312988758087,0.00700807571411,5.3274769783
7,0.68937921524,0.0296280384064,0.033401966095,0.00668001174927,5.51918196678
8,0.751216888428,0.0296268463135,0.0348310470581,0.00923895835876,6.42519211769
9,0.692203044891,0.0291318893433,0.0322711467743,0.00679612159729,7.20316505432
10,0.716012001038,0.027951002121,0.0325329303741,0.00658512115479,8.55500507355
11,0.735672950745,0.0290260314941,0.0325930118561,0.00810313224792,8.68933796883
12,0.691807985306,0.0298421382904,0.0357899665833,0.00698494911194,9.31683492661
13,0.70049405098,0.0299050807953,0.032466173172,0.00678491592407,9.88185787201
14,0.734881877899,0.029639005661,0.0318720340729,0.00675296783447,11.3025960922
15,0.89041185379,0.0405797958374,0.0312509536743,0.00656509399414,12.0519590378
16,0.71507191658,0.0294940471649,0.0320708751678,0.00641417503357,12.5948140621
17,0.716075897217,0.0316479206085,0.0328080654144,0.0068211555481,12.4474239349
18,0.690639019012,0.029149055481,0.0321359634399,0.00678896903992,13.8639159203
19,0.727607965469,0.0294868946075,0.031849861145,0.0077600479126,14.5483379364
20,0.684000968933,0.029137134552,0.0321679115295,0.00669693946838,15.4222037792
21,0.690145969391,0.0280900001526,0.0353329181671,0.0081000328064,15.8366780281
22,0.690309047699,0.0331029891968,0.0317409038544,0.00652694702148,16.1815159321
23,0.689207077026,0.0284011363983,0.0476379394531,0.0081570148468,18.070346117
24,0.706943035126,0.0314519405365,0.0318398475647,0.00644898414612,18.2649390697
25,0.696416139603,0.0283260345459,0.032154083252,0.00658297538757,18.6345858574
26,0.718359947205,0.031033039093,0.0310759544373,0.00676298141479,20.5163071156
27,0.680894136429,0.0288269519806,0.0314569473267,0.00646805763245,20.9214570522
28,0.719591140747,0.0284819602966,0.0324699878693,0.00689697265625,20.3471360207
29,0.712071657181,0.0286478996277,0.0343010425568,0.00704717636108,21.9082250595
30,0.764615058899,0.0299408435822,0.0315001010895,0.00631022453308,23.1998100281
31,0.71330499649,0.0289311408997,0.0374438762665,0.00831699371338,23.853112936
32,0.691226005554,0.028529882431,0.0331180095673,0.00734186172485,23.6127729416
33,0.712142944336,0.0296499729156,0.0362319946289,0.0068461894989,24.3703000546
34,0.715932846069,0.0306031703949,0.0313229560852,0.00654006004333,24.9802360535
35,0.705207109451,0.0293798446655,0.0324230194092,0.00663185119629,27.1082639694
36,0.701821088791,0.0288698673248,0.0320129394531,0.00699710845947,27.273927927
37,0.713131189346,0.0282289981842,0.031270980835,0.00693988800049,28.4366779327
38,0.680360078812,0.0275001525879,0.0327589511871,0.00712299346924,28.8854429722
39,0.744009971619,0.0282909870148,0.0308198928833,0.00838804244995,30.3677830696
40,0.726529836655,0.0278868675232,0.0322570800781,0.00676488876343,29.0201199055
41,0.683163166046,0.0311949253082,0.0319230556488,0.00650095939636,30.7446830273
42,0.695383071899,0.0283789634705,0.0314359664917,0.00645303726196,32.1148159504
43,0.688608884811,0.0278029441833,0.0318520069122,0.00661182403564,31.1257090569
44,0.684257984161,0.0281281471252,0.031525850296,0.00629997253418,31.9682810307
45,0.684313058853,0.0286428928375,0.0323579311371,0.00667786598206,33.2016251087
46,0.685008764267,0.0323050022125,0.0315589904785,0.00658011436462,33.6267960072
47,0.696333885193,0.0287919044495,0.0333118438721,0.00667285919189,33.5421259403
48,0.693922996521,0.0290410518646,0.0342679023743,0.00652503967285,35.6259610653
49,0.817374944687,0.0294778347015,0.0314040184021,0.00639009475708,36.3220758438
50,1.12571406364,0.0288889408112,0.031347990036,0.00774908065796,36.5782740116
51,0.721424102783,0.0291481018066,0.0310311317444,0.00649189949036,36.6657438278
52,0.754035949707,0.029746055603,0.0326170921326,0.0064640045166,38.3515629768
53,0.711063861847,0.0285110473633,0.03151512146,0.00643396377563,40.4602429867
54,0.701246023178,0.0299060344696,0.0333359241486,0.00676989555359,39.6562550068
55,0.701458930969,0.0295481681824,0.0317630767822,0.006422996521,39.4919872284
56,0.712720870972,0.0306029319763,0.0336668491364,0.0068039894104,40.7821559906
57,0.754083871841,0.0299210548401,0.0314788818359,0.00667881965637,42.6899769306
58,0.698954820633,0.0293731689453,0.0309908390045,0.00636792182922,43.7191781998
59,0.704971075058,0.0283799171448,0.0313279628754,0.00658583641052,43.7389030457
60,0.758755922318,0.0321199893951,0.0312488079071,0.0064959526062,44.62743783
61,0.705528974533,0.0286149978638,0.0320498943329,0.00687694549561,44.2539839745
62,0.736463069916,0.0294721126556,0.0318109989166,0.00674104690552,46.659804821
63,0.718798875809,0.0298848152161,0.0325839519501,0.00635385513306,45.9351930618
64,0.848428726196,0.0291030406952,0.0325398445129,0.00781011581421,45.9739391804
65,0.687544822693,0.0311069488525,0.0315339565277,0.00653004646301,47.3008880615
66,0.691445827484,0.0297439098358,0.0324470996857,0.00728917121887,49.1950471401
67,0.695248126984,0.0296771526337,0.0321090221405,0.00661087036133,49.3251540661
68,0.72310590744,0.0290548801422,0.0318298339844,0.0067298412323,50.7584190369
69,0.727432012558,0.0283060073853,0.0321388244629,0.00636196136475,49.7560908794
70,0.725772857666,0.0287389755249,0.0318109989166,0.00677490234375,51.4846968651
71,0.872921943665,0.0409049987793,0.0319168567657,0.00650215148926,51.5246191025
72,0.691364049911,0.0292320251465,0.0328280925751,0.00677800178528,54.9088060856
73,0.713711977005,0.0307319164276,0.0316438674927,0.00642490386963,54.842813015
74,0.71465587616,0.0296468734741,0.0334060192108,0.0064389705658,54.2336502075
75,0.726813316345,0.0294549465179,0.031553030014,0.00640201568604,54.1893720627
76,0.728221893311,0.0304989814758,0.0314018726349,0.00654721260071,54.264425993
77,0.727033853531,0.0316331386566,0.0322940349579,0.00641894340515,58.3503630161
78,0.696871042252,0.0282261371613,0.0323679447174,0.00685501098633,56.0940079689
79,0.692252874374,0.0279240608215,0.0320270061493,0.00641798973083,60.104998827
80,0.714808225632,0.0285611152649,0.0321378707886,0.00847482681274,57.7847971916
81,0.747345924377,0.0294690132141,0.0321419239044,0.00655078887939,60.8508229256
82,0.737983942032,0.0301640033722,0.0334448814392,0.00697112083435,60.6231520176
83,0.721621990204,0.0317358970642,0.0383291244507,0.00793695449829,60.2503688335
84,0.736364841461,0.0289278030396,0.0316679477692,0.00651907920837,60.6278731823
85,0.717586994171,0.0293431282043,0.0335228443146,0.00673294067383,61.3148200512
86,0.755201816559,0.0288438796997,0.031439781189,0.00675201416016,65.0112140179
87,0.680640935898,0.0335788726807,0.0328900814056,0.00644302368164,65.175809145
88,0.69629907608,0.0316128730774,0.0324630737305,0.00647187232971,64.3155050278
89,0.695307016373,0.0277738571167,0.0344390869141,0.00664901733398,65.8816771507
90,0.718892097473,0.0276598930359,0.0313367843628,0.00625681877136,65.2123169899
91,0.743856906891,0.029109954834,0.03084897995,0.00649905204773,64.1940510273
92,0.705935955048,0.0285320281982,0.0321798324585,0.00637888908386,68.8530590534
93,0.770696163177,0.0293560028076,0.0311920642853,0.00698208808899,66.5064558983
94,0.689529895782,0.0282859802246,0.0308980941772,0.00697493553162,69.1365580559
95,0.705914258957,0.0277099609375,0.0317099094391,0.00645804405212,69.2486429214
96,0.876554965973,0.0427350997925,0.032007932663,0.00631403923035,70.0502860546
97,0.705080986023,0.0287940502167,0.0311970710754,0.00640296936035,68.7500360012
98,0.702568054199,0.0279722213745,0.0424139499664,0.0103449821472,69.9537358284
99,0.680394887924,0.0277860164642,0.0324161052704,0.0068051815033,69.9701461792
