step,run,get,set,free,run_up_to_step
0,0.327758073807,0.0101799964905,0.0124528408051,0.00116395950317,0.329132795334
1,0.319756984711,0.0107619762421,0.0120050907135,0.00112199783325,0.65163397789
2,0.313669919968,0.0103089809418,0.0118820667267,0.00114798545837,0.959666967392
3,0.311681270599,0.0104138851166,0.0121469497681,0.00115513801575,1.28748512268
4,0.323845863342,0.0106558799744,0.0121278762817,0.00114011764526,1.62025618553
5,0.320232152939,0.0110909938812,0.0119690895081,0.00114989280701,2.55205702782
6,0.314503192902,0.0104401111603,0.0123729705811,0.00114512443542,2.20863986015
7,0.891932725906,0.010575056076,0.0123009681702,0.00124907493591,2.56911206245
8,0.324610710144,0.0106871128082,0.0119199752808,0.0011739730835,2.89502596855
9,0.326588153839,0.0106492042542,0.0123369693756,0.0011739730835,3.27327013016
10,0.313230037689,0.010666847229,0.0121078491211,0.00122404098511,3.55352497101
11,0.3256483078,0.010754108429,0.0121068954468,0.00130200386047,3.84757399559
12,0.321307897568,0.010614156723,0.0121579170227,0.00119996070862,4.14939498901
13,0.317510128021,0.01056599617,0.0121340751648,0.00128388404846,4.97258496284
14,0.324042081833,0.0106339454651,0.0125889778137,0.00147390365601,4.7723441124
15,0.322844743729,0.0111091136932,0.0122668743134,0.00119400024414,5.0773639679
16,0.319832801819,0.0105459690094,0.0119609832764,0.00117993354797,5.90853500366
17,0.312469005585,0.0101890563965,0.0117409229279,0.00122618675232,5.99936413765
18,0.311765909195,0.010694026947,0.0125949382782,0.00148296356201,5.88511109352
19,0.30882024765,0.011078119278,0.0120260715485,0.00119805335999,6.28467011452
20,0.322677850723,0.0110170841217,0.0118980407715,0.00108289718628,6.63849711418
21,0.325813055038,0.0110819339752,0.0121238231659,0.00115704536438,7.09346103668
22,0.316343069077,0.010812997818,0.0121960639954,0.00113201141357,7.27880501747
23,0.308125972748,0.0098991394043,0.0123608112335,0.00121021270752,7.80479693413
24,0.32509803772,0.0104420185089,0.011833190918,0.0011351108551,8.34813499451
25,0.323925018311,0.0103919506073,0.0116989612579,0.00117492675781,8.20717382431
26,0.318321943283,0.0103831291199,0.0122289657593,0.0011899471283,9.17335605621
27,0.316614151001,0.0109860897064,0.0123119354248,0.00120210647583,9.00451612473
28,0.32875418663,0.0107080936432,0.0125639438629,0.00123000144958,9.55082392693
29,0.324528217316,0.0106289386749,0.0119090080261,0.00115323066711,10.0698988438
30,0.311549901962,0.0110759735107,0.012218952179,0.0011670589447,9.68442797661
31,0.309549093246,0.0104069709778,0.0121541023254,0.00116205215454,10.1102640629
32,0.316022157669,0.0108978748322,0.012353181839,0.00144910812378,10.2520530224
33,0.306436061859,0.0100009441376,0.0118081569672,0.00114893913269,11.0796501637
34,0.308714151382,0.0102581977844,0.0124890804291,0.00117802619934,11.1648218632
35,0.308706283569,0.0105011463165,0.0125489234924,0.00114798545837,11.7777221203
36,0.318660974503,0.0103108882904,0.0124189853668,0.00115394592285,12.3213989735
37,0.307944059372,0.010192155838,0.0121428966522,0.00113582611084,12.2878899574
38,0.307900190353,0.0103478431702,0.0123481750488,0.00114607810974,12.6475379467
39,0.310419082642,0.0102679729462,0.0122520923615,0.0011579990387,12.7147099972
40,0.310086965561,0.0101518630981,0.0119330883026,0.00116300582886,13.2227840424
41,0.316105127335,0.0103859901428,0.0119071006775,0.00116586685181,13.3002109528
42,0.30939912796,0.0100240707397,0.012354850769,0.00119090080261,13.6179339886
43,0.310780763626,0.010617017746,0.0120151042938,0.00119018554688,14.1580398083
44,0.31357717514,0.010360956192,0.0119438171387,0.00114607810974,14.5152750015
45,0.313618898392,0.0103471279144,0.0116770267487,0.00148701667786,14.9570479393
46,0.3299741745,0.0104501247406,0.0121231079102,0.0011510848999,15.339977026
47,0.328459978104,0.010498046875,0.0119211673737,0.00113606452942,15.8728868961
48,0.310227870941,0.0103969573975,0.0120911598206,0.00115180015564,15.3892519474
49,0.315572977066,0.0104668140411,0.0123031139374,0.00117206573486,15.9276800156
50,0.314767122269,0.0104880332947,0.0119421482086,0.00119304656982,16.3792390823
51,0.313673019409,0.0104298591614,0.0123479366302,0.00116086006165,16.6783280373
52,0.309998035431,0.010547876358,0.0123300552368,0.00131416320801,17.1553039551
53,0.320551156998,0.010085105896,0.0121250152588,0.00112509727478,17.2885360718
54,0.317614078522,0.0104808807373,0.0120692253113,0.00115489959717,17.8471121788
55,0.317613124847,0.0104439258575,0.0117969512939,0.00148010253906,18.1535739899
56,0.308530092239,0.0107550621033,0.0120849609375,0.00121188163757,17.7894668579
57,0.310811042786,0.0102198123932,0.0119519233704,0.00115609169006,18.3001890182
58,0.318588972092,0.0100269317627,0.0120489597321,0.00116205215454,18.9252099991
59,0.310415029526,0.0103712081909,0.0124700069427,0.00129389762878,19.3155369759
60,0.322772979736,0.0107371807098,0.0120191574097,0.00127911567688,19.8600349426
61,0.308694124222,0.0103080272675,0.0121409893036,0.00116205215454,20.1487438679
62,0.310549974442,0.0105299949646,0.0119318962097,0.00114703178406,20.1485028267
63,0.320587873459,0.0103080272675,0.0122709274292,0.00116109848022,21.0269570351
64,0.31369805336,0.0102801322937,0.0121150016785,0.0011830329895,21.2223460674
65,0.31346988678,0.0105121135712,0.0123021602631,0.0012149810791,21.5546219349
66,0.311950922012,0.010941028595,0.0117878913879,0.00113105773926,21.478402853
67,0.32133769989,0.0103178024292,0.0121529102325,0.00115609169006,21.9232149124
68,0.321054935455,0.0106480121613,0.0117509365082,0.00117897987366,22.7629098892
69,0.322989940643,0.0102880001068,0.0119938850403,0.00107192993164,22.9061760902
70,0.320423126221,0.0107679367065,0.0118708610535,0.00114917755127,23.4553990364
71,0.318396091461,0.0100929737091,0.012139081955,0.00115704536438,23.4825119972
72,0.324778079987,0.0108451843262,0.0119609832764,0.00150609016418,24.0135080814
73,0.312575101852,0.0103080272675,0.0120010375977,0.00114798545837,24.6129808426
74,0.719940185547,0.0108208656311,0.0117330551147,0.00133991241455,24.3768129349
75,0.311046123505,0.0102939605713,0.0121099948883,0.001140832901,24.2555439472
76,0.311578273773,0.0100889205933,0.0119030475616,0.00111603736877,24.7059960365
77,0.332153081894,0.0103669166565,0.0120489597321,0.00115990638733,25.1485869884
78,0.33035993576,0.0100190639496,0.0121760368347,0.00117802619934,25.4395041466
79,0.319067001343,0.010556936264,0.0120449066162,0.00118803977966,26.0915548801
80,0.30974817276,0.0102460384369,0.0121338367462,0.0011579990387,26.392870903
81,0.320878982544,0.0103828907013,0.0120549201965,0.00115895271301,26.9650559425
82,0.313127994537,0.0103230476379,0.0122048854828,0.00114989280701,27.0261278152
83,0.32257270813,0.0104401111603,0.0119619369507,0.00120306015015,27.3058547974
84,0.331724882126,0.0105259418488,0.0119428634644,0.0012948513031,27.8924949169
85,0.328276872635,0.0104970932007,0.0124220848083,0.00119614601135,28.5809760094
86,0.318547964096,0.0107231140137,0.0120830535889,0.00115895271301,28.5827870369
87,0.323566913605,0.0103440284729,0.0122559070587,0.0011842250824,28.8625299931
88,0.32578587532,0.010822057724,0.0122289657593,0.00115609169006,29.875109911
89,0.317520856857,0.010715007782,0.0122890472412,0.00115895271301,29.6641891003
90,0.325897216797,0.0104050636292,0.0119500160217,0.00115394592285,29.7863240242
91,0.319175243378,0.0102829933167,0.0117762088776,0.00115895271301,29.8317089081
92,0.3150370121,0.00988602638245,0.012127161026,0.00116300582886,30.1963789463
93,0.328302145004,0.0104749202728,0.0123710632324,0.00120902061462,31.0265250206
94,0.317770719528,0.0106229782104,0.0121209621429,0.00116801261902,31.708741188
95,0.331249237061,0.0110349655151,0.012326002121,0.00113201141357,31.101984024
96,0.326364994049,0.0106289386749,0.0115580558777,0.001140832901,31.6972990036
97,0.318132162094,0.0106039047241,0.0120780467987,0.0012309551239,31.6090481281
98,0.321312189102,0.0109989643097,0.0121772289276,0.00115489959717,31.8369259834
99,0.312450170517,0.010379076004,0.0123908519745,0.00120711326599,32.6980969906
