step,run,get,set,free,run_up_to_step
0,0.179906845093,0.00274705886841,0.00278687477112,0.000604867935181,0.178020954132
1,0.188072919846,0.00249409675598,0.00306701660156,0.000689029693604,0.356447935104
2,0.182059049606,0.00250196456909,0.00292706489563,0.000637054443359,0.52486205101
3,0.18202996254,0.00274896621704,0.00297594070435,0.000659942626953,0.796312093735
4,0.173583030701,0.00262308120728,0.00316619873047,0.000738143920898,0.914710998535
5,0.178563833237,0.00262498855591,0.00294399261475,0.000688076019287,1.20828580856
6,0.21959400177,0.00288414955139,0.0029628276825,0.000627994537354,1.20266103745
7,0.173230886459,0.0027801990509,0.00286102294922,0.000679969787598,1.43925905228
8,0.198521852493,0.00270819664001,0.00305104255676,0.000642061233521,1.57595205307
9,0.177752971649,0.00262713432312,0.00289797782898,0.000650882720947,1.8464550972
10,0.178272008896,0.00273394584656,0.00286912918091,0.000783920288086,1.97819399834
11,0.174254179001,0.00276207923889,0.00305819511414,0.000789165496826,2.32949304581
12,0.174715995789,0.00279402732849,0.00306010246277,0.000756978988647,2.36757993698
13,0.17454791069,0.00266695022583,0.00297808647156,0.000820875167847,2.46561312675
14,0.173790931702,0.0027551651001,0.00296211242676,0.00068998336792,2.62996292114
15,0.179371833801,0.00288510322571,0.00290203094482,0.000695943832397,2.82170891762
16,0.272983789444,0.00301814079285,0.00311398506165,0.00080394744873,3.071352005
17,0.178931951523,0.00286507606506,0.00306582450867,0.000734090805054,3.1599419117
18,0.179238080978,0.00293302536011,0.00311398506165,0.000766038894653,3.38251185417
19,0.178931951523,0.00267601013184,0.00305104255676,0.000651121139526,4.43789792061
20,0.173581838608,0.00271916389465,0.0033700466156,0.000658988952637,3.94995093346
21,0.172806024551,0.00271415710449,0.00313115119934,0.000656843185425,4.30846309662
22,0.174498081207,0.00263714790344,0.00294399261475,0.000775814056396,4.55787301064
23,0.176365852356,0.00273609161377,0.00320887565613,0.000673055648804,4.77142500877
24,0.177139043808,0.00289702415466,0.00331902503967,0.000888824462891,4.32753705978
25,0.175065040588,0.0026261806488,0.00285482406616,0.000620126724243,5.23955702782
26,0.189576148987,0.00275206565857,0.00295805931091,0.000647068023682,5.26082611084
27,0.175361394882,0.00277519226074,0.00307393074036,0.000674962997437,5.39438891411
28,0.172245025635,0.00292897224426,0.00319600105286,0.00070595741272,5.54873800278
29,0.198350191116,0.00293517112732,0.00316405296326,0.00071907043457,5.90941786766
30,0.186033010483,0.00344395637512,0.003662109375,0.000707864761353,5.868060112
31,0.183880090714,0.00298500061035,0.0029079914093,0.000748872756958,6.00795006752
32,0.18155002594,0.00281810760498,0.00305509567261,0.000755786895752,6.29519915581
33,0.176721811295,0.00298094749451,0.00296902656555,0.000675916671753,6.05821204185
34,0.181403160095,0.00277900695801,0.00321698188782,0.000900030136108,6.74292492867
35,0.82589006424,0.00282311439514,0.00322103500366,0.000643968582153,6.3150100708
36,0.17489027977,0.00294494628906,0.00344586372375,0.000800132751465,6.62393283844
37,0.181204080582,0.00276517868042,0.0033130645752,0.000770092010498,7.40518903732
38,0.176995038986,0.0026957988739,0.00306010246277,0.000645160675049,7.71324396133
39,0.183443784714,0.00278306007385,0.00302290916443,0.000777959823608,7.80895614624
40,0.179719209671,0.0025999546051,0.00324511528015,0.000804901123047,7.52476406097
41,0.174727916718,0.00271201133728,0.00341892242432,0.000751972198486,7.82497191429
42,0.178782939911,0.00275707244873,0.00315284729004,0.000751972198486,8.57684183121
43,0.19665312767,0.00265002250671,0.00297904014587,0.000708818435669,8.89884209633
44,0.193129777908,0.00309896469116,0.00303196907043,0.000627994537354,8.19773292542
45,0.183824062347,0.00302791595459,0.00292110443115,0.000653982162476,8.93020701408
46,0.173554897308,0.0026638507843,0.00317311286926,0.000705003738403,8.96332812309
47,0.175642967224,0.00278615951538,0.00298094749451,0.000653028488159,9.27368187904
48,0.179152965546,0.00284004211426,0.00306797027588,0.000654935836792,9.36268687248
49,0.208374977112,0.00285482406616,0.00301098823547,0.000772953033447,9.19937491417
50,0.180746793747,0.0027220249176,0.003338098526,0.000795125961304,9.43392801285
51,0.178981781006,0.00292301177979,0.00305008888245,0.000826120376587,10.0050890446
52,0.173397064209,0.00267887115479,0.00301218032837,0.000646829605103,10.3038079739
53,0.173729896545,0.0026490688324,0.00296306610107,0.000681161880493,10.1544311047
54,0.175436973572,0.00286293029785,0.00307512283325,0.000685930252075,10.3569509983
55,0.17947101593,0.00273990631104,0.00299692153931,0.00074291229248,10.6245291233
56,0.193271160126,0.00274395942688,0.00319004058838,0.00073504447937,10.7128310204
57,0.183677196503,0.0029239654541,0.00297498703003,0.000823974609375,10.6786208153
58,0.174607992172,0.00260305404663,0.00325393676758,0.000684976577759,11.1819579601
59,0.184635877609,0.0028338432312,0.00308609008789,0.000745058059692,11.8121130466
60,0.185795068741,0.00296902656555,0.00310897827148,0.000834941864014,11.2311358452
61,0.179357051849,0.00281381607056,0.00328803062439,0.00080394744873,11.6251330376
62,0.271910190582,0.0037260055542,0.00308084487915,0.000768899917603,11.7145500183
63,0.197314023972,0.00302410125732,0.00299000740051,0.000678062438965,11.8417029381
64,0.174395084381,0.0027060508728,0.00316596031189,0.000668048858643,12.8691780567
65,0.186949014664,0.00258302688599,0.00327706336975,0.000787973403931,12.6691758633
66,0.174170017242,0.00261092185974,0.00311708450317,0.000810146331787,12.6774799824
67,0.17332816124,0.00266194343567,0.00319719314575,0.00074291229248,13.4363510609
68,0.179318904877,0.00273990631104,0.00340294837952,0.000720977783203,12.5309231281
69,0.180023908615,0.00286293029785,0.00363707542419,0.000978946685791,13.3043949604
70,0.177258014679,0.00298619270325,0.00327587127686,0.000915050506592,13.8021628857
71,0.172345876694,0.00256896018982,0.00330901145935,0.000743865966797,13.6573140621
72,0.225057125092,0.00311994552612,0.00297689437866,0.000696897506714,13.5692260265
73,0.194535017014,0.0029091835022,0.00354099273682,0.000788927078247,14.9529719353
74,0.178955078125,0.00276589393616,0.00324392318726,0.00067400932312,14.5444509983
75,0.183459997177,0.00308799743652,0.00334596633911,0.000799894332886,15.0900399685
76,0.18363404274,0.00299406051636,0.00315713882446,0.000652074813843,14.7071180344
77,0.199629068375,0.00267601013184,0.00298595428467,0.00068187713623,14.6702301502
78,0.179488658905,0.00267195701599,0.00315594673157,0.000776052474976,15.8296899796
79,0.178145885468,0.00299692153931,0.00319504737854,0.000798940658569,15.4724941254
80,0.174160003662,0.00281190872192,0.003093957901,0.000672101974487,15.2666070461
81,0.173607110977,0.0026261806488,0.0029890537262,0.000641107559204,15.7892270088
82,0.226054906845,0.0028760433197,0.00312495231628,0.000662088394165,15.7128100395
83,0.786630153656,0.00270295143127,0.00307297706604,0.000710010528564,15.9422259331
84,0.177878856659,0.0028030872345,0.00335097312927,0.000683784484863,15.5694618225
85,0.177987098694,0.00279211997986,0.00324296951294,0.000671863555908,16.7215361595
86,0.272835969925,0.00335502624512,0.00299882888794,0.000682830810547,16.7439980507
87,0.173078298569,0.00266599655151,0.00312900543213,0.000684022903442,16.9999361038
88,0.174301862717,0.00302386283875,0.00301909446716,0.000743865966797,16.952078104
89,0.1734790802,0.00281500816345,0.00311899185181,0.000677108764648,17.0228018761
90,0.181326150894,0.00281286239624,0.00327706336975,0.00084114074707,17.9444441795
91,0.18951177597,0.00267601013184,0.00296807289124,0.000702857971191,17.4791378975
92,0.174680948257,0.00284099578857,0.00298190116882,0.000756978988647,17.9908549786
93,0.197490930557,0.00279402732849,0.00312995910645,0.00071382522583,17.719522953
94,0.17628288269,0.00287699699402,0.00318908691406,0.000693798065186,18.0516030788
95,0.175613880157,0.0026957988739,0.00318384170532,0.000661134719849,18.0259850025
96,0.175838947296,0.00289583206177,0.00306606292725,0.000729084014893,17.914896965
97,0.252309799194,0.00332808494568,0.00323605537415,0.000705003738403,19.9431970119
98,0.193266153336,0.00275921821594,0.00315093994141,0.000729084014893,18.9279201031
99,0.179668903351,0.00267601013184,0.0032000541687,0.000817060470581,18.0327301025
