step,run,get,set,free,run_up_to_step
0,0.264410018921,0.0111989974976,0.0114290714264,0.00298094749451,0.30802488327
1,0.200725317001,0.0102500915527,0.011647939682,0.00241208076477,0.413586139679
2,0.203804969788,0.0104351043701,0.0119121074677,0.00255703926086,0.60338807106
3,0.206054925919,0.0104100704193,0.0128910541534,0.00247406959534,0.810925960541
4,0.209339141846,0.0126991271973,0.0116009712219,0.00246691703796,1.639523983
5,0.199601888657,0.0107319355011,0.0124099254608,0.00275897979736,1.80285096169
6,0.200924873352,0.0105531215668,0.0116209983826,0.00248599052429,1.46896195412
7,0.205031871796,0.0108091831207,0.0117461681366,0.00253987312317,1.75398898125
8,0.23525595665,0.010528087616,0.0154001712799,0.00279092788696,1.84928798676
9,0.225141048431,0.0106549263,0.0118069648743,0.0024619102478,2.78364896774
10,0.202867746353,0.011244058609,0.0119631290436,0.00301194190979,2.25013709068
11,0.202281951904,0.010782957077,0.0113968849182,0.00257802009583,2.47440695763
12,0.198912143707,0.0108509063721,0.0166330337524,0.00362706184387,3.16021585464
13,0.204474925995,0.0110609531403,0.0119349956512,0.00278902053833,2.86057591438
14,0.221181869507,0.0106210708618,0.0117199420929,0.00248503684998,3.46518087387
15,0.291714906693,0.0140721797943,0.0125119686127,0.00334095954895,3.60155487061
16,0.204655170441,0.0108308792114,0.0114431381226,0.00255012512207,3.43664193153
17,0.208468914032,0.0105800628662,0.0114159584045,0.00249099731445,3.66860318184
18,0.201743841171,0.0108559131622,0.0115208625793,0.0025200843811,3.93155503273
19,0.203906059265,0.0106289386749,0.0115840435028,0.00291013717651,4.03875207901
20,0.215771198273,0.0109479427338,0.0114419460297,0.00251317024231,4.78485488892
21,0.2166659832,0.0119481086731,0.0118019580841,0.00276589393616,4.51051592827
22,0.200586080551,0.0104260444641,0.0167450904846,0.00343918800354,5.36524796486
23,0.204938173294,0.010379076004,0.0118789672852,0.00251507759094,5.33743214607
24,0.201752185822,0.0120358467102,0.0115320682526,0.00262999534607,5.54177808762
25,0.212317943573,0.0103120803833,0.0114319324493,0.00251412391663,6.05906391144
26,0.200325012207,0.0104339122772,0.0127379894257,0.00264096260071,6.11727690697
27,0.224852085114,0.0109519958496,0.0122158527374,0.00252103805542,6.18943190575
28,0.201841115952,0.0107839107513,0.011510848999,0.0024688243866,6.49098300934
29,0.202942848206,0.010801076889,0.0120198726654,0.00248503684998,6.21367001534
30,0.219036102295,0.010547876358,0.0116808414459,0.00248885154724,7.00519990921
31,0.200894832611,0.010705947876,0.0113780498505,0.00246906280518,7.18595099449
32,0.212603807449,0.011246919632,0.0117177963257,0.0024528503418,7.02669906616
33,0.200737953186,0.01118683815,0.0113480091095,0.00246095657349,7.1231970787
34,0.202427864075,0.0107488632202,0.0113708972931,0.0025110244751,7.81505990028
35,0.201184749603,0.0106639862061,0.0123670101166,0.00264596939087,7.74684596062
36,0.205595016479,0.0106749534607,0.0113520622253,0.00245189666748,7.48664021492
37,0.200538158417,0.0105929374695,0.0113568305969,0.00248789787292,8.00115799904
38,0.225666046143,0.0105900764465,0.0116698741913,0.00248908996582,8.57238411903
39,0.223945140839,0.0107710361481,0.0116989612579,0.00247693061829,9.0066280365
40,0.275726079941,0.0134129524231,0.0116081237793,0.00246000289917,9.8029088974
41,0.216618776321,0.0126078128815,0.0116279125214,0.00251698493958,9.19975805283
42,0.207008123398,0.0106980800629,0.0118181705475,0.00248122215271,9.72381281853
43,0.207060098648,0.0113749504089,0.011549949646,0.00244498252869,9.6232509613
44,0.197754859924,0.010281085968,0.0114870071411,0.00262308120728,9.73356294632
45,0.20183634758,0.0111339092255,0.0115261077881,0.00247502326965,10.1169400215
46,0.211938142776,0.0106470584869,0.0115609169006,0.00258803367615,10.0882692337
47,0.212026834488,0.0107071399689,0.0127620697021,0.00344800949097,10.471832037
48,0.222932100296,0.0102090835571,0.0115869045258,0.00247502326965,11.2253580093
49,0.24612903595,0.010724067688,0.0146467685699,0.00319504737854,11.1414589882
50,0.200367927551,0.0110340118408,0.0122208595276,0.0025429725647,11.1815760136
51,0.207963943481,0.0112199783325,0.011559009552,0.00246906280518,11.1185500622
52,0.211243867874,0.011223077774,0.0118119716644,0.00336503982544,11.5623171329
53,0.202278137207,0.0105619430542,0.0115749835968,0.00254106521606,12.1085989475
54,0.204153060913,0.0110621452332,0.0131089687347,0.00249981880188,14.1920149326
55,0.205590963364,0.0109620094299,0.0114049911499,0.00277996063232,12.6723198891
56,0.201624155045,0.0105199813843,0.0116879940033,0.00263094902039,12.4205598831
57,0.208209753036,0.0109579563141,0.0114669799805,0.00264596939087,12.1702430248
58,0.208494901657,0.0106561183929,0.0113570690155,0.00254011154175,12.8786110878
59,0.206660747528,0.0105822086334,0.0133628845215,0.00296092033386,13.5171730518
60,0.204638004303,0.01047706604,0.0121910572052,0.00248789787292,13.1887030602
61,0.207250118256,0.0110609531403,0.0129890441895,0.00262689590454,13.4443740845
62,0.205643892288,0.010605096817,0.0118780136108,0.00248789787292,13.5913219452
63,0.225737810135,0.0108058452606,0.0114228725433,0.00252413749695,13.4382069111
64,0.220261096954,0.0105309486389,0.0123860836029,0.00253915786743,14.3864421844
65,0.203514814377,0.0104849338531,0.01211810112,0.00265407562256,14.1319758892
66,0.202837705612,0.0102648735046,0.0118489265442,0.00250792503357,14.3820660114
67,0.205085992813,0.0108749866486,0.0115098953247,0.00279402732849,14.7260968685
68,0.20335483551,0.0104649066925,0.012130022049,0.00244903564453,14.8978619576
69,0.203920125961,0.0102820396423,0.0116300582886,0.00280809402466,15.2706069946
70,0.200085639954,0.0104551315308,0.01127409935,0.00287890434265,14.9527959824
71,0.204351902008,0.0104441642761,0.0121440887451,0.00245380401611,15.4057378769
72,0.244771957397,0.0118038654327,0.0118699073792,0.00289607048035,15.9750728607
73,0.201936244965,0.0108730792999,0.0113151073456,0.00284504890442,15.737858057
74,0.718546867371,0.0113711357117,0.0118868350983,0.00256204605103,15.888862133
75,0.202247142792,0.0111870765686,0.013218164444,0.00247502326965,15.9902281761
76,0.205575942993,0.0106711387634,0.0120680332184,0.00264406204224,16.8950021267
77,0.731460094452,0.0113470554352,0.0125820636749,0.00278115272522,16.9842739105
78,0.202929019928,0.0105049610138,0.0119531154633,0.00245904922485,17.0295648575
79,0.240809679031,0.0102679729462,0.0114078521729,0.00284719467163,18.8548531532
80,0.206516027451,0.0112218856812,0.0122411251068,0.00258111953735,16.6988008022
81,0.232146024704,0.010528087616,0.0116589069366,0.00315499305725,17.7540311813
82,0.210566043854,0.0116989612579,0.0114390850067,0.00254702568054,17.8949279785
83,0.226729154587,0.0105979442596,0.0122640132904,0.00253295898438,19.8889899254
84,0.209433078766,0.0112280845642,0.0117001533508,0.00253105163574,18.9023649693
85,0.209715127945,0.0107951164246,0.0116620063782,0.00246691703796,19.3315091133
86,0.205537080765,0.0106830596924,0.011531829834,0.00246095657349,19.3640990257
87,0.225078105927,0.0102529525757,0.0114479064941,0.002445936203,19.3933010101
88,0.201902866364,0.0105500221252,0.0124111175537,0.00275707244873,19.7889771461
89,0.201668739319,0.0107750892639,0.0117089748383,0.00261497497559,19.3825659752
90,0.212966918945,0.010458946228,0.012148141861,0.0025749206543,20.2386541367
91,0.20138502121,0.0102989673615,0.0115399360657,0.00259494781494,20.0952939987
92,0.200891971588,0.0106019973755,0.0121598243713,0.00245499610901,19.7907230854
93,0.202778816223,0.010448217392,0.0134019851685,0.00279808044434,20.6554729939
94,0.205482959747,0.0111489295959,0.0116209983826,0.00244212150574,20.1729061604
95,0.206027269363,0.0106639862061,0.0149049758911,0.0026741027832,21.2388999462
96,0.207878112793,0.0110440254211,0.0112900733948,0.00247383117676,21.0761539936
97,0.202842950821,0.0103528499603,0.0112748146057,0.00245499610901,20.7021639347
98,0.199582099915,0.0103302001953,0.0130069255829,0.00297594070435,21.3248047829
99,0.198799133301,0.010694026947,0.0124921798706,0.00287795066833,21.2380549908
