step,run,get,set,free,run_up_to_step
0,0.187404870987,0.0190808773041,0.0177631378174,0.00346398353577,0.211097955704
1,0.178626060486,0.0165269374847,0.0168387889862,0.00359606742859,0.368410110474
2,0.180068254471,0.0182428359985,0.0173609256744,0.00372791290283,0.555539131165
3,0.177735090256,0.0174520015717,0.0175950527191,0.00451803207397,0.738692998886
4,0.178376197815,0.0185949802399,0.0175709724426,0.00419497489929,0.920693874359
5,0.182142019272,0.0177299976349,0.0174708366394,0.00523900985718,1.08904695511
6,0.184369325638,0.0185461044312,0.0166058540344,0.0038161277771,1.28281211853
7,0.177806138992,0.0178220272064,0.0172588825226,0.0038149356842,1.44880890846
8,0.182436943054,0.0175981521606,0.0175909996033,0.0037829875946,2.10602903366
9,0.176705121994,0.018217086792,0.0163419246674,0.00375604629517,2.17332601547
10,0.180938720703,0.018739938736,0.0167129039764,0.00433397293091,2.01434898376
11,0.180641174316,0.0167300701141,0.0173342227936,0.00381207466125,2.60344099998
12,0.178570985794,0.0188648700714,0.0182008743286,0.00437903404236,2.37807106972
13,0.176759004593,0.0165979862213,0.0177321434021,0.00377297401428,2.94200611115
14,0.178500175476,0.0190348625183,0.0184938907623,0.00458192825317,2.76072406769
15,0.183120250702,0.0164420604706,0.0171370506287,0.0037829875946,3.5411131382
16,0.181114196777,0.0190951824188,0.0176570415497,0.00424194335938,3.08864593506
17,0.181693792343,0.0178110599518,0.0172991752625,0.00375509262085,4.13752412796
18,0.180900812149,0.0191049575806,0.0169808864594,0.00376009941101,3.45201396942
19,0.177121162415,0.0165240764618,0.0170881748199,0.00377202033997,3.89418888092
20,0.184844970703,0.0187110900879,0.0170841217041,0.0042941570282,3.90798211098
21,0.179720163345,0.0193779468536,0.0176570415497,0.00381088256836,4.00137996674
22,0.179068088531,0.0192310810089,0.0172629356384,0.00377988815308,4.19255185127
23,0.176847934723,0.0165469646454,0.0175681114197,0.0037899017334,4.93689489365
24,0.699979066849,0.0164229869843,0.0174150466919,0.00432705879211,4.57955884933
25,0.176196813583,0.0163190364838,0.016969203949,0.00379300117493,5.25491786003
26,0.177312135696,0.0164928436279,0.0172791481018,0.00378203392029,5.41489195824
27,0.177212953568,0.0166618824005,0.0169770717621,0.00423192977905,5.58261299133
28,0.183250904083,0.0192289352417,0.017560005188,0.00384497642517,5.32467103004
29,0.17959189415,0.0166389942169,0.0173079967499,0.00378918647766,6.05788397789
30,0.179845094681,0.0167009830475,0.0171031951904,0.00377488136292,6.0954079628
31,0.180020809174,0.0166409015656,0.0171530246735,0.00377297401428,6.58745908737
32,0.180072069168,0.0169720649719,0.0179698467255,0.00426697731018,6.46889805794
33,0.182806015015,0.0166010856628,0.01731300354,0.00377511978149,6.58640313148
34,0.176936864853,0.0165629386902,0.0172228813171,0.00377798080444,6.6216468811
35,0.177826166153,0.0166440010071,0.017410993576,0.00383901596069,7.1783759594
36,0.176758050919,0.0169179439545,0.0172250270844,0.00433993339539,7.18689703941
37,0.179983139038,0.019681930542,0.0170359611511,0.00428581237793,6.91105699539
38,0.179262876511,0.0190119743347,0.0170300006866,0.00377106666565,7.06271791458
39,0.178122997284,0.0168690681458,0.0174999237061,0.00379014015198,7.49520111084
40,0.177156209946,0.0167360305786,0.0171391963959,0.0039279460907,7.98002696037
41,0.181223154068,0.0170331001282,0.0178210735321,0.00386190414429,7.98347187042
42,0.183353900909,0.0172758102417,0.0181109905243,0.00379514694214,8.26662278175
43,0.179994106293,0.0178260803223,0.0178909301758,0.00379610061646,8.43545293808
44,0.17814207077,0.0168588161469,0.0171499252319,0.00374794006348,8.52559900284
45,0.177979230881,0.0166900157928,0.0168380737305,0.00376200675964,8.90781617165
46,0.470288038254,0.0165469646454,0.018306016922,0.00384998321533,8.72856807709
47,0.18051981926,0.0167210102081,0.0174992084503,0.00439405441284,9.19696211815
48,0.177772045135,0.01700091362,0.0172400474548,0.00380706787109,9.1966278553
49,0.177467823029,0.0167498588562,0.0215549468994,0.00385713577271,9.93263697624
50,0.178378820419,0.0189740657806,0.0171151161194,0.00379586219788,9.85481715202
51,0.182200193405,0.0177869796753,0.0181088447571,0.00377297401428,9.62353897095
52,0.176804065704,0.0166540145874,0.0175321102142,0.00377607345581,10.2761251926
53,0.182526111603,0.0183639526367,0.0176529884338,0.00379586219788,10.3894741535
54,0.177864074707,0.0169048309326,0.0173630714417,0.00430798530579,10.7353100777
55,0.180334806442,0.0171070098877,0.0173718929291,0.00380206108093,10.6923961639
56,0.180640935898,0.0170359611511,0.0170538425446,0.00379109382629,10.8770799637
57,0.178414821625,0.0178101062775,0.017040014267,0.00381803512573,10.9840831757
58,0.177881002426,0.0164067745209,0.0176310539246,0.00381588935852,10.9863090515
59,0.179280757904,0.0168631076813,0.0176210403442,0.00377297401428,11.3493611813
60,0.181890010834,0.0167620182037,0.0178971290588,0.00438117980957,11.5706481934
61,0.179411172867,0.0191359519958,0.0185790061951,0.00377798080444,11.5062711239
62,0.58881187439,0.0169849395752,0.0176758766174,0.00384306907654,11.9987618923
63,0.177649021149,0.0168979167938,0.0175771713257,0.00419497489929,12.2954139709
64,0.17910695076,0.0183107852936,0.0178310871124,0.00385689735413,12.4003307819
65,0.181306123734,0.0166552066803,0.0175631046295,0.00382995605469,12.5607001781
66,0.178404092789,0.0174269676208,0.017245054245,0.0037989616394,12.8648190498
67,0.181387901306,0.0166590213776,0.0173461437225,0.00384211540222,12.9844510555
68,0.180938005447,0.0182919502258,0.0184049606323,0.00383710861206,12.9857430458
69,0.181040048599,0.0172429084778,0.017352104187,0.00377297401428,13.6890969276
70,0.17712688446,0.0167570114136,0.0175440311432,0.00428509712219,13.4583101273
71,0.182053804398,0.0168058872223,0.01766705513,0.00444889068604,13.8645780087
72,0.183496952057,0.0169107913971,0.0186560153961,0.00413799285889,13.7488501072
73,0.178257703781,0.0181338787079,0.0184469223022,0.0037989616394,14.2446620464
74,0.178871154785,0.0182638168335,0.0182180404663,0.00383305549622,14.554227829
75,0.1787109375,0.0183079242706,0.017361164093,0.00381016731262,14.9111390114
76,0.176990270615,0.0166871547699,0.0176482200623,0.00439691543579,14.7985839844
77,0.179435014725,0.0190689563751,0.0169949531555,0.00436210632324,14.3682789803
78,0.18036198616,0.0178549289703,0.0187981128693,0.00382494926453,15.0071220398
79,0.17960524559,0.0181920528412,0.0183069705963,0.00381803512573,15.6227650642
80,0.178651809692,0.0170629024506,0.0173950195312,0.00376391410828,15.7491819859
81,0.181606054306,0.0178601741791,0.017275094986,0.00432801246643,15.7290267944
82,0.181869029999,0.017863035202,0.0174360275269,0.00437593460083,15.5656151772
83,0.178385019302,0.0168781280518,0.0174250602722,0.00381398200989,15.846293211
84,0.177865982056,0.0170910358429,0.0173909664154,0.00434708595276,16.0731289387
85,0.181723833084,0.0175149440765,0.0175681114197,0.00433993339539,16.0683729649
86,0.70041179657,0.01664686203,0.0171060562134,0.00381803512573,16.0275759697
87,0.181865930557,0.0180490016937,0.0173439979553,0.00434899330139,16.3864438534
88,0.181077003479,0.0167419910431,0.0173370838165,0.00442600250244,16.834373951
89,0.180276870728,0.0166628360748,0.0174849033356,0.0043511390686,16.9328320026
90,0.180686950684,0.0171580314636,0.0173230171204,0.00444197654724,17.1999380589
91,0.177406072617,0.0170171260834,0.018089056015,0.00382900238037,17.3989760876
92,0.179848909378,0.0181491374969,0.0174129009247,0.004310131073,17.7525420189
93,0.180559873581,0.0172820091248,0.0176041126251,0.00446605682373,17.7104101181
94,0.181058883667,0.0177640914917,0.0181901454926,0.00384998321533,17.8489131927
95,0.178488969803,0.0180130004883,0.0171909332275,0.00437903404236,18.4506440163
96,0.178364753723,0.0178070068359,0.0174059867859,0.00430798530579,17.9710490704
97,0.182483911514,0.0175981521606,0.0177121162415,0.00432801246643,18.1203770638
98,0.777917146683,0.017284154892,0.0180261135101,0.00399494171143,18.961384058
99,0.780712127686,0.0167751312256,0.0172829627991,0.0039119720459,18.8631389141
