step,run,get,set,free,run_up_to_step
0,0.158549070358,0.00311183929443,0.00314211845398,0.000782012939453,0.161442995071
1,0.155165195465,0.0029718875885,0.00318479537964,0.000768899917603,0.329444885254
2,0.160660982132,0.00306296348572,0.00332999229431,0.000639915466309,0.470701932907
3,0.153812646866,0.0028920173645,0.00335192680359,0.000760078430176,0.617466926575
4,0.188776016235,0.00350213050842,0.00328803062439,0.000735998153687,0.778609037399
5,0.154967069626,0.00292110443115,0.0244660377502,0.000868082046509,0.953254938126
6,0.155827045441,0.00315690040588,0.0033438205719,0.000737905502319,1.15209984779
7,0.161667823792,0.00322508811951,0.00335001945496,0.000777959823608,1.75094890594
8,0.159560918808,0.0032069683075,0.00349688529968,0.000817060470581,1.38922190666
9,0.200523138046,0.0034511089325,0.00332403182983,0.000775814056396,1.63311004639
10,0.160934925079,0.00310111045837,0.00329995155334,0.000732898712158,2.43870711327
11,0.163812875748,0.00328612327576,0.00327491760254,0.000885009765625,1.87109613419
12,0.159186124802,0.00321292877197,0.00337696075439,0.000793933868408,2.03823113441
13,0.158447980881,0.00322103500366,0.0228099822998,0.000950813293457,2.18099093437
14,0.174791097641,0.00342106819153,0.00338292121887,0.000778913497925,2.50662207603
15,0.161453962326,0.00334000587463,0.0213391780853,0.00081992149353,2.62768697739
16,0.173288822174,0.003497838974,0.00334000587463,0.00079607963562,2.80316305161
17,0.175783872604,0.00329613685608,0.0034339427948,0.000869989395142,2.98364210129
18,0.159499883652,0.00329613685608,0.00350689888,0.000746011734009,3.73533201218
19,0.155480146408,0.00311207771301,0.00341606140137,0.000759840011597,3.39710998535
20,0.177521705627,0.00328302383423,0.0034339427948,0.000828981399536,3.32525706291
21,0.173034906387,0.00328302383423,0.00338792800903,0.000786066055298,4.02860403061
22,0.167683124542,0.00337910652161,0.00343418121338,0.000782012939453,3.63199305534
23,0.154145002365,0.00313305854797,0.00338506698608,0.000821113586426,4.05415415764
24,0.159401893616,0.0031681060791,0.00437808036804,0.000935077667236,4.47605705261
25,0.16613817215,0.0032331943512,0.00365805625916,0.000776052474976,4.75838208199
26,0.154590845108,0.00344896316528,0.00376892089844,0.000852823257446,4.53129601479
27,0.156275033951,0.0220668315887,0.00368809700012,0.000845193862915,4.46073913574
28,0.159614801407,0.00318002700806,0.00341010093689,0.000765800476074,5.25793790817
29,0.169416904449,0.00339293479919,0.00350403785706,0.000864028930664,4.80794882774
30,0.171165704727,0.00352597236633,0.00341105461121,0.000771045684814,4.96814203262
31,0.154470920563,0.00317311286926,0.00355195999146,0.00091814994812,5.83788704872
32,0.165142297745,0.00361704826355,0.00341105461121,0.000854015350342,6.18383693695
33,0.224455118179,0.00397396087646,0.00342917442322,0.000908136367798,5.51689481735
34,0.16317820549,0.00350999832153,0.00342106819153,0.000801086425781,5.68739104271
35,0.159169912338,0.00374913215637,0.00345993041992,0.000807046890259,5.59214901924
36,0.154836893082,0.0031578540802,0.00344896316528,0.000910997390747,6.40376400948
37,0.154029130936,0.003173828125,0.00341606140137,0.000779867172241,6.31004810333
38,0.155443191528,0.00310683250427,0.00354814529419,0.000768899917603,7.01651096344
39,0.160135746002,0.00323486328125,0.00362205505371,0.000925064086914,7.05534005165
40,0.197721242905,0.00362515449524,0.00350499153137,0.000773906707764,7.12875819206
41,0.155884027481,0.00320601463318,0.00345396995544,0.000772953033447,7.45551490784
42,0.169954061508,0.00315308570862,0.00339388847351,0.000800848007202,7.4534599781
43,0.153946876526,0.00315499305725,0.0034499168396,0.000771999359131,7.5773999691
44,0.157732009888,0.00331902503967,0.00340485572815,0.000789880752563,7.50336813927
45,0.160261154175,0.00334692001343,0.00349617004395,0.000808954238892,7.49206614494
46,0.15501499176,0.0032901763916,0.0225598812103,0.000858783721924,8.04377508163
47,0.156072854996,0.00317907333374,0.00346493721008,0.000777006149292,8.03725385666
48,0.158229827881,0.00338101387024,0.00350594520569,0.000767946243286,8.29197406769
49,0.155092000961,0.00338387489319,0.00377082824707,0.000847101211548,8.24331784248
50,0.15882897377,0.00329208374023,0.00367617607117,0.000882863998413,8.62385606766
51,0.157268047333,0.00322294235229,0.00364589691162,0.000814914703369,9.0157968998
52,0.167265892029,0.00345396995544,0.00372290611267,0.000778913497925,9.06666207314
53,0.157566070557,0.00341606140137,0.00356602668762,0.000828981399536,9.18180799484
54,0.159705877304,0.00347208976746,0.00359702110291,0.000837087631226,9.33063006401
55,0.160018920898,0.00341105461121,0.00355410575867,0.000804901123047,9.14937210083
56,0.156920909882,0.00346612930298,0.00408005714417,0.000989198684692,9.89853191376
57,0.181676864624,0.00321698188782,0.00384521484375,0.000930070877075,10.0745329857
58,0.162303924561,0.00345516204834,0.00367498397827,0.0010039806366,10.3133149147
59,0.171095132828,0.00347280502319,0.00366711616516,0.000849962234497,9.98434996605
60,0.155564069748,0.00334405899048,0.00362300872803,0.000777959823608,10.2011201382
61,0.155289888382,0.00323390960693,0.0040500164032,0.000799179077148,11.2236509323
62,0.159445047379,0.00322484970093,0.00362396240234,0.00102806091309,10.8594298363
63,0.171504974365,0.00365495681763,0.00346708297729,0.000841856002808,10.9565029144
64,0.154712915421,0.00333213806152,0.0213918685913,0.00092601776123,10.6482210159
65,0.157477855682,0.00358986854553,0.00354504585266,0.000952005386353,10.6797151566
66,0.155025959015,0.00327110290527,0.0034601688385,0.000998020172119,10.8658490181
67,0.158435106277,0.00361704826355,0.0040111541748,0.000854969024658,11.3481459618
68,0.160586833954,0.00347709655762,0.00363898277283,0.000833034515381,11.1142470837
69,0.161391019821,0.00348615646362,0.00374603271484,0.000792980194092,11.7448999882
70,0.175255060196,0.00341987609863,0.00346708297729,0.000886201858521,11.7040529251
71,0.155669927597,0.0034499168396,0.00349497795105,0.000792980194092,12.0121171474
72,0.159281730652,0.00336313247681,0.00398898124695,0.00100898742676,12.0584721565
73,0.153745174408,0.00341892242432,0.00355815887451,0.000910043716431,12.0267970562
74,0.15470290184,0.00347709655762,0.00363397598267,0.000921010971069,12.6891810894
75,0.156384944916,0.0035719871521,0.00351881980896,0.00076699256897,12.3051638603
76,0.15527510643,0.00334787368774,0.0217280387878,0.000769853591919,12.1695258617
77,0.156577110291,0.00321102142334,0.00347208976746,0.000833988189697,12.6746170521
78,0.157714128494,0.0230751037598,0.00362396240234,0.000798940658569,13.0427219868
79,0.156101942062,0.00341796875,0.00345087051392,0.000844955444336,13.3938241005
80,0.157346963882,0.00335788726807,0.00380110740662,0.000795841217041,13.323693037
81,0.153921842575,0.00332093238831,0.00364422798157,0.00078010559082,12.987434864
82,0.159404993057,0.00336217880249,0.00373411178589,0.000827074050903,14.9003911018
83,0.155326128006,0.00332283973694,0.00397300720215,0.000890016555786,13.8677711487
84,0.155543088913,0.00348806381226,0.00365996360779,0.000818014144897,13.6230950356
85,0.155589103699,0.00335001945496,0.00353193283081,0.000982046127319,14.3530390263
86,0.156892061234,0.00345087051392,0.00363087654114,0.000786066055298,14.3145539761
87,0.153603792191,0.00337100028992,0.0035080909729,0.000922918319702,14.1103179455
88,0.155206203461,0.00334596633911,0.00349497795105,0.000948190689087,14.9730429649
89,0.154448986053,0.0032811164856,0.00349187850952,0.000791788101196,14.274171114
90,0.159440994263,0.00329279899597,0.00359797477722,0.000791072845459,16.5329618454
91,0.158423900604,0.00329184532166,0.00357699394226,0.000785112380981,14.5899348259
92,0.157518863678,0.00326609611511,0.00349712371826,0.000779151916504,15.2218391895
93,0.163429021835,0.0032799243927,0.0040271282196,0.000993967056274,14.9859170914
94,0.168026924133,0.00333905220032,0.00399994850159,0.000782012939453,15.6189329624
95,0.157442092896,0.00338006019592,0.00353813171387,0.000776052474976,15.5911870003
96,0.153948068619,0.00338816642761,0.00347495079041,0.000783920288086,15.8362050056
97,0.159377813339,0.00357890129089,0.0035560131073,0.000766038894653,16.366289854
98,0.164563179016,0.00335001945496,0.00347805023193,0.000797986984253,17.052697897
99,0.159456014633,0.0033278465271,0.00353503227234,0.000784158706665,16.4538371563
