step,run,get,set,free,run_up_to_step
0,0.184099912643,0.00285887718201,0.00305891036987,0.000680923461914,0.177896976471
1,0.192990779877,0.00272583961487,0.0031590461731,0.000598192214966,0.365577936172
2,0.172441005707,0.00262093544006,0.00312304496765,0.000661849975586,0.536635875702
3,0.182301998138,0.00324296951294,0.0032970905304,0.000704050064087,1.17130804062
4,0.173583745956,0.00285005569458,0.00304985046387,0.000657081604004,0.954437017441
5,0.171193122864,0.00270700454712,0.00335621833801,0.000783205032349,1.08826804161
6,0.170974731445,0.00290679931641,0.00309777259827,0.00067400932312,1.34291005135
7,0.17279624939,0.00299715995789,0.00324201583862,0.000701904296875,1.48640704155
8,0.214505910873,0.00289297103882,0.00317001342773,0.000765085220337,1.61415290833
9,0.203071117401,0.00303483009338,0.00318098068237,0.000676870346069,1.86308693886
10,0.175887823105,0.00293493270874,0.00322198867798,0.000729084014893,1.9815621376
11,0.174310207367,0.00314998626709,0.00310707092285,0.000706911087036,2.15092086792
12,0.207416057587,0.00335311889648,0.0031909942627,0.000688076019287,2.83383893967
13,0.176585912704,0.00305914878845,0.00314807891846,0.000690937042236,2.48297309875
14,0.181617021561,0.00297904014587,0.00342202186584,0.000775098800659,2.76066994667
15,0.178067922592,0.00285291671753,0.00328207015991,0.000669956207275,3.63733482361
16,0.207197189331,0.00324892997742,0.00321292877197,0.000691175460815,3.03514790535
17,0.176317930222,0.00284290313721,0.00324606895447,0.000679969787598,4.05859589577
18,0.185266971588,0.00316214561462,0.00327682495117,0.000739097595215,3.4637260437
19,0.181282758713,0.00284290313721,0.00319409370422,0.000686883926392,4.12528014183
20,0.204927206039,0.00290513038635,0.00327515602112,0.000777959823608,4.2798409462
21,0.636914968491,0.00305485725403,0.00320315361023,0.000665187835693,4.11072587967
22,0.173341989517,0.0032160282135,0.00375390052795,0.000833034515381,4.17631816864
23,0.169931173325,0.00285601615906,0.00324821472168,0.00068187713623,5.03564119339
24,0.172375917435,0.00298380851746,0.00318098068237,0.000678777694702,4.74404001236
25,0.171205997467,0.00283408164978,0.0029730796814,0.00067400932312,5.02545881271
26,0.177203178406,0.00283789634705,0.0032069683075,0.000688076019287,4.85842490196
27,0.170291900635,0.00293612480164,0.00315189361572,0.000673055648804,5.32948708534
28,0.188292980194,0.00316500663757,0.00335907936096,0.000792980194092,5.32947611809
29,0.172016143799,0.00294399261475,0.00321507453918,0.000684976577759,5.65353298187
30,0.17787694931,0.00295805931091,0.00323510169983,0.000776052474976,5.86829900742
31,0.173000812531,0.00317406654358,0.00333380699158,0.000740051269531,5.98438310623
32,0.173379182816,0.00330805778503,0.00322198867798,0.000707149505615,5.96650910378
33,0.227186918259,0.00301098823547,0.00316691398621,0.000699043273926,6.90660405159
34,0.173416137695,0.00306510925293,0.00317478179932,0.000828981399536,6.23009586334
35,0.175922870636,0.00302982330322,0.00342202186584,0.00068998336792,6.6914999485
36,0.175500154495,0.00292801856995,0.00340509414673,0.00071907043457,7.11061096191
37,0.171282052994,0.00283288955688,0.00342702865601,0.000698089599609,7.27568888664
38,0.171021938324,0.00282192230225,0.00341010093689,0.00068998336792,7.42603588104
39,0.171845912933,0.00301790237427,0.00334596633911,0.000736951828003,7.75855898857
40,0.193987846375,0.00302600860596,0.00321483612061,0.000697135925293,8.23795199394
41,0.201350212097,0.00286602973938,0.00327897071838,0.000687837600708,7.85679912567
42,0.178909063339,0.00274705886841,0.0032639503479,0.000705003738403,8.12567687035
43,0.170743227005,0.0028669834137,0.00427389144897,0.00102782249451,8.31216406822
44,0.173413276672,0.0029661655426,0.00322508811951,0.000882863998413,8.281676054
45,0.170916080475,0.00285410881042,0.00316596031189,0.000689029693604,8.52979707718
46,0.17739200592,0.00284099578857,0.00358295440674,0.000936985015869,8.82320594788
47,0.172455072403,0.00325298309326,0.00338411331177,0.00083589553833,9.268045187
48,0.172883987427,0.00297904014587,0.00336003303528,0.00068998336792,9.05678009987
49,0.170148134232,0.00303506851196,0.00328302383423,0.000684976577759,9.72923207283
50,0.205306768417,0.00295996665955,0.00325989723206,0.000706911087036,10.0664758682
51,0.193886995316,0.00357508659363,0.00319409370422,0.000772953033447,10.351277113
52,0.171536922455,0.00283908843994,0.00334787368774,0.00070595741272,9.77039790154
53,0.170919895172,0.00295615196228,0.00335001945496,0.000762939453125,10.1934850216
54,0.172216176987,0.00297689437866,0.00320386886597,0.000725030899048,10.4508171082
55,0.175550937653,0.00290298461914,0.00327110290527,0.000753164291382,10.6466460228
56,0.198500871658,0.00308203697205,0.00339794158936,0.000735998153687,11.0382339954
57,0.186450719833,0.00294399261475,0.00320792198181,0.000756978988647,10.9814870358
58,0.171257019043,0.00290107727051,0.00321412086487,0.000776052474976,11.7503900528
59,0.17661690712,0.00284194946289,0.00328397750854,0.000845909118652,10.9807732105
60,0.174341917038,0.00320291519165,0.00340104103088,0.000808954238892,11.0999338627
61,0.176456928253,0.00286984443665,0.00406002998352,0.000901937484741,11.9402699471
62,0.171532154083,0.00291705131531,0.00323796272278,0.000735998153687,11.9146709442
63,0.173310995102,0.00301718711853,0.00325679779053,0.000848054885864,11.9057409763
64,0.174587011337,0.00308799743652,0.00322604179382,0.000814914703369,11.7834479809
65,0.173388242722,0.00301504135132,0.0034019947052,0.000747203826904,12.3712120056
66,0.197190999985,0.00352787971497,0.00452589988708,0.00108909606934,12.9111800194
67,0.176686048508,0.00347709655762,0.00337195396423,0.000714063644409,13.3723020554
68,0.17133307457,0.00281810760498,0.00325393676758,0.000691175460815,12.9711170197
69,0.177884101868,0.00283479690552,0.00343108177185,0.00070595741272,13.1905798912
70,0.175018310547,0.0030038356781,0.00338697433472,0.000797033309937,13.8776772022
71,0.174232006073,0.00287294387817,0.00341320037842,0.000776052474976,13.4831149578
72,0.175773143768,0.00287413597107,0.00342488288879,0.000696897506714,13.8355820179
73,0.173558950424,0.00308918952942,0.00327301025391,0.000862836837769,13.6685569286
74,0.176443099976,0.0030620098114,0.00346112251282,0.00070595741272,14.5030269623
75,0.175070047379,0.00284194946289,0.00324296951294,0.000831127166748,14.2920889854
76,0.172820091248,0.00311207771301,0.00345492362976,0.000706911087036,14.2519700527
77,0.180403709412,0.00301194190979,0.00334692001343,0.000707149505615,15.2062699795
78,0.173395872116,0.00291800498962,0.00342893600464,0.000917911529541,15.3038129807
79,0.176460981369,0.00301003456116,0.00330400466919,0.000710964202881,15.3165299892
80,0.180772781372,0.00288701057434,0.00337481498718,0.000712871551514,15.5951199532
81,0.175753116608,0.00300097465515,0.00329899787903,0.000705003738403,15.8012201786
82,0.190552949905,0.00289797782898,0.00335907936096,0.000739097595215,15.4836249352
83,0.180204868317,0.00289297103882,0.00338292121887,0.000740051269531,16.2797529697
84,0.17888212204,0.00301098823547,0.00328803062439,0.000710010528564,16.69404006
85,0.172851085663,0.00301003456116,0.00584197044373,0.000704050064087,16.3822948933
86,0.180557250977,0.00314497947693,0.00348114967346,0.000699996948242,16.7899990082
87,0.176779031754,0.00302314758301,0.00324296951294,0.000754833221436,16.8842089176
88,0.182534217834,0.00293493270874,0.00361299514771,0.000896215438843,16.6175911427
89,0.197882890701,0.00315999984741,0.00328302383423,0.000766038894653,17.8794331551
90,0.179334163666,0.00310397148132,0.00325894355774,0.000795125961304,16.9551560879
91,0.172840118408,0.00287413597107,0.00339293479919,0.000725030899048,17.4392228127
92,0.200963258743,0.00295400619507,0.00342202186584,0.000903129577637,17.4892439842
93,0.173270940781,0.00301790237427,0.00342297554016,0.000739097595215,17.5930161476
94,0.173399925232,0.00313687324524,0.00344300270081,0.000718832015991,18.3391740322
95,0.17654299736,0.00291395187378,0.00330090522766,0.000715017318726,18.2271637917
96,0.207091093063,0.00298690795898,0.00445890426636,0.000738859176636,18.9766800404
97,0.205492019653,0.00291681289673,0.00336599349976,0.000743865966797,18.5536410809
98,0.172569036484,0.0030689239502,0.00345301628113,0.000805854797363,18.5799369812
99,0.200567722321,0.00295281410217,0.00364899635315,0.000778198242188,18.9539690018
