step,run,get,set,free,run_up_to_step
0,0.291849851608,0.0119750499725,0.0137131214142,0.00298094749451,0.289248943329
1,0.289643287659,0.0144701004028,0.0135071277618,0.00285696983337,0.579282045364
2,0.307754039764,0.0143327713013,0.0132129192352,0.00293493270874,0.89049077034
3,0.30751490593,0.0132489204407,0.0135171413422,0.00290393829346,1.18015789986
4,0.304244041443,0.0140280723572,0.0133399963379,0.00289082527161,1.45403409004
5,0.291756153107,0.0123751163483,0.0141179561615,0.00348401069641,1.79823303223
6,0.294461965561,0.0124750137329,0.0132541656494,0.00287294387817,2.06480288506
7,0.311633110046,0.0120348930359,0.013247013092,0.00290608406067,2.31293082237
8,0.294429779053,0.0129940509796,0.0133118629456,0.00305199623108,3.10066318512
9,0.287703275681,0.0133829116821,0.0133879184723,0.00329899787903,2.94000506401
10,0.319409132004,0.0134708881378,0.0129780769348,0.00290322303772,3.37589883804
11,0.284294843674,0.0139009952545,0.0129909515381,0.00286316871643,3.52198696136
12,0.281388282776,0.0122539997101,0.0134401321411,0.00290203094482,4.29381608963
13,0.28718495369,0.0126278400421,0.0143659114838,0.00298094749451,4.07359600067
14,0.294466018677,0.0132551193237,0.0138010978699,0.00287485122681,4.42825102806
15,0.288555860519,0.0133059024811,0.0138430595398,0.00327587127686,4.6472299099
16,0.28461098671,0.0136411190033,0.013356924057,0.0033118724823,4.94135308266
17,0.300357818604,0.0122389793396,0.0130729675293,0.00319290161133,5.90489196777
18,0.283126831055,0.013277053833,0.0130310058594,0.00314998626709,5.48209905624
19,0.328119039536,0.0154070854187,0.0130500793457,0.00319981575012,5.94456410408
20,0.286468982697,0.0128979682922,0.0133121013641,0.00288915634155,6.15237498283
21,0.322597026825,0.0128891468048,0.0131330490112,0.00317096710205,6.84597277641
22,0.30969786644,0.013129234314,0.0134229660034,0.00317192077637,6.97177290916
23,0.286192893982,0.0132369995117,0.0140969753265,0.00298190116882,7.8636469841
24,0.293837070465,0.0126349925995,0.0149259567261,0.00384116172791,8.15620994568
25,0.291836023331,0.0144760608673,0.0139319896698,0.00333404541016,8.54802203178
26,0.293016195297,0.0134289264679,0.0139608383179,0.00377488136292,8.33869481087
27,0.28165602684,0.0122909545898,0.0134301185608,0.00322198867798,9.10784816742
28,0.309280872345,0.0135841369629,0.0131850242615,0.00285601615906,8.92966008186
29,0.285660743713,0.0123069286346,0.0132517814636,0.0028600692749,9.53229904175
30,0.281800031662,0.0123310089111,0.0134279727936,0.00288891792297,9.54528403282
31,0.289016008377,0.0125269889832,0.0133299827576,0.00290894508362,11.0548889637
32,0.282232999802,0.012570142746,0.0131239891052,0.00285196304321,10.1795368195
33,0.388990163803,0.0133340358734,0.0142970085144,0.0030689239502,10.7269148827
34,0.292386770248,0.0118539333344,0.0139379501343,0.00336718559265,10.8253018856
35,0.293219089508,0.0126450061798,0.0153090953827,0.00294494628906,11.4235520363
36,0.28290605545,0.0121109485626,0.0137009620667,0.00303602218628,12.1237468719
37,0.304435014725,0.0127160549164,0.0149440765381,0.00411796569824,11.5359799862
38,0.297071933746,0.0119800567627,0.0133950710297,0.00285792350769,11.803137064
39,0.284805059433,0.0122470855713,0.0137979984283,0.00287985801697,12.7459459305
40,0.291358947754,0.0117089748383,0.0140020847321,0.00339102745056,12.9522380829
41,0.285264730453,0.0120589733124,0.014209985733,0.00319600105286,12.5758869648
42,0.391402006149,0.0132670402527,0.0133528709412,0.00291681289673,13.2571389675
43,0.284384965897,0.0119512081146,0.0156869888306,0.00378489494324,13.3497419357
44,0.293341875076,0.0117928981781,0.0136260986328,0.0028829574585,14.2145738602
45,0.285782814026,0.0118880271912,0.0142288208008,0.00291109085083,14.4698929787
46,0.288672924042,0.0122730731964,0.0142109394073,0.00341296195984,14.6648490429
47,0.285176753998,0.0130000114441,0.0131080150604,0.00322103500366,14.6398119926
48,0.284675121307,0.0120639801025,0.0131750106812,0.0032958984375,15.1058220863
49,0.288233995438,0.0119178295135,0.0151178836823,0.00304007530212,15.4367940426
50,0.322297811508,0.0122029781342,0.0156860351562,0.00317406654358,15.1993539333
51,0.334848880768,0.0131170749664,0.0145959854126,0.00349020957947,16.6567318439
52,0.293529033661,0.0131459236145,0.0140459537506,0.00294208526611,16.3533630371
53,0.316218852997,0.0122308731079,0.0138719081879,0.00288009643555,16.6487669945
54,0.316309928894,0.0126988887787,0.0148899555206,0.00325202941895,16.7430949211
55,0.332297801971,0.0140268802643,0.0143399238586,0.0029468536377,17.4091689587
56,0.287568330765,0.012363910675,0.0132539272308,0.0028920173645,17.4182209969
57,0.293123960495,0.0123419761658,0.0137989521027,0.00290894508362,17.8041508198
58,0.30575299263,0.0120499134064,0.0137619972229,0.00287890434265,18.0099821091
59,0.284659862518,0.0136067867279,0.0141770839691,0.00343203544617,18.230235815
60,0.284828901291,0.0132241249084,0.0130989551544,0.00285601615906,18.4293260574
61,0.314143657684,0.0122599601746,0.0137209892273,0.00344800949097,18.6780369282
62,0.284930944443,0.0129299163818,0.0143921375275,0.00287199020386,19.0610711575
63,0.283246278763,0.0122499465942,0.0130660533905,0.00285005569458,19.1987009048
64,0.284485816956,0.0125720500946,0.0137739181519,0.00290703773499,19.7053470612
65,0.281371116638,0.0120069980621,0.0132191181183,0.00293111801147,20.1671659946
66,0.287020206451,0.0134298801422,0.0130181312561,0.00289416313171,20.8122341633
67,0.284112930298,0.0120489597321,0.0139880180359,0.00294303894043,20.4236540794
68,0.287373065948,0.0118680000305,0.0132188796997,0.00286102294922,21.6652958393
69,0.287794828415,0.0133190155029,0.0155849456787,0.00287818908691,21.3294110298
70,0.297055721283,0.01229596138,0.0134019851685,0.00287079811096,21.4978630543
71,0.38227391243,0.0139009952545,0.0130000114441,0.00309300422668,21.9836499691
72,0.323837041855,0.0127561092377,0.0134189128876,0.00295782089233,22.0964100361
73,0.283770084381,0.0123600959778,0.0136301517487,0.0029559135437,22.9629108906
74,0.290104150772,0.0118708610535,0.0134770870209,0.0028760433197,22.8943450451
75,0.326788187027,0.0127520561218,0.0135209560394,0.00318598747253,23.6461439133
76,0.28963971138,0.0123870372772,0.0139770507812,0.00289297103882,24.9481539726
77,0.287271976471,0.011757850647,0.0144460201263,0.00286984443665,24.0016889572
78,0.315316200256,0.0124020576477,0.0137748718262,0.00288486480713,23.3608250618
79,0.285305976868,0.0134241580963,0.0136420726776,0.00297093391418,24.6101570129
80,0.28569817543,0.0120549201965,0.0148811340332,0.00290393829346,24.6010000706
81,0.28711104393,0.0121600627899,0.0130560398102,0.00289988517761,24.7937018871
82,0.282819747925,0.0120379924774,0.0134530067444,0.00289392471313,24.9338991642
83,0.285692214966,0.0141949653625,0.0139920711517,0.0031430721283,25.2057600021
84,0.28999209404,0.0134899616241,0.0134818553925,0.00309610366821,25.8742351532
85,0.284357786179,0.0121281147003,0.0130829811096,0.0028600692749,26.594645977
86,0.29513001442,0.0130438804626,0.0134789943695,0.00304198265076,26.6776931286
87,0.28635597229,0.0120451450348,0.0136110782623,0.00285291671753,27.401444912
88,0.282281160355,0.0117349624634,0.0131258964539,0.00288200378418,27.0080580711
89,0.287214994431,0.0124838352203,0.0139861106873,0.00292992591858,27.8671908379
90,0.320201158524,0.0124170780182,0.0140159130096,0.00285506248474,27.703359127
91,0.286529064178,0.0134670734406,0.0131380558014,0.00289392471313,28.2785270214
92,0.291125774384,0.0123898983002,0.0157070159912,0.00288701057434,28.5552000999
93,0.293653011322,0.012421131134,0.0148630142212,0.00350999832153,28.2155959606
94,0.282641172409,0.0125408172607,0.0148041248322,0.00286197662354,28.6926438808
95,0.291952133179,0.0129752159119,0.0133321285248,0.00317096710205,28.7592039108
96,0.300172805786,0.01220703125,0.0139889717102,0.0028600692749,29.8180191517
97,0.407176971436,0.0131440162659,0.0132961273193,0.00290489196777,31.1263699532
98,0.285135984421,0.0122308731079,0.0131978988647,0.00296688079834,30.4879689217
99,0.295386075974,0.01291680336,0.0154409408569,0.00457286834717,31.0486311913
