step,run,get,set,free,run_up_to_step
0,0.194272994995,0.0242850780487,0.022392988205,0.0042610168457,0.197784900665
1,0.201838970184,0.0218250751495,0.0221738815308,0.00516891479492,0.399235010147
2,0.196846723557,0.0229201316833,0.0209228992462,0.00917100906372,0.598951101303
3,0.19585609436,0.020781993866,0.0207340717316,0.00441312789917,1.46102786064
4,0.196748971939,0.0227649211884,0.0204360485077,0.00445199012756,1.0279648304
5,0.196886062622,0.0229170322418,0.0209009647369,0.0045120716095,1.23392486572
6,0.195329904556,0.0197949409485,0.0219960212708,0.0047709941864,1.88005399704
7,0.198488950729,0.023796081543,0.0225808620453,0.00541591644287,1.65309405327
8,0.199037075043,0.0234498977661,0.022166967392,0.00565695762634,1.81232881546
9,0.197991132736,0.0221729278564,0.02214884758,0.00527286529541,2.05089402199
10,0.971656799316,0.0208399295807,0.0206859111786,0.004469871521,2.2188270092
11,0.223309993744,0.0225701332092,0.044408082962,0.00602006912231,2.42378306389
12,0.202358722687,0.0230929851532,0.0207540988922,0.00513195991516,2.64738488197
13,0.199408054352,0.0232141017914,0.0208480358124,0.00528192520142,2.8471429348
14,0.201110124588,0.0197420120239,0.0209150314331,0.0045599937439,3.47029590607
15,0.197296142578,0.0233058929443,0.0207970142365,0.00460410118103,3.2373239994
16,0.200480937958,0.0198259353638,0.0213510990143,0.00510406494141,4.02946400642
17,0.204196929932,0.0227448940277,0.0206980705261,0.00580906867981,3.58847498894
18,0.201778173447,0.0230031013489,0.0219399929047,0.00793504714966,3.84228014946
19,0.197353839874,0.0210819244385,0.0205450057983,0.00448203086853,4.42898201942
20,0.196583271027,0.0201740264893,0.0202488899231,0.00504398345947,4.6906080246
21,0.200014829636,0.0236990451813,0.0208220481873,0.00747084617615,4.45279288292
22,0.194343805313,0.0196301937103,0.0205729007721,0.00452780723572,4.95084285736
23,0.192926883698,0.0226399898529,0.0223171710968,0.00521492958069,4.80105805397
24,0.195480108261,0.0197601318359,0.0205221176147,0.00510191917419,5.61805605888
25,0.19113779068,0.0196058750153,0.0202929973602,0.00450396537781,5.64402914047
26,0.194279909134,0.023236989975,0.0208020210266,0.00453019142151,5.47410297394
27,0.191640377045,0.0196378231049,0.0206661224365,0.00451397895813,6.24160599709
28,0.192723274231,0.0233449935913,0.0214788913727,0.0053448677063,5.87741804123
29,0.224502801895,0.0199661254883,0.0207018852234,0.00447487831116,6.28920888901
30,0.191776275635,0.0228610038757,0.0206761360168,0.00523686408997,6.17716002464
31,0.185732841492,0.0201549530029,0.0204689502716,0.00445818901062,6.75003409386
32,0.187051057816,0.0227580070496,0.0203759670258,0.00523209571838,6.5522441864
33,0.189118146896,0.0197250843048,0.0211188793182,0.00559496879578,6.97709012032
34,0.185784816742,0.0213088989258,0.0206210613251,0.00452494621277,7.25258088112
35,0.188525915146,0.0196499824524,0.0208148956299,0.00515985488892,7.95722818375
36,0.186408996582,0.0196669101715,0.0206089019775,0.00502610206604,7.77360701561
37,0.18944311142,0.0200099945068,0.0209879875183,0.00453996658325,7.86556196213
38,0.19061589241,0.019632101059,0.0206868648529,0.00510787963867,8.11685299873
39,0.187490224838,0.020220041275,0.0210831165314,0.00447416305542,8.38074111938
40,0.187026977539,0.0222961902618,0.0204179286957,0.00460290908813,8.12534189224
41,0.19251203537,0.02041888237,0.0205368995667,0.0047869682312,8.46125197411
42,0.190827131271,0.0197150707245,0.0203800201416,0.00455093383789,9.1512401104
43,0.187221050262,0.0198771953583,0.0221529006958,0.00445508956909,9.03236699104
44,0.186441898346,0.019278049469,0.0208082199097,0.0044960975647,9.37495517731
45,0.191293001175,0.0195369720459,0.0209341049194,0.00456786155701,9.74864411354
46,0.222188234329,0.0195879936218,0.0210499763489,0.00560808181763,9.87521696091
47,0.187072992325,0.0198740959167,0.0203738212585,0.00496697425842,9.75625491142
48,0.186887979507,0.0199730396271,0.0209810733795,0.0045440196991,10.0795221329
49,0.187000989914,0.0195519924164,0.0205450057983,0.0044538974762,10.3304319382
50,0.189127922058,0.022008895874,0.0209710597992,0.00452494621277,10.3787620068
51,0.188262224197,0.0195589065552,0.0206000804901,0.00478196144104,10.7071340084
52,0.186599969864,0.0195710659027,0.020653963089,0.00482797622681,10.9857420921
53,0.197685718536,0.0196130275726,0.0207989215851,0.00502014160156,11.2251880169
54,0.188704013824,0.0195999145508,0.0207171440125,0.00499415397644,11.339728117
55,0.190099954605,0.0195999145508,0.0209641456604,0.00474715232849,11.4169340134
56,0.193661928177,0.0197141170502,0.0202729701996,0.00449204444885,11.5974729061
57,0.189055204391,0.0218760967255,0.0208940505981,0.00494289398193,11.6088030338
58,0.198470115662,0.0200951099396,0.020721912384,0.00457096099854,11.7884008884
59,0.234181880951,0.0194411277771,0.0209720134735,0.00473809242249,12.3871641159
60,0.194261074066,0.0196261405945,0.0207540988922,0.00450706481934,12.7053120136
61,0.199280261993,0.0215840339661,0.0202798843384,0.00446105003357,12.8874931335
62,0.195114850998,0.0213918685913,0.0214009284973,0.0045862197876,12.9858779907
63,0.194993019104,0.0213389396667,0.0205190181732,0.00450897216797,13.370672226
64,0.194630861282,0.0201990604401,0.0203459262848,0.00487399101257,13.5449810028
65,0.197661876678,0.020201921463,0.020956993103,0.00447583198547,13.5591459274
66,0.195552110672,0.0209829807281,0.0206210613251,0.00444602966309,13.6245031357
67,0.203187942505,0.0204079151154,0.0209100246429,0.00515818595886,13.8704199791
68,0.195650100708,0.0215799808502,0.0202970504761,0.00449109077454,14.2576460838
69,0.194613695145,0.0209641456604,0.0214900970459,0.00450921058655,14.1259460449
70,0.195813179016,0.0206410884857,0.020327091217,0.0044538974762,14.3692500591
71,0.196105003357,0.020849943161,0.0220150947571,0.00465893745422,14.924241066
72,0.194583177567,0.0200128555298,0.0205781459808,0.00450491905212,15.2530670166
73,0.198118925095,0.02064204216,0.0206880569458,0.00456714630127,15.0688149929
74,0.194687128067,0.0196180343628,0.0205678939819,0.00446605682373,15.5904700756
75,0.197652101517,0.0196890830994,0.0204191207886,0.00501012802124,15.6649580002
76,0.195496082306,0.01979804039,0.02170586586,0.00455498695374,15.7898709774
77,0.195230007172,0.0195920467377,0.0204179286957,0.00447702407837,16.3651111126
78,0.66059088707,0.0207672119141,0.0210349559784,0.00501108169556,16.0927398205
79,0.195556163788,0.0215671062469,0.0206139087677,0.00451898574829,16.2320821285
80,0.198720693588,0.0195510387421,0.0205199718475,0.00449585914612,16.6788029671
81,0.199607133865,0.0196759700775,0.0207238197327,0.00461792945862,16.9590599537
82,0.195334911346,0.0213158130646,0.0204429626465,0.00447702407837,16.8166620731
83,0.20284485817,0.0206201076508,0.0205819606781,0.00449514389038,17.0659089088
84,0.199423074722,0.0204179286957,0.0216159820557,0.00449585914612,17.0247011185
85,0.196341991425,0.0206410884857,0.0206429958344,0.00449895858765,17.9410409927
86,0.194900035858,0.0199301242828,0.02032995224,0.0045120716095,17.6630527973
87,0.194145679474,0.019406080246,0.0208990573883,0.00453495979309,18.1480200291
88,0.231546163559,0.0201959609985,0.0204269886017,0.00447511672974,18.5871479511
89,0.200609922409,0.0207870006561,0.020651102066,0.00476598739624,18.2879209518
90,0.194757223129,0.019464969635,0.020555973053,0.00452589988708,18.7747049332
91,0.196840047836,0.0200281143188,0.0214400291443,0.00455689430237,18.8005399704
92,0.200370073318,0.0212881565094,0.02068400383,0.00448894500732,18.9768381119
93,0.229672908783,0.0198271274567,0.0204331874847,0.00473499298096,19.2690739632
94,0.195945262909,0.0204019546509,0.0206620693207,0.00447702407837,19.6195709705
95,0.195530176163,0.0198581218719,0.0204601287842,0.0045690536499,19.8235800266
96,0.198284864426,0.0202310085297,0.0205590724945,0.00457310676575,20.1487660408
97,0.195047140121,0.0201258659363,0.0210599899292,0.00456690788269,19.9627978802
98,0.195707082748,0.0210199356079,0.020467042923,0.00454092025757,20.5881130695
99,0.198082923889,0.0211911201477,0.0205678939819,0.00512194633484,20.2668468952
