step,run,get,set,free,run_up_to_step
0,0.261577129364,0.00644683837891,0.00588893890381,0.00062108039856,0.263725042343
1,0.272285938263,0.00602197647095,0.00607204437256,0.000703811645508,0.526248931885
2,0.263451814651,0.0056791305542,0.00626683235168,0.000663995742798,0.796952009201
3,0.260653972626,0.00574016571045,0.00595283508301,0.000623941421509,1.02869486809
4,0.25656414032,0.00558400154114,0.00607109069824,0.000663042068481,1.29889702797
5,0.251470804214,0.00609493255615,0.00621700286865,0.000682830810547,1.53592205048
6,0.264472961426,0.0058069229126,0.0060350894928,0.000649929046631,2.20254802704
7,0.261740684509,0.00569820404053,0.00615787506104,0.00091814994812,2.08351302147
8,0.267014980316,0.00586795806885,0.00625205039978,0.000685930252075,2.33472204208
9,0.268933773041,0.00563907623291,0.00609087944031,0.000686168670654,2.89384388924
10,0.267930984497,0.00583410263062,0.00612998008728,0.000843048095703,2.85189509392
11,0.255326032639,0.00590801239014,0.00617289543152,0.000668048858643,3.11139202118
12,0.262972831726,0.00593996047974,0.00615811347961,0.000660181045532,3.39272809029
13,0.259428262711,0.00578618049622,0.00619697570801,0.00065803527832,4.1150560379
14,0.264902114868,0.0058491230011,0.00628185272217,0.000676155090332,4.30783605576
15,0.263788223267,0.00593400001526,0.0062849521637,0.000663995742798,4.14511799812
16,0.268640756607,0.00557994842529,0.00613594055176,0.000667095184326,4.89227986336
17,0.266077280045,0.00557994842529,0.00632095336914,0.000689029693604,5.07717394829
18,0.265272140503,0.00591206550598,0.0062460899353,0.000655174255371,5.33003497124
19,0.263136863708,0.00596714019775,0.0061399936676,0.000874996185303,5.43750905991
20,0.257371902466,0.00597500801086,0.00626802444458,0.000653028488159,5.49118304253
21,0.2597219944,0.00573682785034,0.00629210472107,0.000692129135132,6.21370506287
22,0.268647909164,0.00579285621643,0.00641703605652,0.000732898712158,6.31944799423
23,0.267376184464,0.00579810142517,0.00622200965881,0.000739097595215,6.19347786903
24,0.26034617424,0.00573897361755,0.00605893135071,0.00065803527832,6.65971398354
25,0.256722927094,0.00567984580994,0.0061309337616,0.000662088394165,6.98140406609
26,0.259862661362,0.00561308860779,0.00615000724792,0.000653982162476,7.22625803947
27,0.260125160217,0.0060122013092,0.00614905357361,0.000699043273926,7.42720508575
28,0.914928913116,0.00585508346558,0.00620794296265,0.000762939453125,7.53436493874
29,0.262120008469,0.00603795051575,0.00686502456665,0.000836133956909,7.71461606026
30,0.263936042786,0.00585317611694,0.00603699684143,0.000654935836792,7.90993094444
31,0.25639796257,0.00594806671143,0.00628185272217,0.000653982162476,8.24092912674
32,0.261356115341,0.005450963974,0.00614213943481,0.000678062438965,9.03544092178
33,0.260499954224,0.00563788414001,0.00652408599854,0.000683069229126,9.17461705208
34,0.263422012329,0.00562691688538,0.00623488426208,0.000695943832397,9.35481309891
35,0.261174201965,0.00579905509949,0.00635695457458,0.000716924667358,9.63959693909
36,0.262979984283,0.00585007667542,0.0060670375824,0.000678062438965,9.97761511803
37,0.271602869034,0.00578498840332,0.00620698928833,0.000663995742798,10.2256581783
38,0.261076927185,0.00578904151917,0.00611305236816,0.00066614151001,10.6417891979
39,0.260872125626,0.00571203231812,0.00621604919434,0.000690937042236,10.5225260258
40,0.260568141937,0.00560688972473,0.00613594055176,0.00068998336792,10.9164178371
41,0.258733987808,0.00569796562195,0.00630903244019,0.00070595741272,11.3817980289
42,0.259042739868,0.00545001029968,0.00641393661499,0.000680208206177,11.5055429935
43,0.259828805923,0.00600481033325,0.0062301158905,0.000676870346069,11.6374919415
44,0.265830993652,0.00585007667542,0.00643301010132,0.000670909881592,11.816655159
45,0.26633310318,0.00568795204163,0.00626492500305,0.000684022903442,12.3066141605
46,0.266457080841,0.00569796562195,0.00628018379211,0.000730991363525,12.7583491802
47,0.267403125763,0.00610589981079,0.00652599334717,0.000673055648804,12.9563150406
48,0.267106056213,0.00578594207764,0.00639796257019,0.000744819641113,13.3067429066
49,0.262027978897,0.00583386421204,0.00622606277466,0.000737905502319,13.4265339375
50,0.259960889816,0.00573492050171,0.00640797615051,0.000725984573364,13.6321430206
51,0.254507064819,0.00584006309509,0.00627493858337,0.000695943832397,13.5278289318
52,0.260405063629,0.00572490692139,0.0060248374939,0.000694990158081,13.7649250031
53,0.261718034744,0.00559520721436,0.00604510307312,0.000712156295776,14.3027021885
54,0.261625051498,0.00560116767883,0.00634407997131,0.000715970993042,14.6755678654
55,0.265680074692,0.00589394569397,0.00617384910583,0.000725984573364,14.7063529491
56,0.26965379715,0.00559306144714,0.00642418861389,0.000656127929688,15.3064780235
57,0.265144109726,0.00573420524597,0.00620198249817,0.000692129135132,15.5755431652
58,0.264397859573,0.00580406188965,0.00642013549805,0.000702142715454,15.8022339344
59,0.26367521286,0.0059871673584,0.00625920295715,0.000776052474976,16.1158471107
60,0.265320777893,0.00602912902832,0.00647807121277,0.000701904296875,16.1156690121
61,0.26633310318,0.00567102432251,0.00636792182922,0.000686883926392,16.7137508392
62,0.271041154861,0.00588703155518,0.00633788108826,0.00068998336792,16.9584491253
63,0.263458013535,0.00579881668091,0.00640296936035,0.000736951828003,17.1575870514
64,0.269192934036,0.0060350894928,0.00634598731995,0.000712871551514,17.4428489208
65,0.266450881958,0.00566911697388,0.00624990463257,0.000718116760254,17.1718621254
66,0.254150867462,0.00541996955872,0.00619101524353,0.000745058059692,17.4857840538
67,0.27080321312,0.00587010383606,0.00659394264221,0.000675201416016,17.7145009041
68,0.265790939331,0.00596213340759,0.00647616386414,0.000937938690186,18.255464077
69,0.267336130142,0.00580191612244,0.00632405281067,0.000720024108887,18.6028439999
70,0.263561010361,0.00574398040771,0.00663995742798,0.000768184661865,19.1437499523
71,0.266207933426,0.00580596923828,0.00644016265869,0.00072717666626,19.3957781792
72,0.26865196228,0.0058810710907,0.00619697570801,0.000713109970093,19.6829428673
73,0.262174129486,0.00605893135071,0.00651812553406,0.000714063644409,19.7741580009
74,0.285125017166,0.00608491897583,0.00656890869141,0.000707149505615,19.8518571854
75,0.261792898178,0.00583410263062,0.00628113746643,0.000729084014893,20.3652830124
76,0.268574953079,0.00596690177917,0.00640296936035,0.000722169876099,20.4888620377
77,0.269858121872,0.00606799125671,0.00635981559753,0.000715017318726,21.0262949467
78,0.259171962738,0.0057168006897,0.00750803947449,0.000724077224731,21.1215620041
79,0.268360137939,0.00610899925232,0.0066990852356,0.000741958618164,21.2523319721
80,0.268562078476,0.00601005554199,0.00660014152527,0.000699043273926,21.9493808746
81,0.266839981079,0.00571799278259,0.00661706924438,0.000723838806152,22.2230520248
82,0.273319005966,0.00606393814087,0.00643301010132,0.000715970993042,22.2351791859
83,0.269122123718,0.0060088634491,0.0065860748291,0.000766038894653,22.5403439999
84,0.274481058121,0.00624704360962,0.00647187232971,0.000710010528564,22.9080870152
85,0.270030736923,0.00577592849731,0.00634002685547,0.000746011734009,23.3429298401
86,0.269150018692,0.00605583190918,0.00635695457458,0.000712871551514,23.6562099457
87,0.274628162384,0.00621199607849,0.00644397735596,0.000739097595215,24.1998829842
88,0.268337249756,0.00601291656494,0.00670886039734,0.000730037689209,24.0931949615
89,0.271769046783,0.00556492805481,0.00625705718994,0.000729084014893,24.553194046
90,0.292410135269,0.00585603713989,0.00681304931641,0.000720024108887,24.8636858463
91,0.270248174667,0.00588202476501,0.00679588317871,0.000813007354736,24.9629459381
92,0.275886058807,0.00631093978882,0.00665497779846,0.000743865966797,25.8764019012
93,0.269307851791,0.00603294372559,0.00681495666504,0.000777006149292,25.4046061039
94,0.262454986572,0.00614714622498,0.00666904449463,0.000879049301147,25.5911169052
95,0.268952846527,0.00602412223816,0.00653886795044,0.000777006149292,25.7059919834
96,0.272700309753,0.00607991218567,0.00625419616699,0.000832080841064,26.1438410282
97,0.269145727158,0.00640892982483,0.00630593299866,0.00078296661377,26.5274181366
98,0.275682926178,0.00592994689941,0.00670695304871,0.000717163085938,26.881513834
99,0.267568826675,0.00622200965881,0.00654911994934,0.000859975814819,26.9185450077
