step,run,get,set,free,run_up_to_step
0,1.05003285408,0.0859549045563,0.0879690647125,0.0216932296753,1.09632897377
1,0.959125995636,0.0850341320038,0.0875601768494,0.0227620601654,2.10836696625
2,0.997656106949,0.0841720104218,0.108665943146,0.0360560417175,3.14849686623
3,1.02104520798,0.0810060501099,0.0925719738007,0.0229568481445,3.96271777153
4,0.971395015717,0.0794489383698,0.0887870788574,0.0245342254639,5.23698186874
5,1.0036380291,0.0774931907654,0.0864219665527,0.0225880146027,6.95658397675
6,0.977937936783,0.0771460533142,0.086236000061,0.0218319892883,7.25692915916
7,0.987536907196,0.0881459712982,0.0967559814453,0.0267100334167,8.29745411873
8,0.961800098419,0.0799329280853,0.0888459682465,0.0224618911743,8.86202788353
9,1.04852294922,0.083113193512,0.102811098099,0.0229699611664,11.3689649105
10,0.981416940689,0.0778040885925,0.0922560691833,0.0274660587311,11.9582290649
11,1.04267406464,0.0853750705719,0.0909020900726,0.0229501724243,13.1521449089
12,0.996582984924,0.0775468349457,0.0868351459503,0.0263071060181,14.1127068996
13,0.999513864517,0.0818128585815,0.0910840034485,0.0255041122437,14.5244681835
14,1.85830593109,0.10645198822,0.0901200771332,0.0226809978485,15.6724770069
15,0.990342140198,0.083065032959,0.0866990089417,0.022794008255,17.1495511532
16,1.03168797493,0.0813579559326,0.0870678424835,0.0243999958038,17.8653180599
17,1.03183698654,0.0821590423584,0.0859379768372,0.0221128463745,19.329764843
18,0.993059873581,0.0776751041412,0.091686964035,0.0245170593262,18.9906449318
19,0.980373859406,0.0825119018555,0.0904719829559,0.0258378982544,20.1830248833
20,0.972784757614,0.0805947780609,0.0853600502014,0.0218019485474,22.0685970783
21,1.0096321106,0.0803961753845,0.0850219726562,0.0287270545959,22.7961409092
22,0.983945846558,0.0772500038147,0.0851788520813,0.0183548927307,23.560600996
23,0.982522964478,0.0816280841827,0.0857930183411,0.0230801105499,24.4205629826
24,0.98018693924,0.080864906311,0.0848579406738,0.0200819969177,25.0799951553
25,1.02567815781,0.0761201381683,0.0842769145966,0.021800994873,27.4328670502
26,0.978282928467,0.0818769931793,0.0851120948792,0.0221009254456,28.1630411148
27,0.980696201324,0.0984001159668,0.0875678062439,0.024001121521,29.2896380424
28,0.992772102356,0.0820689201355,0.0851228237152,0.0228521823883,29.3489460945
29,0.997750043869,0.0779480934143,0.108871936798,0.0224800109863,32.0211679935
30,0.975247859955,0.0791838169098,0.0847280025482,0.0225820541382,32.0508410931
31,0.967571020126,0.0803678035736,0.0846588611603,0.0224690437317,32.0612859726
32,0.988812208176,0.0764698982239,0.0850129127502,0.0221810340881,33.7484078407
33,1.02026700974,0.0816559791565,0.0849840641022,0.0224649906158,33.6632709503
34,1.01397514343,0.0756819248199,0.0810811519623,0.0219538211823,37.2767620087
35,0.991987705231,0.0750501155853,0.084771156311,0.0224199295044,36.7324819565
36,0.98818397522,0.0848069190979,0.0858960151672,0.022115945816,38.1894090176
37,1.00676298141,0.0797362327576,0.105713129044,0.0206108093262,39.1229510307
38,1.00478100777,0.0788049697876,0.0855181217194,0.0220828056335,40.6422898769
39,1.02986526489,0.080207824707,0.131146907806,0.0256500244141,41.6893720627
40,0.981358766556,0.0774040222168,0.0857181549072,0.0231490135193,41.8142170906
41,1.00072002411,0.0818650722504,0.0848119258881,0.0219521522522,42.5140528679
42,1.0068423748,0.0949230194092,0.0844230651855,0.0485579967499,45.0421450138
43,0.955318927765,0.0766370296478,0.0850460529327,0.0222389698029,45.8203260899
44,1.01075291634,0.0781178474426,0.0845530033112,0.0231308937073,45.6099791527
45,1.01665687561,0.0784561634064,0.0877819061279,0.0249829292297,48.2045738697
46,0.963047027588,0.0779750347137,0.0855031013489,0.0233380794525,48.7123842239
47,1.00973892212,0.0767259597778,0.0866570472717,0.0237710475922,50.030465126
48,0.957850933075,0.0803661346436,0.0869719982147,0.0223360061646,49.2769179344
49,1.32489609718,0.0746231079102,0.0853319168091,0.0226521492004,52.3389840126
50,1.04203510284,0.0789179801941,0.0848889350891,0.0220191478729,51.4809920788
51,0.985447883606,0.0787999629974,0.0848791599274,0.0222351551056,52.5402538776
52,0.954773902893,0.0792760848999,0.085098028183,0.0225520133972,54.4140560627
53,0.978549003601,0.0753998756409,0.0927619934082,0.0271410942078,56.5970540047
54,0.978442192078,0.0787138938904,0.0889959335327,0.0232498645782,54.9833180904
55,0.991884946823,0.0797979831696,0.0858020782471,0.0225710868835,57.4274351597
56,0.985582113266,0.0880999565125,0.0872440338135,0.0213370323181,58.0670650005
57,1.01137304306,0.0791370868683,0.0856528282166,0.0222959518433,60.0658578873
58,0.956388711929,0.0787329673767,0.0842499732971,0.0223128795624,60.6658239365
59,0.959723949432,0.0782108306885,0.0840978622437,0.0216629505157,62.0970699787
60,1.00437617302,0.0826299190521,0.0849349498749,0.0224769115448,60.8323099613
61,0.995451927185,0.0789849758148,0.084892988205,0.0220417976379,63.017070055
62,1.01473784447,0.0757739543915,0.0861611366272,0.022421836853,63.0077049732
63,1.06346201897,0.0795879364014,0.0898978710175,0.022716999054,64.0120761395
64,1.01053500175,0.0781559944153,0.109324932098,0.0215818881989,67.8130760193
65,1.41490793228,0.0759408473969,0.0842719078064,0.0227189064026,66.0730891228
66,1.01095294952,0.0822138786316,0.0853888988495,0.0476570129395,69.3744261265
67,1.03640699387,0.0871770381927,0.0839629173279,0.0224471092224,68.3664340973
68,0.983734130859,0.105496168137,0.0852999687195,0.0218241214752,70.7502639294
69,0.986092090607,0.0816609859467,0.0850689411163,0.0217070579529,72.174902916
70,0.955928087234,0.0785460472107,0.0854370594025,0.0223350524902,71.0809102058
71,1.00379896164,0.0812718868256,0.120735883713,0.0295131206512,74.7792310715
72,1.01377987862,0.0796630382538,0.0847749710083,0.0226421356201,76.0825250149
73,0.983962059021,0.0796589851379,0.0847361087799,0.0255391597748,77.7775580883
74,0.995674848557,0.0782980918884,0.10062289238,0.0334048271179,75.2054879665
75,0.954679012299,0.0800549983978,0.0849370956421,0.0226290225983,76.8698461056
76,0.992815971375,0.0941350460052,0.0845930576324,0.0309121608734,82.0441548824
77,0.987978219986,0.0804269313812,0.0894548892975,0.0218751430511,78.9973158836
78,0.959849834442,0.0808808803558,0.0858449935913,0.0220530033112,82.2989721298
79,1.00748419762,0.0772020816803,0.0845370292664,0.0216808319092,82.8138029575
80,0.951311826706,0.0910708904266,0.0875990390778,0.0224070549011,84.833370924
81,1.00410509109,0.0800080299377,0.08873295784,0.0216679573059,85.4596400261
82,0.972857952118,0.0858809947968,0.0862271785736,0.0223300457001,84.4856851101
83,1.06405186653,0.0815989971161,0.0845439434052,0.0220630168915,85.8583798409
84,0.993839979172,0.0777289867401,0.0855181217194,0.0223159790039,88.0999088287
85,0.963648080826,0.0796639919281,0.0870308876038,0.0337040424347,90.0847740173
86,0.964320898056,0.103631973267,0.0848679542542,0.0222811698914,88.1788539886
87,0.962089300156,0.0814108848572,0.1010658741,0.0263810157776,92.0626690388
88,0.957194805145,0.0775880813599,0.0856249332428,0.0297799110413,90.455340147
89,0.973323822021,0.0780670642853,0.0846309661865,0.0219559669495,93.550688982
90,1.0063931942,0.0778961181641,0.0851900577545,0.0216760635376,94.9995861053
91,0.980604887009,0.0777540206909,0.0876059532166,0.0299589633942,92.9216578007
92,0.985331058502,0.0820188522339,0.0845048427582,0.0250089168549,94.0285661221
93,1.0095717907,0.0810661315918,0.0918757915497,0.0237610340118,97.7677571774
94,0.983573198318,0.0813851356506,0.0849771499634,0.0218350887299,97.6137330532
95,1.03375196457,0.0832860469818,0.0875220298767,0.0229740142822,96.5081620216
96,1.00791978836,0.0798590183258,0.099289894104,0.02228307724,98.919989109
97,1.00126504898,0.0778381824493,0.0906360149384,0.0235350131989,98.5312280655
98,0.949411869049,0.0795211791992,0.0860669612885,0.0217709541321,100.834030151
99,0.949968099594,0.0814049243927,0.0874230861664,0.0236148834229,101.410620928
