step,run,get,set,free,run_up_to_step
0,0.207789182663,0.0069580078125,0.00851106643677,0.00207614898682,0.182104110718
1,0.179626941681,0.00734710693359,0.00852298736572,0.00168895721436,0.373859882355
2,0.177683830261,0.0075511932373,0.00844097137451,0.00169396400452,0.551029205322
3,0.178095817566,0.00712394714355,0.00825095176697,0.00169396400452,0.742233037949
4,0.218018054962,0.00702595710754,0.00836396217346,0.00239491462708,0.94122004509
5,0.179300069809,0.00736689567566,0.00823402404785,0.00176501274109,1.09427595139
6,0.179293870926,0.00802683830261,0.00943207740784,0.00222611427307,1.38324093819
7,0.182588100433,0.00739693641663,0.00808215141296,0.00179505348206,1.58917403221
8,0.193168878555,0.00721192359924,0.00817704200745,0.00177907943726,2.06613492966
9,0.175790786743,0.00756287574768,0.0081160068512,0.00188398361206,1.81277799606
10,0.198506832123,0.00750994682312,0.00835800170898,0.00191307067871,1.97356700897
11,0.181689977646,0.00733494758606,0.00894498825073,0.00251412391663,2.5025408268
12,0.209570169449,0.00873398780823,0.00849199295044,0.00189018249512,2.36056995392
13,0.184183120728,0.00767517089844,0.00870490074158,0.00221610069275,2.68423318863
14,0.179965019226,0.0305840969086,0.00826287269592,0.00169682502747,3.49272704124
15,0.177784204483,0.00757813453674,0.00831604003906,0.00173187255859,2.9144961834
16,0.179598093033,0.00764918327332,0.00805997848511,0.00173401832581,3.14307618141
17,0.184454202652,0.00776100158691,0.00827193260193,0.00188779830933,3.26327109337
18,0.176993131638,0.0075671672821,0.00840711593628,0.00199794769287,3.58054208755
19,0.1789894104,0.00742697715759,0.00821089744568,0.00224304199219,3.65538692474
20,0.181186199188,0.00748801231384,0.00824594497681,0.00173497200012,3.88170194626
21,0.180631875992,0.00748705863953,0.00894212722778,0.00222301483154,4.09206700325
22,0.182995080948,0.00849103927612,0.00966691970825,0.00197410583496,4.75670409203
23,0.17733001709,0.00755715370178,0.00847196578979,0.00179600715637,4.666918993
24,0.189703941345,0.00888800621033,0.0117502212524,0.00277805328369,4.56539607048
25,0.185032129288,0.0080349445343,0.00849604606628,0.00181818008423,5.56854200363
26,0.176525115967,0.00778698921204,0.00810599327087,0.00185799598694,4.85823297501
27,0.206597089767,0.00800704956055,0.00878095626831,0.00176310539246,5.07143807411
28,0.210774898529,0.00745987892151,0.00854802131653,0.00186800956726,6.19854211807
29,0.183912038803,0.00727105140686,0.00814199447632,0.00173592567444,5.86527299881
30,0.199301958084,0.00787591934204,0.00839996337891,0.00172591209412,5.89603590965
31,0.19636797905,0.00715804100037,0.00807213783264,0.00176501274109,6.49084997177
32,0.178888320923,0.00766205787659,0.00816297531128,0.00178003311157,6.42582392693
33,0.193632125854,0.00727510452271,0.00820302963257,0.00177097320557,7.03303098679
34,0.194306850433,0.00716686248779,0.00845813751221,0.00179505348206,6.69669699669
35,0.178606033325,0.00735187530518,0.0126230716705,0.0036301612854,7.03006386757
36,0.176878929138,0.00720286369324,0.00913596153259,0.00229811668396,7.35385990143
37,0.211510896683,0.0106210708618,0.00833511352539,0.00175404548645,7.46318817139
38,0.180156946182,0.00741291046143,0.00844597816467,0.0017249584198,7.67976593971
39,0.184016704559,0.00768208503723,0.00867605209351,0.00187802314758,8.00912189484
40,0.18003821373,0.00704598426819,0.00817489624023,0.00179600715637,8.95376682281
41,0.180959939957,0.00717687606812,0.00818490982056,0.00172019004822,8.11947989464
42,0.216605186462,0.00806903839111,0.00853800773621,0.00202202796936,8.50601506233
43,0.17613196373,0.00767016410828,0.00846815109253,0.0191390514374,8.57870602608
44,0.176118135452,0.00710988044739,0.00853395462036,0.00190114974976,8.76953196526
45,0.175300121307,0.00741791725159,0.00814509391785,0.00174999237061,8.96597886086
46,0.179500102997,0.0071120262146,0.00810694694519,0.00173997879028,9.09542918205
47,0.180577993393,0.00747394561768,0.00818109512329,0.00176596641541,9.27618288994
48,0.178238153458,0.00743889808655,0.0100591182709,0.00198793411255,9.75393390656
49,0.180674791336,0.00748300552368,0.00816988945007,0.00176787376404,9.98473381996
50,0.181195020676,0.00781011581421,0.00911903381348,0.00197792053223,10.0752851963
51,0.178633928299,0.00822782516479,0.00953602790833,0.00222897529602,10.6390798092
52,0.178382873535,0.0075478553772,0.0091278553009,0.00238585472107,10.3331699371
53,0.182784080505,0.00753903388977,0.00858998298645,0.00187015533447,10.6517560482
54,0.178544044495,0.00736999511719,0.00836300849915,0.00181198120117,10.6073429585
55,0.175747156143,0.00721216201782,0.00846409797668,0.00175714492798,10.7868471146
56,0.175959825516,0.00718784332275,0.00841903686523,0.00174808502197,11.2351851463
57,0.176809072495,0.00784611701965,0.00809597969055,0.0017249584198,11.4173281193
58,0.176821231842,0.00737500190735,0.00834083557129,0.00200295448303,11.7788660526
59,0.177660942078,0.00762295722961,0.00866103172302,0.00194406509399,11.5002501011
60,0.556936979294,0.00718188285828,0.00831198692322,0.00180816650391,11.5790271759
61,0.180283784866,0.00722813606262,0.00884509086609,0.0025999546051,12.3448309898
62,0.176592826843,0.00791788101196,0.00858688354492,0.00201606750488,12.2253949642
63,0.175611019135,0.00748801231384,0.00853776931763,0.00172805786133,12.6338598728
64,0.177546262741,0.00825691223145,0.0126719474792,0.00255298614502,12.1470141411
65,0.204651832581,0.00763297080994,0.00829815864563,0.0021390914917,12.9943990707
66,0.202931880951,0.00760102272034,0.009850025177,0.00221514701843,12.8537678719
67,0.203659057617,0.00872898101807,0.00818395614624,0.00174188613892,13.2775871754
68,0.193512916565,0.00754308700562,0.00813508033752,0.00209093093872,13.2045550346
69,0.197468996048,0.00766491889954,0.00859498977661,0.00177597999573,13.2034399509
70,0.176929950714,0.00726580619812,0.00850415229797,0.00173497200012,13.8475410938
71,0.181676864624,0.00735998153687,0.00866508483887,0.00182414054871,14.4590511322
72,0.176604986191,0.00742602348328,0.00815486907959,0.00171399116516,14.6661000252
73,0.625699043274,0.00752210617065,0.00852203369141,0.00176596641541,13.7994389534
74,0.174392938614,0.00744605064392,0.0107500553131,0.00184202194214,14.3896617889
75,0.183001995087,0.00742793083191,0.00885486602783,0.00173306465149,15.8194160461
76,0.188012123108,0.0085620880127,0.00845503807068,0.00194811820984,15.7577800751
77,0.179256916046,0.00739502906799,0.00863409042358,0.00172996520996,15.0831899643
78,0.183476924896,0.00797080993652,0.00823903083801,0.00196313858032,15.7796170712
79,0.179497003555,0.00743198394775,0.00862693786621,0.00210785865784,15.4901800156
80,0.196916818619,0.00753808021545,0.008544921875,0.00172114372253,15.7588658333
81,0.178617954254,0.00742697715759,0.00955200195312,0.00226092338562,16.0514440536
82,0.178676128387,0.00734281539917,0.00849509239197,0.00196599960327,16.1292300224
83,0.180687189102,0.00752687454224,0.00885796546936,0.00209498405457,16.3260068893
84,0.185081005096,0.00742292404175,0.00855302810669,0.00177693367004,16.24675107
85,0.176872014999,0.00754809379578,0.00857591629028,0.00176310539246,16.7018220425
86,0.18609213829,0.00756406784058,0.00877094268799,0.0018310546875,16.9531519413
87,0.181519985199,0.00742506980896,0.00830316543579,0.00197505950928,17.1147451401
88,0.181232213974,0.0073459148407,0.00854706764221,0.00182580947876,17.1945519447
89,0.177521944046,0.0073139667511,0.00860714912415,0.00173497200012,18.8534400463
90,0.17591881752,0.00752806663513,0.00822806358337,0.00198602676392,18.5182571411
91,0.177273035049,0.00788998603821,0.00862193107605,0.00217986106873,17.6721138954
92,0.178484916687,0.00762701034546,0.00816702842712,0.00174283981323,17.8391699791
93,0.195697069168,0.00770401954651,0.00863885879517,0.00178217887878,17.5084199905
94,0.181203365326,0.00755310058594,0.00852990150452,0.00210618972778,19.0450079441
95,0.176527023315,0.00827121734619,0.00854086875916,0.00175595283508,19.311150074
96,0.181571006775,0.00736904144287,0.00852298736572,0.00199508666992,18.8878960609
97,0.177132844925,0.00797605514526,0.00860118865967,0.00192999839783,18.894810915
98,0.177588224411,0.00781893730164,0.00852608680725,0.00189805030823,20.7353870869
99,0.177063941956,0.00764989852905,0.00888085365295,0.00189089775085,20.0486741066
