step,run,get,set,free,run_up_to_step
0,0.220421075821,0.00697302818298,0.00789093971252,0.00164103507996,0.205826997757
1,0.219092845917,0.00772309303284,0.00753808021545,0.00182104110718,0.711966991425
2,0.795650959015,0.00821685791016,0.00893211364746,0.002032995224,0.595390081406
3,0.215425014496,0.00784301757812,0.00755500793457,0.00183701515198,0.827706098557
4,0.205986738205,0.00779294967651,0.00735712051392,0.00160789489746,1.04884386063
5,0.200064897537,0.0074770450592,0.00714588165283,0.00157690048218,1.195748806
6,0.190191984177,0.00699996948242,0.00703382492065,0.00158786773682,1.36812806129
7,0.219386100769,0.00699019432068,0.00814509391785,0.00183606147766,1.88954401016
8,0.191669940948,0.0067880153656,0.00804090499878,0.00186705589294,1.88602304459
9,0.21467590332,0.00654077529907,0.0072648525238,0.00155210494995,2.45337295532
10,0.191662073135,0.00677514076233,0.00700092315674,0.00151705741882,2.78554415703
11,0.192378997803,0.00718283653259,0.00824117660522,0.00189805030823,2.31994009018
12,0.1906208992,0.00657105445862,0.00767493247986,0.00172710418701,2.71464705467
13,0.189111709595,0.00640892982483,0.00772500038147,0.00179886817932,3.47045612335
14,0.212037086487,0.00789594650269,0.00873589515686,0.00211596488953,3.00177192688
15,0.20881986618,0.00698804855347,0.00756311416626,0.00158596038818,3.51712918282
16,0.192544221878,0.0072979927063,0.00780320167542,0.00170302391052,3.35859489441
17,0.194941997528,0.00778079032898,0.00772905349731,0.00168013572693,3.50998806953
18,0.218934774399,0.00770902633667,0.0073230266571,0.00215697288513,3.74952411652
19,0.209291219711,0.0072169303894,0.00765299797058,0.00166702270508,4.38802409172
20,0.200402021408,0.007169008255,0.00830101966858,0.00174117088318,4.30776190758
21,0.192626953125,0.00674295425415,0.00722813606262,0.00163602828979,4.93735313416
22,0.195399045944,0.00698614120483,0.00761699676514,0.00164985656738,4.85748195648
23,0.191447019577,0.00686097145081,0.00729584693909,0.00172996520996,5.23832702637
24,0.203654766083,0.00724387168884,0.00745892524719,0.00173497200012,5.39037680626
25,0.197242021561,0.006502866745,0.00793099403381,0.00170993804932,5.82192015648
26,0.213431119919,0.00674605369568,0.00756597518921,0.00166392326355,5.89725279808
27,0.190014123917,0.0067310333252,0.0187239646912,0.00171804428101,6.24157691002
28,0.189927101135,0.00691080093384,0.00810503959656,0.00179696083069,6.26186084747
29,0.191925048828,0.00759196281433,0.0077850818634,0.00163197517395,6.02108597755
30,0.195873975754,0.00779509544373,0.00729703903198,0.00158500671387,6.3810441494
31,0.19176697731,0.00699710845947,0.00804901123047,0.00179409980774,6.51999402046
32,0.200972795486,0.00740003585815,0.00768518447876,0.00173616409302,7.12834405899
33,0.192247867584,0.00680303573608,0.00745487213135,0.00159192085266,7.40213084221
34,0.213549137115,0.00719499588013,0.00782299041748,0.00168180465698,7.65213894844
35,0.204793930054,0.007807970047,0.00894498825073,0.00174498558044,7.81715917587
36,1.19001722336,0.00751113891602,0.00838899612427,0.00179004669189,7.55790710449
37,0.200521707535,0.0074770450592,0.00746893882751,0.00155711174011,8.47911691666
38,0.201944112778,0.00784087181091,0.00816106796265,0.00172710418701,8.18122291565
39,0.191771030426,0.00696301460266,0.00801301002502,0.00155901908875,8.36667609215
40,0.202095031738,0.00774788856506,0.00825190544128,0.00163412094116,8.72176384926
41,0.201967954636,0.00826811790466,0.00870895385742,0.00191116333008,8.46803402901
42,0.194019079208,0.00779914855957,0.00721192359924,0.00185799598694,8.81400513649
43,0.199637889862,0.0072340965271,0.00819492340088,0.00198006629944,8.90825390816
44,0.195906877518,0.00749182701111,0.00872588157654,0.00184297561646,9.61038017273
45,0.543161153793,0.00750994682312,0.00892496109009,0.00176215171814,9.98509192467
46,0.222788095474,0.00679206848145,0.00819492340088,0.00161695480347,9.95705103874
47,0.208089828491,0.00726199150085,0.00890707969666,0.00186991691589,10.5591189861
48,0.213372945786,0.00743293762207,0.00793313980103,0.00191783905029,10.6488769054
49,0.204190015793,0.0075991153717,0.00766801834106,0.00180721282959,10.488806963
50,0.198428153992,0.00754189491272,0.00770092010498,0.00211811065674,10.7924730778
51,0.196598052979,0.00722718238831,0.007483959198,0.00161790847778,11.0195989609
52,0.192044019699,0.00724291801453,0.00851392745972,0.00210118293762,11.0343379974
53,0.193130016327,0.00687408447266,0.00767302513123,0.00157713890076,11.375398159
54,0.201432943344,0.00759696960449,0.00866198539734,0.00190877914429,11.6333119869
55,0.211149215698,0.007248878479,0.00813007354736,0.00160503387451,11.9529130459
56,0.229716777802,0.00798892974854,0.00831913948059,0.00196194648743,12.1972720623
57,0.195240974426,0.00678205490112,0.0076048374176,0.00159311294556,12.5510959625
58,0.215568065643,0.00837683677673,0.00752210617065,0.00155401229858,12.7453391552
59,0.199781894684,0.00774812698364,0.00818300247192,0.00196385383606,12.7744698524
60,0.193372011185,0.00700378417969,0.00873589515686,0.00193309783936,13.4999098778
61,0.606723070145,0.00714492797852,0.00743317604065,0.00157713890076,13.2621109486
62,0.210323095322,0.00820899009705,0.00785493850708,0.00170302391052,13.4694600105
63,0.206660985947,0.0077428817749,0.00757217407227,0.0016930103302,13.8264770508
64,0.191569805145,0.00706505775452,0.00834202766418,0.00199890136719,13.7327961922
65,0.195400953293,0.00705814361572,0.00866603851318,0.00192785263062,14.3125529289
66,0.194887876511,0.00755906105042,0.00837206840515,0.00198817253113,14.2749109268
67,0.219748020172,0.00711584091187,0.00860905647278,0.00193881988525,14.2431380749
68,0.207160949707,0.00767111778259,0.00859403610229,0.00188207626343,15.3097231388
69,0.196146726608,0.00724005699158,0.00755596160889,0.00188016891479,15.0380189419
70,0.197663068771,0.00778317451477,0.00777697563171,0.00171208381653,14.8263242245
71,0.225251913071,0.00850796699524,0.00747489929199,0.00181007385254,14.9911940098
72,0.208158969879,0.00784015655518,0.00760889053345,0.00156998634338,15.2277629375
73,0.208208799362,0.00715899467468,0.00859189033508,0.00185394287109,15.6098489761
74,0.198912143707,0.00770688056946,0.00908899307251,0.00171899795532,15.7282350063
75,0.21449303627,0.00792598724365,0.00870013237,0.00161695480347,16.1542310715
76,0.19632101059,0.00758504867554,0.00754189491272,0.00189900398254,16.884403944
77,0.198457956314,0.00700497627258,0.00906801223755,0.00180888175964,16.1593849659
78,0.198982000351,0.00822997093201,0.00925493240356,0.00202417373657,16.9960570335
79,0.192044258118,0.0071918964386,0.00851798057556,0.00215196609497,16.8898479939
80,0.239558935165,0.00759196281433,0.00930404663086,0.00247502326965,16.8631489277
81,0.227388858795,0.00770688056946,0.00868988037109,0.00199317932129,17.6161110401
82,0.194720983505,0.00844788551331,0.00963187217712,0.00199007987976,17.3989768028
83,0.19563794136,0.00715684890747,0.00819802284241,0.00195789337158,17.9505357742
84,0.192373752594,0.00723719596863,0.0075740814209,0.00198101997375,17.9000940323
85,0.195354938507,0.00751090049744,0.00779604911804,0.00176405906677,18.428809166
86,0.194420099258,0.00743103027344,0.00853896141052,0.00196099281311,18.7624709606
87,0.194466114044,0.00773286819458,0.00922203063965,0.00213384628296,18.777973175
88,0.202847003937,0.00795197486877,0.00780296325684,0.00190114974976,18.9116799831
89,0.195249080658,0.00805497169495,0.00807499885559,0.00198721885681,18.9590799809
90,0.193161010742,0.00757789611816,0.00758600234985,0.00193095207214,19.2791178226
91,0.194284915924,0.00766515731812,0.00803804397583,0.00173187255859,19.1890370846
92,0.214515686035,0.00753283500671,0.00803399085999,0.0019998550415,20.392362833
93,0.23531293869,0.00866198539734,0.00750494003296,0.00185799598694,19.5325870514
94,0.196688652039,0.00737309455872,0.00941300392151,0.00226497650146,19.7744371891
95,0.208763837814,0.00728487968445,0.0106627941132,0.0025851726532,20.186289072
96,0.195453166962,0.00724101066589,0.00858592987061,0.0016770362854,20.6312761307
97,0.206768989563,0.00802898406982,0.00887203216553,0.00169086456299,21.250977993
98,0.239992856979,0.00771188735962,0.00822114944458,0.00177502632141,21.5559020042
99,0.211320161819,0.00733494758606,0.00827789306641,0.00179600715637,22.5452330112
