step,run,get,set,free,run_up_to_step
0,0.137821912766,0.00335788726807,0.00315999984741,0.000510931015015,0.139427900314
1,0.134238004684,0.00306296348572,0.00331521034241,0.00056004524231,0.286475896835
2,0.136149168015,0.00298690795898,0.00334501266479,0.000679969787598,0.641453027725
3,0.136662960052,0.00312805175781,0.003497838974,0.000708103179932,0.917139053345
4,0.134073972702,0.00301790237427,0.00347709655762,0.000833034515381,0.665713071823
5,0.146592855453,0.00321412086487,0.00363397598267,0.000850915908813,0.826448917389
6,0.13413310051,0.0030472278595,0.0033278465271,0.000777006149292,0.945788860321
7,0.135945796967,0.00310778617859,0.0181291103363,0.000746011734009,1.1150829792
8,0.134919881821,0.00290417671204,0.00329804420471,0.000679016113281,1.23746585846
9,0.139063835144,0.00299096107483,0.00321388244629,0.000741958618164,1.35303401947
10,0.134522914886,0.00314617156982,0.00316500663757,0.000716924667358,2.24056005478
11,0.134908914566,0.00305700302124,0.00339102745056,0.000756025314331,1.95791912079
12,0.141587018967,0.00317811965942,0.00334310531616,0.000818014144897,1.79093718529
13,0.135272026062,0.00322794914246,0.00321912765503,0.000748872756958,1.90824794769
14,0.134781837463,0.00299906730652,0.00344085693359,0.000814914703369,2.02027416229
15,0.13770198822,0.00291991233826,0.00324201583862,0.000727891921997,2.51783704758
16,0.139816045761,0.00312519073486,0.00342488288879,0.000871896743774,2.27383708954
17,0.185873985291,0.00312185287476,0.00319004058838,0.000715017318726,2.93456697464
18,0.134699106216,0.00304508209229,0.00323390960693,0.000784873962402,2.56707119942
19,0.136499166489,0.00320982933044,0.00317811965942,0.000715970993042,2.69108295441
20,0.133551120758,0.00295996665955,0.00334906578064,0.000772953033447,3.44256711006
21,0.139701843262,0.00313806533813,0.00314116477966,0.000750064849854,3.04653596878
22,0.133723020554,0.00296497344971,0.00342416763306,0.000793933868408,3.70089411736
23,0.137433767319,0.00302815437317,0.00354099273682,0.000734090805054,3.30035495758
24,0.14093708992,0.00300788879395,0.00330281257629,0.00079607963562,4.14618611336
25,0.142062187195,0.00316715240479,0.00354599952698,0.000900030136108,4.04075098038
26,0.141053915024,0.0032069683075,0.00326299667358,0.000831127166748,3.74963712692
27,0.136522769928,0.00304293632507,0.00391602516174,0.00100708007812,4.20514082909
28,0.158908843994,0.00289392471313,0.00318717956543,0.000755071640015,4.82634687424
29,0.138120174408,0.00330710411072,0.00335597991943,0.000886917114258,4.05568599701
30,0.137058973312,0.00307607650757,0.00328397750854,0.000789880752563,4.54448008537
31,0.137743234634,0.00296592712402,0.00355815887451,0.000843048095703,4.7543489933
32,0.140892744064,0.00304198265076,0.0032320022583,0.000836133956909,4.98844385147
33,0.144861936569,0.0036039352417,0.00339579582214,0.00082802772522,5.03430199623
34,0.13748717308,0.00306010246277,0.00321197509766,0.000748872756958,5.027312994
35,0.142091989517,0.00309801101685,0.00334000587463,0.000767946243286,6.06868386269
36,0.135745048523,0.00300312042236,0.00331211090088,0.000921010971069,5.41666793823
37,1.00542187691,0.00320816040039,0.00325703620911,0.000776052474976,5.24036598206
38,0.174996137619,0.00407314300537,0.00316405296326,0.000729084014893,6.0239481926
39,0.142503023148,0.00332403182983,0.00316214561462,0.000746965408325,6.06111907959
40,0.138437986374,0.00313901901245,0.0031270980835,0.000726938247681,5.58548092842
41,0.157845020294,0.0031259059906,0.00328516960144,0.000762939453125,6.1323928833
42,0.139810800552,0.00296998023987,0.00325417518616,0.000731945037842,6.28666305542
43,0.159409761429,0.00354194641113,0.00315880775452,0.000746965408325,6.40363788605
44,0.13264799118,0.00288319587708,0.00323987007141,0.000751972198486,6.72981500626
45,0.137516021729,0.00302004814148,0.00321292877197,0.000821828842163,6.87110900879
46,0.139910936356,0.00294089317322,0.00322008132935,0.000836849212646,6.95318889618
47,0.135090827942,0.00318002700806,0.00353693962097,0.000855922698975,7.17459487915
48,0.137104988098,0.00316500663757,0.0032958984375,0.000735998153687,7.00494503975
49,0.135426998138,0.00299787521362,0.00329685211182,0.000944852828979,7.13776111603
50,0.136151790619,0.00307321548462,0.00325798988342,0.00074577331543,7.45905399323
51,0.151700019836,0.0033597946167,0.00335693359375,0.000730037689209,7.74169206619
52,0.136014938354,0.00322604179382,0.00327396392822,0.000746011734009,7.77722406387
53,0.135188102722,0.00312805175781,0.00319886207581,0.00084400177002,7.59849095345
54,0.136758089066,0.0031590461731,0.00355100631714,0.000798940658569,8.69086384773
55,0.132440090179,0.00298595428467,0.00321507453918,0.000730037689209,8.17395305634
56,0.147030830383,0.00323486328125,0.00330185890198,0.00079607963562,8.61664104462
57,0.137279987335,0.0030620098114,0.00331997871399,0.000787019729614,8.55552387238
58,0.137700796127,0.00293898582458,0.00326299667358,0.000730991363525,8.56474685669
59,0.133641958237,0.00298380851746,0.00336098670959,0.000870943069458,9.62725996971
60,0.134106874466,0.00296211242676,0.00317597389221,0.000798940658569,8.53190398216
61,0.138303756714,0.00309610366821,0.00319910049438,0.000722169876099,8.89191699028
62,0.133772611618,0.00290608406067,0.00332188606262,0.000869035720825,9.53514003754
63,0.136942863464,0.00302290916443,0.00328898429871,0.000720024108887,9.39580798149
64,0.138281106949,0.00335097312927,0.00319194793701,0.000735998153687,9.32188010216
65,0.136281728745,0.00307989120483,0.00325798988342,0.000802993774414,9.15820813179
66,0.137230873108,0.00308179855347,0.00317001342773,0.000782012939453,9.68252921104
67,0.135456085205,0.00310683250427,0.00317192077637,0.00078296661377,9.97072291374
68,0.135770082474,0.00299000740051,0.00315308570862,0.000720977783203,10.8191709518
69,0.142691135406,0.00305390357971,0.00328302383423,0.000764846801758,10.3731529713
70,0.138041973114,0.00300621986389,0.00312805175781,0.000713109970093,10.2181780338
71,0.139271974564,0.00296115875244,0.00324106216431,0.000754117965698,10.4532558918
72,0.135972976685,0.00302195549011,0.00322294235229,0.000744819641113,10.7862379551
73,0.13596701622,0.00306105613708,0.0033118724823,0.000766038894653,11.088588953
74,0.644709348679,0.00325894355774,0.00319695472717,0.000798940658569,10.6933710575
75,0.136425018311,0.00296211242676,0.00353217124939,0.00087308883667,10.9767129421
76,0.138002157211,0.00304293632507,0.00334286689758,0.000797033309937,11.0020580292
77,0.143238067627,0.00308704376221,0.00315022468567,0.000730037689209,11.8650860786
78,0.136032104492,0.00306105613708,0.00331616401672,0.000748872756958,11.3759589195
79,0.654052972794,0.00350308418274,0.00328421592712,0.000813007354736,11.9140861034
80,0.134488105774,0.00306797027588,0.00355005264282,0.000895977020264,11.447398901
81,0.138358831406,0.00319290161133,0.00337719917297,0.000782012939453,11.674749136
82,0.141150951385,0.00317692756653,0.00313496589661,0.000730037689209,12.5368058681
83,0.143953084946,0.0033061504364,0.00326609611511,0.000734090805054,12.4445068836
84,0.13515496254,0.00296497344971,0.00344085693359,0.000862121582031,12.0791099072
85,0.134996175766,0.00286412239075,0.00318193435669,0.000757932662964,12.4042999744
86,0.138980865479,0.00298810005188,0.00318002700806,0.000736951828003,12.814770937
87,0.689349889755,0.00348901748657,0.00326204299927,0.00080394744873,13.5291750431
88,0.176119089127,0.00311183929443,0.00313806533813,0.000707864761353,13.3473038673
89,0.137353181839,0.00293898582458,0.00312399864197,0.000730037689209,13.6630270481
90,0.135166883469,0.00287389755249,0.00357985496521,0.000935077667236,13.0465321541
91,0.135486125946,0.00307607650757,0.00325584411621,0.000730037689209,14.3920600414
92,0.144165039062,0.00312805175781,0.00344586372375,0.000935077667236,13.703742981
93,0.13437795639,0.00289988517761,0.00342321395874,0.00076699256897,14.5644299984
94,0.133641958237,0.0031099319458,0.00316905975342,0.000726938247681,13.8782429695
95,0.142001867294,0.00309586524963,0.00362491607666,0.000780820846558,14.9789991379
96,0.135277986526,0.003005027771,0.00316905975342,0.000746965408325,14.0377080441
97,0.191705226898,0.00313711166382,0.00345087051392,0.000799894332886,14.2480318546
98,0.138154029846,0.00306081771851,0.00323510169983,0.000913858413696,15.4327259064
99,0.134510993958,0.00300884246826,0.00328493118286,0.000828981399536,14.6778349876
