step,run,get,set,free,run_up_to_step
0,0.210411071777,0.00655698776245,0.00699687004089,0.00140190124512,0.201760053635
1,0.207254886627,0.00598096847534,0.00727415084839,0.00153207778931,0.67263507843
2,0.18915104866,0.00627994537354,0.00696110725403,0.00151205062866,0.573214054108
3,0.184777021408,0.00587201118469,0.0067880153656,0.00141000747681,0.758616924286
4,0.185366868973,0.00599503517151,0.00665688514709,0.00144910812378,0.947428226471
5,0.192374229431,0.00620412826538,0.00724697113037,0.00169110298157,2.02688193321
6,0.182682752609,0.0060830116272,0.00683498382568,0.00162386894226,1.35901904106
7,0.184747934341,0.00614309310913,0.00664210319519,0.0015389919281,1.49411010742
8,0.202117204666,0.00655913352966,0.00680208206177,0.00141882896423,1.67726016045
9,0.188090085983,0.00671601295471,0.00697493553162,0.00152206420898,1.8555059433
10,0.195363998413,0.00674700737,0.00706505775452,0.00148105621338,2.11022996902
11,0.187255144119,0.00646710395813,0.00782680511475,0.00165700912476,2.26705312729
12,0.189797878265,0.00702691078186,0.00658392906189,0.00140309333801,2.52854800224
13,0.256597042084,0.00718998908997,0.00744104385376,0.00166296958923,2.60590314865
14,0.183302879333,0.00578212738037,0.00716495513916,0.00144505500793,3.50728201866
15,0.197765827179,0.00592708587646,0.00662088394165,0.0014009475708,3.15810608864
16,0.181598901749,0.00679993629456,0.00668096542358,0.00146889686584,3.12872195244
17,0.179067611694,0.0062210559845,0.00677919387817,0.00154709815979,3.34180402756
18,0.247674942017,0.00666284561157,0.00691890716553,0.00180387496948,3.46979403496
19,0.187352895737,0.00639295578003,0.0082368850708,0.00142002105713,3.86928296089
20,0.232917070389,0.00736403465271,0.00756001472473,0.00210690498352,3.96905112267
21,0.185106039047,0.00657105445862,0.00686001777649,0.0014820098877,4.03201889992
22,0.188999891281,0.00596404075623,0.00680804252625,0.00158095359802,4.65036416054
23,0.184859752655,0.00618505477905,0.00733613967896,0.00156402587891,5.04607009888
24,0.182208061218,0.00604009628296,0.00845289230347,0.00157999992371,5.00335502625
25,0.18346786499,0.00646209716797,0.0071427822113,0.00176382064819,5.81242203712
26,0.193346977234,0.00648403167725,0.00714588165283,0.00145792961121,5.82434391975
27,0.203799247742,0.00741195678711,0.00717115402222,0.00147914886475,5.47145199776
28,0.257345914841,0.00706696510315,0.00700998306274,0.00171184539795,6.58386898041
29,0.188939094543,0.00629281997681,0.00766015052795,0.00155997276306,6.16592693329
30,0.185333013535,0.00573301315308,0.00748205184937,0.00148510932922,6.28008413315
31,0.18118429184,0.00617790222168,0.00667691230774,0.00146198272705,6.52136611938
32,0.212832212448,0.00612616539001,0.00705885887146,0.00141000747681,6.73518514633
33,0.18735909462,0.00657510757446,0.00758790969849,0.00159382820129,6.86667108536
34,0.207870721817,0.00712895393372,0.00729489326477,0.00203394889832,6.49945902824
35,0.184186220169,0.00640392303467,0.00688195228577,0.00163388252258,6.95186400414
36,0.189075231552,0.00674891471863,0.00713706016541,0.00169801712036,7.11124897003
37,0.182729005814,0.00670313835144,0.0070629119873,0.00151801109314,7.53021788597
38,0.184165000916,0.00627088546753,0.0067081451416,0.00148010253906,7.78607106209
39,0.185015916824,0.00593304634094,0.00686693191528,0.00148606300354,8.55845689774
40,0.181833028793,0.00612306594849,0.00732207298279,0.0015709400177,8.30843019485
41,0.185714006424,0.00635194778442,0.00721788406372,0.00144386291504,8.42564797401
42,0.215744018555,0.0062460899353,0.0069580078125,0.00178194046021,8.99285697937
43,0.179503917694,0.00584077835083,0.00710320472717,0.00141596794128,8.38550496101
44,0.18413901329,0.00615191459656,0.00771999359131,0.00162196159363,9.18236279488
45,0.185365915298,0.00683403015137,0.00791096687317,0.00179576873779,9.1894800663
46,0.191378831863,0.00647902488708,0.00694108009338,0.00141382217407,9.47534990311
47,0.183430194855,0.00597810745239,0.00787711143494,0.00172305107117,9.27078700066
48,0.180465936661,0.00627279281616,0.00781512260437,0.0015389919281,9.38174200058
49,0.195074796677,0.00622415542603,0.00787210464478,0.00172710418701,10.2105138302
50,0.19784116745,0.00691103935242,0.00731110572815,0.00164008140564,10.3743638992
51,0.192005157471,0.00621891021729,0.00806784629822,0.00183391571045,10.7464520931
52,0.26213312149,0.00731205940247,0.00731897354126,0.00147485733032,11.6004669666
53,0.182811975479,0.00602102279663,0.00825595855713,0.00150299072266,11.3088810444
54,0.204301118851,0.00604891777039,0.0073778629303,0.00176906585693,11.1052660942
55,0.229775905609,0.00656390190125,0.00769114494324,0.0219068527222,11.1598181725
56,0.187281131744,0.00619506835938,0.00885009765625,0.00183415412903,12.3915929794
57,0.182934999466,0.00664186477661,0.00780987739563,0.00142502784729,13.9198048115
58,0.183580875397,0.00611019134521,0.00714302062988,0.00153398513794,12.2247879505
59,0.209211826324,0.00636196136475,0.00810408592224,0.00168299674988,12.2144031525
60,0.188236951828,0.00620818138123,0.00783491134644,0.00141501426697,12.4987461567
61,0.194373130798,0.00702691078186,0.00819802284241,0.00221920013428,12.5583040714
62,0.190235853195,0.0069260597229,0.00732803344727,0.00146102905273,12.9467270374
63,0.190186023712,0.00699996948242,0.00677704811096,0.0014488697052,14.4676878452
64,0.184127092361,0.0063681602478,0.00777196884155,0.00180602073669,13.3802039623
65,0.187444925308,0.00661396980286,0.00730013847351,0.00163388252258,14.3074929714
66,0.183737039566,0.00636982917786,0.007080078125,0.00168299674988,14.053882122
67,0.1984770298,0.00712203979492,0.00788903236389,0.00184297561646,15.1494400501
68,0.188586950302,0.00670790672302,0.00757813453674,0.00171089172363,14.0919101238
69,0.190010070801,0.00639915466309,0.00707507133484,0.00147795677185,14.3075377941
70,0.186464071274,0.00650882720947,0.00722885131836,0.00176095962524,14.4956970215
71,0.186811923981,0.00667881965637,0.00744605064392,0.00146007537842,15.0236730576
72,0.183994054794,0.00642585754395,0.00797891616821,0.00198984146118,14.9216079712
73,0.189818143845,0.0064709186554,0.00798201560974,0.00164818763733,16.4733920097
74,0.184701919556,0.00630187988281,0.00748085975647,0.00172019004822,15.7104451656
75,0.188101768494,0.00679492950439,0.00750207901001,0.00145697593689,15.5256581306
76,0.183901786804,0.0063169002533,0.00731706619263,0.00154304504395,15.7066209316
77,0.19248175621,0.00677084922791,0.00732111930847,0.00167393684387,16.6067569256
78,0.19377374649,0.00705480575562,0.00711917877197,0.00162696838379,15.937458992
79,0.185117006302,0.00631284713745,0.00724697113037,0.00182509422302,15.9494299889
80,0.19315123558,0.00708317756653,0.00811195373535,0.00208401679993,16.3909192085
81,0.196027755737,0.00697183609009,0.00736212730408,0.00160002708435,16.9276440144
82,0.186699151993,0.00667405128479,0.00762104988098,0.00149989128113,16.8884561062
83,0.183808088303,0.00611805915833,0.00723695755005,0.00154399871826,16.9839940071
84,0.191729068756,0.00735116004944,0.00703692436218,0.00165987014771,17.536757946
85,0.184865236282,0.00699710845947,0.00738787651062,0.00176310539246,17.0130631924
86,0.196361064911,0.00698494911194,0.00727510452271,0.00149202346802,17.3248448372
87,0.193318128586,0.00731706619263,0.00703001022339,0.00147700309753,18.2714347839
88,0.200107097626,0.00674390792847,0.00772500038147,0.00196099281311,17.8037838936
89,0.18474316597,0.00658178329468,0.00707602500916,0.00147604942322,18.0417869091
90,0.181435823441,0.00627398490906,0.00750112533569,0.00171995162964,18.8564291
91,0.184566259384,0.00624299049377,0.00713181495667,0.00151109695435,18.7732570171
92,0.187662124634,0.00699901580811,0.00753784179688,0.00171995162964,19.0386748314
93,0.215234041214,0.00676679611206,0.00836396217346,0.00216293334961,18.6509869099
94,0.185569047928,0.00640487670898,0.00748801231384,0.00175499916077,19.0589661598
95,0.206568002701,0.00618290901184,0.00729990005493,0.00150990486145,19.6127409935
96,0.197522878647,0.00612902641296,0.00711417198181,0.0015070438385,19.7216758728
97,0.184538125992,0.00717687606812,0.00724506378174,0.00147390365601,19.4157838821
98,0.184723138809,0.00626587867737,0.00727391242981,0.00167608261108,19.6602349281
99,0.185812950134,0.00624084472656,0.00691294670105,0.00166392326355,19.9672939777
