step,run,get,set,free,run_up_to_step
0,0.306843996048,0.00621914863586,0.00605607032776,0.000622034072876,0.304751157761
1,0.307420969009,0.00570511817932,0.00601696968079,0.000615835189819,0.619132041931
2,0.302397012711,0.0056619644165,0.00621676445007,0.00066614151001,0.905069112778
3,0.300704956055,0.00577092170715,0.00621294975281,0.000649929046631,1.20882701874
4,0.306035995483,0.00578284263611,0.00630784034729,0.000824928283691,1.53914403915
5,0.298679113388,0.00559020042419,0.00608682632446,0.000688076019287,1.78806304932
6,0.301420927048,0.0057680606842,0.00627493858337,0.000707864761353,2.06549191475
7,0.299067735672,0.00562000274658,0.00647687911987,0.000818967819214,2.36334109306
8,0.299835205078,0.00550699234009,0.00617694854736,0.000650882720947,2.68986201286
9,0.304291963577,0.00556993484497,0.00588989257812,0.000822782516479,3.01709103584
10,0.312431812286,0.00558710098267,0.00607490539551,0.000804901123047,3.32223081589
11,0.300588130951,0.00573301315308,0.00616407394409,0.000658988952637,3.52099514008
12,0.302070856094,0.00566387176514,0.00616908073425,0.000781059265137,4.11419200897
13,0.304660081863,0.00569295883179,0.00634598731995,0.000859022140503,4.1765639782
14,0.30184006691,0.00592303276062,0.00590109825134,0.000667810440063,4.54710006714
15,0.300335168839,0.00581407546997,0.00607204437256,0.00062108039856,4.78645420074
16,0.300988912582,0.00547003746033,0.00602006912231,0.000662088394165,5.30132889748
17,0.308219909668,0.00543093681335,0.00610613822937,0.000653982162476,5.85514211655
18,0.303883075714,0.00586009025574,0.00619602203369,0.000661849975586,5.69040703773
19,0.296592950821,0.0056688785553,0.00599789619446,0.000646829605103,6.41942882538
20,0.300932645798,0.00576901435852,0.0060920715332,0.000731945037842,6.250674963
21,0.303686141968,0.00575613975525,0.0060441493988,0.000646829605103,6.54809188843
22,0.300620079041,0.00564289093018,0.00625705718994,0.00069785118103,7.21769499779
23,0.301014900208,0.00568103790283,0.00606822967529,0.000714063644409,7.46856284142
24,0.299951076508,0.00568795204163,0.00615501403809,0.000850915908813,7.88774895668
25,0.308441877365,0.00581002235413,0.00604796409607,0.000654935836792,7.87468290329
26,0.306092977524,0.00562191009521,0.00606989860535,0.000638008117676,8.5291891098
27,0.303756952286,0.00585198402405,0.00620698928833,0.000668048858643,8.44817709923
28,0.294167757034,0.00552797317505,0.00599694252014,0.000659942626953,8.83401894569
29,0.288554191589,0.0057258605957,0.00604295730591,0.000680923461914,8.75845098495
30,0.289109230042,0.00546789169312,0.00611591339111,0.000647068023682,9.37336301804
31,0.290916919708,0.00548100471497,0.00618195533752,0.00068187713623,10.085321188
32,0.288601875305,0.00536203384399,0.00620889663696,0.000670909881592,10.2924489975
33,0.302932024002,0.00545811653137,0.00605297088623,0.000653982162476,10.4407858849
34,0.310641288757,0.00586605072021,0.00609993934631,0.000744819641113,10.7701289654
35,0.303226232529,0.00588703155518,0.00601577758789,0.000642061233521,10.7121400833
36,0.303350687027,0.00562691688538,0.00609517097473,0.000643014907837,11.1765539646
37,0.303965091705,0.00564098358154,0.00627088546753,0.000702142715454,11.3363389969
38,0.300368070602,0.00555205345154,0.00628089904785,0.000656127929688,11.8524489403
39,0.29088306427,0.00522780418396,0.00631093978882,0.000650882720947,12.3623518944
40,0.304363965988,0.00580620765686,0.00601005554199,0.00061297416687,12.3397049904
41,0.297815799713,0.00543808937073,0.00617003440857,0.000649929046631,12.8058860302
42,0.291711091995,0.00571918487549,0.00624489784241,0.000678062438965,13.1113960743
43,0.290989160538,0.00562405586243,0.00603199005127,0.000685930252075,13.1604449749
44,0.304814100266,0.0055570602417,0.0061399936676,0.000720024108887,13.6914072037
45,0.299684047699,0.00533080101013,0.00601983070374,0.000633001327515,14.0144197941
46,0.292587995529,0.0054759979248,0.00597906112671,0.000648975372314,14.4223098755
47,0.295250177383,0.00544905662537,0.00602698326111,0.000697135925293,14.5436840057
48,0.29194021225,0.0056140422821,0.00607514381409,0.000679969787598,14.8768689632
49,0.307144880295,0.00592803955078,0.00598692893982,0.000638008117676,14.9608099461
50,0.304275035858,0.00566792488098,0.00603485107422,0.000679969787598,15.3940429688
51,0.301507949829,0.00564289093018,0.0060760974884,0.000652074813843,15.5637168884
52,0.302602052689,0.00588393211365,0.00637292861938,0.000759124755859,16.3155238628
53,0.303074836731,0.00543999671936,0.00625419616699,0.000648975372314,16.7189021111
54,0.303368091583,0.00560808181763,0.00622797012329,0.000699043273926,16.9437530041
55,0.302300930023,0.00554418563843,0.00610899925232,0.000661134719849,17.3089830875
56,0.30669426918,0.00574207305908,0.0064070224762,0.000711917877197,17.6721448898
57,0.312386035919,0.00565409660339,0.00611591339111,0.000663995742798,17.7614428997
58,0.305849075317,0.00551009178162,0.00602602958679,0.000649929046631,18.162706852
59,0.303879022598,0.0055820941925,0.00611305236816,0.000627994537354,18.1174399853
60,0.303561925888,0.00573801994324,0.0061469078064,0.000684976577759,18.7584860325
61,0.301085948944,0.00543189048767,0.00603890419006,0.000640869140625,19.1106879711
62,0.30437707901,0.00551295280457,0.0059540271759,0.000633955001831,19.0535759926
63,0.288413763046,0.00573706626892,0.00607419013977,0.000676155090332,20.001832962
64,0.303461074829,0.0056369304657,0.00616717338562,0.000695943832397,19.9490830898
65,0.304139137268,0.00554299354553,0.00608611106873,0.000667095184326,20.3954689503
66,0.299931049347,0.00548386573792,0.00600481033325,0.00064492225647,20.5151720047
67,0.305355072021,0.00555014610291,0.00623416900635,0.000661134719849,20.6561830044
68,0.307827234268,0.00574684143066,0.00601196289062,0.000677108764648,20.9236209393
69,0.303475856781,0.00562000274658,0.0061469078064,0.000677108764648,21.2850158215
70,0.311810970306,0.00569796562195,0.00615382194519,0.000821828842163,21.8030838966
71,0.307795763016,0.00567984580994,0.00607705116272,0.000707149505615,21.9136149883
72,0.312582015991,0.0055570602417,0.00622606277466,0.000672101974487,22.4806931019
73,0.305028915405,0.00547099113464,0.00617814064026,0.000676155090332,22.4355471134
74,0.304702997208,0.00550889968872,0.0062849521637,0.000642061233521,22.700191021
75,0.308845996857,0.00551605224609,0.00617003440857,0.000680923461914,22.9752972126
76,0.307787895203,0.00567698478699,0.00612092018127,0.000673055648804,23.7353408337
77,0.308544158936,0.00555205345154,0.0063099861145,0.000657081604004,23.8086509705
78,0.310063123703,0.0055730342865,0.00609493255615,0.000653028488159,24.0858631134
79,0.309787988663,0.00551509857178,0.00600099563599,0.000637054443359,24.3901588917
80,0.306711196899,0.0054759979248,0.00614404678345,0.000651121139526,24.9146499634
81,0.307331085205,0.00547313690186,0.00625419616699,0.00066089630127,25.3432450294
82,0.308626174927,0.00557494163513,0.00599217414856,0.000649929046631,25.460048914
83,0.306071996689,0.00561285018921,0.0059540271759,0.000638008117676,26.0057339668
84,0.306418895721,0.00560307502747,0.00618481636047,0.00065803527832,26.1417660713
85,0.303440093994,0.00541996955872,0.00601601600647,0.000658988952637,25.8965969086
86,0.306739091873,0.00565910339355,0.0060338973999,0.000709056854248,26.4151141644
87,0.306409835815,0.00559210777283,0.00597596168518,0.000643968582153,26.4565110207
88,0.305069684982,0.0056939125061,0.00622510910034,0.00066089630127,26.8018519878
89,0.307349920273,0.00566411018372,0.00622177124023,0.000637054443359,27.5127880573
90,0.299535274506,0.00587701797485,0.00616383552551,0.000744104385376,27.1523549557
91,0.307770013809,0.00555396080017,0.00614809989929,0.000655889511108,27.8563759327
92,0.314161062241,0.00567007064819,0.00626683235168,0.000636100769043,27.7712211609
93,0.309674978256,0.0055410861969,0.00617408752441,0.000635862350464,28.3480470181
94,0.317634105682,0.00574398040771,0.00609683990479,0.000683069229126,28.9595150948
95,0.312787055969,0.00562596321106,0.00613808631897,0.000642061233521,29.8615069389
96,0.312829971313,0.00573301315308,0.00607705116272,0.000673055648804,30.1480610371
97,0.309862136841,0.00564503669739,0.0062849521637,0.000658988952637,30.080796957
98,0.314133167267,0.00556993484497,0.0062689781189,0.000630855560303,30.2746899128
99,0.313744068146,0.00571203231812,0.00622487068176,0.000633955001831,31.1693480015
