step,run,get,set,free,run_up_to_step
0,0.392570972443,0.00429511070251,0.00473213195801,0.000522136688232,0.392874002457
1,0.834235191345,0.00438499450684,0.00490212440491,0.000511884689331,0.744156122208
2,0.89106798172,0.00444889068604,0.00489807128906,0.000500202178955,1.07628107071
3,0.345032930374,0.00433111190796,0.00493407249451,0.00049090385437,1.99050211906
4,0.356969118118,0.00428485870361,0.00493788719177,0.000488042831421,2.36060094833
5,0.341271400452,0.00426506996155,0.00486993789673,0.000479936599731,2.639564991
6,0.352014064789,0.00401091575623,0.00488209724426,0.000483989715576,2.52862811089
7,0.35036110878,0.00409698486328,0.00502514839172,0.00050687789917,3.14647984505
8,0.350868940353,0.00427007675171,0.00498795509338,0.000504016876221,3.66151189804
9,0.347421169281,0.00441002845764,0.00464105606079,0.000485897064209,3.64561796188
10,0.349119901657,0.00408387184143,0.00499892234802,0.000524044036865,4.81529998779
11,0.349876880646,0.00445294380188,0.00473809242249,0.000576019287109,4.25945591927
12,0.350967168808,0.00410604476929,0.00498986244202,0.000444173812866,4.72417712212
13,0.349858045578,0.00433707237244,0.0049729347229,0.000504016876221,4.86688184738
14,0.356007814407,0.00436782836914,0.00509595870972,0.000502109527588,5.5464758873
15,0.350336074829,0.0042929649353,0.00503015518188,0.00046181678772,5.75387597084
16,0.344455957413,0.00436592102051,0.00484085083008,0.000590085983276,6.50985693932
17,0.356902122498,0.00425410270691,0.00475907325745,0.000545024871826,6.27574896812
18,0.351732730865,0.00444912910461,0.00488591194153,0.000493049621582,7.0745511055
19,0.346882104874,0.00440788269043,0.0049409866333,0.000476121902466,7.2687458992
20,0.358726739883,0.00431084632874,0.00501203536987,0.000477075576782,7.70585393906
21,0.35048699379,0.00423097610474,0.00497913360596,0.000519037246704,8.24428606033
22,0.348149061203,0.0041708946228,0.00506114959717,0.000484943389893,8.13099598885
23,0.345994949341,0.00426602363586,0.00505018234253,0.000479936599731,9.11740899086
24,0.350666046143,0.00419592857361,0.00518989562988,0.000504970550537,9.58058190346
25,0.359856128693,0.0042130947113,0.00488018989563,0.000488996505737,9.09926605225
26,0.344214916229,0.00425982475281,0.00485110282898,0.000634908676147,9.72008299828
27,0.347228050232,0.0042839050293,0.00487494468689,0.000495910644531,9.70437097549
28,0.347253084183,0.00445413589478,0.00490689277649,0.000509977340698,10.5881528854
29,0.349208116531,0.00433087348938,0.00480985641479,0.000488996505737,10.9294679165
30,0.34335899353,0.004065990448,0.00503993034363,0.000501871109009,11.2845821381
31,0.353446960449,0.00431489944458,0.00485014915466,0.000477075576782,11.8126409054
32,0.361178874969,0.00431299209595,0.00504994392395,0.000496864318848,12.0556771755
33,0.725117921829,0.00443482398987,0.00498509407043,0.000519990921021,12.3249828815
34,0.35426235199,0.0041241645813,0.00459098815918,0.000466823577881,12.8654949665
35,0.344518899918,0.0041937828064,0.00500988960266,0.00048303604126,13.3548848629
36,0.345110177994,0.00422596931458,0.00507998466492,0.000494003295898,14.1648249626
37,0.361935377121,0.0044469833374,0.0050220489502,0.000643014907837,14.061262846
38,0.361092090607,0.0042679309845,0.00494408607483,0.000480175018311,14.6843059063
39,0.351207017899,0.00428795814514,0.00511717796326,0.000488042831421,14.9220108986
40,0.352438926697,0.00442314147949,0.00490617752075,0.000477075576782,14.6730351448
41,0.352439403534,0.00409889221191,0.0048840045929,0.000484943389893,15.2712538242
42,0.346619129181,0.00421285629272,0.00518488883972,0.000495910644531,16.3251559734
43,0.363554954529,0.00432205200195,0.00505614280701,0.000452995300293,16.8289101124
44,0.369410991669,0.00447607040405,0.00500106811523,0.00048303604126,17.0550839901
45,0.348351955414,0.00421500205994,0.00507402420044,0.000494956970215,16.7807230949
46,0.345683097839,0.00442600250244,0.00504899024963,0.000492095947266,16.7533800602
47,0.35067486763,0.00412583351135,0.00504207611084,0.00049090385437,17.9848599434
48,0.357135057449,0.0041389465332,0.00498580932617,0.000472068786621,18.5284290314
49,0.356685161591,0.00436997413635,0.00519800186157,0.000487804412842,18.7842879295
50,0.367081642151,0.00427985191345,0.00502681732178,0.000480890274048,20.0771679878
51,0.348876953125,0.00428080558777,0.00507497787476,0.000516176223755,19.7405221462
52,0.349906921387,0.00443696975708,0.00507211685181,0.000497102737427,19.7789490223
53,0.347235918045,0.00418710708618,0.00492000579834,0.000699043273926,19.8733320236
54,0.345319747925,0.00433802604675,0.00501203536987,0.000521898269653,19.9047269821
55,0.346424102783,0.00435614585876,0.00506591796875,0.000479936599731,20.7985677719
56,0.361772298813,0.00417900085449,0.00497889518738,0.000654935836792,20.7293050289
57,0.365729093552,0.00432705879211,0.00527477264404,0.000494003295898,21.476598978
58,0.355344057083,0.00435709953308,0.00489711761475,0.000461101531982,22.284883976
59,0.684413909912,0.00464200973511,0.005126953125,0.00058388710022,21.9877719879
60,0.360990285873,0.00427293777466,0.00520300865173,0.000495910644531,23.1420409679
61,0.347620010376,0.00421118736267,0.00511002540588,0.000461101531982,22.3839719296
62,0.361768960953,0.00435185432434,0.00511908531189,0.000488996505737,23.8617260456
63,0.355291843414,0.0039279460907,0.00499892234802,0.000473022460938,24.7686619759
64,0.357004165649,0.0042610168457,0.00496602058411,0.000504016876221,23.2013070583
65,0.353801012039,0.00431418418884,0.00511407852173,0.000497102737427,24.500300169
66,0.354629993439,0.00410985946655,0.00501203536987,0.000487089157104,24.8425281048
67,0.35030412674,0.00401997566223,0.00506114959717,0.000478982925415,25.3650479317
68,0.347275018692,0.00413703918457,0.00490498542786,0.000596046447754,26.0235569477
69,0.351350307465,0.00433993339539,0.00473213195801,0.000478029251099,25.8293480873
70,0.342997074127,0.00417184829712,0.00450682640076,0.00049614906311,26.404569149
71,0.349359989166,0.00423789024353,0.0049159526825,0.000481128692627,25.762403965
72,0.346121072769,0.00414085388184,0.0048189163208,0.000492811203003,26.5164318085
73,0.362432003021,0.00413513183594,0.00504112243652,0.000491142272949,27.4148869514
74,0.775444030762,0.00475215911865,0.00520300865173,0.000627040863037,29.0995240211
75,0.354564666748,0.00430583953857,0.00500988960266,0.000487089157104,29.1397650242
76,0.344948291779,0.00436615943909,0.00495004653931,0.00053596496582,28.2763719559
77,0.356631755829,0.00440216064453,0.00491309165955,0.000479936599731,27.7841320038
78,0.348331928253,0.00449895858765,0.00531315803528,0.000488996505737,29.5964510441
79,0.357681035995,0.00438904762268,0.00499796867371,0.000488042831421,29.424945116
80,0.3542740345,0.00438189506531,0.00476098060608,0.00062108039856,30.3365249634
81,0.356706857681,0.00443005561829,0.0048360824585,0.000527858734131,31.0303590298
82,0.349562883377,0.00413918495178,0.00503087043762,0.000488042831421,30.0111958981
83,0.359482765198,0.00440096855164,0.00501108169556,0.000493049621582,32.8427600861
84,0.366209030151,0.00441408157349,0.00501894950867,0.000492095947266,33.5797080994
85,0.360911846161,0.00434112548828,0.00506997108459,0.000499963760376,34.0288448334
86,0.373225688934,0.00444507598877,0.00504207611084,0.000489950180054,32.4223291874
87,0.369137048721,0.00442099571228,0.00507712364197,0.000491857528687,33.5336661339
88,0.365942001343,0.00443482398987,0.00528407096863,0.000492095947266,34.5933349133
89,0.36582493782,0.00427389144897,0.00508999824524,0.000483989715576,34.0763640404
90,0.368421792984,0.00430798530579,0.0051281452179,0.000501871109009,35.9508669376
91,0.364789962769,0.00436186790466,0.00518608093262,0.000499963760376,35.9700410366
92,0.355684995651,0.00438594818115,0.00471687316895,0.000517129898071,35.8720569611
93,0.366012096405,0.00428485870361,0.00506114959717,0.000487089157104,35.3120210171
94,0.359420776367,0.00441312789917,0.00506997108459,0.000489950180054,37.9366090298
95,0.367735147476,0.00427389144897,0.00497698783875,0.000482082366943,37.1078360081
96,0.361791133881,0.00422382354736,0.00523996353149,0.000504970550537,37.4677340984
97,0.374406099319,0.00444293022156,0.00506520271301,0.00049901008606,36.9691748619
98,0.364007234573,0.00439500808716,0.00506091117859,0.000494956970215,37.4002768993
99,0.364829778671,0.00424599647522,0.00574588775635,0.000487089157104,37.4191150665
