step,run,get,set,free,run_up_to_step
0,0.340616941452,0.0185549259186,0.0187449455261,0.00188589096069,0.348509073257
1,0.339468717575,0.0171449184418,0.0177290439606,0.00193810462952,0.683350086212
2,0.343530893326,0.017275094986,0.0178787708282,0.0019519329071,1.03286480904
3,0.34183382988,0.0167231559753,0.0171439647675,0.00191807746887,1.37213993073
4,0.344581127167,0.0167450904846,0.0179731845856,0.00258803367615,2.01334810257
5,0.335008144379,0.0162909030914,0.0183470249176,0.00258302688599,2.06107592583
6,0.341729164124,0.0171220302582,0.0173399448395,0.00194501876831,2.39286112785
7,0.338090896606,0.0159270763397,0.0185070037842,0.00232291221619,2.71366405487
8,0.346676111221,0.0173051357269,0.0180017948151,0.00188612937927,3.04495310783
9,0.336455821991,0.0161619186401,0.0173089504242,0.00192880630493,3.4287378788
10,0.338315963745,0.0172400474548,0.0176701545715,0.00193810462952,3.76257801056
11,0.340058088303,0.0168800354004,0.0176150798798,0.00197005271912,4.05891394615
12,0.339682817459,0.0175530910492,0.0183391571045,0.00195813179016,4.40613889694
13,0.346180915833,0.0169839859009,0.0177578926086,0.00192093849182,4.77035403252
14,0.335200071335,0.0163061618805,0.0177531242371,0.00245404243469,5.52575206757
15,0.341240882874,0.0172369480133,0.017373085022,0.00249981880188,5.35474610329
16,0.337522029877,0.0173568725586,0.0183939933777,0.00196480751038,5.68740105629
17,0.340435028076,0.0179049968719,0.0177140235901,0.00277400016785,6.06531000137
18,0.333303928375,0.0159521102905,0.0179989337921,0.00205087661743,6.75969791412
19,0.343681812286,0.0171279907227,0.0179860591888,0.00199198722839,7.18260502815
20,0.335862874985,0.0162019729614,0.0175180435181,0.0019998550415,7.52684593201
21,0.342409133911,0.0176999568939,0.017646074295,0.00265383720398,7.49113106728
22,0.348560094833,0.0172410011292,0.0180649757385,0.00260591506958,7.85501909256
23,0.339511871338,0.0164430141449,0.017954826355,0.00199198722839,8.42029595375
24,0.335451126099,0.0164949893951,0.0181879997253,0.00195908546448,8.77522611618
25,0.339824676514,0.0173799991608,0.0176889896393,0.00261306762695,8.80667901039
26,0.33914899826,0.0174250602722,0.017893075943,0.00257515907288,9.16535282135
27,0.336302995682,0.0163948535919,0.0179550647736,0.00208902359009,9.74273204803
28,0.340995073318,0.0167989730835,0.0186138153076,0.00196599960327,10.0402059555
29,0.340908050537,0.0165691375732,0.018275976181,0.00197005271912,10.768679142
30,0.340683221817,0.0167901515961,0.0180900096893,0.00200605392456,10.9280979633
31,0.334556818008,0.0165178775787,0.0180270671844,0.00198006629944,11.3137841225
32,0.348649024963,0.0169439315796,0.0179498195648,0.00195503234863,11.7291359901
33,0.341062068939,0.0165259838104,0.0183489322662,0.00209593772888,11.9335329533
34,0.346704006195,0.0172760486603,0.0191040039062,0.00214600563049,12.3982088566
35,0.346492767334,0.0170800685883,0.0175800323486,0.00255393981934,12.67146492
36,0.347405195236,0.0171868801117,0.0187921524048,0.00225591659546,12.9235429764
37,0.345988988876,0.018238067627,0.0182778835297,0.00280690193176,12.9905600548
38,0.345409870148,0.0168399810791,0.0185980796814,0.00210809707642,13.5742499828
39,0.349063158035,0.0167970657349,0.018630027771,0.00221014022827,13.985918045
40,0.346395969391,0.0177829265594,0.0181729793549,0.00249695777893,14.3323569298
41,0.344019889832,0.0197761058807,0.0181379318237,0.00198984146118,14.2288970947
42,0.344434976578,0.0165169239044,0.0183250904083,0.00268411636353,15.1017251015
43,0.340570926666,0.0163669586182,0.0177838802338,0.00276589393616,15.2533710003
44,0.336318016052,0.016697883606,0.0182688236237,0.00206089019775,15.6064100266
45,0.341595888138,0.0175919532776,0.0184519290924,0.00234293937683,15.9342579842
46,0.337382078171,0.0169239044189,0.0185248851776,0.00199604034424,16.1916489601
47,0.317865133286,0.0167360305786,0.0183479785919,0.00205612182617,16.669907093
48,0.339407920837,0.0170090198517,0.01868891716,0.0021059513092,16.772108078
49,0.345222949982,0.0168619155884,0.0187919139862,0.00206780433655,17.4140620232
50,0.334656000137,0.0163629055023,0.0180869102478,0.0025589466095,18.0101919174
51,0.336688041687,0.0166599750519,0.0187909603119,0.00200390815735,17.951020956
52,0.337282180786,0.0169689655304,0.0191700458527,0.00233101844788,18.3924741745
53,0.344807863235,0.0167999267578,0.0185630321503,0.00188398361206,18.8221819401
54,0.340004920959,0.0166370868683,0.0178668498993,0.00200605392456,18.9898731709
55,0.333564996719,0.0162968635559,0.018529176712,0.00288891792297,19.4238660336
56,0.335839033127,0.0172441005707,0.0187931060791,0.00196123123169,19.9154069424
57,0.339629173279,0.0166029930115,0.0185480117798,0.0019998550415,19.8995840549
58,0.342502117157,0.01691198349,0.018933057785,0.00257897377014,20.5449850559
59,0.355135202408,0.0171210765839,0.0176911354065,0.00196099281311,20.8694310188
60,0.344694852829,0.0175371170044,0.018345117569,0.00200891494751,21.0649981499
61,0.341904878616,0.0166127681732,0.0185790061951,0.00200390815735,21.5145339966
62,0.338406801224,0.016921043396,0.0183169841766,0.00264000892639,22.0523190498
63,0.346122980118,0.0180079936981,0.0189678668976,0.00194811820984,21.8877310753
64,0.338670253754,0.0167310237885,0.0184400081635,0.0020010471344,22.7212259769
65,0.348283052444,0.0183701515198,0.0186800956726,0.00203800201416,22.7422161102
66,0.3431661129,0.0174069404602,0.0178468227386,0.00278997421265,22.9659399986
67,0.345597743988,0.0170140266418,0.0183279514313,0.00201082229614,23.5678920746
68,0.332715034485,0.0174250602722,0.018296957016,0.00205612182617,24.0849599838
69,0.321203947067,0.0168361663818,0.0178990364075,0.00196599960327,24.3484089375
70,0.342715978622,0.0183510780334,0.0182628631592,0.00264096260071,24.2164750099
71,0.339490175247,0.0179829597473,0.0181758403778,0.00271987915039,24.8146419525
72,0.335768938065,0.0175421237946,0.0187590122223,0.00200200080872,25.3422060013
73,0.334567070007,0.0162191390991,0.0181381702423,0.00202107429504,25.5673980713
74,0.32146692276,0.0165948867798,0.0176658630371,0.00304508209229,25.7686080933
75,0.339681863785,0.0178279876709,0.0186929702759,0.00289607048035,25.6451900005
76,0.331305742264,0.0166618824005,0.0185840129852,0.00199103355408,26.0420870781
77,0.337323904037,0.0172779560089,0.0181210041046,0.00200891494751,26.6061241627
78,0.337635040283,0.0172760486603,0.0184512138367,0.00202393531799,27.1435480118
79,0.339386940002,0.0176930427551,0.0187170505524,0.00197577476501,27.4140601158
80,0.790894031525,0.017245054245,0.0191040039062,0.00212907791138,28.1396272182
81,0.343877792358,0.0184860229492,0.0192499160767,0.00201106071472,27.9846358299
82,0.339424133301,0.0172970294952,0.0189180374146,0.00202298164368,28.9159560204
83,0.34751701355,0.0180518627167,0.018404006958,0.0028669834137,28.9794101715
84,0.327887773514,0.0169298648834,0.018443107605,0.00206804275513,29.7229499817
85,0.330267906189,0.0180978775024,0.019495010376,0.00204682350159,29.6099560261
86,0.345294952393,0.0177199840546,0.018975019455,0.0020010471344,30.8266820908
87,0.343302965164,0.0171749591827,0.01811003685,0.00194811820984,30.6545701027
88,0.351451158524,0.017618894577,0.0183990001678,0.00267219543457,31.113847971
89,0.342899084091,0.0182819366455,0.0185840129852,0.00283098220825,31.2252681255
90,0.329122304916,0.0176708698273,0.0190591812134,0.00198793411255,31.4019539356
91,0.34957909584,0.0179281234741,0.0188360214233,0.00198817253113,32.3249480724
92,0.34556388855,0.0173988342285,0.0189759731293,0.00207304954529,32.5040450096
93,0.32853603363,0.0171859264374,0.0188250541687,0.00211882591248,32.7661781311
94,0.344951868057,0.0176281929016,0.0182821750641,0.00267481803894,33.1304080486
95,0.351996660233,0.0178887844086,0.0180881023407,0.00203204154968,33.1816959381
96,0.342154979706,0.0169930458069,0.0193228721619,0.0020489692688,33.8472149372
97,0.331832885742,0.0177440643311,0.0178220272064,0.00204706192017,34.7069170475
98,0.340368032455,0.0175890922546,0.0185770988464,0.00197887420654,34.181417942
99,0.34144282341,0.0175631046295,0.0182430744171,0.00278997421265,34.7545278072
