step,run,get,set,free,run_up_to_step
0,0.369271993637,0.0118927955627,0.0134627819061,0.00129508972168,0.363359928131
1,0.352962255478,0.0118339061737,0.0136668682098,0.00128293037415,0.710342884064
2,0.354700088501,0.011932849884,0.0133662223816,0.00137209892273,1.08416891098
3,0.347482919693,0.0123300552368,0.0132789611816,0.00130414962769,1.39222407341
4,0.351404190063,0.0118279457092,0.0138640403748,0.00136590003967,1.73414492607
5,0.346176862717,0.0117061138153,0.0134670734406,0.00133895874023,2.16219186783
6,0.352128744125,0.0123529434204,0.013435125351,0.00136685371399,3.07217597961
7,0.364351034164,0.0120010375977,0.013622045517,0.00146198272705,2.84039998055
8,0.349522829056,0.0118010044098,0.0139150619507,0.00130701065063,3.71182703972
9,0.346993923187,0.0122599601746,0.013640165329,0.001296043396,3.51348996162
10,0.349858283997,0.0123391151428,0.0133481025696,0.00130820274353,3.79468512535
11,0.348618030548,0.0118210315704,0.0137960910797,0.00130891799927,4.14652013779
12,0.34698009491,0.0119199752808,0.0132520198822,0.00165700912476,4.53874206543
13,0.344354867935,0.0119919776917,0.0135200023651,0.0013439655304,5.56165599823
14,0.352911710739,0.011999130249,0.013925075531,0.0013427734375,5.43895792961
15,0.348860025406,0.0118939876556,0.0132057666779,0.00133013725281,5.8257060051
16,0.341794013977,0.0119550228119,0.0133199691772,0.00133895874023,6.31820607185
17,0.351651906967,0.0123770236969,0.0133800506592,0.00129914283752,6.208370924
18,0.354365110397,0.0121150016785,0.0131940841675,0.00130105018616,6.63104104996
19,0.351815223694,0.0125918388367,0.0136098861694,0.00130796432495,6.94670891762
20,0.351444721222,0.0116810798645,0.0140609741211,0.00136399269104,7.86105513573
21,0.344782114029,0.0121321678162,0.0139441490173,0.00173497200012,7.62294387817
22,0.342907190323,0.0116550922394,0.0133249759674,0.00173401832581,8.63217711449
23,0.346112251282,0.0122151374817,0.0137391090393,0.00142407417297,8.43045806885
24,0.346873998642,0.0115139484406,0.0140290260315,0.00133514404297,9.1387629509
25,0.353308916092,0.011913061142,0.013288974762,0.00129795074463,9.48581004143
26,0.357272148132,0.0119988918304,0.01327085495,0.00132989883423,9.7432641983
27,0.351653814316,0.0121068954468,0.013524055481,0.00133514404297,9.77897882462
28,0.349155902863,0.0120038986206,0.013592004776,0.0012800693512,10.0676181316
29,0.361963033676,0.0128118991852,0.0131318569183,0.00147390365601,10.3934838772
30,0.343090295792,0.0116679668427,0.0134270191193,0.00131487846375,11.245319128
31,0.354531764984,0.01203083992,0.0136070251465,0.00128984451294,11.465667963
32,0.350536108017,0.0118200778961,0.0130069255829,0.00132203102112,11.6726880074
33,0.352797269821,0.012314081192,0.0134019851685,0.00131011009216,11.8426280022
34,0.341598033905,0.0115449428558,0.0142040252686,0.00135898590088,12.5890910625
35,0.346046924591,0.0116732120514,0.0133218765259,0.00173902511597,12.8332560062
36,0.344111919403,0.0115809440613,0.0135569572449,0.0013279914856,12.98396492
37,0.366464138031,0.0121130943298,0.0138890743256,0.00134205818176,13.7295191288
38,0.359033107758,0.0120799541473,0.0137100219727,0.00133895874023,14.1332089901
39,0.358976125717,0.011922121048,0.0133509635925,0.00149297714233,14.6592228413
40,0.355745077133,0.011922121048,0.0136890411377,0.00131297111511,15.0610179901
41,0.355373859406,0.0126187801361,0.0134110450745,0.00137495994568,15.4574790001
42,0.345537185669,0.0113530158997,0.0134110450745,0.00130295753479,15.7237660885
43,0.358225822449,0.0121359825134,0.0136198997498,0.001305103302,15.7508690357
44,0.360663890839,0.0120010375977,0.0133399963379,0.00132298469543,16.3438200951
45,0.360090970993,0.0121610164642,0.0131959915161,0.0017261505127,16.3599729538
46,0.34463095665,0.0116729736328,0.0132207870483,0.00146913528442,17.1957859993
47,0.354329109192,0.012433052063,0.0136399269104,0.00127983093262,17.5418679714
48,0.344110965729,0.011913061142,0.0138649940491,0.00133299827576,17.8523430824
49,0.354669094086,0.0120069980621,0.0140008926392,0.00132489204407,18.4024620056
50,0.351279258728,0.0120370388031,0.0136680603027,0.00164818763733,18.4360921383
51,0.357970952988,0.0122530460358,0.0137450695038,0.00132989883423,18.897026062
52,0.345759868622,0.0118548870087,0.0136709213257,0.00164389610291,18.878562212
53,0.350051164627,0.0121381282806,0.0135521888733,0.00129008293152,19.2206499577
54,0.347351074219,0.011775970459,0.013384103775,0.00135016441345,19.5848369598
55,0.343741893768,0.0120830535889,0.0137500762939,0.00128817558289,19.6608440876
56,0.359085798264,0.0123558044434,0.0141491889954,0.00135612487793,20.6751928329
57,0.359596014023,0.0122411251068,0.0138990879059,0.00146198272705,21.0918939114
58,0.354564905167,0.0119619369507,0.0135328769684,0.00130105018616,21.1094789505
59,0.348591804504,0.0117399692535,0.0137341022491,0.00133585929871,21.5453000069
60,0.354076862335,0.0117220878601,0.0136768817902,0.00131607055664,21.735626936
61,0.35708117485,0.0119960308075,0.0139260292053,0.0012948513031,22.3717689514
62,0.361238956451,0.0118079185486,0.0141139030457,0.00133490562439,22.3486950397
63,0.343776941299,0.0113930702209,0.0137028694153,0.00132298469543,22.5339200497
64,0.361586093903,0.0119521617889,0.0138869285583,0.00130200386047,23.2120280266
65,0.34548330307,0.0123500823975,0.0133099555969,0.00132894515991,23.8593001366
66,0.34756398201,0.0117199420929,0.0132911205292,0.00133085250854,24.1798899174
67,0.350148200989,0.0117528438568,0.0132920742035,0.00131320953369,24.3012189865
68,0.344879150391,0.0120279788971,0.0131750106812,0.001296043396,24.4653089046
69,0.346102952957,0.0113260746002,0.0140850543976,0.00131893157959,24.7653050423
70,0.355266094208,0.0117111206055,0.0135328769684,0.0013530254364,25.2388730049
71,0.34494805336,0.0121190547943,0.0133199691772,0.00129508972168,25.0592889786
72,0.342294931412,0.0116109848022,0.0133950710297,0.00132489204407,25.7724640369
73,0.357536792755,0.0120589733124,0.0134909152985,0.00128412246704,25.9072899818
74,0.354089736938,0.0124909877777,0.0135860443115,0.00135803222656,26.7213950157
75,0.342947721481,0.0117478370667,0.0137901306152,0.00131607055664,26.727699995
76,0.346215724945,0.0116419792175,0.0130169391632,0.00128889083862,27.0190291405
77,0.344078063965,0.0115149021149,0.0138471126556,0.00127601623535,27.2761209011
78,0.350695371628,0.0123670101166,0.0140180587769,0.00132393836975,27.5019719601
79,0.350358009338,0.0122311115265,0.0130820274353,0.00130891799927,27.7052609921
80,0.350962877274,0.0120460987091,0.0137400627136,0.00132703781128,28.6498110294
81,0.357114076614,0.0122408866882,0.0140199661255,0.00129199028015,29.5302679539
82,0.358519792557,0.0121788978577,0.0137038230896,0.00125217437744,30.0761220455
83,0.352361917496,0.0117981433868,0.0137469768524,0.00130486488342,30.0736041069
84,0.34597992897,0.0119061470032,0.0147120952606,0.00136494636536,30.7606399059
85,0.362565994263,0.0119030475616,0.0139019489288,0.00126600265503,30.7818398476
86,0.354392051697,0.0119187831879,0.0133140087128,0.00125503540039,30.9799921513
87,0.356055021286,0.0119740962982,0.0138549804688,0.0012948513031,31.3997330666
88,0.355847835541,0.0120778083801,0.0139188766479,0.00129413604736,31.7800579071
89,0.35517001152,0.0124249458313,0.0136680603027,0.00130605697632,32.6709861755
90,0.353426933289,0.0117249488831,0.0138809680939,0.00133299827576,32.7493920326
91,0.355960130692,0.0118820667267,0.0133349895477,0.00132012367249,33.191986084
92,0.356598138809,0.011974811554,0.0138790607452,0.00133299827576,32.8434801102
93,0.347232103348,0.0120720863342,0.0134680271149,0.00135111808777,33.0895550251
94,0.343600749969,0.0116600990295,0.0135588645935,0.00129389762878,33.5694129467
95,0.353184223175,0.0119118690491,0.0135931968689,0.00132203102112,33.632283926
96,0.3513879776,0.0117280483246,0.0134119987488,0.00133609771729,33.9791138172
97,0.343453884125,0.0114388465881,0.0131800174713,0.0013210773468,34.2528381348
98,0.343742132187,0.0116150379181,0.0135660171509,0.00131797790527,34.2979259491
99,0.346400022507,0.0118629932404,0.0137648582458,0.00123190879822,35.1763510704
