step,run,get,set,free,run_up_to_step
0,0.171913862228,0.00512194633484,0.00459003448486,0.000610828399658,0.170063972473
1,0.168571949005,0.00436997413635,0.00463914871216,0.00089693069458,0.320202112198
2,0.185323238373,0.00461578369141,0.0285301208496,0.00116991996765,0.557576179504
3,0.174919843674,0.00479412078857,0.00478291511536,0.00103497505188,0.700338840485
4,0.187057971954,0.00501418113708,0.00508689880371,0.00106000900269,0.930063962936
5,0.161684274673,0.00450110435486,0.00537109375,0.00168514251709,1.66126799583
6,0.16069817543,0.0044858455658,0.00454211235046,0.00103616714478,1.56196689606
7,0.165636301041,0.00438714027405,0.00478482246399,0.00107312202454,1.85009908676
8,0.163036108017,0.00438022613525,0.00446581840515,0.000978946685791,1.48738408089
9,0.170920848846,0.0045530796051,0.00474095344543,0.00111818313599,1.63672685623
10,0.159227132797,0.00436687469482,0.00488090515137,0.00115299224854,2.13962388039
11,0.155658006668,0.00451183319092,0.0047070980072,0.00108599662781,2.13428997993
12,0.164973020554,0.00449204444885,0.00487494468689,0.00119280815125,2.131690979
13,0.183004140854,0.00465106964111,0.00462913513184,0.001060962677,2.42565894127
14,0.182301998138,0.00464487075806,0.0044858455658,0.00104904174805,2.62288999557
15,0.159194946289,0.00440907478333,0.00453996658325,0.00106191635132,3.25743103027
16,0.741138935089,0.00449395179749,0.0048611164093,0.00113606452942,2.73537993431
17,0.169027090073,0.00482797622681,0.0052649974823,0.00141000747681,3.52266001701
18,0.240093231201,0.00531601905823,0.00484800338745,0.00134801864624,4.4609978199
19,0.159031867981,0.00449109077454,0.0044469833374,0.00101518630981,3.81866502762
20,0.666572093964,0.00499892234802,0.00514483451843,0.00117993354797,3.44861578941
21,0.159969806671,0.00442504882812,0.0059859752655,0.00119590759277,4.55281305313
22,0.166805028915,0.00518107414246,0.00472092628479,0.00114893913269,4.65956401825
23,0.190443992615,0.00525999069214,0.00486397743225,0.00106310844421,4.60476016998
24,0.157856225967,0.00466918945312,0.00538897514343,0.00107598304749,4.51160097122
25,0.159901857376,0.00444602966309,0.00513792037964,0.0011739730835,4.8491768837
26,0.16824889183,0.00579810142517,0.0046980381012,0.00118899345398,4.66870212555
27,0.161486148834,0.00491189956665,0.00466108322144,0.00110101699829,5.80124998093
28,0.194121837616,0.00485396385193,0.00470399856567,0.00122904777527,5.90229392052
29,0.16236114502,0.00439405441284,0.00477290153503,0.00107383728027,5.39505505562
30,0.159494161606,0.00471997261047,0.00523495674133,0.00111794471741,5.97078108788
31,1.02468180656,0.00456190109253,0.00480818748474,0.0012309551239,5.34321498871
32,0.16441488266,0.00453805923462,0.00500202178955,0.00111103057861,6.19478392601
33,0.162003993988,0.00454807281494,0.00485110282898,0.00110507011414,6.48528409004
34,0.186568021774,0.00474810600281,0.00467205047607,0.00111413002014,6.34056019783
35,0.169553995132,0.00463509559631,0.00461006164551,0.00102710723877,6.33215093613
36,0.159340143204,0.00465297698975,0.00474786758423,0.00109195709229,5.95739817619
37,0.179155826569,0.00463485717773,0.00497007369995,0.00111198425293,6.45706391335
38,0.167484283447,0.00464200973511,0.00474095344543,0.00169396400452,6.79629397392
39,0.163634061813,0.00447487831116,0.00468707084656,0.0012481212616,7.52051281929
40,0.165606975555,0.00473999977112,0.00475692749023,0.00112986564636,6.93438506126
41,0.166889190674,0.00454092025757,0.00483393669128,0.00118112564087,7.50408816338
42,0.162981033325,0.00446510314941,0.00469899177551,0.00110101699829,8.38245916367
43,0.180067300797,0.00491094589233,0.00469994544983,0.00122308731079,7.88293099403
44,0.168775081635,0.00481200218201,0.00470995903015,0.00113892555237,8.06952095032
45,0.170161008835,0.00485992431641,0.00473189353943,0.00115704536438,7.85027503967
46,0.165265798569,0.00453901290894,0.00466012954712,0.001060962677,8.36607098579
47,0.158839941025,0.00440716743469,0.00466203689575,0.00106477737427,8.53255200386
48,0.187627792358,0.00505709648132,0.00539588928223,0.00111818313599,8.91919803619
49,0.16859292984,0.00534391403198,0.00484013557434,0.00110507011414,8.75977516174
50,0.168148756027,0.00476908683777,0.00580406188965,0.00112199783325,9.79608297348
51,0.167000055313,0.00445604324341,0.00481986999512,0.0011990070343,9.32363390923
52,0.167485237122,0.00484299659729,0.00469517707825,0.00105905532837,9.11199092865
53,0.166835069656,0.00456285476685,0.00470590591431,0.00124883651733,9.59035205841
54,0.166497945786,0.00466108322144,0.00481414794922,0.00125885009766,9.74244785309
55,0.157972097397,0.004714012146,0.00483393669128,0.00110983848572,9.85280013084
56,0.159502267838,0.00442409515381,0.00467300415039,0.00113415718079,9.98058581352
57,0.158668994904,0.00468897819519,0.00550580024719,0.0010998249054,10.4258539677
58,0.15890622139,0.00454592704773,0.00491094589233,0.0011579990387,10.0237989426
59,0.161794900894,0.00448703765869,0.00499081611633,0.00105285644531,10.2122478485
60,0.179108381271,0.00464987754822,0.00475692749023,0.00106000900269,10.2590978146
61,0.159049034119,0.00484704971313,0.00501680374146,0.00114393234253,10.2890539169
62,0.153104066849,0.00450611114502,0.00482511520386,0.00106287002563,10.1435611248
63,0.154494047165,0.00473999977112,0.00484585762024,0.00128817558289,10.3474509716
64,0.1743080616,0.00476408004761,0.00543093681335,0.00116586685181,10.4275209904
65,0.15854716301,0.0045120716095,0.00485897064209,0.00106000900269,11.6441140175
66,0.154319047928,0.00475120544434,0.00473380088806,0.00113987922668,10.9752340317
67,0.153649091721,0.0046820640564,0.00476598739624,0.00119996070862,12.5824489594
68,0.187705039978,0.00480699539185,0.00482511520386,0.00114393234253,11.6537899971
69,0.155841827393,0.00480008125305,0.00514101982117,0.00139403343201,11.2021050453
70,0.155264139175,0.0045120716095,0.00478601455688,0.00129914283752,11.2304279804
71,0.15543627739,0.00455904006958,0.00481104850769,0.00105786323547,11.6908211708
72,0.17170214653,0.00479483604431,0.00490498542786,0.00105595588684,11.9074859619
73,0.158777952194,0.00469613075256,0.00480604171753,0.00111699104309,12.2524759769
74,0.156967163086,0.00453400611877,0.00500202178955,0.00113391876221,12.4224460125
75,0.18058180809,0.00464916229248,0.00479006767273,0.00111484527588,12.7294580936
76,0.154090166092,0.00471806526184,0.00498700141907,0.00112891197205,13.0330791473
77,0.220941066742,0.00528812408447,0.00650811195374,0.00111794471741,12.7576589584
78,0.153715133667,0.0045759677887,0.00510096549988,0.00110197067261,13.1687481403
79,0.158272027969,0.0048189163208,0.00496411323547,0.00113201141357,13.1294760704
80,0.154338121414,0.00467896461487,0.0047070980072,0.00128698348999,13.9421281815
81,0.154522180557,0.00468707084656,0.00499796867371,0.0011830329895,13.7633411884
82,0.15794301033,0.00461888313293,0.00491786003113,0.00114297866821,14.6079740524
83,0.210193872452,0.00575494766235,0.00473690032959,0.00118207931519,14.0021131039
84,0.185348987579,0.00483417510986,0.00482511520386,0.00107502937317,14.2056620121
85,0.153902769089,0.00477004051208,0.00496888160706,0.00111484527588,13.9624071121
86,0.157691240311,0.00450396537781,0.00482320785522,0.00109505653381,14.9185240269
87,0.15314412117,0.00460910797119,0.00485610961914,0.00106811523438,14.6663291454
88,0.155112981796,0.00468707084656,0.0128931999207,0.00160717964172,14.8132109642
89,0.162648916245,0.00454306602478,0.00488805770874,0.00107908248901,14.8177709579
90,0.171896934509,0.00465607643127,0.00483989715576,0.00111293792725,14.9181778431
91,0.160492181778,0.00462603569031,0.00505995750427,0.00131607055664,16.3961510658
92,0.19210600853,0.00488996505737,0.0048520565033,0.00202107429504,15.0399589539
93,0.15957403183,0.00480389595032,0.00487208366394,0.00106406211853,15.7646589279
94,0.154526233673,0.00487279891968,0.00481200218201,0.00106501579285,15.6692569256
95,0.154298782349,0.00475001335144,0.00493979454041,0.00152897834778,16.9312450886
96,0.152827978134,0.00465893745422,0.00487899780273,0.0011248588562,16.1381540298
97,0.172199964523,0.00462293624878,0.00483703613281,0.00110793113708,16.0476551056
98,0.163179159164,0.00492286682129,0.00574684143066,0.00118899345398,16.2035570145
99,0.243511915207,0.00556588172913,0.00575494766235,0.00131797790527,16.7282910347
