step,run,get,set,free,run_up_to_step
0,0.736057043076,0.0368189811707,0.0342619419098,0.00698399543762,0.705743074417
1,0.699508905411,0.0318830013275,0.0636410713196,0.00701594352722,1.46725177765
2,0.835533857346,0.0407290458679,0.0342948436737,0.00701403617859,2.30453681946
3,0.688868045807,0.0310699939728,0.0358691215515,0.00831985473633,2.9096570015
4,0.68079328537,0.030827999115,0.0345020294189,0.00757789611816,3.53983902931
5,0.685482978821,0.0302879810333,0.040275812149,0.00802803039551,4.20251107216
6,0.683463811874,0.0323939323425,0.0340340137482,0.00700402259827,5.13780999184
7,0.709027051926,0.0314290523529,0.0410141944885,0.0095419883728,5.82456707954
8,0.71576499939,0.0313398838043,0.0458519458771,0.00846195220947,6.575963974
9,0.697943925858,0.0320611000061,0.0360789299011,0.00862193107605,7.34140181541
10,0.692254066467,0.0305490493774,0.0477540493011,0.00748586654663,8.04751491547
11,0.695326089859,0.0315430164337,0.0354878902435,0.00810790061951,8.99246096611
12,0.688547849655,0.0329880714417,0.0349938869476,0.00703597068787,10.1197919846
13,0.685119867325,0.0316190719604,0.0368928909302,0.00837302207947,9.87947297096
14,0.690234899521,0.0304930210114,0.0341999530792,0.0082049369812,11.2707641125
15,0.712245225906,0.03160405159,0.0411581993103,0.00874495506287,11.5772550106
16,0.731731891632,0.0345320701599,0.035943031311,0.00749707221985,13.7561070919
17,0.709903717041,0.0315179824829,0.0359208583832,0.00744295120239,14.2509701252
18,0.936262130737,0.0450267791748,0.0346591472626,0.00725984573364,14.5439918041
19,0.768746137619,0.0358889102936,0.0349929332733,0.00714015960693,14.8504209518
20,0.694540023804,0.0341460704803,0.034775018692,0.00806283950806,15.637444973
21,0.711719274521,0.0339939594269,0.0349659919739,0.00783491134644,15.9199721813
22,0.707633018494,0.0342428684235,0.0401818752289,0.00892996788025,16.0846838951
23,0.722866296768,0.0336918830872,0.0348229408264,0.00871610641479,17.9142138958
24,0.752637863159,0.0322930812836,0.0344469547272,0.00714707374573,18.9679961205
25,0.714333057404,0.0341050624847,0.0366349220276,0.00707387924194,19.6969349384
26,1.39409303665,0.0303640365601,0.0359799861908,0.0071280002594,19.0513980389
27,0.71736907959,0.0327959060669,0.0382499694824,0.00757694244385,20.33842206
28,0.717319726944,0.0341799259186,0.0348858833313,0.00707483291626,20.7845551968
29,0.718620061874,0.0339260101318,0.0347859859467,0.00748610496521,21.4980978966
30,0.703136920929,0.0302300453186,0.0364170074463,0.00892305374146,22.6836621761
31,0.69291305542,0.0340909957886,0.0341010093689,0.00699186325073,23.1269409657
32,1.4477648735,0.0315520763397,0.0349140167236,0.00711607933044,23.542016983
33,0.77285027504,0.0344488620758,0.0344250202179,0.00708985328674,25.3082489967
34,0.692395925522,0.0308878421783,0.0416390895844,0.00784301757812,26.2803959846
35,0.750553846359,0.0325009822845,0.0350620746613,0.00909209251404,27.4386429787
36,0.73236322403,0.0316431522369,0.0352230072021,0.00745797157288,26.5773019791
37,0.68488907814,0.0315961837769,0.0461528301239,0.00925302505493,27.0465140343
38,0.688902139664,0.0325920581818,0.0340309143066,0.00697803497314,29.2992839813
39,0.708183765411,0.0304310321808,0.0343501567841,0.00715088844299,29.189743042
40,0.716519117355,0.0383138656616,0.0354580879211,0.00718188285828,30.5670199394
41,0.687443971634,0.0306630134583,0.047483921051,0.00851106643677,31.8401639462
42,0.711843252182,0.0328841209412,0.0353488922119,0.00707411766052,30.4742910862
43,0.689080953598,0.0345330238342,0.037006855011,0.00706601142883,32.009013176
44,0.708283901215,0.0352129936218,0.0344181060791,0.00700402259827,33.563439846
45,0.685391902924,0.03165102005,0.0352492332458,0.0071280002594,34.1610291004
46,0.707500219345,0.0301239490509,0.0350451469421,0.0070161819458,35.7422938347
47,0.713240861893,0.0307590961456,0.0359761714935,0.00747299194336,34.4983041286
48,0.726878166199,0.0305020809174,0.0363190174103,0.00772309303284,35.4272220135
49,0.711284160614,0.0329239368439,0.0340960025787,0.00707292556763,36.7830750942
50,0.685230016708,0.0304911136627,0.0358068943024,0.035206079483,37.6391849518
51,0.811945915222,0.0411350727081,0.0364811420441,0.0070161819458,37.980864048
52,0.689340114594,0.0324449539185,0.0342562198639,0.00712609291077,38.0192520618
53,0.738888978958,0.0306100845337,0.0346879959106,0.00698709487915,39.830247879
54,0.807807922363,0.0310039520264,0.0341618061066,0.00738096237183,39.6138169765
55,0.71263384819,0.0318989753723,0.0350520610809,0.00740098953247,40.8512921333
56,0.73471903801,0.032623052597,0.0352289676666,0.00920295715332,40.7853310108
57,0.706284761429,0.0312538146973,0.0357129573822,0.00705909729004,41.981249094
58,0.715016126633,0.0347709655762,0.0345859527588,0.00700902938843,43.6726219654
59,0.689144849777,0.0323741436005,0.0360338687897,0.00737404823303,43.3660159111
60,0.69447517395,0.0320620536804,0.0345911979675,0.00725102424622,45.8671758175
61,0.691495656967,0.0311539173126,0.0351419448853,0.00702905654907,45.1983780861
62,0.702002048492,0.0298390388489,0.0352439880371,0.00705194473267,45.9328341484
63,0.710441827774,0.033096075058,0.036502122879,0.00710606575012,48.1628880501
64,0.686063289642,0.03293800354,0.0348060131073,0.00759291648865,48.6494050026
65,0.685450077057,0.0310029983521,0.0363600254059,0.00759291648865,49.4546539783
66,0.790623903275,0.0417308807373,0.0399329662323,0.00700402259827,50.5121409893
67,0.710791349411,0.0310320854187,0.0355539321899,0.00698900222778,48.7773311138
68,0.687922000885,0.0318388938904,0.0376019477844,0.00701904296875,51.8807690144
69,0.697700738907,0.0325798988342,0.0359320640564,0.00706315040588,53.2660989761
70,0.689013957977,0.0312340259552,0.0395331382751,0.00783777236938,51.4185390472
71,0.762182712555,0.0325191020966,0.0367600917816,0.00713992118835,52.9294500351
72,0.696827888489,0.0320980548859,0.0359780788422,0.00716400146484,53.9396119118
73,0.716387033463,0.0337269306183,0.0362238883972,0.00740599632263,56.3452401161
74,0.726776123047,0.0314190387726,0.0343379974365,0.007080078125,53.8669879436
75,0.708513021469,0.0316050052643,0.0352470874786,0.00701308250427,54.614315033
76,0.716019868851,0.0302360057831,0.0351560115814,0.00729012489319,55.4880478382
77,0.686835765839,0.0318839550018,0.0350859165192,0.0074291229248,57.7278199196
78,0.721891880035,0.0388190746307,0.0339531898499,0.00737690925598,59.5156772137
79,0.736857175827,0.0320930480957,0.0347189903259,0.00703310966492,59.6758248806
80,0.704878807068,0.0308060646057,0.0343670845032,0.00716805458069,60.6612348557
81,0.707387208939,0.0297689437866,0.0613558292389,0.00843000411987,59.600507021
82,0.70573091507,0.0321290493011,0.0414109230042,0.00893712043762,61.3415338993
83,0.730406761169,0.0308430194855,0.0357720851898,0.00711417198181,62.4382231236
84,0.689889907837,0.0346510410309,0.0367488861084,0.00700902938843,62.3511209488
85,0.688812971115,0.0308518409729,0.0491189956665,0.00956082344055,62.2096099854
86,0.693351745605,0.0320911407471,0.0362508296967,0.00709199905396,64.2314381599
87,0.686937093735,0.0307738780975,0.0352549552917,0.00698518753052,63.6428160667
88,0.707230091095,0.0325748920441,0.0349130630493,0.00735092163086,66.9812068939
89,0.712104797363,0.031140089035,0.0364768505096,0.00709700584412,64.9937868118
90,0.713406085968,0.0336339473724,0.0347950458527,0.00726509094238,69.132283926
91,0.683554887772,0.0320179462433,0.0343940258026,0.00697493553162,66.5678398609
92,0.725481271744,0.0321860313416,0.0370910167694,0.00712394714355,69.9097108841
93,0.7000041008,0.0321559906006,0.0393030643463,0.00851607322693,69.0283479691
94,0.683279037476,0.0309641361237,0.0354709625244,0.00717711448669,68.8956570625
95,0.705410003662,0.0321638584137,0.0346250534058,0.00739908218384,70.0306780338
96,0.748043298721,0.0336339473724,0.0363998413086,0.00751304626465,73.1935429573
97,0.71587896347,0.0323178768158,0.034539937973,0.00807309150696,72.9782750607
98,0.683617830276,0.0315611362457,0.0339801311493,0.00696086883545,72.2493040562
99,0.725242614746,0.032683134079,0.0350549221039,0.00752305984497,72.5944809914
