0.181454,0.239184,0.267559,0.28443,0.295615,0.303573,0.309524,0.314144,0.317833,0.320847
0.107752,0.191951,0.243143,0.276768,0.300395,0.317865,0.331291,0.341926,0.350555,0.357694
0.171389,0.39534,0.540157,0.634506,0.699657,0.747026,0.782907,0.810982,0.833527,0.852019
0.102397,0.288499,0.405783,0.478528,0.527093,0.561619,0.587371,0.607297,0.623168,0.636102
0.0564484,0.174414,0.252898,0.30664,0.3459,0.375924,0.399665,0.418925,0.434871,0.448294
0.0611407,0.243277,0.370465,0.453114,0.509621,0.550259,0.580723,0.604336,0.623139,0.638447
0.0485946,0.233248,0.355766,0.430269,0.47931,0.513872,0.539509,0.559277,0.574985,0.587768
0.0451587,0.252047,0.382781,0.460698,0.51205,0.548461,0.575643,0.596721,0.613549,0.627296
0.043664,0.272577,0.408763,0.48863,0.541094,0.578236,0.605928,0.627374,0.644475,0.658431
0.0726397,0.50461,0.755692,0.904117,1.00236,1.07225,1.12454,1.16514,1.19757,1.22408
0.0381393,0.292772,0.439412,0.526869,0.585045,0.62655,0.657654,0.681831,0.701164,0.716975
0.0365771,0.307445,0.460889,0.55202,0.612377,0.655286,0.687352,0.712221,0.732071,0.748281
0.035566,0.325711,0.488595,0.585478,0.649721,0.695442,0.729642,0.756188,0.777393,0.79472
0.0441042,0.434371,0.649295,0.776398,0.860374,0.919989,0.9645,0.999002,1.02653,1.049
0.0354944,0.372104,0.553211,0.65952,0.729453,0.778959,0.815847,0.844397,0.867149,0.885707
0.0344784,0.379644,0.561902,0.668985,0.739572,0.789632,0.826991,0.855942,0.879037,0.897892
0.0344324,0.405522,0.605152,0.724416,0.803799,0.86045,0.902911,0.93592,0.962317,0.983908
0.0326548,0.294915,0.383812,0.426721,0.451983,0.468624,0.480411,0.489197,0.495998,0.501419
0.0364782,0.400392,0.593349,0.719186,0.809193,0.877103,0.930272,0.973072,1.00829,1.03777
0.0638204,0.789806,1.20046,1.45612,1.628,1.75052,1.8419,1.91249,1.96858,2.01418
0.063989,0.644854,0.856776,0.959932,1.02027,1.05976,1.08759,1.10826,1.12423,1.13692
0.0603607,0.749591,1.12694,1.37082,1.54389,1.6738,1.77517,1.85658,1.92344,1.97935
0.0586422,0.834559,1.28691,1.5681,1.75707,1.89184,1.99241,2.07016,2.13197,2.18225
0.0574001,0.887485,1.35531,1.63283,1.81468,1.94277,2.03783,2.11118,2.1695,2.21698
0.0560958,0.936805,1.42619,1.71558,1.90644,2.04189,2.14307,2.22155,2.28421,2.33541
0.0509881,0.903591,1.36259,1.63063,1.80639,1.9306,2.02305,2.09455,2.15149,2.19791
0.0507419,0.955106,1.44099,1.72817,1.91833,2.05364,2.15488,2.23349,2.2963,2.34764
0.0495713,0.980724,1.47646,1.77005,1.96452,2.10285,2.2063,2.28658,2.35069,2.40306
0.0494373,1.02587,1.54443,1.85289,2.0577,2.20361,2.31284,2.39768,2.46547,2.5209
0.0772269,1.6514,2.46627,2.94567,3.2616,3.4855,3.65246,3.78175,3.88484,3.96894
0.0483627,1.06413,1.58275,1.88755,2.08841,2.23081,2.33704,2.41933,2.48496,2.53853
0.0482276,1.09179,1.6243,1.93939,2.14795,2.29626,2.40715,2.49319,2.5619,2.61804
0.0540385,1.23114,1.81549,2.15766,2.3826,2.54178,2.66035,2.7521,2.82521,2.88483
0.0496302,1.1648,1.72889,2.06433,2.287,2.44563,2.56438,2.65662,2.73033,2.79059
0.0499522,1.18955,1.75903,2.09487,2.31631,2.47327,2.59031,2.68093,2.75318,2.81212
0.0652184,1.55972,2.29738,2.73196,3.0187,3.22216,3.37404,3.49175,3.58568,3.66236
0.0482089,1.1604,1.70523,2.02557,2.23657,2.38607,2.49753,2.58384,2.65264,2.70877
0.0488526,1.24799,1.87236,2.25017,2.50318,2.6844,2.82056,2.92661,3.01153,3.08106
0.0458429,1.20446,1.8011,2.15604,2.39078,2.55741,2.68176,2.77811,2.85494,2.91765
0.0435046,1.17853,1.7581,2.10015,2.32556,2.48527,2.60434,2.69655,2.77006,2.83004
0.0434059,1.22211,1.83037,2.19212,2.43198,2.6027,2.73043,2.8296,2.90882,2.97357
0.0429845,1.26091,1.89472,2.27267,2.52354,2.70217,2.83582,2.93958,3.02246,3.09019
0.0419207,0.98296,1.31985,1.4883,1.58931,1.65662,1.70467,1.74071,1.76873,1.79114
0.041197,1.125,1.68639,2.04769,2.30331,2.49455,2.6433,2.7624,2.85997,2.94139
0.0415745,1.19826,1.80474,2.17289,2.41742,2.59062,2.71932,2.81854,2.89728,2.96124
0.0445403,1.35964,2.05877,2.47844,2.75647,2.95394,3.10141,3.21575,3.30701,3.38155
0.0447314,1.42586,2.1527,2.58403,2.86882,3.07089,3.22173,3.33866,3.43195,3.50812
0.0485617,1.58555,2.37722,2.84432,3.15267,3.37158,3.53511,3.66192,3.76314,3.84581
0.0906228,3.00116,4.4705,5.33512,5.90561,6.31048,6.61277,6.84711,7.0341,7.18678
0.0423555,1.45886,2.18571,2.6178,2.90436,3.10831,3.26087,3.37928,3.47385,3.55112
0.0422196,1.47864,2.20471,2.63349,2.91663,3.11757,3.26756,3.3838,3.47653,3.55223
0.0424956,1.5086,2.24523,2.68141,2.97017,3.17553,3.32909,3.44825,3.54342,3.62118
0.0415114,1.5166,2.26845,2.71728,3.01565,3.22834,3.38762,3.51136,3.61025,3.69109
0.0413548,0.879625,1.08142,1.17122,1.22205,1.25475,1.27757,1.29439,1.3073,1.31753
0.0407492,1.12966,1.68837,2.07882,2.37328,2.60468,2.79175,2.94628,3.07617,3.18692
0.04082,1.33989,2.11518,2.62758,2.98167,3.23737,3.42921,3.57778,3.69588,3.79185
0.0609312,2.18258,3.39699,4.1264,4.6017,4.93396,5.17892,5.36693,5.51579,5.63659
0.0402807,1.52654,2.34101,2.81873,3.13121,3.35188,3.51624,3.64351,3.74503,3.82791
0.0409465,1.6155,2.45359,2.94578,3.27043,3.50112,3.67362,3.80753,3.91451,4.00196
0.0402343,1.66169,2.52187,3.03212,3.3709,3.61241,3.79333,3.93392,4.04632,4.13823
0.0571521,2.41599,3.63522,4.3539,4.82881,5.16613,5.41809,5.61347,5.76939,5.89671
0.0393886,1.67448,2.49594,2.97857,3.29709,3.52319,3.69204,3.82296,3.92744,4.01276
0.039241,1.70504,2.54917,3.05146,3.38534,3.62343,3.80181,3.94044,4.05127,4.14191
0.0607269,2.69168,4.02576,4.81985,5.34681,5.72197,6.00262,6.22047,6.39447,6.53664
0.036178,1.62299,2.43039,2.91471,3.23795,3.46909,3.64262,3.77769,3.88582,3.97435
0.0376571,1.73152,2.60081,3.12251,3.47014,3.71827,3.90423,4.04877,4.16433,4.25883
0.0376711,1.7755,2.67051,3.20701,3.56417,3.81897,4.00988,4.15826,4.27689,4.3739
0.0379269,1.76026,2.59887,3.08653,3.40532,3.63001,3.7969,3.92576,4.02826,4.11174
0.0416854,1.97166,2.94122,3.52264,3.91122,4.18954,4.3988,4.56189,4.6926,4.7997
0.0368816,1.80018,2.70895,3.25802,3.62537,3.88826,4.08562,4.23922,4.36213,4.46272
0.0526407,2.65495,4.00709,4.8199,5.36119,5.74726,6.03641,6.26105,6.44058,6.58735
0.0377187,1.87556,2.79199,3.33426,3.69297,3.94797,4.13862,4.28657,4.40473,4.50129
0.0369352,1.85065,2.76121,3.30606,3.66931,3.9289,4.12372,4.27532,4.39666,4.49597
0.0364077,1.8734,2.81049,3.37273,3.7472,4.01438,4.21453,4.37005,4.49435,4.59597
0.0514067,1.83844,2.372,2.62489,2.7723,2.8688,2.93687,2.98747,3.02654,3.05764
0.0363143,1.55625,2.32532,2.83811,3.21111,3.49619,3.72167,3.90466,4.05623,4.18388
0.035918,1.73534,2.69896,3.31892,3.74362,4.0499,4.28008,4.45886,4.60147,4.71774
0.0522692,2.73736,4.25432,5.17855,5.79068,6.22413,6.5468,6.79628,6.99493,7.15686
0.0363373,1.88276,2.83069,3.38204,3.74196,3.99578,4.1846,4.33065,4.44702,4.54196
0.0338792,1.70253,2.49692,2.95095,3.24599,3.45352,3.60757,3.72649,3.82108,3.89812
0.0342244,1.86109,2.83269,3.43035,3.83666,4.13109,4.35432,4.52939,4.67037,4.78634
0.0489316,2.80969,4.29188,5.18736,5.78433,6.20983,6.52814,6.7751,6.97221,7.13315
0.0347695,2.00675,3.01839,3.61598,4.01036,4.2902,4.49912,4.66109,4.79035,4.89592
0.0363661,2.14122,3.22072,3.86465,4.29321,4.59922,4.82874,5.00729,5.15017,5.2671
0.0446207,2.67197,4.00575,4.79725,5.32153,5.69435,5.97303,6.18921,6.36179,6.50275
0.0376634,1.19215,1.44445,1.55496,1.61722,1.65721,1.68508,1.70563,1.7214,1.73389
0.0344948,1.42331,2.1183,2.61042,2.98543,3.28247,3.52411,3.72474,3.89407,4.03896
0.0343334,1.71345,2.73826,3.43466,3.9239,4.28087,4.55049,4.76028,4.92761,5.06391
0.0476671,2.70486,4.33118,5.34174,6.01036,6.48156,6.83065,7.09947,7.31282,7.48627
0.0345187,1.9259,2.90719,3.46273,3.81805,4.06534,4.24769,4.38786,4.49904,4.58942
0.0342526,2.03799,3.11202,3.75097,4.17708,4.4825,4.71246,4.89194,5.03597,5.15412
0.0341742,2.13481,3.26141,3.93491,4.38382,4.70452,4.94502,5.13203,5.28159,5.40391
0.0479107,3.09463,4.70294,5.65999,6.29553,6.74833,7.08729,7.35054,7.5609,7.73286
0.0338805,2.18918,3.27816,3.91753,4.33911,4.63817,4.8614,5.03441,5.17245,5.28516
0.0338469,2.18166,3.2439,3.86888,4.28184,4.57525,4.79454,4.96465,5.10048,5.21144
0.0462347,3.05953,4.59572,5.52054,6.13965,6.58326,6.91674,7.17657,7.38473,7.55523
0.0339183,2.23207,3.32984,3.98375,4.41795,4.72719,4.95862,5.1383,5.28186,5.39917
0.0334145,2.23484,3.34731,4.01417,4.45853,4.77579,5.01366,5.19862,5.34655,5.46757
0.0360462,2.47203,3.7207,4.47168,4.9726,5.33041,5.59873,5.80738,5.97428,6.11081
0.0356681,2.33606,3.4173,4.03936,4.44352,4.72723,4.93738,5.09929,5.22787,5.33246
