1.15255,1.16443,1.16845,1.17047,1.17168,1.17249,1.17307,1.17351,1.17384,1.17412
0.939251,1.51412,1.8958,2.16764,2.37108,2.52906,2.65528,2.75844,2.84434,2.91697
0.905548,2.22759,3.22336,3.91184,4.39442,4.74398,5.00582,5.20785,5.36775,5.49707
0.875854,2.75199,3.92111,4.55995,4.93784,5.18182,5.3507,5.47399,5.56774,5.64134
0.802755,3.01871,4.20593,4.80352,5.15415,5.38445,5.54761,5.66946,5.76403,5.83962
0.821181,3.71013,5.19871,5.96233,6.42549,6.73747,6.96234,7.13227,7.26526,7.3722
0.789231,4.08964,5.66661,6.46038,6.93781,7.25684,7.48511,7.65651,7.78992,7.8967
0.800715,4.64125,6.37301,7.24349,7.76859,8.12026,8.37234,8.56193,8.70971,8.82816
0.769308,4.90734,6.69868,7.60288,8.15002,8.51706,8.78043,8.97865,9.13323,9.25716
0.724105,4.99741,6.77879,7.67761,8.22099,8.58513,8.84619,9.04252,9.19554,9.31816
0.777063,5.80372,7.87506,8.93013,9.5711,10.002,10.3115,10.5447,10.7267,10.8726
0.768996,6.14839,8.3246,9.43152,10.1024,10.5525,10.8754,11.1183,11.3077,11.4594
0.784016,6.63434,8.95741,10.139,10.8552,11.3359,11.6808,11.9404,12.1429,12.3052
0.753513,6.81551,9.23536,10.4763,11.2317,11.7399,12.1052,12.3805,12.5954,12.7678
0.766292,7.64062,10.5138,12.0174,12.9417,13.5673,14.0187,14.3598,14.6266,14.8409
0.775105,8.27484,11.3459,12.9204,13.8747,14.5142,14.9723,15.3166,15.5848,15.7996
0.766692,8.62687,11.7571,13.3477,14.3098,14.9545,15.4167,15.7644,16.0354,16.2527
0.777893,9.18092,12.4691,14.1407,15.1537,15.8337,16.3218,16.6892,16.9758,17.2055
0.779888,9.76209,13.3065,15.1264,16.2354,16.9822,17.5194,17.9243,18.2406,18.4943
0.769881,9.99579,13.5472,15.3525,16.4453,17.1777,17.7027,18.0975,18.4052,18.6516
0.785236,10.7272,14.5912,16.5756,17.7848,18.5991,19.1849,19.6265,19.9715,20.2483
0.784172,11.0532,14.9582,16.9448,18.1476,18.954,19.5321,19.9668,20.3056,20.577
0.773086,10.8937,14.5569,16.3953,17.5017,18.241,18.77,19.1673,19.4767,19.7244
0.776592,11.6129,15.7825,17.9573,19.2963,20.2045,20.8611,21.3582,21.7475,22.0607
0.785118,11.7907,15.8081,17.8329,19.05,19.8615,20.4407,20.8748,21.2121,21.4818
0.653951,10.0241,13.4528,15.2008,16.2624,16.976,17.4889,17.8754,18.1771,18.4193
0.785541,12.4715,16.8466,19.1043,20.4833,21.4132,22.0826,22.5875,22.9819,23.2985
0.786465,13.3192,18.2363,20.8077,22.3866,23.4539,24.2235,24.8045,25.2587,25.6235
0.785128,14.3931,19.9468,22.8613,24.6504,25.8591,26.7299,27.3871,27.9007,28.313
0.649268,12.5724,17.3458,19.7943,21.2775,22.2711,22.9829,23.5178,23.9345,24.2682
0.659633,13.5552,18.75,21.4341,23.0732,24.1787,24.975,25.5759,26.0457,26.423
0.798961,16.0996,21.6262,24.3508,25.9722,27.0476,27.813,28.3854,28.8297,29.1846
0.796626,16.8039,22.8859,26.0385,27.9789,29.2963,30.25,30.9728,31.5396,31.996
0.80035,17.5523,23.964,27.2742,29.2941,30.654,31.6314,32.3674,32.9416,33.402
0.809589,18.2486,24.8428,28.2187,30.2681,31.644,32.6314,33.3744,33.9539,34.4183
0.809028,18.1888,24.4641,27.6236,29.5266,30.7985,31.7087,32.3924,32.9247,33.351
0.80999,18.9712,25.826,29.3882,31.5767,33.0593,34.1303,34.9406,35.575,36.0852
0.653067,15.7884,21.5277,24.4921,26.3,27.5168,28.3912,29.0499,29.5637,29.9757
0.817598,20.3623,27.7394,31.5239,33.8231,35.3673,36.4758,37.3102,37.9609,38.4826
0.670724,17.0037,23.0833,26.1901,28.0762,29.3432,30.253,30.938,31.4725,31.9011
0.809257,19.4581,25.7285,28.8189,30.6604,31.8831,32.7541,33.4062,33.9126,34.3173
0.819212,19.2949,25.5481,28.7229,30.6544,31.9557,32.8927,33.5999,34.1526,34.5966
0.659258,15.7292,21.0705,23.8431,25.5442,26.6943,27.5238,28.1503,28.64,29.0334
0.806377,19.3046,25.8781,29.2557,31.3083,32.6863,33.6749,34.4186,34.9982,35.4626
0.8121,19.7861,26.6567,30.1995,32.3582,33.8109,34.8554,35.6424,36.2568,36.7497
0.813853,20.0392,26.979,30.5313,32.6863,34.1325,35.17,35.9506,36.5592,37.0469
0.809895,20.2489,27.3024,30.9178,33.1151,34.5919,35.6528,36.4517,37.0751,37.5751
0.807807,20.8891,28.3635,32.2258,34.5834,36.172,37.3151,38.177,38.85,39.3902
0.810677,21.4007,28.9878,32.8612,35.2069,36.7789,37.9056,38.7525,39.4124,39.9409
0.642788,17.2185,23.274,26.3612,28.2329,29.4892,30.3909,31.0697,31.5991,32.0235
0.798085,21.8122,29.5214,33.469,35.8695,37.4837,38.6437,39.5175,40.1995,40.7466
0.813854,22.8181,30.9444,35.111,37.6445,39.3474,40.5706,41.4917,42.2103,42.7865
0.638826,18.4346,25.0476,28.4386,30.4998,31.8848,32.8794,33.6283,34.2125,34.681
0.636373,18.548,25.0669,28.3776,30.3799,31.7212,32.6826,33.4053,33.9685,34.4197
0.793892,23.479,31.7304,35.9435,38.5028,40.223,41.4589,42.3899,43.1164,43.6992
0.631446,19.0754,25.8263,29.2836,31.3854,32.7983,33.8132,34.5774,35.1737,35.6519
0.63171,19.4987,26.4285,29.978,32.135,33.5843,34.6251,35.4087,36.02,36.5101
0.63472,19.7053,26.5841,30.0806,32.1967,33.615,34.6319,35.3966,35.9926,36.4702
0.628672,19.6744,26.5223,30.0156,32.1364,33.5612,34.5845,35.3552,35.9565,36.4387
0.800655,25.4311,34.3545,38.9287,41.712,43.584,44.9294,45.943,46.734,47.3685
0.794764,26.0405,35.4012,40.2339,43.183,45.1696,46.5987,47.676,48.5172,49.1921
0.624919,20.7472,28.0918,31.8344,34.0994,35.6169,36.7041,37.5214,38.1581,38.668
0.794926,26.9845,36.6066,41.5353,44.5317,46.5465,47.9944,49.0852,49.9365,50.6195
0.623394,21.3069,28.7867,32.5938,34.9,36.4467,37.5561,38.3906,39.0411,39.5625
0.796292,27.8319,37.7371,42.8216,45.9179,48.002,49.5005,50.63,51.5119,52.2194
0.797571,28.1083,37.9968,43.0408,46.0991,48.1511,49.6232,50.7307,51.5941,52.2861
0.797675,28.6145,38.7285,43.901,47.0427,49.1535,50.6694,51.8108,52.7012,53.4153
0.793518,28.7889,38.93,44.1114,47.257,49.3696,50.8864,52.0283,52.9189,53.633
0.796292,29.1968,39.4585,44.7017,47.8851,50.0235,51.5588,52.7147,53.6164,54.3394
0.79152,29.6012,40.1294,45.5378,48.8313,51.0475,52.6408,53.8414,54.7785,55.5304
0.795157,30.1549,40.8117,46.2491,49.5444,51.7545,53.3393,54.5312,55.4603,56.2047
0.797922,30.4529,41.1079,46.5327,49.8199,52.0254,53.6079,54.7988,55.7274,56.4718
0.617586,24.0662,32.6303,37.0338,39.718,41.5259,42.8265,43.807,44.5728,45.1873
0.803555,31.9584,43.3544,49.1875,52.7282,55.105,56.8104,58.0935,59.0938,59.8955
0.803123,32.1528,43.4577,49.2109,52.6949,55.0312,56.7067,57.9671,58.9497,59.7372
0.847893,32.9291,43.9074,49.4083,52.7158,54.9246,56.5044,57.6905,58.6138,59.353
0.838301,32.2244,43.0749,48.6195,51.997,54.2727,55.9108,57.1466,58.1122,58.8875
0.662458,25.9117,34.9718,39.6684,42.5437,44.4847,45.8829,46.938,47.7623,48.4241
0.865979,34.1609,46.1269,52.2735,56.0083,58.5158,60.3151,61.6687,62.724,63.5696
0.654486,26.5868,36.1726,41.1368,44.1693,46.2135,47.6848,48.7945,49.6614,50.3572
0.842798,34.5949,46.8902,53.17,56.9738,59.5234,61.351,62.7251,63.7958,64.6536
0.843017,34.5847,46.6206,52.7262,56.4177,58.8912,60.6644,61.9979,63.0373,63.8702
0.824412,33.9435,45.7288,51.7362,55.3827,57.8326,59.5921,60.9173,61.9512,62.7805
0.830784,34.545,46.6504,52.8595,56.6397,59.1833,61.0118,62.3897,63.4652,64.3281
0.846766,35.9754,48.7985,55.401,59.424,62.1314,64.0775,65.5438,66.6882,67.6061
0.669071,28.819,39.0696,44.3203,47.5088,49.6498,51.1866,52.3431,53.2451,53.9681
0.86461,38.0251,51.628,58.5972,62.8314,65.6761,67.7189,69.2569,70.4567,71.4188
0.867737,38.8032,52.6644,59.7534,64.0571,66.9475,69.0225,70.5845,71.8028,72.7796
0.823949,37.078,50.1311,56.7688,60.7875,63.4819,65.4141,66.8674,68.0003,68.9081
0.857729,39.1485,53.0218,60.1256,64.4469,67.3537,69.4431,71.0175,72.2465,73.2326
0.849583,39.7841,54.0942,61.4486,65.9259,68.9376,71.1018,72.732,74.0041,75.0244
0.84915,40.1098,54.3325,61.5783,65.9667,68.9087,71.0182,72.6046,73.841,74.8318
0.641409,31.075,42.2824,48.0456,51.5577,53.9227,55.6238,56.9064,57.9079,58.7117
0.847033,40.935,55.2552,62.5072,66.8854,69.815,71.9125,73.4882,74.7153,75.6979
0.843162,40.9035,55.1686,62.4349,66.8445,69.8068,71.9344,73.5368,74.7872,75.7902
0.870876,42.9091,58.1093,65.9213,70.6827,73.8889,76.195,77.9334,79.2907,80.3798
0.837806,41.5001,56.049,63.4631,67.9537,70.9642,73.1222,74.7449,76.0094,77.0224
0.8451,41.6415,56.0321,63.3488,67.7809,70.7542,72.8874,74.4926,75.7443,76.7478
0.838031,41.6866,56.2866,63.7779,68.3401,71.4109,73.6192,75.2837,76.5833,77.6261
0.829482,42.0912,57.1188,64.8679,69.5937,72.7759,75.0643,76.789,78.1354,79.2156
