1.09513,1.12621,1.13696,1.14242,1.14571,1.14792,1.14951,1.1507,1.15162,1.15237
0.825802,1.28932,1.57374,1.76594,1.9045,2.00913,2.09092,2.15662,2.21055,2.25561
0.764177,1.79119,2.52787,3.0302,3.38259,3.63949,3.83352,3.98452,4.10502,4.20323
0.708384,2.10528,2.95872,3.4341,3.72154,3.91042,4.04292,4.14063,4.21549,4.27462
0.663483,2.38238,3.32422,3.81723,4.11356,4.31097,4.45207,4.55805,4.64066,4.70689
0.600587,2.50705,3.46659,3.95901,4.2568,4.45666,4.60024,4.70845,4.79295,4.86078
0.607695,2.87313,3.94726,4.49801,4.8332,5.05904,5.22164,5.34432,5.44019,5.51717
0.607203,3.33517,4.66098,5.36626,5.80513,6.10485,6.32261,6.48799,6.61788,6.72258
0.573256,3.60255,5.05869,5.82719,6.30073,6.62137,6.85272,7.02744,7.16403,7.27374
0.550191,3.84378,5.36571,6.15625,6.63945,6.96522,7.19969,7.37652,7.51465,7.62552
0.556961,4.2214,5.8555,6.7045,7.22549,7.57811,7.83274,8.02527,8.17599,8.29718
0.589126,4.83691,6.68909,7.65101,8.2409,8.63974,8.92741,9.14472,9.31466,9.45119
0.545552,4.78348,6.58687,7.52228,8.0956,8.48311,8.76256,8.97364,9.1387,9.27131
0.589576,5.49652,7.55306,8.62169,9.27728,9.72063,10.0405,10.2821,10.4711,10.623
0.533784,5.28329,7.26113,8.2926,8.92643,9.35547,9.66519,9.89928,10.0824,10.2296
0.529441,5.53273,7.5978,8.67441,9.33546,9.78263,10.1053,10.349,10.5397,10.6928
0.587817,6.52753,9.01154,10.3223,11.1329,11.6839,12.0829,12.3851,12.622,12.8127
0.518086,6.1832,8.5977,9.87889,10.6723,11.2116,11.602,11.8977,12.1293,12.3156
0.585384,7.39878,10.2689,11.776,12.703,13.3304,13.7832,14.1253,14.3928,14.6078
0.528792,7.01798,9.70268,11.1024,11.961,12.5414,12.9601,13.2763,13.5236,13.7223
0.584159,8.12063,11.2078,12.8183,13.8078,14.4776,14.9611,15.3267,15.6127,15.8426
0.585228,8.4871,11.6991,13.3767,14.4081,15.1067,15.6111,15.9924,16.2909,16.5308
0.519997,7.83658,10.7893,12.3321,13.2809,13.9233,14.3872,14.7379,15.0124,15.233
0.600867,9.4576,13.0444,14.9258,16.0849,16.8707,17.4385,17.868,18.2043,18.4747
0.609881,9.95445,13.72,15.6933,16.908,17.731,18.3255,18.775,19.1268,19.4096
0.593779,10.0216,13.7984,15.7755,16.9919,17.8158,18.4108,18.8607,19.2127,19.4957
0.515819,8.91357,12.2378,13.9753,15.0438,15.7675,16.2902,16.6854,16.9946,17.2433
0.611113,10.9442,15.0921,17.2833,18.6394,19.5616,20.2295,20.7356,21.1323,21.4517
0.505542,9.02107,12.2526,13.9102,14.9175,15.5941,16.0797,16.4451,16.7301,16.9585
0.612153,11.2372,15.3901,17.5816,18.9398,19.865,20.5363,21.0457,21.4455,21.7677
0.616694,11.9655,16.6199,19.118,20.6759,21.7398,22.5123,23.0985,23.5586,23.9293
0.608662,12.1645,16.7946,19.2157,20.6986,21.6988,22.4185,22.9612,23.3849,23.7248
0.613694,13.0582,18.2425,21.0077,22.7261,23.8979,24.7483,25.3937,25.9003,26.3085
0.621689,13.302,18.2553,20.8003,22.3463,23.3843,24.1291,24.6894,25.1262,25.4763
0.616044,13.8586,19.2464,22.1087,23.889,25.1048,25.9883,26.6596,27.1871,27.6125
0.626961,14.644,20.3247,23.3147,25.1575,26.406,27.3076,27.9889,28.5219,28.9501
0.60943,14.5635,20.1154,23.0162,24.7983,26.0043,26.8747,27.5325,28.0472,28.4608
0.511147,12.2293,16.7259,19.0516,20.4743,21.4347,22.1268,22.6493,23.0577,23.3858
0.509221,12.2004,16.6307,18.9353,20.3514,21.3106,22.0035,22.5275,22.9377,23.2675
0.622937,15.9356,22.2346,25.6463,27.7889,29.2598,30.3321,31.1485,31.7908,32.3093
0.612196,15.482,21.1413,24.0447,25.8034,26.9808,27.8235,28.4563,28.9487,29.3427
0.506598,13.5326,18.8351,21.6829,23.4649,24.6868,25.5773,26.2555,26.7894,27.2206
0.620872,17.1433,23.8257,27.3546,29.5304,31.0044,32.0684,32.8722,33.5008,34.0057
0.622972,16.499,22.2826,25.2017,26.9602,28.1356,28.9766,29.6082,30.1,30.4938
0.503195,13.1878,17.8262,20.2336,21.7153,22.7211,23.4491,24.0007,24.4332,24.7814
0.506486,13.1548,17.829,20.2856,21.8044,22.8366,23.5838,24.1497,24.5931,24.95
0.514076,13.7128,18.7708,21.4503,23.1081,24.2341,25.0485,25.6648,26.1474,26.5355
0.637321,17.0932,23.3212,26.5714,28.5628,29.907,30.8752,31.6057,32.1764,32.6346
0.497875,13.5489,18.5219,21.1254,22.7264,23.8105,24.5934,25.1854,25.6487,26.0212
0.511635,13.8867,18.8831,21.4742,23.0594,24.1292,24.8998,25.4813,25.9357,26.3005
0.619417,17.2787,23.7012,27.089,29.1835,30.607,31.6375,32.4181,33.03,33.5224
0.622236,17.8281,24.5224,28.0394,30.2038,31.6692,32.7267,33.5258,34.1507,34.6529
0.615807,17.9442,24.6266,28.1108,30.2469,31.6901,32.7305,33.516,34.13,34.6233
0.493232,14.9011,20.5802,23.5712,25.4172,26.6701,27.5764,28.2623,28.7996,29.2319
0.502063,15.5809,21.4948,24.585,26.4815,27.7635,28.6878,29.3857,29.9313,30.3695
0.617755,19.4981,26.8224,30.6389,32.981,34.5649,35.7077,36.5712,37.2467,37.7895
0.491258,15.8229,21.7625,24.8637,26.7697,28.06,28.9915,29.6957,30.2467,30.6896
0.494698,14.6059,19.3414,21.681,23.0766,24.0038,24.6644,25.1591,25.5433,25.8504
0.62524,19.6376,27.0277,31.0435,33.5848,35.3418,36.6304,37.6163,38.3951,39.0261
0.496834,16.2958,22.5995,25.9612,28.0406,29.4499,30.4668,31.2344,31.8341,32.3154
0.616447,20.7779,28.773,32.9754,35.5569,37.3021,38.5606,39.5111,40.2542,40.8513
0.615932,21.4362,29.6734,33.9802,36.6232,38.4102,39.6992,40.6729,41.4345,42.0464
0.494741,17.6078,24.2915,27.7672,29.8967,31.3353,32.3725,33.1557,33.7681,34.2601
0.501943,17.9651,24.617,28.056,30.1589,31.5783,32.601,33.3729,33.9763,34.4609
0.489978,18.0036,24.826,28.4192,30.6418,32.1534,33.2482,34.078,34.7285,35.2523
0.486941,18.2264,25.1532,28.7991,31.0489,32.5753,33.6786,34.5133,35.1668,35.6922
0.488205,18.5549,25.5202,29.1491,31.3732,32.8753,33.9576,34.7745,35.4129,35.9256
0.49244,19.0271,26.142,29.8478,32.1213,33.6587,34.7677,35.6055,36.2609,36.7875
0.611501,23.8033,32.6307,37.2301,40.0544,41.9657,43.3452,44.3878,45.2035,45.8592
0.498372,19.6683,26.9918,30.8227,33.18,34.7769,35.9303,36.8025,37.4851,38.0339
0.487697,19.493,26.7599,30.5626,32.9017,34.4858,35.6295,36.4941,37.1706,37.7144
0.489631,19.694,26.9666,30.7544,33.0776,34.6479,35.7803,36.6355,37.3042,37.8414
0.487214,19.8341,27.171,30.9988,33.3496,34.9402,36.088,36.9554,37.6339,38.1792
0.639117,26.4821,36.4102,41.6276,44.8455,47.0288,48.6073,49.8019,50.7373,51.4898
0.490561,20.5877,28.2596,32.2617,34.7165,36.3754,37.5712,38.474,39.1796,39.7464
0.620205,26.4382,36.3166,41.4785,44.6506,46.7977,48.3476,49.5191,50.4358,51.1725
0.494745,21.3467,29.3074,33.4649,36.0191,37.7477,38.9952,39.938,40.6756,41.2684
0.622856,27.1822,37.3011,42.5841,45.8296,48.0258,49.6107,50.8085,51.7455,52.4985
0.642876,28.5125,39.1995,44.7997,48.2473,50.5835,52.2712,53.5475,54.5465,55.3497
0.626773,28.2059,38.7775,44.3068,47.7055,50.0057,51.6658,52.9204,53.9017,54.6904
0.491103,22.482,30.9156,35.3207,38.0261,39.8562,41.1767,42.1743,42.9545,43.5815
0.619897,28.6281,39.2931,44.8539,48.2678,50.5771,52.2434,53.5025,54.4874,55.2789
0.625623,28.9688,39.634,45.1778,48.5762,50.873,52.5292,53.78,54.7581,55.5439
0.636068,29.8703,41.0109,46.8563,50.4602,52.9051,54.6729,56.0107,57.0584,57.9012
0.490655,23.2989,31.9686,36.4965,39.2766,41.1567,42.5126,43.5367,44.3374,44.9806
0.608648,29.2368,40.097,45.759,49.233,51.5818,53.2758,54.5554,55.5561,56.3601
0.624763,29.7987,40.7234,46.4217,49.9241,52.296,54.009,55.3043,56.3181,57.1333
0.490455,23.2805,31.7763,36.2155,38.9461,40.7959,42.1319,43.142,43.9326,44.5682
0.632293,30.3745,41.7212,47.7237,51.4408,53.9693,55.8008,57.1886,58.2765,59.1523
0.622746,30.1582,41.4527,47.4002,51.0672,53.5531,55.349,56.707,57.7699,58.6242
0.625881,30.5088,41.8847,47.8436,51.5071,53.9868,55.7766,57.1291,58.1873,59.0377
0.623215,30.7211,42.2538,48.3178,52.0574,54.5946,56.429,57.8172,58.9044,59.7789
0.484757,24.2355,33.3786,38.185,41.1472,43.1556,44.6068,45.7044,46.5636,47.2544
0.621512,31.4285,43.2878,49.5165,53.3541,55.9555,57.8352,59.257,60.37,61.2649
0.636816,32.7152,45.1206,51.6432,55.6644,58.3914,60.3625,61.8536,63.0211,63.9599
0.612987,31.7775,43.7603,50.0411,53.9068,56.5257,58.4172,59.8474,60.9667,61.8665
0.627258,32.8467,45.2155,51.7009,55.6947,58.4016,60.3574,61.8366,62.9946,63.9257
0.627609,33.0733,45.4353,51.8959,55.8667,58.5543,60.4943,61.9604,63.1074,64.0293
0.614061,32.6286,44.8709,51.3012,55.2674,57.9587,59.9049,61.378,62.5317,63.4598
0.607825,32.6878,45.009,51.4866,55.4806,58.1894,60.1471,61.6281,62.7875,63.7199
