1.22838,1.28529,1.30545,1.31577,1.32204,1.32625,1.32928,1.33156,1.33333,1.33476
0.985039,1.49945,1.79554,1.9877,2.12244,2.22213,2.29888,2.35979,2.4093,2.45033
0.828252,1.67979,2.17317,2.4707,2.66459,2.79941,2.898,2.97298,3.0318,3.07912
0.688097,1.7036,2.24145,2.53638,2.71763,2.83927,2.9263,2.99155,3.04227,3.08281
0.626222,2.04988,2.89552,3.38954,3.70877,3.93158,4.09591,4.22213,4.32213,4.40334
0.647106,2.67319,3.86573,4.53218,4.94857,5.23176,5.43637,5.59094,5.71174,5.80871
0.588957,2.83237,4.01363,4.62706,4.99719,5.24427,5.42083,5.55329,5.65635,5.73882
0.548417,3.08516,4.39083,5.0804,5.50637,5.79623,6.00648,6.16605,6.29134,6.39235
0.525185,3.40132,4.85237,5.62323,6.10153,6.42745,6.66383,6.84312,6.98376,7.09704
0.516728,3.78392,5.39041,6.24247,6.77057,7.13001,7.39045,7.58784,7.74259,7.86718
0.524551,4.2469,6.00889,6.93579,7.50786,7.89618,8.17705,8.38965,8.55617,8.69014
0.510744,4.53174,6.3925,7.37464,7.98275,8.39656,8.69643,8.92375,9.10202,9.24558
0.504302,5.02856,7.19413,8.36985,9.10948,9.6179,9.9889,10.2716,10.4941,10.6739
0.504594,5.21213,7.25372,8.30694,8.94862,9.38019,9.6902,9.92362,10.1057,10.2517
0.510773,5.43213,7.4664,8.51841,9.16397,9.60118,9.91713,10.1562,10.3435,10.4942
0.514933,5.9705,8.38587,9.70177,10.5337,11.1078,11.5281,11.849,12.1022,12.307
0.493179,5.80383,7.97336,9.09589,9.78004,10.2399,10.5699,10.8182,11.0117,11.1667
0.509763,6.07676,8.31459,9.49216,10.2217,10.7188,11.0797,11.3536,11.5687,11.7422
0.49416,5.95198,8.09779,9.22136,9.91374,10.3832,10.7225,10.9791,11.18,11.3415
0.793018,10.0722,13.9152,15.9883,17.2873,18.1779,18.8266,19.3201,19.7083,20.0215
0.517712,6.85781,9.48973,10.8937,11.7642,12.3562,12.7847,13.109,13.3631,13.5674
0.488052,6.97834,9.81354,11.3566,12.3255,12.9903,13.4747,13.8433,14.1333,14.3673
0.482696,6.74461,9.17086,10.4057,11.151,11.6491,12.0054,12.2728,12.4809,12.6474
0.517327,7.22394,9.78859,11.1229,11.9449,12.5033,12.9077,13.2143,13.4548,13.6486
0.462925,6.93469,9.63934,11.1136,12.0438,12.6844,13.1524,13.5093,13.7904,14.0176
0.453561,7.16414,9.99362,11.51,12.4511,13.091,13.5538,13.904,14.1782,14.3985
0.464789,7.5736,10.4904,12.0228,12.9648,13.602,14.0618,14.4092,14.6809,14.8993
0.597673,10.4839,14.7531,17.0617,18.5086,19.5009,20.224,20.7744,21.2075,21.5572
0.451968,7.58452,10.2456,11.5793,12.3783,12.9099,13.2889,13.5727,13.7931,13.9693
0.439115,7.49223,10.2081,11.6373,12.5249,13.1313,13.5723,13.9077,14.1714,14.3843
0.446045,7.94397,10.9649,12.5848,13.596,14.287,14.789,15.1701,15.4692,15.7102
0.446579,8.33726,11.5904,13.332,14.4142,15.1512,15.6851,16.0896,16.4066,16.6617
0.437554,8.27922,11.3919,13.0165,14.0118,14.6836,15.1675,15.5326,15.8179,16.047
0.432715,8.74566,12.2447,14.1329,15.3156,16.1264,16.7171,17.1668,17.5205,17.8061
0.429436,9.14826,12.8378,14.8081,16.0303,16.8616,17.4634,17.9191,18.2761,18.5632
0.436981,9.47809,13.1485,15.0678,16.2463,17.0434,17.6184,18.0529,18.3927,18.6658
0.436315,9.62093,13.2808,15.1979,16.3798,17.182,17.7623,18.2017,18.546,18.8231
0.43061,9.78666,13.5585,15.5585,16.7999,17.6458,18.2593,18.7247,19.0898,19.3839
0.445495,10.3564,14.3289,16.4278,17.7256,18.6073,19.2453,19.7282,20.1066,20.4109
0.440458,10.3621,14.2709,16.3229,17.5875,18.445,19.0646,19.5334,19.9004,20.1955
0.450981,11.3353,15.9472,18.4632,20.0495,21.1414,21.939,22.5473,23.0265,23.4138
0.628646,15.6112,21.4505,24.466,26.3002,27.5316,28.4148,29.079,29.5965,30.011
0.443027,11.0715,15.2024,17.3727,18.7146,19.6277,20.2896,20.7918,21.1859,21.5034
0.43186,10.6608,14.5275,16.5448,17.7853,18.6256,19.2324,19.6911,20.0501,20.3386
0.424811,10.8403,14.9757,17.1939,18.5797,19.528,20.2177,20.742,21.1541,21.4864
0.413585,10.9292,15.1923,17.4751,18.8944,19.8613,20.5621,21.0932,21.5095,21.8446
0.424427,11.3536,15.6774,17.949,19.346,20.2913,20.9735,21.4888,21.8919,22.2159
0.429715,12.7391,18.2079,21.2456,23.1788,24.5175,25.4997,26.2511,26.8446,27.3252
0.551266,16.2542,22.5498,25.7975,27.7669,29.0857,30.0296,30.7381,31.2895,31.7306
0.431564,12.6687,17.4137,19.8799,21.3961,22.4244,23.1684,23.732,24.1738,24.5296
0.416131,12.5372,17.3656,19.9372,21.5398,22.6352,23.4315,24.0365,24.5117,24.8949
0.41383,12.5288,17.2585,19.7454,21.2786,22.3179,23.0686,23.6361,24.0802,24.4372
0.417879,12.9618,17.9578,20.619,22.2735,23.4019,24.2209,24.8424,25.3303,25.7234
0.41046,12.9735,17.9727,20.6231,22.2637,23.3789,24.186,24.7972,25.276,25.6613
0.41637,13.4052,18.5711,21.3072,23.0007,24.1521,24.9859,25.6174,26.1124,26.5108
0.41753,13.596,18.7869,21.5248,23.216,24.3645,25.1954,25.8244,26.3171,26.7136
0.427861,14.1457,19.573,22.4518,24.237,25.4527,26.334,27.0022,27.5263,27.9484
0.430861,13.1262,17.5053,19.6955,21.0091,21.8844,22.5094,22.9779,23.3422,23.6335
0.427659,13.6106,18.7485,21.544,23.3135,24.5371,25.4346,26.1212,26.6638,27.1033
0.447546,14.5324,20.1016,23.0852,24.9387,26.1995,27.1117,27.8019,28.3421,28.7764
0.427462,15.1907,21.6506,25.2358,27.5092,29.0782,30.2259,31.1019,31.7925,32.3509
0.541717,18.6085,25.5089,29.0104,31.1125,32.5112,33.5081,34.2541,34.8334,35.296
0.406206,13.9773,19.1551,21.857,23.5238,24.6573,25.4792,26.1029,26.5925,26.9871
0.404065,13.9762,19.1736,21.9088,23.6002,24.7502,25.5827,26.2134,26.7075,27.1052
0.407169,14.1542,19.4216,22.1957,23.909,25.0722,25.9134,26.55,27.0486,27.4496
0.40484,14.9214,20.9082,24.1622,26.2068,27.6104,28.6336,29.4125,30.0252,30.5199
0.402331,15.1774,21.1449,24.2979,26.2393,27.553,28.5003,29.2156,29.7746,30.2236
0.535509,20.4353,28.3973,32.616,35.2303,37.0105,38.3014,39.2805,40.0488,40.6679
0.417771,15.9485,21.9636,25.1017,27.028,28.3307,29.2704,29.9803,30.5353,30.9813
0.402376,16.0458,22.4123,25.8356,27.9772,29.4443,30.5126,31.3253,31.9644,32.4801
0.403184,16.43,22.8486,26.2331,28.3186,29.731,30.7504,31.5205,32.1227,32.6065
0.399925,16.6984,23.2596,26.7419,28.9014,30.3721,31.4385,32.2473,32.8818,33.3929
0.400553,16.9493,23.5148,26.9744,29.1101,30.5597,31.6081,32.4015,33.0229,33.5227
0.41984,17.7098,24.4085,27.9222,30.0884,31.5583,32.6212,33.4257,34.0558,34.5628
0.408101,17.0704,23.4149,26.7415,28.7932,30.1857,31.1928,31.9552,32.5524,33.0329
0.430233,17.8388,24.4005,27.8431,29.9664,31.4072,32.4491,33.2375,33.8551,34.3518
0.394688,17.0155,23.6563,27.236,29.4762,31.0104,32.1269,32.9758,33.643,34.1813
0.400582,17.7988,24.7818,28.4908,30.783,32.3379,33.4613,34.3107,34.9752,35.5093
0.416225,18.9685,26.3898,30.3074,32.7243,34.3637,35.549,36.4458,37.1481,37.7129
0.415008,19.3316,26.8826,30.8703,33.3352,35.0101,36.2224,37.1407,37.8604,38.4396
0.419354,19.2845,26.5047,30.264,32.5716,34.1327,35.2593,36.1107,36.7767,37.312
0.426742,19.1177,26.0282,29.6161,31.819,33.3102,34.387,35.2012,35.8385,36.3508
0.394518,17.7595,24.3736,27.8909,30.08,31.5749,32.6607,33.4854,34.1329,34.6549
0.491562,22.9933,32.0181,36.8904,39.9374,42.0214,43.5362,44.6867,45.59,46.3181
0.396918,18.8626,26.1738,30.0384,32.4201,34.033,35.1971,36.0767,36.7645,37.3172
0.396653,19.4445,27.1147,31.1973,33.7302,35.4553,36.706,37.6544,38.3985,38.9978
0.393816,19.7597,27.5382,31.6586,34.2077,35.9399,37.1937,38.1431,38.887,39.4855
0.392273,19.8555,27.5258,31.5582,34.0444,35.7309,36.9501,37.8727,38.5951,39.1762
0.498607,25.5622,35.4254,40.6344,43.858,46.0505,47.6387,48.8422,49.7858,50.5454
0.391292,20.2546,28.0458,32.1644,34.7136,36.4471,37.7024,38.6535,39.3989,39.9989
0.394786,20.3711,28.0247,32.0283,34.4903,36.1571,37.3605,38.2699,38.9815,39.5534
0.397938,20.6825,28.515,32.6544,35.218,36.9625,38.2268,39.1852,39.9369,40.5421
0.392832,20.8281,28.876,33.1624,35.8252,37.6398,38.9557,39.9535,40.7362,41.3664
0.425933,22.408,30.8255,35.2376,37.9514,39.7887,41.1148,42.1169,42.9009,43.5309
0.413913,21.8767,30.1836,34.592,37.3287,39.1942,40.5477,41.5748,42.3808,43.0303
0.401442,21.4232,29.612,33.9583,36.6519,38.4845,39.8118,40.8174,41.6055,42.2398
0.392224,21.4907,29.8849,34.3622,37.1428,39.0369,40.41,41.4509,42.2673,42.9246
0.38875,21.2007,29.2087,33.3946,35.9638,37.7006,38.953,39.8988,40.6382,41.2322
0.3993,22.3585,31.074,35.7252,38.6212,40.599,42.036,43.1275,43.9848,44.676
0.396005,24.5206,35.287,41.3115,45.1572,47.8236,49.7807,51.2779,52.4602,53.4174
