1.33793,1.37986,1.39443,1.40183,1.4063,1.40931,1.41146,1.41307,1.41434,1.41535
0.990051,1.43398,1.675,1.82626,1.93,2.00558,2.0631,2.10833,2.14483,2.17491
1.10614,2.12155,2.68593,3.02194,3.24012,3.39179,3.50282,3.58738,3.65382,3.70735
0.797382,1.92295,2.5286,2.86728,3.07821,3.22104,3.32384,3.40127,3.46163,3.51
0.772009,2.37198,3.25877,3.7536,4.06334,4.27462,4.42779,4.54388,4.6349,4.70817
0.718529,2.3487,3.05678,3.39881,3.5968,3.72541,3.81557,3.88224,3.93353,3.9742
0.710054,2.88103,3.97374,4.57445,4.95623,5.22133,5.41651,5.56637,5.68512,5.78158
0.699631,3.26211,4.48489,5.1212,5.50749,5.76592,5.95057,6.08892,6.19635,6.28216
0.677347,3.61826,4.9919,5.7025,6.13482,6.42542,6.63419,6.79146,6.9142,7.01268
0.63537,3.45712,4.56751,5.10259,5.41678,5.62344,5.76971,5.87869,5.96304,6.03025
0.628282,4.2619,6.06043,7.07296,7.72782,8.18749,8.52838,8.79143,9.00064,9.17104
0.671696,4.96323,6.87084,7.83849,8.4161,8.7977,9.06775,9.26858,9.42362,9.54684
0.60834,5.00163,6.94623,7.94824,8.55918,8.97112,9.26796,9.49218,9.6676,9.80862
0.917637,8.2794,11.4724,13.111,14.1078,14.7782,15.2601,15.6231,15.9064,16.1336
0.580877,5.68795,7.86087,8.97541,9.65391,10.1105,10.4388,10.6863,10.8795,11.0345
0.563216,5.66079,7.65443,8.64756,9.24283,9.63953,9.92283,10.1353,10.3005,10.4327
0.559051,6.46213,9.09443,10.521,11.4205,12.0404,12.494,12.8403,13.1134,13.3343
0.585763,7.48304,10.5379,12.1395,13.119,13.7779,14.2508,14.6062,14.8831,15.1048
0.544653,7.01023,9.52525,10.7641,11.499,11.9853,12.3309,12.5892,12.7895,12.9495
0.575415,7.69942,10.4746,11.894,12.7621,13.3495,13.7739,14.0951,14.3467,14.5492
0.547733,8.29185,11.712,13.5827,14.7665,15.5834,16.1811,16.6374,16.997,17.2878
0.583078,9.63792,13.6061,15.6971,16.9783,17.841,18.4605,18.9265,19.2896,19.5804
0.540951,8.73718,11.8363,13.3646,14.2727,14.8744,15.3024,15.6226,15.8712,16.0698
0.527755,9.09984,12.5589,14.3806,15.5134,16.2881,16.8521,17.2813,17.6189,17.8916
0.529036,9.54394,13.1527,15.0282,16.1763,16.9506,17.5077,17.9275,18.2552,18.5179
0.520283,9.76857,13.4451,15.3522,16.5192,17.3068,17.8743,18.3025,18.6372,18.906
0.526936,10.1305,13.8655,15.7915,16.9672,17.7596,18.33,18.7603,19.0964,19.3662
0.515978,10.2418,14.0387,16.0133,17.2253,18.0454,18.6373,19.0846,19.4346,19.7159
0.66128,13.9023,19.2538,22.0778,23.8231,25.0083,25.8658,26.5149,27.0232,27.4322
0.534741,11.8955,16.5332,18.9665,20.4618,21.4728,22.2018,22.7522,23.1824,23.5279
0.551336,12.5567,17.2854,19.7223,21.2066,22.2055,22.9236,23.4647,23.8871,24.226
0.511064,12.1307,16.7434,19.1462,20.6221,21.6212,22.3428,22.8883,23.3153,23.6587
0.535104,13.18,18.2061,20.8299,22.4422,23.5335,24.3211,24.9163,25.382,25.7562
0.505905,12.4588,16.9864,19.3052,20.7149,21.6625,22.3433,22.856,23.256,23.5768
0.5132,13.0226,17.8499,20.3687,21.9189,22.9699,23.7297,24.3046,24.7549,25.1171
0.505678,13.1944,18.1299,20.7123,22.301,23.3768,24.1534,24.7403,25.1995,25.5685
0.497826,13.2066,18.0812,20.6097,22.1564,23.1997,23.951,24.5178,24.9605,25.316
0.50146,13.0275,17.6083,19.9539,21.3813,22.3417,23.0323,23.5529,23.9594,24.2856
0.502279,13.7064,18.9116,21.6962,23.435,24.625,25.4908,26.1492,26.6668,27.0843
0.506,13.3412,17.9815,20.3379,21.7594,22.709,23.3876,23.8967,24.2926,24.6092
0.508354,13.8816,19.024,21.7504,23.4447,24.6013,25.4416,26.08,26.5815,26.9861
0.501042,13.8846,18.9823,21.6386,23.2647,24.3614,25.1506,25.7455,26.2099,26.5824
0.549646,16.0834,22.3309,25.6641,27.7355,29.1477,30.1722,30.9495,31.5594,32.0509
0.514538,15.3679,21.2269,24.2921,26.1723,27.4422,28.3572,29.0477,29.5872,30.0203
0.505851,15.6868,21.6925,24.8275,26.7504,28.05,28.9871,29.6948,30.2482,30.6928
0.497102,13.3619,17.37,19.2766,20.3907,21.1216,21.6379,22.022,22.3191,22.5556
0.512994,15.0253,20.6934,23.8291,25.8433,27.2518,28.2937,29.0964,29.734,30.2528
0.48995,15.1655,21.084,24.2543,26.2151,27.5421,28.4977,29.2176,29.779,30.2288
0.487847,15.7348,21.9045,25.1623,27.1656,28.5205,29.4977,30.2359,30.8131,31.277
0.496902,16.7165,23.2414,26.648,28.734,30.1421,31.1566,31.9223,32.5207,33.0012
0.49288,16.8503,23.2173,26.5004,28.5026,29.8516,30.8224,31.5547,32.1267,32.5859
0.487639,16.8446,23.0905,26.3164,28.29,29.623,30.5841,31.31,31.8776,32.3337
0.498165,17.52,24.0946,27.544,29.6741,31.1214,32.1691,32.9627,33.5846,34.0852
0.484276,17.3162,23.7764,27.1434,29.2089,30.6046,31.6107,32.3701,32.9636,33.4402
0.500002,18.0528,24.6897,28.1248,30.2243,31.6402,32.6596,33.4286,34.0294,34.5117
0.483763,17.9575,24.7666,28.3657,30.5955,32.1134,33.2138,34.0481,34.7026,35.2297
0.490739,18.6974,25.7875,29.4972,31.7746,33.3136,34.4228,35.26,35.9142,36.4394
0.484263,18.6421,25.5543,29.1271,31.3074,32.7764,33.8332,34.6301,35.2524,35.7519
0.486671,18.8823,25.86,29.4932,31.7253,33.2368,34.3285,35.1541,35.8005,36.3202
0.501951,19.9367,27.4002,31.3059,33.7088,35.3362,36.5113,37.3995,38.0944,38.653
0.482441,19.2332,26.2714,29.9074,32.1262,33.6209,34.696,35.5064,36.1392,36.6469
0.478813,19.1557,26.1736,29.8342,32.0857,33.6113,34.7138,35.5479,36.201,36.7262
0.491503,19.9139,27.2319,31.0448,33.384,34.9651,36.1051,36.9659,37.6388,38.1792
0.484808,20.0504,27.5306,31.4512,33.8645,35.4995,36.6804,37.5734,38.2723,38.8341
0.644488,27.3764,37.7024,43.1091,46.4315,48.6791,50.3006,51.5256,52.4835,53.2531
0.481357,20.57,28.1631,32.0916,34.4907,36.1076,37.2712,38.1487,38.8341,39.3842
0.500977,22.0728,30.4901,34.9372,37.6908,39.5647,40.9228,41.9524,42.7599,43.4103
0.478339,21.1784,29.0119,33.0591,35.5265,37.1866,38.3796,39.278,39.9789,40.5409
0.486808,21.7822,29.8095,33.9731,36.5234,38.2467,39.4895,40.4282,41.1625,41.7525
0.487044,22.1834,30.4419,34.7556,37.4081,39.2043,40.5014,41.4821,42.2495,42.8664
0.504609,23.3562,32.0704,36.6184,39.4108,41.2995,42.6618,43.6909,44.4957,45.1423
0.468956,21.275,28.9249,32.8745,35.2879,36.9159,38.0884,38.9731,39.6645,40.2198
0.494084,22.6207,30.94,35.3132,38.0151,39.8511,41.1804,42.1873,42.9765,43.6118
0.473422,21.0951,28.5189,32.3357,34.6592,36.2217,37.3442,38.1895,38.8489,39.3777
0.485156,22.5988,31.1856,35.7752,38.6358,40.5907,42.0115,43.091,43.9391,44.6229
0.469682,21.9475,30.0806,34.3122,36.8983,38.6401,39.8923,40.8356,41.5715,42.1617
0.472237,22.7177,31.3616,35.9183,38.7318,40.6424,42.0248,43.0717,43.8921,44.5523
0.462821,22.3955,30.7189,35.034,37.6703,39.4471,40.7257,41.6896,42.4423,43.0463
0.500945,24.6466,33.8671,38.682,41.6418,43.6463,45.0941,46.1889,47.0458,47.7349
0.674567,34.2502,47.3037,54.1542,58.3724,61.2304,63.2945,64.8551,66.0763,67.0579
0.534573,27.3465,37.5976,42.9328,46.2031,48.4126,50.0054,51.2081,52.1483,52.9036
0.474377,23.9177,32.5721,37.0321,39.7546,41.5901,42.9115,43.9084,44.6872,45.3126
0.475052,24.0063,32.7573,37.3223,40.1309,42.0344,43.41,44.4507,45.2655,45.9208
0.489864,25.2177,34.6084,39.5434,42.5861,44.6495,46.1405,47.2682,48.151,48.8607
0.476615,25.2274,34.8094,39.8535,42.962,45.0685,46.5899,47.7401,48.6402,49.3637
0.478404,25.1097,34.2227,38.8938,41.7286,43.6309,44.9957,46.0224,46.8228,47.4643
0.642415,34.9427,48.3154,55.4169,59.8315,62.8447,65.0335,66.696,68.0019,69.0549
0.476141,26.1335,35.9634,41.0914,44.2344,46.3562,47.8842,49.0368,49.937,50.6595
0.476007,26.1497,35.7983,40.7979,43.8559,45.9197,47.4065,48.5288,49.4059,50.1103
0.472204,25.8879,35.3369,40.2381,43.2415,45.2713,46.7352,47.841,48.7059,49.4008
0.478891,26.9239,37.0288,42.3396,45.6157,47.8386,49.4459,50.6621,51.6145,52.3806
0.477326,27.2063,37.362,42.6506,45.8901,48.077,49.6522,50.8406,51.7691,52.5145
0.478243,27.2539,37.2592,42.4422,45.6125,47.7522,49.2937,50.4573,51.3667,52.0971
0.475339,27.4638,37.6855,43.0372,46.3331,48.5677,50.1829,51.405,52.3619,53.1315
0.476894,27.8141,38.1534,43.5501,46.8636,49.1045,50.7208,51.9416,52.8962,53.663
0.477082,28.3232,38.986,44.5825,48.0302,50.3675,52.0564,53.3339,54.334,55.1382
0.474465,27.8181,37.9004,43.0916,46.2537,48.3813,49.9105,51.0626,51.9617,52.6829
0.470784,28.3399,39.0444,44.7044,48.2123,50.6012,52.3335,53.6474,54.6782,55.5086
0.481588,29.5677,40.7194,46.5436,50.1142,52.5249,54.261,55.5706,56.5935,57.4145
0.477209,28.9113,39.3619,44.7209,47.9783,50.1677,51.7404,52.925,53.8493,54.5907
