0.106662,0.144583,0.164021,0.175842,0.183789,0.189498,0.193798,0.197154,0.199845,0.202051
0.0664596,0.121895,0.156621,0.179791,0.19623,0.208466,0.217914,0.225424,0.231535,0.236603
0.0453946,0.106809,0.147133,0.173616,0.191997,0.205411,0.2156,0.22359,0.230017,0.235297
0.0379991,0.111609,0.160669,0.192221,0.213801,0.229405,0.241191,0.2504,0.257791,0.263852
0.0329403,0.116222,0.170575,0.204574,0.227504,0.243964,0.256341,0.265985,0.27371,0.280036
0.0295436,0.122776,0.182404,0.219164,0.243853,0.261554,0.274861,0.285229,0.293534,0.300337
0.0330338,0.158918,0.237973,0.286382,0.318878,0.342186,0.359717,0.373383,0.384334,0.393306
0.0264608,0.142965,0.213294,0.255653,0.283865,0.303998,0.319088,0.330817,0.340197,0.347868
0.069758,0.418439,0.626268,0.752662,0.837668,0.898792,0.944872,0.980859,1.00974,1.03344
0.0237407,0.158964,0.239208,0.28798,0.320699,0.344156,0.361791,0.37553,0.386534,0.395546
0.023349,0.171476,0.257675,0.309674,0.344406,0.36924,0.387878,0.402382,0.413989,0.423488
0.0216241,0.170699,0.255017,0.305504,0.339123,0.363122,0.381117,0.39511,0.406304,0.415463
0.0197378,0.165704,0.246207,0.294169,0.326027,0.348733,0.365737,0.378948,0.389508,0.398143
0.0217058,0.203298,0.308583,0.373273,0.417027,0.448585,0.472419,0.491054,0.506022,0.51831
0.0188348,0.191413,0.290332,0.350249,0.390315,0.418966,0.440464,0.457187,0.470564,0.481509
0.0406438,0.445758,0.676797,0.816843,0.910734,0.978064,1.02871,1.0682,1.09985,1.12579
0.0186353,0.217223,0.328043,0.394605,0.438997,0.470716,0.494512,0.513024,0.527836,0.539956
0.0183597,0.226626,0.341809,0.411197,0.457619,0.49087,0.515863,0.535337,0.550939,0.563719
0.0188308,0.240605,0.360317,0.432155,0.480135,0.514466,0.540252,0.560332,0.576411,0.589578
0.0654293,0.879807,1.3228,1.59109,1.77117,1.90041,1.99768,2.07353,2.13434,2.18417
0.0185772,0.255313,0.37906,0.452362,0.50083,0.53525,0.560952,0.580876,0.596772,0.60975
0.019693,0.285743,0.429626,0.517313,0.576444,0.619039,0.651191,0.676325,0.696515,0.713089
0.0176589,0.266047,0.399796,0.480878,0.535253,0.574235,0.603544,0.62638,0.644672,0.659654
0.0374807,0.596813,0.902483,1.08858,1.21363,1.3034,1.37096,1.42364,1.46587,1.50048
0.017174,0.286889,0.433499,0.522075,0.581284,0.623637,0.655431,0.680176,0.69998,0.71619
0.0168004,0.299908,0.457006,0.552812,0.617261,0.663574,0.69846,0.725684,0.747519,0.765422
0.0166266,0.306509,0.462156,0.55523,0.617099,0.661197,0.69422,0.719873,0.740377,0.75714
0.0363552,0.697931,1.05353,1.26806,1.41176,1.5148,1.59231,1.65275,1.7012,1.7409
0.0168055,0.33257,0.500201,0.600922,0.66817,0.716258,0.752354,0.780444,0.802927,0.821329
0.0162051,0.333902,0.504359,0.607774,0.677249,0.727144,0.764716,0.79403,0.817538,0.836811
0.0160665,0.340324,0.512417,0.616204,0.685615,0.735298,0.772614,0.801669,0.824932,0.843978
0.0160846,0.343012,0.511754,0.612568,0.679671,0.727566,0.763475,0.791398,0.813734,0.832008
0.015972,0.356811,0.538845,0.649896,0.724746,0.778618,0.819248,0.850983,0.876455,0.897352
0.0156642,0.365657,0.554404,0.669273,0.746405,0.801734,0.843348,0.875778,0.90176,0.923043
0.0582608,1.36034,2.04025,2.44993,2.72412,2.9206,3.06836,3.18354,3.27586,3.35151
0.0165972,0.39899,0.598514,0.718321,0.798188,0.855216,0.89797,0.931208,0.957788,0.979527
0.0165859,0.407259,0.611429,0.734745,0.817365,0.876601,0.921157,0.955891,0.98373,1.00654
0.0158543,0.397922,0.597255,0.717475,0.797877,0.855427,0.898652,0.932307,0.959253,0.981313
0.0158361,0.403812,0.604868,0.725862,0.806693,0.864516,0.907932,0.941729,0.968786,0.990937
0.0156365,0.398368,0.59059,0.704402,0.77966,0.833116,0.873046,0.904006,0.928715,0.948891
0.014604,0.394361,0.598037,0.723435,0.808458,0.869913,0.916411,0.95282,0.982104,1.00617
0.0276735,0.792446,1.21221,1.46965,1.64303,1.76757,1.8613,1.93437,1.99292,2.04089
0.0146292,0.35695,0.495467,0.567895,0.612321,0.642341,0.663983,0.680325,0.693103,0.703367
0.0144782,0.397238,0.599081,0.727249,0.816886,0.883359,0.934705,0.975596,1.00894,1.03667
0.014361,0.423176,0.648686,0.789,0.884015,0.952338,1.00372,1.04371,1.07569,1.10185
0.0144059,0.43497,0.657827,0.791056,0.879189,0.941726,0.988392,1.02455,1.05338,1.07692
0.0144409,0.458902,0.698949,0.844421,0.94195,1.01192,1.06459,1.10567,1.13862,1.16563
0.0142467,0.466017,0.706273,0.850698,0.94708,1.01598,1.06769,1.10793,1.14014,1.1665
0.0278125,0.906469,1.35924,1.63045,1.81156,1.9412,2.03862,2.11453,2.17534,2.22515
0.0155108,0.517466,0.778355,0.935832,1.04133,1.11694,1.1738,1.21809,1.25358,1.28265
0.0152454,0.512201,0.766121,0.918031,1.01914,1.09128,1.14534,1.18735,1.22094,1.24841
0.0272815,0.945209,1.42686,1.72016,1.91765,2.05971,2.16681,2.25044,2.31757,2.37263
0.0151095,0.531054,0.797024,0.956298,1.0622,1.13767,1.19416,1.23802,1.27306,1.30169
0.0140132,0.492602,0.732917,0.875286,0.969486,1.03644,1.08649,1.12533,1.15633,1.18166
0.021268,0.787417,1.19358,1.44187,1.60942,1.73012,1.82121,1.89239,1.94956,1.99648
0.0140958,0.537995,0.814734,0.981907,1.09359,1.17342,1.2333,1.27987,1.31712,1.3476
0.0140029,0.548189,0.82991,1.00018,1.1142,1.19589,1.25732,1.30518,1.34354,1.37496
0.0138486,0.553865,0.836869,1.00748,1.12156,1.20323,1.26458,1.31236,1.35062,1.38195
0.0151995,0.603191,0.898953,1.07404,1.18988,1.27222,1.33376,1.3815,1.41962,1.45076
0.0138514,0.56169,0.843278,1.01333,1.12737,1.2092,1.27079,1.31883,1.35735,1.38892
0.014587,0.599037,0.898842,1.07934,1.19992,1.28615,1.35086,1.40122,1.44151,1.47449
0.0149586,0.615303,0.922211,1.10767,1.23199,1.32117,1.38826,1.44058,1.48252,1.5169
0.0144011,0.598974,0.898715,1.07982,1.20107,1.28791,1.35316,1.40398,1.44467,1.478
0.0145477,0.618531,0.933575,1.12545,1.25453,1.3473,1.41719,1.47172,1.51547,1.55134
0.0239962,0.92479,1.39336,1.69575,1.90934,2.06878,2.19253,2.29143,2.37232,2.43973
0.0136813,0.565768,0.86835,1.05774,1.18609,1.27832,1.34761,1.40148,1.44454,1.47971
0.0136094,0.598062,0.921551,1.11967,1.25234,1.34722,1.4184,1.47377,1.51808,1.55434
0.0224147,1.03704,1.59531,1.9334,2.15928,2.32086,2.44219,2.53665,2.6123,2.67425
0.0136913,0.645342,0.980735,1.18119,1.31458,1.40983,1.48127,1.53685,1.58133,1.61773
0.0134865,0.648142,0.982412,1.18381,1.31879,1.41566,1.48857,1.54546,1.59107,1.62847
0.0132865,0.654802,0.991972,1.19529,1.33138,1.42885,1.5021,1.55915,1.60484,1.64225
0.0133193,0.641623,0.955352,1.1412,1.2644,1.35211,1.41774,1.46872,1.50945,1.54275
0.0135338,0.669191,1.00885,1.21576,1.35532,1.45585,1.53173,1.59104,1.63867,1.67777
0.0140725,0.701373,1.05424,1.26701,1.40921,1.51089,1.58719,1.64656,1.69405,1.73291
0.0142539,0.721719,1.08567,1.305,1.45155,1.55638,1.63507,1.69633,1.74536,1.7855
0.0141084,0.719866,1.08034,1.2969,1.4414,1.54468,1.62219,1.68249,1.73076,1.77025
0.0140121,0.72124,1.08419,1.30376,1.45103,1.55669,1.6362,1.69821,1.74792,1.78867
0.0132813,0.689721,1.03532,1.24333,1.38222,1.48151,1.55601,1.61397,1.66034,1.69829
0.0132422,0.712449,1.07973,1.3033,1.45356,1.56147,1.6427,1.70606,1.75686,1.7985
0.0129903,0.717066,1.08746,1.31184,1.46212,1.56975,1.65063,1.71362,1.76407,1.80538
0.0131979,0.741138,1.12074,1.3495,1.50237,1.61174,1.69387,1.75782,1.80902,1.85093
0.0131817,0.747513,1.12556,1.35244,1.50377,1.61194,1.69311,1.75628,1.80683,1.84821
0.0182644,1.05432,1.59102,1.91531,2.13264,2.28847,2.40568,2.49704,2.57026,2.63025
0.0141026,0.815756,1.22503,1.4709,1.63503,1.75238,1.84047,1.90902,1.96388,2.00879
0.0138473,0.790392,1.18269,1.41967,1.57872,1.69293,1.77895,1.84608,1.89993,1.94409
0.0199614,1.16279,1.75364,2.11366,2.35594,2.53004,2.66116,2.76345,2.84548,2.91271
0.0140256,0.81621,1.22296,1.46696,1.62942,1.74531,1.83213,1.8996,1.95354,1.99764
0.0141739,0.835768,1.25844,1.51493,1.68724,1.811,1.90422,1.97696,2.03532,2.08317
0.0177166,1.07797,1.63753,1.97995,2.21081,2.37693,2.50217,2.59995,2.67841,2.74275
0.0130677,0.816564,1.24073,1.49807,1.67046,1.79392,1.88668,1.95891,2.01674,2.0641
0.0128427,0.815863,1.23475,1.48698,1.6554,1.77583,1.86623,1.93659,1.99291,2.03902
0.0198648,1.28374,1.94173,2.33887,2.60476,2.7953,2.93856,3.0502,3.13966,3.21296
0.0130756,0.841915,1.26309,1.51511,1.68302,1.80294,1.89288,1.96283,2.0188,2.0646
0.0128776,0.839882,1.26527,1.52296,1.69604,1.82034,1.91394,1.98698,2.04556,2.09359
0.014084,0.935974,1.41488,1.70567,1.90092,2.04102,2.14643,2.22861,2.29447,2.34843
0.0139565,0.913481,1.36828,1.64177,1.82452,1.9553,2.05355,2.13006,2.19134,2.24152
0.0135489,0.887814,1.33151,1.59984,1.77977,1.90885,2.00596,2.08168,2.14238,2.19211
0.0139723,0.898426,1.33481,1.5948,1.76741,1.89035,1.98235,2.05379,2.11087,2.15751
0.0138331,0.892742,1.33364,1.59979,1.77807,1.90587,2.00198,2.07689,2.13692,2.1861
0.013694,0.904859,1.3662,1.64811,1.83806,1.9747,2.07767,2.15806,2.22254,2.27542
