0.986105,1.06974,1.10086,1.11711,1.12709,1.13385,1.13872,1.14241,1.14529,1.1476
0.651861,0.984392,1.16602,1.28005,1.35824,1.41516,1.45846,1.4925,1.51995,1.54257
0.478864,0.920449,1.16003,1.30117,1.39242,1.45574,1.50207,1.53735,1.56508,1.58744
0.405301,0.957861,1.25197,1.41833,1.5233,1.59515,1.64731,1.68687,1.71789,1.74285
0.376391,1.0623,1.41698,1.61199,1.73354,1.81631,1.87625,1.92164,1.95721,1.98583
0.373853,1.26391,1.72649,1.98064,2.13971,2.24845,2.32746,2.38745,2.43455,2.47251
0.515539,2.02626,2.78675,3.19533,3.44811,3.61965,3.74362,3.83738,3.91076,3.96974
0.299173,1.31217,1.79153,2.04271,2.19658,2.30048,2.37534,2.43186,2.47603,2.51151
0.324016,1.59971,2.20015,2.51918,2.71701,2.85176,2.94948,3.02361,3.08177,3.12862
0.364687,2.01472,2.78362,3.19156,3.44394,3.6154,3.73945,3.83336,3.90691,3.96607
0.277107,1.65555,2.26911,2.58918,2.78543,2.91803,3.01362,3.0858,3.14223,3.18755
0.267013,1.72177,2.35749,2.69052,2.89565,3.03477,3.13535,3.21147,3.27109,3.31904
0.264995,1.90793,2.65734,3.06096,3.31339,3.48619,3.61192,3.7075,3.78261,3.84319
0.256529,2.00105,2.77691,3.18592,3.43768,3.60804,3.73091,3.8237,3.89623,3.95448
0.259906,2.15943,2.97972,3.40869,3.67229,3.85072,3.97955,4.07694,4.15316,4.21444
0.247769,2.15149,2.94466,3.35672,3.60942,3.78032,3.90362,3.9968,4.06969,4.12827
0.241419,2.28295,3.17181,3.64815,3.94563,4.14917,4.29724,4.4098,4.49827,4.56962
0.236756,2.3576,3.25611,3.72812,4.01849,4.21497,4.3567,4.46373,4.54741,4.61462
0.235096,2.43075,3.33267,3.80217,4.09012,4.2848,4.42523,4.53132,4.61431,4.681
0.290044,3.22951,4.48583,5.15758,5.57636,5.86258,6.07062,6.22869,6.35286,6.45298
0.234764,2.71492,3.7422,4.28039,4.6111,4.83476,4.99605,5.11784,5.21305,5.28952
0.235394,2.81076,3.85732,4.40475,4.74163,4.96994,5.13491,5.25972,5.35744,5.43603
0.276303,3.48147,4.81079,5.51618,5.95382,6.25193,6.46807,6.63198,6.76055,6.86409
0.227207,3.04136,4.23425,4.87211,5.26896,5.53959,5.73593,5.88486,6.00169,6.0958
0.207864,2.82945,3.88093,4.4256,4.75803,4.9819,5.14288,5.26419,5.35888,5.43484
0.248197,3.54753,4.89938,5.6143,6.05738,6.35915,6.57801,6.74403,6.87431,6.97928
0.201595,2.97525,4.10411,4.69986,5.06812,5.31828,5.4993,5.63634,5.74369,5.83006
0.202919,3.03088,4.14337,4.72214,5.07694,5.31668,5.48951,5.62002,5.72204,5.804
0.202649,3.1462,4.33226,4.96114,5.35143,5.6174,5.81034,5.95672,6.07158,6.16412
0.189905,2.99256,4.09365,4.66851,5.02134,5.25983,5.43178,5.5616,5.66307,5.74457
0.225349,3.87229,5.44363,6.30344,6.84629,7.22029,7.49369,7.70227,7.86667,7.99957
0.239869,4.23793,5.876,6.73164,7.25454,7.60649,7.8593,8.0496,8.19798,8.3169
0.237479,4.19075,5.72079,6.50694,6.98584,7.30841,7.54058,7.71573,7.85259,7.9625
0.235647,4.42077,6.15718,7.09394,7.68228,8.08666,8.38184,8.60686,8.78409,8.92731
0.225917,4.35072,6.01822,6.8944,7.43311,7.79733,8.05983,8.25792,8.41267,8.53688
0.228775,4.44584,6.09196,6.94597,7.46865,7.82154,8.07587,8.26788,8.418,8.5386
0.207921,4.22512,5.86166,6.73727,7.28389,7.65794,7.93011,8.13707,8.29976,8.43103
0.227157,4.4704,6.04445,6.84621,7.33128,7.65607,7.88866,8.06337,8.1994,8.30831
0.226172,4.64326,6.39572,7.3339,7.92071,8.32302,8.61622,8.83949,9.01522,9.15714
0.183442,3.99912,5.58994,6.44991,6.98757,7.35511,7.62208,7.82472,7.98374,8.11185
0.225769,5.12357,7.14745,8.21985,8.88135,9.32955,9.65314,9.89768,10.089,10.2427
0.233378,5.31223,7.29799,8.3233,8.94841,9.36938,9.67221,9.90053,10.0788,10.222
0.181985,4.22996,5.82366,6.66163,7.17987,7.53248,7.78805,7.98186,8.1339,8.25637
0.228454,5.48055,7.58056,8.6934,9.38317,9.85257,10.1926,10.4503,10.6523,10.8149
0.186672,4.48744,6.15423,7.02393,7.55778,7.91875,8.17907,8.37568,8.52942,8.65292
0.234667,5.78704,7.97697,9.13536,9.85295,10.3413,10.6953,10.9636,11.174,11.3435
0.223881,5.69715,7.88118,9.0373,9.7524,10.2382,10.5897,10.8558,11.0642,11.2319
0.220992,5.77727,8.00401,9.18312,9.9127,10.4086,10.7676,11.0395,11.2525,11.424
0.26179,7.1152,9.89338,11.3653,12.2759,12.8945,13.3422,13.6812,13.9467,14.1603
0.210641,5.69206,7.80233,8.89423,9.56119,10.0108,10.3345,10.5786,10.7693,10.9224
0.243389,6.90602,9.61293,11.0637,11.9701,12.5907,13.0425,13.3861,13.6563,13.8743
0.195266,5.54498,7.63265,8.72296,9.39187,9.84379,10.1694,10.4152,10.6072,10.7613
0.169498,4.88062,6.71404,7.6761,8.26926,8.67175,8.96283,9.18318,9.35579,9.49468
0.227852,6.85329,9.53123,10.9613,11.8513,12.4586,12.8994,13.2339,13.4964,13.708
0.200652,5.7259,7.72329,8.73448,9.34439,9.75212,10.0438,10.2628,10.4333,10.5698
0.224336,6.64393,9.15075,10.4944,11.336,11.9137,12.3352,12.6563,12.9093,13.1136
0.197752,6.1445,8.57626,9.88924,10.7097,11.2703,11.6773,11.9862,12.2285,12.4237
0.207086,6.82195,9.6066,11.1046,12.0365,12.6713,13.1314,13.48,13.7533,13.9733
0.169165,5.41137,7.38743,8.38926,8.99272,9.39572,9.68386,9.90011,10.0684,10.2031
0.161963,5.28107,7.27263,8.3254,8.97997,9.42733,9.75275,10.0002,10.1949,10.3519
0.21951,7.39469,10.2603,11.7877,12.7373,13.3845,13.8537,14.2094,14.4884,14.7129
0.197693,6.57668,9.01282,10.2814,11.059,11.5841,11.9624,12.248,12.4712,12.6504
0.170931,5.95024,8.28368,9.53729,10.3208,10.8572,11.2475,11.5444,11.7778,11.9661
0.194394,6.90306,9.56592,10.9665,11.8279,12.4106,12.8308,13.1481,13.3961,13.5952
0.170979,6.15676,8.51038,9.74724,10.5098,11.0272,11.4013,11.6845,11.9064,12.0848
0.17795,6.51669,9.01221,10.329,11.1433,11.6968,12.0975,12.401,12.6389,12.8304
0.150521,5.68957,7.90497,9.08005,9.80805,10.3033,10.6619,10.9336,11.1466,11.318
0.198171,7.87147,11.0412,12.7397,13.7972,14.5188,15.0425,15.4398,15.7517,16.0029
0.213142,8.30592,11.3903,12.9733,13.9347,14.58,15.0431,15.3915,15.6631,15.8808
0.158681,6.24702,8.59752,9.835,10.6016,11.1239,11.5028,11.7905,12.0163,12.1984
0.200247,8.39858,11.8025,13.6507,14.812,15.6091,16.1899,16.632,16.9797,17.2602
0.166905,6.33024,8.45515,9.50841,10.1356,10.5513,10.8469,11.0678,11.2391,11.3759
0.173695,6.98265,9.70081,11.195,12.1476,12.8098,13.2975,13.6719,13.9684,14.2092
0.206732,8.57882,11.9539,13.7618,14.8829,15.644,16.1938,16.6092,16.9339,17.1946
0.211023,8.79566,12.1532,13.913,14.9931,15.7232,16.2496,16.6472,16.9581,17.2079
0.445949,18.4678,25.3107,28.8681,31.0489,32.5233,33.5871,34.3909,35.0197,35.5251
0.210382,8.7873,12.0804,13.8165,14.8909,15.6218,16.1515,16.553,16.8678,17.1213
0.224508,9.66968,13.4094,15.4026,16.6411,17.4851,18.0971,18.5611,18.9249,19.2179
0.17988,7.63619,10.4544,11.9175,12.8121,13.4153,13.8494,14.1768,14.4325,14.6377
0.207222,9.16212,12.7392,14.6574,15.8553,16.675,17.2715,17.7251,18.0816,18.3693
0.16235,7.50083,10.5142,12.1314,13.138,13.8243,14.3219,14.6992,14.995,15.2332
0.20434,9.85163,13.82,15.9235,17.2221,18.1027,18.7389,19.2201,19.5966,19.8993
0.170156,8.44061,11.8175,13.6037,14.7084,15.4593,16.003,16.415,16.738,16.9979
0.187172,9.26073,12.7856,14.6116,15.7284,16.4821,17.0251,17.4349,17.7551,18.0122
0.153201,7.72988,10.7197,12.3022,13.2848,13.955,14.4416,14.8109,15.101,15.3347
0.192175,9.41459,12.844,14.6157,15.6984,16.4285,16.9541,17.3505,17.6602,17.9087
0.244524,12.3575,17.1062,19.6446,21.2287,22.3123,23.1005,23.6997,24.1706,24.5506
0.208545,10.8861,15.1874,17.4944,18.9312,19.9113,20.6223,21.1614,21.5843,21.9249
0.205728,9.7503,13.0077,14.6258,15.5911,16.2319,16.6883,17.0297,17.2947,17.5065
0.213322,10.7014,14.8292,17.0861,18.5192,19.5124,20.2423,20.8016,21.244,21.6028
0.20833,10.6284,14.7191,16.893,18.2358,19.1454,19.8014,20.2966,20.6835,20.9939
0.196463,10.5504,14.8032,17.0922,18.5188,19.4927,20.1999,20.7367,21.1581,21.4978
0.195922,10.1481,13.8537,15.745,16.889,17.655,18.2037,18.616,18.9371,19.1943
0.187917,9.69749,13.2709,15.1447,16.3034,17.0922,17.6643,18.0985,18.4392,18.7139
0.190249,10.1051,13.9935,16.0719,17.3668,18.2509,18.8929,19.3801,19.7625,20.0706
0.196529,10.5244,14.538,16.655,17.9605,18.8452,19.4842,19.9672,20.3451,20.6489
0.205822,10.9051,14.9286,17.0186,18.298,19.1617,19.7841,20.2538,20.621,20.9159
0.186925,10.032,13.8225,15.8303,17.0758,17.9246,18.5403,19.0075,19.3741,19.6695
0.202211,10.9413,15.0752,17.2542,18.599,19.5113,20.1706,20.6693,21.0597,21.3735
0.200201,11.0294,15.2635,17.5095,18.9012,19.848,20.534,21.0538,21.4613,21.7894
