1.84081,1.85057,1.85384,1.85548,1.85647,1.85713,1.8576,1.85795,1.85823,1.85845
1.43534,1.98234,2.26854,2.44455,2.56373,2.64978,2.71483,2.76573,2.80664,2.84024
1.22357,2.06852,2.47408,2.69885,2.83904,2.93405,3.00241,3.05384,3.09388,3.1259
1.09933,2.23101,2.7606,3.0455,3.22085,3.33916,3.42424,3.48833,3.53834,3.57844
0.997302,2.41254,3.07124,3.42109,3.63545,3.77986,3.88366,3.96184,4.02283,4.07174
0.964955,2.76535,3.60107,4.04025,4.30814,4.48817,4.61737,4.71458,4.79035,4.85106
0.937257,3.14972,4.16687,4.69497,5.01538,5.23008,5.38388,5.49943,5.58942,5.66148
0.966462,3.93104,5.36088,6.11808,6.58346,6.89803,7.12479,7.29597,7.42977,7.53723
0.916986,4.09113,5.44567,6.11033,6.50105,6.75757,6.9387,7.07335,7.17734,7.26006
0.931694,4.35521,5.67434,6.31206,6.68857,6.93754,7.11458,7.24699,7.34981,7.43197
0.930986,4.80675,6.36132,7.1526,7.63478,7.96003,8.19441,8.3714,8.5098,8.621
0.934568,5.3463,7.14832,8.06952,8.62824,9.00286,9.27131,9.47304,9.63014,9.75593
0.913169,5.61608,7.47098,8.39892,8.95406,9.32307,9.586,9.78281,9.93564,10.0577
0.855932,5.89565,7.97499,9.04341,9.69378,10.1314,10.4461,10.6833,10.8685,11.0172
0.856802,6.7766,9.34881,10.686,11.5021,12.0513,12.4459,12.743,12.9747,13.1605
0.866218,6.92929,9.17929,10.2525,10.8766,11.284,11.5706,11.7831,11.947,12.0771
0.897158,7.29009,9.55397,10.658,11.3161,11.7545,12.0678,12.3031,12.4864,12.6332
0.899433,7.46971,9.77867,10.9267,11.6172,12.0789,12.4094,12.6577,12.8511,13.0059
0.822344,7.05026,9.26314,10.3763,11.0478,11.4971,11.8188,12.0604,12.2486,12.3993
0.792699,7.33761,9.82006,11.1008,11.8824,12.4088,12.7874,13.0727,13.2955,13.4742
0.8545,8.20803,10.9076,12.2567,13.0623,13.5969,13.9772,14.2616,14.4821,14.6582
0.876835,8.87949,11.8467,13.3417,14.2419,14.8436,15.2743,15.5978,15.8498,16.0517
0.876158,9.68916,13.1349,14.907,15.9856,16.7111,17.2325,17.6253,17.9317,18.1775
0.859309,9.62238,12.7659,14.3022,15.209,15.8065,16.2298,16.5452,16.7892,16.9836
0.833508,10.3791,14.1626,16.129,17.3378,18.1574,18.7502,19.1991,19.5508,19.834
0.801848,10.176,13.5855,15.256,16.2425,16.8923,17.3521,17.6944,17.9591,18.1697
0.860154,12.2707,16.888,19.2984,20.783,21.7907,22.5201,23.0728,23.5061,23.855
0.860295,12.3458,16.4804,18.4829,19.6573,20.4274,20.9706,21.3741,21.6855,21.933
0.844707,12.0709,15.9038,17.7723,18.8834,19.6216,20.1482,20.543,20.85,21.0958
0.855393,13.1725,17.7748,20.1511,21.6094,22.597,23.3105,23.8501,24.2725,24.6122
0.887283,13.5404,17.8863,20.0131,21.2703,22.099,22.6858,23.1229,23.4609,23.7301
0.886947,14.9697,20.4319,23.2922,25.0576,26.2574,27.1265,27.7853,28.3021,28.7183
0.799951,12.3131,15.9001,17.5759,18.5405,19.1658,19.6034,19.9266,20.175,20.3717
0.80333,12.6675,16.6828,18.7226,19.9687,20.812,21.4217,21.8834,22.2454,22.537
0.869863,14.1631,18.8329,21.2157,22.6608,23.6296,24.3238,24.8453,25.2514,25.5765
0.880591,14.9022,19.9367,22.4958,24.0405,25.0731,25.8117,26.3661,26.7975,27.1428
0.873667,15.0385,20.0097,22.4901,23.9726,24.9578,25.6599,26.1856,26.5939,26.9201
0.823334,14.2313,18.8234,21.1025,22.4649,23.3715,24.0184,24.5033,24.8803,25.1818
0.80644,14.2203,18.8761,21.2173,22.6286,23.5727,24.2489,24.7571,25.153,25.4701
0.772345,13.8717,18.4267,20.7142,22.0897,23.0078,23.6639,24.1562,24.5392,24.8456
0.80174,15.9776,21.9266,25.0636,27.001,28.3163,29.2677,29.9879,30.552,31.0058
0.835648,17.8991,24.5551,27.936,29.9645,31.3127,32.2723,32.9897,33.5461,33.9901
0.800833,16.4476,21.6709,24.1469,25.5863,26.5272,27.1903,27.683,28.0634,28.3661
0.771863,15.7551,20.7343,23.193,24.6703,25.6592,26.3686,26.9026,27.3194,27.6537
0.856869,19.3232,26.3973,30.1362,32.4577,34.0402,35.188,36.0586,36.7414,37.2914
0.819143,18.0221,23.8641,26.7005,28.3634,29.4525,30.2198,30.7891,31.228,31.5766
0.798554,18.7795,25.4101,28.8176,30.9001,32.3074,33.3232,34.0914,34.693,35.1769
0.786339,20.2206,27.8295,31.7702,34.1724,35.7875,36.9471,37.8195,38.4996,39.0445
0.797386,20.2991,27.1019,30.3912,32.3187,33.5828,34.475,35.1383,35.6506,36.0581
0.817162,19.6136,25.5244,28.3519,30.0173,31.1175,31.8992,32.4837,32.9374,33.2999
0.773697,17.981,23.4016,26.0896,27.7082,28.7922,29.5694,30.1543,30.6103,30.9759
0.807161,20.1687,27.1854,30.8842,33.1755,34.7345,35.8637,36.7192,37.3897,37.9293
0.790965,19.6976,26.1825,29.4092,31.3261,32.5922,33.4894,34.1579,34.6751,35.0869
0.788111,19.6693,26.0682,29.2556,31.1637,32.4348,33.3427,34.0239,34.554,34.9783
0.814768,22.598,31.0651,35.5442,38.3183,40.2063,41.5745,42.6116,43.4249,44.0798
0.762376,19.9542,26.2217,29.2041,30.9333,32.0583,32.8476,33.4314,33.8805,34.2367
0.825159,23.5482,32.0498,36.4887,39.2336,41.1046,42.4638,43.4969,44.309,44.9644
0.801969,24.6399,33.8207,38.5344,41.3885,43.2973,44.6618,45.6849,46.4801,47.1157
0.781954,25.6991,35.3117,40.1723,43.0918,45.037,46.4253,47.4659,48.2748,48.9217
0.847834,26.1855,34.3904,38.2472,40.4831,41.9422,42.9695,43.732,44.3205,44.7884
0.85657,25.4319,33.1755,36.9612,39.2274,40.7414,41.826,42.6418,43.278,43.7881
0.777155,25.1856,34.2185,39.0054,41.9873,44.0249,45.5056,46.6303,47.5135,48.2255
0.797431,24.782,32.6503,36.4744,38.7174,40.1865,41.2214,41.9891,42.5808,43.0508
0.777369,24.288,32.1772,36.1354,38.5227,40.1224,41.2703,42.1346,42.8092,43.3504
0.764705,24.5079,32.756,36.9475,39.4859,41.1879,42.4083,43.3259,44.0411,44.614
0.80497,26.6288,35.7879,40.4362,43.2422,45.1184,46.4608,47.4687,48.2531,48.881
0.823178,25.5514,33.3283,37.0708,39.2668,40.7099,41.7304,42.4902,43.0779,43.546
0.793202,25.0356,33.1889,37.3379,39.8658,41.5712,42.8007,43.7295,44.4562,45.0403
0.778905,26.7312,36.4903,41.6225,44.7838,46.9244,48.4688,49.6352,50.5471,51.2793
0.843802,29.8738,40.438,45.7362,48.8949,50.9861,52.4711,53.5793,54.4377,55.1221
0.809176,29.898,40.5372,45.8879,49.1034,51.2499,52.7852,53.9382,54.8361,55.5551
0.796493,31.1703,42.5316,48.2917,51.7712,54.1011,55.7703,57.0251,58.0027,58.7859
0.758267,30.0276,40.3925,45.4979,48.5314,50.5405,51.9688,53.0362,53.8641,54.525
0.803811,29.4721,38.322,42.523,44.9824,46.5991,47.7434,48.5963,49.2566,49.7829
0.846506,29.2855,37.9032,42.1408,44.6833,46.3828,47.6003,48.5157,49.2294,49.8014
0.766833,26.2733,34.4527,38.6153,41.1482,42.8525,44.0778,45.0011,45.7217,46.2997
0.760182,27.9427,37.8238,43.0396,46.2585,48.4403,50.0157,51.2064,52.1377,52.886
0.729397,27.6505,37.3477,42.2647,45.2121,47.1701,48.5634,49.6049,50.4127,51.0573
0.735959,28.0646,37.5393,42.2364,45.0322,46.8865,48.2064,49.1942,49.9612,50.574
0.728948,28.855,38.888,43.9605,47.0255,49.0799,50.5534,51.6621,52.5268,53.22
0.778464,31.082,41.5943,46.8231,49.9485,52.0264,53.5075,54.6164,55.4776,56.1658
0.783083,33.3652,45.4432,51.6502,55.4341,57.9834,59.818,61.2017,62.2826,63.1503
0.738685,30.3945,40.219,44.9686,47.7578,49.5901,50.8849,51.8482,52.5925,53.185
0.764727,32.8825,44.2752,50.0872,53.6302,56.0209,57.7446,59.0469,60.0659,60.8851
0.778422,33.6111,44.8971,50.5129,53.8678,56.0957,57.6818,58.8679,59.7882,60.523
0.805126,35.6199,47.793,53.9262,57.6243,60.0985,61.8705,63.2023,64.24,65.0713
0.785719,36.9504,50.3148,57.174,61.3454,64.1491,66.1628,67.6789,68.8616,69.8098
0.760752,36.707,49.6182,56.0628,59.9111,62.4656,64.2838,65.6436,66.6987,67.5413
0.755349,41.4415,58.1189,66.9528,72.423,76.1451,78.8426,80.8878,82.4919,83.7838
0.766453,38.938,51.3287,57.088,60.3856,62.515,64.0014,65.0969,65.9374,66.6024
0.749538,38.0539,50.4396,56.5903,60.3055,62.8034,64.6017,65.9598,67.0222,67.8764
0.77292,40.8558,55.0292,62.2958,66.7311,69.7208,71.872,73.4937,74.7597,75.7754
0.75261,39.7793,53.1211,59.7656,63.733,66.3658,68.2389,69.6392,70.7254,71.5923
0.768,38.9205,51.1242,57.0878,60.6252,62.9678,64.6339,65.88,66.8471,67.6196
0.798922,40.7983,54.1615,60.9283,65.0331,67.7922,69.7754,71.27,72.4369,73.3734
0.779064,43.8118,60.2581,68.9806,74.3816,78.0522,80.7079,82.7181,84.2922,85.5582
0.804658,43.0628,56.9433,63.6091,67.4885,70.018,71.795,73.1109,74.124,74.928
0.735424,42.8985,58.7016,66.9602,72.0619,75.5359,78.0576,79.9729,81.4778,82.6917
0.789433,46.4281,62.5183,70.4845,75.2127,78.3358,80.5495,82.1994,83.4758,84.4923
0.782136,44.4276,58.6701,65.5896,69.6834,72.3914,74.3166,75.756,76.8732,77.7656
