1.16329,1.26837,1.30774,1.32836,1.34105,1.34964,1.35585,1.36054,1.36421,1.36716
0.783744,1.10182,1.2567,1.34798,1.4081,1.45068,1.48241,1.50697,1.52654,1.5425
0.731286,1.37068,1.72518,1.94052,2.08338,2.18457,2.25982,2.3179,2.36404,2.40157
0.683083,1.61159,2.12093,2.41331,2.59873,2.72578,2.81795,2.88775,2.9424,2.98631
0.623159,1.78116,2.39301,2.72944,2.93829,3.07993,3.18217,3.2594,3.31979,3.3683
0.610502,2.07512,2.82786,3.23404,3.48518,3.65552,3.7786,3.8717,3.94457,4.00316
0.601444,2.37434,3.2565,3.72615,4.01568,4.21189,4.35361,4.46078,4.54465,4.61207
0.597264,2.67379,3.66449,4.1841,4.50269,4.71793,4.87306,4.99019,5.08174,5.15528
0.595629,2.9604,4.04368,4.60739,4.95251,5.18559,5.35359,5.48043,5.57959,5.65925
0.672298,3.67494,5.0158,5.71413,6.14256,6.43232,6.64138,6.79935,6.92292,7.02222
0.640353,3.52789,4.66707,5.23544,5.57638,5.80372,5.96615,6.088,6.18279,6.25864
0.623941,3.62403,4.82912,5.45596,5.84256,6.10534,6.29573,6.44007,6.55329,6.6445
0.61359,4.04674,5.58241,6.42253,6.95272,7.31762,7.584,7.78695,7.94671,8.07571
0.651169,4.79737,6.68205,7.69185,8.31648,8.73978,9.04517,9.27574,9.45593,9.60059
0.607191,4.79638,6.61568,7.56089,8.13702,8.52458,8.80309,9.01289,9.17663,9.30798
0.600089,5.03617,6.90792,7.8771,8.46976,8.86993,9.15842,9.3763,9.54669,9.68361
0.553428,5.12651,7.13322,8.19938,8.86126,9.31236,9.63957,9.88777,10.0825,10.2394
0.580289,5.92004,8.29686,9.55801,10.3377,10.867,11.2496,11.539,11.7655,11.9476
0.53794,5.81766,8.06416,9.22622,9.93467,10.4115,10.7542,11.0124,11.2139,11.3756
0.540014,6.1644,8.51027,9.72752,10.4738,10.9786,11.343,11.6184,11.8339,12.0072
0.548963,6.63066,9.15825,10.4787,11.2914,11.8423,12.2403,12.5414,12.7771,12.9666
0.544334,6.85374,9.41985,10.7519,11.568,12.1193,12.5167,12.8167,13.0511,13.2395
0.539071,7.03298,9.63527,10.987,11.8161,12.3767,12.7812,13.0867,13.3258,13.5179
0.544161,7.32805,10.0144,11.4099,12.2655,12.844,13.2612,13.5763,13.8228,14.0208
0.568757,8.05098,11.079,12.6743,13.66,14.3297,14.8144,15.1814,15.4689,15.7003
0.540784,7.94168,10.9099,12.4611,13.4136,14.0576,14.5219,14.8726,15.1468,15.367
0.539385,8.24254,11.3344,12.9528,13.9482,14.6223,15.109,15.477,15.7649,15.9964
0.549778,8.73415,12.0212,13.7436,14.8036,15.5216,16.0402,16.4324,16.7392,16.986
0.556751,9.16898,12.6161,14.4198,15.5289,16.2797,16.8218,17.2315,17.552,17.8097
0.614049,9.04369,11.8316,13.1907,13.9961,14.5292,14.9082,15.1914,15.4112,15.5866
0.604041,9.48181,12.9328,14.8122,16.0053,16.8324,17.4403,17.9061,18.2746,18.5734
0.59614,9.83986,13.5867,15.6054,16.8622,17.7176,18.3366,18.8049,19.1713,19.4658
0.640136,10.9285,15.0488,17.2132,18.5401,19.4354,20.0797,20.5657,20.9452,21.2497
0.530095,9.26571,12.6958,14.478,15.5679,16.3033,16.8331,17.2329,17.5455,17.7965
0.545266,10.3948,14.5632,16.8062,18.2073,19.1659,19.8631,20.393,20.8094,21.1453
0.541138,10.9159,15.2556,17.5357,18.9349,19.8796,20.5599,21.0729,21.4735,21.7949
0.530299,11.136,15.4692,17.7221,19.1011,20.0322,20.7033,21.2099,21.6061,21.9243
0.532416,11.6323,16.1178,18.4519,19.8841,20.8531,21.5524,22.081,22.4945,22.8269
0.525566,11.8442,16.3492,18.6892,20.124,21.094,21.7936,22.3221,22.7355,23.0675
0.547679,12.5948,17.3107,19.7598,21.2622,22.2783,23.0114,23.5654,23.9987,24.347
0.534349,12.603,17.3332,19.8066,21.3295,22.3618,23.1079,23.6722,24.1141,24.4694
0.539729,13.0255,17.9049,20.4561,22.0251,23.0876,23.8547,24.4345,24.8881,25.2527
0.535433,11.753,15.486,17.3189,18.4084,19.1305,19.6442,20.0284,20.3266,20.5647
0.610288,14.3555,19.7412,22.6824,24.5505,25.8456,26.7972,27.5265,28.1034,28.5712
0.608103,14.2907,19.4761,22.1847,23.8411,24.9556,25.7556,26.3573,26.826,27.2013
0.591652,14.2114,19.465,22.2308,23.9361,25.0928,25.9291,26.562,27.0578,27.4568
0.609305,15.143,20.8932,23.9422,25.8294,27.1123,28.0411,28.7445,29.2957,29.7393
0.523872,13.3926,18.4714,21.1368,22.7751,23.8833,24.6827,25.2864,25.7585,26.1377
0.525154,14.2478,19.8804,22.8784,24.7375,26.0029,26.9198,27.6148,28.1598,28.5985
0.52256,14.7719,20.561,23.5944,25.4561,26.7141,27.6208,28.3052,28.84,29.2695
0.527282,15.3584,21.2707,24.3437,26.2253,27.496,28.4119,29.1034,29.6441,30.0784
0.525885,15.639,21.5617,24.6368,26.5221,27.7968,28.7164,29.4113,29.9548,30.3917
0.676212,20.2958,27.8278,31.7312,34.123,35.7395,36.9054,37.786,38.4746,39.0279
0.537499,16.3254,22.3853,25.5529,27.5041,28.8273,29.7839,30.5077,31.0746,31.5305
0.524414,16.3469,22.5121,25.7567,27.7594,29.1186,30.1015,30.8451,31.4275,31.8959
0.525397,16.7269,23.0289,26.3294,28.3586,29.7318,30.7228,31.4715,32.0571,32.5276
0.606216,19.6269,26.9756,30.8108,33.1652,34.7576,35.9064,36.7744,37.4532,37.9987
0.587715,18.2879,24.6498,27.8883,29.8521,31.1705,32.1169,32.8293,33.3851,33.8307
0.608553,18.5768,25.0551,28.4248,30.4993,31.9069,32.9252,33.6963,34.3006,34.787
0.529464,16.9278,23.4039,26.9175,29.1268,30.6444,31.7512,32.5939,33.2571,33.7924
0.525512,17.6407,24.5662,28.2598,30.5427,32.0899,33.2064,34.0496,34.7088,35.2381
0.644402,22.1294,30.607,35.0223,37.7198,39.5372,40.8446,41.8302,42.5999,43.2175
0.523268,18.6191,25.8353,29.6275,31.9654,33.552,34.6998,35.5687,36.2496,36.7975
0.52332,19.1041,26.4418,30.275,32.6294,34.2222,35.3714,36.2397,36.9188,37.4645
0.523531,19.2096,26.3679,30.0701,32.3335,33.8608,34.9609,35.7911,36.4399,36.9609
0.525296,19.418,26.5957,30.3273,32.6184,34.1692,35.2888,36.1352,36.7976,37.3301
0.523983,19.601,26.8882,30.7054,33.0579,34.6535,35.807,36.6797,37.3631,37.9128
0.608928,21.7821,29.3317,33.1866,35.5278,37.1007,38.2302,39.0806,39.744,40.2759
0.529723,18.8993,25.6365,29.174,31.3616,32.8498,33.9282,34.7459,35.3872,35.9038
0.531305,20.0453,27.8065,31.9936,34.6114,36.4017,37.7027,38.6907,39.4663,40.0915
0.52288,20.1857,27.8995,31.9456,34.4248,36.0967,37.2995,38.206,38.9136,39.4811
0.520386,17.0605,22.0893,24.4765,25.8685,26.7805,27.4243,27.9031,28.2732,28.5679
0.519478,18.9786,26.3574,30.5151,33.2146,35.1161,36.5303,37.6241,38.4956,39.2067
0.520114,20.2469,28.3985,32.8028,35.5335,37.3827,38.7143,39.7173,40.4991,41.1253
0.519437,20.9318,29.1645,33.4679,36.094,37.8606,39.1299,40.086,40.832,41.4305
0.521831,21.8251,30.3802,34.8493,37.5917,39.4472,40.7866,41.7994,42.592,43.2294
0.600838,25.5459,35.2826,40.319,43.3974,45.4746,46.9709,48.1002,48.9828,49.6915
0.540107,22.3218,30.2924,34.3527,36.8194,38.4783,39.6708,40.5694,41.271,41.834
0.530977,22.1464,30.2967,34.5873,37.2475,39.0607,40.3765,41.3751,42.159,42.7907
0.518566,22.6668,31.469,36.1745,39.1018,41.097,42.5435,43.6399,44.4996,45.1916
0.520331,23.4465,32.5339,37.312,40.2481,42.2327,43.6631,44.7427,45.5864,46.2638
0.517572,23.7386,32.7943,37.5121,40.403,42.3559,43.7638,44.827,45.6583,46.3262
0.642174,29.8544,41.1196,46.9842,50.583,53.0174,54.7743,56.102,57.1408,57.9757
0.519334,24.3831,33.5518,38.3477,41.3008,43.3031,44.7503,45.8453,46.7026,47.3922
0.52567,24.9849,34.346,39.2349,42.2395,44.2729,45.7404,46.8493,47.7167,48.4138
0.589893,26.6244,35.8177,40.4854,43.312,45.208,46.5681,47.5914,48.3893,49.0289
0.588029,26.8795,36.6994,41.907,45.1482,47.3629,48.973,50.1967,51.1584,51.9341
0.518354,24.1589,33.2307,38.046,41.0275,43.0532,44.5183,45.627,46.495,47.1929
0.516929,25.0818,34.8323,40.0222,43.2356,45.419,46.9986,48.1944,49.1309,49.8843
0.632533,31.7318,44.1055,50.6181,54.6232,57.3331,59.288,60.7646,61.9194,62.8471
0.520278,26.5425,36.7092,42.0073,45.2545,47.4486,49.0306,50.2254,51.1596,51.9102
0.518191,26.6841,36.736,41.96,45.163,47.3286,48.8909,50.0713,50.9947,51.7367
0.521202,27.2462,37.5195,42.8877,46.1907,48.4289,50.0459,51.2689,52.2262,52.996
0.580805,30.4986,41.8559,47.7704,51.4006,53.8559,55.6271,56.9653,58.0118,58.8527
0.589635,30.1288,40.8556,46.3702,49.7331,51.9989,53.6293,54.8588,55.8192,56.5901
0.597469,29.7905,40.2766,45.7157,49.0548,51.3152,52.9475,54.1817,55.1478,55.9246
0.524696,26.2499,35.7883,40.8257,43.945,46.067,47.604,48.7686,49.6815,50.4164
0.517379,27.4744,38.3088,44.169,47.8342,50.3408,52.1624,53.5457,54.6318,55.507
0.516037,28.0666,38.9347,44.6299,48.1159,50.465,52.1541,53.4267,54.4197,55.2161
0.511099,28.5555,39.5878,45.3563,48.8976,51.2933,53.0223,54.3292,55.3518,56.1739
