2.1034,2.13872,2.15076,2.15683,2.16049,2.16293,2.16468,2.166,2.16702,2.16784
1.50203,1.92201,2.11498,2.22582,2.29776,2.34821,2.38556,2.41432,2.43715,2.45571
1.21527,1.92565,2.26084,2.44949,2.56929,2.65179,2.71194,2.7577,2.79366,2.82265
1.10259,2.19203,2.73229,3.03561,3.22714,3.35846,3.45393,3.52638,3.58323,3.629
0.98427,2.31407,2.93672,3.26589,3.46598,3.59975,3.6953,3.76688,3.82249,3.86692
0.890534,2.23802,2.77965,3.046,3.20277,3.30585,3.37876,3.43306,3.47506,3.50852
0.915225,3.26483,4.64108,5.48905,6.0645,6.48128,6.79734,7.04538,7.24527,7.40981
0.949615,4.43421,6.51281,7.68014,8.40215,8.88592,9.23019,9.48665,9.6846,9.84175
1.00279,5.58322,7.98628,9.18846,9.88986,10.3466,10.6673,10.9047,11.0876,11.2329
1.02101,5.60757,7.36214,8.14029,8.57762,8.85857,9.05467,9.19947,9.31085,9.39922
1.06491,6.21477,8.17769,9.13957,9.72137,10.1139,10.3973,10.6118,10.78,10.9153
1.02157,5.35126,6.66641,7.27245,7.6237,7.85306,8.01455,8.13436,8.22677,8.30019
0.963903,5.00315,6.30695,6.96126,7.35968,7.62861,7.82259,7.96921,8.08396,8.17625
0.952166,5.40425,7.07326,7.95951,8.51027,8.88545,9.15731,9.36328,9.5247,9.65459
0.922401,5.74745,7.65687,8.65544,9.26448,9.67332,9.96628,10.1863,10.3576,10.4947
0.938289,7.57556,10.9807,12.9491,14.2211,15.1089,15.7633,16.2656,16.6632,16.9858
0.946517,9.11943,13.2158,15.3653,16.6547,17.5065,18.1087,18.556,18.9011,19.1751
0.961184,11.0104,15.9903,18.54,20.0691,21.087,21.8138,22.3589,22.783,23.1226
0.972439,12.1125,16.9515,19.2742,20.6311,21.5214,22.1507,22.6193,22.9819,23.2707
0.993562,12.9075,17.563,19.7865,21.0988,21.9679,22.5868,23.0503,23.4105,23.6986
1.03063,13.9491,18.806,21.1876,22.6166,23.572,24.2562,24.7706,25.1715,25.4927
0.998659,11.1532,13.9255,15.1649,15.8719,16.3293,16.6494,16.8861,17.0681,17.2124
1.00213,11.2822,14.5738,16.2727,17.3276,18.0495,18.5757,18.9765,19.2921,19.5472
0.967247,11.0303,14.4385,16.1979,17.2714,17.993,18.5106,18.8998,19.2028,19.4453
0.952163,11.4746,15.3073,17.3023,18.5205,19.3402,19.9291,20.3725,20.7183,20.9956
0.944015,13.4516,18.917,21.9216,23.8099,25.1041,26.0458,26.7616,27.3239,27.7774
0.940778,14.8444,20.7651,23.7994,25.6146,26.8162,27.6685,28.3039,28.7954,29.1868
0.909923,16.3395,23.1126,26.6019,28.7161,30.1342,31.1518,31.918,32.5158,32.9954
0.911812,17.535,24.3059,27.6393,29.6131,30.9175,31.8435,32.5348,33.0706,33.498
0.910223,17.8227,24.0802,27.0987,28.8815,30.0607,30.8991,31.5261,32.0128,32.4016
0.893806,17.9641,24.1439,27.2002,29.0374,30.2665,31.1474,31.8099,32.3264,32.7404
0.890865,16.576,21.4877,23.8222,25.1925,26.0942,26.7327,27.2085,27.5767,27.8702
0.87891,16.6155,21.9325,24.646,26.3077,27.4327,28.2455,28.8607,29.3426,29.7303
0.879684,16.9357,22.5115,25.3574,27.0835,28.2406,29.0695,29.6923,30.1772,30.5653
0.868401,17.0587,22.7456,25.6318,27.3736,28.5379,29.3708,29.9961,30.4827,30.8722
0.865676,18.8982,26.0405,29.8261,32.1669,33.7568,34.9071,35.7779,36.4601,37.009
0.852627,19.26,26.159,29.6091,31.6614,33.0184,33.9811,34.6991,35.2549,35.6978
0.853256,20.8271,28.6209,32.6105,35.0336,36.6629,37.8342,38.7172,39.4069,39.9606
0.860079,22.0941,30.1964,34.264,36.7033,38.328,39.4872,40.3558,41.0308,41.5704
0.853766,21.6526,28.8823,32.3953,34.4723,35.8449,36.8197,37.548,38.1127,38.5634
0.853281,22.7305,30.7411,34.826,37.3176,38.9992,40.2117,41.1277,41.8442,42.4201
0.85587,21.5537,28.2559,31.4928,33.3988,34.6538,35.5421,36.2037,36.7154,37.123
0.849955,20.5503,26.7977,29.8885,31.7442,32.9844,33.8726,34.5404,35.0609,35.4781
0.851302,20.5194,27.0365,30.357,32.3773,33.737,34.7147,35.4515,36.0267,36.4882
0.852762,20.6253,27.3234,30.7342,32.7988,34.1816,35.172,35.916,36.4954,36.9593
0.838777,22.8674,31.6612,36.4074,39.3714,41.397,42.8686,43.9859,44.8632,45.5703
0.844585,24.1321,33.039,37.5367,40.2177,41.9904,43.2473,44.1841,44.9089,45.4861
0.837464,26.2073,36.4265,41.7125,44.9358,47.1082,48.6726,49.8534,50.7766,51.5184
0.849929,27.957,38.4083,43.6244,46.7365,48.8015,50.2711,51.3699,52.2225,52.9032
0.839641,27.4299,36.7862,41.3282,44.0138,45.7897,47.0518,47.9952,48.7272,49.3118
0.850773,28.1892,37.788,42.581,45.4729,47.4118,48.8032,49.8508,50.6682,51.3238
0.839708,25.0418,32.2844,35.7214,37.7337,39.0554,39.9899,40.6854,41.2233,41.6516
0.853824,24.8307,32.3973,36.2229,38.5532,40.1258,41.2597,42.1165,42.7869,43.3259
0.853544,24.6446,32.4538,36.4425,38.8658,40.4928,41.66,42.5379,43.222,43.77
0.852393,28.2742,39.4038,45.533,49.4052,52.0705,54.0162,55.4988,56.6659,57.6085
0.854957,29.8613,41.1084,46.8157,50.2155,52.4594,54.0475,55.2291,56.1419,56.868
0.876661,30.9767,41.8411,47.1747,50.3307,52.4173,53.9002,55.0089,55.8694,56.5569
0.872085,32.4281,44.1851,50.1554,53.7808,56.2209,57.977,59.3018,60.3372,61.1687
0.89585,34.5234,46.9218,53.1656,56.9254,59.4366,61.232,62.5791,63.627,64.4654
0.88464,33.9937,45.5563,51.2713,54.6809,56.9462,58.5607,59.7696,60.7088,61.4595
0.915987,35.1634,46.9297,52.801,56.3321,58.6922,60.3818,61.6514,62.6404,63.4327
0.916904,35.5381,47.5123,53.5483,57.194,59.6355,61.385,62.7001,63.7248,64.5458
0.938398,37.1216,49.857,56.3225,60.2357,62.8583,64.7382,66.1517,67.2532,68.1356
0.974923,39.4116,53.0606,59.9847,64.168,66.9678,68.9728,70.4792,71.6523,72.5918
0.974974,39.0997,52.1469,58.6484,62.5385,65.1267,66.9728,68.3558,69.4306,70.2899
1.00109,40.1084,53.4392,60.1318,64.163,66.8588,68.7893,70.2399,71.3701,72.2754
1.0244,40.94,54.5157,61.3511,65.4723,68.2287,70.202,71.6845,72.839,73.7635
1.01844,40.8224,54.4413,61.3231,65.4778,68.2583,70.2496,71.746,72.9115,73.845
1.06273,42.6591,56.8815,64.055,68.3782,71.2678,73.3354,74.888,76.0966,77.0642
1.11649,45.1969,60.4107,68.1111,72.7613,75.8741,78.1037,79.7793,81.0846,82.1301
1.09645,44.6356,59.6612,67.2479,71.8215,74.879,77.067,78.7101,79.9893,81.0134
1.12846,46.8806,62.9807,71.1664,76.1207,79.4416,81.8226,83.6132,85.0088,86.1272
1.12929,47.1452,63.1076,71.1326,75.9555,79.1727,81.4713,83.1954,84.5363,85.6091
1.15524,48.6657,65.162,73.4805,78.4958,81.8504,84.2523,86.057,87.4627,88.5886
1.17189,49.7995,66.685,75.2041,80.341,83.7764,86.2355,88.0828,89.5213,90.6732
1.20231,52.0235,69.8834,78.9347,84.4048,88.0679,90.6925,92.6654,94.2024,95.4337
1.20675,53.2221,71.5975,80.8968,86.5081,90.2614,92.948,94.966,96.5373,97.7954
1.18319,52.9803,71.2283,80.4346,85.9816,89.6888,92.3412,94.333,95.8835,97.1249
1.19525,54.8851,74.0095,83.6956,89.5461,93.4628,96.2685,98.3772,100.02,101.336
1.17389,55.8483,75.6623,85.7327,91.8232,95.9029,98.8261,101.023,102.735,104.107
1.24427,60.806,82.2677,93.0882,99.5998,103.947,107.055,109.387,111.201,112.653
1.25184,62.4225,84.2376,95.1963,101.786,106.186,109.333,111.694,113.533,115.004
1.2341,62.4734,84.0839,94.927,101.449,105.804,108.919,111.258,113.079,114.536
1.27186,65.4148,88.0485,99.4593,106.344,110.951,114.251,116.731,118.663,120.21
1.28416,67.5769,91.1426,103.062,110.259,115.077,118.527,121.12,123.139,124.757
1.33553,70.2681,94.0938,105.992,113.124,117.875,121.266,123.808,125.784,127.365
1.39953,74.5178,99.9617,112.797,120.546,125.735,129.453,132.25,134.429,136.175
1.40618,75.6555,101.483,114.506,122.356,127.605,131.36,134.181,136.377,138.135
1.36607,73.8792,98.9617,111.59,119.196,124.279,127.916,130.647,132.773,134.475
1.3724,75.367,101.231,114.321,122.229,127.523,131.316,134.167,136.388,138.168
1.37994,75.9287,101.696,114.664,122.47,127.685,131.414,134.213,136.392,138.136
1.43427,80.1016,107.571,121.469,129.863,135.483,139.509,142.535,144.893,146.782
1.45803,83.3486,112.381,127.123,136.038,142.009,146.288,149.504,152.01,154.017
1.48855,84.8082,113.507,127.86,136.464,142.195,146.286,149.352,151.736,153.642
1.4798,84.5557,113.106,127.467,136.121,141.91,146.055,149.171,151.597,153.541
1.5174,85.825,114.275,128.519,137.077,142.789,146.871,149.935,152.319,154.226
1.58093,87.8838,116.575,130.942,139.582,145.352,149.479,152.578,154.99,156.921
1.59893,90.448,121.194,136.906,146.457,152.879,157.493,160.969,163.682,165.857
1.55233,88.229,118.133,133.251,142.359,148.443,152.792,156.055,158.593,160.624
1.53838,87.69,117.314,132.251,141.246,147.257,151.558,154.787,157.301,159.314
