1.40031,1.48487,1.51538,1.5311,1.5407,1.54716,1.55181,1.55532,1.55805,1.56025
1.3352,1.89245,2.17542,2.34626,2.46054,2.54235,2.60379,2.65164,2.68995,2.72132
0.866331,1.49928,1.80745,1.98062,2.08986,2.16457,2.21872,2.2597,2.29176,2.31751
0.855116,1.92612,2.50755,2.847,3.06635,3.21913,3.33148,3.41752,3.4855,3.54057
0.770825,2.13371,2.85134,3.24621,3.49073,3.65593,3.7747,3.86407,3.93371,3.98948
0.763283,2.51732,3.4031,3.87427,4.16238,4.35622,4.49546,4.60031,4.68211,4.74771
0.769401,2.70524,3.53201,3.939,4.1792,4.33759,4.44987,4.53363,4.59851,4.65025
0.986586,3.95226,5.27311,5.96534,6.39328,6.68478,6.89638,7.05706,7.18327,7.28505
0.776103,3.23774,4.22119,4.71138,5.00435,5.19898,5.33756,5.44122,5.52166,5.58587
0.916057,3.90666,5.02571,5.58223,5.91619,6.13913,6.2986,6.41837,6.51164,6.58634
0.704661,3.19734,4.16193,4.65907,4.96346,5.16921,5.31763,5.42977,5.51749,5.58799
0.710858,3.89994,5.39597,6.23467,6.77063,7.14237,7.41522,7.62395,7.78876,7.92217
0.83008,4.79473,6.43053,7.25,7.73502,8.05389,8.27894,8.44604,8.57494,8.67735
0.647252,4.0414,5.43267,6.1424,6.57296,6.86248,7.07075,7.22788,7.35071,7.44938
0.646829,5.09365,7.36551,8.66168,9.49956,10.0858,10.519,10.8522,11.1163,11.3309
0.696664,6.33354,9.09881,10.5532,11.4349,12.0226,12.4411,12.7537,12.9959,13.189
0.640486,6.56384,9.33485,10.751,11.6046,12.1752,12.5837,12.8907,13.1299,13.3216
0.808697,8.47462,11.556,13.0473,13.9273,14.5087,14.9218,15.2305,15.4701,15.6613
0.629453,6.18796,8.08183,8.98344,9.51613,9.8691,10.1205,10.3088,10.4552,10.5722
0.636892,7.20751,9.99485,11.5301,12.5144,13.2012,13.7082,14.0981,14.4071,14.6583
0.721188,9.02357,12.6234,14.536,15.7125,16.5055,17.0748,17.5026,17.8357,18.1021
0.628511,8.52906,11.895,13.6371,14.6951,15.4046,15.9132,16.2957,16.5938,16.8327
0.799031,11.5426,15.9755,18.238,19.6078,20.5265,21.1856,21.6816,22.0685,22.3786
0.661193,8.9839,11.8654,13.2502,14.0655,14.6031,14.9846,15.2692,15.4899,15.6659
0.624175,9.10871,12.4172,14.1715,15.2697,16.0243,16.5755,16.996,17.3274,17.5955
0.788137,12.2201,16.7949,19.1985,20.6765,21.6751,22.3941,22.936,23.359,23.6982
0.68399,10.2122,13.5794,15.2411,16.228,16.881,17.3448,17.6913,17.96,18.1744
0.620916,10.2686,14.2134,16.344,17.685,18.6087,19.2844,19.8004,20.2074,20.5368
0.675288,11.7718,16.2355,18.5533,19.9639,20.91,21.5875,22.0962,22.492,22.8087
0.63204,11.5357,15.8545,18.0733,19.4208,20.3258,20.9757,21.4649,21.8467,22.1529
0.807024,15.0904,20.5565,23.3345,25.016,26.1438,26.9528,27.5615,28.0362,28.4168
0.63003,10.9668,14.4199,16.1049,17.1056,17.7691,18.2415,18.595,18.8695,19.0889
0.630622,11.7464,16.0181,18.3083,19.7479,20.7388,21.4633,22.0163,22.4524,22.8051
0.736987,14.5321,19.9948,22.875,24.6454,25.8405,26.7002,27.3478,27.853,28.2579
0.630649,11.6938,15.481,17.3385,18.4373,19.1626,19.677,20.0609,20.3583,20.5955
0.630393,12.6369,17.3326,19.8454,21.4198,22.5015,23.2913,23.8937,24.3685,24.7524
0.643276,13.8924,19.3076,22.1825,23.9565,25.1574,26.0232,26.6765,27.1868,27.5962
0.68456,15.293,21.028,23.9634,25.7371,26.923,27.7713,28.4082,28.9038,29.3005
0.713009,16.5279,22.6801,25.8379,27.7599,29.0539,29.9848,30.6869,31.2355,31.6759
0.643622,15.211,20.7549,23.5933,25.3205,26.4828,27.3186,27.9486,28.4405,28.8352
0.642963,15.2652,20.6596,23.4037,25.068,26.1854,26.9877,27.5916,28.0626,28.4403
0.801603,19.5189,26.5384,30.1678,32.3903,33.8921,34.975,35.7929,36.4326,36.9465
0.629465,14.3395,18.9102,21.1629,22.5043,23.3942,24.0275,24.5011,24.8688,25.1623
0.805794,19.62,26.8018,30.6472,33.057,34.7118,35.9193,36.8398,37.5648,38.1507
0.627138,14.3301,18.9373,21.2187,22.5739,23.4697,24.1049,24.5785,24.9451,25.2371
0.777236,19.61,27.1338,31.2305,33.818,35.6037,36.9115,37.9112,38.7004,39.3394
0.725927,17.788,23.9124,26.9874,28.823,30.0392,30.9029,31.5474,32.0464,32.4442
0.640558,17.1868,23.8979,27.5071,29.7662,31.3157,32.4456,33.3064,33.9842,34.5319
0.808492,22.2798,30.629,34.9173,37.5125,39.2481,40.4891,41.4199,42.1437,42.7224
0.665172,17.6246,23.5682,26.5096,28.2645,29.4309,30.2627,30.8861,31.3706,31.7582
0.754966,19.77,26.4475,29.8543,31.9333,33.337,34.3495,35.1146,35.7133,36.1946
0.635196,17.9774,24.8246,28.5066,30.8108,32.3887,33.5367,34.4094,35.0951,35.6481
0.656718,19.432,26.8012,30.6315,32.9629,34.527,35.6475,36.4892,37.1444,37.6688
0.707668,21.41,29.3218,33.3726,35.8285,37.4764,38.659,39.549,40.2433,40.8
0.625489,17.2677,22.7102,25.3569,26.9242,27.9615,28.6991,29.2507,29.6787,30.0205
0.626779,19.146,26.512,30.5416,33.1037,34.8809,36.1874,37.1888,37.9809,38.6233
0.64651,18.9128,25.3292,28.5308,30.4357,31.6943,32.5861,33.2503,33.7639,34.1726
0.624364,20.2458,28.2989,32.6853,35.4537,37.3634,38.7615,39.8301,40.6736,41.3566
0.755838,23.1832,31.0158,34.8637,37.1338,38.6269,39.6821,40.4667,41.0726,41.5545
0.649517,21.8229,30.3139,34.8757,37.7383,39.707,41.1458,42.2441,43.1103,43.8111
0.618203,22.1306,30.8817,35.479,38.2974,40.1973,41.563,42.5913,43.3931,44.0355
0.7005,25.7897,35.5851,40.5891,43.6155,45.6418,47.0933,48.1841,49.034,49.7147
0.623604,21.1414,27.9701,31.2809,33.2386,34.5334,35.4536,36.1416,36.6754,37.1018
0.758296,27.7262,38.1576,43.7604,47.2882,49.7204,51.5008,52.8611,53.9347,54.8037
0.624571,23.4573,32.1595,36.665,39.4063,41.2448,42.5613,43.5496,44.3183,44.9332
0.798098,30.2453,41.1495,46.709,50.0738,52.3288,53.9453,55.1612,56.109,56.8686
0.618872,23.4598,31.7775,36.0289,38.6144,40.354,41.6051,42.5482,43.2848,43.876
0.786999,30.1543,40.9292,46.4892,49.8881,52.182,53.8345,55.0817,56.0565,56.8393
0.628055,23.1376,30.8742,34.7627,37.1027,38.6655,39.7829,40.6216,41.2742,41.7965
0.660216,25.7397,35.3093,40.4069,43.5841,45.7563,47.3361,48.537,49.4809,50.2423
0.675149,26.9143,36.8212,41.9496,45.0705,47.1655,48.6674,49.7962,50.6753,51.3792
0.693885,28.2511,38.592,43.9118,47.1473,49.3225,50.8854,52.0627,52.9815,53.7186
0.637958,25.5019,34.3923,38.8956,41.6178,43.4418,44.7496,45.7333,46.5,47.1146
0.635582,26.4908,36.3057,41.4607,44.6459,46.8111,48.3791,49.5674,50.4989,51.2489
0.784308,33.7392,46.3344,52.8796,56.88,59.575,61.5127,62.9726,64.1117,65.0253
0.658111,27.7317,37.4284,42.3186,45.2624,47.2285,48.6347,49.6903,50.5119,51.1696
0.732931,28.7423,37.8882,42.4126,45.1203,46.9248,48.2141,49.1816,49.9345,50.5372
0.795119,33.7347,46.4281,53.3103,57.6536,60.649,62.841,64.5151,65.8355,66.9038
0.668768,29.2753,40.2427,45.9595,49.4438,51.7819,53.4567,54.7143,55.6928,56.4755
0.704944,28.8113,38.2671,42.9221,45.685,47.5141,48.8146,49.7869,50.5414,51.144
0.667196,29.2039,40.1812,46.0628,49.75,52.2836,54.1337,55.5448,56.6568,57.5559
0.638837,26.5492,35.4356,39.859,42.4942,44.2391,45.4781,46.4027,47.1187,47.6895
0.767793,34.8915,48.4651,55.8059,60.4222,63.5986,65.9199,67.6913,69.088,70.2177
0.656293,27.91,37.2025,41.7741,44.4764,46.2566,47.5161,48.4536,49.1782,49.7549
0.615649,25.9296,34.7557,39.2835,42.0536,43.9277,45.2817,46.3064,47.1093,47.7555
0.679178,31.458,43.875,50.6423,54.9056,57.8373,59.9764,61.6057,62.8878,63.923
0.615562,27.2817,36.6837,41.3503,44.1165,45.9407,47.2323,48.194,48.9376,49.5296
0.726635,35.3284,49.2913,56.8081,61.5226,64.7626,67.1289,68.9342,70.3574,71.5084
0.68512,34.6564,48.0351,54.946,59.14,61.9489,63.959,65.4675,66.6407,67.579
0.627429,29.257,38.7979,43.4162,46.1376,47.9324,49.2054,50.1554,50.8917,51.4792
0.70071,35.4301,48.994,56.3089,60.9253,64.1137,66.4509,68.2389,69.6513,70.7954
0.640937,33.991,47.1317,54.0152,58.2282,61.0636,63.0989,64.6293,65.8213,66.7755
0.615721,30.4622,40.5799,45.5274,48.4524,50.3835,51.7536,52.7762,53.5688,54.2011
0.655753,34.6404,47.6908,54.6478,59.001,61.9898,64.1713,65.8347,67.1455,68.2053
0.627192,33.7396,46.2167,52.6588,56.5766,59.2051,61.0886,62.5035,63.6048,64.4862
0.63465,34.7006,47.4282,53.9725,57.9551,60.6338,62.5593,64.0101,65.1428,66.0516
0.660326,36.8742,50.4515,57.4576,61.7346,64.6178,66.6934,68.2591,69.4823,70.4643
0.674532,38.2578,52.2764,59.4957,63.8971,66.8611,68.9929,70.5999,71.8546,72.8614
0.642942,33.4738,44.1711,49.4123,52.5253,54.5879,56.0551,57.1523,58.0038,58.6838
0.637009,34.9875,47.822,54.693,59.0038,61.9673,64.132,65.7831,67.0845,68.1368
