1.54708,1.60005,1.61852,1.62792,1.63361,1.63742,1.64016,1.64222,1.64382,1.64511
1.12759,1.52458,1.71814,1.83264,1.9083,1.96202,2.00212,2.03321,2.05801,2.07825
0.961297,1.68011,2.05137,2.26808,2.40823,2.50577,2.57737,2.63208,2.67522,2.71007
0.923942,2.01624,2.57739,2.89112,3.08756,3.22124,3.31781,3.39075,3.44774,3.49347
2.08667,5.60199,7.39872,8.37802,8.98353,9.39312,9.68822,9.9108,10.0846,10.2241
1.07077,1.63783,1.74402,1.78423,1.80509,1.81782,1.82639,1.83255,1.83719,1.84082
0.852414,1.78917,2.23712,2.51923,2.71616,2.86203,2.97461,3.06418,3.13718,3.19782
0.774521,2.15991,2.9269,3.38652,3.68463,3.89085,4.04089,4.15446,4.24317,4.31425
0.727175,2.52417,3.48383,4.00399,4.31924,4.52836,4.67659,4.78694,4.87223,4.94008
0.64256,2.60406,3.55234,4.0306,4.31312,4.49914,4.63087,4.72909,4.80516,4.86583
0.661115,3.0623,4.15457,4.69995,5.02546,5.24209,5.39682,5.51293,5.6033,5.67566
0.6326,3.30288,4.47165,5.05663,5.40792,5.6425,5.81033,5.93637,6.03451,6.11309
0.574406,3.33772,4.5121,5.10083,5.45487,5.69134,5.86049,5.98747,6.08632,6.16544
0.55278,4.23161,6.22054,7.35769,8.09433,8.61047,8.99223,9.28605,9.51918,9.70866
0.538079,4.21186,5.71399,6.41261,6.80769,7.05958,7.23346,7.36043,7.45709,7.53308
0.53509,4.48462,6.04712,6.81189,7.26978,7.57624,7.79636,7.96238,8.09219,8.19653
0.533718,4.84669,6.56264,7.42627,7.94965,8.3013,8.5539,8.74414,8.89255,9.01156
0.532629,6.13824,8.94884,10.5345,11.5543,12.265,12.7885,13.1901,13.5078,13.7654
0.541799,7.26404,10.506,12.1798,13.1824,13.8449,14.3136,14.6621,14.931,15.1446
0.53071,7.93605,11.2549,12.8969,13.869,14.5116,14.9681,15.3094,15.5742,15.7858
0.532152,8.27334,11.3378,12.8042,13.6664,14.2353,14.6393,14.9411,15.1753,15.3622
0.540841,9.02354,12.3833,14.063,15.0808,15.7657,16.2586,16.6306,16.9213,17.1548
0.543576,9.58833,13.1018,14.8638,15.9271,16.6387,17.1483,17.531,17.829,18.0676
0.545945,9.99027,13.5429,15.3164,16.3823,17.0938,17.6023,17.984,18.281,18.5187
0.555814,10.6217,14.4052,16.316,17.472,18.2471,18.8031,19.2214,19.5476,19.809
0.537223,10.5825,14.2904,16.1553,17.279,18.0301,18.5675,18.971,19.2852,19.5367
0.54786,11.1281,15.0148,16.9782,18.1644,18.9589,19.5282,19.9563,20.2899,20.5572
0.5584,11.6716,15.7385,17.796,19.0394,19.8722,20.4689,20.9174,21.2669,21.5469
0.559336,11.9413,16.0577,18.1342,19.3865,20.2241,20.8237,21.2741,21.6249,21.9058
0.561153,12.2863,16.5347,18.6875,19.9895,20.8621,21.4877,21.9581,22.3248,22.6187
0.562777,12.6206,16.9854,19.1974,20.5346,21.4301,22.0718,22.5541,22.9299,23.231
0.559648,12.8758,17.3404,19.6046,20.9736,21.8905,22.5476,23.0416,23.4264,23.7348
0.56405,13.5176,18.3189,20.7762,22.2691,23.2722,23.9926,24.5349,24.958,25.2973
0.561915,14.0276,19.0551,21.6192,23.1718,24.2122,24.9579,25.5184,25.9551,26.3049
0.553509,14.1406,19.1081,21.6117,23.1184,24.1246,24.844,25.3841,25.8044,26.1408
0.555748,14.855,20.2017,22.9342,24.5943,25.7101,26.5119,27.1158,27.5872,27.9653
0.551842,15.1128,20.4496,23.142,24.7637,25.8469,26.6214,27.2028,27.6552,28.0172
0.540803,15.1426,20.443,23.1188,24.7335,25.8143,26.5886,27.1705,27.624,27.9872
0.545776,15.5466,20.9377,23.6588,25.3011,26.4004,27.1878,27.7795,28.2405,28.6098
0.552235,16.1761,21.859,24.7529,26.5082,27.6866,28.5325,29.1692,29.6658,30.064
0.544129,17.5311,24.3392,27.9416,30.1701,31.6845,32.7803,33.6101,34.2601,34.7831
0.368397,14.6218,21.5484,25.4383,27.9105,29.6159,30.8618,31.8114,32.5588,33.1623
0.375185,16.8902,24.5717,28.5221,30.8821,32.4414,33.5455,34.3672,35.0022,35.5074
0.375962,18.2251,25.8209,29.5534,31.7594,33.2174,34.2536,35.0283,35.6298,36.1104
0.379883,19.2103,26.65,30.2908,32.462,33.9083,34.9422,35.7184,36.3229,36.807
0.382206,19.9624,27.4066,31.1039,33.3321,34.825,35.8958,36.7015,37.3298,37.8336
0.383487,20.523,27.9989,31.7478,34.0139,35.5331,36.6227,37.4423,38.0813,38.5934
0.377192,20.6077,28.0234,31.7684,34.036,35.5571,36.6483,37.4693,38.1094,38.6224
0.378402,21.1471,28.7469,32.6078,34.9492,36.5209,37.6489,38.4978,39.1598,39.6906
0.406453,22.8534,30.8805,34.9299,37.3733,39.0079,40.1782,41.0574,41.7421,42.2904
0.628898,14.9482,16.7195,17.4045,17.7686,17.9946,18.1486,18.2603,18.3449,18.4114
0.615452,11.7872,14.0374,15.242,16.0094,16.5442,16.9391,17.2429,17.484,17.6801
0.606467,11.2857,14.2903,15.9677,17.0343,17.7695,18.306,18.7141,19.0349,19.2934
0.596241,11.0837,14.4391,16.2442,17.3547,18.1025,18.639,19.0422,19.356,19.6072
0.601904,11.4029,15.0953,17.0306,18.2065,18.9943,19.5584,19.982,20.3119,20.5759
0.594625,11.5514,15.4101,17.3958,18.5953,19.3972,19.9709,20.4017,20.737,21.0054
0.585003,12.0668,16.3494,18.5699,19.9218,20.8308,21.484,21.976,22.3599,22.6678
0.580982,12.626,17.1609,19.4748,20.8704,21.8029,22.4696,22.9699,23.3591,23.6705
0.555505,12.6076,17.1074,19.3781,20.7431,21.6539,22.3049,22.7934,23.1735,23.4777
0.540101,15.0086,21.7558,25.5209,27.9214,29.5857,30.8077,31.7431,32.4821,33.0807
0.52191,13.7861,18.4871,20.6667,21.903,22.6944,23.2427,23.6444,23.9511,24.1928
0.530307,17.3343,25.1537,29.5114,32.3195,34.2901,35.7531,36.884,37.785,38.5202
0.530439,19.4748,27.9697,32.3282,34.9426,36.6739,37.9006,38.8133,39.518,40.078
0.524715,20.6455,28.9814,33.0811,35.507,37.1099,38.2484,39.0992,39.7592,40.2864
0.537357,22.0988,30.4968,34.6157,37.0726,38.7083,39.8769,40.754,41.4367,41.9834
0.571647,23.3652,31.4932,35.4413,37.7898,39.35,40.4624,41.2958,41.9436,42.4616
0.577483,23.0956,30.7242,34.4758,36.7252,38.227,39.3015,40.1086,40.7371,41.2404
0.575638,23.611,31.7895,35.9785,38.5405,40.2712,41.519,42.4614,43.1984,43.7904
0.575302,24.5397,33.3461,37.8847,40.6517,42.5131,43.8501,44.8567,45.6417,46.2709
0.576299,25.152,34.0936,38.6314,41.3686,43.1977,44.5057,45.4875,46.2514,46.8627
0.584425,26.123,35.3964,40.0984,42.9392,44.8414,46.2044,47.2292,48.0277,48.6675
0.575674,26.1071,35.2708,39.9019,42.6968,44.5673,45.9069,46.9137,47.6979,48.3261
0.566866,25.9476,34.9515,39.4958,42.238,44.0732,45.3876,46.3754,47.1449,47.7613
0.545945,26.3059,35.9284,40.9039,43.9465,45.9997,47.4788,48.5951,49.4674,50.168
0.547996,26.9974,36.6717,41.5658,44.5124,46.4788,47.8837,48.9372,49.7564,50.4116
0.544481,27.5442,37.4084,42.4095,45.4325,47.4578,48.9098,50.0017,50.853,51.5352
0.53953,27.7633,37.5791,42.5345,45.5236,47.5233,48.955,50.0308,50.8686,51.5395
0.539107,28.359,38.4145,43.5168,46.6051,48.676,50.1613,51.2786,52.1498,52.848
0.539063,29.4429,40.1265,45.5992,48.9266,51.1635,52.7704,53.9806,54.9247,55.682
0.542771,30.1347,40.8484,46.2583,49.517,51.6938,53.2504,54.4187,55.3278,56.0553
0.443124,25.0556,33.9337,38.4312,41.1506,42.9731,44.2798,45.2627,46.029,46.6431
0.353573,23.939,34.5201,40.4136,44.1693,46.7715,48.6808,50.1414,51.2947,52.2284
0.352438,26.5404,38.0269,43.9653,47.5355,49.9043,51.5861,52.8401,53.8102,54.5826
0.355832,30.6327,44.3721,51.5168,55.8686,58.7969,60.903,62.4913,63.7321,64.7286
0.355038,30.5915,42.1387,47.6386,50.8415,52.937,54.4146,55.5124,56.3602,57.0346
0.357712,33.4461,46.7528,53.5643,57.7464,60.5868,62.6456,64.2078,65.4342,66.423
0.358825,35.3326,49.0987,56.069,60.287,63.1124,65.136,66.6559,67.8391,68.786
0.359144,36.5905,50.4235,57.3847,61.5835,64.3925,66.4041,67.9156,69.0929,70.036
0.360533,37.4949,51.2653,58.1863,62.3618,65.1569,67.1595,68.665,69.8382,70.7782
0.363097,38.2078,51.9623,58.9025,63.1002,65.9148,67.9337,69.4527,70.6371,71.5865
0.361702,38.1235,51.5746,58.3682,62.4769,65.2309,67.2057,68.691,69.8488,70.7767
0.362593,38.6647,52.3906,59.3925,63.6483,66.5096,68.5656,70.1143,71.323,72.2926
0.367179,39.4169,53.3498,60.4473,64.7508,67.6385,69.7101,71.2686,72.4837,73.4575
0.366531,39.4681,53.3357,60.3937,64.6707,67.54,69.5984,71.1471,72.3546,73.3225
0.366511,39.3893,53.1139,60.0916,64.3182,67.1531,69.1867,70.7167,71.9095,72.8656
0.366312,40.0127,54.2505,61.5672,66.0255,69.0271,71.1858,72.813,74.0835,75.1029
0.370745,41.0329,55.6823,63.1824,67.7357,70.7926,72.9861,74.6366,75.9235,76.9549
0.371962,41.7954,56.7639,64.4172,69.0614,72.179,74.4165,76.1004,77.4135,78.4662
0.374716,42.9143,58.4166,66.3653,71.1983,74.4474,76.7816,78.5397,79.9115,81.0118
0.373032,43.0958,58.5066,66.3594,71.1168,74.3073,76.5954,78.3165,79.658,80.7331
