0.416912,0.496134,0.529684,0.54822,0.559978,0.568101,0.574049,0.578592,0.582175,0.585074
0.18916,0.308593,0.3767,0.420219,0.450343,0.472409,0.48926,0.502546,0.51329,0.522155
0.154553,0.340566,0.457075,0.531293,0.581649,0.617751,0.64479,0.665751,0.682455,0.696067
0.165265,0.444489,0.611888,0.712135,0.777474,0.823147,0.856795,0.882589,0.902983,0.919509
0.147487,0.460368,0.633453,0.731309,0.793298,0.835963,0.867098,0.890817,0.909486,0.924562
0.131071,0.477642,0.663919,0.767849,0.833582,0.87886,0.91194,0.937166,0.957039,0.973099
0.0930626,0.377888,0.521937,0.600512,0.649776,0.683547,0.70814,0.726851,0.741564,0.753437
0.0877225,0.40223,0.561219,0.649204,0.705007,0.743568,0.771812,0.793394,0.810423,0.824202
0.163796,0.868156,1.23686,1.44485,1.57801,1.6705,1.73845,1.79047,1.83158,1.86487
0.0959964,0.561867,0.803227,0.939721,1.02739,1.08846,1.13344,1.16795,1.19527,1.21743
0.0937273,0.658938,0.992356,1.19617,1.33348,1.43224,1.50669,1.56481,1.61145,1.64969
0.0909485,0.661528,0.947443,1.10281,1.19956,1.26541,1.31305,1.34911,1.37732,1.40001
0.0682771,0.54951,0.796176,0.935522,1.02531,1.08811,1.13455,1.1703,1.19869,1.22178
0.0681849,0.659995,1.00159,1.20607,1.34182,1.43839,1.51057,1.56653,1.61118,1.64762
0.0871131,0.840088,1.20608,1.40487,1.52937,1.61462,1.67663,1.72376,1.7608,1.79067
0.0859409,0.842445,1.18591,1.3714,1.48806,1.56836,1.62706,1.67186,1.70718,1.73576
0.0816006,0.83189,1.1839,1.38373,1.51347,1.60468,1.67235,1.72456,1.76609,1.7999
0.0860148,0.915312,1.30783,1.53085,1.67472,1.77515,1.84919,1.90601,1.95099,1.98748
0.0865176,0.958195,1.35695,1.57607,1.71406,1.80879,1.87779,1.93028,1.97154,2.00483
0.10842,1.22452,1.73815,2.02804,2.21494,2.34568,2.44235,2.51677,2.57584,2.62387
0.104684,1.10864,1.5128,1.72667,1.85904,1.94901,2.01412,2.06341,2.10202,2.13308
0.0953452,1.0732,1.52131,1.78124,1.95201,2.07302,2.16332,2.23333,2.28919,2.33482
0.0864923,0.521919,0.606346,0.641697,0.661037,0.673205,0.681556,0.687639,0.692265,0.6959
0.0806135,0.694726,1.01288,1.24027,1.41453,1.55317,1.66637,1.76064,1.84042,1.90884
0.0837207,0.970595,1.54826,1.93569,2.20161,2.39109,2.53114,2.63803,2.72187,2.78916
0.0785261,1.06383,1.65795,1.99976,2.21287,2.35681,2.46021,2.53802,2.5987,2.64734
0.0579194,0.945269,1.49748,1.82009,2.02912,2.17586,2.28478,2.36894,2.436,2.4907
0.078467,1.35936,2.04518,2.41539,2.64658,2.80496,2.92036,3.0082,3.07732,3.13312
0.305205,5.46653,7.95461,9.279,10.1081,10.6778,11.094,11.4115,11.6618,11.8642
0.0565278,1.08561,1.59437,1.88105,2.06701,2.19775,2.29477,2.36965,2.42921,2.47771
0.0587767,1.24667,1.853,2.19852,2.42186,2.57789,2.69295,2.78127,2.85117,2.90786
0.0616227,1.3652,2.00007,2.35329,2.57822,2.73396,2.84815,2.93547,3.00441,3.06022
0.0629421,1.55543,2.32962,2.77705,3.06876,3.27403,3.42635,3.54388,3.63731,3.71338
0.0581362,1.5636,2.3432,2.78829,3.07533,3.27559,3.42318,3.53644,3.62608,3.69879
1.70699,49.2673,73.0229,86.2073,94.5658,100.334,104.553,107.773,110.311,112.362
0.0638036,1.80393,2.59283,3.02282,3.29502,3.48324,3.62131,3.72697,3.81046,3.87811
0.0596613,1.68926,2.4272,2.8429,3.11174,3.30024,3.43984,3.5474,3.63284,3.70235
0.0811044,2.08848,2.85806,3.25855,3.50429,3.67033,3.78996,3.88022,3.95074,4.00734
0.0759633,1.84419,2.553,2.95223,3.21125,3.3935,3.5289,3.63353,3.71686,3.78479
0.0801366,2.05303,2.96112,3.50138,3.85974,4.11452,4.3048,4.45225,4.56982,4.66575
0.146574,4.05837,6.04372,7.24671,8.04824,8.61904,9.04571,9.37654,9.64049,9.85594
0.0779942,2.02032,2.86091,3.31898,3.6052,3.80066,3.94253,4.05018,4.13464,4.20268
0.0776612,2.01542,2.88454,3.3815,3.70478,3.93244,4.10165,4.23244,4.33661,4.42154
0.0790614,2.08933,2.99995,3.51699,3.84978,4.08168,4.25244,4.38336,4.48691,4.57084
0.0791802,2.08313,2.97022,3.46683,3.78396,4.00398,4.16555,4.28924,4.38697,4.46614
0.121657,3.32497,4.79947,5.64026,6.18341,6.5632,6.8437,7.05936,7.23033,7.3692
0.059897,1.65952,2.3974,2.81829,3.09026,3.28046,3.42095,3.52896,3.61459,3.68414
0.059066,1.62959,2.32936,2.72002,2.96907,3.14163,3.26823,3.36508,3.44154,3.50345
0.0775175,2.19277,3.17591,3.74338,4.11367,4.37458,4.56842,4.71814,4.83728,4.93435
0.0585348,1.71011,2.47832,2.91404,3.19376,3.38826,3.53123,3.64071,3.72722,3.79728
0.0515761,1.77253,2.70901,3.27423,3.6503,3.91813,4.11845,4.27388,4.39798,4.49935
0.0581961,2.12907,3.1811,3.76904,4.14038,4.39538,4.58107,4.72225,4.83317,4.92259
0.0554683,2.07326,3.04595,3.58797,3.93452,4.17577,4.35361,4.49023,4.59853,4.68651
0.0578647,2.3268,3.46275,4.11596,4.54153,4.84107,5.06341,5.23499,5.37141,5.48247
0.0546402,2.2681,3.32557,3.91499,4.29038,4.5502,4.74062,4.88613,5.00093,5.09379
0.0574943,2.4888,3.64969,4.30412,4.72509,5.01886,5.2356,5.40213,5.53411,5.64129
0.0536556,2.26961,3.24039,3.76878,4.10168,4.33072,4.49798,4.62548,4.72589,4.80702
0.0582607,2.4851,3.58522,4.21383,4.62338,4.91198,5.12649,5.29226,5.42424,5.53182
0.0552102,2.39508,3.46836,4.08148,4.47817,4.75561,4.96044,5.11782,5.24249,5.34368
0.0587096,2.69154,3.93851,4.65065,5.10964,5.42965,5.66537,5.84616,5.98922,6.10522
0.0941324,4.53691,6.70701,7.96402,8.78312,9.3592,9.78649,10.1161,10.3781,10.5913
0.0958381,4.5215,6.55526,7.70344,8.44165,8.95645,9.33601,9.62748,9.85834,10.0457
0.0594176,2.87987,4.21184,4.98049,5.48174,5.83465,6.09665,6.29887,6.45968,6.59062
0.0583297,2.88315,4.21138,4.97126,5.46279,5.80658,6.06046,6.25558,6.41022,6.53577
0.0586441,3.01326,4.39265,5.16761,5.66228,6.00504,6.25644,6.44866,6.60039,6.72319
0.0591841,3.03075,4.36735,5.11173,5.5867,5.9164,6.15874,6.34443,6.49129,6.61034
0.057261,2.66409,3.66949,4.19591,4.52041,4.74059,4.89983,5.02035,5.11475,5.1907
0.059215,2.94474,4.275,5.06369,5.59007,5.96731,6.25122,6.47274,6.65044,6.79619
0.0545253,2.70773,3.90019,4.57662,5.01027,5.31111,5.53172,5.70027,5.83317,5.94062
0.0587387,3.17272,4.7151,5.62565,6.22481,6.6487,6.96439,7.20862,7.40321,7.56191
0.0901193,4.96578,7.26855,8.56445,9.39048,9.96201,10.3807,10.7005,10.9527,11.1567
0.0590466,3.23222,4.69811,5.5312,6.07022,6.4482,6.72818,6.94401,7.11553,7.25513
0.0594999,3.24286,4.69623,5.52398,6.05973,6.43503,6.7126,6.92621,7.09568,7.23341
0.059367,3.26711,4.70776,5.51504,6.03067,6.38825,6.65068,6.85143,7.00995,7.13828
0.0603911,3.47132,5.05401,5.95319,6.53255,6.9369,7.23512,7.46416,7.64559,7.79285
0.059943,3.03232,4.19126,4.80806,5.19215,5.45462,5.64543,5.79045,5.9044,5.99631
0.0603505,3.25631,4.72944,5.60243,6.18368,6.59924,6.91134,7.15442,7.34912,7.5086
0.0591837,3.37647,4.99458,5.95025,6.5777,7.01999,7.34808,7.60093,7.80167,7.96486
0.0577018,3.4408,5.08874,6.03697,6.6489,7.07567,7.39008,7.63128,7.82216,7.97698
0.136069,8.31872,12.1945,14.3803,15.7798,16.7524,17.4678,18.0162,18.4499,18.8016
0.0592761,3.49717,5.02579,5.87901,6.42551,6.80615,7.08669,7.30212,7.47278,7.61133
0.0600213,3.61523,5.26876,6.22712,6.85501,7.29867,7.62889,7.88428,8.0877,8.25354
0.0592326,3.68079,5.40112,6.39682,7.04494,7.49992,7.83668,8.09592,8.30161,8.46875
0.636942,40.3181,58.4518,68.5407,74.9349,79.3429,82.5635,85.019,86.9527,88.5149
0.0788671,4.92242,7.1031,8.33729,9.13458,9.69314,10.1066,10.4252,10.6783,10.8843
0.0744645,3.98455,5.50788,6.34117,6.87041,7.23706,7.50627,7.71239,7.87529,8.00729
0.0791272,4.10367,5.79893,6.7839,7.43155,7.89039,8.2326,8.49768,8.70908,8.8816
0.103914,5.39947,7.75176,9.12482,10.0222,10.6535,11.1213,11.4817,11.7678,12.0003
0.0784947,3.8946,5.54935,6.49642,7.10854,7.53646,7.85242,8.09527,8.28776,8.44409
0.075666,3.81011,5.5097,6.49775,7.1425,7.5962,7.93277,8.19236,8.39868,8.56659
0.0766085,3.95024,5.68062,6.6442,7.25344,7.67236,7.97776,8.21016,8.39286,8.54025
0.0768091,4.07832,5.91685,6.96236,7.63687,8.10854,8.45711,8.72532,8.93812,9.11112
0.0768239,4.13963,6.01274,7.08011,7.76964,8.25187,8.60808,8.88196,9.09909,9.27544
0.0773165,4.10113,5.91927,6.95384,7.62275,8.09104,8.43727,8.70371,8.91509,9.0869
0.0769098,4.21867,6.18112,7.32498,8.07435,8.60328,8.99652,9.30034,9.54212,9.73909
0.0790865,4.22134,6.05104,7.0694,7.71659,8.16384,8.49127,8.74129,8.93843,9.09784
0.105527,5.57963,7.97661,9.32034,10.1816,10.7812,11.2229,11.5618,11.8302,12.048
0.0747624,3.92965,5.63605,6.60585,7.23265,7.67132,7.99557,8.24501,8.44286,8.60363
0.0727426,4.12509,6.02835,7.11288,7.80969,8.2941,8.65002,8.92242,9.13756,9.31173
0.0719308,4.05013,5.84189,6.84351,7.4827,7.92617,8.25198,8.50152,8.6988,8.85869
