0.353382,0.433983,0.469693,0.489846,0.50279,0.511806,0.518447,0.523542,0.527574,0.530845
0.213888,0.354487,0.434284,0.484925,0.519782,0.545202,0.564546,0.579756,0.592025,0.60213
0.389679,0.837027,1.10723,1.27678,1.3911,1.47285,1.53401,1.58142,1.61921,1.65001
0.142049,0.377269,0.518735,0.604394,0.660731,0.700374,0.729721,0.752301,0.770204,0.784743
0.117176,0.375579,0.528831,0.619493,0.678511,0.719854,0.750399,0.773879,0.79249,0.807603
0.113661,0.426263,0.605204,0.70844,0.774921,0.821228,0.855321,0.881464,0.902146,0.918917
0.221055,0.970192,1.39853,1.64678,1.80781,1.92065,2.00412,2.06835,2.11932,2.16075
0.0973772,0.489689,0.708604,0.833748,0.91431,0.970459,1.01182,1.04354,1.06865,1.08901
0.0928075,0.523869,0.75793,0.890848,0.976329,1.03592,1.07983,1.11354,1.14024,1.1619
0.0864528,0.5411,0.782911,0.920101,1.00843,1.07006,1.11552,1.15043,1.17809,1.20053
0.0876147,0.593789,0.853813,1.00009,1.09386,1.15912,1.20715,1.24399,1.27313,1.29676
0.0807951,0.596183,0.859359,1.00839,1.10437,1.17135,1.22076,1.25871,1.28878,1.31318
0.0781521,0.632243,0.91851,1.08238,1.18851,1.26283,1.31778,1.36006,1.39359,1.42083
0.0740403,0.644917,0.934938,1.09947,1.20535,1.27916,1.33355,1.37528,1.40832,1.43512
0.108038,1.03742,1.52132,1.79996,1.98091,2.10787,2.20185,2.27424,2.33169,2.37842
0.0703211,0.722513,1.05275,1.23949,1.35935,1.44274,1.50411,1.55116,1.58836,1.61853
0.0705282,0.781996,1.14338,1.34938,1.48251,1.57564,1.64446,1.6974,1.73938,1.7735
0.0686974,0.789356,1.13811,1.33298,1.45745,1.54385,1.60734,1.65595,1.69438,1.72552
0.0675018,0.821653,1.19157,1.40242,1.53897,1.63468,1.70551,1.76006,1.80336,1.83857
0.0672722,0.85412,1.23697,1.4551,1.59611,1.69475,1.76763,1.82366,1.86808,1.90416
0.0666546,0.891562,1.29383,1.52304,1.67103,1.77443,1.85076,1.9094,1.95586,1.99359
0.066156,0.92057,1.33023,1.56149,1.70995,1.81332,1.88941,1.94778,1.99396,2.03141
0.0791081,1.15975,1.68546,1.98594,2.18051,2.31681,2.41763,2.49522,2.5568,2.60685
0.0727136,1.06899,1.52678,1.78147,1.9437,2.05609,2.13855,2.20162,2.25143,2.29175
0.0730925,1.08452,1.54547,1.80501,1.97201,2.08859,2.17463,2.24076,2.29318,2.33575
0.0662199,1.02793,1.48675,1.75224,1.92557,2.04765,2.13827,2.20821,2.26382,2.30909
0.066295,1.08231,1.57619,1.861,2.04582,2.17528,2.27098,2.34457,2.40291,2.45029
0.065585,1.11642,1.62305,1.91137,2.09695,2.22631,2.32162,2.39476,2.45265,2.49961
0.066118,1.17531,1.70864,2.01141,2.20635,2.34235,2.44264,2.51966,2.58066,2.63018
0.0664794,1.20809,1.74858,2.05526,2.2531,2.39138,2.4935,2.57202,2.63427,2.68484
0.0666059,1.21297,1.74208,2.04135,2.23422,2.36894,2.4684,2.54483,2.60542,2.65462
0.0665159,1.24649,1.7992,2.11503,2.31958,2.46285,2.5688,2.65032,2.71499,2.76754
0.065791,1.246,1.78778,2.09344,2.28962,2.42617,2.52667,2.60372,2.66467,2.7141
0.0702811,1.37368,1.98489,2.33468,2.56134,2.72019,2.83772,2.9282,3,3.05838
0.0623701,1.23112,1.76546,2.06587,2.25818,2.39177,2.48996,2.56517,2.62461,2.67277
0.0610721,1.28798,1.88347,2.22838,2.4533,2.61155,2.72895,2.81952,2.89151,2.95011
0.0612564,1.2861,1.83475,2.13553,2.3248,2.4547,2.54934,2.62134,2.67794,2.72361
0.0617875,1.3645,1.98788,2.34925,2.58605,2.75351,2.87831,2.97495,3.05201,3.11491
0.0611071,1.41087,2.06466,2.44123,2.68555,2.8567,2.98318,3.08043,3.15751,3.2201
0.0628084,1.52494,2.23764,2.64566,2.90926,3.09346,3.2294,3.33384,3.41659,3.48376
0.0623045,1.47589,2.099,2.43804,2.651,2.79718,2.90374,2.98487,3.04871,3.10025
0.0619322,1.56883,2.29308,2.71324,2.98875,3.18364,3.32888,3.44135,3.53102,3.6042
0.0655079,1.69814,2.46068,2.89,3.16463,3.35515,3.49496,3.60188,3.68628,3.75458
0.0610794,1.60591,2.32611,2.73628,3.00168,3.18763,3.32523,3.4312,3.51533,3.58375
0.0624161,1.69387,2.46741,2.91182,3.20043,3.40292,3.55283,3.66828,3.75991,3.83441
0.0609754,1.72718,2.53571,3.00382,3.30884,3.52327,3.68223,3.80475,3.90209,3.98127
0.0608978,1.78429,2.61177,3.08376,3.3881,3.60049,3.75708,3.8773,3.97248,4.04972
0.0609662,1.85372,2.71762,3.21201,3.53208,3.75627,3.92206,4.04966,4.15091,4.23321
0.061354,1.86259,2.68351,3.14006,3.43066,3.63188,3.77945,3.8923,3.98139,4.05351
0.0605152,1.86651,2.70908,3.1935,3.50946,3.73216,3.89769,4.0256,4.12743,4.21042
0.0605273,1.903,2.76916,3.26756,3.59148,3.81879,3.98705,4.1166,4.21941,4.30297
0.0599073,1.90636,2.77102,3.26699,3.58858,3.81395,3.98065,4.10896,4.21076,4.29351
0.0593448,2.02087,2.99513,3.5664,3.94115,4.20573,4.40245,4.55443,4.67536,4.77387
0.105585,3.73431,5.51506,6.53901,7.20177,7.66536,8.0077,8.27081,8.47933,8.64864
0.0578989,2.08479,3.05839,3.6149,3.97517,4.22757,4.4143,4.55806,4.67218,4.76496
0.0578569,2.11677,3.093,3.65066,4.01187,4.265,4.45229,4.59648,4.71091,4.80393
0.0576898,2.16898,3.17696,3.75636,4.13289,4.39725,4.59308,4.74396,4.86378,4.96122
0.0572304,2.16171,3.14054,3.69629,4.05461,4.30483,4.48945,4.63128,4.74365,4.83487
0.0568861,2.22904,3.26784,3.86775,4.25864,4.53359,4.73753,4.89484,5.01987,5.12163
0.115503,4.66497,6.83494,8.07653,8.87919,9.44035,9.85463,10.173,10.4252,10.63
0.0624748,2.36175,3.35217,3.89943,4.24753,4.48871,4.66577,4.80132,4.90843,4.99523
0.0590227,2.22702,3.19845,3.75778,4.12318,4.38096,4.57268,4.72087,4.83886,4.93504
0.0591789,2.26719,3.28837,3.88127,4.26842,4.54088,4.74294,4.89872,5.02246,5.12312
0.0592208,2.33842,3.41914,4.04619,4.45449,4.7412,4.95351,5.11702,5.24681,5.35233
0.109997,4.47838,6.57097,7.77979,8.56498,9.1157,9.52326,9.83704,10.0861,10.2885
0.114041,4.54796,6.57659,7.72801,8.47048,8.98929,9.37239,9.66693,9.90045,10.0901
0.0576104,2.39117,3.50241,4.14595,4.56578,4.86127,5.08054,5.2497,5.38417,5.49362
0.0578049,2.45951,3.59459,4.24269,4.66089,4.95286,5.16818,5.3335,5.46441,5.57063
0.062128,2.64705,3.82702,4.48942,4.91334,5.20795,5.42462,5.59066,5.72199,5.82845
0.0576518,2.52076,3.67076,4.32939,4.75688,5.05694,5.27923,5.45054,5.58662,5.69732
0.0578619,2.50646,3.62581,4.26361,4.67619,4.96502,5.17855,5.34282,5.47312,5.579
0.0576389,2.5736,3.763,4.45215,4.90193,5.21857,5.45355,5.63484,5.77895,5.89625
0.057321,2.58203,3.7529,4.41905,4.84819,5.14749,5.36807,5.53735,5.67136,5.78006
0.0577764,2.67522,3.91145,4.62258,5.08456,5.40888,5.64912,5.83425,5.98128,6.10089
0.0569888,2.69276,3.93271,4.64155,5.09988,5.42046,5.65725,5.83928,5.98358,6.10078
0.104501,5.02002,7.3212,8.63451,9.48362,10.0777,10.5167,10.8544,11.1221,11.3397
0.0602972,2.89299,4.19357,4.93228,5.40901,5.74226,5.98837,6.17758,6.32758,6.44942
0.059721,2.88707,4.19455,4.94487,5.43238,5.77474,6.02841,6.22391,6.3792,6.50554
0.0564611,2.775,4.03778,4.76065,5.22857,5.55604,5.79799,5.98403,6.13152,6.25131
0.0930381,4.68695,6.84911,8.09191,8.89834,9.4638,9.88223,10.2044,10.46,10.6679
0.0571684,2.83401,4.09408,4.80777,5.2674,5.58821,5.82488,6.00669,6.15073,6.26768
0.0570647,2.8624,4.16072,4.90853,5.39547,5.73795,5.99199,6.18795,6.34371,6.4705
0.0569517,2.92257,4.26803,5.04326,5.54681,5.89999,6.16133,6.36249,6.5221,6.65182
0.0563567,2.94002,4.28829,5.05924,5.55757,5.90601,6.16332,6.36111,6.51788,6.64519
0.0896782,4.86533,7.14238,8.45026,9.29789,9.89166,10.3307,10.6685,10.9365,11.1543
0.054268,3.02892,4.45059,5.26657,5.79555,6.16628,6.44054,6.65164,6.81916,6.95532
0.0542579,3.09326,4.53942,5.36856,5.90616,6.28304,6.56193,6.77665,6.94707,7.08562
0.0545053,3.19553,4.69464,5.55468,6.11238,6.50331,6.79254,7.01517,7.19184,7.33544
0.0786995,4.74374,6.96427,8.2334,9.0542,9.62845,10.0527,10.3789,10.6376,10.8477
0.0546248,3.22866,4.67532,5.49361,6.02106,6.38964,6.66182,6.8711,7.03704,7.17184
0.0550893,3.28906,4.78217,5.63894,6.19586,6.58708,6.87702,7.10051,7.27805,7.42249
0.0592536,3.62165,5.29456,6.25853,6.8851,7.32482,7.65036,7.90103,8.09999,8.26173
0.0583573,3.45704,4.95271,5.78593,6.31674,6.68441,6.95413,7.16043,7.32333,7.45522
0.0615826,3.46019,4.86445,5.63358,6.12018,6.45607,6.70198,6.88983,7.03802,7.15794
0.0561523,3.13793,4.49048,5.27133,5.78241,6.14348,6.41228,6.62024,6.78593,6.92106
0.0558091,3.22616,4.70539,5.57166,6.13935,6.53957,6.83667,7.06586,7.24798,7.39616
0.0560471,3.33699,4.89082,5.78945,6.37236,6.78045,7.08194,7.31371,7.49742,7.6466
0.086386,5.3179,7.8113,9.2421,10.1671,10.8138,11.2914,11.6584,11.9494,12.1857
0.0562194,3.42367,4.97036,5.84698,6.41176,6.80625,7.09748,7.32135,7.49882,7.64298
0.055632,3.38739,4.91759,5.79365,6.3624,6.76172,7.05758,7.28562,7.46676,7.61413
