0.673474,0.736722,0.760529,0.773019,0.780712,0.785927,0.789694,0.792543,0.794774,0.796567
0.472219,0.787849,0.987856,1.12532,1.2255,1.30172,1.36166,1.41002,1.44986,1.48325
0.528765,1.20566,1.64893,1.93381,2.12636,2.26335,2.3651,2.44333,2.50521,2.5553
0.318408,0.961318,1.37964,1.63109,1.79294,1.90456,1.98583,2.04753,2.09593,2.1349
0.21795,0.783243,1.11646,1.30375,1.42143,1.50202,1.56067,1.60528,1.64036,1.66868
0.247855,1.08276,1.57983,1.86602,2.05081,2.18008,2.27564,2.34919,2.40755,2.455
0.219546,1.09382,1.57999,1.85107,2.02309,2.14191,2.2289,2.29532,2.34769,2.39004
0.198788,1.08005,1.53009,1.77449,1.92795,2.03334,2.11022,2.16879,2.2149,2.25215
0.269388,1.64351,2.3551,2.75451,3.01101,3.18988,3.3218,3.42312,3.50339,3.56857
0.182807,1.26849,1.84875,2.18134,2.39681,2.54769,2.6592,2.74495,2.81293,2.86815
0.165683,1.23054,1.76272,2.05609,2.24143,2.36902,2.46217,2.53316,2.58905,2.6342
0.156604,1.24405,1.76024,2.03877,2.21287,2.332,2.41864,2.4845,2.53625,2.57799
0.147827,1.24875,1.77466,2.06755,2.25512,2.38575,2.48202,2.55595,2.61452,2.66207
0.19418,1.72901,2.45513,2.85971,3.11795,3.29707,3.42859,3.52923,3.60873,3.6731
0.13404,1.26395,1.80169,2.10358,2.29699,2.43148,2.53042,2.60624,2.66622,2.71483
0.133173,1.31786,1.8755,2.18668,2.3851,2.5226,2.62349,2.70067,2.76162,2.81096
0.125363,1.32739,1.90629,2.23365,2.4441,2.59077,2.69883,2.78177,2.84742,2.90069
0.127743,1.42959,2.0515,2.39998,2.62248,2.77676,2.89,2.97665,3.04508,3.10048
0.166919,1.95316,2.78535,3.24495,3.53602,3.73684,3.88375,3.99588,4.08427,4.15575
0.122148,1.50416,2.15173,2.51332,2.74433,2.90477,3.02272,3.1131,3.18457,3.2425
0.114116,1.46996,2.10111,2.45255,2.67646,2.83158,2.94538,3.03242,3.10114,3.15678
0.139545,1.93723,2.80808,3.30329,3.62273,3.84585,4.01051,4.13702,4.23727,4.31866
0.0953672,1.38046,1.98657,2.32413,2.53881,2.68726,2.79601,2.87909,2.94462,2.99764
0.106377,1.70081,2.50572,2.97079,3.2736,3.48647,3.64431,3.76602,3.86274,3.94145
0.143006,2.28378,3.2543,3.77963,4.10797,4.3324,4.49544,4.61923,4.7164,4.7947
0.0988527,1.64485,2.35756,2.75558,3.01066,3.18839,3.31942,3.42006,3.49981,3.56457
0.0983073,1.68801,2.41962,2.82942,3.09182,3.27424,3.4084,3.5112,3.59248,3.65835
0.100217,1.77576,2.53716,2.95947,3.22776,3.4132,3.54901,3.65275,3.73457,3.80075
0.100409,1.998,2.97444,3.5539,3.93777,4.21082,4.41503,4.57352,4.7001,4.80354
0.126187,2.62842,3.86223,4.56014,5.00633,5.31551,5.54217,5.71535,5.85196,5.96244
0.0965042,1.97276,2.80746,3.25966,3.54332,3.73802,3.88001,3.98817,4.07332,4.14211
0.0939126,2.07065,3.03372,3.59327,3.96086,4.22126,4.41554,4.5661,4.68622,4.7843
0.08272,1.14348,1.4055,1.52142,1.58674,1.62863,1.65776,1.67918,1.6956,1.70857
0.0907182,1.54821,2.22117,2.65627,2.9671,3.20164,3.38535,3.53331,3.65511,3.75715
0.113206,2.23964,3.35841,4.04584,4.50119,4.82134,5.05724,5.23762,5.37968,5.49429
0.0865567,1.85729,2.75939,3.272,3.59618,3.81854,3.98029,4.10321,4.19977,4.27764
0.108183,2.46267,3.61593,4.25466,4.65804,4.9361,5.13957,5.29501,5.41766,5.51695
0.0861087,2.10087,3.05526,3.57184,3.89465,4.11552,4.27616,4.39826,4.4942,4.57156
0.0875322,2.19128,3.16188,3.69623,4.0364,4.27253,4.4462,4.57937,4.68476,4.77025
0.0875209,2.23337,3.20534,3.74358,4.08687,4.32509,4.50009,4.63411,4.74002,4.82582
0.0857376,2.23881,3.20928,3.74916,4.09374,4.3328,4.50838,4.64279,4.74899,4.83502
0.10514,2.7866,3.98311,4.64843,5.07258,5.3666,5.58242,5.74756,5.87802,5.98366
0.0718373,1.96105,2.82499,3.31433,3.6298,3.85015,4.01279,4.13778,4.23683,4.31727
0.0835107,2.34953,3.38776,3.9717,4.34543,4.60496,4.79563,4.94161,5.05694,5.15036
0.0799475,2.30838,3.32667,3.89786,4.26314,4.51683,4.70328,4.84611,4.95903,5.05053
0.0822033,2.40233,3.44587,4.02818,4.39982,4.65765,4.84704,4.99204,5.10663,5.19947
0.104378,3.07895,4.40559,5.14674,5.62045,5.94947,6.19134,6.37665,6.52317,6.64192
0.0809596,2.44686,3.52068,4.12752,4.5179,4.79016,4.99087,5.14495,5.26697,5.36599
0.0975767,3.00354,4.31789,5.05628,5.52888,5.85718,6.09847,6.28327,6.42934,6.54769
0.0790073,2.58835,3.76723,4.43497,4.86368,5.16198,5.38144,5.54965,5.68267,5.79049
0.0787978,2.57155,3.68269,4.29598,4.68453,4.95275,5.14908,5.29901,5.41725,5.51291
0.10778,3.60425,5.18857,6.08009,6.65298,7.0525,7.34713,7.57342,7.75269,7.89824
0.0784356,2.60542,3.71228,4.32547,4.71525,4.98488,5.18248,5.3335,5.45267,5.5491
0.0938549,3.16561,4.52265,5.28091,5.76555,6.10213,6.34952,6.53905,6.68889,6.81033
0.0758443,2.62572,3.77381,4.42058,4.83551,5.12428,5.33682,5.49978,5.62869,5.73322
0.076196,2.81278,4.12475,4.88331,5.37704,5.72388,5.98084,6.17883,6.33606,6.46393
0.0767783,2.84717,4.09918,4.79119,5.22858,5.5297,5.74952,5.91703,6.04888,6.15537
0.0755736,2.81895,4.03984,4.71864,5.15167,5.45228,5.67328,5.84266,5.97664,6.08528
0.0901875,3.41889,4.91102,5.74885,6.28628,6.66046,6.93601,7.14737,7.31465,7.45032
0.0754212,2.90673,4.17788,4.89152,5.34851,5.66615,5.8997,6.07865,6.22012,6.33478
0.0891604,3.60811,5.2634,6.21332,6.82939,7.26124,7.58074,7.82668,8.02185,8.18048
0.0752405,2.96756,4.2416,4.94833,5.39746,5.70807,5.93566,6.1096,6.24686,6.35792
0.0742037,3.00208,4.32813,5.07911,5.56313,5.90124,6.15084,6.34268,6.49475,6.61825
0.0751526,3.03586,4.3479,5.08136,5.54968,5.87455,6.11309,6.29566,6.43987,6.55667
0.0745244,3.09377,4.47272,5.2577,5.7648,6.11947,6.38149,6.58299,6.74276,6.87256
0.088591,3.71557,5.34944,6.26693,6.85367,7.26097,7.56015,7.78918,7.97013,8.1167
0.0729286,3.07914,4.42387,5.17877,5.66229,5.99855,6.24597,6.43568,6.58576,6.70746
0.0897164,3.82728,5.50608,6.45338,7.06219,7.48652,7.79922,8.03922,8.22925,8.38343
0.0738935,3.17386,4.55808,5.33598,5.83429,6.18073,6.43553,6.6308,6.78521,6.91037
0.0890346,3.9078,5.63054,6.60111,7.22348,7.65645,7.97504,8.21926,8.41244,8.56907
0.0666479,2.98344,4.31814,5.07695,5.5666,5.90879,6.16144,6.35563,6.50956,6.63457
0.0872707,4.19295,6.22087,7.41366,8.19832,8.75351,9.16698,9.48683,9.74159,9.9493
0.0729468,3.66201,5.43085,6.45191,7.11388,7.57724,7.91951,8.1826,8.39111,8.5604
0.0856689,4.18064,6.00641,7.00784,7.63965,8.07464,8.39243,8.6348,8.82576,8.98011
0.0715483,3.38528,4.80266,5.58429,6.08199,6.42732,6.68117,6.87572,7.02961,7.15439
0.0702616,3.22144,4.55394,5.29821,5.77552,6.10801,6.35297,6.54097,6.68982,6.81059
0.0732029,3.89569,5.92729,7.19601,8.06347,8.6936,9.17189,9.54724,9.8496,10.0984
0.0701907,3.82452,5.66615,6.7111,7.37624,7.83472,8.16921,8.42375,8.62383,8.78519
0.0832793,4.44153,6.39933,7.47397,8.15292,8.62135,8.96435,9.22651,9.43347,9.60105
0.0691234,3.91801,5.79791,6.89989,7.62763,8.14506,8.53214,8.83271,9.0729,9.26927
0.0817299,4.54518,6.54899,7.65833,8.36122,8.8458,9.19983,9.46968,9.68212,9.85368
0.0659009,3.88142,5.75084,6.85484,7.58644,8.10762,8.49803,8.80153,9.04428,9.24289
0.0809569,4.62445,6.58618,7.64237,8.29851,8.74454,9.06703,9.3109,9.50169,9.65499
0.0708169,3.87956,5.47552,6.35603,6.91781,7.30848,7.59626,7.81724,7.99234,8.13453
0.0761682,4.13238,5.88452,6.87955,7.52374,7.97518,8.30918,8.56629,8.77031,8.93615
0.0697172,3.75877,5.35265,6.24878,6.82237,7.22059,7.51305,7.73686,7.91364,8.05677
0.0704078,3.87391,5.58462,6.56336,7.19673,7.64006,7.96771,8.21974,8.41963,8.58205
0.0695948,3.81271,5.45902,6.38036,6.96772,7.37452,7.67281,7.90088,8.08088,8.22656
0.0699642,4.29492,6.35445,7.54045,8.30714,8.8426,9.23747,9.54059,9.78058,9.97527
0.06516,3.85533,5.42462,6.23831,6.73254,7.06393,7.30141,7.47989,7.61891,7.73024
0.0611375,3.57143,5.06508,5.89669,6.43213,6.80729,7.08529,7.29978,7.47037,7.60933
0.0599804,3.51297,5.00702,5.84626,6.38501,6.76006,7.03605,7.24757,7.4148,7.55032
0.0624866,3.6309,5.17824,6.04867,6.60697,6.99541,7.28124,7.50035,7.67367,7.81419
0.0719309,4.23773,6.08882,7.13872,7.81466,8.28606,8.63353,8.90023,9.1114,9.28274
0.0627762,3.67081,5.25014,6.1356,6.70152,7.09431,7.38284,7.60375,7.77832,7.91974
0.0772565,4.54653,6.51876,7.62896,8.34082,8.83615,9.20072,9.48028,9.70147,9.88085
0.0627811,3.93569,5.80194,6.89809,7.61907,8.12931,8.50941,8.80353,9.03788,9.22899
0.0731349,4.81165,6.98992,8.18044,8.92238,9.42699,9.79176,10.0675,10.2831,10.4562
0.0709802,4.48758,6.3754,7.4038,8.05367,8.50273,8.83209,9.08418,9.28345,9.44498
0.0702704,4.39295,6.25759,7.30251,7.97467,8.44411,8.79071,9.05715,9.26838,9.43994
