0.1129,0.147671,0.164565,0.174549,0.181143,0.185823,0.189317,0.192025,0.194185,0.195949
0.0645565,0.112629,0.141262,0.159872,0.172865,0.182431,0.18976,0.195552,0.200243,0.204119
0.0697659,0.143993,0.18596,0.211415,0.228254,0.240156,0.248992,0.255804,0.261211,0.265606
0.0543284,0.134435,0.181214,0.209909,0.229109,0.242823,0.253099,0.261084,0.267467,0.272686
0.0419208,0.124068,0.173028,0.202947,0.222892,0.237095,0.247711,0.255943,0.26251,0.267871
0.0354152,0.125742,0.181125,0.215123,0.237869,0.254115,0.266288,0.275746,0.283304,0.289482
0.0298782,0.140194,0.218005,0.268647,0.303654,0.329185,0.348595,0.363835,0.376115,0.386217
0.0377537,0.21233,0.326955,0.395225,0.439596,0.470581,0.493399,0.510886,0.524709,0.535908
0.0397826,0.22248,0.31796,0.370152,0.403141,0.425958,0.442711,0.455548,0.465705,0.473946
0.0318177,0.198646,0.291315,0.34655,0.38357,0.410194,0.430284,0.445991,0.45861,0.468972
0.0299048,0.200786,0.293341,0.347741,0.383557,0.408897,0.427758,0.442336,0.453938,0.463388
0.0425546,0.309201,0.453235,0.538122,0.594061,0.633689,0.663228,0.686096,0.704323,0.719192
0.0407382,0.310313,0.450917,0.53276,0.586321,0.624104,0.652187,0.673882,0.691147,0.705212
0.0371516,0.305561,0.448617,0.533362,0.589429,0.62927,0.65904,0.682129,0.70056,0.715613
0.0313706,0.278665,0.410667,0.488359,0.539412,0.575488,0.602324,0.623062,0.639566,0.653013
0.0307034,0.289826,0.426289,0.506149,0.558519,0.595505,0.62302,0.644288,0.661222,0.675024
0.0297336,0.296086,0.435241,0.516871,0.570562,0.608574,0.636904,0.658836,0.676318,0.690579
0.03419,0.361562,0.534093,0.636198,0.703708,0.751663,0.787484,0.81526,0.837426,0.855527
0.032215,0.356989,0.525681,0.624684,0.689747,0.735758,0.770013,0.796504,0.817602,0.834802
0.0308723,0.363296,0.538882,0.64331,0.712562,0.761858,0.79874,0.827374,0.850249,0.868945
0.0301573,0.378233,0.561796,0.669905,0.740977,0.791216,0.828597,0.85749,0.880489,0.899229
0.0293187,0.388336,0.575877,0.685755,0.75786,0.808809,0.846723,0.876038,0.899382,0.918412
0.0280685,0.386301,0.570952,0.679258,0.750536,0.801031,0.838685,0.867848,0.891102,0.91008
0.0312312,0.447654,0.661664,0.787584,0.87059,0.929438,0.973335,1.00734,1.03445,1.05658
0.0305447,0.459327,0.681209,0.812321,0.898899,0.960331,1.00618,1.0417,1.07004,1.09317
0.028542,0.446466,0.661429,0.788045,0.871468,0.930571,0.974635,1.00875,1.03595,1.05813
0.0285528,0.464038,0.686834,0.817807,0.904008,0.965042,1.01053,1.04573,1.07379,1.09668
0.0278621,0.473135,0.703244,0.839651,0.929936,0.994117,1.04209,1.0793,1.10902,1.13329
0.0273906,0.479527,0.709642,0.844747,0.933572,0.996406,1.0432,1.07939,1.10822,1.13173
0.0294636,0.537414,0.798637,0.953414,1.05584,1.12864,1.18306,1.22528,1.25898,1.28652
0.0288075,0.542172,0.804176,0.958695,1.06059,1.13282,1.18669,1.22841,1.26168,1.28882
0.02799,0.545765,0.80921,0.964196,1.06622,1.13846,1.1923,1.23396,1.26717,1.29425
0.0275024,0.552095,0.817654,0.97389,1.07682,1.14976,1.20415,1.24628,1.27987,1.30727
0.0268887,0.560378,0.832681,0.993747,1.10019,1.17576,1.23219,1.27594,1.31084,1.33934
0.027361,0.582875,0.861577,1.02481,1.132,1.20776,1.26414,1.30774,1.34246,1.37077
0.0286937,0.630266,0.933677,1.11254,1.23054,1.31425,1.37673,1.42514,1.46376,1.49529
0.027801,0.633312,0.943851,1.12891,1.25182,1.33938,1.40493,1.45584,1.49653,1.52979
0.0273352,0.645759,0.960274,1.14507,1.2664,1.35211,1.41585,1.4651,1.50429,1.53621
0.0266557,0.645336,0.956433,1.13877,1.25859,1.34338,1.40654,1.45543,1.49439,1.52617
0.0290282,0.719435,1.06596,1.26995,1.40449,1.49992,1.57115,1.62634,1.67037,1.70631
0.0296376,0.759476,1.12677,1.34268,1.48472,1.58523,1.66009,1.71801,1.76414,1.80176
0.0298958,0.839659,1.26781,1.52166,1.68891,1.80725,1.89534,1.96344,2.01765,2.06182
0.0308873,0.886243,1.31737,1.56627,1.72811,1.84178,1.92601,1.99094,2.04252,2.08449
0.0302502,0.883285,1.30146,1.54189,1.69832,1.80832,1.88992,1.95287,2.00292,2.04367
0.0274803,0.847605,1.26745,1.51663,1.68199,1.79979,1.888,1.95651,2.01127,2.05604
0.0267632,0.838711,1.23486,1.46148,1.60789,1.71015,1.78559,1.84351,1.88938,1.92659
0.0269791,0.850118,1.25036,1.48394,1.63763,1.7466,1.82795,1.89103,1.94137,1.9825
0.0316051,0.99802,1.45619,1.71972,1.89099,2.01119,2.10018,2.16871,2.2231,2.26731
0.0309867,0.971583,1.41408,1.67066,1.83859,1.95713,2.0453,2.11346,2.16773,2.21197
0.0306848,0.982018,1.44356,1.71603,1.89601,2.02377,2.11915,2.19308,2.25205,2.30019
0.0304121,0.994775,1.46685,1.74432,1.92665,2.05551,2.15138,2.22548,2.28446,2.33252
0.0286928,0.968233,1.43795,1.71629,1.90024,2.03081,2.12831,2.20388,2.26417,2.3134
0.0275513,0.926708,1.35937,1.6097,1.77271,1.88727,1.97219,2.03764,2.08964,2.13194
0.0241623,0.831956,1.22569,1.45584,1.60688,1.71366,1.79316,1.85465,1.90363,1.94357
0.0255016,0.945961,1.42417,1.71059,1.90093,2.03649,2.13791,2.21663,2.2795,2.33086
0.0269277,1.03234,1.54543,1.84659,2.04409,2.18348,2.2871,2.36713,2.43081,2.48268
0.0267347,1.02116,1.50414,1.78228,1.96325,2.09048,2.18484,2.25764,2.3155,2.36261
0.0282158,1.08715,1.60104,1.901,2.0982,2.23786,2.342,2.42265,2.48697,2.53945
0.0310626,1.17984,1.72346,2.03901,2.24556,2.39131,2.49969,2.58342,2.65006,2.70436
0.0319731,1.21646,1.78113,2.11186,2.32942,2.48343,2.59821,2.68704,2.75784,2.81559
0.031093,1.18465,1.73423,2.05549,2.26622,2.41506,2.52577,2.61133,2.67943,2.73493
0.031819,1.23654,1.82388,2.17068,2.39951,2.56178,2.68284,2.77661,2.85139,2.91242
0.0311606,1.22076,1.79597,2.13215,2.35237,2.50772,2.62318,2.71235,2.78328,2.84106
0.0311982,1.24699,1.84208,2.19192,2.42213,2.58511,2.70657,2.80059,2.87552,2.93664
0.0310269,1.26077,1.86277,2.2157,2.44747,2.61131,2.73325,2.82754,2.90263,2.96383
0.0321323,1.32398,1.95389,2.32215,2.56365,2.73424,2.86114,2.95923,3.03733,3.10098
0.0317891,1.32097,1.94395,2.30682,2.54436,2.71197,2.83656,2.93282,3.00942,3.07183
0.0314387,1.32608,1.95443,2.32191,2.56313,2.73365,2.86057,2.95874,3.03692,3.10065
0.0313786,1.34333,1.98152,2.35505,2.60027,2.77359,2.90259,3.00233,3.08176,3.14651
0.0308709,1.34674,1.99127,2.36963,2.61844,2.7945,2.92564,3.02711,3.10795,3.17388
0.0304606,1.34365,1.98131,2.35329,2.5969,2.76878,2.89654,2.99523,3.07377,3.13774
0.0323668,1.4541,2.14839,2.55501,2.82209,3.01095,3.15157,3.26035,3.34699,3.41765
0.0315208,1.43027,2.10507,2.49701,2.75301,2.93332,3.06718,3.17047,3.2526,3.31947
0.031882,1.46608,2.1624,2.5702,2.83827,3.02799,3.16936,3.27878,3.36599,3.43712
0.0309175,1.45884,2.16528,2.58258,2.85808,3.05353,3.19938,3.31238,3.4025,3.47605
0.0307511,1.45513,2.14271,2.54208,2.80283,2.98639,3.1226,3.22768,3.3112,3.37919
0.030447,1.4595,2.15253,2.55793,2.82421,3.01256,3.15284,3.2614,3.34789,3.41844
0.0315265,1.5252,2.24648,2.66743,2.94332,3.13812,3.28298,3.39492,3.48403,3.55663
0.0312837,1.53366,2.26182,2.68789,2.96761,3.16533,3.31251,3.42632,3.51696,3.59086
0.0308695,1.5347,2.26314,2.68842,2.96706,3.16373,3.30995,3.42292,3.51283,3.58607
0.0310926,1.56744,2.31403,2.7511,3.03811,3.24104,3.39212,3.50898,3.60206,3.67795
0.0304343,1.55925,2.30276,2.7373,3.0222,3.22337,3.37298,3.48859,3.58062,3.6556
0.0303048,1.56808,2.31269,2.74737,3.03233,3.23358,3.38329,3.49902,3.59115,3.66624
0.0313794,1.63937,2.41584,2.86901,3.16607,3.37585,3.53189,3.6525,3.74852,3.82677
0.0310183,1.6411,2.4198,2.87472,3.17306,3.38379,3.54056,3.66174,3.75822,3.83685
0.031024,1.67396,2.47858,2.95184,3.26351,3.48427,3.64884,3.77624,3.8778,3.96065
0.0306361,1.68223,2.49106,2.965,3.27613,3.49597,3.65954,3.78599,3.88666,3.9687
0.0306505,1.69753,2.50308,2.97146,3.27759,3.49333,3.65356,3.77726,3.87565,3.95578
0.0301386,1.68284,2.4793,2.94369,3.24809,3.46311,3.6231,3.74679,3.84529,3.92558
0.0312354,1.7631,2.59976,3.08896,3.41008,3.63706,3.80601,3.93666,4.0407,4.12552
0.0306656,1.74883,2.57869,3.06368,3.3818,3.60652,3.77369,3.90292,4.0058,4.08964
0.0306779,1.77126,2.6142,3.10746,3.43124,3.66006,3.83037,3.96205,4.06692,4.1524
0.0300863,1.75948,2.59791,3.08833,3.4101,3.63744,3.80658,3.93734,4.04146,4.12631
0.0301721,1.79806,2.66185,3.16855,3.50155,3.73709,3.91248,4.04816,4.15623,4.24435
0.0300019,1.79859,2.65251,3.15009,3.47582,3.70561,3.8764,4.00834,4.11332,4.19884
0.0308612,1.87297,2.76423,3.28503,3.62671,3.86815,4.04783,4.18677,4.29741,4.38759
0.0312391,1.91319,2.8216,3.35208,3.69992,3.94559,4.12835,4.26962,4.38208,4.47374
0.0306614,1.89427,2.79172,3.31534,3.65848,3.90073,4.08089,4.22011,4.33093,4.42123
0.030716,1.91339,2.81999,3.34964,3.69707,3.94253,4.12517,4.26638,4.37882,4.47047
0.0304048,1.92574,2.84816,3.3898,3.74608,3.99823,4.18609,4.33146,4.44728,4.54174
