1.58401,1.5865,1.58734,1.58776,1.58801,1.58817,1.58829,1.58838,1.58845,1.58851
1.28052,1.89618,2.25716,2.49441,2.66223,2.78722,2.88391,2.96094,3.02375,3.07594
1.21063,2.73836,3.82045,4.55749,5.07559,5.45437,5.74125,5.96509,6.14415,6.29038
1.04627,3.85505,6.40728,8.26969,9.60207,10.5788,11.3176,11.8927,12.3518,12.726
1.93849,10.3611,17.5459,21.797,24.3476,25.992,27.1245,27.9466,28.5684,29.0542
1.95603,14.1116,23.1423,27.7262,30.3324,32.0017,33.1638,34.0212,34.6808,35.2046
0.974347,8.11417,12.029,13.7358,14.676,15.2753,15.6925,16.0002,16.2369,16.4247
0.956167,9.49781,13.8836,15.9616,17.2033,18.0385,18.6413,19.0976,19.4554,19.7435
2.12354,23.7485,33.7205,38.4536,41.2641,43.1313,44.4622,45.4585,46.2322,46.8502
1.70948,20.9624,29.189,33.1526,35.5183,37.0937,38.2187,39.0625,39.7188,40.2439
1.50997,21.5815,30.7027,35.3962,38.2874,40.2501,41.6702,42.7455,43.5881,44.2661
1.13118,18.7532,26.9061,31.0991,33.6514,35.3649,36.5932,37.5163,38.2351,38.8106
1.26663,24.2888,34.9936,40.4689,43.7842,46.0042,47.5939,48.7884,49.7186,50.4635
1.54584,31.7158,44.3052,50.4125,54.0104,56.3808,58.0602,59.3124,60.282,61.055
1.31634,28.3256,38.8839,44.034,47.105,49.1499,50.611,51.7078,52.5618,53.2456
1.36752,31.5859,43.5139,49.5255,53.1753,55.6309,57.397,58.7286,59.7684,60.603
0.976803,24.02,33.0546,37.6174,40.3764,42.2243,43.5482,44.5429,45.3177,45.9381
1.61366,41.572,56.8758,64.5576,69.1815,72.2699,74.4787,76.1367,77.4273,78.4602
0.959909,25.688,34.9987,39.6816,42.5059,44.396,45.7498,46.7673,47.5601,48.1952
0.948238,27.3229,37.6791,43.0143,46.273,48.4707,50.0531,51.247,52.1798,52.9287
1.45989,44.0563,60.4077,68.6676,73.6402,76.9589,79.33,81.1083,82.4911,83.5972
0.61865,19.2283,26.16,29.6332,31.7201,33.1132,34.1093,34.8571,35.4392,35.9052
1.41157,44.8936,60.7855,68.7657,73.5751,76.7926,79.0971,80.8291,82.1785,83.2595
1.22457,39.62,53.5093,60.523,64.7638,67.6064,69.6449,71.1783,72.3736,73.3317
1.19036,39.2169,52.8946,59.812,63.9931,66.7937,68.8006,70.3093,71.4848,72.4265
1.1655,38.2481,51.1716,57.6438,61.5334,64.1293,65.9848,67.3773,68.4607,69.3278
1.18264,39.6331,53.3463,60.3424,64.5948,67.4547,69.5104,71.0594,72.2687,73.239
0.792524,27.1934,36.715,41.5741,44.5205,46.4968,47.9141,48.9801,49.8108,50.4764
0.683758,23.7771,32.0275,36.2058,38.7277,40.4145,41.6221,42.5291,43.2355,43.801
1.06605,37.6125,50.6467,57.254,61.2481,63.9239,65.8417,67.2837,68.4076,69.3081
0.969036,34.4787,46.3192,52.3034,55.9152,58.3322,60.063,61.3636,62.3766,63.188
1.07638,39.2741,53.0354,60.0631,64.3304,67.1973,69.2561,70.8063,72.0157,72.9855
1.00288,36.9316,49.6888,56.1371,60.0251,62.6241,64.4836,65.8799,66.9667,67.8366
0.779474,28.8716,38.7645,43.7661,46.7866,48.8089,50.258,51.3474,52.1963,52.8764
0.848096,31.7258,42.6165,48.1405,51.4826,53.7228,55.329,56.537,57.4785,58.233
1.15468,43.905,59.1221,66.87,71.5651,74.7146,76.9737,78.6733,79.9983,81.0602
1.27086,48.8763,65.7604,74.3233,79.4976,82.9618,85.4431,87.3079,88.7604,89.9238
0.830428,32.4051,43.6354,49.3389,52.7895,55.1021,56.7599,58.0066,58.9783,59.7569
1.03561,40.9288,55.0969,62.2833,66.6276,69.5373,71.6223,73.1896,74.4108,75.3891
1.20862,48.3497,65.0736,73.5554,78.6835,82.1187,84.5805,86.4314,87.8737,89.0292
1.08739,6.31827,6.52242,6.59345,6.62955,6.65141,6.66606,6.67656,6.68446,6.69062
1.06297,7.5479,9.48305,10.7844,11.7301,12.4502,13.0173,13.4757,13.854,14.1715
1.02363,8.70442,11.8825,13.8275,15.094,15.9683,16.6018,17.079,17.45,17.7459
1.02213,9.4291,12.8046,14.5779,15.6272,16.3115,16.7908,17.1445,17.416,17.631
1.08434,14.8894,23.7275,29.4988,33.4933,36.4204,38.66,40.4306,41.8664,43.0548
1.11355,21.6875,36.6099,45.5866,51.2438,55.0581,57.7776,59.8036,61.366,62.6049
1.09972,26.2435,41.4215,48.782,52.9031,55.5082,57.2988,58.6044,59.5987,60.3811
1.08281,31.5985,48.6591,56.8596,61.6576,64.8311,67.0961,68.7981,70.1258,71.1912
1.06816,37.9863,57.9528,67.7607,73.643,77.5847,80.4151,82.5474,84.2116,85.5468
1.06602,43.4124,64.0328,73.8745,79.684,83.5254,86.2546,88.2934,89.8741,91.1356
1.0562,49.0572,71.4273,82.3587,88.9229,93.3148,96.4629,98.8312,100.678,102.159
1.04838,50.4163,70.1544,79.4152,84.8425,88.4132,90.9414,92.8257,94.2841,95.4465
1.04999,54.7266,76.401,87.2135,93.791,98.2294,101.43,103.849,105.743,107.265
1.0307,56.3148,77.7302,88.3579,94.7468,99.0107,102.058,104.343,106.12,107.541
1.02779,58.2464,79.7939,90.5352,97.0006,101.322,104.415,106.738,108.547,109.996
1.02464,59.4954,80.9499,91.6687,98.1215,102.435,105.521,107.84,109.646,111.092
1.00139,61.6946,84.8788,96.789,104.064,108.971,112.505,115.172,117.256,118.929
0.994004,63.9752,87.8632,99.9938,107.323,112.226,115.735,118.369,120.42,122.061
0.98988,64.9597,88.3867,100.116,107.156,111.85,115.204,117.72,119.677,121.243
0.993761,65.933,89.1798,100.835,107.853,112.547,115.908,118.434,120.401,121.977
0.992715,66.9957,90.6371,102.602,109.845,114.703,118.189,120.812,122.857,124.497
0.979413,66.3995,89.4783,101.121,108.147,112.849,116.215,118.745,120.715,122.293
0.975255,67.2338,90.8722,102.909,110.211,115.114,118.634,121.284,123.351,125.009
0.983691,68.2997,92.0909,104.137,111.412,116.28,119.767,122.386,124.426,126.06
0.948008,66.415,89.5072,101.209,108.282,113.02,116.416,118.969,120.958,122.552
0.948109,66.0506,88.5489,99.8687,106.685,111.24,114.498,116.945,118.849,120.374
0.936882,65.7258,88.3489,99.8466,106.815,111.492,114.849,117.376,119.347,120.927
0.942792,67.2685,90.8333,102.877,110.189,115.1,118.624,121.277,123.345,125.004
0.933688,67.2059,90.6731,102.599,109.81,114.64,118.1,120.7,122.726,124.348
0.921489,67.4646,91.2091,103.299,110.62,115.529,119.05,121.698,123.762,125.417
0.935275,68.6206,92.4036,104.421,111.669,116.516,119.986,122.592,124.622,126.247
0.942123,68.4867,91.6946,103.356,110.376,115.066,118.422,120.942,122.904,124.475
0.912399,67.4048,90.8649,102.858,110.152,115.059,118.586,121.244,123.318,124.983
0.902415,67.5183,91.1233,103.143,110.42,115.296,118.79,121.416,123.462,125.101
0.943611,70.8794,95.4129,107.826,115.315,120.325,123.912,126.606,128.704,130.384
0.937988,18.9939,20.3438,20.8373,21.0932,21.2499,21.3556,21.4318,21.4893,21.5343
0.947853,16.8043,20.0278,21.8823,23.1099,23.9864,24.6446,25.1574,25.5684,25.9052
0.937752,20.2082,27.4623,32.0479,35.168,37.4122,39.0975,40.4065,41.4511,42.3034
0.931842,29.7839,47.7861,60.3747,69.2879,75.822,80.7799,84.6557,87.7619,90.3039
0.916088,36.2492,56.6854,67.7765,74.2283,78.3339,81.1425,83.1729,84.7042,85.898
0.920878,44.7894,69.1668,81.5364,88.7701,93.5143,96.875,99.3863,101.337,102.899
0.902758,50.5485,75.1923,87.0063,93.8826,98.4004,101.603,103.994,105.848,107.329
0.901705,57.9347,84.9846,98.2063,106.114,111.403,115.197,118.053,120.282,122.07
0.896124,59.4394,82.9246,93.8708,100.26,104.457,107.426,109.638,111.349,112.712
0.893151,64.453,90.2921,103.177,111.022,116.322,120.147,123.041,125.306,127.129
0.89094,70.9,100.099,115.013,124.122,130.263,134.682,138.012,140.611,142.696
0.881358,74.1003,103.212,117.733,126.44,132.236,136.37,139.466,141.871,143.794
0.877382,77.5308,107.268,122.148,131.109,137.1,141.391,144.616,147.129,149.142
0.871681,74.9955,100.716,113.167,120.535,125.408,128.871,131.459,133.466,135.069
0.870264,77.4756,105.26,119.436,128.104,133.966,138.198,141.398,143.904,145.919
0.868933,78.0859,105.591,119.473,127.852,133.455,137.462,140.471,142.811,144.684
0.861477,79.2012,107.432,121.805,130.522,136.373,140.573,143.733,146.198,148.175
0.855614,79.9984,108.41,122.822,131.533,137.367,141.546,144.686,147.133,149.092
0.859667,80.9845,109.367,123.699,132.345,138.129,142.27,145.382,147.805,149.746
0.845458,79.9104,107.646,121.657,130.117,135.782,139.84,142.892,145.269,147.173
0.848424,80.7354,108.791,123.022,131.634,137.408,141.549,144.664,147.092,149.038
0.835876,80.1624,108.068,122.241,130.818,136.567,140.689,143.789,146.204,148.14
0.828478,80.8473,109.366,123.915,132.739,138.661,142.911,146.108,148.602,150.6
0.836929,82.3795,111.274,125.936,134.797,140.731,144.981,148.175,150.663,152.656
0.832533,82.1842,110.821,125.346,134.131,140.019,144.239,147.414,149.888,151.871
