1.30164,1.31275,1.3165,1.31838,1.31951,1.32027,1.32081,1.32121,1.32153,1.32178
0.969361,1.47569,1.78267,1.98865,2.13644,2.24764,2.33434,2.40384,2.46079,2.50831
0.827278,1.79232,2.4123,2.80532,3.06788,3.25286,3.38911,3.49315,3.57495,3.64082
0.754573,2.40354,3.60691,4.37532,4.88532,5.24314,5.50647,5.70786,5.86665,5.99499
0.706865,3.00279,4.55191,5.4139,5.93459,6.27799,6.52019,6.69978,6.83811,6.94787
0.658346,3.47709,5.15324,6.00551,6.50717,6.83704,7.07069,7.24503,7.38019,7.4881
0.666583,3.99016,5.64371,6.43495,6.89707,7.20123,7.41705,7.5783,7.70342,7.80337
0.694089,4.64798,6.46507,7.35812,7.89514,8.25546,8.51445,8.70974,8.86231,8.98482
0.716815,5.55524,7.87264,9.09283,9.85446,10.3765,10.7569,11.0464,11.2742,11.4581
0.757396,6.59652,9.28407,10.6623,11.4995,12.0608,12.4628,12.7647,12.9996,13.1876
0.804106,8.03636,11.4345,13.2138,14.3094,15.0518,15.5883,15.9941,16.3119,16.5675
0.855674,10.0793,14.6151,17.0311,18.5279,19.5452,20.2813,20.8384,21.2748,21.6258
0.884049,12.0992,17.6466,20.575,22.3759,23.5936,24.4714,25.1341,25.652,26.0679
0.830057,11.8815,16.637,18.986,20.3831,21.3093,21.9684,22.4615,22.8443,23.15
0.806609,12.3717,17.2832,19.7999,21.3431,22.3895,23.1468,23.7206,24.1706,24.5331
0.754925,12.7265,17.9765,20.7468,22.4665,23.6387,24.4889,25.1337,25.6394,26.0467
0.756353,13.9484,19.8037,22.9033,24.8218,26.1253,27.0682,27.7818,28.3407,28.7901
0.806033,15.5337,21.673,24.8148,26.7203,27.9984,28.9148,29.6041,30.1413,30.5717
0.814544,15.7128,21.4554,24.3492,26.0987,27.2722,28.1145,28.7486,29.2434,29.6403
0.725898,15.2163,21.2932,24.5512,26.5943,27.9975,29.0214,29.8017,30.4161,30.9125
0.698237,15.5715,21.8427,25.1628,27.2134,28.6035,29.607,30.3652,30.958,31.4342
0.659618,14.9713,20.6528,23.5661,25.3346,26.5215,27.3732,28.0141,28.5139,28.9145
0.670258,15.8832,22.0279,25.2558,27.2515,28.6091,29.5932,30.3394,30.9249,31.3966
0.676351,16.693,23.1939,26.6172,28.7312,30.1663,31.204,31.9894,32.6043,33.0989
0.62269,15.6223,21.5056,24.5516,26.4131,27.6681,28.5715,29.2527,29.7848,30.2119
0.621734,16.1721,22.3781,25.6466,27.6678,29.0422,30.0378,30.7923,31.3839,31.8603
0.608199,16.2693,22.4971,25.7664,27.7805,29.1455,30.1316,30.8771,31.4606,31.9296
0.621986,16.9391,23.3491,26.7027,28.7657,30.1629,31.172,31.9349,32.532,33.012
0.626399,16.731,22.6769,25.7115,27.5528,28.7891,29.6765,30.3445,30.8654,31.283
0.607714,16.9626,23.4117,26.853,29.0005,30.4699,31.5393,32.3526,32.992,33.508
0.603674,17.1422,23.5586,26.9101,28.9644,30.3506,31.3485,32.1008,32.6881,33.1593
0.57087,16.5133,22.7136,25.9668,27.971,29.33,30.3123,31.0557,31.6379,32.1062
0.55772,15.9068,21.6185,24.5609,26.3551,27.5635,28.4328,29.088,29.5997,30.0102
0.577312,17.0776,23.5186,26.9353,29.0567,30.503,31.5525,32.3489,32.974,33.4777
0.562158,17.188,23.763,27.2347,29.3767,30.8289,31.8777,32.6706,33.291,33.7896
0.561094,17.514,24.1696,27.6593,29.8051,31.2577,32.3061,33.0985,33.7185,34.2168
0.561329,17.7961,24.4864,27.9784,30.1225,31.5731,32.6198,33.4107,34.0295,34.5267
0.533836,16.5815,22.4715,25.4814,27.3092,28.5372,29.4192,30.0832,30.6013,31.0168
0.548924,17.6431,24.2602,27.7681,29.9479,31.4354,32.5157,33.336,33.9801,34.4994
0.616634,20.4131,28.3459,32.6081,35.2693,37.0885,38.4104,39.4143,40.2026,40.8379
0.608225,6.04374,6.53576,6.71685,6.81064,6.86792,6.90652,6.93427,6.9552,6.97153
0.591798,6.18653,7.69644,8.61251,9.24012,9.69927,10.0504,10.3278,10.5527,10.7387
0.604515,7.08882,9.50471,10.9308,11.8536,12.4925,12.9584,13.312,13.5888,13.8111
0.597752,9.50235,14.3843,17.5034,19.6061,21.105,22.2234,23.0884,23.777,24.3378
0.586028,11.6748,17.9723,21.5231,23.6936,25.1351,26.1556,26.9136,27.4981,27.9619
0.580703,12.995,19.1127,22.1483,23.912,25.0613,25.8701,26.4705,26.9343,27.3035
0.567904,13.6574,19.4065,22.1955,23.8445,24.9396,25.7218,26.3094,26.7672,27.1341
0.572399,15.5473,22.3247,25.8138,27.9633,29.4264,30.4882,31.2942,31.9271,32.4372
0.575429,17.7442,25.7007,29.8643,32.433,34.1755,35.4347,36.3866,37.1314,37.73
0.563512,19.1454,27.5152,31.8225,34.4462,36.2106,37.4779,38.432,39.1763,39.7731
0.567257,21.1299,30.2708,34.9926,37.8816,39.8327,41.2392,42.3016,43.1323,43.7999
0.543603,20.695,28.7928,32.8241,35.2423,36.855,38.0074,38.872,39.5446,40.0829
0.532344,21.814,30.6907,35.3297,38.2022,40.1602,41.5816,42.661,43.5087,44.1922
0.531776,23.0427,32.3761,37.2408,40.2305,42.253,43.7118,44.8134,45.6746,46.3662
0.53014,24.0926,33.7405,38.7525,41.8248,43.9006,45.397,46.5269,47.4103,48.1199
0.518571,23.9372,33.1142,37.8222,40.6908,42.6225,44.0121,45.0599,45.8781,46.5348
0.515404,24.2486,33.4347,38.1853,41.0974,43.0668,44.4881,45.5623,46.4027,47.0783
0.510474,24.6451,34.0304,38.9262,41.938,43.9786,45.4524,46.567,47.4392,48.1405
0.509127,25.7135,35.8879,41.3039,44.6713,46.9678,48.6342,49.8986,50.8908,51.6901
0.501937,25.1656,34.5037,39.2867,42.1875,44.1324,45.5266,46.5746,47.391,48.0449
0.515569,26.9774,37.5212,43.1326,46.6272,49.0158,50.7527,52.0732,53.111,53.9484
0.502426,26.6453,36.8198,42.126,45.3781,47.5734,49.1543,50.3467,51.278,52.0253
0.508026,27.1655,37.3894,42.7107,45.9755,48.1836,49.777,50.981,51.923,52.6802
0.503724,26.9598,36.952,42.1454,45.3312,47.4858,49.0403,50.2148,51.1335,51.8719
0.504829,26.9887,36.9082,42.0732,45.2453,47.3922,48.9419,50.1132,51.0296,51.7662
0.497293,25.9676,35.184,39.9308,42.8274,44.7795,46.1843,47.2437,48.0711,48.7352
0.480895,25.133,34.2177,38.9726,41.9032,43.8916,45.3295,46.4178,47.2703,47.9562
0.479857,26.0464,36.0108,41.3327,44.6427,46.8994,48.5363,49.7777,50.7515,51.5357
0.478382,26.7742,37.1244,42.5884,45.9535,48.2314,49.8749,51.1162,52.0867,52.8663
0.47495,27.0195,37.5978,43.2424,46.7536,49.15,50.8903,52.2119,53.2498,54.0864
0.472009,26.6866,36.604,41.7149,44.8235,46.9117,48.4105,49.5383,50.4175,51.1221
0.463159,24.2703,32.2882,36.2713,38.6565,40.2459,41.3813,42.2332,42.896,43.4265
0.454989,25.1656,34.7012,39.8728,43.1407,45.3975,47.051,48.3152,49.3133,50.1214
0.458015,26.6656,37.2235,42.8927,46.4136,48.8067,50.5367,51.8446,52.8677,53.6896
0.476776,28.5235,39.6624,45.5035,49.0827,51.4975,53.2359,54.547,55.5712,56.3933
0.485394,12.3872,13.9741,14.5881,14.9137,15.1155,15.2528,15.3524,15.4278,15.487
0.479599,13.4867,17.4764,19.8857,21.5382,22.7496,23.6779,24.4128,25.0093,25.5034
0.488423,15.4414,21.3389,24.7949,27.0223,28.5602,29.679,30.5263,31.1888,31.7201
0.484162,19.1684,28.6192,34.288,37.9663,40.5237,42.3987,43.8305,44.9591,45.8712
0.492866,20.6245,29.396,33.8267,36.4143,38.096,39.2731,40.142,40.8093,41.3377
0.503657,23.5675,33.9024,39.2875,42.5825,44.8146,46.4305,47.6562,48.6185,49.3946
0.488927,24.7475,35.3001,40.7232,44.0228,46.2439,47.8413,49.0453,49.9853,50.7393
0.493111,27.3416,39.1366,45.2879,49.0717,51.6369,53.4911,54.8942,55.9929,56.8767
0.489492,27.9941,39.1665,44.7996,48.1967,50.4686,52.0949,53.3163,54.2674,55.0288
0.490662,28.7199,39.8334,45.5122,48.9804,51.3229,53.0127,54.2897,55.289,56.0923
0.489415,28.9824,39.8851,45.4734,48.8867,51.1898,52.8488,54.1009,55.0794,55.8652
0.48771,30.4291,42.3949,48.7092,52.6233,55.2883,57.22,58.6846,59.8332,60.7581
0.489022,32.6999,46.1471,53.3259,57.7858,60.8228,63.0232,64.6904,65.9972,67.0489
0.485933,32.6112,45.0901,51.4658,55.3239,57.9071,59.7569,61.1467,62.2289,63.0954
0.482273,33.7395,47.0217,54.0087,58.3319,61.2749,63.4092,65.0285,66.2994,67.3236
0.484441,34.4467,47.712,54.6098,58.838,61.6945,63.7531,65.307,66.5213,67.4964
0.475614,34.2726,47.3602,54.1889,58.3885,61.2335,63.2888,64.8432,66.0601,67.0386
0.471132,34.3617,47.427,54.2602,58.4667,61.3176,63.3773,64.9351,66.1546,67.1351
0.466174,33.9059,46.6105,53.2501,57.3366,60.1058,62.1066,63.6199,64.8045,65.7571
0.47144,34.7147,47.8054,54.6738,58.9067,61.7769,63.8511,65.42,66.6483,67.636
0.466833,35.0012,48.3208,55.3226,59.6386,62.565,64.6795,66.2788,67.5308,68.5374
0.465677,35.0314,48.1614,55.0052,59.2031,62.0406,64.0865,65.6316,66.8397,67.8102
0.459152,35.0665,48.3491,55.3263,59.6293,62.5491,64.6606,66.2587,67.5105,68.5175
0.455525,35.5785,49.2513,56.4638,60.9185,63.9428,66.1301,67.7856,69.0821,70.125
0.452258,35.0617,48.1435,54.9493,59.1201,61.9378,63.9688,65.5021,66.7009,67.6637
