1.23706,1.24147,1.24295,1.24369,1.24413,1.24443,1.24464,1.2448,1.24492,1.24502
1.02916,1.5871,1.93517,2.17303,2.34588,2.47716,2.58026,2.66337,2.73179,2.7891
1.04304,2.38242,3.30796,3.91869,4.33605,4.63409,4.8555,5.02551,5.15969,5.26803
0.963482,3.42201,5.45846,6.84238,7.78851,8.46247,8.96272,9.34727,9.65151,9.89796
0.91127,4.42478,7.02106,8.46139,9.31098,9.85862,10.2377,10.5146,10.7254,10.891
0.858292,5.39846,8.36915,9.86734,10.7372,11.3048,11.7053,12.0036,12.2347,12.4191
0.795386,5.59798,8.00152,9.08309,9.69371,10.088,10.3644,10.5691,10.727,10.8525
0.759335,6.27928,8.97259,10.2942,11.0951,11.6368,12.0289,12.3261,12.5594,12.7474
0.721855,6.75762,9.5311,10.8992,11.7227,12.2735,12.6676,12.9636,13.1939,13.3781
0.6874,6.99597,9.6816,10.9978,11.7849,12.3091,12.6832,12.9637,13.1818,13.3562
0.678296,8.01267,11.3548,13.0981,14.1765,14.9104,15.4425,15.8461,16.1626,16.4177
0.660499,9.04757,12.9699,15.0157,16.2686,17.1129,17.7198,18.1769,18.5334,18.8191
0.640734,10.1673,14.687,17.0386,18.4746,19.4414,20.1363,20.6598,21.0684,21.3961
0.619456,10.275,14.2602,16.1928,17.33,18.0785,18.6084,19.0033,19.309,19.5525
0.61345,10.803,14.9011,16.9499,18.1895,19.0228,19.6224,20.0747,20.4284,20.7125
0.59372,11.4934,16.0625,18.4332,19.8925,20.8823,21.5978,22.1391,22.563,22.9039
0.582812,12.0162,16.6814,19.0586,20.4987,21.4635,22.1545,22.6737,23.0779,23.4015
0.574274,12.6582,17.5696,20.0837,21.613,22.6415,23.3808,23.9379,24.3728,24.7218
0.563318,12.9183,17.7563,20.2025,21.6801,22.6695,23.3783,23.9111,24.3263,24.6588
0.556371,13.6813,18.9773,21.7228,23.407,24.5466,25.3691,25.9909,26.4775,26.8687
0.549055,14.096,19.4192,22.1324,23.7756,24.8769,25.666,26.2592,26.7212,27.0912
0.542327,14.3116,19.5779,22.2525,23.8731,24.9606,25.7413,26.3289,26.7873,27.1549
0.540677,14.4992,19.7033,22.3434,23.9434,25.0175,25.7885,26.3689,26.8216,27.1846
0.537373,14.9507,20.441,23.2801,25.0194,26.1949,27.0427,27.6831,28.1839,28.5864
0.529486,15.0669,20.5298,23.3278,25.0277,26.1693,26.9887,27.6053,28.086,28.4713
0.521097,15.2278,20.7697,23.6214,25.3603,26.5316,27.3743,28.0097,28.506,28.9044
0.524368,15.3935,20.8984,23.7247,25.4469,26.6065,27.4407,28.0696,28.5607,28.9548
0.502437,15.1616,20.6589,23.4985,25.2332,26.4028,27.2447,27.8797,28.3757,28.7738
0.529476,16.3118,22.1977,25.2204,27.0589,28.2947,29.1823,29.8507,30.372,30.7901
0.537824,16.6263,22.482,25.4628,27.2686,28.4798,29.3487,30.0025,30.5122,30.9208
0.668799,21.0907,28.6204,32.4986,34.8662,36.4627,37.6123,38.4797,39.1575,39.7017
0.677009,21.4167,28.9281,32.7623,35.0883,36.6493,37.7694,38.6121,39.2691,39.7957
0.745212,24.0594,32.6582,37.1012,39.8175,41.6504,42.9708,43.9674,44.7463,45.3718
0.775259,25.7224,35.0752,39.9231,42.8875,44.8867,46.326,47.4116,48.2595,48.9401
0.755515,25.4451,34.5871,39.2741,42.1205,44.0316,45.4032,46.4353,47.2401,47.8852
0.739062,25.205,34.2141,38.8355,41.6476,43.5395,44.8996,45.9245,46.7247,47.3667
0.780857,27.1134,36.8395,41.8408,44.8881,46.9396,48.4149,49.5269,50.395,51.0915
0.732678,25.9688,35.3517,40.1911,43.1441,45.1337,46.5653,47.6447,48.4877,49.1643
0.721366,25.6278,34.7539,39.4404,42.294,44.2144,45.595,46.6354,47.4475,48.0991
0.834135,30.3093,41.2537,46.9074,50.3604,52.6885,54.3642,55.6282,56.6155,57.408
0.807027,6.43397,6.78251,6.90704,6.97097,7.00986,7.03601,7.0548,7.06895,7.07999
0.807786,7.18861,8.94172,10.0545,10.8362,11.4176,11.8676,12.2264,12.5192,12.7629
0.82681,8.47421,11.4103,13.1693,14.3098,15.0984,15.6717,16.1054,16.444,16.7151
0.819268,11.914,18.4209,22.6923,25.6061,27.6965,29.2628,30.4778,31.4471,32.2382
0.801393,15.2114,24.0523,29.1011,32.1768,34.207,35.6358,36.6919,37.5025,38.1435
0.787242,17.6497,26.7055,31.1821,33.7512,35.4098,36.5693,37.4261,38.0856,38.6092
0.776656,18.9226,27.1331,30.963,33.1734,34.6208,35.6454,36.4102,37.0034,37.4772
0.769481,21.2687,30.5408,35.1579,37.9638,39.8614,41.2334,42.2725,43.087,43.7429
0.759277,24.5008,35.7252,41.5417,45.1263,47.559,49.3175,50.6476,51.6886,52.5253
0.748001,26.9457,38.7916,44.7575,48.3487,50.744,52.4541,53.7355,54.7313,55.5273
0.735987,29.6956,42.6901,49.3034,53.3211,56.0229,57.9653,59.4295,60.5728,61.4906
0.729934,29.9617,41.395,46.9098,50.1635,52.3108,53.8341,54.9709,55.8518,56.5544
0.727684,32.1828,44.8946,51.395,55.3835,58.0885,60.0463,61.5298,62.6932,63.6301
0.724587,34.0426,47.4356,54.2888,58.4636,61.2723,63.2903,64.8098,65.9949,66.9449
0.714981,34.6229,47.7083,54.3135,58.3021,60.9714,62.8831,64.3196,65.4385,66.3347
0.706675,34.936,47.7809,54.2708,58.1981,60.8325,62.7228,64.1455,65.2551,66.1448
0.701105,35.5393,48.5665,55.2135,59.2574,61.9788,63.9356,65.4106,66.5621,67.4862
0.700132,37.4236,51.6755,59.0884,63.6388,66.7165,68.9367,70.614,71.9258,72.9798
0.696222,38.343,52.7326,60.1107,64.5912,67.5986,69.7559,71.3788,72.6437,73.6573
0.691229,39.1701,53.7789,61.2668,65.8207,68.8832,71.0842,72.7426,74.037,75.0755
0.683939,39.6203,54.2577,61.7533,66.312,69.3778,71.5811,73.2411,74.5367,75.576
0.679995,39.8022,54.3563,61.8324,66.3916,69.4639,71.6751,73.343,74.6459,75.6918
0.675763,40.04,54.5311,61.9486,66.4578,69.4887,71.6657,73.3051,74.5841,75.6097
0.669188,39.5507,53.5258,60.6319,64.9375,67.8259,69.8981,71.4574,72.6731,73.6477
0.659563,38.8134,52.3817,59.3025,63.5068,66.333,68.3636,69.8933,71.0872,72.0448
0.661111,39.7811,54.17,61.6481,66.2367,69.3401,71.5793,73.271,74.5943,75.6577
0.65576,39.6911,53.8813,61.1606,65.5822,68.5507,70.6805,72.2828,73.5318,74.5327
0.650547,39.522,53.5486,60.7293,65.0924,68.0245,70.1307,71.7169,72.9547,73.9474
0.650153,40.3852,55.0449,62.633,67.2738,70.4058,72.6621,74.365,75.6958,76.7645
0.646842,40.346,54.7896,62.1917,66.6886,69.709,71.8772,73.5092,74.7818,75.8021
0.639655,40.058,54.303,61.5984,66.0336,69.0155,71.1581,72.7721,74.0317,75.0421
0.644317,40.9541,55.717,63.339,67.9952,71.1352,73.3961,75.1018,76.4345,77.5045
0.631911,40.0891,54.2503,61.4749,65.8537,68.7905,70.8966,72.4807,73.7154,74.7047
0.628387,40.2788,54.6364,62.0188,66.5189,69.5501,71.731,73.3755,74.66,75.691
0.641612,42.4989,58.1991,66.3821,71.4038,74.7991,77.248,79.0977,80.5441,81.706
0.641239,13.9957,15.28,15.7581,16.0073,16.1601,16.2634,16.3378,16.394,16.4379
0.648237,14.8762,18.6692,20.9607,22.5286,23.6751,24.5516,25.2441,25.8054,26.2695
0.672332,17.9014,24.5475,28.5514,31.1743,33.0052,34.3476,35.3703,36.1736,36.8202
0.687005,23.8704,35.9486,43.3686,48.2202,51.5998,54.0772,55.9671,57.4547,58.6556
0.701264,27.9159,41.0853,47.9515,51.9862,54.6087,56.4418,57.7927,58.8287,59.648
0.695968,32.5524,48.1574,56.2311,61.0965,64.3542,66.6929,68.4559,69.8336,70.9406
0.68593,35.7293,51.7396,59.7011,64.4394,67.5867,69.8305,71.5114,72.8177,73.8621
0.684716,40.2383,58.2382,67.377,72.929,76.6693,79.363,81.3965,82.9864,84.2637
0.68055,41.2367,57.5009,65.3754,70.0344,73.1158,75.3048,76.94,78.2079,79.2197
0.674164,43.3204,60.3473,68.9307,74.156,77.682,80.2245,82.1459,83.6493,84.8581
0.672343,46.5952,65.3792,75.0755,81.0244,85.0481,87.9507,90.1432,91.8576,93.2347
0.665602,49.2473,69.0583,79.245,85.4525,89.6283,92.6285,94.8877,96.6501,98.0633
0.661,50.628,70.1851,80.0816,86.0601,90.0626,92.9298,95.0849,96.7639,98.109
0.667922,49.8239,67.2679,75.8557,80.9807,84.3887,86.8199,88.6419,90.0583,91.1911
0.65652,50.5449,69.068,78.6455,84.5386,88.5385,91.4335,93.6268,95.3462,96.7305
0.656805,51.9808,71.4477,81.6002,87.8412,92.0644,95.111,97.412,99.2111,100.656
0.654048,51.9385,70.7269,80.2925,86.077,89.9485,92.7201,94.8019,96.4226,97.7202
0.652338,52.0088,70.6013,80.0869,85.8466,89.7174,92.4985,94.5936,96.2289,97.5409
0.64581,52.8363,72.212,82.2464,88.3902,92.5401,95.5315,97.7902,99.556,100.974
0.646018,51.9211,70.0498,79.2106,84.7337,88.4253,91.0662,93.0488,94.5919,95.827
0.645794,52.9577,72.0843,81.9953,88.0718,92.1821,95.1487,97.3911,99.146,100.557
0.641249,52.9152,71.911,81.6729,87.6126,91.6054,94.4727,96.6314,98.315,99.6647
0.636303,52.9828,72.041,81.8456,87.8192,91.8401,94.7314,96.9106,98.612,99.9772
0.632736,53.0614,72.0912,81.8604,87.8046,91.8022,94.6748,96.8388,98.5275,99.882
0.628714,52.5556,71.1282,80.614,86.3716,90.2383,93.0142,95.1039,96.7339,98.0409
