0.953292,1.03558,1.06626,1.08229,1.09214,1.09881,1.10362,1.10726,1.11011,1.11239
0.640835,0.994096,1.19449,1.32308,1.41251,1.47829,1.5287,1.56855,1.60085,1.62755
0.456202,0.951765,1.24885,1.43278,1.55504,1.64136,1.70523,1.75428,1.79306,1.82445
0.402318,1.08788,1.50135,1.74582,1.90292,2.01142,2.09059,2.15081,2.19812,2.23626
0.356365,1.1738,1.63713,1.89489,2.0555,2.16465,2.24356,2.30323,2.34994,2.3875
0.313837,1.17235,1.6083,1.83831,1.97897,2.07382,2.14212,2.19367,2.23396,2.26632
0.277978,1.23971,1.74934,2.03169,2.21092,2.33496,2.42597,2.49561,2.55064,2.59521
0.240883,1.23603,1.74795,2.02565,2.199,2.31732,2.40316,2.46825,2.51929,2.56037
0.256776,1.52546,2.18264,2.54294,2.76983,2.9258,3.0396,3.12631,3.19457,3.24971
0.234497,1.53443,2.1666,2.5025,2.71024,2.85134,2.9534,3.03065,3.09116,3.13983
0.22205,1.65533,2.37585,2.77264,3.02427,3.19826,3.3258,3.42332,3.50033,3.56267
0.203035,1.64098,2.32868,2.69772,2.92758,3.0844,3.19819,3.28449,3.35219,3.40671
0.210186,1.84805,2.6238,3.044,3.30793,3.48923,3.62148,3.72225,3.80158,3.86567
0.203104,1.95857,2.79744,3.25649,3.54621,3.74571,3.89145,4.00258,4.0901,4.16083
0.19814,2.06662,2.95042,3.43234,3.73556,3.94387,4.09579,4.21148,4.3025,4.376
0.175688,1.93539,2.73996,3.17349,3.44459,3.63016,3.76516,3.8678,3.94846,4.01353
0.420076,5.11054,7.3648,8.62073,9.42233,9.9786,10.3873,10.7003,10.9477,11.1482
0.169636,2.22729,3.21277,3.75728,4.10205,4.33976,4.5135,4.646,4.75038,4.83473
0.182738,2.55753,3.67272,4.28221,4.66591,4.92962,5.122,5.26854,5.38389,5.47704
0.179065,2.60261,3.70339,4.30127,4.67735,4.9359,5.12464,5.26851,5.38181,5.47337
0.176818,2.6937,3.83755,4.46588,4.86402,5.13906,5.34049,5.49439,5.61582,5.71406
0.158606,2.46293,3.47445,4.02357,4.36878,4.60589,4.77881,4.91049,5.01411,5.09778
0.501404,8.2468,11.7684,13.7263,14.9747,15.8404,16.476,16.9626,17.347,17.6585
0.15558,2.58042,3.63403,4.20602,4.56504,4.81128,4.99064,5.12709,5.23437,5.32094
0.167541,2.92591,4.17149,4.86588,5.30932,5.61718,5.84346,6.01681,6.15388,6.26497
0.151132,2.73918,3.91063,4.56167,4.97572,5.26212,5.47198,5.63234,5.75885,5.86121
0.149034,2.77279,3.93082,4.56287,4.9603,5.23315,5.43202,5.5834,5.70248,5.79859
0.147427,2.91211,4.18917,4.90707,5.36759,5.6883,5.92453,6.10582,6.24934,6.3658
0.160117,3.24256,4.61638,5.36719,5.83933,6.16336,6.39941,6.57899,6.72017,6.83407
0.167574,3.46064,4.91686,5.71932,6.22854,6.58074,6.83896,7.03645,7.1924,7.31868
0.142894,3.03031,4.31226,5.02263,5.47448,5.78726,6.01662,6.19199,6.33043,6.44249
0.156433,3.45854,4.94959,5.78025,6.30944,6.67595,6.94475,7.1503,7.31257,7.44392
0.151821,3.45876,4.94368,5.76621,6.28826,6.64895,6.91306,7.11479,7.2739,7.4026
0.331601,7.80921,11.12,12.9301,14.0695,14.8522,15.4229,15.8575,16.1995,16.4755
0.140474,3.22008,4.50523,5.19944,5.63532,5.93479,6.15334,6.31991,6.4511,6.55711
0.138365,3.31104,4.72341,5.52024,6.03358,6.39217,6.6569,6.86036,7.02163,7.15261
0.149313,3.74398,5.38673,6.31181,6.90369,7.31438,7.61583,7.84643,8.02848,8.17585
0.143123,3.66026,5.21841,6.07312,6.61135,6.98109,7.25069,7.45594,7.61743,7.7478
0.153222,3.89443,5.47574,6.32934,6.86387,7.23027,7.49717,7.7003,7.86009,7.98908
0.165322,4.11927,5.74588,6.62838,7.18433,7.56716,7.84698,8.06048,8.22877,8.36483
0.161608,3.01313,3.81276,4.18964,4.40934,4.55325,4.65483,4.73036,4.78871,4.83516
0.147167,1.88658,2.26543,2.44485,2.55094,2.62131,2.67149,2.7091,2.73836,2.76178
0.145679,2.4047,3.41177,4.07214,4.54378,4.89831,5.17474,5.39638,5.57808,5.72975
0.158769,3.07124,4.5512,5.4468,6.02925,6.43258,6.72622,6.94861,7.12242,7.26177
0.156529,3.40839,5.05721,5.98186,6.55847,6.94991,7.23257,7.44618,7.61329,7.74762
0.15425,3.72228,5.50512,6.48109,7.0906,7.50751,7.81091,8.04175,8.22334,8.36996
0.151421,3.78602,5.42914,6.28662,6.812,7.16732,7.4238,7.6177,7.76944,7.89145
0.151977,4.20053,6.1383,7.20855,7.89118,8.36567,8.71497,8.98297,9.19514,9.36732
0.152143,4.41284,6.34463,7.37481,8.01446,8.44984,8.76512,9.00386,9.19086,9.34129
0.136572,4.08997,5.86367,6.83106,7.44354,7.86696,8.17741,8.4149,8.60249,8.75444
0.134253,4.21936,6.07684,7.10364,7.75682,8.20899,8.54056,8.79406,8.99416,9.15611
0.138753,4.72268,6.90815,8.14071,8.93173,9.48214,9.8871,10.1975,10.443,10.6419
0.292046,10.4147,15.0855,17.6392,19.2435,20.3434,21.144,21.7527,22.2311,22.6168
0.146175,5.03599,7.09971,8.20596,8.89835,9.37334,9.71974,9.98365,10.1915,10.3594
0.141637,5.1029,7.30433,8.53188,9.31796,9.86497,10.2677,10.5766,10.8211,11.0194
0.142888,5.41991,7.8247,9.16961,10.0276,10.622,11.0578,11.3909,11.6538,11.8665
0.131796,5.06323,7.22601,8.40606,9.14788,9.65707,10.0282,10.3106,10.5328,10.7122
0.129674,5.04928,7.16404,8.31348,9.03628,9.53304,9.89554,10.1718,10.3893,10.565
0.269156,10.9038,15.6059,18.2109,19.8683,21.0159,21.8578,22.5018,23.0103,23.4221
0.142721,5.92336,8.48135,9.8981,10.7981,11.4204,11.8763,12.2246,12.4994,12.7218
0.133233,5.47475,7.74238,8.97735,9.75462,10.2889,10.6788,10.9759,11.2098,11.3987
0.140867,5.91875,8.42539,9.81488,10.6994,11.3123,11.7621,12.1062,12.3781,12.5983
0.142324,5.85251,8.19383,9.45276,10.2384,10.7752,11.1652,11.4612,11.6936,11.8809
0.141093,5.98407,8.52423,9.94888,10.8633,11.5006,11.9704,12.3312,12.6171,12.8491
0.128133,5.5073,7.83424,9.12098,9.93604,10.498,10.9087,11.2219,11.4686,11.6679
0.145813,6.59478,9.51602,11.1603,12.2132,12.9451,13.4832,13.8955,14.2215,14.4858
0.234738,10.7683,15.4031,17.9492,19.5548,20.6589,21.4646,22.0783,22.5614,22.9514
0.139126,6.33358,8.99327,10.4556,11.3825,12.0231,12.4926,12.8516,13.135,13.3644
0.127744,5.82322,8.25963,9.60522,10.46,11.0513,11.4848,11.8162,12.0777,12.2894
0.162777,7.50543,10.6768,12.4381,13.5594,14.3358,14.9052,15.3407,15.6844,15.9627
0.150786,6.71033,9.3701,10.8021,11.6967,12.3085,12.7532,13.091,13.3564,13.5703
0.122762,1.29645,1.38565,1.41894,1.43641,1.44719,1.4545,1.4598,1.46381,1.46695
0.122358,2.16725,3.20212,4.06761,4.81619,5.4729,6.05457,6.57372,7.04009,7.46141
0.119958,3.21882,5.62085,7.5544,9.02952,10.1455,10.998,11.66,12.183,12.6035
0.119563,4.38391,7.81355,10.0433,11.459,12.4024,13.0665,13.5564,13.9318,14.2285
0.211455,7.43824,10.847,12.3403,13.1348,13.6257,13.9601,14.2031,14.3881,14.5338
0.129981,4.96167,7.22084,8.3732,9.09095,9.5886,9.95633,10.24,10.4658,10.6499
0.123448,5.05276,7.32731,8.53345,9.29255,9.81591,10.1986,10.4905,10.7203,10.906
0.129672,5.84635,8.59099,10.102,11.0653,11.7332,12.2232,12.598,12.8939,13.1334
0.126854,5.86567,8.41302,9.76075,10.5956,11.1629,11.5734,11.884,12.1274,12.323
0.117905,5.73092,8.25971,9.64149,10.5173,11.123,11.5671,11.9069,12.1753,12.3927
0.125524,6.4951,9.43087,11.0558,12.0892,12.8041,13.328,13.7283,14.0442,14.2997
0.113724,2.36938,2.677,2.79432,2.85614,2.89429,2.92017,2.93887,2.95302,2.9641
0.203346,6.35577,9.34578,11.5774,13.3548,14.8138,16.036,17.0759,17.972,18.7524
0.120318,4.82609,7.66947,9.57905,10.8872,11.8152,12.4974,13.0152,13.4193,13.7419
0.123629,5.89704,9.32435,11.3224,12.5698,13.4105,14.0129,14.4651,14.8171,15.0989
0.118062,6.35802,9.77682,11.623,12.7557,13.5216,14.075,14.4942,14.8229,15.0878
0.118848,6.51392,9.54537,11.1228,12.0945,12.7566,13.238,13.6041,13.8921,14.1246
0.127617,7.42949,10.8977,12.7944,14.0045,14.8471,15.4681,15.9452,16.3231,16.63
0.112443,6.64939,9.54811,11.0967,12.0647,12.7271,13.2088,13.5747,13.862,14.0936
0.174455,11.2923,16.592,19.5746,21.4957,22.8376,23.828,24.5892,25.1925,25.6826
0.114881,7.52084,10.8673,12.7012,13.8599,14.6581,15.2412,15.6857,16.0358,16.3187
0.121261,8.01271,11.486,13.3898,14.5952,15.4277,16.0372,16.503,16.8705,17.1679
0.120727,8.44358,12.2665,14.4125,15.7882,16.7453,17.4496,17.9895,18.4166,18.7629
0.171715,12.187,17.4888,20.3835,22.204,23.4536,24.3643,25.0572,25.6021,26.0418
0.121172,8.40063,11.9309,13.8721,15.1055,15.96,16.5875,17.0679,17.4477,17.7555
0.116845,8.39412,12.1007,14.1974,15.5485,16.492,17.188,17.7225,18.146,18.4897
0.111589,8.10595,11.6109,13.5481,14.7741,15.6188,16.2359,16.7062,17.0766,17.3757
0.303934,22.6932,32.5745,38.0441,41.5143,43.9118,45.6675,47.0089,48.0671,48.9233
0.301298,21.8185,30.8927,35.8716,39.0248,41.2029,42.7985,44.0178,44.9801,45.759
