0.952025,1.0432,1.07761,1.09567,1.10681,1.11435,1.11981,1.12394,1.12717,1.12976
0.591688,0.925122,1.11467,1.23636,1.321,1.38325,1.43095,1.46867,1.49923,1.5245
0.818922,1.73342,2.28782,2.63282,2.86278,3.0254,3.14587,3.23845,3.31169,3.37102
0.432232,1.18592,1.64414,1.91564,2.09022,2.21083,2.29884,2.36579,2.41839,2.46079
0.349193,1.17782,1.65829,1.92871,2.09839,2.21425,2.29829,2.36201,2.41199,2.45223
0.313513,1.28255,1.833,2.13928,2.33201,2.46431,2.56075,2.63418,2.69196,2.73862
0.306426,1.44547,2.04925,2.37412,2.57562,2.71274,2.81207,2.88734,2.94636,2.99386
0.593403,3.15684,4.45436,5.1504,5.58428,5.88092,6.09666,6.26066,6.38956,6.49355
0.269557,1.5945,2.24551,2.59602,2.81537,2.96568,3.07514,3.15841,3.2239,3.27675
0.245249,1.62776,2.31047,2.68343,2.91864,3.08055,3.1988,3.28896,3.35996,3.41734
0.22927,1.67518,2.37709,2.75886,2.99867,3.16323,3.28314,3.37439,3.44615,3.50407
0.211761,1.68348,2.38183,2.75924,2.99547,3.15724,3.27496,3.36447,3.43482,3.49157
0.199724,1.78471,2.56987,3.00698,3.2856,3.47875,3.62054,3.72905,3.81478,3.88422
0.210429,2.00922,2.86194,3.32446,3.61418,3.81255,3.95685,4.06651,4.15266,4.22213
0.18821,1.90318,2.69312,3.12006,3.38773,3.57136,3.70519,3.80708,3.88725,3.95198
0.193261,2.06419,2.91686,3.38069,3.67286,3.8739,4.02074,4.1327,4.22089,4.29216
0.18787,2.18997,3.13738,3.66381,3.99898,4.23107,4.40128,4.53143,4.63418,4.71735
0.1712,2.0869,2.95732,3.42847,3.72326,3.92494,4.07156,4.18294,4.27041,4.34093
0.319827,4.32936,6.28059,7.38127,8.08848,8.58143,8.94476,9.22371,9.44462,9.62392
0.167298,2.38507,3.4314,4.00804,4.3725,4.6235,4.80681,4.94654,5.05656,5.14543
0.171884,2.57759,3.69443,4.30803,4.69605,4.96366,5.1594,5.30883,5.42664,5.52192
0.156268,2.39884,3.40197,3.94814,4.29222,4.52899,4.70193,4.83379,4.93766,5.0216
0.1638,2.63708,3.76202,4.38558,4.78273,5.05798,5.26003,5.41466,5.53683,5.63578
0.175271,2.94779,4.20651,4.90157,5.34211,5.64616,5.86859,6.03835,6.17216,6.28033
0.150178,2.54925,3.59511,4.1637,4.5212,4.7668,4.94594,5.0824,5.1898,5.27655
0.147724,2.69682,3.88988,4.56722,5.00461,5.31052,5.53656,5.71041,5.84829,5.96031
0.156812,2.92899,4.17591,4.8608,5.29252,5.5892,5.8055,5.97013,6.09961,6.2041
0.143242,2.77647,3.9667,4.62626,5.04562,5.33592,5.54886,5.71176,5.84042,5.94462
0.153868,3.15508,4.54687,5.3267,5.82524,6.17137,6.4257,6.62046,6.77437,6.89907
0.151644,3.17738,4.53298,5.27657,5.74569,6.0685,6.30417,6.48377,6.62519,6.73942
0.138844,3.03143,4.35284,5.0915,5.56401,5.89249,6.13417,6.31946,6.46607,6.58496
0.136984,3.07906,4.40402,5.13632,5.60056,5.92101,6.15547,6.33442,6.47548,6.58952
0.145353,3.27901,4.63914,5.38131,5.84902,6.17087,6.40591,6.58512,6.72628,6.84035
0.144588,3.36899,4.80445,5.60491,6.11646,6.47184,6.73316,6.93342,7.09179,7.22018
0.267871,6.59355,9.51658,11.1662,12.2246,12.9609,13.5026,13.9177,14.2459,14.5119
0.142772,3.51331,5.00014,5.81806,6.33508,6.69135,6.95173,7.15033,7.30682,7.4333
0.130544,3.27389,4.65433,5.4159,5.89892,6.23272,6.47725,6.66411,6.81156,6.93088
0.13041,3.40259,4.87985,5.70749,6.23704,6.60501,6.87558,7.0829,7.24682,7.37968
0.130095,3.53302,5.08634,5.95548,6.51009,6.89453,7.17663,7.39242,7.56281,7.70075
0.157245,4.1672,5.84177,6.73613,7.29172,7.67023,7.94467,8.15275,8.31595,8.44737
0.160306,2.86574,3.54436,3.85269,4.02969,4.14475,4.22561,4.28556,4.3318,4.36855
0.160359,2.97874,3.98782,4.56597,4.94736,5.21916,5.42306,5.58183,5.70901,5.8132
0.230348,4.60335,6.42386,7.46844,8.14017,8.60593,8.94682,9.20667,9.41109,9.57599
0.154233,3.32591,4.75158,5.56091,6.07642,6.43223,6.69226,6.89049,7.0466,7.1727
0.157001,3.68537,5.33681,6.2622,6.84815,7.25165,7.54627,7.7708,7.94759,8.09039
0.163806,3.98234,5.68171,6.59555,7.16276,7.54885,7.8286,8.04063,8.20688,8.34073
0.140544,3.33643,4.80877,5.66829,6.2382,6.6456,6.95192,7.19085,7.38253,7.53976
0.298758,7.70093,11.1912,13.1509,14.3946,15.2501,15.873,16.3461,16.7174,17.0162
0.148606,4.15707,6.07237,7.13589,7.80826,8.27111,8.6091,8.86673,9.06965,9.23362
0.147,4.36065,6.33002,7.40577,8.08173,8.5458,8.88417,9.14183,9.3446,9.50834
0.138684,4.2922,6.17894,7.20163,7.84359,8.28437,8.60584,8.8507,9.04345,9.19912
0.142732,4.63837,6.69138,7.82082,8.53736,9.03288,9.39611,9.67382,9.89305,10.0705
0.236945,8.24105,12.004,14.1067,15.4502,16.3827,17.0677,17.5921,18.0065,18.3422
0.132972,4.59829,6.54359,7.5925,8.24874,8.69802,9.02491,9.27341,9.4687,9.62623
0.134796,4.83732,6.93741,8.10251,8.84596,9.36217,9.7417,10.0326,10.2626,10.4491
0.140129,5.10929,7.28379,8.47624,9.22952,9.74834,10.1273,10.4162,10.6438,10.8276
0.140503,5.19381,7.39029,8.59873,9.36441,9.8932,10.2804,10.5761,10.8094,10.9982
0.13971,5.29581,7.57481,8.84436,9.6545,10.2165,10.6293,10.9453,11.1951,11.3974
0.140427,5.47039,7.84344,9.16457,10.0057,10.5881,11.015,11.3414,11.599,11.8075
0.129989,5.19296,7.44691,8.69813,9.49336,10.0433,10.4463,10.7543,10.9973,11.1939
0.137259,5.52428,7.86757,9.15459,9.96805,10.5287,10.9386,11.2514,11.4979,11.6971
0.129113,5.28544,7.55239,8.81423,9.61948,10.1783,10.589,10.9035,11.1522,11.3537
0.133825,5.51552,7.85969,9.15871,9.98438,10.5555,10.974,11.2939,11.5463,11.7505
0.182303,7.82974,11.2691,13.1976,14.4307,15.2867,15.9157,16.3973,16.7778,17.0861
0.133494,5.72959,8.18854,9.55384,10.4224,11.0238,11.4647,11.802,12.0682,12.2838
0.128419,5.49897,7.81803,9.09972,9.91348,10.4761,10.8885,11.2036,11.4523,11.6535
0.128826,5.63235,8.05036,9.39976,10.2611,10.8587,11.2976,11.6336,11.8991,12.1142
0.198973,9.05311,13.0401,15.2737,16.6996,17.6883,18.4139,18.969,19.4074,19.7622
0.124888,5.71759,8.21145,9.60738,10.5,11.1202,11.5762,11.9257,12.2021,12.4262
0.130134,6.06174,8.7083,10.1881,11.1331,11.7888,12.2704,12.639,12.9303,13.1663
0.161317,7.40764,10.4995,12.1918,13.2592,13.9939,14.5305,14.9395,15.2617,15.522
0.127557,5.73879,8.06487,9.33359,10.134,10.6853,11.0884,11.3959,11.6383,11.8342
0.122634,5.62976,8.03948,9.40401,10.2847,10.9007,11.3558,11.7058,11.9834,12.2089
0.122663,5.90919,8.5524,10.0537,11.0185,11.6898,12.1835,12.5617,12.8606,13.1027
0.194725,9.73907,14.0903,16.5182,18.0604,19.1253,19.9046,20.4994,20.9684,21.3475
0.136352,5.00586,6.43061,7.10109,7.49136,7.74695,7.92742,8.06168,8.16548,8.24814
0.136956,5.01799,6.80125,7.80337,8.45596,8.917,9.26072,9.5271,9.7397,9.91338
0.124337,4.56615,6.30171,7.26888,7.88309,8.30634,8.6151,8.85002,9.03462,9.18343
0.129649,5.29254,7.65773,9.03461,9.92924,10.5557,11.0185,11.3742,11.656,11.8849
0.132749,5.61982,8.09991,9.48069,10.3518,10.9497,11.3852,11.7164,11.9767,12.1865
0.134501,5.98249,8.64925,10.1277,11.0635,11.7091,12.1814,12.5421,12.8265,13.0566
0.132405,6.35417,9.28205,10.9153,11.9538,12.6723,13.1988,13.6012,13.9187,14.1757
0.12395,6.11401,8.80273,10.2597,11.1716,11.796,12.2503,12.5957,12.8671,13.086
0.124981,6.45416,9.37671,11.014,12.065,12.798,13.3386,13.7541,14.0833,14.3508
0.130035,6.8705,9.92096,11.6108,12.6848,13.4275,13.9716,14.3873,14.7152,14.9804
0.13717,7.54444,10.9146,12.7859,13.9763,14.8001,15.4041,15.8658,16.2303,16.5252
0.129757,6.88403,9.66956,11.1505,12.0698,12.6962,13.1505,13.4949,13.7652,13.9829
0.121251,6.63161,9.51018,11.1398,12.195,12.9356,13.4844,13.9076,14.244,14.5178
0.142833,8.1173,11.7527,13.8143,15.1401,16.0633,16.7425,17.263,17.6744,18.0078
0.168506,9.50332,13.5408,15.7507,17.1413,18.0962,18.7922,19.322,19.7387,20.0751
0.132698,7.31368,10.383,12.0924,13.1863,13.9478,14.5088,14.9395,15.2806,15.5575
0.118896,6.73344,9.65381,11.2964,12.349,13.0807,13.6186,14.0306,14.3562,14.62
0.121804,7.32613,10.6915,12.6155,13.8576,14.725,15.3648,15.8561,16.2451,16.5609
0.171372,10.5592,15.2533,17.8448,19.4802,20.6047,21.4249,22.0495,22.5409,22.9375
0.120337,7.10365,10.0157,11.5888,12.5762,13.2546,13.7497,14.1272,14.4246,14.665
0.121004,7.27898,10.3918,12.137,13.2581,14.0401,14.6169,15.06,15.411,15.696
0.145925,9.23388,13.3908,15.753,17.2742,18.3345,19.1154,19.7143,20.1881,20.5721
0.123585,7.75405,11.1159,12.9849,14.1735,14.9957,15.5983,16.0589,16.4224,16.7166
0.122724,7.65033,10.876,12.6492,13.7708,14.5443,15.1101,15.5419,15.8824,16.1577
0.121589,7.77672,11.1587,13.0549,14.2695,15.1143,15.736,16.2127,16.5899,16.8957
