1.4101,1.413,1.41396,1.41445,1.41474,1.41493,1.41507,1.41517,1.41525,1.41532
0.932562,1.3573,1.59948,1.75597,1.86542,1.94626,2.00842,2.0577,2.09773,2.13088
0.687523,1.36846,1.7666,2.00791,2.16551,2.27517,2.35537,2.41636,2.46418,2.50263
0.674969,2.00846,2.95798,3.5721,3.98711,4.28295,4.50351,4.67394,4.80946,4.91974
0.570061,2.32193,3.52088,4.20238,4.61806,4.893,5.08686,5.23038,5.34069,5.42802
0.600109,2.90329,4.1609,4.76517,5.10731,5.32628,5.47839,5.59027,5.67605,5.74394
0.619203,3.33824,4.58438,5.16508,5.5011,5.72152,5.87776,5.99449,6.08509,6.1575
0.628557,3.26008,4.18752,4.60212,4.84011,4.99531,5.10472,5.18604,5.24888,5.29891
0.578608,3.11565,4.02615,4.47557,4.74859,4.93292,5.06595,5.16655,5.24531,5.30867
0.555285,3.51104,4.77687,5.4611,5.89229,6.18883,6.40515,6.56986,6.69942,6.80399
0.539757,4.13045,5.8411,6.7707,7.34853,7.74046,8.02309,8.23626,8.40267,8.53613
0.502544,4.12289,5.63124,6.36763,6.79715,7.07722,7.27396,7.41964,7.53182,7.62085
0.487795,4.53152,6.26911,7.15321,7.68965,8.05076,8.31081,8.50721,8.66086,8.78438
0.464136,4.69713,6.43934,7.30667,7.8251,8.16977,8.41541,8.59929,8.74208,8.85614
0.45836,4.96668,6.75216,7.63695,8.16609,8.51839,8.76988,8.95844,9.1051,9.22242
0.428758,5.25373,7.29159,8.34549,8.99133,9.42803,9.74311,9.98121,10.1675,10.3172
0.428537,6.71066,9.96286,11.7918,12.9594,13.7679,14.3604,14.813,15.17,15.4586
0.427194,7.73971,11.2825,13.0824,14.1496,14.8507,15.3449,15.7115,15.9938,16.2179
0.417731,8.31005,11.7732,13.455,14.4435,15.0947,15.5566,15.9015,16.1691,16.3827
0.405574,7.72587,10.2912,11.4631,12.1384,12.579,12.8896,13.1204,13.2988,13.4408
0.395204,7.49264,9.91796,11.1013,11.8141,12.2928,12.637,12.8967,13.0996,13.2626
0.387287,8.22028,11.3361,12.9942,14.0322,14.7437,15.2618,15.6559,15.9657,16.2155
0.378,8.5269,11.7119,13.3342,14.3108,14.9607,15.4234,15.7693,16.0375,16.2515
0.375652,8.9487,12.2454,13.9046,14.9008,15.5649,16.0393,16.3951,16.672,16.8936
0.371186,10.3746,14.823,17.2218,18.7226,19.7507,20.4992,21.0686,21.5163,21.8777
0.364859,10.1535,13.8054,15.5563,16.5733,17.2355,17.7001,18.0437,18.3081,18.5176
0.363205,11.286,15.7783,18.1184,19.5641,20.5493,21.2651,21.8093,22.2371,22.5825
0.363233,11.9868,16.6039,18.9306,20.3284,21.2594,21.9232,22.4202,22.806,23.1141
0.357188,12.4094,17.0924,19.4458,20.8627,21.8098,22.4877,22.997,23.3938,23.7116
0.353455,12.5642,17.0663,19.2931,20.6232,21.5078,22.1387,22.6115,22.9788,23.2726
0.348434,12.597,17.0126,19.2174,20.5449,21.4329,22.069,22.5472,22.9198,23.2184
0.34512,11.0111,14.1818,15.675,16.5465,17.1179,17.5217,17.8221,18.0543,18.2392
0.345548,12.0418,16.3702,18.7077,20.1874,21.2115,21.9633,22.539,22.9942,23.3632
0.343896,12.5701,17.18,19.5757,21.0323,22.0073,22.704,23.226,23.6314,23.9552
0.346333,13.0324,17.7238,20.1009,21.5293,22.4812,23.1609,23.6704,24.0666,24.3835
0.333147,12.8633,17.4487,19.7652,21.1615,22.0955,22.7644,23.2672,23.6589,23.9727
0.330721,13.0321,17.6342,19.9585,21.3614,22.3006,22.9735,23.4793,23.8734,24.1891
0.335996,13.3996,18.067,20.4208,21.841,22.7913,23.4719,23.9834,24.3818,24.701
0.334964,13.5498,18.2573,20.6392,22.079,23.0436,23.735,24.2549,24.6601,24.9847
0.409801,16.7229,22.4926,25.4106,27.1734,28.3538,29.1995,29.8351,30.3304,30.7271
0.395533,4.37981,4.68033,4.78995,4.84676,4.88151,4.90497,4.92187,4.93462,4.94459
0.394767,4.2717,5.18243,5.72359,6.08887,6.35317,6.5536,6.71092,6.83773,6.94215
0.412647,4.7594,6.18744,7.01197,7.53963,7.90292,8.16696,8.36694,8.52336,8.64891
0.419915,7.00045,10.7285,13.2438,15.0089,16.3046,17.293,18.0707,18.6981,19.2148
0.407852,7.79937,11.4401,13.3265,14.4115,15.1004,15.5716,15.9124,16.1694,16.3698
0.392448,8.77438,12.805,14.8366,16.0371,16.8311,17.3969,17.8213,18.152,18.4171
0.372759,9.40166,13.4891,15.4972,16.6856,17.4732,18.0342,18.4544,18.781,19.042
0.349379,9.31566,12.9413,14.6716,15.6886,16.3598,16.8363,17.1922,17.4682,17.6885
0.358909,10.2894,14.2275,16.1676,17.334,18.1148,18.6748,19.0962,19.4248,19.6884
0.347039,9.41201,12.4197,13.8253,14.6443,15.181,15.5599,15.8416,16.0593,16.2325
0.358169,12.0987,17.4492,20.476,22.4479,23.839,24.8743,25.6754,26.3138,26.8348
0.365628,10.6022,13.7434,15.1442,15.9244,16.4177,16.7562,17.0023,17.189,17.3354
0.364039,12.8731,18.2744,21.3121,23.2905,24.6901,25.7357,26.5478,27.1974,27.7291
0.359313,13.0739,17.9579,20.3783,21.8028,22.7343,23.3881,23.8711,24.242,24.5353
0.353918,13.0412,17.6205,19.8651,21.1979,22.082,22.712,23.184,23.5511,23.8448
0.355754,14.7441,20.5999,23.6806,25.5894,26.8903,27.8346,28.5513,29.1141,29.5677
0.3543,15.707,21.815,24.9089,26.7674,28.0041,28.8852,29.5442,30.0555,30.4637
0.347267,16.0475,22.0318,25.008,26.7862,27.9685,28.8118,29.4437,29.9349,30.3278
0.332413,18.4072,26.6667,31.1782,34.0278,35.9932,37.4314,38.5296,39.3959,40.0966
0.318527,19.5792,28.0345,32.3412,34.9187,36.626,37.8372,38.74,39.4384,39.9944
0.329596,23.2298,33.5874,38.9203,42.159,44.3351,45.8986,47.0768,47.9968,48.7352
0.289165,19.2324,25.8451,28.8692,30.5966,31.7137,32.4952,33.0726,33.5165,33.8685
0.348149,19.7236,25.1752,27.6756,29.1338,30.0942,30.7762,31.286,31.6819,31.9982
0.345376,21.102,28.5261,32.5344,35.0859,36.8593,38.165,39.167,39.9603,40.6041
0.343662,21.9189,29.9115,34.0896,36.6415,38.3537,39.5789,40.4977,41.2116,41.7819
0.339925,19.3657,25.1577,27.9095,29.5073,30.5493,31.2821,31.8256,32.2447,32.5777
0.33931,21.0325,28.6688,32.7549,35.3201,37.0862,38.3783,39.3654,40.1445,40.7752
0.336756,21.7782,29.7999,33.9502,36.4694,38.1553,39.3605,40.264,40.9659,41.5268
0.336429,22.5078,30.7123,34.8712,37.3722,39.0401,40.2313,41.1247,41.8196,42.3755
0.332032,22.6388,30.7299,34.8018,37.2512,38.8874,40.0582,40.9374,41.6221,42.1705
0.330542,22.9552,31.1072,35.225,37.7122,39.3782,40.5725,41.4707,42.1707,42.7317
0.329776,23.1385,31.2515,35.3435,37.8127,39.4651,40.6486,41.5379,42.2306,42.7854
0.32817,23.0224,30.9428,34.9255,37.3249,38.9291,40.0773,40.9397,41.6113,42.1491
0.323368,23.0332,31.0816,35.1807,37.6688,39.3404,40.5409,41.4449,42.1503,42.716
0.34485,24.8033,33.4548,37.8471,40.5037,42.2831,43.5581,44.5163,45.2628,45.8608
0.34278,11.7404,13.3412,13.975,14.3148,14.5266,14.6713,14.7764,14.8562,14.9188
0.343663,11.8172,14.8866,16.6317,17.7836,18.6059,19.2238,19.7055,20.0919,20.4087
0.350406,12.2634,16.1028,18.2173,19.5398,20.4383,21.0857,21.5732,21.9529,22.2567
0.35519,11.2876,14.5008,16.1003,17.0425,17.6602,18.0956,18.4188,18.6682,18.8664
0.358343,11.7691,15.6257,17.6584,18.9116,19.7627,20.379,20.8462,21.2127,21.508
0.354272,11.8614,15.8569,17.9112,19.1531,19.9829,20.576,21.0207,21.3664,21.6428
0.353448,13.081,18.0634,20.7106,22.3444,23.4522,24.2527,24.8582,25.3322,25.7134
0.353255,16.3803,24.232,28.6926,31.5393,33.508,34.949,36.0487,36.9153,37.6155
0.351192,18.5984,27.1192,31.4859,34.0783,35.7824,36.9841,37.8757,38.5628,39.1083
0.349011,17.9145,24.3191,27.2462,28.9108,29.9855,30.7375,31.2936,31.7217,32.0616
0.345201,17.5089,23.4013,26.2367,27.9292,29.0607,29.8726,30.4843,30.9619,31.3454
0.342043,19.3413,26.8791,30.8665,33.3599,35.0698,36.3159,37.2642,38.0101,38.6122
0.340848,20.5282,28.4453,32.4798,34.9126,36.5337,37.6891,38.5533,39.2238,39.7589
0.337396,21.1351,29.0026,32.9325,35.2837,36.8475,37.9629,38.7987,39.4483,39.9679
0.335589,24.2773,34.6185,40.1401,43.5795,45.9296,47.6379,48.9361,49.9561,50.7788
0.33503,26.5912,37.7125,43.3929,46.8113,49.0873,50.7091,51.9224,52.8637,53.615
0.332992,27.7308,38.5696,43.9266,47.1124,49.2247,50.7284,51.8537,52.7276,53.426
0.331647,28.306,38.7728,43.9317,47.0162,49.0719,50.5412,51.6442,52.5028,53.1902
0.329181,24.7533,32.085,35.4885,37.4649,38.7581,39.6706,40.3491,40.8734,41.2908
0.328734,26.7134,36.3614,41.5128,44.7618,47.0064,48.6524,49.912,50.9073,51.7138
0.329445,27.991,38.3308,43.6926,46.9562,49.1433,50.7078,51.8809,52.7925,53.5209
0.325334,24.6764,32.1152,35.6359,37.6796,39.0128,39.9509,40.6469,41.1837,41.6105
0.324922,23.3107,30.3828,33.9118,36.0463,37.4814,38.5142,39.2937,39.9031,40.3928
0.296053,23.9962,33.2734,38.4108,41.6857,43.9562,45.6228,46.8979,47.9048,48.7199
0.294685,27.6501,39.6366,46.1669,50.2153,52.9537,54.9236,56.4063,57.5615,58.4865
