1.08558,1.11773,1.12888,1.13454,1.13796,1.14025,1.14189,1.14313,1.14409,1.14486
0.818831,1.2469,1.49885,1.66471,1.78216,1.86969,1.93744,1.99143,2.03547,2.07208
0.71166,1.50422,1.99418,2.29979,2.50266,2.6453,2.75034,2.83061,2.89379,2.94474
0.518086,1.45389,2.03043,2.36766,2.58123,2.72693,2.8322,2.91167,2.97371,3.02348
0.485288,1.73571,2.47885,2.89077,3.14529,3.31714,3.44078,3.53397,3.60671,3.66508
0.426561,1.82665,2.58591,2.98317,3.22344,3.38416,3.49922,3.58567,3.65302,3.70696
0.398061,1.91004,2.63662,3.00206,3.22119,3.36743,3.47205,3.55064,3.61186,3.6609
0.348668,1.7757,2.43531,2.78608,3.00647,3.15847,3.26986,3.35507,3.42239,3.47694
0.325496,1.8775,2.59446,2.97252,3.20562,3.36341,3.47716,3.56298,3.63,3.68376
0.300926,1.8033,2.4202,2.72805,2.91206,3.03432,3.12142,3.18661,3.23724,3.27769
0.292847,2.23668,3.26913,3.8726,4.27044,4.553,4.76424,4.92822,5.05924,5.16635
0.314606,2.68351,3.83055,4.43047,4.79321,5.03451,5.20602,5.33395,5.43292,5.5117
0.282399,2.69395,3.83108,4.42442,4.78776,5.03335,5.21062,5.34469,5.44969,5.53417
0.254877,2.64724,3.72924,4.28983,4.6331,4.86514,5.03255,5.15906,5.25803,5.33757
0.262037,2.94675,4.13424,4.7524,5.13251,5.39011,5.57627,5.7171,5.82736,5.91604
0.246531,2.41056,3.12081,3.45276,3.6457,3.77194,3.86099,3.92717,3.97831,4.019
0.26796,3.38523,4.9722,5.94831,6.61965,7.11187,7.48889,7.78717,8.02915,8.22945
0.264242,3.91138,5.82734,6.91592,7.60367,8.07273,8.41124,8.66625,8.86487,9.02374
0.245095,4.06298,5.97478,6.99849,7.62724,8.05134,8.35658,8.58681,8.76668,8.91113
0.243924,4.05035,5.65277,6.4486,6.92339,7.23925,7.46475,7.63392,7.76557,7.87095
0.241384,4.18278,5.8403,6.70805,7.24767,7.61717,7.8865,8.09168,8.25325,8.38382
0.238748,4.50383,6.41507,7.46094,8.12405,8.58227,8.91782,9.17409,9.37619,9.53963
0.235254,4.69719,6.66533,7.72033,8.37656,8.82346,9.14714,9.39229,9.58434,9.73884
0.282857,5.84855,8.22916,9.49167,10.274,10.8064,11.1923,11.4848,11.7142,11.8989
0.240901,5.42192,7.78214,9.08504,9.91278,10.4856,10.9057,11.227,11.4807,11.6861
0.254745,6.10484,8.75611,10.1968,11.0994,11.7171,12.1662,12.5073,12.7752,12.991
0.279589,5.90218,7.86622,8.82091,9.38491,9.75733,10.0216,10.219,10.372,10.494
0.233991,5.25549,7.30108,8.4295,9.15335,9.65912,10.0331,10.3211,10.5498,10.7358
0.249993,5.1329,6.84133,7.70508,8.22511,8.57174,8.81895,9.00399,9.14762,9.26229
0.242196,5.13213,7.02711,8.05528,8.70409,9.1516,9.4792,9.72953,9.9271,10.087
0.248798,6.10827,8.8875,10.5133,11.577,12.326,12.8815,13.3096,13.6495,13.9259
0.25372,6.3977,9.06099,10.4721,11.3342,11.9126,12.3267,12.6375,12.8793,13.0726
0.251986,7.00554,10.1364,11.8649,12.9597,13.7162,14.2709,14.6952,15.0304,15.302
0.265976,7.73094,11.0586,12.8422,13.9508,14.7061,15.2537,15.6688,15.9942,16.2561
0.262777,7.97391,11.3604,13.1786,14.3143,15.0917,15.6576,16.0879,16.4263,16.6993
0.268865,8.45128,11.9934,13.8961,15.0858,15.9003,16.493,16.9438,17.2981,17.584
0.251301,8.04657,11.3499,13.1231,14.2318,14.9911,15.5437,15.9639,16.2943,16.5608
0.259369,8.40136,11.7886,13.6054,14.7407,15.5177,16.0829,16.5126,16.8503,17.1227
0.264096,8.68657,12.1823,14.0674,15.2485,16.0582,16.6479,17.0966,17.4495,17.7342
0.295895,9.87638,13.8358,15.9692,17.3038,18.2174,18.8821,19.3873,19.7844,20.1046
0.299574,4.68599,5.37029,5.64536,5.79385,5.88679,5.95045,5.99677,6.032,6.05969
0.28708,4.64552,5.95598,6.72094,7.23391,7.60403,7.88433,8.10419,8.28137,8.42724
0.288532,4.87322,6.53233,7.47198,8.06892,8.47848,8.77561,9.00043,9.17618,9.3172
0.272941,5.48926,7.89985,9.32146,10.2429,10.8852,11.3575,11.7191,12.0048,12.2362
0.277488,5.17238,6.92398,7.77531,8.26696,8.585,8.80706,8.97071,9.09624,9.19556
0.26437,5.75452,8.21936,9.60563,10.4989,11.1254,11.5901,11.9491,12.2349,12.4681
0.27959,7.14511,10.5376,12.4396,13.6429,14.4694,15.0706,15.527,15.8849,16.173
0.258546,7.26983,10.5825,12.3343,13.4052,14.1256,14.6428,15.032,15.3355,15.5787
0.27868,7.93879,11.1211,12.7166,13.674,14.313,14.7703,15.1138,15.3814,15.5958
0.253956,7.35163,10.1815,11.6308,12.519,13.121,13.5565,13.8863,14.1449,14.3531
0.300905,9.69525,13.8909,16.2015,17.6734,18.6941,19.4438,20.0178,20.4713,20.8387
0.24072,7.58983,10.4637,11.9213,12.7991,13.3842,13.8016,14.1141,14.3568,14.5507
0.246244,8.83791,12.8032,15.0401,16.4846,17.4966,18.2459,18.8234,19.2822,19.6556
0.246008,8.38581,11.9599,13.9782,15.2828,16.1969,16.8732,17.394,17.8074,18.1435
0.236979,8.53579,12.1305,14.0641,15.2619,16.0736,16.6587,17.1002,17.4448,17.7212
0.252357,9.9966,14.4727,16.9366,18.4915,19.5618,20.3437,20.9401,21.4101,21.79
0.228626,9.56136,13.7104,15.9234,17.2929,18.223,18.8956,19.4046,19.8031,20.1236
0.239343,10.2216,14.4301,16.6381,17.999,18.9226,19.5909,20.097,20.4936,20.8129
0.229158,9.15462,12.4195,14.058,15.0466,15.7087,16.1835,16.5406,16.819,17.0422
0.226173,8.67673,11.7272,13.3148,14.2972,14.9667,15.4528,15.822,16.112,16.3458
0.226982,10.004,14.4836,17.1044,18.831,20.0546,20.967,21.6735,22.2365,22.6958
0.238169,10.816,15.388,17.8454,19.3611,20.384,21.1191,21.672,22.1028,22.4477
0.227361,10.6295,15.09,17.496,18.9997,20.0295,20.7796,21.3507,21.8001,22.1631
0.224229,11.2389,16.1599,18.8601,20.5648,21.7388,22.5966,23.2508,23.7662,24.1826
0.217509,11.3999,16.3328,19.0007,20.6688,21.8097,22.6391,23.269,23.7637,24.1625
0.219185,11.631,16.4678,19.0513,20.6599,21.7584,22.5565,23.1628,23.6389,24.0228
0.214515,11.6212,16.4298,19.0208,20.6449,21.7592,22.5713,23.1897,23.6762,24.0691
0.225554,12.6152,17.8751,20.7222,22.5083,23.7333,24.6257,25.3046,25.8385,26.2693
0.215592,11.9753,16.772,19.3314,20.9242,22.0112,22.8004,23.3994,23.8696,24.2486
0.214459,12.1283,17.0885,19.7904,21.4945,22.6684,23.5264,24.181,24.6969,25.114
0.211751,12.2464,17.3024,20.0555,21.7863,22.9746,23.8406,24.4996,25.018,25.4363
0.215333,12.5408,17.6006,20.3123,22.0003,23.1517,23.9872,24.621,25.1183,25.5189
0.212928,12.6786,17.874,20.6931,22.4643,23.6809,24.5684,25.2445,25.7767,26.2065
0.27275,16.4634,23.2158,26.8825,29.1858,30.7669,31.9194,32.7968,33.4871,34.0443
0.222666,13.1731,18.3705,21.1546,22.8909,24.0775,24.9398,25.5949,26.1094,26.5242
0.232567,8.0991,9.7006,10.3901,10.7745,11.0198,11.1899,11.3148,11.4104,11.486
0.216852,8.49149,11.5168,13.3427,14.5901,15.5016,16.1985,16.749,17.1953,17.5644
0.23344,8.80123,11.8397,13.4699,14.4701,15.1401,15.6179,15.9747,16.2508,16.4706
0.216486,8.38248,11.4901,13.1695,14.2134,14.9241,15.4392,15.8297,16.1362,16.383
0.231942,9.48345,13.2661,15.3323,16.6267,17.5129,18.1574,18.6473,19.0323,19.3427
0.259774,10.9167,15.2114,17.4841,18.881,19.8251,20.5055,21.0189,21.4201,21.7422
0.233255,9.41605,12.7711,14.4707,15.4957,16.1813,16.6723,17.0414,17.3289,17.5593
0.221581,10.5285,15.3517,18.1513,19.9887,21.2896,22.2598,23.0116,23.6114,24.1011
0.241793,12.7599,18.754,22.0807,24.1704,25.5977,26.6318,27.4144,28.0268,28.5188
0.234071,12.6914,18.1108,20.9312,22.6482,23.8021,24.6309,25.255,25.742,26.1327
0.235308,12.8776,18.0686,20.7633,22.4196,23.5432,24.3566,24.9729,25.4563,25.8456
0.225164,12.5453,17.5464,20.1838,21.8214,22.9388,23.7503,24.3665,24.8503,25.2404
0.228082,12.2045,16.6922,19.0036,20.4173,21.3718,22.0595,22.5786,22.9844,23.3102
0.223701,12.1805,16.8686,19.3826,20.958,22.0391,22.8273,23.4276,23.9001,24.2817
0.22073,13.1784,18.9014,22.1153,24.172,25.5998,26.6484,27.4509,28.0848,28.598
0.221261,14.0574,20.2039,23.5543,25.6471,27.0745,28.1092,28.8931,29.5073,30.0016
0.217881,14.6889,21.1905,24.7379,26.9658,28.495,29.6099,30.4588,31.127,31.6667
0.218732,15.3112,21.9508,25.5316,27.7694,29.3006,30.4144,31.261,31.9263,32.4628
0.217077,14.8323,20.6859,23.7299,25.5975,26.8611,27.773,28.4623,29.0016,29.435
0.242171,17.5015,24.9697,29.0972,31.7308,33.5605,34.9067,35.9389,36.7558,37.4184
0.213637,15.0368,20.9133,23.9929,25.8849,27.1636,28.0848,28.7797,29.3226,29.7582
0.220935,13.7615,18.3188,20.5961,21.9668,22.8836,23.5403,24.0341,24.419,24.7274
0.212225,13.9978,19.5411,22.6502,24.6573,26.0637,27.1049,27.9073,28.5447,29.0633
0.220069,15.6735,22.5025,26.3666,28.8386,30.5506,31.8043,32.7611,33.5149,34.1238
0.218022,14.263,19.4031,21.9954,23.545,24.573,25.3042,25.8506,26.2745,26.6127
