1.19507,1.24726,1.26568,1.2751,1.28082,1.28466,1.28742,1.28949,1.29111,1.29241
0.884014,1.2712,1.47597,1.60251,1.68843,1.75058,1.79763,1.83447,1.86412,1.88848
0.749599,1.37526,1.70307,1.89307,2.01475,2.09868,2.15982,2.20624,2.24263,2.2719
0.640571,1.39891,1.76805,1.9675,2.08999,2.17237,2.23144,2.27581,2.31036,2.33801
0.698342,1.85071,2.42196,2.73257,2.9255,3.05669,3.15165,3.22357,3.27991,3.32525
0.67367,2.23119,3.05404,3.51114,3.79862,3.99561,4.1389,4.24776,4.33325,4.40215
0.5616,1.58844,1.91572,2.05805,2.13652,2.18605,2.2201,2.24494,2.26384,2.27871
0.610692,2.42925,3.42414,4.04723,4.48152,4.80356,5.05256,5.25111,5.41324,5.5482
0.609213,3.13223,4.60615,5.45985,6.00069,6.36874,6.6333,6.8317,6.98555,7.10809
0.627293,3.79306,5.45018,6.30371,6.80983,7.14231,7.37693,7.55125,7.68585,7.79294
0.645205,4.53229,6.46528,7.45146,8.04623,8.44484,8.73108,8.94683,9.11538,9.25074
0.64254,4.58553,6.17753,6.92965,7.36813,7.65581,7.85919,8.01063,8.12779,8.22113
0.645788,4.56877,5.99564,6.68528,7.09709,7.37198,7.56885,7.71689,7.83232,7.92486
0.705213,5.04118,6.60071,7.38383,7.85974,8.18022,8.41087,8.58483,8.72073,8.82983
0.66996,5.22028,7.02958,7.98883,8.58566,8.99287,9.28839,9.5126,9.68852,9.83021
0.643705,5.24882,7.04471,7.96811,8.52806,8.90299,9.1713,9.37269,9.52938,9.65474
0.639634,5.292,7.01556,7.88186,8.40219,8.74923,8.99722,9.18328,9.32805,9.44391
0.657276,5.88203,7.95422,9.03913,9.70782,10.1617,10.49,10.7386,10.9335,11.0903
0.643967,5.80065,7.69855,8.64735,9.21464,9.59149,9.85982,10.0605,10.2163,10.3407
0.627117,6.09382,8.25256,9.38245,10.0792,10.5524,10.8949,11.1544,11.3579,11.5217
0.637563,6.37822,8.54936,9.64724,10.3076,10.7479,11.0622,11.2977,11.4806,11.6269
0.63605,6.85654,9.32425,10.607,11.3933,11.9251,12.3087,12.5987,12.8255,13.0079
0.63022,7.03096,9.47762,10.7165,11.4628,11.9612,12.3174,12.5846,12.7924,12.9587
0.634358,7.49371,10.1678,11.5439,12.3832,12.9488,13.3559,13.6631,13.9032,14.0959
0.661982,8.15087,11.0248,12.4882,13.3738,13.9673,14.3925,14.7122,14.9612,15.1607
0.665687,8.36035,11.2219,12.6672,13.5395,14.1234,14.5417,14.8561,15.1011,15.2973
0.626492,8.07724,10.8355,12.2381,13.0888,13.6601,14.0703,14.3792,14.6202,14.8134
0.64106,8.65761,11.696,13.2596,14.2132,14.8554,15.3173,15.6655,15.9374,16.1556
0.619749,8.65783,11.6815,13.2246,14.1596,14.7864,15.2357,15.5736,15.8368,16.0477
0.640092,9.24951,12.4764,14.1212,15.118,15.7867,16.2664,16.6273,16.9087,17.1342
0.656173,9.55415,12.773,14.3931,15.3686,16.0205,16.487,16.8372,17.1099,17.3282
0.626452,8.9721,11.8574,13.2979,14.1633,14.741,15.1542,15.4644,15.7059,15.8992
0.614898,9.1812,12.3348,13.9722,14.9782,15.6596,16.1518,16.5241,16.8156,17.05
0.601577,9.47682,12.87,14.6357,15.7158,16.4437,16.9673,17.3619,17.6698,17.9167
0.607018,9.78783,13.1945,14.9204,15.9594,16.6526,17.1479,17.5193,17.8082,18.0392
0.609586,10.3382,14.0462,15.9543,17.1171,17.9003,18.4639,18.889,19.221,19.4876
0.607226,10.9446,14.9799,17.0641,18.3348,19.1901,19.8049,20.2681,20.6296,20.9195
0.606859,11.1315,15.0361,16.9948,18.1692,18.9513,19.5094,19.9276,20.2527,20.5126
0.612203,11.6297,15.7458,17.8423,19.1153,19.9713,20.5866,21.0503,21.4124,21.703
0.613643,11.5295,15.3862,17.3128,18.4694,19.2407,19.7918,20.2052,20.5268,20.7841
0.590399,11.0593,14.7233,16.5753,17.6968,18.4495,18.9898,19.3967,19.7141,19.9687
0.59354,11.8495,16.1329,18.3832,19.7725,20.7157,21.398,21.9144,22.3189,22.6442
0.592144,11.8513,15.9106,17.9526,19.1763,19.9899,20.5695,21.0032,21.3398,21.6086
0.588764,12.3557,16.7767,19.0582,20.4519,21.3924,22.0701,22.5818,22.982,23.3035
0.604369,12.7335,17.0994,19.2956,20.6153,21.4954,22.124,22.5953,22.9617,23.2547
0.618214,13.4582,18.1853,20.6063,22.08,23.0722,23.7859,24.324,24.7444,25.0818
0.578112,13.2269,18.0383,20.5274,22.0478,23.0726,23.8101,24.3661,24.8002,25.1486
0.590686,13.8397,18.7544,21.2451,22.7466,23.7496,24.4669,25.0052,25.424,25.7591
0.601444,14.2651,19.2357,21.751,23.2711,24.2897,25.0201,25.5695,25.9978,26.3412
0.582816,14.0873,18.9912,21.484,22.9949,24.009,24.7367,25.2844,25.7116,26.054
0.571355,12.5725,16.3275,18.1373,19.2032,19.9058,20.4038,20.7752,21.0629,21.2922
0.561917,12.6166,16.7883,18.96,20.3025,21.2169,21.8805,22.3843,22.7799,23.0989
0.56281,13.5656,18.5337,21.1761,22.8123,23.9232,24.726,25.3329,25.8076,26.1889
0.554296,14.2493,19.621,22.4202,24.1249,25.2691,26.0892,26.7056,27.1857,27.5701
0.558597,14.8441,20.2671,23.0126,24.6623,25.7622,26.5477,27.1367,27.5949,27.9614
0.579854,15.5063,20.908,23.6049,25.2218,26.3001,27.0708,27.6492,28.0994,28.4598
0.554839,15.2739,20.6879,23.4514,25.1335,26.2664,27.0818,27.6969,28.1775,28.5633
0.564234,15.8986,21.5276,24.3969,26.1371,27.305,28.1428,28.773,29.2643,29.658
0.560292,15.6267,20.9237,23.5823,25.1813,26.249,27.0124,27.5854,28.0314,28.3883
0.573318,16.5088,22.3294,25.3267,27.1581,28.394,29.2845,29.9567,30.4822,30.9043
0.562824,15.9834,21.3572,24.0544,25.6742,26.754,27.525,28.103,28.5523,28.9115
0.56942,16.4365,22.1034,25.0071,26.7762,27.9679,28.8255,29.4724,29.9779,30.3837
0.546828,16.4756,22.4113,25.4902,27.3735,28.6438,29.5583,30.2479,30.7866,31.2188
0.565841,17.4259,23.6234,26.7796,28.6864,29.9618,30.8745,31.5598,32.0931,32.5201
0.542361,16.7017,22.4459,25.3351,27.0734,28.2345,29.065,29.6887,30.1742,30.563
0.545083,16.7461,22.4163,25.2768,27.0044,28.1618,28.9915,29.6156,30.102,30.4919
0.540247,16.2738,21.6268,24.3157,25.9358,27.0192,27.7947,28.3774,28.8311,29.1944
0.533062,16.8076,22.7918,25.9188,27.8448,29.1508,30.0949,30.8093,31.3687,31.8187
0.531704,17.3581,23.62,26.8465,28.8069,30.122,31.0647,31.7732,32.3251,32.767
0.535364,16.9641,22.5922,25.3767,27.0339,28.1325,28.9141,29.4987,29.9524,30.3147
0.553144,17.8657,24.0279,27.1882,29.1178,30.4207,31.3602,32.0701,32.6255,33.0719
0.536286,18.3343,25.0731,28.594,30.7564,32.2183,33.2724,34.0681,34.69,35.1894
0.522724,18.2419,24.7754,28.0915,30.0888,31.4217,32.3737,33.0875,33.6424,34.0862
0.545097,18.9334,25.4458,28.7121,30.6751,31.9857,32.9232,33.6272,34.1753,34.6142
0.524405,18.3567,24.6878,27.9044,29.8559,31.1673,32.1094,32.8192,33.3731,33.8175
0.521642,18.2611,24.4774,27.6221,29.522,30.7941,31.7052,32.39,32.9233,33.3505
0.542749,19.8765,27.049,30.7756,33.0607,34.6055,35.7197,36.5613,37.2195,37.7484
0.546809,19.4805,25.9867,29.2214,31.1509,32.4312,33.3421,34.0233,34.5518,34.9737
0.525187,19.0091,25.5718,28.9355,30.9873,32.3713,33.3685,34.1216,34.7104,35.1836
0.5232,18.9519,25.4218,28.7055,30.6905,32.0195,32.9711,33.686,34.2427,34.6884
0.531151,20.1637,27.4637,31.2593,33.5859,35.158,36.2915,37.1475,37.8168,38.3546
0.542291,20.9552,28.4203,32.2213,34.517,36.0522,37.1506,37.9751,38.6167,39.1302
0.540063,21.0756,28.4623,32.2023,34.4604,35.9721,37.0551,37.8692,38.5036,39.0119
0.537521,21.2247,28.6262,32.3801,34.6514,36.1741,37.2661,38.0876,38.728,39.2412
0.563457,21.9906,29.418,33.1507,35.3983,36.9003,37.9751,38.7821,39.4105,39.9136
0.520129,20.6133,27.7581,31.419,33.6494,35.1517,36.2326,37.0477,37.6844,38.1955
0.519037,21.1307,28.6238,32.4756,34.8197,36.3955,37.5273,38.3794,39.044,39.5769
0.518198,20.8019,27.8323,31.3526,33.4626,34.8676,35.8701,36.6213,37.2052,37.672
0.537871,22.4709,30.5118,34.6742,37.224,38.9477,40.1914,41.1313,41.8667,42.4579
0.519004,21.0825,28.1189,31.6246,33.7198,35.1119,36.1035,36.8455,37.4215,37.8815
0.511807,20.7908,27.8126,31.3805,33.5457,35.0012,36.0473,36.8358,37.4514,37.9455
0.532081,22.7462,31.0122,35.3344,37.9931,39.7934,41.0932,42.0755,42.844,43.4616
0.523782,21.7023,28.9402,32.5304,34.6666,36.0811,37.0861,37.8367,38.4185,38.8826
0.506443,22.1138,30.1297,34.3107,36.885,38.632,39.8962,40.8539,41.6046,42.2091
0.508313,22.8695,31.155,35.3982,37.9687,39.6901,40.9227,41.8483,42.5687,43.1453
0.520361,22.7465,30.353,34.1134,36.3525,37.8379,38.8953,39.6864,40.3006,40.7913
0.504692,22.0355,29.4896,33.2718,35.5686,37.1139,38.2256,39.064,39.719,40.2449
0.517348,23.7283,32.3391,36.8338,39.5972,41.4678,42.8179,43.838,44.6359,45.2771
0.505702,22.6461,30.2729,34.0685,36.3316,37.8321,38.8991,39.6964,40.3148,40.8082
0.500262,23.3263,31.6813,36.0067,38.6579,40.4516,41.7466,42.7261,43.4928,44.1095
