0.875553,0.955828,0.985961,1.00175,1.01147,1.01806,1.02281,1.02641,1.02922,1.03149
0.54506,0.825405,0.977997,1.07355,1.13895,1.18651,1.22264,1.25102,1.2739,1.29274
0.418381,0.8606,1.12618,1.29221,1.40363,1.48294,1.54203,1.58766,1.6239,1.65337
0.343173,0.853621,1.13066,1.2856,1.38194,1.44704,1.49382,1.52898,1.55636,1.57827
0.304249,0.942868,1.30041,1.5036,1.6328,1.72202,1.78732,1.83719,1.87653,1.90837
0.298037,1.07661,1.48459,1.70579,1.84285,1.93589,2.00313,2.05397,2.09375,2.12573
0.300063,1.2869,1.80959,2.09742,2.27864,2.40319,2.49409,2.56335,2.61788,2.66194
0.290596,1.44711,2.05104,2.38138,2.58862,2.73064,2.834,2.91259,2.97435,3.02415
0.266878,1.42297,1.95797,2.23396,2.4017,2.51437,2.59525,2.65613,2.70361,2.74167
0.26855,1.55486,2.137,2.4437,2.63379,2.7634,2.85751,2.92898,2.98513,3.0304
0.271979,1.81464,2.57161,2.99218,3.26037,3.44634,3.58289,3.6874,3.76995,3.83681
0.211629,1.50661,2.09512,2.40468,2.59464,2.72281,2.81503,2.88452,2.93876,2.98225
0.258598,2.08276,2.96702,3.45611,3.76709,3.98251,4.14065,4.26173,4.35743,4.43498
0.340152,2.83051,3.91515,4.4775,4.82026,5.05069,5.21612,5.34059,5.43762,5.51537
0.219602,1.88463,2.58114,2.94476,3.16898,3.32131,3.43165,3.5153,3.58091,3.63376
0.23382,2.13911,2.96225,3.40556,3.68366,3.87457,4.01377,4.11977,4.20318,4.27054
0.240262,2.31127,3.19719,3.66955,3.96284,4.1625,4.30712,4.41667,4.50252,4.5716
0.244526,2.44465,3.36646,3.85373,4.15495,4.35957,4.50762,4.61973,4.70756,4.77823
0.254451,2.66836,3.68624,4.22901,4.56661,4.79695,4.96416,5.09108,5.19071,5.271
0.244181,2.59387,3.53977,4.03378,4.33719,4.54244,4.69052,4.80238,4.88986,4.96016
0.242173,2.79754,3.91374,4.52542,4.91234,5.17935,5.37476,5.52401,5.64172,5.73695
0.247037,3.03555,4.25564,4.91318,5.32277,5.60196,5.80432,5.95766,6.07783,6.17454
0.275158,3.59388,5.04386,5.82046,6.30315,6.63209,6.87063,7.05153,7.19344,7.30774
0.247783,3.39115,4.74002,5.45652,5.90049,6.20259,6.42146,6.58734,6.7174,6.82212
0.261115,3.68281,5.10507,5.8527,6.31382,6.62673,6.85302,7.0243,7.15845,7.26637
0.247637,3.65824,5.0983,5.86929,6.35065,6.68001,6.91963,7.10181,7.24501,7.36053
0.16341,2.48942,3.45358,3.96429,4.28044,4.49534,4.65088,4.76865,4.86091,4.93513
0.238656,3.85967,5.41013,6.24649,6.76997,7.12852,7.3895,7.58799,7.74402,7.86992
0.252727,4.25384,5.9536,6.86324,7.42916,7.81504,8.09496,8.30726,8.4738,8.60793
0.240928,4.24374,5.94539,6.85555,7.42186,7.80817,8.08853,8.30127,8.46823,8.60274
0.238932,4.41677,6.20911,7.17331,7.77559,8.18756,8.48713,8.71479,8.89366,9.0379
0.240817,4.48282,6.21529,7.1272,7.68981,8.07156,8.34757,8.55643,8.71999,8.85154
0.256022,4.99625,6.99442,8.07203,8.74744,9.21075,9.54839,9.80544,10.0077,10.171
0.25638,5.02266,6.935,7.93801,8.55505,8.97272,9.27411,9.5018,9.67986,9.82291
0.256146,5.14956,7.13455,8.19195,8.8501,9.29954,9.62608,9.87412,10.0689,10.226
0.226792,4.69496,6.52797,7.51007,8.12241,8.54072,8.84458,9.07529,9.25642,9.4024
0.28564,6.16724,8.63357,9.96424,10.7963,11.3656,11.7796,12.0942,12.3413,12.5406
0.264154,5.74554,7.96137,9.13193,9.85475,10.3453,10.7,10.9683,11.1785,11.3475
0.254743,5.79597,8.11952,9.3762,10.1645,10.7055,11.0998,11.4001,11.6364,11.8272
0.24915,5.70877,7.91818,9.08731,9.81002,10.3008,10.6557,10.9243,11.1346,11.3037
0.264143,6.34824,8.91853,10.3152,11.1938,11.7977,12.2386,12.5745,12.8391,13.0528
0.258265,6.24288,8.66065,9.93553,10.7214,11.2538,11.6383,11.9288,12.1561,12.3387
0.268524,6.50817,8.96824,10.2616,11.06,11.6023,11.9948,12.2921,12.5251,12.7126
0.246361,6.29433,8.83872,10.2289,11.107,11.7123,12.1549,12.4928,12.7591,12.9745
0.280534,7.25171,10.0873,11.5915,12.521,13.1516,13.6073,13.9518,14.2213,14.4379
0.264259,7.04953,9.86646,11.3853,12.3362,12.9879,13.4625,13.8238,14.1079,14.3373
0.265242,6.99284,9.63004,11.0092,11.8563,12.4291,12.8423,13.1543,13.3983,13.5943
0.267766,7.27718,10.1246,11.6564,12.6155,13.2732,13.7524,14.1172,14.4043,14.6361
0.264955,7.33607,10.2061,11.7417,12.6974,13.3491,13.8219,14.1804,14.4617,14.6881
0.260273,7.53754,10.5982,12.2595,13.302,14.0171,14.538,14.9344,15.2461,15.4977
0.299913,8.43819,11.5761,13.2021,14.1948,14.8634,15.3443,15.7067,15.9896,16.2166
0.276499,7.98104,11.0812,12.7504,13.7975,14.5167,15.0415,15.4416,15.7567,16.0113
0.27817,7.98665,10.9945,12.5807,13.5597,14.2236,14.7032,15.0659,15.3497,15.5778
0.272969,8.11266,11.3131,13.0456,14.133,14.8793,15.4233,15.8376,16.1637,16.4269
0.269846,7.65367,10.3903,11.7972,12.6525,13.2269,13.639,13.9492,14.1909,14.3847
0.275082,8.45122,11.9159,13.8413,15.0713,15.9262,16.5553,17.0378,17.4196,17.7294
0.278309,8.88766,12.5246,14.4873,15.7089,16.5405,17.1425,17.5981,17.9548,18.2415
0.275356,9.23572,13.0627,15.1227,16.4062,17.2823,17.9183,18.4011,18.7801,19.0855
0.358969,11.8604,16.3764,18.7089,20.131,21.0885,21.7772,22.2962,22.7015,23.0268
0.293995,9.8283,13.6126,15.6223,16.8742,17.7304,18.3534,18.8272,19.1998,19.5006
0.295111,10.3307,14.5137,16.7873,18.2176,19.2002,19.9169,20.4626,20.8919,21.2385
0.287945,10.0571,13.9509,16.0044,17.2702,18.1279,18.7471,19.2151,19.5812,19.8753
0.273253,9.66713,13.4139,15.4052,16.642,17.4853,18.0973,18.5618,18.9264,19.2203
0.304189,11.2872,15.8819,18.3789,19.9484,21.0262,21.8122,22.4106,22.8815,23.2617
0.311417,11.7443,16.4095,18.8876,20.4208,21.462,22.2149,22.7846,23.2306,23.5893
0.295718,12.9275,18.882,22.2295,24.3677,25.8505,26.9388,27.7715,28.4292,28.9618
0.286867,12.0548,16.7624,19.1644,20.6133,21.581,22.2726,22.7914,23.1949,23.5177
0.211155,8.86466,12.315,14.1446,15.2866,16.0697,16.6408,17.0762,17.4192,17.6965
0.312208,16.2046,24.4097,29.2968,32.5378,34.8422,36.5634,37.8974,38.9613,39.8295
0.30879,14.2269,19.4908,22.084,23.6119,24.6151,25.3231,25.8491,26.255,26.5777
0.304029,13.7188,18.8359,21.5349,23.2211,24.3799,25.2271,25.8742,26.3851,26.7987
0.292629,12.7767,17.4573,19.9365,21.4786,22.5309,23.2947,23.8742,24.3288,24.6949
0.301964,12.7422,17.3571,19.8053,21.3257,22.3618,23.1132,23.683,24.1299,24.4899
0.312104,13.2982,18.3899,21.1653,22.914,24.117,24.9952,25.6645,26.1916,26.6173
0.310525,13.4587,18.7341,21.5924,23.3797,24.6013,25.4887,26.1622,26.6908,27.1167
0.310897,13.5688,18.8927,21.7575,23.5435,24.7629,25.6484,26.3207,26.8484,27.2737
0.306716,13.5033,18.8144,21.6687,23.449,24.6654,25.5494,26.2207,26.748,27.173
0.313075,14.2689,20.0973,23.2779,25.2801,26.6563,27.6605,28.4256,29.0278,29.5143
0.244888,11.5792,16.3752,18.9777,20.6071,21.7223,22.5333,23.1494,23.6333,24.0234
0.314967,15.2233,21.4514,24.7946,26.877,28.2982,29.3299,30.113,30.7277,31.223
0.321904,15.5836,21.7375,24.9931,27.0075,28.3771,29.3689,30.1204,30.7094,31.1836
0.308363,15.3764,21.6423,25.0421,27.1814,28.6528,29.7273,30.5465,31.1918,31.7133
0.320731,16.8594,24.0165,27.9436,30.4219,32.1272,33.372,34.3203,35.0668,35.6695
0.320956,16.4773,22.8962,26.2547,28.3154,29.7078,30.7114,31.4689,32.061,32.5365
0.317593,16.6931,23.4501,27.1231,29.4404,31.0382,32.2076,33.1007,33.8054,34.3756
0.319339,16.5936,23.0359,26.4496,28.5624,29.9978,31.0362,31.8221,32.4375,32.9323
0.270656,14.1833,19.7349,22.7078,24.5627,25.8309,26.753,27.4538,28.0045,28.4487
0.322191,16.8772,23.4385,26.9445,29.1272,30.6168,31.6982,32.5189,33.1631,33.6821
0.313064,16.5085,23.0019,26.5019,28.6926,30.1932,31.2855,32.1163,32.7694,33.2964
0.322075,17.4335,24.4801,28.3082,30.7113,32.3596,33.5602,34.4737,35.192,35.7716
0.291158,16.018,22.461,25.9236,28.0811,29.5534,30.6219,31.4327,32.0688,32.5813
0.323477,17.9468,25.1341,28.9995,31.414,33.0659,34.2675,35.1809,35.8987,36.4778
0.357866,20.2246,28.4098,32.836,35.6097,37.5108,38.8953,39.9485,40.7766,41.4448
0.325693,19.4836,27.8036,32.3905,35.2933,37.295,38.7584,39.8749,40.7548,41.4659
0.327906,20.3492,29.068,33.8317,36.8265,38.8818,40.3793,41.5188,42.4149,43.138
0.329654,20.8579,29.6465,34.4082,37.3927,39.4388,40.9289,42.0628,42.9545,43.6742
0.32795,21.3229,30.344,35.2587,38.3531,40.4812,42.0347,43.2188,44.1513,44.9047
0.313755,20.4054,28.7303,33.1923,35.9743,37.8747,39.2553,40.3036,41.1267,41.7901
0.338136,25.6208,37.7858,44.689,49.1226,52.2069,54.4755,56.2136,57.5876,58.701
0.288968,1.92673,1.97204,1.98711,1.99461,1.99909,2.00208,2.00421,2.00581,2.00705
