0.56999,0.650335,0.682398,0.699645,0.710418,0.717786,0.723143,0.727214,0.730412,0.732991
0.395456,0.624555,0.752344,0.833209,0.888877,0.92951,0.960464,0.984825,1.0045,1.02071
0.293674,0.611384,0.799168,0.915127,0.992325,1.04697,1.08753,1.11877,1.14352,1.16361
0.246734,0.643555,0.876758,1.015,1.1045,1.16676,1.21245,1.24739,1.27494,1.29723
0.220726,0.695255,0.964551,1.11816,1.21575,1.28299,1.33207,1.36947,1.3989,1.42266
0.203821,0.751843,1.0497,1.21538,1.31978,1.39148,1.44377,1.48357,1.5149,1.54018
0.1985,0.831645,1.15769,1.33509,1.44599,1.52185,1.57701,1.61892,1.65185,1.67841
0.187066,0.854582,1.19298,1.38281,1.50478,1.58994,1.65283,1.7012,1.73957,1.77075
0.176189,0.903757,1.28664,1.50807,1.65249,1.75412,1.8295,1.88763,1.93383,1.97141
0.16694,0.949376,1.35987,1.59512,1.74704,1.8531,1.9313,1.99131,2.03881,2.07734
0.179515,1.13363,1.63883,1.92997,2.11883,2.2512,2.34911,2.42446,2.48426,2.53286
0.168593,1.15147,1.65761,1.945,2.12983,2.25865,2.35355,2.42636,2.484,2.53075
0.170453,1.15681,1.60112,1.83856,1.98627,2.08705,2.16021,2.21574,2.25932,2.29445
0.154646,1.18706,1.71821,2.0314,2.23908,2.38717,2.49818,2.58452,2.65361,2.71016
0.155003,1.32692,1.94414,2.30224,2.5346,2.69708,2.8169,2.90884,2.98158,3.04054
0.149655,1.36145,1.97372,2.31952,2.54095,2.69479,2.80788,2.89453,2.96304,3.01858
0.142154,1.40122,2.0442,2.41225,2.65066,2.81776,2.94141,3.03663,3.11222,3.17368
0.157748,1.67013,2.43496,2.86982,3.15001,3.34553,3.4897,3.60038,3.68802,3.75914
0.151716,1.68868,2.4461,2.87351,3.1481,3.33944,3.48044,3.58865,3.67433,3.74385
0.137665,1.61416,2.34162,2.75645,3.025,3.21316,3.35236,3.45952,3.54457,3.61371
0.1358,1.66223,2.40217,2.82117,3.09087,3.27897,3.41761,3.52404,3.6083,3.67666
0.133371,1.69492,2.44578,2.87211,3.14721,3.33948,3.48146,3.59061,3.67714,3.74742
0.131078,1.52388,2.08214,2.37445,2.55445,2.67646,2.76462,2.8313,2.88351,2.92548
0.140319,1.84141,2.67766,3.177,3.51114,3.75094,3.93156,4.07257,4.18574,4.27858
0.131022,1.85622,2.72311,3.22668,3.55334,3.78157,3.94973,4.07866,4.18058,4.26315
0.125428,1.8975,2.78894,3.30079,3.6314,3.86234,4.03275,4.16367,4.26742,4.35166
0.135343,2.13943,3.12239,3.67898,4.0366,4.28581,4.46944,4.61038,4.72198,4.81254
0.124617,2.06087,3.00187,3.53518,3.87876,4.11868,4.29573,4.43179,4.53961,4.62716
0.125547,2.14703,3.11404,3.66081,4.01275,4.25832,4.43944,4.57855,4.68873,4.77818
0.133983,2.39172,3.48244,4.10613,4.51038,4.79376,5.00345,5.1649,5.29304,5.39722
0.129165,2.35997,3.41742,4.01722,4.40376,4.6736,4.87265,5.02553,5.14663,5.24492
0.12389,2.33704,3.38954,3.99002,4.3785,4.65046,4.8515,5.00617,5.12886,5.22856
0.150175,2.95496,4.30328,5.07515,5.5749,5.92476,6.18335,6.38225,6.53997,6.6681
0.132317,2.75292,4.02285,4.74552,5.21078,5.53509,5.774,5.95728,6.10232,6.21995
0.118464,2.56021,3.73207,4.39627,4.82372,5.1219,5.34177,5.51062,5.64436,5.75292
0.124128,2.74333,3.9657,4.65033,5.08815,5.39228,5.61587,5.78718,5.92262,6.03239
0.118879,2.71945,3.94083,4.63214,5.07756,5.38862,5.6182,5.79462,5.93443,6.04797
0.118858,2.76486,3.99577,4.6933,5.14303,5.4572,5.68908,5.86728,6.00851,6.12318
0.118878,2.85079,4.12987,4.85686,5.32583,5.65338,5.89507,6.08075,6.22785,6.34727
0.11778,2.81673,4.0315,4.70934,5.14186,5.44182,5.66207,5.83065,5.96385,6.07173
0.123609,3.02964,4.37273,5.14016,5.6378,5.98691,6.24543,6.4446,6.60277,6.73143
0.118188,3.01883,4.39871,5.19367,5.7101,6.07234,6.34039,6.54673,6.71044,6.84349
0.112371,2.97189,4.33151,5.10703,5.60707,5.95602,6.21329,6.41078,6.56716,6.69404
0.114971,3.07195,4.43883,5.2083,5.70159,6.04482,6.29745,6.4912,6.6445,6.76883
0.121419,3.36096,4.90228,5.79009,6.36824,6.77495,7.07671,7.30954,7.49464,7.64533
0.120618,3.39359,4.9212,5.78738,6.34466,6.73307,7.01919,7.23868,7.41238,7.55324
0.115048,3.29839,4.78902,5.64077,6.19244,6.57902,6.86504,7.08526,7.26004,7.40215
0.146011,4.2787,6.21408,7.31828,8.03193,8.53102,8.89962,9.18297,9.40758,9.58998
0.117093,3.58553,5.22894,6.16361,6.76543,7.18502,7.49417,7.73138,7.91912,8.0714
0.115545,3.62176,5.25942,6.18365,6.77689,7.18993,7.49408,7.7274,7.91206,8.06184
0.118031,3.79281,5.50961,6.48346,7.11136,7.55002,7.87385,8.12275,8.32003,8.48025
0.119791,3.87818,5.6041,6.5792,7.20655,7.64415,7.9668,8.21456,8.41078,8.57004
0.119078,3.89918,5.63023,6.61142,7.24396,7.68576,8.01182,8.26236,8.46089,8.6221
0.11343,3.74134,5.40135,6.346,6.9564,7.38338,7.69884,7.94143,8.13379,8.29005
0.120278,3.99052,5.77425,6.79812,7.46325,7.9302,8.2761,8.54263,8.7543,8.92647
0.120246,4.05313,5.87414,6.91599,7.58998,8.06146,8.4097,8.67741,8.88959,9.06191
0.116351,3.97206,5.74051,6.74227,7.38623,7.83486,8.16529,8.41877,8.61939,8.78211
0.11009,3.21502,4.34133,4.91814,5.2689,5.50479,5.67433,5.80208,5.90181,5.98181
0.118095,3.79861,5.51106,6.54271,7.23885,7.74178,8.12262,8.4212,8.66166,8.8595
0.120263,4.1267,6.06819,7.20131,7.93706,8.45091,8.82917,9.11887,9.34765,9.5328
0.109413,3.92373,5.76977,6.82655,7.5069,7.98092,8.33004,8.59788,8.8099,8.9819
0.116871,4.28036,6.23985,7.34391,8.0511,8.54295,8.9049,9.18247,9.40211,9.58025
0.122517,4.67447,6.84368,8.07882,8.87668,9.43484,9.8473,10.1646,10.4162,10.6206
0.110383,4.42769,6.49665,7.66911,8.42272,8.9476,9.33406,9.63041,9.86486,10.055
0.115771,4.76437,6.94138,8.16229,8.94338,9.48611,9.88519,10.191,10.4328,10.6289
0.115973,4.93853,7.20817,8.49286,9.32055,9.89855,10.3251,10.653,10.9128,11.1238
0.118253,5.12129,7.40594,8.67691,9.48606,10.0463,10.457,10.7711,11.0189,11.2196
0.117176,5.11825,7.37861,8.64575,9.45848,10.0246,10.4417,10.7618,11.0153,11.2211
0.117229,5.10831,7.33502,8.58604,9.38923,9.94881,10.3611,10.6774,10.9279,11.1311
0.116607,5.08851,7.31363,8.57364,9.38595,9.95335,10.3721,10.6939,10.9489,11.156
0.118808,5.24297,7.56,8.87702,9.72658,10.3199,10.7577,11.094,11.3604,11.5767
0.109137,4.87194,7.04418,8.28266,9.08276,9.64216,10.0553,10.3728,10.6245,10.8289
0.113255,5.1876,7.55721,8.92054,9.80577,10.4268,10.8864,11.2404,11.5213,11.7497
0.109369,5.04553,7.29906,8.57042,9.38522,9.95161,10.3681,10.6871,10.9393,11.1438
0.109797,5.08351,7.35254,8.64361,9.47809,10.0622,10.4941,10.8265,11.0903,11.3047
0.112571,5.32263,7.71213,9.06765,9.94012,10.5484,10.9967,11.3406,11.6128,11.8336
0.110841,5.3703,7.81765,9.21639,10.1214,10.7549,11.2232,11.5834,11.8691,12.1013
0.112917,5.50749,7.97514,9.37045,10.2672,10.8919,11.3521,11.7052,11.9846,12.2113
0.109398,5.36741,7.76218,9.12028,9.9959,10.6076,11.0592,11.4062,11.6813,11.9047
0.113329,5.62485,8.15445,9.59848,10.533,11.1873,11.6711,12.0433,12.3385,12.5784
0.108058,5.43849,7.89588,9.29894,10.2061,10.8406,11.3093,11.6697,11.9554,12.1874
0.107616,5.4989,7.98591,9.40239,10.3165,10.9551,11.4265,11.7886,12.0755,12.3085
0.109074,5.59768,8.12714,9.57438,10.5124,11.17,11.6567,12.0314,12.3289,12.5708
0.10997,5.73554,8.35225,9.85395,10.828,11.5108,12.016,12.4049,12.7134,12.9642
0.109233,5.75875,8.37769,9.87464,10.8429,11.5204,12.0209,12.4058,12.711,12.9589
0.108319,5.86101,8.56309,10.1132,11.1178,11.8216,12.3421,12.7426,13.0604,13.3186
0.10795,5.99652,8.7573,10.3284,11.3407,12.047,12.5677,12.9674,13.284,13.5408
0.10713,6.1171,8.95933,10.5867,11.641,12.3798,12.9262,13.3469,13.6808,13.9522
0.114562,6.52167,9.43811,11.0759,12.1246,12.8536,13.3898,13.8006,14.1255,14.3889
0.113861,6.53104,9.45336,11.1103,12.1794,12.9269,13.4792,13.9038,14.2406,14.5142
0.11383,6.56952,9.53362,11.2316,12.3339,13.1073,13.6801,14.1214,14.4717,14.7566
0.111835,6.55184,9.5227,11.22,12.3173,13.0846,13.6512,14.0866,14.4316,14.7118
0.115967,6.95863,10.1661,12.0095,13.2057,14.0445,14.6652,15.1431,15.5224,15.8308
0.109686,6.63678,9.66307,11.3891,12.5041,13.2835,13.8591,14.3015,14.6522,14.937
0.112875,6.79891,9.82204,11.5274,12.6225,13.3853,13.9472,14.3783,14.7196,14.9964
0.110462,6.72961,9.77231,11.5162,12.6484,13.4433,14.0321,14.4858,14.8463,15.1395
0.112335,7.07173,10.3687,12.277,13.5204,14.3944,15.0422,15.5415,15.938,16.2605
0.120299,7.72967,11.3243,13.3864,14.7215,15.6559,16.3463,16.8772,17.2981,17.64
0.108351,7.10779,10.3878,12.2539,13.4567,14.2963,14.9156,15.3912,15.7679,16.0737
0.107335,7.12977,10.3974,12.258,13.4601,14.3012,14.9226,15.4007,15.7798,16.0879
