0.068561,0.0913426,0.10272,0.109542,0.114088,0.117335,0.119769,0.121662,0.123176,0.124415
0.0520387,0.0859415,0.104265,0.115489,0.123024,0.12842,0.132469,0.135618,0.138137,0.140196
0.0360141,0.0796846,0.107654,0.126072,0.138954,0.148427,0.155672,0.161387,0.166007,0.169819
0.0345092,0.0975576,0.139201,0.165842,0.183942,0.196944,0.206705,0.214291,0.22035,0.2253
0.0345786,0.112732,0.159051,0.186182,0.203689,0.215872,0.224829,0.231689,0.23711,0.241501
0.0322779,0.120811,0.172389,0.202961,0.223101,0.237379,0.248037,0.256301,0.262897,0.268285
0.0282795,0.127122,0.189855,0.229478,0.256699,0.276552,0.29167,0.303566,0.31317,0.321087
0.0302027,0.16313,0.248652,0.301388,0.336703,0.361898,0.380743,0.395354,0.407008,0.416517
0.0316176,0.175304,0.253355,0.297623,0.326076,0.345917,0.360552,0.371798,0.380711,0.387951
0.0235021,0.151204,0.228299,0.276435,0.309506,0.333677,0.352131,0.366687,0.378464,0.388191
0.0273267,0.190208,0.279301,0.330161,0.362763,0.385358,0.401909,0.414542,0.424495,0.432535
0.0282795,0.209984,0.307005,0.363341,0.400265,0.426387,0.445862,0.460952,0.472992,0.482824
0.0267712,0.210633,0.307088,0.363304,0.400199,0.426288,0.445713,0.460739,0.472708,0.482467
0.0264276,0.216305,0.313381,0.369771,0.406687,0.432739,0.45211,0.467078,0.478991,0.488697
0.0266394,0.238536,0.352876,0.421525,0.467323,0.500048,0.524596,0.54369,0.558965,0.571463
0.0250174,0.242367,0.360521,0.430943,0.477543,0.51062,0.5353,0.554417,0.569658,0.582092
0.0253122,0.263074,0.391333,0.467132,0.517068,0.552432,0.578788,0.599187,0.615445,0.628706
0.0252186,0.281319,0.420257,0.502936,0.557748,0.596757,0.62594,0.648596,0.666696,0.681489
0.0243946,0.287696,0.427909,0.510503,0.564899,0.603426,0.632142,0.65437,0.672085,0.686535
0.0722715,0.881782,1.30582,1.55688,1.72325,1.84171,1.93038,1.99926,2.05432,2.09933
0.0672767,0.566977,0.712318,0.779078,0.817413,0.842282,0.859717,0.872615,0.882544,0.890421
0.0678969,0.734682,1.09179,1.33353,1.51145,1.64866,1.75793,1.84711,1.92132,1.98405
0.0651236,0.835802,1.29872,1.59663,1.79979,1.94551,2.05444,2.13865,2.20553,2.25986
0.0650544,0.937492,1.45096,1.7597,1.96184,2.10376,2.20874,2.28952,2.35362,2.40571
0.0603956,0.933462,1.4192,1.702,1.88615,2.01573,2.11196,2.18629,2.24546,2.29368
0.058413,0.962506,1.45349,1.74054,1.92928,2.06307,2.16294,2.24036,2.30215,2.35261
0.0572208,0.984591,1.47353,1.75916,1.94709,2.08027,2.17961,2.25656,2.31792,2.368
0.0557946,1.00567,1.50517,1.80037,1.99595,2.13513,2.23927,2.32011,2.3847,2.43748
0.0544677,1.01522,1.51018,1.80057,1.99172,2.12707,2.22793,2.30599,2.3682,2.41894
0.0539721,1.03427,1.53943,1.83971,2.03928,2.18164,2.28833,2.37128,2.43763,2.49191
0.0515145,1.04333,1.56494,1.8767,2.08386,2.2314,2.34178,2.42746,2.49587,2.55177
0.0510083,1.07835,1.61454,1.93201,2.14159,2.29021,2.40108,2.48695,2.55541,2.61128
0.0504156,1.10594,1.65089,1.97196,2.18353,2.33347,2.44529,2.5319,2.60095,2.65731
0.0488868,1.10785,1.65114,1.9717,2.18335,2.33358,2.44576,2.53273,2.60213,2.65879
0.0489368,1.11775,1.65078,1.96283,2.16804,2.31332,2.4216,2.50543,2.57224,2.62675
0.0474598,1.11828,1.65755,1.97587,2.18611,2.33534,2.44676,2.53311,2.602,2.65825
0.048084,1.17079,1.74003,2.07673,2.29916,2.457,2.57482,2.66612,2.73894,2.79837
0.0458995,1.1549,1.71889,2.05239,2.27258,2.42879,2.54537,2.63569,2.70773,2.76653
0.0459213,1.21031,1.81518,2.17645,2.41648,2.5875,2.71553,2.81497,2.89443,2.95939
0.0450588,1.23293,1.84612,2.20886,2.44818,2.61783,2.74435,2.84231,2.9204,2.98412
0.0439923,1.24512,1.86856,2.24052,2.4878,2.66417,2.79633,2.89908,2.98124,3.04846
0.0427229,1.23766,1.84489,2.20198,2.43693,2.60322,2.72708,2.82291,2.89925,2.9615
0.0446206,1.29586,1.90985,2.26652,2.49986,2.66448,2.78687,2.88144,2.95671,3.01805
0.0441983,1.24797,1.81555,2.14433,2.35962,2.51172,2.62493,2.71251,2.78227,2.83917
0.0428745,1.24656,1.84239,2.19829,2.43534,2.6046,2.7315,2.83017,2.90908,2.97364
0.0428781,1.26893,1.87979,2.24285,2.48313,2.65376,2.78115,2.87987,2.95861,3.02287
0.0417672,1.27013,1.88848,2.25571,2.49857,2.67101,2.79976,2.89956,2.97917,3.04417
0.0418034,1.29171,1.91741,2.28744,2.53177,2.70514,2.83456,2.93485,3.01487,3.08019
0.0409023,1.29844,1.93135,2.30577,2.55302,2.72845,2.85939,2.96084,3.04177,3.10782
0.0414939,1.34668,2.00207,2.38901,2.64429,2.82534,2.96042,3.06507,3.14853,3.21665
0.041106,1.34487,1.99875,2.38792,2.64649,2.83087,2.96903,3.07643,3.16232,3.23257
0.0409116,1.37462,2.04667,2.44499,2.70824,2.89504,3.03444,3.14242,3.22852,3.29878
0.0404421,1.37513,2.03604,2.42349,2.67795,2.85783,2.99173,3.09527,3.17774,3.24498
0.0391783,1.36712,2.03269,2.42657,2.68703,2.8721,3.01038,3.11763,3.20325,3.27318
0.0394954,1.39587,2.06643,2.45973,2.71818,2.90095,3.03703,3.14228,3.22611,3.29445
0.0394305,1.42891,2.12437,2.53603,2.80828,3.00172,3.14626,3.25836,3.34785,3.42094
0.0395766,1.4621,2.17188,2.59044,2.86638,3.06195,3.20779,3.32072,3.41074,3.48418
0.0376386,1.41927,2.11106,2.52035,2.79087,2.983,3.12649,3.23776,3.32655,3.39906
0.0381984,1.46398,2.17409,2.59275,2.8688,3.06448,3.21043,3.32347,3.41359,3.48713
0.0384096,1.49146,2.21375,2.64048,2.92242,3.1226,3.27211,3.38803,3.48053,3.55607
0.0381375,1.5111,2.25056,2.69027,2.98187,3.18942,3.34469,3.46521,3.56148,3.64015
0.0383567,1.54001,2.28631,2.72617,3.01597,3.22126,3.37427,3.49271,3.58711,3.6641
0.0368059,1.50502,2.23976,2.67567,2.96436,3.16969,3.32322,3.44237,3.53753,3.61528
0.0362525,1.5002,2.22439,2.65017,2.93032,3.12859,3.27629,3.39057,3.48161,3.55585
0.0366423,1.54797,2.30984,2.76514,3.06826,3.28467,3.44696,3.57319,3.67418,3.75682
0.0358185,1.56496,2.34842,2.81724,3.12883,3.3508,3.5169,3.64584,3.74883,3.83298
0.035854,1.57341,2.35094,2.81483,3.12318,3.34306,3.50779,3.63582,3.7382,3.82194
0.0363929,1.61256,2.3956,2.85652,3.15993,3.37472,3.53474,3.65857,3.75722,3.83767
0.0355898,1.62337,2.42758,2.90692,3.22525,3.45207,3.6219,3.75383,3.85927,3.94548
0.0360661,1.67369,2.49637,2.9829,3.30411,3.53198,3.702,3.83371,3.93875,4.02447
0.0352616,1.6603,2.47422,2.95619,3.27502,3.5016,3.67093,3.80228,3.90715,3.99281
0.0349543,1.66457,2.47602,2.95575,3.27277,3.49787,3.66597,3.7963,3.90029,3.98519
0.0352165,1.694,2.5206,3.01134,3.33664,3.56814,3.74132,3.87575,3.98314,4.0709
0.0349394,1.70767,2.54356,3.03968,3.36811,3.60155,3.77598,3.91126,4.01923,4.10741
0.0335462,1.63574,2.4299,2.90211,3.21553,3.43882,3.606,3.73588,3.83969,3.92457
0.0345088,1.72623,2.57717,3.08403,3.42005,3.65902,3.83764,3.97619,4.08678,4.17709
0.0336129,1.69644,2.52309,3.01138,3.33354,3.56199,3.73243,3.86446,3.96976,4.05569
0.034402,1.74065,2.58083,3.07668,3.40411,3.63656,3.81014,3.94472,4.05211,4.13981
0.0335365,1.7323,2.58339,3.09078,3.42779,3.66791,3.84768,3.9873,4.09887,4.19008
0.0344773,1.80546,2.69288,3.22067,3.57044,3.81921,4.00519,4.14947,4.26467,4.35878
0.0350854,1.87158,2.79308,3.33988,3.70161,3.95859,4.15054,4.29937,4.41814,4.51512
0.0330702,1.77106,2.62412,3.12374,3.45171,3.6835,3.85602,3.98941,4.09564,4.18223
0.0330772,1.8277,2.73546,3.27791,3.6389,3.89652,4.08963,4.23979,4.35989,4.45815
0.0328095,1.8173,2.69847,3.21658,3.5575,3.79877,3.97849,4.11753,4.2283,4.31862
0.0334082,1.86933,2.77819,3.3161,3.67201,3.92502,4.11416,4.26091,4.3781,4.47384
0.0331225,1.8834,2.80689,3.35582,3.71972,3.97862,4.17224,4.3225,4.44249,4.54052
0.032666,1.88246,2.80605,3.35433,3.71731,3.97532,4.16813,4.31768,4.43705,4.53455
0.0321841,1.82184,2.67585,3.17098,3.49415,3.72168,3.89055,4.02087,4.12448,4.20883
0.0326813,1.89263,2.8201,3.37663,3.74854,4.01485,4.215,4.37096,4.49592,4.59829
0.0320776,1.88617,2.81085,3.36015,3.72347,3.98136,4.17382,4.32291,4.44178,4.53877
0.031449,1.88709,2.82001,3.37523,3.74317,4.00488,4.20056,4.3524,4.47366,4.57272
0.0316278,1.86397,2.74531,3.25851,3.59441,3.83138,4.00755,4.14365,4.25197,4.34022
0.0312717,1.87195,2.7775,3.31477,3.67098,3.92459,4.11438,4.26177,4.37954,4.47582
0.0324703,1.97764,2.94328,3.51624,3.8953,4.16454,4.3656,4.52144,4.64578,4.74727
0.0315877,1.95245,2.91642,3.49229,3.87519,4.14822,4.35274,4.51168,4.63874,4.74265
0.0309461,1.9619,2.9396,3.52241,3.9088,4.1836,4.38901,4.54835,4.67555,4.77943
0.0313536,2.02888,3.04061,3.64244,4.04119,4.32478,4.53679,4.7013,4.83266,4.93998
0.0307258,1.9955,2.97257,3.54937,3.93014,4.20036,4.40209,4.55845,4.6832,4.78505
0.0306126,1.97166,2.92388,3.48738,3.86058,4.12615,4.32482,4.47907,4.60232,4.70305
0.0303253,2.0457,3.08151,3.70593,4.12305,4.42124,4.64495,4.81894,4.95813,5.072
