0.36651,0.468852,0.51697,0.544934,0.563213,0.576096,0.585665,0.593052,0.598929,0.603714
0.205471,0.377202,0.489564,0.567279,0.623944,0.667007,0.700811,0.72804,0.750435,0.769176
0.145889,0.352166,0.49406,0.589465,0.656484,0.705708,0.743236,0.772728,0.796483,0.816012
0.0844095,0.253681,0.369622,0.445002,0.496843,0.534468,0.562963,0.585275,0.603214,0.617948
0.0957424,0.344782,0.509336,0.612405,0.681935,0.73185,0.769394,0.798652,0.82209,0.841288
0.0650881,0.278711,0.419417,0.50766,0.567641,0.611021,0.643852,0.669565,0.690249,0.707248
0.0482602,0.238637,0.360238,0.435161,0.485628,0.521901,0.549223,0.57054,0.587635,0.601649
0.0601808,0.336131,0.508455,0.61461,0.686427,0.738259,0.777439,0.808098,0.832746,0.852993
0.0325174,0.201679,0.304449,0.367297,0.409651,0.440128,0.463109,0.481057,0.495461,0.507277
0.0509844,0.350248,0.529071,0.638023,0.711272,0.763885,0.803502,0.834407,0.859189,0.879503
0.0298356,0.22538,0.34094,0.411372,0.45876,0.492822,0.518486,0.538517,0.554587,0.567764
0.0373673,0.308157,0.467178,0.564436,0.630053,0.677312,0.712973,0.740839,0.763214,0.781576
0.0279999,0.249008,0.376431,0.453821,0.505782,0.543074,0.571138,0.593022,0.610564,0.624939
0.0368695,0.34006,0.505003,0.602758,0.667478,0.713502,0.747914,0.774619,0.795945,0.81337
0.0322934,0.31089,0.462821,0.55497,0.617064,0.661802,0.695586,0.722006,0.743237,0.760672
0.0232527,0.235984,0.355415,0.429762,0.480611,0.517593,0.5457,0.567785,0.585595,0.600262
0.0213522,0.236467,0.359073,0.434199,0.484663,0.520813,0.547952,0.569065,0.585952,0.599764
0.0266958,0.314071,0.479089,0.581392,0.651008,0.701469,0.739741,0.769772,0.79397,0.813885
0.0178457,0.225011,0.343752,0.416712,0.465968,0.501432,0.528176,0.54906,0.565819,0.579563
0.0275579,0.37851,0.583815,0.71102,0.797392,0.859849,0.90711,0.944118,0.973882,0.99834
0.0152065,0.211354,0.317607,0.380969,0.423064,0.453073,0.475552,0.493022,0.506989,0.518413
0.0244708,0.346386,0.520314,0.626695,0.698857,0.751114,0.790733,0.821814,0.846855,0.867461
0.0156416,0.238625,0.364275,0.442188,0.495145,0.533439,0.5624,0.58506,0.603269,0.61822
0.0187931,0.295538,0.447523,0.540174,0.602492,0.647263,0.680981,0.70729,0.728391,0.74569
0.0147553,0.235153,0.352388,0.423094,0.470432,0.504361,0.529876,0.549766,0.565707,0.578769
0.0193312,0.326203,0.496759,0.602746,0.675067,0.727578,0.76744,0.798734,0.823954,0.844712
0.0165012,0.295667,0.451935,0.547951,0.612705,0.659264,0.694331,0.721685,0.743613,0.761583
0.0132028,0.244055,0.370419,0.447238,0.498848,0.535915,0.563833,0.585619,0.603095,0.617427
0.0109715,0.210791,0.319527,0.385572,0.429948,0.461822,0.485827,0.504556,0.519578,0.531894
0.0155313,0.323154,0.497996,0.606304,0.679878,0.733091,0.773359,0.804889,0.830246,0.851079
0.013651,0.281448,0.422704,0.507119,0.563303,0.603408,0.633479,0.656866,0.675577,0.690887
0.0155422,0.336219,0.512465,0.621617,0.696057,0.750116,0.791168,0.82341,0.849404,0.870807
0.00887275,0.200238,0.305421,0.369927,0.413451,0.44477,0.468374,0.486797,0.501573,0.513687
0.0155207,0.347945,0.523505,0.63001,0.701646,0.753169,0.792022,0.822376,0.846746,0.866746
0.0103617,0.240621,0.365493,0.442667,0.495144,0.53315,0.561946,0.584517,0.602685,0.617623
0.0123769,0.287395,0.431492,0.518691,0.577119,0.61899,0.650463,0.674983,0.694623,0.710709
0.00964954,0.232911,0.352494,0.42563,0.474955,0.510462,0.537244,0.558163,0.574955,0.588732
0.0133634,0.337721,0.514171,0.622222,0.695051,0.747437,0.786918,0.817736,0.842459,0.862731
0.0119942,0.301732,0.453674,0.545583,0.607244,0.651509,0.684839,0.710847,0.731707,0.748813
0.00978943,0.254691,0.386268,0.467176,0.522001,0.561611,0.591568,0.615018,0.633873,0.649363
0.00844664,0.225714,0.34244,0.413877,0.462054,0.496726,0.522867,0.54328,0.55966,0.573094
0.0109766,0.297444,0.448978,0.540955,0.602707,0.647031,0.680394,0.706416,0.727279,0.74438
0.00815462,0.225404,0.340742,0.411181,0.458702,0.492934,0.518771,0.538966,0.555185,0.568497
0.013407,0.376662,0.564757,0.677125,0.751707,0.804782,0.844469,0.87526,0.899842,0.919921
0.00718348,0.205357,0.309536,0.37313,0.416088,0.447083,0.470511,0.488848,0.503592,0.515706
0.0127692,0.371563,0.561316,0.677469,0.755911,0.812435,0.855096,0.888433,0.9152,0.937164
0.00835917,0.251854,0.38291,0.463448,0.517888,0.557127,0.586745,0.609891,0.628477,0.643729
0.010104,0.307061,0.465193,0.5621,0.627595,0.674833,0.71052,0.738433,0.760864,0.779285
0.00806784,0.250341,0.37944,0.458418,0.511694,0.550052,0.578987,0.601588,0.619731,0.634615
0.0103746,0.330861,0.503035,0.60868,0.680078,0.731551,0.770418,0.800804,0.825212,0.845247
0.00623677,0.19474,0.29053,0.347742,0.385797,0.412944,0.433288,0.449103,0.46175,0.472095
0.010595,0.345982,0.526768,0.63905,0.715672,0.771317,0.81357,0.846749,0.873493,0.895511
0.00738718,0.249483,0.379503,0.458755,0.511936,0.550042,0.578669,0.600955,0.618793,0.633392
0.00910981,0.314338,0.47745,0.576871,0.643799,0.691941,0.728241,0.756594,0.779355,0.798032
0.00780483,0.277842,0.423709,0.51325,0.573815,0.617516,0.650537,0.676366,0.697124,0.714169
0.00938417,0.323541,0.481601,0.575476,0.637739,0.682076,0.715259,0.74103,0.761623,0.778457
0.00644077,0.231009,0.349659,0.422467,0.471771,0.507382,0.534312,0.555393,0.572343,0.586268
0.00603682,0.230043,0.353632,0.430277,0.482311,0.519905,0.548321,0.570549,0.588408,0.60307
0.007981,0.31091,0.472885,0.570595,0.635771,0.68231,0.7172,0.744325,0.766017,0.783761
0.00644354,0.262569,0.402037,0.487319,0.544859,0.586316,0.617613,0.642082,0.661738,0.677875
0.00785148,0.323325,0.492268,0.59545,0.665129,0.715374,0.75333,0.783017,0.806874,0.826465
0.00575544,0.240189,0.364782,0.440855,0.492187,0.529167,0.557076,0.578888,0.596404,0.610778
0.00842039,0.358166,0.544187,0.657908,0.734647,0.789919,0.831624,0.86421,0.890374,0.911843
0.00457207,0.198681,0.302458,0.366116,0.409157,0.4402,0.463647,0.481984,0.496716,0.508811
0.00836162,0.373738,0.570409,0.691102,0.772654,0.831433,0.875803,0.910482,0.938332,0.961188
0.00550089,0.241519,0.363832,0.438019,0.487902,0.523769,0.550806,0.571922,0.58887,0.602775
0.0063082,0.279264,0.422697,0.510979,0.570895,0.614242,0.647063,0.672777,0.693468,0.710477
0.00662382,0.280559,0.419366,0.504203,0.561592,0.603031,0.634366,0.658896,0.678621,0.694828
0.00558226,0.249671,0.381622,0.463922,0.520008,0.560629,0.591387,0.615477,0.63485,0.650767
0.006969,0.32258,0.492541,0.596293,0.665882,0.715725,0.753163,0.782307,0.805636,0.824731
0.00545682,0.264085,0.40531,0.49184,0.55018,0.592172,0.623848,0.648594,0.668462,0.684766
0.00724531,0.353406,0.538038,0.650429,0.726113,0.780585,0.821678,0.853788,0.879572,0.900733
0.00397894,0.193996,0.2929,0.352674,0.392764,0.421532,0.443183,0.460069,0.473607,0.484703
0.00685248,0.3416,0.520124,0.63028,0.705162,0.759397,0.800497,0.832719,0.85866,0.879995
0.00529031,0.267752,0.406305,0.490659,0.54734,0.588018,0.618622,0.642478,0.661593,0.677252
0.00503579,0.260409,0.395713,0.478236,0.533801,0.573763,0.603886,0.627407,0.646281,0.661764
0.0064611,0.338293,0.513511,0.620461,0.692567,0.744483,0.783651,0.814255,0.838828,0.858993
0.00466589,0.245921,0.373097,0.45103,0.503737,0.541773,0.570519,0.593009,0.611085,0.625931
0.00731139,0.39616,0.604201,0.732103,0.818617,0.881008,0.92812,0.964949,0.994529,1.01881
0.00379342,0.203938,0.308051,0.371272,0.413757,0.444279,0.46727,0.485213,0.499606,0.511409
0.00650213,0.34507,0.519062,0.625077,0.696594,0.748132,0.787047,0.817476,0.841922,0.861994
0.00409502,0.226993,0.346803,0.420986,0.471365,0.507784,0.53533,0.556888,0.574216,0.588448
0.00603878,0.330876,0.498193,0.599005,0.666317,0.714437,0.750546,0.778642,0.801126,0.819527
0.00440406,0.245848,0.37248,0.44992,0.502212,0.539909,0.568379,0.590643,0.608532,0.623221
0.00476095,0.271721,0.413895,0.501406,0.560678,0.603473,0.635821,0.661129,0.681469,0.698173
0.00586718,0.332677,0.500886,0.602202,0.669865,0.718243,0.75455,0.782801,0.80541,0.823913
0.00335163,0.195494,0.297603,0.360487,0.403139,0.433982,0.457327,0.475614,0.490327,0.50242
0.00571469,0.345552,0.529827,0.643644,0.720798,0.77651,0.818615,0.85155,0.878013,0.89974
0.00395477,0.241887,0.368682,0.446074,0.498185,0.53566,0.563905,0.585958,0.603653,0.618167
0.00595504,0.366807,0.554597,0.667672,0.7432,0.797221,0.837778,0.869347,0.894618,0.915304
0.00407743,0.253601,0.385959,0.467755,0.523487,0.563946,0.594667,0.618795,0.638248,0.654267
0.00683976,0.404653,0.605109,0.726948,0.809079,0.868231,0.912874,0.947766,0.975787,0.998786
0.00431097,0.258669,0.389419,0.469183,0.52287,0.561444,0.590489,0.613143,0.631303,0.646186
0.00295199,0.180707,0.273939,0.331147,0.369779,0.397608,0.418607,0.435015,0.448189,0.458999
0.00561237,0.356378,0.544044,0.659133,0.736708,0.792497,0.834534,0.86734,0.893654,0.915227
0.00365479,0.238473,0.364152,0.440854,0.492453,0.52953,0.55746,0.579255,0.596737,0.611071
0.00533698,0.354841,0.540509,0.653437,0.729353,0.7839,0.824992,0.857063,0.88279,0.903887
0.00359195,0.2414,0.366744,0.44303,0.494397,0.531354,0.559225,0.580994,0.598469,0.612806
0.00563126,0.378742,0.571212,0.687188,0.764757,0.820291,0.862012,0.894503,0.920522,0.941828
0.00557041,0.364929,0.546353,0.656211,0.73013,0.783323,0.823455,0.854817,0.880003,0.900677
