0.733442,0.859127,0.911174,0.939636,0.957583,0.969933,0.978952,0.985827,0.991241,0.995616
0.471983,0.749486,0.902383,0.99822,1.06375,1.11134,1.14745,1.17579,1.19861,1.21739
0.336199,0.6776,0.870064,0.986257,1.0627,1.11644,1.15616,1.18665,1.21078,1.23032
0.254034,0.631632,0.844169,0.968561,1.04875,1.10444,1.14529,1.17651,1.20113,1.22104
0.275097,0.81229,1.10406,1.26888,1.37326,1.44505,1.49739,1.53724,1.56858,1.59387
0.447373,1.55378,2.1438,2.47291,2.68078,2.82376,2.92808,3.00755,3.07011,3.12062
0.205525,0.827732,1.15487,1.3364,1.45109,1.53004,1.58771,1.63166,1.66628,1.69424
0.186341,0.853705,1.19792,1.38805,1.50815,1.59085,1.65126,1.69732,1.73361,1.76293
0.174738,0.90537,1.28027,1.48832,1.62032,1.71152,1.77829,1.8293,1.86953,1.90207
0.170352,0.992949,1.41207,1.64423,1.79132,1.89281,1.96703,2.02366,2.0683,2.10439
0.151851,0.958853,1.34976,1.56159,1.69423,1.78506,1.85115,1.9014,1.9409,1.97276
0.144451,1.01179,1.43794,1.67339,1.82282,1.92615,2.00187,2.05975,2.10544,2.14242
0.138418,1.06385,1.51827,1.76991,1.92962,2.03996,2.12074,2.18244,2.23109,2.27044
0.177197,1.45053,2.04823,2.37166,2.57406,2.7126,2.81335,2.88993,2.95009,2.9986
0.122283,1.05619,1.48289,1.71366,1.85846,1.95785,2.03032,2.08552,2.12896,2.16405
0.120749,1.14148,1.62466,1.89226,2.0624,2.18013,2.26644,2.33242,2.3845,2.42666
0.132997,1.30522,1.82973,2.11101,2.2861,2.4055,2.4921,2.55778,2.60929,2.65078
0.0918787,0.219728,0.229731,0.233314,0.235162,0.236292,0.237054,0.237603,0.238018,0.238342
0.166008,0.723688,1.07494,1.38481,1.66453,1.91914,2.15216,2.36634,2.56392,2.74678
0.307412,2.24088,4.13527,5.83257,7.22976,8.34301,9.22347,9.92286,10.4837,10.9388
0.0981604,1.04197,1.95499,2.57111,2.959,3.21159,3.38498,3.51001,3.60397,3.67699
0.0781911,0.330281,0.370287,0.381904,0.387073,0.389978,0.391847,0.393155,0.394125,0.394875
0.0706207,0.508022,0.776709,0.987267,1.1651,1.31918,1.4545,1.57449,1.68168,1.77806
0.118399,1.33233,2.3971,3.23036,3.86166,4.33864,4.70319,4.98651,5.21064,5.39101
0.0723392,1.11819,1.99991,2.54489,2.88278,3.10491,3.25987,3.37346,3.46008,3.52826
0.0677242,1.21726,1.95149,2.31243,2.51807,2.65068,2.74363,2.81261,2.86595,2.90849
0.0690228,1.49635,2.3736,2.83492,3.12326,3.32295,3.47024,3.58363,3.67375,3.74713
0.0674044,1.66444,2.55949,3.02695,3.31808,3.51765,3.66309,3.77378,3.86084,3.93108
0.0677851,1.7371,2.54415,2.95739,3.21258,3.38645,3.51265,3.60845,3.68367,3.74431
0.0692685,1.87541,2.71687,3.16373,3.4451,3.63909,3.78105,3.88946,3.97499,4.04419
0.0680836,1.92211,2.76116,3.21216,3.49621,3.69167,3.83439,3.94318,4.02885,4.09806
0.0716894,2.1025,3.00903,3.50079,3.81098,4.02457,4.1806,4.29958,4.3933,4.46904
0.382896,11.3347,16.0374,18.57,20.158,21.2472,22.0408,22.6447,23.1197,23.5032
0.0693331,2.0995,2.989,3.48197,3.79667,4.01524,4.17594,4.29911,4.39653,4.47551
0.0679587,2.09329,2.97373,3.45822,3.76487,3.97629,4.13083,4.24869,4.34154,4.41656
0.0698488,2.20954,3.14429,3.65921,3.98516,4.21,4.37444,4.49994,4.59886,4.67884
0.0728483,2.38652,3.40923,3.97433,4.33257,4.5799,4.76091,4.89912,5.0081,5.09623
0.069623,2.21938,3.10102,3.57178,3.86456,4.06426,4.20918,4.31915,4.40545,4.47498
0.361622,12.2351,17.5317,20.5151,22.4347,23.7748,24.7639,25.524,26.1265,26.6158
0.071984,2.42188,3.42454,3.97163,4.31555,4.55153,4.7234,4.85412,4.95688,5.03977
0.0840206,2.93366,4.20431,4.91815,5.37603,5.69489,5.92977,6.11002,6.25274,6.36855
0.0812776,2.6752,3.69268,4.2252,4.55194,4.77264,4.93163,5.0516,5.14531,5.22054
0.081342,2.77697,3.91798,4.55141,4.95619,5.23771,5.445,5.60407,5.73003,5.83226
0.0725145,2.50195,3.52947,4.09394,4.45037,4.69566,4.87467,5.01103,5.11834,5.20497
0.0712652,2.55034,3.63384,4.23587,4.61857,4.88325,5.0772,5.22542,5.34237,5.43702
0.382071,14.2162,20.352,23.751,25.9051,27.3912,28.4781,29.3075,29.9612,30.4895
0.0728325,2.79162,4.00297,4.67465,5.10124,5.3962,5.61233,5.77751,5.90787,6.01336
0.0723738,2.7329,3.84929,4.4509,4.82693,5.08424,5.27138,5.41362,5.52539,5.61553
0.0719245,2.843,4.07907,4.77413,5.22085,5.53247,5.76233,5.93891,6.07883,6.19245
0.0722725,2.79833,3.92349,4.52493,4.89828,5.15229,5.33618,5.47541,5.58447,5.67218
0.0759845,3.00036,4.24697,4.93543,5.37342,5.67699,5.89994,6.07068,6.20565,6.31505
0.0711237,2.78304,3.8949,4.49332,4.86682,5.12197,5.30725,5.44786,5.55821,5.6471
0.0738565,2.9138,4.08641,4.72384,5.12488,5.40059,5.60183,5.75521,5.87599,5.97358
0.0925782,3.75166,5.33154,6.21362,6.77742,7.16903,7.45693,7.67751,7.85192,7.99327
0.0786253,3.32857,4.76934,5.57105,6.0801,6.43155,6.68862,6.88476,7.03931,7.16421
0.0729171,3.11241,4.43895,5.1714,5.63549,5.95589,6.19042,6.36954,6.51082,6.62512
0.0725378,2.72406,3.65283,4.11646,4.39394,4.57857,4.71024,4.80887,4.88551,4.94677
0.0757205,3.14917,4.51836,5.31963,5.85099,6.23047,6.51547,6.73754,6.91551,7.06137
0.226357,9.8337,14.1254,16.519,18.0325,19.0713,19.8267,20.4,20.8495,21.2113
0.0735605,3.33986,4.81641,5.63682,6.15689,6.51581,6.77846,6.97902,7.13721,7.26519
0.0819084,3.77483,5.39649,6.28343,6.84202,7.22617,7.50661,7.72036,7.88869,8.02469
0.0718898,3.42194,4.90331,5.71954,6.23677,6.59401,6.8556,7.05545,7.2131,7.34066
0.0700478,3.45087,4.94307,5.7613,6.27762,6.633,6.89249,7.09027,7.246,7.3718
0.373739,17.3969,24.1214,27.6546,29.8355,31.3167,32.3886,33.2004,33.8366,34.3486
0.0783402,3.52509,4.89607,5.64504,6.12055,6.45,6.69197,6.8773,7.02382,7.1426
0.0765129,3.53218,4.99129,5.80734,6.32908,6.6912,6.95709,7.16056,7.32125,7.45135
0.0735204,3.56082,5.12031,6.00335,6.56995,6.96386,7.25342,7.4752,7.65048,7.79248
0.0734211,3.69607,5.31042,6.20178,6.76368,7.1496,7.43083,7.64482,7.81307,7.94884
0.233336,12.0079,17.143,19.9395,21.6949,22.8995,23.7774,24.4458,24.9718,25.3965
0.0742064,3.64797,5.08704,5.85424,6.33235,6.65927,6.89707,7.07787,7.22,7.33466
0.07701,3.87614,5.49876,6.40517,6.98651,7.39158,7.69015,7.91938,8.10093,8.24828
0.0750733,3.92151,5.61858,6.56813,7.17372,7.59304,7.90036,8.13518,8.3204,8.47021
0.0723459,3.98836,5.78229,6.79272,7.43903,7.88758,8.217,8.46915,8.66835,8.82971
0.0859392,4.72223,6.70836,7.77863,8.44556,8.90064,9.23088,9.48142,9.67801,9.83637
0.0718076,4.00234,5.69132,6.61721,7.2034,7.60841,7.90519,8.13209,8.31122,8.45625
0.0749163,4.04782,5.64989,6.50569,7.03874,7.40272,7.66704,7.86769,8.0252,8.15213
0.0758769,4.15367,5.87963,6.84176,7.45796,7.88695,8.20296,8.4455,8.63756,8.79341
0.0736216,4.07875,5.80651,6.77227,7.38882,7.81627,8.12993,8.36984,8.55924,8.71255
0.0735832,4.23023,6.0806,7.11887,7.78182,8.2414,8.57862,8.83656,9.04023,9.20511
0.0729554,4.27447,6.11378,7.12536,7.76331,8.20199,8.52207,8.76588,8.95778,9.11274
0.30527,17.941,25.4114,29.4561,31.99,33.7266,34.9913,35.9535,36.7102,37.3209
0.0750178,4.31307,6.08934,7.06929,7.69328,8.12619,8.44438,8.6882,8.88103,9.03737
0.0768095,4.45317,6.31238,7.3426,7.99756,8.45056,8.78244,9.03599,9.236,9.39779
0.0728232,4.10862,5.75133,6.64154,7.19968,7.58223,7.86075,8.07258,8.23911,8.37347
0.110852,6.66976,9.60341,11.2678,12.3404,13.0894,13.6421,14.0667,14.4031,14.6763
0.0763674,4.53999,6.41446,7.42711,8.05856,8.48932,8.80173,9.03858,9.2243,9.37381
0.0867744,4.98846,6.93881,7.97899,8.62658,9.06898,9.39056,9.63493,9.82697,9.98187
0.112387,6.46327,9.08594,10.5369,11.4621,12.1043,12.5764,12.9381,13.2242,13.4561
0.0786295,3.98119,5.3624,6.07748,6.51501,6.81023,7.02281,7.18317,7.30843,7.40897
0.0825404,4.63457,6.65942,7.84645,8.63025,9.18725,9.60371,9.92697,10.1852,10.3963
0.224977,12.2303,17.0594,19.6324,21.2155,22.2833,23.0507,23.6281,24.078,24.4383
0.0759265,4.48455,6.50883,7.674,8.43225,8.9658,9.36201,9.66803,9.91161,10.1101
0.0814252,4.98847,7.20944,8.44188,9.22068,9.75618,10.1466,10.4436,10.6771,10.8654
0.150157,9.42871,13.5314,15.7733,17.1831,18.1515,18.8578,19.3959,19.8194,20.1615
0.0751816,5.01036,7.26094,8.50972,9.30348,9.85273,10.2554,10.5633,10.8064,11.0032
0.0694537,0.535293,0.552682,0.558711,0.561782,0.563646,0.564898,0.565798,0.566475,0.567004
0.111516,1.55649,2.30284,2.97448,3.58984,4.15721,4.68248,5.17035,5.62476,6.04909
0.0734407,1.72267,3.2391,4.66606,5.88798,6.89141,7.70311,8.35871,8.89098,9.32673
0.083847,3.01778,6.10721,8.44187,10.0034,11.0498,11.7774,12.3045,12.7012,13.0093
0.0831598,3.99449,7.42895,9.31735,10.3825,11.0522,11.5122,11.8487,12.1064,12.3106
