0.575459,0.674398,0.715397,0.737825,0.75197,0.761705,0.768814,0.774233,0.778502,0.781951
0.381023,0.655752,0.826895,0.942441,1.02547,1.08794,1.13663,1.17564,1.20759,1.23423
0.349036,0.804488,1.10107,1.2924,1.42266,1.51607,1.58594,1.64002,1.68304,1.71804
0.738693,2.09258,2.92488,3.42334,3.74719,3.9729,4.13881,4.26578,4.36605,4.44721
0.317715,1.04816,1.47755,1.73062,1.89582,2.01207,2.09834,2.16493,2.21789,2.26104
0.243664,0.945851,1.35664,1.59851,1.7567,1.86811,1.95079,2.01457,2.06526,2.10652
0.248615,1.13461,1.6643,1.98186,2.19239,2.34211,2.45402,2.54082,2.61012,2.66672
0.546741,2.50228,3.42528,3.90752,4.20173,4.39956,4.54161,4.64851,4.73185,4.79865
0.146886,0.779114,1.12552,1.33372,1.47393,1.57516,1.65181,1.71191,1.76033,1.80017
0.139591,0.953291,1.47976,1.81296,2.04004,2.20384,2.32722,2.42334,2.50026,2.56316
0.293974,2.42024,3.76235,4.55158,5.06018,5.41286,5.67111,5.86816,6.02337,6.14874
0.135552,1.15252,1.69704,1.99744,2.18791,2.31983,2.41677,2.4911,2.54994,2.5977
0.139921,1.43692,2.21171,2.67528,2.98461,3.20599,3.37232,3.50188,3.60566,3.69064
0.181984,1.85875,2.66918,3.09848,3.36368,3.54356,3.67351,3.77175,3.8486,3.91036
0.190851,1.77101,2.41149,2.74534,2.95279,3.0948,3.1983,3.27716,3.33928,3.38948
0.168597,1.60719,2.26515,2.65026,2.90644,3.0897,3.22742,3.33475,3.42077,3.49124
0.179827,1.83562,2.65445,3.14126,3.46321,3.69133,3.86118,3.99246,4.0969,4.18196
0.324917,3.57497,5.20135,6.14007,6.74582,7.16772,7.47805,7.71576,7.90362,8.0558
0.16829,1.85659,2.64515,3.08521,3.36546,3.55964,3.70217,3.81128,3.89751,3.96738
0.15859,1.84657,2.66265,3.13132,3.43597,3.65008,3.80886,3.93133,4.02867,4.1079
0.161364,2.02029,2.96469,3.51989,3.88517,4.14367,4.33619,4.48512,4.60374,4.70045
0.156452,2.03917,2.95097,3.463,3.78919,4.01475,4.1799,4.30599,4.4054,4.48576
0.151418,2.14096,3.14859,3.73204,4.11262,4.38063,4.57968,4.73338,4.85567,4.95529
0.326227,4.88425,7.17702,8.49361,9.34677,9.94431,10.386,10.7259,10.9953,11.2142
0.154891,2.09898,2.9553,3.43456,3.74323,3.95921,4.11898,4.24203,4.33976,4.41926
0.14607,2.01521,2.9075,3.43996,3.79591,4.05097,4.24277,4.39226,4.51207,4.61022
0.158418,2.43684,3.62725,4.34179,4.81449,5.1491,5.39796,5.59009,5.74281,5.86708
0.15025,2.23822,3.17173,3.67588,3.98903,4.20201,4.35615,4.47287,4.5643,4.63786
0.163578,2.59859,3.80498,4.51923,4.99458,5.33477,5.59066,5.79028,5.95042,6.08178
0.137048,2.36704,3.50727,4.17296,4.60686,4.91125,5.13627,5.30923,5.44624,5.55743
0.245389,4.56888,6.77723,8.04441,8.86196,9.43237,9.85282,10.1755,10.431,10.6383
0.145412,2.57501,3.69471,4.32348,4.72824,5.01128,5.22056,5.3817,5.50963,5.61369
0.122383,2.2796,3.32383,3.93011,4.32726,4.60768,4.81625,4.97743,5.10572,5.21025
0.161732,3.78184,5.98404,7.38628,8.34948,9.04956,9.58052,9.9967,10.3315,10.6066
0.101242,2.46471,3.68962,4.3626,4.78118,5.06524,5.27024,5.425,5.54592,5.64298
0.10116,2.21222,3.04783,3.46412,3.71421,3.88159,4.00167,4.09212,4.16273,4.21942
0.0981646,2.6187,3.99418,4.85514,5.45343,5.89534,6.23568,6.50606,6.72612,6.90876
0.104238,3.20841,4.98693,6.0573,6.76303,7.25993,7.62739,7.90955,8.13273,8.31353
0.101884,2.73533,3.85399,4.43926,4.79931,5.04346,5.2201,5.35392,5.45885,5.54338
0.101735,3.06961,4.59918,5.52737,6.15721,6.61424,6.96151,7.2345,7.45483,7.63642
0.109007,3.19773,4.56768,5.30695,5.76628,6.07814,6.30324,6.47316,6.60588,6.71235
0.108,3.16141,4.54897,5.3417,5.8586,6.22342,6.49509,6.70543,6.87319,7.01015
0.0993909,2.77507,3.91564,4.54872,4.95212,5.2316,5.4366,5.59335,5.71708,5.8172
0.110822,3.57322,5.3681,6.45976,7.19286,7.71874,8.11424,8.42243,8.66934,8.87158
0.10451,2.82579,3.87942,4.43002,4.76756,4.99547,5.15967,5.28356,5.38037,5.4581
0.110098,3.49054,5.24063,6.33194,7.08246,7.63161,8.0513,8.38268,8.65105,8.87287
0.10737,3.84621,5.88244,7.10006,7.89809,8.45795,8.87109,9.18794,9.43837,9.64115
0.106789,3.81616,5.63075,6.64942,7.29867,7.74862,8.07899,8.33198,8.53199,8.69412
0.0960897,3.80813,5.77327,6.93517,7.70357,8.25006,8.65889,8.97633,9.22999,9.43735
0.10747,2.50157,3.06409,3.30358,3.43601,3.52001,3.57802,3.62048,3.6529,3.67846
0.104956,3.12436,4.60194,5.60399,6.34729,6.92475,7.3876,7.76738,8.08483,8.35424
0.102105,3.60263,5.57522,6.82862,7.67302,8.27181,8.71493,9.05444,9.32205,9.53798
0.160685,6.50543,10.1635,12.352,13.7729,14.7631,15.4913,16.0492,16.4902,16.8476
0.102478,4.16824,6.21164,7.34497,8.06154,8.55626,8.91885,9.19625,9.41545,9.59308
0.103616,4.48985,6.72374,8.00549,8.84083,9.43001,9.86838,10.2074,10.4776,10.6979
0.151816,6.8151,10.0991,11.9607,13.1618,14.0012,14.6209,15.0971,15.4744,15.7807
0.111828,4.8939,7.09962,8.33964,9.13875,9.69751,10.1104,10.4281,10.6802,10.8851
0.104973,4.84716,7.14521,8.47746,9.34905,9.96374,10.4205,10.7732,11.0537,11.2822
0.116683,5.61266,8.30227,9.85816,10.8712,11.5827,12.1097,12.5156,12.8378,13.0998
0.112311,4.25462,5.78789,6.60105,7.10902,7.45741,7.71152,7.90518,8.05771,8.181
0.110153,4.5911,6.75214,8.09429,9.01614,9.68959,10.2034,10.6084,10.9359,11.2062
0.111155,4.48552,6.34174,7.34899,7.97237,8.39346,8.69597,8.92341,9.10045,9.24207
0.122483,5.37443,7.97364,9.537,10.5838,11.3354,11.902,12.3449,12.7008,12.9931
0.105922,5.01397,7.50832,8.96823,9.91833,10.5838,11.0751,11.4523,11.7509,11.993
0.123505,5.09403,7.01178,7.98901,8.57924,8.97425,9.2572,9.46988,9.6356,9.76837
0.105247,4.69731,6.86585,8.16179,9.03404,9.66391,10.141,10.5152,10.8167,11.0649
0.109878,5.2732,7.83324,9.33638,10.3185,11.0077,11.517,11.9082,12.2178,12.4689
0.106798,4.63996,6.7261,7.95398,8.76831,9.34945,9.7856,10.1253,10.3974,10.6204
0.107607,5.17088,7.77247,9.34104,10.3839,11.1253,11.6786,12.1071,12.4484,12.7267
0.141601,7.48729,11.3417,13.5904,15.0467,16.0629,16.8114,17.3851,17.8389,18.2066
0.10786,5.22616,7.56307,8.87951,9.72867,10.3237,10.7645,11.1046,11.375,11.5952
0.106301,5.63983,8.43418,10.0899,11.1861,11.9652,12.5474,12.9987,13.3589,13.6528
0.154509,8.4587,12.5091,14.8184,16.3041,17.3382,18.0989,18.6817,19.1424,19.5157
0.105849,5.61621,8.16555,9.61772,10.5598,11.2217,11.7127,12.0916,12.393,12.6385
0.100709,4.96176,6.90614,7.93345,8.56822,8.99905,9.31047,9.54602,9.73037,9.87856
0.148005,8.31457,12.454,14.9909,16.7161,17.9682,18.9192,19.6664,20.2692,20.7658
0.102381,5.76698,8.53206,10.1489,11.205,11.9473,12.4968,12.9197,13.2551,13.5276
0.106039,6.36872,9.4998,11.3176,12.4989,13.3268,13.9391,14.4101,14.7837,15.0873
0.144963,8.90061,13.0831,15.4358,16.9394,17.983,18.7496,19.3367,19.8007,20.1766
0.106101,6.36525,9.22418,10.8386,11.8809,12.6109,13.1512,13.5675,13.8981,14.1671
0.10258,5.69579,7.92091,9.0987,9.8283,10.3245,10.6838,10.9559,11.1691,11.3407
0.142463,8.82797,13.0953,15.6766,17.4177,18.6739,19.6238,20.3677,20.9661,21.458
0.111293,6.69004,9.65895,11.3298,12.3959,13.1334,13.6732,14.0851,14.4096,14.6718
0.102922,6.61142,9.77074,11.613,12.8182,13.6681,14.2998,14.7878,15.1761,15.4926
0.149369,9.99609,14.8116,17.5967,19.4066,20.6761,21.6156,22.3387,22.9125,23.3789
0.108622,6.62564,9.45269,11.0324,12.0457,12.7522,13.2734,13.6739,13.9913,14.2492
0.101602,5.74798,7.98436,9.19084,9.94732,10.4661,10.8441,11.1316,11.3578,11.5403
0.146287,9.39465,14.0298,16.8772,18.8107,20.2107,21.2717,22.1035,22.7734,23.3243
0.109284,6.92933,10.1201,11.9434,13.1147,13.9283,14.5254,14.9819,15.3421,15.6335
0.106258,7.28496,10.8736,12.9755,14.3511,15.3209,16.0414,16.5978,17.0406,17.4013
0.112,6.93676,9.73811,11.2249,12.1454,12.7713,13.2247,13.5682,13.8375,14.0543
0.109406,6.93976,10.0631,11.8945,13.1094,13.9771,14.6288,15.1364,15.5432,15.8765
0.137527,9.57829,14.3391,17.1785,19.0547,20.3826,21.3704,22.1331,22.7395,23.2329
0.118735,7.4261,10.68,12.5408,13.7493,14.5986,15.2287,15.715,16.1017,16.4168
0.105629,7.36179,11.0685,13.304,14.7947,15.8582,16.6545,17.2729,17.7668,18.1704
0.151941,11.3638,17.1632,20.5665,22.7857,24.3429,25.4946,26.3805,27.0829,27.6534
0.1116,7.63988,11.0125,12.8981,14.1067,14.9493,15.571,16.0489,16.4278,16.7358
0.10194,7.47484,11.0651,13.1666,14.5484,15.5266,16.2554,16.8193,17.2687,17.6351
0.150748,11.5133,17.0273,20.1909,22.2353,23.6629,24.7155,25.5234,26.1629,26.6816
0.149341,10.8339,15.647,18.3673,20.1227,21.3514,22.2602,22.96,23.5156,23.9674
