0.53344,0.621287,0.657373,0.677034,0.689406,0.697909,0.704111,0.708836,0.712555,0.715558
0.349586,0.580916,0.718388,0.808586,0.872161,0.919341,0.95573,0.984643,1.00817,1.02768
0.291902,0.635696,0.84736,0.980491,1.06998,1.1337,1.18116,1.2178,1.2469,1.27054
0.226309,0.618922,0.858751,1.00339,1.09795,1.16415,1.21298,1.25044,1.28007,1.30408
0.213965,0.701272,0.986029,1.15091,1.25669,1.33008,1.38393,1.42512,1.45764,1.48397
0.260713,1.00957,1.43584,1.67914,1.83492,1.94307,2.02253,2.08338,2.13146,2.17042
0.249474,1.1078,1.58164,1.85023,2.02241,2.14217,2.23029,2.29786,2.35132,2.39466
0.18458,0.929376,1.331,1.55758,1.70265,1.80346,1.87759,1.93438,1.97928,2.01567
0.181534,1.01875,1.46422,1.71728,1.88041,1.99435,2.07845,2.14308,2.19431,2.23591
0.214215,1.33397,1.91944,2.24973,2.46143,2.6086,2.71682,2.79972,2.86527,2.91838
0.372866,2.57211,3.71565,4.36212,4.77724,5.06629,5.27912,5.44236,5.57155,5.67632
0.163349,1.19547,1.70785,1.99347,2.17567,2.30205,2.39487,2.46594,2.5221,2.56761
0.163627,1.30612,1.88039,2.20543,2.41472,2.56078,2.66851,2.75125,2.81679,2.87
0.192914,1.67058,2.4141,2.83525,3.10608,3.29481,3.43383,3.54048,3.62488,3.69333
0.186213,1.71475,2.46354,2.88198,3.14887,3.33386,3.46963,3.5735,3.65554,3.72198
0.185511,1.82437,2.63076,3.0869,3.3806,3.58562,3.7369,3.85313,3.94524,4.02003
0.18199,1.89041,2.71502,3.17651,3.47125,3.67571,3.82584,3.94073,4.03149,4.10499
0.183768,2.04522,2.9525,3.46415,3.79257,4.02122,4.18958,4.31872,4.42092,4.50381
0.182639,2.15495,3.11526,3.65786,4.00658,4.24959,4.42862,4.566,4.67475,4.76298
0.172327,2.11317,3.03336,3.54737,3.87549,4.1031,4.27026,4.39822,4.49932,4.58122
0.146224,1.80482,2.5461,2.95085,3.20607,3.38175,3.51008,3.60794,3.68503,3.74733
0.0868213,1.17173,1.70192,2.00836,2.20851,2.3496,2.45444,2.53543,2.59988,2.65238
0.14111,1.99539,2.88269,3.38171,3.70043,3.92128,4.08321,4.20697,4.30462,4.38361
0.142819,2.10931,3.04272,3.56708,3.9028,4.1362,4.30791,4.43955,4.5437,4.62815
0.165655,2.46359,3.50924,4.08951,4.45907,4.71521,4.90324,5.04717,5.16088,5.25299
0.160437,2.46155,3.53298,4.14278,4.53761,4.81434,5.01914,5.17685,5.30205,5.40385
0.162045,2.61578,3.78731,4.45766,4.89127,5.1945,5.41837,5.5904,5.72669,5.83733
0.162762,2.70023,3.89107,4.56317,4.9942,5.294,5.51454,5.68358,5.81727,5.92565
0.136548,2.35388,3.39372,3.97968,4.35539,4.61678,4.80913,4.95661,5.07328,5.16789
0.136946,2.45599,3.54097,4.15058,4.54078,4.81192,5.01127,5.16401,5.28477,5.38264
0.150843,2.86711,4.15627,4.88219,5.34712,5.67023,5.90778,6.08977,6.23365,6.35024
0.156628,3.09954,4.48928,5.27109,5.77216,6.12073,6.37726,6.57395,6.72956,6.85575
0.156922,3.25409,4.72175,5.54873,6.07923,6.44842,6.72017,6.92855,7.0934,7.22709
0.122059,2.85601,4.30132,5.16208,5.73281,6.13886,6.4425,6.67812,6.86627,7.01998
0.135732,3.07098,4.39475,5.10913,5.55427,5.85782,6.07793,6.2448,6.37564,6.48097
0.13853,3.18252,4.55429,5.3178,5.80693,6.14786,6.39935,6.59264,6.74588,6.87039
0.15313,3.47813,4.95386,5.78338,6.31732,6.69015,6.9653,7.17672,7.34426,7.48029
0.152641,3.57698,5.13914,6.02608,6.59788,6.99694,7.29116,7.51702,7.69583,7.8409
0.152827,3.66018,5.23255,6.10589,6.65994,7.04228,7.32189,7.53522,7.70332,7.83919
0.152306,3.68493,5.27543,6.17162,6.74777,7.14973,7.44628,7.67414,7.85472,8.00139
0.152173,3.78208,5.45205,6.40319,7.01766,7.44731,7.7646,8.00849,8.2018,8.35878
0.148037,3.79294,5.47806,6.43174,7.04412,7.47031,7.78391,8.02429,8.21439,8.36849
0.15236,4.08037,5.90164,6.92208,7.57272,8.02335,8.35381,8.60647,8.80591,8.96733
0.131416,3.38117,4.75919,5.50611,5.9753,6.29764,6.53285,6.7121,6.85325,6.96729
0.147862,3.99454,5.76005,6.7724,7.43146,7.89527,8.23958,8.50536,8.71675,8.88891
0.146975,4.22517,6.17405,7.29258,8.01575,8.52084,8.89324,9.17903,9.4052,9.58863
0.172751,5.16074,7.47338,8.75467,9.56435,10.1214,10.528,10.8376,11.0813,11.2781
0.223402,7.17289,10.7181,12.8368,14.2521,15.2665,16.03,16.6258,17.1038,17.496
0.144135,4.46046,6.38743,7.44094,8.10254,8.55581,8.88544,9.1358,9.33235,9.49072
0.149884,4.62873,6.61885,7.73319,8.44888,8.94833,9.31703,9.60052,9.82535,10.0081
0.130647,3.9724,5.6353,6.55995,7.14985,7.55901,7.85946,8.08942,8.27108,8.4182
0.13141,3.95659,5.60808,6.53207,7.12362,7.53494,7.83754,8.06951,8.253,8.40176
0.142681,4.474,6.4457,7.57168,8.29951,8.80838,9.18409,9.47282,9.70163,9.8874
0.130999,4.61992,6.92752,8.30274,9.21151,9.85572,10.3359,10.7075,11.0035,11.2449
0.142349,4.90583,7.04504,8.20478,8.92737,9.41983,9.77674,10.0472,10.2592,10.4298
0.14415,5.00966,7.17951,8.38466,9.15483,9.69075,10.0856,10.3889,10.6292,10.8243
0.129383,4.49301,6.38856,7.43273,8.09505,8.5527,8.88783,9.14381,9.3457,9.50899
0.154437,5.44252,7.79111,9.11381,9.96461,10.5582,10.9961,11.3324,11.5989,11.8152
0.131265,4.64519,6.63405,7.7464,8.45695,8.9499,9.31186,9.58887,9.80767,9.98487
0.132474,4.76885,6.86305,8.05423,8.82361,9.36169,9.75921,10.0649,10.3073,10.5043
0.130649,4.5806,6.46854,7.50186,8.15264,8.59982,8.92591,9.17418,9.3695,9.52716
0.131308,4.87786,7.03386,8.25489,9.04075,9.589,9.99329,10.3038,10.5497,10.7494
0.128583,4.88159,7.02542,8.22439,8.98881,9.51832,9.90666,10.2036,10.438,10.6277
0.128477,5.00855,7.23541,8.49104,9.29714,9.85861,10.2722,10.5896,10.8408,11.0447
0.126632,4.97792,7.1433,8.34837,9.11557,9.64678,10.0363,10.3342,10.5694,10.7597
0.124992,4.98986,7.1684,8.38947,9.17136,9.71512,10.1152,10.422,10.6647,10.8616
0.128246,5.20627,7.492,8.77811,9.60307,10.1772,10.5998,10.9239,11.1803,11.3883
0.19426,7.95103,11.3879,13.3011,14.5193,15.3626,15.9811,16.4539,16.8272,17.1293
0.126355,5.90614,8.87704,10.645,11.8151,12.6462,13.2669,13.7479,14.1317,14.4449
0.0970633,4.29445,6.14627,7.15361,7.7848,8.217,8.53139,8.77032,8.95804,9.10941
0.104952,5.43523,8.20303,9.83433,10.9084,11.6692,12.2363,12.6753,13.0253,13.3109
0.0958289,4.76626,6.81442,7.90315,8.57559,9.03155,9.36088,9.60983,9.80458,9.96109
0.131008,6.22635,8.75379,10.1235,10.99,11.5895,12.0296,12.3667,12.6332,12.8493
0.137677,7.25146,10.5487,12.4182,13.6223,14.4618,15.0801,15.5543,15.9294,16.2334
0.141417,6.96417,9.76785,11.2747,12.2161,12.8601,13.3285,13.6844,13.9641,14.1897
0.135636,6.42273,8.97213,10.3716,11.261,11.8773,12.3298,12.6764,12.9503,13.1723
0.138925,6.5549,9.27857,10.8204,11.8155,12.5112,13.0249,13.4198,13.7328,13.987
0.129336,6.18249,8.8267,10.3234,11.2844,11.9527,12.4442,12.8206,13.1182,13.3593
0.185281,9.04564,12.9784,15.1923,16.6076,17.5895,18.3104,18.862,19.2978,19.6507
0.137629,6.32731,8.92192,10.3638,11.2835,11.922,12.3914,12.7511,13.0356,13.2663
0.131241,5.74173,8.04567,9.32858,10.1483,10.7178,11.1365,11.4574,11.7111,11.9168
0.134802,5.83494,8.22417,9.56358,10.4205,11.0157,11.4531,11.788,12.0527,12.2672
0.130831,5.89006,8.50569,10.0211,11.0087,11.7032,12.218,12.6149,12.9302,13.1867
0.126234,6.04259,8.85527,10.4758,11.5229,12.2536,12.792,13.2049,13.5316,13.7965
0.124564,6.314,9.28184,10.9641,12.0409,12.7882,13.3369,13.7569,14.0887,14.3574
0.120489,6.33906,9.26821,10.907,11.9519,12.6761,13.2079,13.6149,13.9364,14.197
0.123346,6.52579,9.40565,10.9913,11.996,12.6901,13.1985,13.587,13.8935,14.1416
0.123916,6.87659,10.0463,11.852,13.0218,13.842,14.4492,14.9169,15.2883,15.5903
0.189019,10.5606,15.2143,17.7857,19.4148,20.5384,21.3598,21.9864,22.48,22.8788
0.142845,7.47495,10.5526,12.2532,13.3387,14.0932,14.6487,15.0749,15.4124,15.6862
0.139516,7.3585,10.5831,12.449,13.6709,14.5339,15.1761,15.6725,16.0678,16.39
0.130344,6.87384,9.87587,11.5807,12.6769,13.4399,14.001,14.4309,14.7707,15.0459
0.126621,6.26505,8.77309,10.1405,11.0006,11.5915,12.0226,12.3509,12.6094,12.8182
0.126544,6.58576,9.52287,11.2261,12.3404,13.1269,13.7119,14.1641,14.5242,14.8178
0.133022,7.11821,10.4264,12.3631,13.6323,14.5277,15.1929,15.7064,16.1147,16.4472
0.120971,6.85004,10.0852,11.9359,13.1256,13.9528,14.5606,15.0259,15.3934,15.691
0.117242,6.74423,9.74705,11.3915,12.4242,13.1325,13.6484,14.041,14.3497,14.5988
0.125968,7.42319,10.7141,12.5382,13.6999,14.5057,15.0978,15.5514,15.9102,16.2011
0.182877,11.1183,16.1441,18.9817,20.8091,22.085,23.0265,23.75,24.3232,24.7886
0.18049,9.69472,13.4941,15.5593,16.8648,17.7662,18.4264,18.9309,19.3292,19.6515
