0.314583,0.363839,0.383874,0.394742,0.401564,0.406244,0.409654,0.41225,0.414292,0.41594
0.158979,0.2465,0.293371,0.322307,0.341903,0.356042,0.36672,0.375068,0.381773,0.387276
0.114693,0.229222,0.294103,0.33353,0.359606,0.378013,0.391659,0.402162,0.410489,0.417248
0.116159,0.286539,0.381698,0.436981,0.472402,0.496882,0.514768,0.528392,0.53911,0.547758
0.0834851,0.249052,0.340418,0.392367,0.425375,0.448127,0.464744,0.47741,0.487381,0.495436
0.0677588,0.238244,0.330065,0.381334,0.413708,0.435966,0.452202,0.464567,0.474297,0.482153
0.058828,0.240871,0.337614,0.391405,0.425425,0.448863,0.465989,0.47905,0.489339,0.497654
0.0581792,0.270044,0.378477,0.437714,0.474858,0.500308,0.518831,0.532914,0.543983,0.552911
0.0756774,0.389653,0.543962,0.627299,0.679362,0.714974,0.740871,0.760552,0.776016,0.788487
0.072441,0.415439,0.583854,0.676061,0.734259,0.774351,0.803656,0.826013,0.843633,0.857877
0.0677334,0.354406,0.46078,0.512287,0.542645,0.562654,0.576834,0.587406,0.595592,0.602117
0.056881,0.362662,0.515683,0.606537,0.667422,0.711234,0.744325,0.77022,0.791047,0.808165
0.0584923,0.424501,0.610828,0.716135,0.783014,0.828976,0.862401,0.887757,0.907628,0.923609
0.0523448,0.41998,0.601651,0.700917,0.762948,0.805307,0.836059,0.859399,0.877722,0.892489
0.0518818,0.456991,0.653387,0.760004,0.826781,0.872549,0.905887,0.93126,0.95122,0.967333
0.0512465,0.482406,0.68341,0.791356,0.858735,0.904825,0.938347,0.963828,0.983853,1
0.0493692,0.495136,0.700324,0.811483,0.881367,0.929409,0.964476,0.991204,1.01225,1.02926
0.0440544,0.460388,0.644199,0.742273,0.8033,0.844937,0.875155,0.898084,0.916076,0.930571
0.0459438,0.51111,0.721449,0.836729,0.909727,0.960144,0.997067,1.02528,1.04754,1.06556
0.0555304,0.659505,0.934458,1.08485,1.1796,1.24471,1.29219,1.32834,1.35678,1.37973
0.0526831,0.537748,0.70205,0.78114,0.827609,0.85818,0.879817,0.895937,0.908412,0.918352
0.0548493,0.660491,0.943441,1.11129,1.22382,1.30485,1.36608,1.41402,1.45259,1.48431
0.0516831,0.686701,0.991809,1.16407,1.27345,1.34861,1.40325,1.4447,1.47718,1.50329
0.0506397,0.721774,1.03616,1.20754,1.31451,1.38751,1.44048,1.48067,1.51221,1.53763
0.0534279,0.793947,1.125,1.30188,1.41176,1.48669,1.54109,1.58238,1.61481,1.64094
0.0471402,0.742466,1.05602,1.22664,1.33416,1.40822,1.46235,1.50366,1.53622,1.56255
0.0470824,0.767953,1.08557,1.25721,1.36481,1.43859,1.49233,1.53321,1.56535,1.59129
0.0440318,0.752209,1.06648,1.23807,1.34631,1.42085,1.47531,1.51684,1.54957,1.57602
0.0473657,0.837353,1.18169,1.36779,1.48431,1.5641,1.62216,1.66629,1.70097,1.72894
0.0492453,0.902342,1.27622,1.48052,1.60948,1.69833,1.76328,1.81284,1.85191,1.88349
0.0471936,0.709278,0.919103,1.01932,1.07801,1.11655,1.14379,1.16407,1.17974,1.19222
0.0443757,0.759577,1.07242,1.25651,1.37945,1.46774,1.53434,1.58641,1.62826,1.66265
0.0459112,0.851373,1.22001,1.42809,1.56031,1.65122,1.71736,1.76755,1.80689,1.83854
0.0480475,0.956646,1.3763,1.60798,1.75362,1.85343,1.92606,1.98129,2.0247,2.05972
0.044507,0.934556,1.33784,1.55664,1.69343,1.78704,1.85512,1.90688,1.94757,1.98038
0.0430096,0.93557,1.33023,1.54329,1.67671,1.76818,1.83482,1.88556,1.92547,1.95769
0.0419704,0.92715,1.30293,1.50336,1.62813,1.71332,1.77519,1.82218,1.85907,1.8888
0.0409533,0.929151,1.31045,1.51832,1.64963,1.74021,1.80649,1.8571,1.89701,1.9293
0.0424778,0.9726,1.36209,1.57191,1.70315,1.79297,1.85829,1.90792,1.94691,1.97834
0.0525828,1.20218,1.67045,1.92079,2.07679,2.18334,2.26075,2.31954,2.3657,2.40291
0.0533247,0.983051,1.26615,1.40268,1.48326,1.53648,1.57426,1.60247,1.62434,1.64179
0.0531513,1.09127,1.52932,1.78752,1.95994,2.0837,2.177,2.2499,2.30845,2.35653
0.0469863,1.0556,1.51695,1.78081,1.94961,2.06615,2.15118,2.21583,2.26658,2.30746
0.0455556,1.07461,1.53553,1.78729,1.94423,2.05112,2.12856,2.18723,2.23322,2.27023
0.0491808,1.22016,1.74214,2.02558,2.20301,2.32457,2.4131,2.48048,2.53348,2.57627
0.0484093,1.26398,1.80585,2.10031,2.28517,2.41206,2.50459,2.57504,2.63048,2.67524
0.047391,1.26079,1.78162,2.06074,2.23482,2.35381,2.44029,2.50599,2.5576,2.59922
0.0407861,1.10252,1.54801,1.78642,1.93518,2.03693,2.11092,2.16716,2.21136,2.247
0.043849,1.18551,1.65478,1.90669,2.06431,2.17233,2.251,2.31085,2.35792,2.39591
0.0443017,1.23919,1.74806,2.02744,2.20433,2.32643,2.41578,2.484,2.53779,2.58129
0.0474465,1.08032,1.40064,1.55406,1.64391,1.70289,1.74454,1.77553,1.79948,1.81854
0.0462091,1.20179,1.70553,2.00406,2.20415,2.3482,2.45706,2.54228,2.61086,2.66725
0.0460206,1.2974,1.87157,2.19741,2.40486,2.54764,2.65157,2.73046,2.79231,2.84207
0.0425754,1.26971,1.82534,2.12916,2.31887,2.44829,2.54216,2.61336,2.66921,2.71421
0.0416185,1.26993,1.80307,2.08886,2.26665,2.38799,2.47614,2.54309,2.59569,2.6381
0.0446946,1.41555,2.01068,2.33274,2.5349,2.67375,2.77504,2.85221,2.91297,2.96204
0.0482396,1.56996,2.22766,2.58516,2.81016,2.96488,3.07781,3.16387,3.23163,3.28637
0.043137,1.41649,1.99449,2.30586,2.50069,2.63411,2.73121,2.80503,2.86306,2.90986
0.0423513,1.42093,2.00355,2.31995,2.51894,2.65569,2.75547,2.8315,2.89134,2.93968
0.0470726,1.62551,2.29912,2.66639,2.89761,3.05654,3.17248,3.2608,3.33031,3.38644
0.040269,1.13514,1.47861,1.64386,1.74102,1.80497,1.85026,1.88401,1.91014,1.93097
0.0488765,1.57514,2.24446,2.64142,2.90757,3.0992,3.24401,3.35738,3.44859,3.52358
0.0439165,1.53462,2.22127,2.611,2.85914,3.02993,3.15424,3.24861,3.32259,3.38211
0.0422273,1.55497,2.24024,2.6151,2.84934,3.00924,3.12529,3.21334,3.28244,3.33812
0.0388076,1.47245,2.10063,2.43865,2.64937,2.79337,2.89807,2.97764,3.04018,3.09063
0.0389922,1.51435,2.14614,2.4853,2.69717,2.84221,2.94779,3.02809,3.09122,3.14217
0.0407975,1.60489,2.25914,2.60946,2.82815,2.97776,3.08656,3.16927,3.23425,3.28667
0.0410233,1.64787,2.32387,2.69027,2.92067,3.07903,3.19459,3.28264,3.35197,3.40797
0.0426706,1.7254,2.42726,2.80801,3.04733,3.21172,3.33161,3.42291,3.49476,3.55277
0.0428369,1.77015,2.49996,2.8987,3.15013,3.32315,3.44949,3.54578,3.62161,3.68287
0.041574,1.37811,1.78649,1.98193,2.09649,2.17174,2.22495,2.26456,2.29519,2.31959
0.0423206,1.59096,2.25882,2.65536,2.92156,3.11341,3.2585,3.37218,3.46368,3.53895
0.0410252,1.67343,2.41982,2.84444,3.11504,3.30136,3.43699,3.53993,3.62064,3.68557
0.0418363,1.7999,2.59098,3.02284,3.29205,3.47547,3.60839,3.70912,3.78809,3.85168
0.0403675,1.74075,2.45889,2.84041,3.07665,3.23746,3.35406,3.44251,3.51194,3.56788
0.0420288,1.85814,2.63402,3.05624,3.32269,3.50643,3.64091,3.74361,3.82463,3.89019
0.042278,1.90181,2.68411,3.10594,3.36985,3.55049,3.68186,3.78169,3.8601,3.92332
0.0419288,1.93678,2.742,3.18022,3.45606,3.64571,3.78413,3.88961,3.97266,4.03975
0.0420809,2.03434,2.90189,3.37744,3.67748,3.88396,4.0347,4.14958,4.24003,4.31309
0.0394834,1.93025,2.73262,3.16652,3.43821,3.62431,3.75975,3.86275,3.9437,4.00901
0.0444992,1.77795,2.32439,2.58831,2.74403,2.84683,2.91979,2.97426,3.01648,3.05017
0.0411795,1.85432,2.63537,3.09467,3.40096,3.62064,3.78615,3.91544,4.01926,4.10449
0.0410564,1.94727,2.78924,3.26091,3.55944,3.76424,3.91304,4.02585,4.11423,4.18529
0.0392019,1.9345,2.7682,3.2247,3.51082,3.70663,3.84904,3.95727,4.04231,4.11091
0.0417117,2.14517,3.07205,3.578,3.89596,4.11431,4.27356,4.39487,4.49036,4.56749
0.0403232,2.10334,2.98582,3.46195,3.75985,3.96391,4.11246,4.22544,4.31428,4.38596
0.0388538,2.09098,2.97359,3.45343,3.7553,3.96281,4.11424,4.22964,4.32049,4.39388
0.0388457,2.03544,2.84232,3.27195,3.53924,3.72167,3.85414,3.9547,4.03366,4.09729
0.0388682,2.08523,2.94569,3.4189,3.71927,3.92706,4.07941,4.19592,4.28791,4.36239
0.0393183,2.142,3.02455,3.50535,3.8075,4.0148,4.16578,4.28062,4.37089,4.44371
0.0463856,1.98496,2.55587,2.82529,2.98197,3.08439,3.15657,3.21017,3.25156,3.28448
0.0366234,1.81739,2.60062,3.07461,3.39709,3.63179,3.81063,3.95155,4.06552,4.15963
0.0414241,2.18847,3.15999,3.71064,4.06029,4.30025,4.47446,4.60639,4.70962,4.79252
0.0401701,2.26518,3.28611,3.85196,4.20809,4.45234,4.63019,4.7655,4.8719,4.95778
0.0425236,2.46037,3.52562,4.10083,4.45963,4.70483,4.88308,5.01853,5.12496,5.21079
0.0380953,2.20548,3.11951,3.60922,3.91501,4.12438,4.27682,4.3928,4.48401,4.55763
0.0373558,2.17177,3.05844,3.53641,3.83627,4.04214,4.19226,4.30659,4.39657,4.46923
0.0430131,2.53455,3.57825,4.14726,4.50621,4.75338,4.93397,5.07169,5.18018,5.26785
0.0382549,2.33308,3.31572,3.85427,4.19407,4.42789,4.59857,4.72863,4.83101,4.91369
0.037883,2.28473,3.19679,3.68191,3.9826,4.18713,4.33525,4.44746,4.5354,4.60618
