0.707282,0.771348,0.795363,0.80794,0.815679,0.820921,0.824707,0.82757,0.82981,0.831611
0.376139,0.560404,0.658329,0.71883,0.759879,0.789549,0.81199,0.829557,0.843682,0.855285
0.265553,0.511878,0.647143,0.727665,0.780137,0.816769,0.843695,0.86428,0.880508,0.89362
0.217604,0.520423,0.684186,0.777403,0.836354,0.87674,0.906064,0.9283,0.94573,0.959757
0.18085,0.520512,0.698773,0.796973,0.858161,0.899792,0.929919,0.952722,0.970581,0.984945
0.156955,0.532397,0.724078,0.827847,0.892214,0.935968,0.967632,0.991606,1.01039,1.0255
0.139311,0.545622,0.746761,0.854221,0.920632,0.965704,0.998292,1.02295,1.04226,1.05779
0.125848,0.560119,0.769276,0.880244,0.948751,0.995239,1.02885,1.05429,1.07421,1.09023
0.190655,0.952155,1.31052,1.49999,1.61694,1.6963,1.75369,1.79712,1.83113,1.85849
0.17078,0.945242,1.30173,1.48964,1.60554,1.68416,1.74099,1.78399,1.81766,1.84474
0.160594,0.771574,0.97111,1.06295,1.11572,1.14998,1.17402,1.19182,1.20553,1.21641
0.144952,0.862563,1.20194,1.40147,1.53484,1.63073,1.70313,1.75978,1.80535,1.8428
0.141429,0.977069,1.3878,1.6163,1.75965,1.85721,1.9276,1.98065,2.02201,2.05513
0.131954,1.0171,1.43605,1.65807,1.7939,1.88531,1.95096,2.00041,2.03898,2.06992
0.124902,1.04974,1.4692,1.68774,1.82138,1.91159,1.97662,2.02574,2.06416,2.09504
0.120752,1.0915,1.51825,1.74042,1.87684,1.96922,2.03596,2.08645,2.12597,2.15776
0.115479,1.11487,1.54597,1.77128,1.91007,2.0042,2.07226,2.12377,2.1641,2.19655
0.112533,1.14901,1.58794,1.81752,1.95892,2.05478,2.12407,2.17648,2.21752,2.25052
0.106473,1.1472,1.58377,1.81276,1.95397,2.04977,2.11904,2.17146,2.21251,2.24553
0.140806,1.59637,2.20328,2.52227,2.7191,2.85267,2.94926,3.02236,3.07961,3.12566
0.131142,1.20485,1.51912,1.6636,1.74665,1.80058,1.83842,1.86644,1.88801,1.90515
0.12017,1.31666,1.83627,2.14119,2.34484,2.49118,2.60162,2.68801,2.75748,2.81456
0.123489,1.52036,2.16116,2.51736,2.74076,2.89278,3.00247,3.08514,3.14959,3.20118
0.118722,1.58289,2.23584,2.58153,2.79296,2.93519,3.03735,3.11427,3.17428,3.22241
0.116883,1.65085,2.30983,2.65283,2.86252,3.00406,3.10609,3.18315,3.24343,3.29188
0.112048,1.6602,2.30909,2.64696,2.8545,2.99509,3.09668,3.17353,3.2337,3.2821
0.109302,1.68512,2.33344,2.67174,2.87994,3.02109,3.1231,3.20028,3.26071,3.30931
0.106098,1.69467,2.34077,2.67896,2.88739,3.02878,3.131,3.20835,3.26893,3.31765
0.103685,1.71682,2.37029,2.71337,2.92502,3.06864,3.17249,3.25108,3.31263,3.36214
0.119939,2.05482,2.83648,3.24751,3.50116,3.67329,3.79777,3.89197,3.96575,4.02509
0.117422,1.58906,2.00304,2.19325,2.30255,2.3735,2.42328,2.46014,2.48852,2.51105
0.113071,1.80279,2.51607,2.9353,3.21557,3.4171,3.56929,3.68839,3.78418,3.86293
0.110574,1.95453,2.77787,3.23502,3.52147,3.71626,3.85671,3.96251,4.04496,4.11096
0.106546,2.01367,2.84317,3.28199,3.55028,3.73074,3.86035,3.95794,4.03407,4.09513
0.10675,2.11727,2.96414,3.4054,3.67534,3.85764,3.98909,4.0884,4.1661,4.22855
0.103967,2.13825,2.97321,3.40755,3.67416,3.85468,3.98506,4.08367,4.16086,4.22294
0.100805,2.14263,2.9695,3.40135,3.66725,3.84757,3.97793,4.07657,4.15381,4.21594
0.0998709,2.18473,3.02078,3.45838,3.728,3.91085,4.04301,4.14301,4.2213,4.28427
0.0988287,2.22009,3.06627,3.51029,3.78413,3.96994,4.1043,4.20597,4.28559,4.34964
0.112666,2.59208,3.5755,4.09159,4.40973,4.62549,4.78144,4.89943,4.9918,5.06609
0.106854,1.91441,2.4115,2.63975,2.7709,2.85605,2.91579,2.96002,2.99408,3.02113
0.107116,2.24142,3.12621,3.64635,3.99416,4.2443,4.43322,4.58108,4.70001,4.79778
0.104817,2.42477,3.45123,4.02292,4.38178,4.62607,4.80235,4.93522,5.0388,5.12173
0.102493,2.52278,3.56665,4.11939,4.45734,4.68463,4.84783,4.97069,5.06652,5.14337
0.102266,2.61463,3.65639,4.19752,4.52793,4.75079,4.91136,5.0326,5.12741,5.2036
0.0995698,2.62087,3.6407,4.1707,4.49599,4.71624,4.87535,4.9957,5.08993,5.16571
0.0994481,2.68669,3.7211,4.26156,4.59451,4.82038,4.98371,5.10732,5.20414,5.28202
0.0990012,2.72302,3.75725,4.29767,4.63037,4.85587,5.0188,5.14203,5.2385,5.31606
0.0931391,2.62009,3.61777,4.14241,4.46644,4.68652,4.84575,4.96632,5.06079,5.1368
0.108781,3.11416,4.29342,4.91252,5.29414,5.55292,5.73994,5.88141,5.99216,6.08122
0.100564,2.23362,2.81627,3.08445,3.23871,3.33893,3.40927,3.46137,3.50151,3.53338
0.10041,2.59477,3.62098,4.2241,4.62723,4.91705,5.13586,5.30707,5.44477,5.55794
0.0988155,2.79773,3.97535,4.62919,5.0389,5.31751,5.51841,5.66977,5.78772,5.88213
0.102907,3.08094,4.34823,5.0183,5.42784,5.70326,5.90102,6.04991,6.16605,6.25918
0.097286,3.0246,4.23238,4.86139,5.2461,5.50586,5.69315,5.83464,5.94533,6.0343
0.0991693,3.16482,4.39901,5.04098,5.43506,5.70188,5.89461,6.04038,6.1545,6.24627
0.0981024,3.20212,4.43624,5.081,5.47811,5.74746,5.94221,6.08959,6.20501,6.29786
0.0956904,3.18722,4.4079,5.04766,5.44216,5.70983,5.90338,6.04984,6.16455,6.25682
0.0959484,3.25896,4.50358,5.15715,5.56031,5.83387,6.03166,6.18134,6.29856,6.39284
0.103385,3.56723,4.92263,5.63422,6.07294,6.37051,6.58561,6.74835,6.87578,6.97826
0.103123,2.73652,3.44777,3.7744,3.96208,4.08395,4.16945,4.23275,4.28151,4.32022
0.100592,3.0996,4.32544,5.04629,5.52841,5.87518,6.1371,6.34211,6.50702,6.64259
0.100402,3.38102,4.80519,5.59639,6.09233,6.42963,6.67288,6.85615,6.99897,7.11329
0.0987691,3.51093,4.9581,5.72398,6.19229,6.5073,6.73355,6.90389,7.03677,7.14335
0.0969439,3.56464,4.98768,5.7285,6.18144,6.4872,6.70763,6.87414,7.00438,7.10907
0.0972692,3.66134,5.09097,5.83552,6.29296,6.60287,6.82684,6.99629,7.12898,7.23572
0.095847,3.67892,5.0969,5.83768,6.29387,6.60325,6.8269,6.99614,7.12867,7.23527
0.093554,3.65407,5.05226,5.78459,6.23599,6.54218,6.76354,6.93103,7.06219,7.16767
0.0951633,3.77947,5.22205,5.97969,6.44714,6.76437,6.99378,7.1674,7.30338,7.41276
0.102053,4.1147,5.68145,6.50493,7.01296,7.35767,7.60692,7.79553,7.94323,8.06203
0.100871,3.11291,3.92114,4.29198,4.50494,4.64315,4.7401,4.81186,4.86711,4.91098
0.100273,3.57466,4.98087,5.80576,6.35667,6.75253,7.05132,7.28506,7.47301,7.62746
0.098681,3.84864,5.47334,6.37794,6.94589,7.33263,7.61178,7.82226,7.98637,8.11779
0.097469,4.00068,5.64915,6.5213,7.05436,7.41278,7.6701,7.86379,8.01485,8.13597
0.0989168,4.14231,5.76871,6.60954,7.12171,7.46663,7.7149,7.90221,8.04861,8.16619
0.0978353,4.25013,5.92966,6.81161,7.3563,7.72663,7.99494,8.19833,8.35785,8.48631
0.0981449,4.37593,6.08546,6.98039,7.53139,7.90482,8.1746,8.3786,8.53825,8.66661
0.0845799,3.86913,5.37398,6.16301,6.64928,6.97907,7.21745,7.39781,7.53903,7.65261
0.0906016,4.43535,6.25459,7.23044,7.83907,8.25489,8.55699,8.78639,8.96651,9.11169
0.0974976,4.85998,6.76353,7.75151,8.35471,8.76085,9.05282,9.27276,9.44439,9.58204
0.0886102,3.32131,4.17805,4.56558,4.78697,4.93035,5.03083,5.10518,5.16243,5.20787
0.0990684,4.43006,6.24789,7.33217,8.0653,8.59687,9.0008,9.31843,9.5749,9.78638
0.0963289,4.55893,6.43904,7.46492,8.10064,8.52948,8.83685,9.06732,9.24622,9.38897
0.0880339,4.5171,6.43988,7.47387,8.11318,8.54665,8.85981,9.09669,9.28216,9.43136
0.0862529,4.51743,6.32859,7.26732,7.8391,8.22388,8.50058,8.70916,8.87204,9.00277
0.096759,5.25316,7.34758,8.44284,9.11732,9.57503,9.90621,10.157,10.3536,10.5118
0.0827729,4.5133,6.23879,7.13077,7.67664,8.04531,8.31105,8.51169,8.66854,8.79452
0.0873197,4.92435,6.8562,7.87889,8.51391,8.94694,9.26123,9.49975,9.68698,9.83786
0.0843686,4.58903,6.25299,7.10573,7.62456,7.97346,8.22411,8.41289,8.56016,8.67827
0.0977858,5.54543,7.69664,8.84833,9.56822,10.0613,10.4203,10.6935,10.9084,11.0818
0.0879547,3.91173,4.97139,5.46215,5.7446,5.92793,6.05645,6.15152,6.22467,6.28269
0.0879319,4.37489,6.06404,7.03791,7.68089,8.13929,8.48331,8.75127,8.96601,9.142
0.101725,5.53054,7.8557,9.15051,9.96541,10.5218,10.9244,11.2287,11.4664,11.657
0.0905789,4.96743,6.91251,7.92325,8.53561,8.94515,9.23807,9.45794,9.62905,9.76602
0.0984104,5.64995,7.91647,9.11668,9.85945,10.3651,10.7319,11.0103,11.2288,11.405
0.0964078,5.66655,7.89202,9.05502,9.76908,10.2521,10.6005,10.8638,11.0696,11.235
0.0934428,5.38243,7.37845,8.4067,9.03486,9.45876,9.7642,9.99479,10.1751,10.3199
0.0969829,5.5118,7.52444,8.57125,9.2153,9.65199,9.9677,10.2066,10.3938,10.5443
0.0966852,5.61038,7.74032,8.87364,9.57869,10.0598,10.409,10.674,10.882,11.0496
0.0957401,5.49891,7.53721,8.6042,9.25997,9.70356,10.0235,10.2651,10.454,10.6058
