0.88665,0.927927,0.942554,0.950041,0.954591,0.957649,0.959845,0.961498,0.962789,0.963823
0.52542,0.751916,0.870431,0.943222,0.992457,1.02797,1.0548,1.07579,1.09264,1.10649
0.335218,0.597247,0.729031,0.803884,0.851283,0.883744,0.907276,0.925081,0.939004,0.950181
0.25932,0.590541,0.767079,0.868066,0.932368,0.976685,1.00902,1.03365,1.05301,1.06864
0.212335,0.595201,0.795635,0.905555,0.973624,1.01967,1.05282,1.0778,1.0973,1.11293
0.181763,0.605023,0.816538,0.928336,0.996478,1.04223,1.07504,1.09973,1.11896,1.13437
0.159947,0.617386,0.836405,0.950171,1.01931,1.06575,1.09908,1.12418,1.14376,1.15946
0.135494,0.594598,0.806089,0.914946,0.981043,1.02544,1.05731,1.08131,1.10003,1.11504
0.197605,0.995327,1.36428,1.55669,1.67462,1.75432,1.81179,1.85519,1.88913,1.91639
0.182357,1.07003,1.49079,1.71273,1.84939,1.94193,2.00871,2.05917,2.09863,2.13033
0.153539,0.78418,0.985877,1.07545,1.1258,1.15802,1.1804,1.19684,1.20943,1.21938
0.14735,0.960063,1.34706,1.5731,1.72401,1.83256,1.91459,1.97884,2.03056,2.07311
0.13866,1.06128,1.51073,1.75513,1.90611,2.00771,2.08039,2.1348,2.17697,2.21059
0.133251,1.1427,1.60691,1.84495,1.98781,2.08276,2.15038,2.201,2.2403,2.27171
0.134303,1.24978,1.7315,1.97371,2.11914,2.21626,2.28577,2.33801,2.37872,2.41133
0.127405,1.23196,1.67246,1.89109,2.02221,2.10975,2.17238,2.21943,2.25608,2.28542
0.130016,1.29743,1.74617,1.97169,2.1082,2.19988,2.26573,2.31533,2.35404,2.3851
0.123714,1.26882,1.70127,1.92075,2.05409,2.14375,2.20818,2.25672,2.29461,2.32499
0.11671,1.24482,1.67506,1.89623,2.03127,2.1223,2.18782,2.23724,2.27584,2.30683
0.163008,1.81469,2.44934,2.77633,2.97572,3.10995,3.20646,3.27919,3.33595,3.38148
0.150689,1.27729,1.56438,1.69208,1.76424,1.81061,1.84291,1.8667,1.88496,1.89941
0.145908,1.51303,2.08377,2.42134,2.6482,2.81198,2.93605,3.03337,3.11181,3.17639
0.138467,1.63772,2.30695,2.67552,2.90438,3.05877,3.16934,3.25218,3.31642,3.36763
0.131469,1.70438,2.3851,2.73766,2.94977,3.09083,3.19132,3.26652,3.32492,3.37158
0.129231,1.78681,2.47099,2.81683,3.02453,3.16316,3.26233,3.33683,3.39486,3.44135
0.125211,1.84109,2.53687,2.89086,3.1056,3.24997,3.35377,3.43201,3.49311,3.54214
0.124695,1.9162,2.62129,2.9786,3.19494,3.34009,3.44423,3.52259,3.5837,3.63267
0.12171,1.90157,2.56999,2.90593,3.10856,3.24418,3.34134,3.41438,3.47128,3.51687
0.118939,1.88331,2.53354,2.86323,3.0633,3.19777,3.29438,3.36717,3.42399,3.46957
0.14518,2.35487,3.17348,3.59277,3.84822,4.02022,4.14392,4.23716,4.30997,4.36838
0.13852,1.68127,2.06228,2.23224,2.32854,2.39053,2.43377,2.46565,2.49012,2.5095
0.136447,1.99598,2.74792,3.19153,3.48913,3.70369,3.86605,3.9933,4.09578,4.18012
0.132308,2.18042,3.06887,3.5571,3.85993,4.0641,4.21027,4.31975,4.40465,4.47232
0.130969,2.32022,3.23535,3.7073,3.99073,4.17906,4.31315,4.41346,4.49134,4.55356
0.126155,2.33189,3.20742,3.64863,3.91346,4.0902,4.21664,4.31163,4.38564,4.44492
0.122801,2.37206,3.24969,3.69504,3.96495,4.1463,4.27662,4.37482,4.45148,4.513
0.121159,2.40905,3.28009,3.72172,3.98929,4.16888,4.29778,4.3948,4.47047,4.53113
0.116829,2.37254,3.21507,3.64287,3.90228,4.07645,4.20149,4.29562,4.36905,4.42793
0.117606,2.47459,3.36506,3.82246,4.10143,4.2894,4.42465,4.52665,4.60631,4.67024
0.138593,3.00417,4.08575,4.64099,4.97898,5.20631,5.36967,5.49272,5.58873,5.66574
0.132943,2.12659,2.61225,2.82648,2.9471,3.02445,3.07826,3.11787,3.14824,3.17226
0.127961,2.44644,3.36889,3.91088,4.27412,4.53596,4.73409,4.88941,5.01451,5.11747
0.126802,2.69895,3.79134,4.38907,4.75929,5.00871,5.18722,5.32088,5.42451,5.5071
0.126979,2.9194,4.08632,4.69234,5.05802,5.30177,5.47569,5.60601,5.70731,5.78832
0.123523,2.9505,4.0653,4.62616,4.96212,5.18594,5.34583,5.4658,5.55918,5.63393
0.122352,3.01963,4.13069,4.69155,5.03052,5.25791,5.42115,5.54407,5.63999,5.71693
0.116593,2.93644,3.99082,4.52414,4.84709,5.06384,5.21942,5.33653,5.42788,5.50111
0.113611,2.98696,4.08495,4.65094,4.99709,5.23077,5.39917,5.52629,5.62566,5.70547
0.113797,3.09064,4.22098,4.80014,5.15213,5.38858,5.55831,5.68605,5.78566,5.8655
0.129738,3.56825,4.83859,5.48335,5.87342,6.13484,6.32224,6.46318,6.57303,6.66105
0.122062,2.4542,3.01378,3.26114,3.40082,3.49061,3.55322,3.59936,3.63478,3.66283
0.122542,2.92412,4.02294,4.66827,5.10064,5.4122,5.64787,5.83256,5.98127,6.10363
0.121736,3.23282,4.54676,5.26774,5.71502,6.01667,6.23271,6.39456,6.52009,6.62017
0.122647,3.48625,4.87176,5.58875,6.02032,6.30749,6.51213,6.66532,6.78431,6.8794
0.118055,3.51062,4.85418,5.53436,5.94332,6.21645,6.41193,6.55881,6.67325,6.76494
0.112501,3.5012,4.82599,5.49992,5.90855,6.18313,6.38044,6.52912,6.64519,6.73832
0.102153,3.40277,4.72652,5.41132,5.83043,6.11349,6.31751,6.47155,6.59197,6.68868
0.101086,3.51746,4.85752,5.54091,5.95494,6.2325,6.43147,6.58106,6.69761,6.79098
0.0999092,3.5748,4.89969,5.57117,5.97739,6.24972,6.44502,6.59196,6.70651,6.79834
0.11306,4.13114,5.63489,6.3987,6.86191,7.17302,7.39643,7.56467,7.69593,7.80121
0.10949,2.92646,3.60585,3.90525,4.07413,4.18262,4.25822,4.3139,4.35664,4.39046
0.109497,3.4814,4.80945,5.58977,6.11311,6.49052,6.77619,7.00017,7.1806,7.3291
0.108314,3.80051,5.34794,6.19358,6.71713,7.06973,7.32202,7.51089,7.65731,7.77398
0.106755,3.99456,5.58581,6.40893,6.90471,7.23482,7.4702,7.64649,7.78348,7.89299
0.108228,4.14905,5.70604,6.48827,6.95693,7.2693,7.49255,7.66012,7.79058,7.89504
0.108018,4.20888,5.7405,6.51315,6.98029,7.29376,7.51885,7.68838,7.82068,7.92682
0.105349,4.19498,5.71508,6.49002,6.96137,7.27859,7.50672,7.67868,7.81294,7.92067
0.103324,4.20595,5.72935,6.50921,6.98386,7.30319,7.53271,7.70563,7.84059,7.94884
0.102809,4.23286,5.74528,6.51659,6.98464,7.29889,7.52445,7.69421,7.8266,7.93274
0.112222,4.6775,6.34237,7.19345,7.71072,8.05845,8.30828,8.49646,8.64331,8.7611
0.111451,3.34798,4.10775,4.44361,4.63308,4.75476,4.83951,4.90193,4.94981,4.98771
0.114201,4.0411,5.55466,6.44361,7.0391,7.46815,7.79267,8.04697,8.25174,8.42022
0.112893,4.35958,6.09823,7.04624,7.63236,8.02682,8.30894,8.5201,8.68376,8.81417
0.11248,4.57856,6.36135,7.28153,7.83529,8.20387,8.46662,8.66339,8.81627,8.93849
0.107735,4.56197,6.29437,7.17527,7.70649,8.06197,8.31672,8.50832,8.6577,8.77745
0.105117,4.59713,6.31221,7.18344,7.71095,8.06499,8.31916,8.51054,8.65985,8.77958
0.102979,4.67693,6.42705,7.32353,7.86941,8.23695,8.50133,8.70065,8.8563,8.98121
0.100985,4.70612,6.44207,7.32727,7.86439,8.225,8.48383,8.67863,8.83053,8.9523
0.100359,4.86876,6.69365,7.63463,8.20934,8.59691,8.87596,9.0865,9.251,9.38308
0.110339,5.39204,7.33844,8.3245,8.92014,9.31882,9.60433,9.81885,9.98592,10.1197
0.10778,3.82529,4.7097,5.09988,5.32006,5.46156,5.5602,5.6329,5.68871,5.7329
0.108554,4.5567,6.28817,7.3055,7.98765,8.4795,8.85174,9.14358,9.37864,9.5721
0.107241,4.94283,6.9474,8.04258,8.72047,9.17697,9.5036,9.74811,9.93765,10.0887
0.106525,5.14187,7.14536,8.17382,8.79077,9.20054,9.49223,9.71044,9.87984,10.0152
0.107767,5.34693,7.35171,8.36457,8.97387,9.38114,9.6728,9.89209,10.063,10.2
0.105173,5.27413,7.18353,8.14589,8.72694,9.11637,9.3957,9.6059,9.76982,9.90123
0.105454,5.37771,7.31811,8.30749,8.90932,9.31439,9.60574,9.82538,9.9969,10.1345
0.105293,5.46569,7.43988,8.4514,9.06733,9.48184,9.77985,10.0044,10.1797,10.3203
0.103684,5.44758,7.40157,8.40088,9.00813,9.41617,9.7092,9.92983,10.1019,10.24
0.113342,5.91897,7.98684,9.03613,9.67113,10.0968,10.402,10.6316,10.8105,10.9539
0.111696,4.17198,5.11047,5.52657,5.76189,5.9133,6.01891,6.09678,6.15657,6.20393
0.112248,4.93069,6.77563,7.86235,8.59139,9.11709,9.51493,9.82681,10.078,10.2847
0.112022,5.42826,7.63141,8.84304,9.59535,10.1029,10.4665,10.739,10.9503,11.1188
0.111241,5.8035,8.15612,9.38597,10.1301,10.6268,10.9815,11.2474,11.4542,11.6196
0.105377,5.72694,7.9444,9.06619,9.73915,10.1877,10.5083,10.7489,10.9361,11.086
0.101241,5.67168,7.80487,8.88251,9.53337,9.96974,10.2829,10.5186,10.7025,10.85
0.100886,5.87619,8.09317,9.22758,9.91867,10.3843,10.7194,10.9722,11.1697,11.3282
0.0996597,5.97897,8.20965,9.34836,10.04,10.5046,10.8383,11.0895,11.2854,11.4424
0.0994437,6.03486,8.22644,9.33801,10.0109,10.4621,10.7857,11.0291,11.2189,11.371
0.0985877,6.02788,8.18726,9.28659,9.95408,10.4027,10.725,10.9677,11.1572,11.3092
