0.306842,0.377568,0.408992,0.426751,0.438166,0.446121,0.451983,0.456481,0.460042,0.462932
0.704145,1.21451,1.5226,1.72554,1.86873,1.97501,2.05696,2.12206,2.175,2.2189
0.42203,0.847421,1.07286,1.20302,1.28612,1.34332,1.38494,1.41653,1.44128,1.46119
0.423044,0.938179,1.18238,1.31477,1.39689,1.45266,1.49299,1.5235,1.54739,1.56661
0.467623,1.20063,1.56137,1.76351,1.89226,1.98143,2.04684,2.09687,2.13639,2.16839
0.448779,1.35789,1.82179,2.08339,2.24999,2.36511,2.44933,2.5136,2.56423,2.60515
0.398947,1.14537,1.43242,1.57272,1.65521,1.70942,1.74772,1.77622,1.79825,1.81579
0.423943,1.56195,2.16439,2.52659,2.76996,2.94525,3.07772,3.18142,3.26483,3.33341
0.422483,1.89721,2.71561,3.18885,3.49196,3.70117,3.85369,3.96957,4.06048,4.13364
0.494292,2.59978,3.73575,4.36388,4.75653,5.02425,5.21827,5.36532,5.48059,5.57338
0.457436,2.6206,3.66827,4.21659,4.5517,4.77768,4.94043,5.06327,5.15928,5.23641
0.429839,2.79407,3.9558,4.58369,4.9777,5.24846,5.44614,5.59687,5.71562,5.81161
0.428452,3.09015,4.37577,5.06831,5.50107,5.79709,6.01229,6.17576,6.30414,6.40763
0.405299,3.17884,4.48026,5.17683,5.61075,5.90702,6.12219,6.28554,6.41379,6.51716
0.407321,3.27776,4.52167,5.17291,5.57447,5.84705,6.04426,6.19358,6.31059,6.40475
0.430968,3.72666,5.19846,5.99671,6.49976,6.84622,7.09946,7.29269,7.44499,7.56813
0.463469,4.27886,5.98437,6.90678,7.48438,7.87978,8.16732,8.38578,8.55736,8.69568
0.409155,4.07063,5.72917,6.63039,7.19592,7.5837,7.86612,8.08096,8.2499,8.38621
0.421748,4.4332,6.20821,7.15809,7.74858,8.151,8.44279,8.66405,8.83758,8.97733
0.381638,4.36076,6.19102,7.19636,7.83234,8.27113,8.59221,8.83738,9.03074,9.18713
0.405243,3.79467,4.8611,5.35641,5.64172,5.82705,5.95704,6.05324,6.1273,6.18606
0.399163,4.56997,6.54581,7.74115,8.55503,9.14794,9.60008,9.95665,10.2452,10.4836
0.408189,5.20534,7.50225,8.78465,9.58971,10.1375,10.5325,10.8301,11.0619,11.2474
0.443581,5.80991,8.1334,9.34382,10.0798,10.5737,10.9281,11.1948,11.4028,11.5697
0.415368,5.67305,7.92949,9.12936,9.8763,10.3872,10.7592,11.0423,11.265,11.4449
0.427302,6.03823,8.41991,9.69235,10.486,11.0286,11.4232,11.7229,11.9584,12.1482
0.431336,6.45929,9.08406,10.5077,11.4019,12.0158,12.4633,12.8039,13.0718,13.2881
0.420851,6.81039,9.69227,11.2704,12.2647,12.948,13.4463,13.8257,14.1242,14.3652
0.423755,6.91416,9.63383,11.0646,11.9454,12.5419,12.9725,13.298,13.5527,13.7574
0.447546,7.53692,10.5084,12.0962,13.0869,13.7647,14.258,14.6332,14.9282,15.1663
0.434703,7.78965,10.99,12.7317,13.8276,14.5806,15.1299,15.5481,15.8773,16.143
0.43118,8.23253,11.7205,13.6336,14.8407,15.6711,16.2773,16.7393,17.1029,17.3966
0.417898,8.15723,11.4476,13.1945,14.275,15.0086,15.5393,15.9408,16.2553,16.5082
0.440691,8.72747,12.1674,13.9984,15.1378,15.9159,16.4815,16.9112,17.2488,17.5211
0.404636,8.61819,12.2943,14.3407,15.6477,16.5553,17.2224,17.7334,18.1375,18.4649
0.409309,9.0252,12.7801,14.8087,16.0745,16.9383,17.5649,18.0399,18.4124,18.7123
0.435113,9.80134,13.757,15.8665,17.177,18.0702,18.7183,19.2099,19.5958,19.9067
0.410957,9.38516,13.1181,15.1184,16.3679,17.2233,17.8459,18.3194,18.6917,18.9922
0.420681,9.31965,12.7927,14.6173,15.7444,16.5101,17.0643,17.484,17.8129,18.0776
0.453788,10.3317,14.3624,16.5501,17.9278,18.8759,19.5684,20.0965,20.5125,20.8487
0.462563,10.8325,15.1663,17.5307,19.0186,20.0406,20.7856,21.3527,21.7988,22.1588
0.439937,10.8123,15.2926,17.751,19.3007,20.3662,21.1434,21.7354,22.2013,22.5775
0.449666,11.184,15.6589,18.0521,19.5382,20.5501,21.2834,21.8392,22.2749,22.6257
0.455882,11.1485,15.3887,17.6255,19.0091,19.9501,20.6319,21.1487,21.554,21.8804
0.467227,11.8829,16.6507,19.254,20.8982,22.0318,22.8609,23.4938,23.9928,24.3963
0.45952,12.2409,17.2729,20.0114,21.7292,22.9059,23.7619,24.4123,24.9232,25.335
0.446046,11.4721,15.7876,18.0439,19.4298,20.3674,21.0441,21.5554,21.9554,22.2769
0.458233,12.2325,17.1125,19.7746,21.4565,22.6168,23.4661,24.1148,24.6267,25.0408
0.439958,12.4293,17.6423,20.5177,22.3367,23.5898,24.5052,25.2029,25.7522,26.1958
0.423089,11.5857,16.002,18.3127,19.73,20.6873,21.3772,21.8978,22.3047,22.6314
0.428421,12.6202,17.9621,20.9416,22.8481,24.1745,25.1514,25.901,26.4945,26.9762
0.39082,12.1284,17.2636,20.0505,21.7907,22.9781,23.8389,24.4912,25.0024,25.4136
0.412376,12.6657,17.6327,20.2342,21.8327,22.9146,23.6956,24.2861,24.7482,25.1197
0.408014,12.7889,17.8871,20.6309,22.3519,23.534,24.3967,25.0543,25.5722,25.9907
0.445526,14.6739,20.7695,24.1019,26.2033,27.649,28.7042,29.508,30.1408,30.6517
0.444358,14.736,20.6466,23.8056,25.7688,27.1064,28.076,28.811,29.3874,29.8514
0.446715,14.8724,20.7375,23.8721,25.8254,27.1601,28.1302,28.8672,29.4462,29.9132
0.438715,14.208,19.5406,22.3506,24.0885,25.2701,26.1258,26.7741,27.2823,27.6914
0.444134,14.6676,20.4387,23.5842,25.5699,26.9387,27.9396,28.7036,29.3059,29.7929
0.445459,14.7263,20.4804,23.5827,25.5211,26.8461,27.8087,28.5396,29.1133,29.5756
0.430588,14.638,20.5181,23.7151,25.7223,27.0993,28.1026,28.8661,29.4666,29.9512
0.423175,15.067,21.3083,24.7111,26.8476,28.3126,29.3794,30.1908,30.8286,31.3432
0.431663,15.2961,21.3497,24.5708,26.5678,27.9267,28.9113,29.6576,30.2426,30.7137
0.425465,15.1312,21.0311,24.1708,26.1223,27.4535,28.4199,29.1534,29.7293,30.1935
0.401879,10.8068,13.6612,14.9875,15.7549,16.2554,16.6076,16.8691,17.0708,17.2311
0.380748,12.3005,17.5343,20.729,22.915,24.5122,25.7324,26.6959,27.4763,28.1215
0.418611,15.4451,22.7732,27.0523,29.8069,31.7109,33.0989,34.1526,34.9784,35.6422
0.404047,15.8935,23.0595,26.9271,29.3071,30.9123,32.0668,32.9367,33.6156,34.1604
0.417655,17.1363,24.5117,28.412,30.8173,32.4508,33.634,34.5309,35.2347,35.8016
0.444204,18.3377,25.8518,29.8257,32.2947,33.9812,35.2074,36.1396,36.8723,37.4634
0.430608,18.176,25.5923,29.5648,32.0502,33.7534,34.9939,35.9377,36.6798,37.2788
0.439116,18.6814,26.2286,30.2934,32.8415,34.5891,35.8624,36.8313,37.5935,38.2086
0.437262,18.9607,26.6243,30.752,33.3338,35.1007,36.3857,37.3623,38.1295,38.7481
0.42977,19.4496,27.5644,31.9919,34.7795,36.6956,38.0935,39.1584,39.9966,40.6734
0.426531,19.1394,26.709,30.7204,33.2021,34.8882,36.1083,37.032,37.7556,38.3378
0.398768,18.0587,25.2516,29.1263,31.5547,33.2208,34.4356,35.3606,36.0887,36.6768
0.404379,18.9952,26.7809,31.0106,33.6667,35.4888,36.8161,37.8259,38.6199,39.2605
0.407572,19.6268,27.7902,32.2547,35.0697,37.0068,38.4213,39.4996,40.3487,41.0349
0.408836,19.1014,26.4502,30.311,32.6877,34.2974,35.4595,36.3379,37.0251,37.5774
0.428244,19.9397,27.6882,31.8549,34.4666,36.2594,37.5671,38.5635,39.3479,39.9817
0.435662,19.8091,27.3563,31.398,33.9202,35.6445,36.8978,37.8498,38.5974,39.2002
0.439559,20.1718,28.0935,32.4018,35.1122,36.9746,38.3331,39.3679,40.1823,40.84
0.433612,20.2873,28.4039,32.8099,35.5711,37.4622,38.8379,39.8834,40.7049,41.3672
0.434275,20.8544,29.3495,33.9666,36.8623,38.8472,40.2924,41.3917,42.2559,42.9532
0.441937,21.6612,30.4308,35.1429,38.0778,40.0803,41.5337,42.6363,43.5016,44.1986
0.424991,21.3292,29.9882,34.6441,37.5502,39.537,40.9813,42.0786,42.9407,43.6359
0.417355,20.0264,27.4674,31.3283,33.6928,35.2899,36.4412,37.3105,37.9902,38.5362
0.384116,19.0243,26.5833,30.701,33.3025,35.0974,36.4114,37.4151,38.207,38.8478
0.416432,22.3299,32.008,37.4078,40.8441,43.2199,44.9592,46.287,47.3336,48.1797
0.411607,23.2372,33.2935,38.7616,42.1774,44.509,46.2007,47.4837,48.4899,49.3001
0.426677,22.5265,30.9191,35.2037,37.8016,39.5458,40.7983,41.7416,42.4777,43.0681
0.426699,22.1759,30.5486,35.0134,37.8096,39.7304,41.1329,42.2026,43.0455,43.727
0.42919,23.0631,32.4004,37.5526,40.8258,43.0892,44.7473,46.014,47.0131,47.8212
0.434008,22.3858,30.8282,35.2863,38.0356,39.8983,41.243,42.2591,43.0538,43.6922
0.427802,22.7381,31.8882,36.9122,40.0932,42.2899,43.8988,45.1282,46.0983,46.8835
0.434427,23.6591,33.2845,38.5101,41.7814,44.0191,45.6453,46.88,47.8493,48.6304
0.419102,23.509,33.2644,38.5885,41.937,44.2371,45.9146,47.1922,48.1977,49.0097
0.430173,24.1368,33.7876,38.93,42.119,44.2891,45.861,47.052,47.9856,48.7371
0.415369,23.4702,32.8035,37.8013,40.9187,43.0503,44.6004,45.7786,46.7044,47.4512
0.411634,24.7115,35.1734,40.9242,44.5606,47.0673,48.8998,50.2976,51.399,52.2893
