0.266603,0.343658,0.380296,0.40171,0.415756,0.425679,0.433062,0.43877,0.443314,0.447017
0.158954,0.273825,0.340877,0.383922,0.413731,0.43555,0.452194,0.465302,0.47589,0.484619
0.111241,0.240072,0.317302,0.36563,0.398203,0.421509,0.438963,0.452504,0.463307,0.472122
0.0928361,0.255157,0.358215,0.423042,0.466792,0.49814,0.521659,0.53994,0.55455,0.566492
0.0797667,0.262289,0.374059,0.441324,0.485517,0.516646,0.539728,0.557516,0.571641,0.583127
0.0682886,0.267554,0.389024,0.461761,0.509692,0.543607,0.568862,0.588397,0.603958,0.616646
0.0645685,0.295079,0.432675,0.513934,0.567164,0.60469,0.632558,0.654069,0.671173,0.6851
0.0633972,0.334156,0.491815,0.583557,0.643215,0.685076,0.716061,0.739917,0.758851,0.774243
0.0606317,0.348477,0.505746,0.595528,0.653557,0.694175,0.724207,0.747319,0.765658,0.780566
0.0541874,0.347462,0.508767,0.602729,0.664308,0.70781,0.740184,0.765218,0.785154,0.801406
0.0528355,0.376214,0.554066,0.657948,0.725987,0.773981,0.809641,0.837176,0.859077,0.876912
0.0521488,0.407919,0.60269,0.716676,0.791437,0.844239,0.883515,0.913872,0.938039,0.957733
0.0527755,0.446885,0.658578,0.781601,0.861952,0.918543,0.960554,0.992975,1.01875,1.03974
0.0503483,0.440957,0.639003,0.752003,0.825166,0.876433,0.914366,0.943572,0.966755,0.985604
0.12383,1.19743,1.77397,2.11647,2.34372,2.50556,2.62669,2.72076,2.79593,2.85737
0.0441326,0.45352,0.667028,0.790623,0.871002,0.927392,0.969115,1.00123,1.0267,1.0474
0.0433038,0.474783,0.699647,0.830598,0.916312,0.976796,1.02177,1.05653,1.0842,1.10675
0.0441672,0.516382,0.761627,0.90425,0.997465,1.06315,1.11192,1.14956,1.1795,1.20388
0.0422059,0.517547,0.759461,0.899081,0.989964,1.05384,1.1012,1.1377,1.16671,1.19031
0.0422896,0.543434,0.795937,0.94167,1.03659,1.10335,1.15286,1.19105,1.2214,1.2461
0.040324,0.541527,0.793718,0.940098,1.03581,1.10331,1.15346,1.1922,1.22303,1.24814
0.0399311,0.536706,0.773373,0.90771,0.994384,1.05496,1.09968,1.13405,1.1613,1.18342
0.04511,0.63726,0.932122,1.10538,1.21968,1.30079,1.36135,1.4083,1.44577,1.47637
0.0380872,0.383096,0.488704,0.539432,0.569295,0.588979,0.602932,0.613339,0.621401,0.627828
0.0376031,0.479481,0.712879,0.868236,0.980697,1.06623,1.13359,1.18806,1.23303,1.2708
0.0377837,0.577679,0.900724,1.10689,1.24657,1.34634,1.42072,1.47811,1.52364,1.56059
0.0358359,0.60208,0.921717,1.10842,1.22851,1.31185,1.373,1.41977,1.45671,1.48662
0.0359952,0.64029,0.96242,1.14667,1.2657,1.34909,1.41085,1.45846,1.49631,1.52712
0.0352927,0.647301,0.956316,1.1317,1.24515,1.32471,1.38363,1.42904,1.46511,1.49445
0.0364297,0.691592,1.02193,1.21402,1.34035,1.42989,1.49672,1.5485,1.58981,1.62354
0.0374116,0.732438,1.07571,1.27325,1.40174,1.49196,1.55878,1.61023,1.65108,1.68428
0.0361741,0.744266,1.10141,1.31037,1.44769,1.54483,1.61719,1.67317,1.71778,1.75416
0.0360457,0.768762,1.13502,1.34776,1.48671,1.58454,1.65715,1.71317,1.75771,1.79395
0.0363298,0.824644,1.2289,1.46625,1.62222,1.73252,1.81462,1.87813,1.9287,1.96993
0.059702,1.37649,2.01989,2.38729,2.6247,2.7907,2.91329,3.00753,3.08224,3.14291
0.0356403,0.847847,1.24722,1.47884,1.63039,1.73737,1.81695,1.87847,1.92747,1.96741
0.0355228,0.876329,1.2951,1.54023,1.70131,1.81525,1.9001,1.96573,2.01801,2.06063
0.0402564,1.02713,1.51467,1.79706,1.98103,2.11032,2.20612,2.27994,2.33857,2.38625
0.03488,0.912786,1.3423,1.59051,1.75224,1.86601,1.9504,2.0155,2.06724,2.10937
0.0338099,0.870829,1.26195,1.48513,1.62974,1.73113,1.80618,1.86399,1.90988,1.94721
0.0336988,0.892382,1.30832,1.55236,1.7132,1.82726,1.91236,1.97831,2.0309,2.07383
0.0330455,0.554747,0.689117,0.750329,0.785349,0.808019,0.82389,0.835621,0.844644,0.851799
0.0338419,0.720431,1.06389,1.29619,1.46698,1.59857,1.70329,1.7887,1.85974,1.91976
0.0331021,0.822649,1.27031,1.55539,1.74802,1.88514,1.98704,2.06543,2.12744,2.17764
0.0340746,0.935921,1.43932,1.73777,1.93117,2.06598,2.16518,2.24122,2.30136,2.35013
0.0328934,0.987227,1.51006,1.81342,2.01004,2.14787,2.24993,2.32858,2.39108,2.44195
0.0851797,2.70516,4.06607,4.8357,5.33004,5.67474,5.92895,6.12421,6.27891,6.4045
0.0330301,0.99862,1.44166,1.68611,1.84227,1.95098,2.0311,2.09265,2.14141,2.18101
0.0321655,0.989801,1.44673,1.71309,1.88904,2.01419,2.10782,2.18053,2.23863,2.28612
0.0378099,1.21803,1.81051,2.16394,2.39893,2.56634,2.69159,2.78879,2.8664,2.92979
0.0313701,1.0262,1.50819,1.78551,1.96505,2.09056,2.18318,2.25432,2.31066,2.35639
0.0834653,2.8261,4.18491,4.9819,5.50624,5.87762,6.15458,6.36912,6.54023,6.6799
0.0324246,1.08462,1.58209,1.86747,2.05266,2.18255,2.2787,2.35274,2.41152,2.45931
0.0477042,1.63333,2.39944,2.84689,3.14071,3.34851,3.50329,3.62304,3.71845,3.79626
0.031425,1.1041,1.63803,1.95583,2.16684,2.31717,2.4297,2.5171,2.58694,2.64403
0.031628,1.14824,1.70327,2.02817,2.24078,2.39055,2.50168,2.58739,2.65549,2.71091
0.0317309,1.13009,1.63976,1.92777,2.11274,2.24159,2.33652,2.40936,2.46703,2.51382
0.032022,1.17218,1.72891,2.05843,2.27713,2.4331,2.55002,2.64095,2.71371,2.77325
0.0323084,1.23843,1.84672,2.20796,2.44675,2.61613,2.74243,2.84019,2.9181,2.98162
0.0319189,1.23938,1.82653,2.16474,2.38399,2.53751,2.65098,2.73826,2.80746,2.86368
0.0310443,1.24368,1.84301,2.19381,2.42433,2.5875,2.70911,2.80328,2.87835,2.93961
0.0960026,3.69198,5.31693,6.22789,6.81101,7.21634,7.51444,7.74289,7.92354,8.06997
0.0314777,1.30256,1.93602,2.31235,2.56216,2.74016,2.87346,2.97703,3.05982,3.12751
0.0308426,1.32262,1.96432,2.33861,2.583,2.75488,2.88226,2.98041,3.05834,3.1217
0.0340751,1.51591,2.25619,2.68869,2.97202,3.172,3.32071,3.43564,3.52712,3.60168
0.0305483,1.39387,2.06593,2.45539,2.7094,2.88815,3.02078,3.12309,3.20442,3.27062
0.0304716,1.39202,2.04556,2.4225,2.6682,2.84115,2.96954,3.06864,3.14745,3.21163
0.0313285,1.39659,2.02371,2.38119,2.61273,2.77503,2.89513,2.9876,3.06101,3.12069
0.0340878,1.54168,2.25012,2.6612,2.93015,3.11988,3.2609,3.36984,3.45653,3.52715
0.0308969,1.44049,2.12747,2.53265,2.79987,2.98928,3.13052,3.23988,3.32706,3.39818
0.0305266,1.43121,2.10437,2.49612,2.75208,2.93233,3.0661,3.16932,3.25137,3.31815
0.0304629,1.45797,2.14981,2.55358,2.81803,3.00465,3.14339,3.25059,3.3359,3.40541
0.0706781,3.45914,5.11637,6.087,6.72425,7.17469,7.50995,7.76921,7.97567,8.14398
0.0308347,1.45127,2.10142,2.4718,2.71129,2.87892,3.00285,3.0982,3.17384,3.23531
0.0304939,1.4678,2.15463,2.55806,2.82405,3.01271,3.15351,3.26264,3.34969,3.42076
0.0300748,1.30159,1.81109,2.08327,2.2523,2.36737,2.45071,2.51385,2.56332,2.60314
0.0300206,1.42168,2.10448,2.52089,2.80319,3.00765,3.16273,3.28445,3.38256,3.46334
0.0303667,1.46752,2.16934,2.58226,2.85264,3.0429,3.18385,3.29236,3.37844,3.44836
0.0305737,1.54367,2.30086,2.74714,3.04033,3.24751,3.40168,3.52088,3.6158,3.69317
0.0303801,1.54836,2.28222,2.70449,2.9783,3.17019,3.31213,3.4214,3.5081,3.57857
0.0335983,1.77258,2.62987,3.13084,3.45964,3.69214,3.86528,3.99925,4.10599,4.19305
0.0300262,1.56972,2.29669,2.71312,2.98312,3.1724,3.31247,3.4203,3.50588,3.57545
0.0303506,1.57444,2.28565,2.69089,2.95305,3.13663,3.27238,3.37684,3.45973,3.52709
0.030291,1.58096,2.31013,2.73488,3.01369,3.21089,3.35778,3.47145,3.56202,3.6359
0.0307927,1.68157,2.49526,2.97621,3.2934,3.5181,3.68555,3.81512,3.91833,4.00249
0.0299002,1.66233,2.45702,2.91898,3.22024,3.43206,3.58908,3.71012,3.80627,3.88449
0.0582826,3.30649,4.8895,5.81164,6.41516,6.84096,7.15753,7.40214,7.59684,7.7555
0.0304722,1.68168,2.44591,2.8829,3.16622,3.36491,3.51201,3.62531,3.71527,3.78843
0.0331083,1.92481,2.865,3.42484,3.79672,4.06175,4.26021,4.41438,4.5376,4.63833
0.0300868,1.76801,2.60656,3.09085,3.40526,3.62556,3.78842,3.91367,4.01297,4.09363
0.0540878,3.33475,4.98023,5.95133,6.59189,7.04622,7.38529,7.64806,7.8577,8.02885
0.0303829,1.83229,2.68747,3.18017,3.50083,3.72626,3.89342,4.02232,4.12476,4.20813
0.030021,1.79734,2.63003,3.11351,3.43018,3.65384,3.82027,3.94897,4.05146,4.13502
0.0301044,1.83298,2.69936,3.2072,3.54104,3.77718,3.95302,4.08901,4.19733,4.28563
0.0294418,1.8901,2.82725,3.38414,3.75235,4.01363,4.20859,4.3596,4.48001,4.57826
0.0304823,1.83039,2.62864,3.07274,3.35535,3.55099,3.69447,3.8042,3.89083,3.96097
0.0305808,1.88225,2.75964,3.27581,3.6173,3.86035,4.04229,4.18365,4.29666,4.38909
0.0313344,1.94099,2.84434,3.3697,3.71282,3.95428,4.13332,4.27133,4.38094,4.47009
0.0519094,3.29808,4.86091,5.77235,6.36847,6.78856,7.10051,7.34131,7.53281,7.68873
0.0513593,3.22058,4.72472,5.60293,6.17945,6.58723,6.891,7.12609,7.31345,7.46628
