0.0496839,0.0685332,0.0784546,0.0845766,0.088731,0.0917349,0.0940082,0.0957886,0.0972206,0.0983974
0.0266314,0.0486582,0.0623172,0.0713653,0.0777521,0.0824873,0.0861331,0.0890246,0.0913728,0.0933172
0.0200641,0.0471172,0.0649125,0.0766408,0.0848086,0.0907856,0.0953362,0.0989113,0.101792,0.104161
0.0387547,0.112215,0.161033,0.192581,0.214266,0.230012,0.241943,0.251291,0.258809,0.264985
0.0133206,0.0477232,0.0707202,0.0852334,0.0950456,0.10209,0.107385,0.111506,0.114805,0.117504
0.0121898,0.0527042,0.0797421,0.0966855,0.108159,0.116428,0.122668,0.127544,0.131458,0.134671
0.0107844,0.0536155,0.0807208,0.0971746,0.108143,0.11597,0.121836,0.126395,0.130041,0.133022
0.00991225,0.0565259,0.0859629,0.104141,0.116468,0.125382,0.132131,0.13742,0.141677,0.145177
0.0107694,0.0678741,0.102507,0.123588,0.137757,0.147935,0.1556,0.161579,0.166374,0.170305
0.00971411,0.0670906,0.100866,0.12127,0.134927,0.14471,0.152062,0.15779,0.162378,0.166135
0.00929897,0.0715135,0.108664,0.131496,0.14695,0.158105,0.166536,0.173132,0.178434,0.182788
0.0091271,0.076542,0.115968,0.139905,0.155957,0.167462,0.176111,0.182848,0.188245,0.192665
0.00855169,0.0756303,0.11442,0.138396,0.154745,0.166623,0.175651,0.182746,0.18847,0.193186
0.00868108,0.0844304,0.129206,0.157032,0.175963,0.189662,0.200028,0.208143,0.214666,0.220024
0.00803302,0.0835056,0.126619,0.152689,0.170099,0.182539,0.191868,0.199123,0.204925,0.209671
0.00816428,0.0892085,0.134184,0.161211,0.17926,0.192175,0.201878,0.209436,0.215491,0.22045
0.00777952,0.0903815,0.136223,0.163958,0.18256,0.195907,0.205951,0.213783,0.220061,0.225206
0.00757864,0.0935459,0.141396,0.170484,0.19004,0.20409,0.214671,0.222926,0.229547,0.234975
0.00743968,0.098022,0.149245,0.180758,0.202104,0.217519,0.229173,0.238294,0.245625,0.251648
0.0082788,0.111122,0.168167,0.203413,0.227418,0.244837,0.258059,0.26844,0.276808,0.283696
0.00753916,0.108628,0.165218,0.199762,0.222957,0.239579,0.252066,0.261785,0.269563,0.275928
0.0165927,0.253974,0.386642,0.467349,0.521525,0.560396,0.589645,0.612452,0.630736,0.645722
0.00712839,0.112378,0.16887,0.202557,0.224925,0.240861,0.252793,0.262061,0.269469,0.275526
0.00707537,0.11691,0.176581,0.212801,0.237171,0.254702,0.267922,0.27825,0.28654,0.293343
0.00692699,0.118567,0.179477,0.216788,0.242028,0.260245,0.274013,0.284785,0.293443,0.300554
0.0106334,0.190618,0.288848,0.348629,0.388784,0.417595,0.439265,0.456155,0.469687,0.480771
0.00683747,0.127171,0.192049,0.231222,0.25742,0.276171,0.290255,0.301221,0.310002,0.317192
0.00661007,0.128127,0.193961,0.23397,0.260868,0.280197,0.29476,0.306127,0.315246,0.322725
0.00675229,0.134921,0.203658,0.245261,0.273154,0.293156,0.308201,0.319928,0.329326,0.337025
0.00652686,0.1341,0.202699,0.244576,0.272836,0.293202,0.308578,0.320599,0.330255,0.338183
0.00857157,0.183624,0.279372,0.338322,0.378262,0.407106,0.42891,0.445971,0.459683,0.470944
0.00627516,0.137646,0.208389,0.251466,0.280433,0.301242,0.316912,0.329138,0.338942,0.346978
0.00659463,0.138948,0.203075,0.240036,0.264079,0.28097,0.293488,0.303138,0.310804,0.31704
0.00756522,0.16738,0.251997,0.304386,0.340184,0.366237,0.386061,0.401657,0.414249,0.42463
0.00645896,0.152293,0.233193,0.283613,0.317932,0.342757,0.361532,0.376221,0.388023,0.397712
0.0064001,0.155629,0.237032,0.286762,0.320192,0.344189,0.362248,0.376329,0.387617,0.396867
0.00632891,0.160818,0.245581,0.297446,0.332411,0.357579,0.376563,0.391394,0.4033,0.41307
0.00624735,0.16386,0.24871,0.299925,0.33416,0.358654,0.377046,0.391364,0.402825,0.412207
0.00634836,0.157709,0.234579,0.281137,0.312574,0.335281,0.352469,0.365939,0.376783,0.385701
0.00612155,0.162272,0.246805,0.299093,0.33457,0.360185,0.379534,0.394657,0.406799,0.41676
0.00628955,0.17308,0.263446,0.318688,0.355838,0.382505,0.402571,0.418215,0.430753,0.441025
0.00847529,0.24398,0.372182,0.450266,0.502702,0.540329,0.568643,0.590721,0.608418,0.622921
0.00610606,0.180951,0.27571,0.333552,0.37255,0.400635,0.421831,0.438399,0.451705,0.462627
0.00607961,0.182788,0.2764,0.332975,0.370885,0.398063,0.418503,0.434434,0.4472,0.457659
0.00845097,0.258313,0.38943,0.468629,0.521705,0.559763,0.588389,0.610706,0.628591,0.643246
0.00605576,0.190663,0.288526,0.348035,0.388055,0.416812,0.438475,0.455379,0.468937,0.480054
0.00600561,0.194082,0.293947,0.354663,0.395469,0.424775,0.446839,0.464051,0.477853,0.489165
0.00593457,0.194835,0.295152,0.356483,0.3979,0.427757,0.450306,0.467939,0.482106,0.493738
0.0136735,0.46079,0.699096,0.844561,0.942532,1.01298,1.06607,1.1075,1.14074,1.168
0.00601966,0.206221,0.311918,0.376081,0.419161,0.450082,0.473356,0.491506,0.506059,0.517986
0.00589307,0.206318,0.312623,0.377474,0.421179,0.452637,0.476364,0.494898,0.509778,0.521986
0.00634536,0.206146,0.298467,0.350913,0.38474,0.40837,0.425809,0.43921,0.449828,0.45845
0.00576459,0.198039,0.298041,0.359968,0.402295,0.433105,0.456552,0.475,0.489896,0.502177
0.0126074,0.446298,0.677104,0.819503,0.915886,0.985357,1.03777,1.07869,1.11153,1.13845
0.00563955,0.171744,0.238975,0.274556,0.296485,0.311335,0.322053,0.330151,0.336485,0.341574
0.00563128,0.195931,0.298774,0.365194,0.412073,0.447052,0.474193,0.495884,0.513624,0.528406
0.00592856,0.221534,0.341447,0.415959,0.466242,0.502289,0.529326,0.550327,0.567095,0.580785
0.0056576,0.209133,0.317675,0.384103,0.428933,0.461253,0.485674,0.504787,0.520158,0.53279
0.00586191,0.228396,0.350418,0.425558,0.476369,0.513001,0.540654,0.562266,0.579619,0.593859
0.00585498,0.234997,0.358411,0.433145,0.483157,0.518959,0.54585,0.566788,0.583553,0.597278
0.00569349,0.234273,0.355913,0.429354,0.478521,0.513756,0.54025,0.5609,0.577448,0.591007
0.00561096,0.233521,0.353728,0.426714,0.475845,0.5112,0.537868,0.558705,0.575435,0.589164
0.0105368,0.448179,0.682454,0.826713,0.924633,0.995472,1.0491,1.09112,1.12492,1.15271
0.00560907,0.222803,0.323526,0.380564,0.417221,0.442746,0.461536,0.475943,0.487339,0.496577
0.00563704,0.241866,0.368789,0.44863,0.50377,0.544211,0.575165,0.59963,0.619458,0.635855
0.00554908,0.246223,0.376438,0.456776,0.511072,0.550146,0.579581,0.60254,0.62094,0.636014
0.00897154,0.401788,0.605145,0.726149,0.806128,0.862874,0.905218,0.938022,0.964186,0.985539
0.00554846,0.255961,0.386989,0.465942,0.518753,0.556587,0.585035,0.60721,0.624982,0.639546
0.005678,0.264253,0.39957,0.481948,0.537494,0.577511,0.607721,0.631338,0.65031,0.665885
0.00561445,0.243944,0.354591,0.417897,0.458915,0.487652,0.508903,0.525255,0.538227,0.548768
0.00554453,0.251877,0.379357,0.458396,0.512455,0.55182,0.581783,0.605362,0.624403,0.640104
0.0056505,0.265162,0.401733,0.485217,0.541306,0.581504,0.611695,0.63519,0.653986,0.669363
0.00562346,0.274755,0.420292,0.51002,0.570736,0.614535,0.64762,0.673496,0.694288,0.711362
0.00555569,0.278318,0.423876,0.512185,0.571329,0.613686,0.64551,0.670293,0.69014,0.70639
0.00562984,0.286045,0.433932,0.52353,0.583661,0.626832,0.659339,0.684704,0.70505,0.721732
0.0101071,0.472984,0.687409,0.810193,0.88994,0.94595,0.987462,1.01946,1.04489,1.06558
0.00563195,0.281054,0.424815,0.513769,0.574451,0.618532,0.652013,0.678313,0.699518,0.71698
0.00544324,0.282913,0.432497,0.525124,0.587936,0.633264,0.667491,0.694239,0.715713,0.73333
0.00568472,0.296953,0.451434,0.546028,0.609839,0.655785,0.69045,0.717537,0.739287,0.757136
0.00970894,0.521903,0.795222,0.962145,1.0745,1.15526,1.21609,1.26357,1.30165,1.33286
0.00554017,0.301536,0.456287,0.549517,0.611776,0.656296,0.689711,0.715717,0.736532,0.753569
0.00552955,0.294515,0.445506,0.539001,0.602934,0.649499,0.684957,0.712871,0.735421,0.754021
0.00551271,0.302456,0.462425,0.562044,0.629955,0.679167,0.716444,0.745648,0.769139,0.788441
0.012172,0.674932,1.02255,1.23281,1.37322,1.47352,1.54871,1.60717,1.65392,1.69215
0.00544728,0.302793,0.456747,0.549848,0.61227,0.65706,0.690777,0.717081,0.738178,0.755476
0.00548054,0.310229,0.468671,0.56461,0.628931,0.67505,0.709735,0.736767,0.758426,0.776169
0.00535175,0.292078,0.427932,0.505763,0.55613,0.591372,0.617407,0.637424,0.653293,0.666181
0.00542792,0.31188,0.471305,0.569236,0.635757,0.683962,0.720524,0.749216,0.772338,0.79137
0.00542635,0.321416,0.488271,0.590184,0.658745,0.707964,0.744991,0.773845,0.796959,0.815888
0.00557748,0.343311,0.524525,0.635301,0.709858,0.763432,0.80378,0.835261,0.860508,0.881206
0.00530142,0.329703,0.500675,0.604321,0.673858,0.723755,0.761311,0.790602,0.814088,0.833339
0.00584439,0.356582,0.53277,0.637475,0.706951,0.756441,0.793492,0.822273,0.845275,0.864082
0.0054444,0.34147,0.517048,0.624526,0.697227,0.749709,0.789384,0.820432,0.845392,0.865896
0.0057614,0.365491,0.553409,0.667966,0.74507,0.800485,0.842224,0.87479,0.900905,0.922313
0.00566775,0.368576,0.562531,0.682286,0.763575,0.822365,0.866861,0.901713,0.92975,0.952793
0.00563676,0.369053,0.558589,0.673123,0.749687,0.804446,0.845544,0.877521,0.903109,0.924048
0.00538487,0.35875,0.543693,0.655974,0.7314,0.785572,0.826371,0.858209,0.883747,0.904688
0.00534075,0.35644,0.536976,0.645709,0.718398,0.770424,0.809503,0.839934,0.864301,0.884253
0.0114993,0.782536,1.18278,1.42522,1.58784,1.7045,1.79226,1.86068,1.91552,1.96045
0.0113873,0.781748,1.17611,1.41252,1.56996,1.68231,1.76649,1.83193,1.88425,1.92704
