0.0510525,0.0675117,0.0756405,0.080486,0.0837032,0.0859948,0.08771,0.089042,0.0901063,0.0909762
0.0272113,0.0476807,0.0598152,0.0676632,0.0731213,0.0771275,0.0801896,0.0826048,0.0845577,0.0861692
0.0204937,0.0463343,0.0627708,0.0734172,0.0807524,0.0860807,0.0901156,0.0932726,0.0958079,0.0978877
0.0158882,0.0456449,0.0653374,0.0779681,0.0865851,0.0928024,0.0974891,0.101145,0.104074,0.106474
0.0128796,0.0445564,0.0647575,0.0771276,0.0853353,0.091155,0.0954908,0.0988443,0.101515,0.103691
0.0112508,0.0455536,0.0667509,0.0795198,0.0879745,0.0939795,0.0984647,0.101943,0.104718,0.106985
0.0118402,0.0545146,0.0797748,0.0947156,0.104538,0.111485,0.116658,0.120659,0.123846,0.126445
0.0106706,0.055694,0.0820069,0.097635,0.107966,0.115302,0.120782,0.125032,0.128423,0.131192
0.00858338,0.0504659,0.0747651,0.0892242,0.0987942,0.105594,0.110673,0.114612,0.117755,0.120321
0.00926219,0.0610511,0.0908747,0.108584,0.120285,0.128587,0.134783,0.139583,0.143411,0.146535
0.00905042,0.0652366,0.0967634,0.115341,0.127578,0.136246,0.142709,0.147714,0.151703,0.154958
0.00894211,0.0700135,0.103834,0.123819,0.137021,0.146396,0.153399,0.158828,0.163161,0.1667
0.00793151,0.0674614,0.100292,0.119749,0.132619,0.141763,0.148594,0.15389,0.158117,0.161569
0.00637063,0.059508,0.089269,0.107092,0.11895,0.127405,0.133739,0.138659,0.142592,0.145808
0.00733389,0.0730406,0.10884,0.129967,0.143894,0.153763,0.161122,0.16682,0.171362,0.175068
0.0070627,0.0741298,0.109802,0.130753,0.144548,0.154322,0.161611,0.167257,0.171758,0.175432
0.00703159,0.0778727,0.115277,0.137329,0.151887,0.16222,0.169935,0.175916,0.180687,0.184583
0.00663736,0.0771419,0.113997,0.135691,0.14999,0.160125,0.167683,0.173536,0.178203,0.182011
0.00614817,0.0760345,0.113106,0.135153,0.14977,0.160172,0.167952,0.173989,0.178811,0.182751
0.00683139,0.0900296,0.134353,0.16065,0.178032,0.190368,0.199574,0.206707,0.212396,0.217039
0.0068412,0.0937598,0.139149,0.165888,0.183514,0.196009,0.205331,0.212552,0.218312,0.223012
0.00664975,0.0954488,0.141835,0.169294,0.187459,0.200368,0.210015,0.217498,0.223472,0.228352
0.006387,0.0960523,0.143073,0.171031,0.189569,0.202762,0.21263,0.22029,0.226407,0.231406
0.00536914,0.0850424,0.12712,0.152198,0.168837,0.18068,0.189539,0.196414,0.201905,0.206392
0.00632769,0.104214,0.155132,0.18518,0.204992,0.219033,0.229504,0.237613,0.244077,0.249351
0.00518045,0.088438,0.131852,0.157727,0.174929,0.1872,0.196397,0.203547,0.209266,0.213945
0.00610273,0.109748,0.164182,0.196559,0.218,0.233236,0.244616,0.253438,0.260477,0.266224
0.00574823,0.104182,0.153481,0.182162,0.200926,0.214162,0.224,0.2316,0.237648,0.242576
0.00561152,0.105152,0.15574,0.185707,0.205567,0.219704,0.230285,0.238501,0.245067,0.250435
0.00563601,0.109421,0.162984,0.195029,0.216365,0.231592,0.243004,0.251874,0.258966,0.264767
0.00572111,0.115498,0.172053,0.20556,0.227678,0.243359,0.255052,0.264105,0.27132,0.277205
0.00569984,0.120973,0.181357,0.217401,0.241331,0.258373,0.271127,0.281031,0.288945,0.295413
0.00560855,0.122775,0.182764,0.217963,0.241073,0.257403,0.269554,0.278947,0.286425,0.29252
0.00602762,0.135911,0.202351,0.241652,0.267656,0.286147,0.299975,0.310707,0.31928,0.326285
0.00538012,0.125202,0.186854,0.223569,0.247952,0.265326,0.278335,0.288439,0.296514,0.303115
0.00677973,0.160977,0.238753,0.284461,0.314529,0.335805,0.351651,0.363909,0.373674,0.381636
0.00523102,0.128014,0.190562,0.22771,0.252341,0.269874,0.282994,0.293181,0.301321,0.307974
0.00468903,0.120886,0.1816,0.217944,0.242109,0.25933,0.272219,0.282229,0.290225,0.29676
0.00514618,0.134025,0.199179,0.237513,0.262754,0.280632,0.293959,0.304278,0.312503,0.319214
0.00499106,0.131671,0.194739,0.23175,0.256112,0.273369,0.286237,0.296202,0.304147,0.31063
0.00505449,0.137803,0.205242,0.245388,0.272045,0.291036,0.305254,0.316296,0.325121,0.332335
0.00491762,0.136704,0.203657,0.24355,0.270038,0.288905,0.303027,0.313992,0.322754,0.329915
0.00467756,0.135275,0.202579,0.242742,0.269388,0.288349,0.302527,0.313527,0.322311,0.329485
0.00551841,0.162176,0.240862,0.287011,0.317313,0.338728,0.354665,0.366988,0.3768,0.384798
0.00618851,0.18637,0.277391,0.3313,0.366989,0.392374,0.411359,0.426096,0.437867,0.447487
0.00496769,0.151457,0.224722,0.268,0.296594,0.316897,0.332058,0.343811,0.353189,0.360846
0.00490844,0.152907,0.226934,0.270628,0.299458,0.319904,0.335157,0.346973,0.356395,0.364084
0.00486957,0.155465,0.231249,0.27614,0.305829,0.32692,0.342675,0.354892,0.364643,0.372606
0.00453783,0.149243,0.222784,0.266508,0.295481,0.316087,0.331492,0.343445,0.352989,0.360785
0.0048166,0.158884,0.235513,0.280695,0.310507,0.331657,0.347443,0.359677,0.369436,0.377403
0.00475601,0.161095,0.239843,0.286603,0.31758,0.339609,0.356079,0.368858,0.379061,0.387396
0.00526429,0.182288,0.271419,0.324201,0.359082,0.383844,0.40233,0.416658,0.428088,0.437418
0.00405466,0.144359,0.216037,0.258899,0.287418,0.307766,0.323015,0.334869,0.344349,0.352103
0.00523133,0.195751,0.294899,0.3541,0.393348,0.421251,0.442098,0.458262,0.47116,0.48169
0.00427613,0.167084,0.251926,0.302317,0.335634,0.359288,0.376949,0.390639,0.401561,0.410478
0.00464221,0.184713,0.275739,0.328978,0.363905,0.388586,0.406955,0.42116,0.432473,0.441696
0.00532857,0.210517,0.311395,0.370523,0.409508,0.437178,0.457846,0.473875,0.486672,0.497124
0.00426978,0.171079,0.253859,0.302925,0.335453,0.358604,0.375923,0.389366,0.400104,0.408878
0.00422766,0.173976,0.259461,0.31033,0.344054,0.368039,0.385968,0.399876,0.410977,0.420044
0.00415195,0.170544,0.251328,0.298275,0.32893,0.350512,0.366528,0.378883,0.388705,0.3967
0.00504493,0.212022,0.314783,0.375674,0.41601,0.444712,0.466186,0.482859,0.49618,0.507069
0.00419345,0.17974,0.267494,0.319557,0.354014,0.378498,0.39679,0.410973,0.422291,0.431533
0.00486188,0.212371,0.316407,0.378119,0.41895,0.447961,0.469633,0.486439,0.499852,0.510805
0.00486678,0.211564,0.312331,0.371312,0.410043,0.437426,0.457814,0.473583,0.486144,0.496386
0.00541216,0.238767,0.353947,0.42213,0.467252,0.499331,0.523312,0.541918,0.556775,0.568913
0.00426004,0.188915,0.279706,0.333363,0.368811,0.393973,0.412758,0.427317,0.438932,0.448414
0.00460848,0.203267,0.2994,0.355835,0.392967,0.419255,0.438845,0.454007,0.466091,0.475948
0.00460052,0.207367,0.308157,0.368241,0.40815,0.436587,0.457877,0.474413,0.487629,0.498432
0.00461789,0.208793,0.309823,0.36984,0.409598,0.43787,0.459004,0.4754,0.48849,0.499183
0.00461633,0.210647,0.31145,0.370587,0.409411,0.436839,0.457243,0.473013,0.485566,0.495795
0.00455996,0.214346,0.319936,0.382937,0.424795,0.45463,0.476974,0.494336,0.508214,0.519563
0.00509922,0.244023,0.364293,0.435788,0.483136,0.516796,0.541949,0.561458,0.57703,0.589747
0.00480993,0.231019,0.343057,0.409159,0.45277,0.483703,0.506787,0.524674,0.538941,0.550586
0.00493752,0.240798,0.357675,0.426649,0.472159,0.504438,0.528523,0.547183,0.562066,0.574212
0.00428852,0.21573,0.322654,0.386338,0.428584,0.458654,0.481148,0.498608,0.512554,0.523949
0.0043562,0.220404,0.32744,0.3904,0.431842,0.461184,0.483049,0.499972,0.513459,0.524459
0.00423689,0.219913,0.328866,0.393866,0.437075,0.467886,0.49097,0.50891,0.523254,0.534985
0.00415816,0.21879,0.326041,0.389393,0.431187,0.460817,0.482915,0.500027,0.51367,0.5248
0.00504808,0.26462,0.390501,0.463829,0.511839,0.545718,0.570906,0.590369,0.605859,0.618481
0.00449128,0.235179,0.346525,0.411806,0.45479,0.485253,0.507976,0.525579,0.539618,0.551077
0.00447755,0.241046,0.358958,0.42925,0.475939,0.5092,0.534096,0.553428,0.568874,0.581497
0.00444878,0.241351,0.358816,0.428436,0.47447,0.507158,0.531566,0.550485,0.56558,0.577903
0.00426941,0.23119,0.341666,0.4065,0.449126,0.479285,0.501749,0.51913,0.532979,0.544273
0.00446927,0.245934,0.365787,0.437145,0.484529,0.518293,0.543575,0.563216,0.578916,0.591752
0.00446412,0.252143,0.376848,0.451139,0.50038,0.535395,0.561563,0.581858,0.598056,0.611283
0.00550533,0.309037,0.457098,0.543772,0.600653,0.640849,0.670764,0.693895,0.712316,0.727332
0.0060974,0.337636,0.497318,0.591275,0.653304,0.697354,0.730263,0.75579,0.77617,0.792817
0.00475945,0.266284,0.395049,0.471884,0.522982,0.559423,0.586721,0.607932,0.624888,0.638752
0.00413197,0.238124,0.356422,0.427364,0.474562,0.508202,0.533384,0.552938,0.568559,0.581325
0.00545641,0.316212,0.470683,0.562005,0.622241,0.664939,0.696784,0.721445,0.741108,0.757152
0.00486975,0.280444,0.414988,0.494209,0.546451,0.583509,0.611169,0.632607,0.649711,0.663676
0.00484944,0.28078,0.415575,0.495105,0.547603,0.584853,0.612657,0.634203,0.65139,0.665419
0.00479895,0.28568,0.426926,0.511415,0.56762,0.607701,0.637724,0.661052,0.679699,0.694945
0.00482265,0.290828,0.433104,0.51709,0.572425,0.611611,0.640811,0.663408,0.681413,0.696096
0.0048474,0.295495,0.439773,0.525092,0.581475,0.62152,0.651434,0.674633,0.69315,0.708274
0.00553336,0.339522,0.504544,0.602113,0.666601,0.712402,0.746612,0.773138,0.794307,0.811594
0.00412654,0.255593,0.379857,0.45339,0.502004,0.536531,0.56232,0.582314,0.59827,0.611298
0.0047386,0.300351,0.448162,0.53588,0.593922,0.635156,0.665957,0.689837,0.708894,0.724454
0.00538528,0.340316,0.504196,0.60048,0.663849,0.708722,0.742169,0.768061,0.7887,0.805537
0.00532907,0.337078,0.498819,0.594166,0.657107,0.70178,0.735136,0.760994,0.781627,0.798473
