1.03449,1.04224,1.04486,1.04617,1.04695,1.04748,1.04786,1.04814,1.04836,1.04853
0.630761,0.884553,1.02003,1.10428,1.16175,1.20344,1.23508,1.2599,1.2799,1.29636
0.466135,0.858128,1.06877,1.19217,1.27157,1.32645,1.36646,1.39685,1.42067,1.43983
0.363143,0.839842,1.08825,1.22534,1.31014,1.36731,1.40835,1.43919,1.4632,1.48241
0.307828,0.863505,1.14031,1.28667,1.3755,1.43491,1.47739,1.50925,1.53404,1.55387
0.321359,1.07882,1.44674,1.63833,1.75448,1.83228,1.88802,1.92992,1.96256,1.9887
0.283119,1.04936,1.37955,1.54207,1.63799,1.70122,1.74603,1.77944,1.80531,1.82593
0.258713,1.13096,1.52919,1.73686,1.86455,1.95115,2.0138,2.06125,2.09844,2.12838
0.237906,1.15158,1.54116,1.73581,1.8519,1.92886,1.98355,2.0244,2.05606,2.0813
0.228206,1.27953,1.74749,1.98962,2.13758,2.23742,2.30937,2.36369,2.40616,2.44028
0.212319,1.2556,1.66914,1.8704,1.98889,2.06684,2.12198,2.16303,2.19477,2.22004
0.201055,1.28836,1.7188,1.93455,2.06471,2.15195,2.21456,2.2617,2.29848,2.32799
0.19196,1.38675,1.88703,2.14591,2.30435,2.41132,2.48838,2.54652,2.59196,2.62843
0.185442,1.36601,1.80443,2.01691,2.14176,2.22379,2.28175,2.32486,2.35817,2.38468
0.177294,1.37864,1.82812,2.05328,2.18917,2.28028,2.34568,2.39493,2.43338,2.46423
0.186729,1.63202,2.22368,2.53318,2.72377,2.85294,2.94624,3.01678,3.07198,3.11635
0.177433,1.48463,1.92752,2.13694,2.25825,2.33719,2.39261,2.43362,2.46519,2.49024
0.173085,1.50681,1.98192,2.22186,2.36777,2.46618,2.53716,2.5908,2.6328,2.66658
0.167355,1.62733,2.20997,2.51751,2.7077,2.83687,2.93028,3.00096,3.05628,3.10075
0.160507,1.55031,2.04099,2.27946,2.41934,2.511,2.57563,2.62362,2.66064,2.69006
0.155865,1.57707,2.09489,2.35643,2.51479,2.62117,2.69766,2.75533,2.80038,2.83656
0.151907,1.55053,2.03955,2.28192,2.42664,2.5228,2.59131,2.64258,2.68239,2.71419
0.146986,1.52773,2.01001,2.25146,2.39672,2.49379,2.56325,2.61543,2.65606,2.6886
0.142207,1.53492,2.03429,2.2876,2.44089,2.54364,2.61731,2.6727,2.71588,2.75047
0.139264,1.69685,2.329,2.66453,2.87223,3.01338,3.11551,3.19282,3.25338,3.3021
0.138122,1.81493,2.48155,2.81949,3.02185,3.15614,3.25163,3.32296,3.37825,3.42234
0.134225,1.70319,2.23627,2.48912,2.63622,2.73245,2.80031,2.85076,2.88974,2.92076
0.138579,1.85607,2.48028,2.79778,2.99163,3.12272,3.21741,3.28907,3.3452,3.39038
0.135569,1.86718,2.4883,2.79997,2.98727,3.11213,3.20125,3.26802,3.3199,3.36136
0.134582,2.05224,2.81067,3.20762,3.45181,3.61718,3.73659,3.82687,3.89752,3.95432
0.13305,2.03225,2.70901,3.03918,3.23343,3.36105,3.45122,3.51826,3.57005,3.61126
0.129462,2.00021,2.65246,2.97521,3.16846,3.29736,3.38955,3.45881,3.51276,3.55598
0.128,2.24541,3.10434,3.56218,3.84755,4.0426,4.18439,4.29212,4.37673,4.44496
0.126309,2.03186,2.64073,2.92441,3.08704,3.19208,3.26539,3.3194,3.36083,3.3936
0.1251,2.1454,2.87501,3.252,3.48454,3.64293,3.75799,3.84545,3.91422,3.96974
0.122228,2.27603,3.10699,3.53931,3.8037,3.98174,4.10964,4.2059,4.28093,4.34103
0.121827,2.33655,3.14971,3.5544,3.7951,3.95437,4.06745,4.15187,4.21728,4.26944
0.120684,2.42555,3.27778,3.70661,3.96486,4.13758,4.26129,4.3543,4.42678,4.48486
0.119087,2.40377,3.20363,3.59762,3.83213,3.9877,4.09845,4.1813,4.24562,4.297
0.122493,2.4073,3.16021,3.52822,3.74708,3.89234,3.99583,4.07332,4.13352,4.18164
0.120777,2.42618,3.22076,3.62388,3.86882,4.03361,4.15212,4.24146,4.31123,4.36723
0.120446,2.51473,3.3713,3.80901,4.07456,4.25268,4.38038,4.47639,4.55119,4.6111
0.11868,2.56853,3.45287,3.90088,4.17081,4.35104,4.47986,4.57651,4.65169,4.71183
0.117808,2.46068,3.23136,3.60603,3.8271,3.97292,4.07631,4.15343,4.21318,4.26083
0.116324,2.62424,3.55513,4.04127,4.34133,4.54536,4.69322,4.80535,4.89332,4.96419
0.115849,2.70642,3.65225,4.12951,4.41575,4.60607,4.7416,4.84294,4.92156,4.9843
0.11376,2.56092,3.36736,3.75757,3.9873,4.13865,4.2459,4.32588,4.38784,4.43724
0.113209,2.52147,3.31602,3.71154,3.94958,4.10891,4.22314,4.30908,4.3761,4.42983
0.111327,2.61615,3.51721,3.9839,4.26998,4.46335,4.60278,4.70806,4.79038,4.85649
0.111319,2.87425,3.95666,4.52459,4.87286,5.10778,5.2768,5.40416,5.50356,5.58327
0.110313,2.93294,3.97499,4.49258,4.79955,5.00221,5.14589,5.25301,5.33594,5.40202
0.113772,3.02402,4.03578,4.53124,4.82537,5.02037,5.15923,5.26319,5.34396,5.40853
0.112169,3.04874,4.07995,4.59688,4.90875,5.11771,5.26756,5.38032,5.46824,5.53873
0.111909,3.1033,4.15411,4.68198,4.99988,5.21228,5.36422,5.47827,5.56703,5.63806
0.110805,3.08759,4.11223,4.62313,4.92931,5.13325,5.27882,5.38795,5.47279,5.54064
0.110113,3.06858,4.07355,4.57501,4.87593,5.07663,5.22006,5.32768,5.41142,5.47843
0.108799,3.04549,4.04431,4.54543,4.84704,5.04856,5.19274,5.30101,5.3853,5.45278
0.109315,3.27506,4.44906,5.05915,5.4331,5.68577,5.86793,6.00547,6.113,6.19937
0.108275,3.33711,4.50562,5.09259,5.44376,5.67698,5.84298,5.9671,6.06339,6.14026
0.107146,3.16369,4.16076,4.64251,4.92612,5.11303,5.24553,5.34438,5.42096,5.48204
0.106044,3.18965,4.24435,4.77846,5.103,5.32156,5.47891,5.59766,5.69049,5.76505
0.105995,3.1749,4.20901,4.72657,5.03723,5.24424,5.39198,5.50269,5.58873,5.65749
0.105035,3.20159,4.27033,4.81154,5.13865,5.35774,5.51475,5.6328,5.7248,5.7985
0.107533,3.41739,4.60722,5.21577,5.58494,5.83263,6.0103,6.14394,6.2481,6.33158
0.106717,3.56616,4.8422,5.49322,5.88684,6.15028,6.33887,6.48052,6.5908,6.6791
0.106801,3.69534,5.00309,5.66,6.05389,6.31619,6.50337,6.64363,6.75266,6.83984
0.105905,3.69066,4.94399,5.56387,5.93344,6.17891,6.35383,6.48481,6.58657,6.6679
0.105441,3.82557,5.16688,5.84647,6.25812,6.53447,6.73289,6.8823,6.99888,7.09237
0.104709,3.85847,5.18153,5.84221,6.23804,6.50154,6.6895,6.83031,6.93972,7.02717
0.105187,3.45385,4.43902,4.90212,5.17144,5.34763,5.47189,5.56425,5.63559,5.69237
0.103865,3.7562,5.0985,5.81961,6.27422,6.58803,6.81797,6.99382,7.13271,7.24519
0.103381,3.72748,4.98074,5.6067,5.97885,6.22443,6.39822,6.52751,6.62737,6.70677
0.102605,3.76195,5.03505,5.67526,6.06026,6.31741,6.50144,6.6397,6.7474,6.8337
0.103095,3.93875,5.32095,6.02532,6.45215,6.73852,6.94397,7.09856,7.21909,7.3157
0.101881,3.92334,5.25629,5.92033,6.31707,6.58067,6.76846,6.90901,7.01813,7.10531
0.104048,3.89219,5.13576,5.74523,6.1074,6.34753,6.51848,6.6464,6.74573,6.82509
0.104027,4.12979,5.58841,6.34492,6.80979,7.12482,7.35253,7.52483,7.65979,7.76836
0.103456,4.13653,5.54373,6.24641,6.66592,6.94416,7.142,7.2898,7.40438,7.49579
0.102894,4.22212,5.67763,6.41149,6.85384,7.14972,7.36163,7.5209,7.64501,7.74444
0.102244,4.31644,5.81713,6.57433,7.03063,7.33561,7.55383,7.71769,7.84525,7.94736
0.102124,4.35872,5.84316,6.58402,7.02776,7.32322,7.53405,7.69207,7.81489,7.91311
0.101736,4.23919,5.60666,6.27891,6.67904,6.94458,7.13369,7.27524,7.38518,7.47302
0.102113,4.37038,5.85359,6.60898,7.06836,7.37757,7.6,7.76773,7.89873,8.0039
0.101073,4.23372,5.60237,6.28001,6.6839,6.9518,7.14239,7.28488,7.39542,7.48365
0.100398,4.21526,5.59951,6.29637,6.71684,6.99836,7.20012,7.35184,7.47011,7.56489
0.100748,4.34263,5.82384,6.57897,7.03683,7.34403,7.56439,7.73015,7.85937,7.96292
0.0997764,4.2245,5.59909,6.28013,6.68583,6.95486,7.14626,7.28935,7.40038,7.48902
0.10188,4.22772,5.57725,6.24804,6.64993,6.91783,7.10926,7.2529,7.36469,7.45416
0.101468,4.46903,6.04897,6.87163,7.37719,7.71953,7.96675,8.15367,8.29996,8.41757
0.101438,4.55783,6.13896,6.9349,7.41162,7.7284,7.95392,8.12257,8.2534,8.35783
0.100907,4.73284,6.41715,7.2723,7.7889,8.13481,8.38269,8.56906,8.71432,8.83072
0.100988,4.36805,5.69403,6.32413,6.69158,6.93218,7.10191,7.22806,7.3255,7.40302
0.100798,4.58265,6.15597,6.97187,7.47525,7.8178,8.06629,8.25492,8.40303,8.52245
0.100081,4.7239,6.38652,7.2367,7.75124,8.0954,8.34147,8.52603,8.66951,8.78421
0.0995983,4.73117,6.34108,7.14311,7.62168,7.93931,8.16543,8.33459,8.46591,8.5708
0.0992783,4.91293,6.64674,7.52836,8.06248,8.42098,8.67835,8.87214,9.02333,9.1446
0.0986799,4.61154,6.05407,6.7493,7.15774,7.42634,7.61636,7.75785,7.86729,7.95446
0.0987987,4.97837,6.76845,7.70687,8.28814,8.68443,8.9722,9.19077,9.36248,9.50096
0.0983743,5.08497,6.87635,7.77926,8.32031,8.67972,8.93545,9.12655,9.2747,9.39288
0.0974329,5.11262,6.87655,7.75654,8.28304,8.63342,8.88343,9.07082,9.21653,9.33308
