0.857712,0.937044,0.966853,0.98248,0.992101,0.998621,1.00333,1.00689,1.00968,1.01192
0.462821,0.662946,0.762755,0.822299,0.861813,0.889939,0.910976,0.927303,0.940341,0.950994
0.361888,0.682439,0.8582,0.963793,1.03325,1.08213,1.1183,1.1461,1.16812,1.18598
0.293224,0.691486,0.907859,1.03162,1.11005,1.16382,1.20285,1.23244,1.25562,1.27426
0.254115,0.721746,0.965935,1.09974,1.18271,1.23895,1.27953,1.31018,1.33415,1.35339
0.236424,0.790388,1.06924,1.21861,1.31064,1.37291,1.41785,1.45179,1.47834,1.49967
0.220919,0.849515,1.15642,1.31957,1.42022,1.48849,1.53784,1.57518,1.60442,1.62794
0.552128,2.43537,3.34072,3.82057,4.11655,4.31724,4.46226,4.57193,4.65778,4.7268
0.191181,0.931358,1.26791,1.44221,1.54846,1.61996,1.67135,1.71008,1.7403,1.76454
0.18361,0.989962,1.3517,1.54074,1.65696,1.73567,1.79254,1.83555,1.86922,1.8963
0.176695,1.02547,1.39039,1.57865,1.69348,1.77083,1.82646,1.8684,1.90114,1.92741
0.169892,1.10716,1.52966,1.75536,1.89596,1.992,2.06178,2.11478,2.15641,2.18997
0.172575,1.22046,1.67915,1.91854,2.06507,2.16385,2.23492,2.28847,2.33027,2.3638
0.160221,1.16501,1.56829,1.77176,1.89432,1.97624,2.03486,2.0789,2.11318,2.14064
0.158634,1.25685,1.72444,1.97336,2.12869,2.23505,2.3125,2.37144,2.4178,2.45524
0.154419,1.28294,1.74759,1.98896,2.13653,2.23596,2.30746,2.36133,2.40335,2.43705
0.148648,1.2958,1.76351,2.00708,2.15654,2.25764,2.33059,2.38572,2.42885,2.46353
0.145652,1.39762,1.93932,2.22965,2.41063,2.53423,2.624,2.69216,2.74567,2.7888
0.144341,1.5259,2.13707,2.4627,2.6641,2.80077,2.89951,2.97417,3.03259,3.07954
0.178958,2.00697,2.78037,3.17993,3.42295,3.5862,3.70339,3.7916,3.86039,3.91554
0.140792,1.61272,2.19531,2.49074,2.66952,2.78944,2.8755,2.94029,2.99083,3.03137
0.140586,1.69926,2.32955,2.65886,2.86207,3.00017,3.10019,3.17598,3.23541,3.28326
0.295626,3.80942,5.26558,6.03484,6.51072,6.83407,7.06804,7.24515,7.38388,7.49546
0.135643,1.84037,2.54398,2.91326,3.14046,3.29424,3.40522,3.48908,3.55466,3.60736
0.13494,1.89727,2.60876,2.97874,3.20539,3.35847,3.4688,3.55211,3.61723,3.66954
0.132672,1.87186,2.53606,2.87497,3.08067,3.21884,3.31806,3.39278,3.45106,3.49781
0.127827,1.83876,2.49175,2.82978,3.03708,3.17733,3.27858,3.35513,3.41503,3.46319
0.129968,1.88581,2.54573,2.88639,3.09461,3.23505,3.33618,3.41246,3.47206,3.5199
0.128168,2.00425,2.77196,3.1848,3.4429,3.61955,3.74806,3.84575,3.92253,3.98445
0.303351,4.87683,6.69274,7.63788,8.21498,8.60333,8.8823,9.09231,9.25609,9.38736
0.125553,2.07927,2.85705,3.26541,3.51719,3.68808,3.81171,3.90532,3.97869,4.03774
0.127393,2.14818,2.93439,3.34227,3.59182,3.76022,3.88149,3.97299,4.04448,4.10187
0.124293,2.18106,2.99561,3.42304,3.68649,3.86517,3.99435,4.0921,4.16865,4.23022
0.123958,2.28341,3.15387,3.61223,3.89485,4.08646,4.2249,4.32959,4.41153,4.4774
0.126602,2.42185,3.33863,3.81654,4.10934,4.30704,4.44946,4.55693,4.64092,4.70835
0.275592,5.33734,7.30192,8.31871,8.94066,9.36055,9.66315,9.89161,10.0702,10.2137
0.121135,2.36045,3.21857,3.66539,3.94012,4.12627,4.26078,4.36254,4.44221,4.50628
0.119448,2.34755,3.19468,3.63584,3.90674,4.09004,4.2223,4.32223,4.4004,4.46321
0.118758,2.49543,3.46877,3.99285,4.32053,4.54478,4.7079,4.83187,4.92928,5.00784
0.951761,20.4941,28.1907,32.1744,34.5974,36.2235,37.3894,38.2659,38.9486,39.4953
0.11711,2.61809,3.6164,4.14069,4.46405,4.68358,4.84246,4.96282,5.05715,5.1331
0.20993,4.73617,6.4704,7.36173,7.90404,8.26867,8.53059,8.72781,8.88167,9.00504
0.11598,2.67452,3.66957,4.19197,4.51479,4.73429,4.89331,5.01386,5.10839,5.18453
0.114787,2.77951,3.8515,4.42028,4.77269,5.01235,5.18585,5.31725,5.4202,5.50304
0.115892,2.93262,4.07784,4.68341,5.0573,5.31095,5.49426,5.63292,5.74146,5.82873
0.112511,2.97168,4.14137,4.75956,5.14141,5.40064,5.58814,5.73007,5.84124,5.93067
0.112373,3.03637,4.19336,4.79252,5.1583,5.40472,5.58199,5.71562,5.81996,5.90369
0.115435,3.09352,4.22039,4.79993,5.15375,5.39245,5.56443,5.69426,5.79576,5.87731
0.112766,3.16009,4.37693,5.02593,5.43066,5.70743,5.9087,6.06168,6.18189,6.27884
0.11298,3.21127,4.41637,5.04406,5.4283,5.68743,5.87387,6.01441,6.12412,6.21212
0.112402,3.26483,4.49135,5.1326,5.52691,5.79396,5.98684,6.1327,6.24688,6.33869
0.113057,3.31538,4.54678,5.18923,5.58395,5.85113,6.044,6.18978,6.30384,6.39552
0.109878,3.23437,4.41213,5.02185,5.39471,5.64628,5.82746,5.96417,6.07099,6.15675
0.113397,3.24107,4.37626,4.96159,5.31954,5.56125,5.73549,5.86707,5.96996,6.05262
0.112404,3.29137,4.50595,5.15148,5.55291,5.82682,6.02568,6.17663,6.29513,6.39062
0.112195,3.39543,4.68591,5.37179,5.79641,6.08486,6.29349,6.45134,6.57494,6.67432
0.111075,3.44273,4.74077,5.41901,5.8344,6.11466,6.31643,6.46862,6.58748,6.68289
0.110355,3.49197,4.79951,5.47981,5.89649,6.17794,6.38082,6.53402,6.65381,6.75004
0.119995,3.72362,5.06254,5.7542,6.17732,6.4631,6.66913,6.82475,6.94644,7.04422
0.110058,3.53733,4.87549,5.58705,6.02953,6.33144,6.55062,6.717,6.8476,6.95284
0.109616,3.63399,5.03523,5.7797,6.2408,6.5542,6.78098,6.95266,7.08712,7.19528
0.108539,3.70683,5.12776,5.87153,6.32768,6.63574,6.85767,7.02513,7.15598,7.26104
0.108655,3.71334,5.08608,5.79473,6.22718,6.51865,6.72845,6.88671,7.01036,7.10963
0.222484,7.58852,10.3295,11.7414,12.6035,13.185,13.6038,13.9198,14.1668,14.3651
0.107879,3.74698,5.13774,5.87009,6.32325,6.63153,6.8549,7.02421,7.15698,7.26388
0.107956,3.81442,5.23877,5.98649,6.44688,6.75869,6.98379,7.15389,7.28696,7.39388
0.106257,3.85065,5.30322,6.06541,6.53438,6.85191,7.08114,7.25439,7.38993,7.49887
0.106206,3.99316,5.53458,6.34897,6.85213,7.19378,7.44094,7.62803,7.77459,7.8925
0.189729,7.23372,9.95453,11.3651,12.2265,12.8069,13.2244,13.5391,13.7848,13.982
0.106847,4.01226,5.47687,6.23713,6.70379,7.01975,7.24797,7.42059,7.55575,7.66445
0.107268,4.03669,5.50823,6.27553,6.74724,7.06667,7.29732,7.47169,7.60814,7.71781
0.105739,3.62801,4.78599,5.36017,5.7033,5.93148,6.09417,6.21602,6.31069,6.38637
0.105479,3.85899,5.30802,6.09859,6.59958,6.94617,7.20042,7.39498,7.5487,7.67323
0.105063,4.01385,5.56266,6.38763,6.89687,7.24146,7.48975,7.67699,7.82316,7.94039
0.106575,4.24638,5.90001,6.76987,7.30381,7.66452,7.92446,8.12069,8.27406,8.39724
0.104973,4.19972,5.77176,6.58321,7.07779,7.41084,7.65043,7.83109,7.97218,8.08544
0.105851,4.3697,6.04066,6.9186,7.46066,7.82894,8.09555,8.29754,8.45586,8.58331
0.106483,4.48109,6.17902,7.06447,7.60776,7.975,8.23977,8.43969,8.59597,8.72148
0.105434,4.35293,5.91565,6.71498,7.20073,7.52723,7.76179,7.93846,8.07632,8.1869
0.18738,7.88744,10.8013,12.3284,13.271,13.9113,14.3748,14.726,15.0012,15.2228
0.104982,4.51722,6.24288,7.16324,7.73609,8.12704,8.41084,8.62624,8.7953,8.93151
0.104679,4.67948,6.50387,7.47139,8.06922,8.47478,8.7678,8.98937,9.16274,9.30208
0.104052,4.65241,6.39554,7.29865,7.84996,8.22136,8.48855,8.68999,8.84729,8.97353
0.102358,4.47487,6.06724,6.88051,7.37458,7.70675,7.94546,8.12534,8.26575,8.37841
0.103436,4.68292,6.45576,7.39886,7.98624,8.38767,8.6795,8.90126,9.07551,9.21605
0.103171,4.73659,6.52171,7.4586,8.03473,8.42443,8.70544,8.91758,9.08339,9.21653
0.104419,4.96066,6.8778,7.89203,8.51906,8.945,9.25322,9.4866,9.66945,9.81659
0.102893,4.98187,6.88042,7.87056,8.4772,8.88675,9.18178,9.40441,9.57836,9.71801
0.102398,5.0617,6.99586,8.00961,8.63393,9.05723,9.3632,9.59472,9.77602,9.92186
0.104065,5.15339,7.07363,8.06987,8.67979,9.09162,9.38839,9.61239,9.78748,9.92808
0.104966,4.96109,6.67291,7.53975,8.06414,8.41569,8.66782,8.85749,9.00537,9.1239
0.103234,5.07728,6.99287,8.01946,8.66221,9.10308,9.42444,9.66916,9.86175,10.0173
0.102603,5.13369,7.06536,8.079,8.70131,9.12151,9.42403,9.65212,9.83018,9.97302
0.163068,8.36508,11.5335,13.191,14.2082,14.8959,15.3918,15.7663,16.0592,16.2946
0.1041,5.34654,7.33317,8.3658,8.99855,9.42611,9.73442,9.96729,10.1494,10.2957
0.102324,5.30127,7.27255,8.30194,8.9349,9.36361,9.67325,9.90739,10.0906,10.238
0.103187,5.37965,7.3717,8.41052,9.04838,9.47987,9.79118,10.0264,10.2103,10.3581
0.103933,5.43197,7.44019,8.49028,9.13636,9.57406,9.89022,10.1293,10.3164,10.4669
0.157119,8.7095,12.1497,13.9922,15.1394,15.9221,16.4902,16.9212,17.2594,17.5319
0.155505,8.46542,11.576,13.1695,14.1352,14.7822,15.2458,15.5943,15.8656,16.083
