0.082043,0.107776,0.12036,0.127822,0.132761,0.136271,0.138894,0.140928,0.142552,0.143879
0.0547603,0.0956531,0.119966,0.135741,0.146741,0.154831,0.161024,0.165915,0.169874,0.173143
0.0426043,0.0948509,0.127521,0.148471,0.162812,0.173182,0.181007,0.187114,0.192008,0.196016
0.0484243,0.133404,0.187051,0.220628,0.243212,0.259357,0.27145,0.280837,0.288332,0.294453
0.0341289,0.11423,0.164709,0.195725,0.216395,0.231106,0.242097,0.250618,0.257415,0.262964
0.0337353,0.132323,0.192477,0.228531,0.252297,0.269111,0.28163,0.291311,0.299021,0.305305
0.0287173,0.130405,0.191395,0.227766,0.251775,0.2688,0.281501,0.291339,0.299184,0.305587
0.0255341,0.13048,0.191196,0.226893,0.250311,0.266851,0.279153,0.288662,0.296231,0.3024
0.0259789,0.149739,0.2215,0.264289,0.292679,0.312897,0.328028,0.33978,0.34917,0.356846
0.025927,0.168341,0.250748,0.29982,0.33229,0.355347,0.372559,0.385897,0.396535,0.405217
0.0318395,0.225702,0.333758,0.396969,0.438378,0.467597,0.489316,0.506094,0.519445,0.530322
0.0293243,0.22057,0.321039,0.37841,0.415508,0.441472,0.460662,0.475424,0.487133,0.496648
0.0299427,0.243403,0.355718,0.420853,0.463453,0.493509,0.515858,0.533128,0.546877,0.55808
0.0268001,0.239779,0.356271,0.425765,0.471964,0.504901,0.52957,0.548735,0.564054,0.576579
0.0250624,0.242948,0.361662,0.431872,0.478154,0.51093,0.535349,0.554241,0.56929,0.58156
0.0253208,0.265376,0.395586,0.472317,0.522818,0.558562,0.585192,0.605799,0.622219,0.63561
0.0291172,0.321364,0.474341,0.563013,0.620855,0.661565,0.691776,0.715086,0.733618,0.748704
0.0253975,0.296958,0.43888,0.521953,0.576579,0.615256,0.644088,0.666411,0.684209,0.69873
0.0353386,0.443987,0.662481,0.792452,0.878677,0.940063,0.985988,1.02164,1.05012,1.07339
0.0534801,0.706951,1.04892,1.24909,1.38032,1.47294,1.54179,1.59497,1.63728,1.67174
0.0502382,0.535688,0.707818,0.792244,0.842387,0.87561,0.899242,0.916915,0.93063,0.941584
0.0469806,0.599675,0.889554,1.07522,1.20626,1.30416,1.38022,1.44106,1.49088,1.53242
0.0435381,0.607131,0.913392,1.10046,1.22514,1.31362,1.37945,1.43025,1.47058,1.50335
0.0426215,0.629536,0.940889,1.12428,1.24418,1.32854,1.3911,1.43935,1.47769,1.5089
0.0419395,0.648789,0.963039,1.14589,1.26527,1.34939,1.41187,1.46013,1.49854,1.52983
0.0433886,0.702702,1.04361,1.24374,1.37555,1.469,1.53873,1.59277,1.63588,1.67107
0.0409025,0.701201,1.04632,1.25021,1.38485,1.48038,1.55168,1.60692,1.65098,1.68694
0.0409618,0.726111,1.0749,1.27791,1.41068,1.50427,1.57379,1.62746,1.67015,1.70491
0.0396937,0.723332,1.06638,1.26617,1.39713,1.48964,1.55849,1.61173,1.65413,1.68871
0.0440238,0.819126,1.2036,1.42779,1.57486,1.67882,1.7562,1.81604,1.86371,1.90257
0.0415209,0.822948,1.23429,1.48307,1.64995,1.76968,1.85976,1.93,1.9863,2.03244
0.0413678,0.861189,1.28752,1.53872,1.70361,1.81995,1.90637,1.97306,2.02608,2.06924
0.0404418,0.880973,1.31582,1.57139,1.73941,1.8583,1.94687,2.01543,2.07007,2.11464
0.0425194,0.960603,1.43211,1.70942,1.89212,2.02162,2.11823,2.19306,2.25275,2.30146
0.0434826,1.01741,1.5141,1.80574,1.99764,2.13352,2.23478,2.31315,2.37561,2.42656
0.0380889,0.90741,1.34141,1.59467,1.76079,1.87819,1.96556,2.03313,2.08694,2.13081
0.0394582,0.982036,1.46254,1.74684,1.93484,2.0684,2.16817,2.24555,2.3073,2.35772
0.0377373,0.955801,1.41255,1.67885,1.8532,1.97618,2.06757,2.13815,2.1943,2.24004
0.0390536,0.999967,1.4713,1.74616,1.92647,2.05391,2.14879,2.22218,2.28065,2.32832
0.0375716,0.979085,1.44116,1.71172,1.88956,2.0154,2.10913,2.18166,2.23945,2.28658
0.03899,1.0589,1.57331,1.8781,2.07963,2.22272,2.32956,2.41237,2.47844,2.53237
0.0373537,1.03881,1.53872,1.83175,2.02405,2.15988,2.26091,2.339,2.40115,2.4518
0.042869,1.21727,1.80195,2.1454,2.37146,2.53159,2.65097,2.74341,2.81712,2.87726
0.0353784,1.02838,1.51947,1.80627,1.99421,2.12686,2.22549,2.30168,2.36232,2.41172
0.0358135,1.06512,1.57984,1.8843,2.08574,2.22895,2.33602,2.4191,2.48545,2.53966
0.0330579,0.975359,1.42452,1.68274,1.85033,1.96784,2.05479,2.12172,2.17483,2.21799
0.0329881,0.986463,1.45004,1.72291,1.90315,2.03121,2.12691,2.20117,2.26047,2.30892
0.0340268,1.04702,1.55068,1.84926,2.04674,2.18696,2.29165,2.37278,2.43749,2.4903
0.0328486,1.04257,1.55187,1.85434,2.05442,2.19652,2.30262,2.38486,2.45048,2.50405
0.0333604,1.0498,1.54031,1.82457,2.00997,2.14042,2.23721,2.31187,2.37122,2.41953
0.0328738,1.04524,1.53661,1.82462,2.01417,2.14847,2.24862,2.3262,2.38807,2.43856
0.0348925,1.15315,1.71371,2.0465,2.26677,2.42327,2.54017,2.6308,2.70311,2.76215
0.0404871,1.32102,1.93628,2.29345,2.52673,2.69104,2.81304,2.90719,2.98207,3.04304
0.0334764,1.12342,1.65755,1.97094,2.177,2.32281,2.43142,2.51546,2.58242,2.63703
0.0324042,1.12387,1.6657,1.98398,2.19314,2.34102,2.4511,2.5362,2.60397,2.65921
0.0351262,1.28444,1.92525,2.30615,2.55822,2.73729,2.87105,2.97475,3.0575,3.12507
0.0337659,1.27566,1.90712,2.27846,2.52253,2.69513,2.82362,2.92299,3.00213,3.06664
0.0325867,1.25812,1.87196,2.23102,2.4667,2.6333,2.75734,2.85329,2.92972,2.99204
0.0327005,1.27548,1.88836,2.24662,2.482,2.64855,2.77265,2.86869,2.94524,3.00767
0.0313159,1.24262,1.84077,2.19224,2.42381,2.58794,2.71034,2.80514,2.88073,2.94241
0.0352779,1.43478,2.12968,2.53845,2.8076,2.99819,3.1402,3.25011,3.3377,3.40912
0.0297759,1.22635,1.81512,2.16016,2.38688,2.54724,2.66666,2.75904,2.83264,2.89265
0.0306011,1.25194,1.83826,2.17936,2.40273,2.56042,2.67769,2.76833,2.84049,2.89929
0.028653,1.16489,1.7067,2.0234,2.23155,2.37886,2.48864,2.57361,2.64133,2.69657
0.0362589,1.48497,2.18641,2.60079,2.87466,3.06913,3.21437,3.32697,3.41681,3.49016
0.0287692,1.2109,1.79937,2.14993,2.38234,2.54763,2.67118,2.76701,2.8435,2.90597
0.0307441,1.30337,1.92608,2.29096,2.53024,2.69915,2.82473,2.92176,2.99897,3.06187
0.0342189,1.46595,2.16461,2.57422,2.84342,3.03388,3.17576,3.28556,3.37306,3.44442
0.0320448,1.4462,2.1684,2.59989,2.88646,3.09055,3.24326,3.36181,3.45651,3.53389
0.0302135,1.40743,2.10634,2.51832,2.7893,2.98095,3.12361,3.23393,3.32177,3.39337
0.0321044,1.53922,2.30054,2.74817,3.04269,3.2512,3.4066,3.52689,3.62278,3.701
0.0303914,1.47836,2.19872,2.62071,2.89812,3.09446,3.24076,3.354,3.44425,3.51787
0.0316987,1.54655,2.28415,2.7138,2.99541,3.19432,3.34231,3.45673,3.54784,3.6221
0.030221,1.48802,2.19859,2.61553,2.89014,3.08474,3.22988,3.34229,3.43193,3.50507
0.0315534,1.59086,2.3655,2.82467,3.12859,3.34459,3.50598,3.63115,3.73105,3.81264
0.0299615,1.53627,2.28601,2.72967,3.02274,3.23072,3.38596,3.50624,3.60219,3.6805
0.0305268,1.56557,2.30918,2.74198,3.02497,3.22442,3.37256,3.48693,3.57789,3.65196
0.0303414,1.57213,2.32651,2.77153,3.06558,3.27446,3.43054,3.55162,3.64828,3.72725
0.0297334,1.54493,2.28215,2.71589,3.00167,3.20415,3.35511,3.47199,3.56515,3.64115
0.0302432,1.61398,2.40068,2.86687,3.17506,3.39386,3.55721,3.68381,3.7848,3.86724
0.0299543,1.61326,2.39429,2.85474,3.15822,3.37329,3.53367,3.65787,3.75689,3.83768
0.0333805,1.82267,2.70717,3.22947,3.57422,3.81883,4.0014,4.14288,4.25574,4.34786
0.0294955,1.63756,2.43411,2.9042,3.21428,3.43414,3.59814,3.72517,3.82646,3.90911
0.031142,1.76589,2.63264,3.14625,3.48594,3.72726,3.90753,4.04731,4.15888,4.24998
0.0301354,1.68659,2.48227,2.94468,3.24701,3.46013,3.61846,3.74072,3.83798,3.9172
0.0319704,1.81379,2.6877,3.20546,3.54854,3.79273,3.97544,4.11731,4.23067,4.32332
0.0288398,1.68924,2.52501,3.02361,3.35445,3.58987,3.76589,3.90246,4.01148,4.10052
0.0290711,1.71413,2.54282,3.02807,3.34622,3.57081,3.73778,3.86678,3.96944,4.05307
0.0293805,1.73201,2.55939,3.04429,3.36324,3.58913,3.75755,3.88797,3.99197,4.07683
0.029895,1.757,2.59175,3.08254,3.40613,3.63561,3.80685,3.93954,4.04536,4.13175
0.029699,1.77501,2.63031,3.13553,3.469,3.70551,3.88196,4.01863,4.12761,4.21653
0.0294176,1.79642,2.67525,3.19679,3.54186,3.78701,3.97013,4.11212,4.22543,4.31796
0.0351512,2.18499,3.25378,3.88496,4.30113,4.59608,4.81601,4.9863,5.12206,5.23281
0.0260078,1.564,2.30195,2.73626,3.02317,3.22705,3.37948,3.49777,3.59226,3.66947
0.027346,1.65956,2.45403,2.92441,3.23551,3.45646,3.62147,3.74937,3.85142,3.93471
0.0262939,1.6215,2.40658,2.87141,3.1784,3.39617,3.55864,3.6845,3.78485,3.86675
0.0270679,1.6715,2.47297,2.94462,3.25517,3.4751,3.63904,3.76595,3.86711,3.94963
0.0260067,1.60226,2.36237,2.80793,3.10078,3.30797,3.46231,3.58173,3.67689,3.75449
0.030013,1.91184,2.85341,3.41506,3.78799,4.05361,4.2524,4.40675,4.53006,4.63084
0.0296815,1.82302,2.66352,3.14828,3.46368,3.68528,3.84951,3.9761,4.07666,4.15847
