0.424082,0.521813,0.565233,0.58977,0.605542,0.616534,0.624633,0.630848,0.635769,0.639761
0.167611,0.290181,0.364537,0.413658,0.448384,0.474194,0.494117,0.509954,0.522843,0.533536
0.132028,0.29612,0.39906,0.464573,0.508999,0.540847,0.564702,0.583198,0.597941,0.609958
0.111956,0.316422,0.446791,0.527966,0.582244,0.620866,0.649692,0.672011,0.689795,0.704297
0.136735,0.463475,0.663127,0.782004,0.859563,0.913956,0.95417,0.985098,1.00962,1.02953
0.120741,0.441874,0.610274,0.702715,0.760648,0.800328,0.829208,0.851172,0.86844,0.882374
0.143,0.628208,0.909265,1.07741,1.1894,1.26945,1.32957,1.37639,1.4139,1.44463
0.104297,0.531675,0.779052,0.924629,1.01983,1.08677,1.13635,1.17452,1.2048,1.2294
0.100623,0.58237,0.855182,1.01334,1.11601,1.18796,1.24117,1.28212,1.3146,1.341
0.0936357,0.59728,0.870147,1.02549,1.12554,1.19537,1.24687,1.28643,1.31777,1.34321
0.109849,0.781352,1.14789,1.36038,1.49916,1.59697,1.66965,1.72577,1.77043,1.80681
0.0850444,0.658558,0.963407,1.13817,1.25137,1.33065,1.38925,1.43433,1.47008,1.49913
0.0841137,0.705854,1.03289,1.22108,1.34344,1.42938,1.49307,1.54217,1.58117,1.6129
0.102506,0.919944,1.34483,1.59007,1.74989,1.86233,1.94575,2.01011,2.06127,2.10291
0.0777728,0.749525,1.09772,1.299,1.43015,1.52236,1.59073,1.64344,1.68532,1.71939
0.0773317,0.79716,1.1676,1.38112,1.51992,1.61735,1.6895,1.74508,1.78921,1.8251
0.08244,0.894604,1.30361,1.53758,1.68905,1.79514,1.87357,1.93393,1.98181,2.02072
0.0992998,1.05182,1.48042,1.71419,1.86157,1.96302,2.03714,2.09367,2.1382,2.17419
0.0784315,0.913316,1.33343,1.58119,1.74532,1.86221,1.94973,2.01773,2.0721,2.11656
0.0776544,0.978663,1.44371,1.71604,1.89418,2.01953,2.11245,2.18403,2.24085,2.28704
0.0939144,1.24067,1.81936,2.15243,2.36833,2.51956,2.63139,2.71744,2.78571,2.8412
0.0748746,1.04863,1.54122,1.82557,2.01057,2.14056,2.23692,2.3112,2.37022,2.41825
0.0744827,1.09606,1.60694,1.90008,2.09012,2.22331,2.32183,2.39767,2.45784,2.50675
0.0727817,1.11837,1.63681,1.93444,2.12766,2.26326,2.36368,2.44104,2.50247,2.55244
0.0815258,1.30319,1.90315,2.2469,2.46977,2.62601,2.74161,2.8306,2.90122,2.95863
0.0712056,1.19499,1.75209,2.07374,2.28325,2.43057,2.53982,2.62406,2.691,2.74547
0.0699736,1.21551,1.77546,2.09632,2.30421,2.44985,2.55755,2.64042,2.70616,2.75958
0.0777775,1.3943,2.03693,2.40741,2.64869,2.8184,2.94429,3.0414,3.11859,3.18143
0.0699604,1.28968,1.88522,2.23015,2.45539,2.61405,2.73187,2.82282,2.89514,2.95403
0.0695727,1.31968,1.93108,2.28595,2.51781,2.68117,2.80247,2.8961,2.97056,3.03119
0.069698,1.37421,2.0168,2.38981,2.63326,2.80459,2.9317,3.02974,3.10766,3.17107
0.0687069,1.40592,2.0618,2.4399,2.68551,2.85782,2.98537,3.08358,3.16154,3.22492
0.0696652,1.475,2.16057,2.55475,2.81064,2.99015,3.12305,3.22541,3.30667,3.37275
0.0671977,1.45699,2.13053,2.51873,2.77146,2.94918,3.08098,3.18264,3.26344,3.32921
0.0747594,1.67808,2.45848,2.90894,3.20215,3.4082,3.5609,3.67859,3.77207,3.84811
0.0665352,1.53724,2.24887,2.65802,2.92365,3.10998,3.2479,3.35411,3.43841,3.50695
0.0653593,1.54699,2.25916,2.66818,2.93371,3.12001,3.25796,3.36422,3.44859,3.51719
0.0724298,1.76898,2.59013,3.06423,3.373,3.59011,3.75109,3.87523,3.97386,4.05413
0.064742,1.63103,2.39123,2.8303,3.11615,3.31704,3.46594,3.58071,3.67188,3.74604
0.0643135,1.67219,2.45329,2.90401,3.19724,3.4032,3.55581,3.67342,3.76682,3.8428
0.0644654,1.6624,2.39907,2.81383,3.0799,3.2651,3.40145,3.50603,3.58878,3.6559
0.0643829,1.70815,2.49814,2.9599,3.26383,3.47929,3.64007,3.76467,3.86409,3.94526
0.0640772,1.75109,2.56519,3.03651,3.34332,3.55873,3.7182,3.84097,3.93839,4.01756
0.0643276,1.81252,2.65784,3.14559,3.46258,3.68505,3.84978,3.97667,4.07741,4.15933
0.0703642,2.00787,2.92947,3.45793,3.80062,4.04091,4.21874,4.35569,4.46439,4.55278
0.0635726,1.86595,2.73187,3.2319,3.5576,3.78664,3.9565,4.08749,4.19159,4.2763
0.0679703,2.03634,2.98714,3.53949,3.90071,4.15543,4.3447,4.49089,4.6072,4.70195
0.074933,2.29717,3.37305,3.99757,4.40538,4.69253,4.90566,5.0701,5.20082,5.30724
0.0652698,2.03605,2.98641,3.53712,3.89645,4.1494,4.33712,4.48196,4.59711,4.69085
0.0625073,1.96513,2.85857,3.36764,3.69621,3.92576,4.09517,4.22533,4.32846,4.41219
0.0611376,1.97046,2.88491,3.41526,3.762,4.00654,4.18832,4.32877,4.44055,4.53164
0.0608375,2.00333,2.939,3.48232,3.83724,4.08724,4.27282,4.41603,4.52988,4.62257
0.0611782,2.07695,3.05553,3.62319,3.99341,4.25383,4.44696,4.59588,4.7142,4.81048
0.0606551,2.07214,3.03393,3.58973,3.952,4.20692,4.39607,4.54201,4.65805,4.75251
0.0684416,2.36427,3.45249,4.079,4.48629,4.77229,4.98416,5.14742,5.27707,5.38251
0.0606109,2.13215,3.11733,3.68593,4.05613,4.31634,4.50925,4.65797,4.77613,4.87228
0.0605474,2.19621,3.23494,3.84167,4.23954,4.52056,4.72961,4.8912,5.01985,5.1247
0.0681118,2.48642,3.63244,4.28973,4.71551,5.01365,5.23403,5.40355,5.53799,5.64721
0.062262,2.27974,3.3191,3.91594,4.30372,4.57605,4.77786,4.93343,5.05703,5.15759
0.0601377,2.27932,3.35736,3.98895,4.40409,4.6978,4.91655,5.0858,5.22063,5.33057
0.0673817,2.61365,3.84241,4.55275,5.01466,5.33879,5.57871,5.76342,5.91,6.02915
0.059635,2.35285,3.44865,4.07887,4.48803,4.7751,4.98765,5.15137,5.28137,5.38709
0.0594644,2.3712,3.47007,4.10397,4.51691,4.80741,5.02293,5.1892,5.32139,5.42899
0.05969,2.42124,3.55211,4.20865,4.63787,4.94044,5.16522,5.3388,5.47687,5.58933
0.0602597,2.44621,3.56732,4.21183,4.63039,4.92408,5.14151,5.30897,5.44191,5.55
0.0608798,2.5172,3.68757,4.36701,4.81109,5.12411,5.35665,5.53621,5.67906,5.7954
0.0611781,2.57807,3.78172,4.4791,4.93378,5.25358,5.49073,5.67358,5.81886,5.93707
0.0583972,2.48674,3.65032,4.32748,4.77074,5.08352,5.31607,5.49577,5.6388,5.75535
0.0591695,2.58486,3.799,4.50134,4.95844,5.27945,5.51722,5.70038,5.84578,5.96402
0.0607092,2.71411,3.99998,4.74803,5.23729,5.58232,5.83872,6.03678,6.19437,6.32276
0.0655792,2.98416,4.39397,5.21197,5.74602,6.12208,6.40122,6.61663,6.78789,6.92731
0.0579247,2.64571,3.87639,4.587,5.04997,5.3756,5.61715,5.80346,5.95154,6.07207
0.0586151,2.74624,4.04111,4.79328,5.28478,5.63108,5.88823,6.08672,6.24457,6.37309
0.06574,3.10659,4.55524,5.39199,5.93691,6.32001,6.60404,6.82303,6.99703,7.13862
0.0581117,2.77497,4.05788,4.7955,5.27451,5.61062,5.85948,6.05115,6.20332,6.32706
0.0630529,3.04932,4.46072,5.27469,5.80456,6.17704,6.45321,6.66615,6.83536,6.97304
0.0637633,3.12426,4.56807,5.39934,5.93962,6.31891,6.59982,6.81623,6.98806,7.1278
0.0580388,2.83272,4.12857,4.87576,5.36252,5.70495,5.95901,6.15502,6.31084,6.43769
0.0574235,2.83483,4.14319,4.90097,5.39543,5.74349,6.00176,6.20102,6.3594,6.48832
0.0576334,2.87683,4.20523,4.97232,5.47151,5.82217,6.08199,6.2822,6.4412,6.57053
0.0577415,2.92685,4.29214,5.08488,5.60278,5.96767,6.23865,6.44784,6.61422,6.7497
0.0593885,3.04018,4.43769,5.23777,5.75531,6.11734,6.38473,6.59029,6.75322,6.88554
0.0567188,2.99006,4.40076,5.22137,5.75827,6.13701,6.41855,6.63608,6.8092,6.95027
0.0593176,3.16176,4.64341,5.50102,6.06012,6.45341,6.74511,6.97007,7.14884,7.29432
0.0572537,3.08122,4.51043,5.33256,5.8665,6.24116,6.51855,6.73221,6.90182,7.03975
0.0575319,3.17375,4.66917,5.53705,6.10399,6.50342,6.80004,7.02903,7.21114,7.35944
0.0630814,3.49675,5.11657,6.04766,6.65215,7.07621,7.39011,7.63185,7.82373,7.97974
0.0569593,3.17359,4.63971,5.48579,6.03709,6.42496,6.71274,6.93476,7.11127,7.25496
0.0615552,3.50917,5.15279,6.10515,6.72632,7.16337,7.48754,7.73755,7.93621,8.09788
0.0637256,3.62749,5.29542,6.25382,6.8761,7.31272,7.63601,7.88502,8.08273,8.2435
0.0575254,3.30561,4.84079,5.73189,6.31458,6.72551,7.03091,7.26682,7.45455,7.6075
0.0587631,3.41789,5.01054,5.93369,6.53592,6.95968,7.27401,7.51644,7.70909,7.86587
0.0615844,3.61857,5.30662,6.28507,6.92353,7.37296,7.70648,7.96381,8.16838,8.33492
0.0566728,3.38352,4.96463,5.87868,6.47382,6.89205,7.20201,7.44092,7.63069,7.78507
0.0614221,3.72391,5.47429,6.49029,7.15398,7.62159,7.96885,8.23694,8.45018,8.62383
0.0632674,3.87086,5.6802,6.72678,7.40889,7.88867,8.2445,8.51891,8.73699,8.91446
0.0564935,3.47755,5.09032,6.02014,6.62508,7.05011,7.36512,7.60792,7.8008,7.95771
0.0584854,3.67049,5.39073,6.3873,7.03744,7.49503,7.83456,8.0965,8.30472,8.47421
0.0635978,3.98735,5.82621,6.88433,7.57203,8.0549,8.4126,8.68823,8.90713,9.08518
0.0629437,3.94634,5.7665,6.82047,7.50886,7.99396,8.35431,8.63257,8.85393,9.03423
