0.612642,0.727132,0.775437,0.802078,0.818961,0.830616,0.839146,0.84566,0.850796,0.854951
0.307742,0.533612,0.674132,0.768759,0.8366,0.887557,0.927214,0.958944,0.984905,1.00654
0.25373,0.578732,0.786248,0.918722,1.0084,1.0725,1.12035,1.15734,1.18675,1.21065
0.222492,0.626029,0.875023,1.0256,1.12424,1.19345,1.24457,1.28384,1.31495,1.3402
0.222677,0.751178,1.06493,1.24825,1.36663,1.44915,1.50992,1.55652,1.5934,1.6233
0.199996,0.783663,1.11556,1.30552,1.42751,1.51241,1.57489,1.62281,1.66072,1.69146
0.19381,0.878161,1.26336,1.48492,1.62826,1.72858,1.80272,1.85975,1.90498,1.94173
0.175148,0.802245,1.09344,1.24593,1.33948,1.4027,1.44829,1.48271,1.50962,1.53123
0.171993,0.941372,1.36305,1.61426,1.782,1.90224,1.99275,2.06338,2.12005,2.16653
0.167355,1.05329,1.54756,1.83669,2.02502,2.157,2.25446,2.32929,2.38853,2.43657
0.162481,1.15168,1.6947,2.00623,2.20701,2.34698,2.45009,2.5292,2.59181,2.64261
0.159777,1.25773,1.84562,2.17862,2.39229,2.54099,2.65045,2.7344,2.80083,2.85471
0.219273,1.84869,2.67999,3.14467,3.44162,3.64792,3.79963,3.91592,4.0079,4.08247
0.268353,2.43388,3.52584,4.14168,4.53794,4.81451,5.01856,5.17532,5.29954,5.40039
0.207944,1.89281,2.67623,3.10758,3.38155,3.57114,3.71017,3.81651,3.90047,3.96845
0.189542,1.84979,2.65656,3.11758,3.41683,3.62691,3.78253,3.90245,3.99769,4.07517
0.207842,2.22369,3.245,3.8349,4.21816,4.48683,4.68549,4.8383,4.95947,5.05789
0.192274,2.04626,2.89337,3.35613,3.64721,3.84712,3.99287,4.10385,4.19117,4.26168
0.201661,2.33667,3.38297,3.98405,4.37517,4.65027,4.85442,5.01196,5.13725,5.23927
0.305747,3.77218,5.49153,6.47882,7.11862,7.56659,7.89763,8.15217,8.35395,8.51782
0.187136,2.48978,3.64259,4.30056,4.7246,5.02034,5.23827,5.40549,5.53785,5.64521
0.188871,2.58227,3.71807,4.34924,4.75054,5.02821,5.23179,5.38744,5.51032,5.6098
0.139287,1.90325,2.74417,3.23164,3.55225,3.77975,3.94976,4.08169,4.18709,4.27324
0.137683,2.01126,2.9218,3.44225,3.77775,4.01147,4.18342,4.31513,4.4192,4.50347
0.165926,2.56791,3.7483,4.4241,4.86099,5.16651,5.39216,5.56565,5.7032,5.81494
0.168973,2.74858,4.00531,4.71839,5.17704,5.49672,5.73225,5.91299,6.05607,6.17214
0.177782,2.90899,4.161,4.85279,5.2917,5.59506,5.8173,5.98713,6.12115,6.2296
0.215861,3.2748,4.5461,5.23917,5.67825,5.98201,6.20485,6.37538,6.51011,6.61928
0.224637,3.26583,4.53489,5.24744,5.70673,6.02789,6.2652,6.44775,6.59254,6.7102
0.132924,2.03639,2.9378,3.47656,3.83544,4.09159,4.28354,4.43271,4.55196,4.64947
0.130828,2.2285,3.29215,3.91676,4.32293,4.60688,4.81612,4.97653,5.10334,5.20607
0.136021,2.61288,3.93511,4.70895,5.21182,5.56403,5.8243,6.02444,6.18313,6.31203
0.128682,2.49049,3.63,4.26172,4.66213,4.93875,5.14139,5.29628,5.41854,5.51751
0.163586,3.44304,5.13223,6.12255,6.77591,7.24012,7.58722,7.85665,8.07191,8.24786
0.127589,2.81,4.13534,4.88373,5.3631,5.69592,5.9403,6.12726,6.27487,6.39434
0.130284,3.06369,4.53638,5.38129,5.92974,6.31467,6.59982,6.81959,6.99417,7.13621
0.159341,3.89517,5.70876,6.72897,7.38257,7.83695,8.1711,8.42714,8.62958,8.79365
0.146823,3.61328,5.22798,6.13207,6.71185,7.11574,7.41339,7.64191,7.8229,7.9698
0.155832,3.96283,5.78314,6.83237,7.51745,8.00038,8.35924,8.63645,8.85703,9.03674
0.252319,6.52687,9.48839,11.1799,12.2743,13.04,13.6055,14.0403,14.3848,14.6646
0.152002,3.91488,5.62361,6.58262,7.19673,7.62363,7.93762,8.17826,8.36857,8.52286
0.144675,3.92857,5.73133,6.76917,7.44393,7.9178,8.26888,8.53942,8.75429,8.92907
0.126397,3.4831,5.0431,5.92429,6.48974,6.88316,7.17262,7.39448,7.56994,7.71217
0.124884,3.44965,4.94518,5.77858,6.30995,6.67837,6.94886,7.15591,7.3195,7.45202
0.125546,3.67069,5.37105,6.35683,7.00128,7.45576,7.79355,8.05452,8.2622,8.43141
0.125483,3.73927,5.44199,6.41158,7.03659,7.47266,7.79409,8.04078,8.23607,8.39448
0.127249,3.86237,5.60828,6.60058,7.2406,7.68773,8.01779,8.27147,8.47254,8.63583
0.149465,4.8453,7.15104,8.48843,9.36064,9.9742,10.4292,10.7801,11.0589,11.2857
0.122329,3.96014,5.75216,6.764,7.41367,7.86607,8.1992,8.45475,8.65698,8.82101
0.200565,6.38001,9.12272,10.647,11.6187,12.2928,12.7879,13.1671,13.4667,13.7096
0.123476,4.18926,6.14355,7.28087,8.02618,8.55257,8.94419,9.24693,9.48798,9.68444
0.128785,4.46283,6.51282,7.68242,8.43681,8.96324,9.35128,9.64909,9.88482,10.076
0.123077,3.53176,5.16802,6.2257,6.97934,7.54675,7.99039,8.34718,8.64053,8.88606
0.137378,4.46913,6.77795,8.20166,9.14954,9.81945,10.3154,10.6962,10.9972,11.2408
0.126086,3.80885,5.35532,6.16099,6.64769,6.97226,7.20391,7.37752,7.51246,7.62038
0.124128,4.22502,6.28212,7.50357,8.31754,8.90107,9.34078,9.68438,9.96045,10.1872
0.121305,4.38041,6.5161,7.74992,8.54961,9.10882,9.52132,9.8379,10.0884,10.2915
0.140037,5.36796,7.99558,9.50564,10.4835,11.1681,11.6741,12.0633,12.3721,12.623
0.122375,4.79796,7.03822,8.29495,9.09878,9.65727,10.0679,10.3826,10.6315,10.8332
0.137837,5.55522,8.13001,9.58856,10.53,11.1887,11.6755,12.0502,12.3474,12.5889
0.120917,4.90241,7.10873,8.34979,9.14703,9.70265,10.1121,10.4263,10.6751,10.8769
0.134178,5.56146,8.10193,9.55603,10.5002,11.1631,11.6542,12.0327,12.3333,12.5778
0.13707,5.62815,8.12899,9.54714,10.4618,11.1008,11.5724,11.9348,12.222,12.4551
0.121719,5.19031,7.58286,8.9622,9.85946,10.4896,10.9565,11.3162,11.6018,11.8341
0.120294,5.21122,7.59871,8.96454,9.84804,10.4661,10.9227,11.2738,11.5521,11.7781
0.124773,5.43801,7.861,9.22245,10.0936,10.6988,11.1436,11.4843,11.7536,11.9719
0.122662,5.49755,8.00783,9.44524,10.3776,11.0318,11.5161,11.8893,12.1857,12.4267
0.137685,6.19866,8.99757,10.5935,11.6254,12.3474,12.8808,13.2911,13.6163,13.8806
0.123475,5.65802,8.21554,9.67051,10.609,11.2644,11.748,12.1194,12.4137,12.6525
0.134182,6.33197,9.23626,10.8963,11.97,12.7212,13.2762,13.703,14.0414,14.3163
0.120975,5.83031,8.50894,10.0397,11.0299,11.7228,12.2349,12.6288,12.9411,13.1949
0.121062,5.84413,8.47005,9.95685,10.9139,11.5816,12.074,12.4522,12.7517,12.9948
0.12347,6.00449,8.71952,10.2747,11.2844,11.9931,12.5181,12.9226,13.244,13.5054
0.134151,6.62556,9.63084,11.3479,12.4582,13.2348,13.8084,14.2493,14.5988,14.8826
0.12328,5.9455,8.5158,9.95311,10.8715,11.5091,11.9776,12.3364,12.6201,12.8499
0.224783,11.3316,16.5839,19.6446,21.6518,23.0703,24.1261,24.9428,25.5933,26.1236
0.123504,6.08049,8.76529,10.2849,11.2617,11.9423,12.4434,12.8278,13.132,13.3786
0.136468,6.74138,9.72298,11.4165,12.5089,13.272,13.8354,14.2684,14.6116,14.8903
0.123576,5.50112,8.0136,9.57022,10.6425,11.429,12.0316,12.5083,12.8951,13.2153
0.122591,5.6013,8.15576,9.63591,10.5908,11.2541,11.7402,12.111,12.403,12.6386
0.124783,6.11678,9.07477,10.8049,11.9328,12.7251,13.3122,13.7646,14.1241,14.4166
0.122903,6.22635,9.18031,10.8663,11.9515,12.708,13.2653,13.6931,14.0317,14.3065
0.120277,6.20717,9.09267,10.7304,11.7859,12.5233,13.0678,13.4865,13.8184,14.088
0.121366,6.49405,9.53481,11.2694,12.3909,13.1758,13.7558,14.2019,14.5557,14.8431
0.219019,12.0424,17.67,20.8833,22.9624,24.418,25.4941,26.3219,26.9785,27.5121
0.13895,7.69642,11.2076,13.1955,14.4757,15.3692,16.0283,16.5346,16.9357,17.2613
0.12833,7.14253,10.3454,12.1528,13.315,14.1254,14.7229,15.1815,15.5448,15.8396
0.135719,7.59299,11.0241,12.9894,14.2661,15.1629,15.8274,16.3398,16.7468,17.078
0.132806,7.63628,11.1679,13.2051,14.5303,15.4608,16.1498,16.6806,17.1019,17.4445
0.120603,6.87564,9.95015,11.69,12.8085,13.5879,14.1621,14.6027,14.9514,15.2343
0.121891,7.06864,10.2624,12.082,13.2577,14.08,14.6874,15.1545,15.5249,15.8258
0.120162,7.10169,10.3725,12.259,13.4874,14.351,14.9914,15.4852,15.8777,16.197
0.130456,7.6278,11.0244,12.9456,14.1806,15.0411,15.6749,16.1612,16.5461,16.8582
0.122414,7.30353,10.683,12.6504,13.9403,14.8519,15.5305,16.0555,16.4737,16.8147
0.119623,7.21067,10.5301,12.4398,13.6786,14.5466,15.1883,15.6819,16.0734,16.3913
0.121628,7.33473,10.6517,12.5402,13.7587,14.61,15.2383,15.7212,16.1038,16.4145
0.119301,7.35892,10.7085,12.6141,13.8426,14.7003,15.3329,15.8188,16.2037,16.5162
0.121009,7.71672,11.3428,13.4445,14.8166,15.7831,16.5008,17.0548,17.4955,17.8543
0.118298,7.63365,11.1277,13.106,14.3763,15.2603,15.9108,16.4093,16.8036,17.1232
0.11717,7.65033,11.1406,13.1271,14.4108,15.309,15.973,16.4839,16.8892,17.2187
