1.09531,1.15106,1.17092,1.18111,1.18731,1.19148,1.19448,1.19674,1.1985,1.19991
0.803084,1.23143,1.47958,1.64123,1.75484,1.83906,1.90397,1.95553,1.99748,2.03228
0.711834,1.52331,2.03293,2.35545,2.57209,2.72585,2.83995,2.92769,2.9971,3.05331
0.631629,1.79762,2.53491,2.97501,3.25755,3.45207,3.59352,3.70079,3.78486,3.85248
0.58406,2.22794,3.31957,3.96873,4.38702,4.6772,4.88997,5.05259,5.18089,5.28471
0.547728,2.39878,3.40392,3.91952,4.22563,4.42744,4.57031,4.67673,4.75904,4.8246
0.543965,2.91096,4.24319,4.97571,5.43972,5.76129,5.99779,6.17925,6.32297,6.43967
0.520001,3.25518,4.73931,5.54314,6.04582,6.38971,6.63966,6.82945,6.97843,7.09846
0.541422,3.7388,5.32404,6.15472,6.66583,7.01214,7.26232,7.45153,7.59964,7.71875
0.505377,3.81895,5.39013,6.21799,6.73124,7.08111,7.33506,7.52784,7.67921,7.80122
0.534474,4.42931,6.2676,7.25571,7.87532,8.30059,8.61065,8.84676,9.03256,9.18259
0.524494,4.70089,6.64102,7.68495,8.33821,8.78552,9.11098,9.35839,9.55281,9.70961
0.529959,5.01773,7.03457,8.11219,8.78367,9.24228,9.57541,9.82838,10.027,10.1871
0.540249,5.3788,7.52137,8.67238,9.39241,9.88563,10.2447,10.5178,10.7326,10.9059
0.564161,5.97102,8.39372,9.71223,10.5425,11.1135,11.5303,11.848,12.0981,12.3001
0.516746,4.97882,6.58995,7.38596,7.86017,8.17475,8.39863,8.56608,8.69603,8.79981
0.491618,4.89392,6.63132,7.56765,8.15874,8.56707,8.86647,9.09555,9.27656,9.42321
0.481615,5.63964,8.14948,9.62274,10.5906,11.274,11.7818,12.1738,12.4854,12.739
0.497709,6.55426,9.56522,11.2553,12.3223,13.0534,13.5844,13.9871,14.3028,14.5568
0.492275,7.0289,10.1603,11.8551,12.9089,13.6268,14.1472,14.5419,14.8515,15.1009
0.498049,7.53684,10.7635,12.4839,13.5523,14.2811,14.8102,15.2119,15.5275,15.7818
0.483651,7.67525,10.8872,12.6064,13.6803,14.4158,14.9513,15.3588,15.6792,15.9379
0.46737,7.76535,11.02,12.788,13.9026,14.6702,15.2312,15.6591,15.9963,16.269
0.477922,8.343,11.8563,13.772,14.9793,15.8097,16.4157,16.8775,17.241,17.5346
0.476116,8.65479,12.2683,14.2299,15.4618,16.307,16.923,17.3918,17.7606,18.0582
0.502687,9.45318,13.3636,15.4837,16.8147,17.7283,18.3943,18.9013,19.3002,19.6223
0.486487,9.47329,13.3892,15.518,16.8568,17.7767,18.4478,18.959,19.3613,19.6863
0.473959,9.50902,13.424,15.5525,16.8909,17.8104,18.4811,18.9919,19.3939,19.7185
0.488319,10.0599,14.1715,16.4009,17.8003,18.7603,19.4599,19.9923,20.4111,20.7492
0.488424,10.2472,14.3876,16.6282,18.0335,18.9974,19.6997,20.2342,20.6547,20.994
0.490899,10.5284,14.794,17.1143,18.5743,19.5779,20.3102,20.8682,21.3075,21.6623
0.622646,13.3416,18.5859,21.4034,23.1628,24.3659,25.2406,25.9051,26.4271,26.8479
0.473245,10.4912,14.7491,17.0795,18.5512,19.5653,20.3066,20.8721,21.3178,21.6781
0.471844,10.6963,15.0275,17.3809,18.8577,19.8703,20.6077,21.1685,21.6094,21.965
0.482212,11.3479,16.0397,18.6089,20.2294,21.3445,22.1589,22.7797,23.2687,23.6637
0.499062,12.1396,17.1903,19.9522,21.6918,22.8879,23.7606,24.4254,24.9487,25.3714
0.500798,12.5021,17.6893,20.5199,22.3018,23.5268,24.4207,25.1017,25.6378,26.0709
0.482324,12.249,17.2561,19.9693,21.671,22.8379,23.688,24.3348,24.8435,25.2541
0.566221,14.8638,21.0248,24.3904,26.512,27.9721,29.0383,29.8511,30.4913,31.0086
0.488723,13.3519,18.9946,22.0988,24.0623,25.4161,26.406,27.1612,27.7564,28.2375
0.493592,13.8915,19.7222,22.9019,24.9012,26.2739,27.2745,28.0361,28.6353,29.1189
0.49578,14.1008,19.869,22.9847,24.9359,26.273,27.2465,27.9871,28.5695,29.0395
0.479319,14.1016,20.0098,23.2579,25.3155,26.7363,27.7766,28.5713,29.1981,29.7053
0.506995,15.0274,21.1624,24.485,26.5676,27.9948,29.0337,29.8237,30.4447,30.9456
0.484452,14.6417,20.6668,23.9602,26.0388,27.4706,28.5171,29.3154,29.9445,30.4531
0.487756,15.064,21.2935,24.7019,26.8517,28.3311,29.4113,30.2346,30.8829,31.4067
0.57191,18.3089,26.0448,30.309,33.0089,34.8714,36.2338,37.2735,38.0931,38.7558
0.507388,16.336,23.0267,26.647,28.9136,30.4657,31.595,32.4535,33.1282,33.6723
0.50591,16.1094,22.4822,25.9026,28.0393,29.5015,30.5655,31.3745,32.0104,32.5234
0.479306,15.3042,21.3674,24.6511,26.7144,28.1317,29.1656,29.9532,30.5731,31.0738
0.506187,16.5906,23.3894,27.1326,29.5038,31.1404,32.338,33.2523,33.9731,34.556
0.495495,16.602,23.4354,27.1695,29.5187,31.1316,32.3071,33.2017,33.9054,34.4732
0.481113,16.353,23.0214,26.6369,28.9029,30.4559,31.5865,32.4465,33.1226,33.6682
0.538739,18.7093,26.3874,30.5669,33.1954,35.0015,36.319,37.3226,38.1126,38.7507
0.504475,17.6159,24.7442,28.6049,31.0266,32.6876,33.8977,34.8186,35.5429,36.1275
0.505755,17.5669,24.5674,28.3566,30.735,32.3676,33.5579,34.4642,35.1773,35.7532
0.479228,17.1952,24.3148,28.2389,30.7257,32.4427,33.6993,34.6589,35.4155,36.0275
0.486177,17.9582,25.4488,29.5472,32.1266,33.898,35.1891,36.1718,36.9447,37.5684
0.510028,19.2312,27.16,31.4503,34.1347,35.972,37.3084,38.3242,39.1224,39.7662
0.495946,17.4419,23.7798,27.0432,29.0338,30.3751,31.3406,32.0689,32.6378,33.0946
0.595763,22.2764,31.5241,36.7242,40.0778,42.4248,44.1609,45.4975,46.5587,47.4216
0.525229,20.4035,29.0258,33.7869,36.7931,38.8588,40.3638,41.5084,42.4078,43.1329
0.489878,19.3851,27.4574,31.8472,34.5988,36.4839,37.856,38.8995,39.7198,40.3816
0.493065,20.0214,28.3775,32.9273,35.7876,37.7525,39.1858,40.2776,41.1371,41.8312
0.519985,21.3933,30.2043,34.9781,37.9728,40.027,41.5237,42.6628,43.5588,44.282
0.517415,21.3142,29.9184,34.5592,37.4654,39.4569,40.9071,42.0104,42.8779,43.578
0.544918,22.5969,31.6999,36.6311,39.7277,41.8536,43.4036,44.5838,45.5126,46.2624
0.496294,21.0708,29.7519,34.5082,37.5123,39.5818,41.0941,42.2476,43.1563,43.8908
0.492631,21.3096,30.0906,34.8727,37.8773,39.9391,41.4414,42.5845,43.4834,44.2089
0.478178,20.8801,29.4364,34.0914,37.0182,39.0289,40.4955,41.6127,42.492,43.2021
0.489433,21.3789,29.9727,34.6085,37.5088,39.4946,40.9396,42.0381,42.9015,43.5979
0.495479,19.2392,25.7209,28.9837,30.9498,32.2643,33.2052,33.9119,34.4623,34.9031
0.489984,20.7645,29.4399,34.4249,37.6878,39.9955,41.7158,43.0483,44.1111,44.9789
0.571537,25.6632,36.8123,43.0533,47.0114,49.735,51.7198,53.2287,54.4137,55.3686
0.512582,23.5212,33.4618,38.8585,42.2287,44.5305,46.2022,47.4712,48.4676,49.2706
0.503569,23.1,32.5296,37.5984,40.7637,42.9299,44.5064,45.7055,46.6483,47.4092
0.477887,22.6498,32.1397,37.3366,40.621,42.8859,44.5426,45.8072,46.8043,47.6105
0.480893,23.3931,33.2306,38.6063,41.9928,44.321,46.0196,47.3135,48.3317,49.1539
0.483832,23.9865,33.9727,39.3903,42.7886,45.1187,46.8157,48.1068,49.1221,49.9413
0.525748,26.2589,37.0401,42.8792,46.5438,49.0589,50.8923,52.2882,53.3866,54.2735
0.475557,24.1231,34.0486,39.4448,42.8387,45.1708,46.872,48.1679,49.1879,50.0116
0.478616,24.4857,34.5439,40.0262,43.4795,45.8548,47.5887,48.9102,49.9509,50.7915
0.512806,26.4135,37.1694,43.0022,46.6622,49.1724,51.001,52.3924,53.4865,54.3695
0.501842,25.76,36.0877,41.6658,45.1601,47.5551,49.2991,50.6259,51.6692,52.5111
0.578868,30.4542,43.0365,49.9442,54.3129,57.3257,59.5292,61.2109,62.5365,63.6083
0.505037,26.468,37.1261,42.8788,46.4755,48.9358,50.7245,52.0833,53.1506,54.011
0.480462,25.6547,36.2375,42.045,45.7181,48.252,50.1058,51.5212,52.6374,53.5401
0.511225,27.7177,39.194,45.4708,49.4256,52.1446,54.1285,55.6396,56.829,57.7893
0.484956,26.5773,37.4861,43.4065,47.1199,49.6657,51.5197,52.9301,54.0391,54.934
0.489886,27.4342,38.8227,45.0399,48.9561,51.6497,53.6159,55.1145,56.2946,57.2479
0.491292,27.7103,39.2222,45.5368,49.5291,52.2822,54.2959,55.8328,57.0444,58.0242
0.480334,27.4608,38.8149,44.9981,48.884,51.5513,53.4951,54.9745,56.138,57.077
0.506248,28.7462,40.3323,46.5833,50.4957,53.1754,55.1261,56.6096,57.7759,58.717
0.51025,28.7817,40.3058,46.5562,50.4858,53.1863,55.1568,56.6584,57.8406,58.7956
0.541348,30.7812,43.2619,50.0779,54.3752,57.3322,59.4913,61.1369,62.4327,63.4796
0.58308,33.7724,47.6789,55.2906,60.0887,63.3885,65.7965,67.6312,69.0753,70.2416
0.506462,29.4662,41.446,47.936,52.0016,54.7866,56.8135,58.3548,59.5662,60.5434
0.505282,30.0396,42.5305,49.3883,53.7244,56.7145,58.9016,60.5709,61.887,62.9512
0.481717,29.092,41.2046,47.8283,52.0013,54.8703,56.9637,58.5584,59.8135,60.827
0.477176,29.2797,41.446,48.075,52.2431,55.1055,57.1927,58.7819,60.0324,61.0421
