1.15763,1.19683,1.2105,1.21745,1.22166,1.22448,1.2265,1.22803,1.22921,1.23016
0.930117,1.3701,1.6145,1.76989,1.87738,1.95617,2.01639,2.06391,2.10237,2.13414
0.810561,1.59334,2.03795,2.30468,2.47838,2.59923,2.68772,2.7551,2.80802,2.85064
0.710468,1.58851,1.99876,2.21057,2.33645,2.41915,2.47745,2.5207,2.55403,2.58049
0.674441,1.95463,2.6467,3.0415,3.29492,3.47145,3.60158,3.70154,3.78077,3.84514
0.653033,2.45636,3.49945,4.09306,4.469,4.72695,4.91442,5.05662,5.16809,5.25776
0.660327,2.96022,4.17187,4.80266,5.18124,5.43229,5.61061,5.7437,5.84678,5.92897
0.625205,3.3647,4.78905,5.53615,5.99332,6.30216,6.525,6.69347,6.82536,6.93144
0.607151,3.13919,4.10039,4.54053,4.79214,4.95503,5.0691,5.15343,5.21832,5.26979
0.584919,3.74965,5.29344,6.16019,6.72429,7.12289,7.42019,7.6507,7.83476,7.98518
0.548116,4.12088,5.88849,6.84077,7.43014,7.82852,8.11486,8.33018,8.49777,8.63182
0.535431,4.3702,6.08201,6.94432,7.45932,7.8009,8.0439,8.2256,8.36659,8.4792
0.526992,4.70963,6.53707,7.47261,8.0427,8.42728,8.70455,8.91405,9.07798,9.20979
0.513281,3.98554,5.08869,5.59278,5.88239,6.07056,6.20266,6.30052,6.37591,6.43578
0.484259,4.53165,6.3284,7.35636,8.03312,8.51473,8.87564,9.15644,9.38125,9.56535
0.486,5.12317,7.22982,8.36754,9.07079,9.54517,9.88544,10.1409,10.3394,10.498
0.480663,5.70151,8.1013,9.37388,10.155,10.6821,11.0616,11.3479,11.5715,11.7511
0.477042,6.02229,8.39093,9.59349,10.3172,10.8003,11.1458,11.4051,11.6069,11.7685
0.478438,6.24058,8.54671,9.70717,10.4078,10.8774,11.2145,11.4683,11.6663,11.8252
0.459186,6.46375,8.96589,10.279,11.0924,11.6465,12.0486,12.3537,12.5932,12.7862
0.458073,6.74207,9.29279,10.6112,11.4165,11.959,12.3492,12.6432,12.8726,13.0566
0.453976,7.04024,9.71556,11.107,11.9608,12.5381,12.9547,13.2694,13.5156,13.7135
0.448943,7.05101,9.58886,10.8794,11.6609,12.1848,12.5605,12.8431,13.0633,13.2398
0.475063,7.73683,10.5755,12.0538,12.9638,13.581,14.0273,14.3653,14.63,14.8431
0.44417,7.37556,10.0279,11.3941,12.2271,12.7879,13.1911,13.4948,13.7319,13.922
0.475786,8.09111,11.0014,12.5076,13.4292,14.0514,14.4997,14.8382,15.1028,15.3154
0.478292,8.12355,10.9451,12.3868,13.2623,13.8504,14.2727,14.5906,14.8386,15.0374
0.484309,8.73147,11.994,13.7254,14.8006,15.5336,16.0656,16.4692,16.786,17.0412
0.57767,11.2586,15.712,18.0931,19.5706,20.5754,21.3026,21.8531,22.2843,22.631
0.480632,9.18504,12.4188,14.0355,15.0007,15.6412,16.097,16.438,16.7025,16.9138
0.470663,9.3568,12.7972,14.5951,15.7052,16.4605,17.0082,17.4238,17.7501,18.013
0.473014,9.28488,12.5156,14.1608,15.1578,15.8264,16.3058,16.6661,16.9469,17.1718
0.488081,9.84673,13.3846,15.2303,16.3662,17.1363,17.693,18.1143,18.4443,18.7097
0.420148,8.68049,11.8304,13.4728,14.4805,15.1614,15.6523,16.0229,16.3125,16.5451
0.480796,10.2773,14.0626,16.0374,17.2483,18.0665,18.6561,19.1013,19.4492,19.7287
0.482699,10.7467,14.7813,16.8942,18.1928,19.0715,19.7057,20.1849,20.5597,20.8609
0.414127,9.30837,12.6698,14.3899,15.4331,16.1328,16.6347,17.0122,17.3065,17.5423
0.477348,11.104,15.2085,17.3486,18.6643,19.5557,20.1999,20.6872,21.0688,21.3757
0.469311,11.0048,14.957,16.9851,18.2183,19.0472,19.6424,20.0904,20.4399,20.7201
0.40288,9.92946,13.6764,15.6515,16.8727,17.7029,18.3042,18.7597,19.1168,19.4043
0.403909,10.0081,13.6303,15.4874,16.6146,17.3708,17.9132,18.321,18.6388,18.8934
0.402708,10.1484,13.8208,15.7181,16.8784,17.6617,18.2262,18.6525,18.9859,19.2537
0.471731,12.3604,16.9875,19.4185,20.9182,21.936,22.672,23.229,23.6652,24.0161
0.474146,12.4953,17.0195,19.3453,20.7597,21.71,22.3922,22.9056,23.306,23.627
0.40572,10.9521,14.9612,17.043,18.319,19.1815,19.8037,20.2739,20.6416,20.9371
0.470857,12.8651,17.5405,19.9625,21.4443,22.4443,23.1648,23.7084,24.1333,24.4744
0.390548,10.9652,15.0079,17.1146,18.4074,19.2816,19.9122,20.3885,20.761,21.0603
0.39429,11.1313,15.1313,17.1855,18.4348,19.2746,19.8777,20.3318,20.6861,20.9701
0.392256,11.278,15.3769,17.5059,18.8117,19.6947,20.3319,20.8135,21.1902,21.4931
0.392326,11.134,15.0249,17.0123,18.2184,19.0282,19.6094,20.0468,20.3879,20.6613
0.388446,11.542,15.8576,18.1446,19.564,20.5314,21.2332,21.7657,22.1836,22.5204
0.386511,11.7014,16.0068,18.2356,19.5938,20.507,21.1626,21.6559,22.0405,22.3488
0.471778,14.6048,19.978,22.7597,24.4593,25.6056,26.431,27.0539,27.5406,27.9315
0.492169,15.3818,20.9687,23.8519,25.6121,26.7989,27.6532,28.2977,28.8011,29.2053
0.382778,12.1675,16.6063,18.9085,20.3185,21.271,21.9577,22.4762,22.8815,23.2072
0.391847,12.8564,17.639,20.135,21.6675,22.704,23.4517,24.0164,24.4581,24.8129
0.469831,17.543,25.1381,29.357,32.0389,33.8936,35.2525,36.2909,37.1102,37.7731
0.382742,13.3659,18.015,20.2725,21.5932,22.4569,23.065,23.5158,23.8634,24.1393
0.382316,13.1842,17.7529,20.0796,21.5012,22.4634,23.1592,23.6864,24.0998,24.4328
0.386025,13.1766,17.7406,20.0919,21.5315,22.5041,23.2052,23.7345,24.1482,24.4804
0.383895,13.2502,17.9696,20.4339,21.9496,22.976,23.7169,24.2769,24.7149,25.067
0.575828,20.2072,27.5471,31.3871,33.7463,35.3418,36.4924,37.3614,38.0409,38.5867
0.463993,16.7673,22.9996,26.266,28.2731,29.6307,30.61,31.3496,31.928,32.3927
0.377589,14.1599,19.5344,22.3543,24.0878,25.2607,26.1069,26.7463,27.2464,27.6482
0.469674,17.9601,24.6799,28.1614,30.287,31.7192,32.7495,33.5263,34.1329,34.6197
0.378951,14.6853,20.0957,22.8849,24.5861,25.7324,26.5572,27.1793,27.6652,28.0552
0.384391,14.9764,20.4251,23.2371,24.9556,26.1151,26.9505,27.5811,28.0739,28.4697
0.374021,14.5817,19.8304,22.5409,24.1981,25.3164,26.1219,26.7299,27.205,27.5865
0.468458,18.5102,25.2397,28.7374,30.8821,32.3319,33.3773,34.1669,34.7843,35.2803
0.464017,18.9017,25.9502,29.6405,31.9097,33.4457,34.5543,35.392,36.0473,36.5738
0.462317,18.9591,25.8732,29.4353,31.604,33.0623,34.1099,34.8989,35.5144,36.008
0.373131,15.3428,20.8807,23.7379,25.483,26.6601,27.5079,28.1477,28.6478,29.0494
0.464372,19.466,26.6126,30.3365,32.6233,34.1707,35.2875,36.1314,36.7917,37.3223
0.373247,15.4481,20.9385,23.7585,25.4751,26.6297,27.4594,28.0844,28.5721,28.9633
0.464924,19.8009,27.1352,30.9903,33.3704,34.9867,36.1563,37.042,37.7361,38.2946
0.366883,15.9546,21.8787,24.9638,26.8526,28.1268,29.0441,29.7358,30.276,30.7095
0.455864,20.4914,28.233,32.2785,34.7617,36.4408,37.6519,38.5668,39.2822,39.8571
0.36863,16.6866,22.8294,25.9927,27.9191,29.2151,30.1466,30.8484,31.3962,31.8355
0.53945,24.7217,33.7964,38.49,41.3609,43.2992,44.6962,45.7509,46.5755,47.238
0.37154,17.2142,23.5466,26.8387,28.8583,30.2241,31.2094,31.9539,32.5362,33.0041
0.445966,20.2938,27.4422,31.0896,33.302,34.7868,35.8522,36.6537,37.2787,37.7796
0.364113,16.6515,22.6065,25.6966,27.5926,28.8755,29.8016,30.5017,31.0496,31.4901
0.367167,17.3303,23.788,27.1886,29.2875,30.7117,31.7413,32.5203,33.1302,33.6206
0.366667,15.5855,20.4695,22.8478,24.2515,25.177,25.8327,26.3216,26.7,27.0016
0.421525,19.0577,26.1182,29.946,32.3666,34.0403,35.2681,36.2078,36.9506,37.5525
0.365833,16.9362,23.2515,26.5709,28.6062,29.9778,30.9633,31.7049,32.2828,32.7457
0.366342,17.3797,23.873,27.2508,29.3143,30.7045,31.7047,32.4587,33.0476,33.5203
0.456594,22.184,30.4801,34.7843,37.4154,39.1903,40.4685,41.433,42.1867,42.792
0.361314,18.0167,24.781,28.2931,30.4428,31.8942,32.94,33.7295,34.3465,34.8421
0.437572,21.5905,29.3042,33.2234,35.5942,37.1829,38.3215,39.1777,39.8449,40.3794
0.358934,18.3504,25.2532,28.8897,31.1418,32.6752,33.7872,34.6307,35.2926,35.8259
0.4096,23.5821,33.724,39.3245,42.869,45.3115,47.0958,48.4559,49.5268,50.3918
0.471363,25.5443,34.5596,38.9668,41.556,43.2544,44.4525,45.3425,46.0294,46.5755
0.463207,24.8207,33.5792,38.0614,40.8057,42.6655,44.0113,45.0314,45.8316,46.4763
0.361789,18.8121,25.2443,28.5242,30.5197,31.8622,32.8271,33.554,34.1212,34.576
0.487527,26.3269,36.1189,41.3409,44.5963,46.8211,48.4381,49.6665,50.6314,51.4094
0.46013,24.3604,32.9629,37.3646,40.0288,41.8114,43.0869,44.0442,44.7891,45.385
0.360317,19.6283,26.8801,30.6869,33.0342,34.6273,35.7799,36.6528,37.3368,37.8873
0.472753,26.1879,35.8746,40.9125,43.9945,46.0731,47.5691,48.6972,49.5781,50.2849
0.468158,25.9664,35.3823,40.2285,43.1794,45.1648,46.5919,47.6673,48.5067,49.1801
