0.719440318452381,0.818734710119048,0.860325529761905,0.88326199404762,0.897808431547619,0.907860142857144,0.915222985119047,0.920848803571428,0.925287845238095,0.928879800595237
0.535640952976191,0.844352394940476,1.02356356101191,1.14171246934524,1.22637199702381,1.29062288392857,1.34147159821429,1.38301659523809,1.41781955654762,1.44756780654762
0.418351995535715,0.868713644940476,1.15518048779762,1.34987201517857,1.49365881845238,1.60654705059524,1.69890691071428,1.77655880952381,1.84304141369048,1.90067500297619
0.396706838095238,1.06054763660714,1.50679908690476,1.81592030952381,2.04237819940476,2.21177586904762,2.33992157142857,2.43818189583333,2.51480713095238,2.57566794642857
0.33357635625,1.08527840208333,1.60139466785714,1.93922286309524,2.15880805952381,2.30638229464286,2.41096453571429,2.48881195535714,2.54910220535714,2.59726475595238
0.320016373511905,1.25820310892857,1.88843684255952,2.25239666696429,2.47267918065476,2.61981529315476,2.72563409702381,2.80570232113095,2.86853317142857,2.91921140446428
0.307411708928571,1.41261053809524,2.10089283333333,2.46672531845238,2.69109532440476,2.84460035119048,2.9568727797619,3.04278495535714,3.11074400892857,3.16589340178571
0.308484273809524,1.6286633375,2.38603253273809,2.78356315178571,3.03300364285714,3.2057094047619,3.33276480952381,3.43028874404762,3.50756337797619,3.57032838988096
0.278846372321429,1.64620144345238,2.36731035714286,2.75322202976191,2.99745163988095,3.16654979464286,3.29072504761905,3.38584766666667,3.46108380952381,3.52210129464286
0.272966729166667,1.81105810892857,2.60542956547619,3.03961465773809,3.31633937202381,3.50851233928572,3.64987702380953,3.7582955595238,3.84411578273809,3.9137557827381
0.281041007142857,2.04224100446429,2.91673058333333,3.39282710714286,3.69357236904762,3.9008353779762,4.05234275,4.16792526785714,4.2590025,4.33262304464286
0.274191782738095,2.15864089285714,3.06833935119048,3.56521912797619,3.87949213690476,4.09645114583333,4.25535079166667,4.37680496130952,4.4726910625,4.55032504761905
0.26696925,2.27948835833333,3.23189155357143,3.75315872321429,4.08323881845238,4.31124797023809,4.47826839880952,4.6059155,4.7066597202381,4.78820171428571
0.263055958630952,2.36492550595238,3.33984573511905,3.87415986011905,4.212875875,4.44714077380952,4.61896768452381,4.75045713988095,4.85436299404762,4.93856219940476
0.247238951190476,2.42069706845238,3.43940036904762,4.00260272619048,4.36097161607143,4.60932852083333,4.79170667857143,4.93137700297619,5.04180399107143,5.13132325
0.251786138988095,2.59203421785714,3.66913093839285,4.26002210327381,4.63382186696428,4.89172560446429,5.08045184136905,5.22456802946429,5.33823880863095,5.43019285059523
0.257722211309524,2.78998555952381,3.93625188095238,4.56350347023809,4.96053691666667,5.23494419642857,5.43615132142857,5.59010773511905,5.71176605357143,5.81035918154762
0.247288507738095,2.84827322321429,4.01987724702381,4.66356443452381,5.07212613392858,5.35494095833333,5.56246910416667,5.72130694940476,5.84681246130953,5.9484989702381
0.243601757738095,2.88854517261905,4.06397141071429,4.7077425625,5.11570492261904,5.39798945238095,5.60521317559524,5.76396323214285,5.88955425297619,5.99145157440476
0.245179416964285,3.02000141666667,4.25787070238095,4.94059229166667,5.3747068422619,5.67545313095237,5.89623404761905,6.0652534077381,6.19883213988095,6.30707258928572
0.244181928571429,3.14845798214286,4.44031755654762,5.15060615178571,5.60060851190476,5.9114646279762,6.13916608630952,6.31318655357143,6.45054249404762,6.56173343154762
0.2401537125,3.25067247916666,4.59445355059524,5.33684407142857,5.80984270535714,6.13846050297619,6.38048296130953,6.56637943452381,6.71377616964286,6.83359322321428
0.242788902678571,3.42906373214286,4.84834666964286,5.63351173511905,6.13301392261905,6.47891155952381,6.73262277083334,6.92666911011905,7.07987492857143,7.2039108125
0.235330148214286,3.44373855654762,4.89046172619047,5.69280957142857,6.20360683630953,6.55786324404762,6.81831099702381,7.01805367261904,7.17621563095238,7.30462680059524
0.234327868928571,3.65119510714286,5.20626067857143,6.06836706547619,6.61689176488095,6.99703426190477,7.27625503273809,7.49016207142857,7.65936544642857,7.79660212797619
0.256528883422619,4.12210810119048,5.83485426190476,6.76472769642858,7.34854256845238,7.74920720535714,8.04122674107143,8.26352566071428,8.43841335119048,8.57960643154762
0.235692334761905,3.88918963988095,5.48772305357143,6.36249227083333,6.91652660714286,7.29979789880952,7.5811338422619,7.79664139880952,7.967134125,8.1054572172619
0.228669920208333,3.92133463392857,5.54190022619048,6.43380528571428,7.00035035119048,7.39277304166667,7.68091958035714,7.90161144940476,8.07612838988095,8.21763244047618
0.232558227232143,4.09945999404762,5.79736175892857,6.73010008928572,7.32114898511905,7.7298038125,8.02953360416666,8.25894475,8.44030164583334,8.58733590476191
0.227565319285714,4.07801631845239,5.7541264672619,6.67574752976191,7.26081703571428,7.66580747916667,7.96297058333334,8.19040949107143,8.37013465178572,8.51576357440475
0.227320376845238,4.19859869345238,5.92144152083333,6.86926289583333,7.47129508333333,7.88835433035714,8.19473513988095,8.42957769047619,8.61548705059525,8.76642913988094
0.228112151845238,4.37423531041667,6.18716079821429,7.19048177113095,7.83125675505953,8.27711799047619,8.60559749464285,8.85771631488095,9.05730790267858,9.21919813303572
0.229370916369048,4.48510916964286,6.34479713988095,7.37767649999999,8.03478372321428,8.48860795833334,8.82041138392857,9.07344205952381,9.27275061011905,9.4338059404762
0.227712525029762,4.62032714880952,6.54358995833333,7.60608891964286,8.280107625,8.74652076190476,9.08897652678572,9.35139748809524,9.55907100000001,9.72761134523809
0.230986358363095,4.89892686904762,7.01283739880952,8.18768804761904,8.93589853571429,9.45495389285714,9.83646894345239,10.1288582678571,10.3601490089286,10.5477144642857
0.224136904494048,4.86114395238095,6.90045455059524,8.01682886011904,8.7215535327381,9.20707764583333,9.56198262797619,9.83276458928571,10.0461848363095,10.2187369345238
0.225203889672619,5.04271304464285,7.14708589285715,8.29694966369048,9.0237522172619,9.52553037499999,9.89313869940476,10.1742221130952,10.3961988184524,10.5760005297619
0.222745418869048,5.08207463392857,7.17963147619048,8.32608774404763,9.05111681845238,9.55161383928571,9.91810420535714,10.1981355922619,10.4191202291667,10.5979708958333
0.227492352589286,5.45105580059524,7.73835291666665,9.00046143154762,9.80464330654762,10.3633818095238,10.7748943333333,11.0909896785714,11.3416367440476,11.5453977738095
0.222968449464286,5.35363974374999,7.57300973244048,8.80003460922619,9.58155213392857,10.1234195455357,10.5213495613095,10.8260355675595,11.0668607247024,11.2620406136905
0.222394113988095,5.39046940982143,7.57755519285714,8.77340420833333,9.52941698214286,10.0511313809524,10.4330952261905,10.7249559285714,10.9553007767857,11.1417602440476
0.222844018839286,5.53767341666667,7.82396456845238,9.09177273511905,9.90190966964286,10.465554702381,10.8808099583333,11.1996652946429,11.452314202381,11.6575011607143
0.221437475982143,5.55807969940476,7.85537292559523,9.12954365773809,9.94105336904761,10.5033622976191,10.9160971964286,11.2320238809524,11.4816800357143,11.6839861607143
0.224848488303571,5.81601320238095,8.24361673511905,9.58664901488095,10.4402080684524,11.0318798422619,11.4669830505952,11.8008956577381,12.0655430089286,12.2806472440476
0.22454307672619,6.06337306955358,8.6433280077381,10.0758345555655,10.9883867074702,11.6210275438691,12.0854859040179,12.4409522374107,12.7217549040774,12.9491760826786
0.216368546071429,5.90303152172619,8.36035766666666,9.70399095473214,10.5515662910417,11.1353603631548,11.5621615044048,11.8879441315476,12.1448674348214,12.3527461169643
0.222135380952381,6.26672080964286,8.8685538547619,10.2932667059524,11.1975844755952,11.8244992488095,12.2854184553571,12.6388803422619,12.918676577381,13.1457424434524
0.218964695863095,6.33379654642857,8.97193494375,10.4207274532738,11.3381355059524,11.9713786517857,12.4348780744048,12.7889249672619,13.0682754523809,13.2943822619048
0.227234967976191,6.65486008928572,9.72855120238095,12.0536630178571,14.4530088005952,17.0870900446428,19.7690810505952,22.2356456845238,24.3274813005952,26.0143618928571
0.218031653273809,6.56358798779762,9.29116018154762,10.7946792797619,11.7516800744048,12.4151159970238,12.9018177142857,13.2738977113095,13.5675518065476,13.8052304107143
0.217807958363096,6.5858085029762,9.25706162202381,10.7153540327381,11.6356858273809,12.268606860119,12.7305048928571,13.0825557232143,13.359848077381,13.5839409107143
0.223344544255952,6.89978106845238,9.73135690773809,11.2957476785714,12.2916504345238,12.9833164375,13.4928518363095,13.8844088482143,14.1950399285714,14.4476699553571
0.22186604875,8.16534441964286,20.6151180327381,28.4331716190476,31.9388991845238,34.0952408035714,35.6351698511905,36.8092353184524,37.7387613422619,38.494361
0.227175661994048,9.56892582440476,24.3392568779762,30.6738046130952,33.8632572440476,35.9826150505953,37.5276317529762,38.7095171220238,39.6440146904762,40.4017266428571
0.216320514136905,7.11156636309524,10.1172245952381,11.7821480892857,12.844348764881,13.5833535029762,14.1284668541667,14.5478707678572,14.8809651696429,15.1521517529762
0.223014423214285,13.3701640595238,26.5015148214286,31.0929179613095,33.8649019315476,35.7696424196429,37.1629160535715,38.2269702619048,39.0663605208333,39.745585202381
0.222588374345238,15.7860620833333,28.7530097857143,34.062329547619,37.4638756428571,39.8572804017857,41.6353151428571,43.0089191785714,44.1022758869048,44.9933228690476
0.211752554166666,7.26656804166667,10.2862971815476,11.9467307440476,12.9969685922619,13.7211644166667,14.2508670803571,14.6552526517857,14.9741677172619,15.2321792023809
0.217253167708333,7.51964407142857,10.6306891130952,12.3322156815476,13.4086249851191,14.1530137827381,14.6994857470238,15.1182259196429,15.4496135416667,15.718567702381
0.219456791517857,7.76063051488095,11.0349388452381,12.8573773392857,14.0215996428572,14.8303816755952,15.4251354880952,15.8809737589286,16.24151275,16.5338466875
0.216959578005953,7.79254532440477,11.0484483244048,12.8433814732143,13.9838830327381,14.7741359047619,15.3547109791667,15.7996641607143,16.151761797619,16.4374597470238
0.215292544910714,7.86866591369048,11.1589925327381,12.9712041309524,14.1201231517857,14.913879485119,15.4951971011905,15.9393424404762,16.2897790982143,16.5733593511905
0.215510073005952,7.96455266666667,11.2712850446429,13.0848848303571,14.2321444315476,15.0241201517857,15.6041036726191,16.0473547380952,16.397218014881,16.6804456666667
0.215964997083333,7.94200620238096,11.2297313303571,13.0446406398809,14.1999752827381,15.0021641220238,15.5928022410714,16.0464612053571,16.406222077381,16.6987450535714
0.213144157261905,8.04293428869048,11.4260345089286,13.3072590744048,14.5095631309524,15.3458686071429,15.9619218630952,16.4349855625,16.809884860119,17.1144514583333
0.208764924910715,8.07295189285714,11.4656954851191,13.3433250684524,14.5370792440476,15.3631504136905,15.9687203005952,16.4316504434524,16.7970222172619,17.0927359940476
0.222315116964286,19.6733290863095,28.7396355446429,34.0545630922619,37.5596578779762,40.0485285327381,41.9086726071428,43.3523334672619,44.5056787291666,45.4484898214286
0.216549935863095,8.76296458035713,12.4442270386905,14.4646223958333,15.744358110119,16.6295985386905,17.2792932202381,17.7768322321429,18.1702738214286,18.4893201428571
0.21364067702381,8.62367873809523,12.2037414553571,14.1702193392857,15.4172837410714,16.2800007053571,16.9129430625,17.3974470684524,17.7804285654762,18.0908810654762
0.213156315654762,8.75049229464286,12.3983787321429,14.4093694375,15.6876298095238,16.5728888095238,17.2225507648809,17.7197816488095,18.1127027886905,18.4310933869048
0.211234293928572,8.76963963988095,12.4181799553571,14.421412202381,15.6902110178571,16.5670303601191,17.2097647023809,17.7014026220238,18.0897922946429,18.4044682023809
0.211909806041667,8.9701679047619,12.6956967172619,14.7437317261905,16.043976889881,16.9447585595238,17.6066072559524,18.1139875119048,18.5156297857143,18.8416691160714
0.211511582738095,8.97207144047618,12.6966098392857,14.7515236011905,16.0584285267857,16.9637583809524,17.6281145744048,18.1364223184524,18.5378898988095,18.8630090803571
0.414172215297619,15.9659097797619,23.5931104880952,28.0659328125,31.0078669017858,33.0935201636905,34.6512680148809,35.8599981964286,36.8257439285714,37.6153542916666
0.427160021696429,30.8449059345238,46.5473253095238,55.8344373184525,61.9334345208334,66.2366609672618,69.4322928422619,71.8978444583333,73.8572914404762,75.4516818184524
0.212656955952381,9.56159312202382,13.5616009255952,15.7567288452381,17.1428804285714,18.0975099345238,18.7951022619048,19.3272704672619,19.7467059404762,20.0858634970238
0.209290249404762,9.48135064285715,13.4289605595238,15.5960448660714,16.968600047619,17.9176806190476,18.6138903452381,19.1467657886905,19.5679398214286,19.9092934761905
0.206422437589286,9.57178394940476,13.5700583333333,15.7664235684524,17.1587376279762,18.1214914047619,18.827373077381,19.3673008244048,19.7937744375,20.1392207648809
0.218739972946429,23.1674430238095,33.5460123958333,39.5283889821429,43.4406600357143,46.2034037767857,48.2598993482143,49.8509638065476,51.1189938958333,52.1531579464286
0.441186306071428,20.9298811934524,29.4336588095238,34.1025963095239,37.0782905,39.145703047619,40.6674419910714,41.8351707261905,42.7599823303572,43.5107638928572
0.216685749345238,10.4109259672619,14.7052810625,17.0571180654762,18.5467675416667,19.5762368422619,20.330613875,20.9072968452381,21.3625053571428,21.7309961607143
0.214772022232143,10.7260871607143,15.2578533154762,17.762371125,19.3561991577381,20.4612989315476,21.2733892202381,21.8957930654762,22.3882648720238,22.7878021726191
0.217183963125,22.866029375,32.7326465714285,38.2755597797619,41.8278946101191,44.2982157142857,46.1152570833333,47.5076795238095,48.6086865773809,49.5010303869047
0.206210850535714,10.4496820833333,14.8319322678571,17.2427456994048,18.7735332172619,19.8346542083333,20.6149766547619,21.2137023452381,21.6880502827381,22.0733761785714
0.440935259285715,18.8450602172619,27.14908575,32.16333375,35.5508041339286,37.9991261636905,39.8530772619048,41.3063419642857,42.4764098214285,43.4388316369048
0.212238797083333,11.1157428184524,15.7184416607143,18.2345735267857,19.8242293452381,20.9206645089286,21.7231316964286,22.3361672916667,22.81993875,23.2115377380953
0.463166307440477,38.0737546517857,57.9244302767857,69.5807004553572,77.0947342083334,82.3095497470238,86.1326909374999,89.0535330952381,91.357040139881,93.2199859375001
0.208389578035714,11.1013295119048,15.6663258511905,18.1631919375,19.7422128571429,20.8324901577381,21.6312826636905,22.2421290148809,22.7246468869048,23.1156051160714
0.208413521696429,11.1886224821429,15.7808297202381,18.3100098244048,19.9200314285714,21.0381032767857,21.8612144702381,22.4931713244048,22.994026639881,23.4009651011905
0.209026623095238,11.4282506875,16.1837857797619,18.8137467886905,20.4881929821429,21.6493299196429,22.5024275714286,23.1560059017857,23.6728884464285,24.091980985119
0.435761634434523,28.4244513065476,41.3469071755952,48.5204454047619,53.1125731815476,56.3079265476191,58.6607423809525,60.4652598214285,61.8935065773809,63.0517008630953
0.215798229791667,23.6484266607143,34.2622224791667,40.2961828333333,44.1959991279762,46.9272860803572,48.9484096011905,50.5052427440476,51.741690625,52.7476732589286
0.41381248125,23.7573934077381,33.0974032589286,38.2406601190476,41.5258205654762,43.8118983035714,45.4965779464285,46.7904386904762,47.8157441369048,48.64844125
0.452030594345238,38.9651022619048,55.975345654762,65.8328863065477,72.3065329761905,76.8911857142857,80.3107737797619,82.9603519047619,85.073627797619,86.7989896428571
0.204853751071429,11.8619548095238,16.7833825029762,19.497483889881,21.21957675,22.4095804910714,23.2811873214286,23.9472062232143,24.4728161875,24.8982708392857
0.437482134732143,29.4375242916666,43.1721221964286,50.9469310178571,55.9163126607143,59.3611989880952,61.8888608035714,63.8220822619048,65.3487811309524,66.5849116964286
0.207500278273809,12.343019625,17.4439884494048,20.2471390684524,22.0250910982143,23.2550692261905,24.1572574642857,24.8476125922619,25.3930611398809,25.8349853839286
0.411580912827381,28.5256029047619,41.3281921339285,48.5138883214286,53.1249797946428,56.3386230208334,58.707707264881,60.5269118095238,61.9681812321429,63.1379553541666
0.208047742946429,12.7304585922619,18.0272615714286,20.9381619702381,22.7842555446428,24.0619534226191,25.0000008630952,25.718650922619,26.287222202381,26.7485402083333
0.206033291160714,12.7154542172619,17.9757570744048,20.8632956934524,22.6946769166667,23.9619142053572,24.891728625,25.6034192916667,26.1658834761905,26.6217100089286
