0.484724344174365,0.51110999314552,0.521066478685145,0.526299788308714,0.529527967963624,0.531718586900305,0.533303022426488,0.534502408510036,0.535441686676336,0.536197170274572
0.799739626947454,1.23427130809022,1.4770477796497,1.63459542089265,1.7477830680822,1.83526729137473,1.90671668351359,1.96760715203609,2.02126043938329,2.06980259849584
0.306436157422263,0.623730382253881,0.919594830383904,1.25037547947126,1.62356410574128,2.02621622615306,2.441930928257,2.85677593195292,3.26048555609823,3.64617516093812
0.50334471475355,1.53053947984422,2.47198309446859,3.49211544536943,4.53814788352835,5.47700691160903,6.24896733978954,6.85775536992389,7.33153239721861,7.70106461289747
0.275964013173065,1.08854251802215,2.54369560997906,4.05503966940713,5.11890335481743,5.79582707951027,6.23629264340502,6.53870836044029,6.7577872015889,6.92380801507629
0.296004792789322,1.62534683405527,3.83724786056525,5.31112210896893,6.08784632944842,6.54325031585698,6.84440068017428,7.06098207125761,7.22572719834206,7.35598890526756
0.3025649257838,2.20428224186816,4.73723214566279,5.92574394921163,6.55232974486033,6.95461147131941,7.24150150064584,7.45866366024946,7.62960990915908,7.76798945619295
0.33550072732394,3.16255636518012,5.85037932164233,6.99808018144275,7.66597371912719,8.12030228451429,8.45329060694159,8.70880781208416,8.91144527958882,9.07614443896049
0.263943827788734,2.93289911312533,4.752063321465,5.55820774441255,6.05035142308519,6.38819262187659,6.63538661887522,6.82425167811861,6.97332449078759,7.09398230533082
0.252092835781199,3.3316212917987,5.2583806786427,6.23865006087987,6.8733073301368,7.32141731008806,7.65513704107565,7.91345217271523,8.11933960414328,8.28725556657642
0.293978446526816,3.65039060610575,5.44585268570986,6.37448401250432,6.95982206068459,7.36302193223562,7.65762474022846,7.88226143999622,8.05913542457692,8.20207340811908
0.267118708674136,3.62292526003627,5.26595289814894,6.14160168204979,6.69810445321421,7.08381463950585,7.36711696575258,7.58410185119145,7.75571156968398,7.8948052385362
0.278195182043041,4.1657794443533,6.02037608891789,7.03914813537947,7.69183746280216,8.14600717331405,8.48025361174509,8.73650052236891,8.93920797930441,9.1035230934294
0.263945462611893,3.77843057151525,5.39834268684414,6.29136176375698,6.86188186327141,7.25831949293992,7.55005756821368,7.77381899202312,7.95097899652201,8.09472801932017
0.241265962717623,3.85902776821656,5.55294645948663,6.50396401677965,7.11576567071116,7.54263950393536,7.85744686452082,8.09926182187558,8.29085359243845,8.44641360329224
0.244746733373412,3.9535551948187,5.67622668440917,6.64100529064316,7.25913319346076,7.68900419824686,8.00522008793433,8.24758182856562,8.43929611406875,8.59466497530073
0.263937720329144,4.12878993913776,5.85449640357303,6.80165105404512,7.40165608155943,7.81630445699283,8.12017197973607,8.35252255924046,8.53598323711265,8.68452980073194
0.24635707381079,4.46898168067444,6.34829164326739,7.38759648138562,8.04958593332377,8.50883229193691,8.84633016209206,9.10497824455383,9.3095153745031,9.47542788641298
0.245101180424497,4.02845641458392,5.65305263835047,6.53689366869389,7.09496957468218,7.48035111666766,7.76294858221659,7.97937706522474,8.15058040193338,8.28957071984624
0.257139942954072,3.78784050771699,5.27964658269301,6.09639557279455,6.6154447954227,6.97506800149161,7.23900431438273,7.44092908924779,7.60037840609546,7.72945210131789
0.241501225800723,4.14029393195421,5.86472090492724,6.83168915325006,7.45271646420817,7.88569552375945,8.20491202298839,8.44999745194723,8.64414115419736,8.8017265521431
0.24876134360649,4.4104500052236,6.25422749683564,7.27570850592786,7.92593297890156,8.37696633943271,8.70867723871753,8.96309452466518,9.1646352007558,9.32836277923399
0.251764613863891,4.82774340175993,6.87039610817755,8.01005861890533,8.73893234555664,9.2456872464432,9.61847973873727,9.90426881104034,10.1302790470166,10.3135554199133
0.236671439322395,4.16543696637204,5.90137288260925,6.86682591076672,7.4853913351144,7.91781098554543,8.2384733433581,8.48663377609331,8.68489282014674,8.84724619419754
0.239688298257862,4.79581043625071,6.97212063944205,8.21801967621934,9.02548191060718,9.59137730328749,10.0100643437785,10.3323132210078,10.5880812527482,10.796006343819
0.320615973857169,6.05559769614579,8.60164413843319,9.94915831889018,10.7753269081574,11.3320459607222,11.7322159031071,12.0335670516334,12.2686140261895,12.4570616223364
0.242808105831001,4.94448830412468,6.91168962559609,7.9771214808419,8.6499888645515,9.11526290538644,9.45691241836054,9.71876147785491,9.92607924007965,10.0943964981536
0.238041528893864,5.16372696831081,7.24989506998545,8.39367098864133,9.11908705717678,9.62085381647709,9.98873697046264,10.2701123411348,10.4923294064349,10.6722604113856
0.247122147465432,5.14638731609391,7.26880645835292,8.43005595420759,9.16332300297739,9.6688185675655,10.0387569312831,10.3214198039521,10.5446552809452,10.7255030612581
0.23467716707054,4.91453400315774,6.84821568611662,7.89725591584555,8.56096982548991,9.01991448796546,9.35635422239631,9.61365931093091,9.81678655561869,9.98122662993229
0.237730626448862,5.01689606995557,6.97067900001647,8.02537760949727,8.68891781696768,9.14545858554316,9.47893021228593,9.73321177351328,9.93358602734186,10.095559772416
0.236924758255371,5.12995733414369,7.17836183208208,8.30479040693638,9.02500316410413,9.5284929377659,9.9017210782536,10.1900074678897,10.4195851474586,10.6067355964504
0.239452505966846,5.27144174473257,7.38603772946542,8.57678799835934,9.34493922523806,9.87760740620006,10.2662208763134,10.5612682486254,10.7925424291807,10.9785335586427
0.239118839332497,5.67587301755102,7.9678794455385,9.22832197840841,10.0252250522451,10.5757508724965,10.9800308386183,11.2902298574845,11.5362036408564,11.7362767645002
0.248772845650464,5.85392372259456,8.45721919693747,9.91785472576821,10.8453909171693,11.4878075608072,11.9596486453104,12.3211480809123,12.6069901740544,12.8387311799445
0.234700076464144,5.5481890470164,7.80884193704212,9.03254844924733,9.79985551928699,10.3262690355014,10.70986055381,11.0018212706286,11.2314884174223,11.4168807158357
0.235739327779652,5.6985866324606,8.01207457614623,9.25593927295642,10.0350282746229,10.5699920962287,10.9605388827593,11.2584840077598,11.4933608181793,11.6834271877484
0.231863098126622,5.68504225620216,7.92080680041765,9.11168107008087,9.85499019190396,10.3640313500175,10.7347667536817,11.0169138472972,11.2388816911612,11.4180807140721
0.241421340062684,6.70672712971547,9.69807996740088,11.3986887270322,12.5078214591308,13.2915325970246,13.8760589076691,14.3294303893287,14.6917479200287,14.9881781984142
0.237108079605064,6.1831526579282,8.68291891477997,10.0518973611405,10.9220702225339,11.5243770388174,11.9655116163977,12.3020963376357,12.5670638596575,12.7808977503431
0.239276771929768,6.21194637545847,8.53566598950415,9.76025393215211,10.5198374366927,11.0377789192879,11.4138209985183,11.6994010998369,11.9237373201565,12.1045940340116
0.232105701515752,6.12932493588775,8.49067502147558,9.78036090258243,10.6022269821049,11.1747255391241,11.597664175142,11.923480967032,12.1824940973983,12.3935191847397
0.233765886821174,6.07877371699065,8.39975195890392,9.65732937398387,10.4498198881156,10.995861122821,11.3953557826902,11.7005427240414,11.9414250470906,12.1365179772793
0.25355955561574,6.81400986926665,9.49470416726407,10.9486960157802,11.865465151446,12.4985553413096,12.9634551072889,13.3202835335109,13.603410925896,13.8339968101797
0.242098512789425,6.88768980359018,9.73167767372177,11.3031942208768,12.3043374777114,12.9984475839866,13.507636490635,13.8967204473563,14.2034369061255,14.4512370075754
0.229677019717606,6.46683237670183,8.99684344216783,10.3499783748208,11.1915149122747,11.765225512095,12.181381870871,12.4970609826681,12.7447068345314,12.9442040758721
0.232837680033286,6.70071078893513,9.3038885913137,10.693851216174,11.5658341135029,12.1669621337275,12.6078809785241,12.9457916989343,13.2133421331732,13.4306502441944
0.231921467401209,6.82974797766234,9.51073023365719,10.9569576606788,11.8647730906539,12.4877471983048,12.9415415354198,13.286700390402,13.5579029239822,13.7765608840202
0.252371000528777,7.67084254090783,12.8667613314851,25.4244330938979,50.5534217440568,86.1300101066742,126.134911894021,164.417121091695,197.321994176755,223.854864177633
0.231994565821339,7.07727320478033,9.90805937258382,11.4701632841495,12.4667204029956,13.1580522750763,13.6655377625194,14.0535634736012,14.3595578238549,14.6068592775711
0.230403981181454,7.2729939685933,10.0885289601421,11.5935355487752,12.5336456502813,13.1778412380215,13.6469016146653,14.0036368510457,14.2840670809633,14.5102755748375
0.236584982272754,7.40893830550221,10.240758328701,11.7566413930976,12.7101924697662,13.3684518382186,13.8516032302913,14.2220750371553,14.5156584147085,14.7543024983747
0.249103586995928,25.5833105342106,201.157231623945,315.718860623102,361.71430893093,388.596223213058,407.552013284995,421.984583765945,433.428441596747,442.751058842425
0.25390798479269,45.5271230090775,261.652014153898,347.945065899078,387.532145233085,413.339941876992,432.101949184039,446.453464224169,457.804168267227,467.009017124732
0.229909867768316,7.72275175425662,10.7754696968758,12.4256441137848,13.4600874696266,14.1694840301318,14.6866203941657,15.0808340127063,15.3916892949735,15.6434852704753
0.258410918563171,113.370576284504,299.669288318769,354.003681201154,385.89970082574,407.737126040169,423.693585985141,435.873310364708,445.478215292816,453.248728425266
0.253178850218721,154.641952951945,335.997985182222,402.063227820512,444.433877488971,474.402281091233,496.748875793136,514.0581547002,527.862415949682,539.128348479814
0.224202175867807,7.62748301585178,10.5194437004733,12.070493588663,13.0398980995099,13.7029077830975,14.1848061746851,14.5508150190976,14.8382500931922,15.0699396891999
0.232795268416194,7.96429957530977,11.0519260956691,12.6995149418013,13.7273092090319,14.4343101678672,14.9532566306638,15.3520033410928,15.6690058075775,15.9276497110114
0.233107669838133,8.1478568592629,11.4408180981159,13.2874474340973,14.477458404631,15.3087625097181,15.9217581096343,16.3919797105283,16.7637852276309,17.0649784551974
0.2337466324079,8.26785137891555,11.5017297258766,13.2400835714547,14.3274173920361,15.0727768310821,15.6161472470586,16.0302514595654,16.3565552898341,16.6204811425034
0.229784706913607,8.18672737728399,11.4165935679635,13.1583478637271,14.2496414319822,14.9982730101669,15.5439570367593,15.9594425311149,16.2863748565505,16.5503398861726
0.227404701862539,8.22242650535651,11.3887774331494,13.0733610353124,14.1215252129274,14.8379303349984,15.359279587726,15.7561160048537,16.06849140745,16.3209246463256
0.230109462548353,8.49125079536753,11.8153063990634,13.6172428812143,14.7579665127873,15.5500619900568,16.1349238770221,16.5860836921775,16.9456472039522,17.239591885014
0.228694975597614,8.45368137862805,11.7989906480249,13.6154710746964,14.7598755736866,15.5474348045415,16.1226493935423,16.561340833539,16.9070590425289,17.1866546075475
0.228507849005997,8.64339733560694,11.9934403556091,13.779950180258,14.8939038207988,15.65540605943,16.208827594249,16.6290232655618,16.9588596931844,17.2245773577152
0.263566699841279,206.313197959121,307.957184750602,369.868019382064,411.632153768583,441.727836273244,464.452061134335,482.220086021907,496.494833350201,508.214557704047
0.23215708736699,9.70921341241329,13.6696951523928,15.7784162249841,17.0859677083391,17.9780655299152,18.6267956355425,19.1203714071437,19.5087909216223,19.8226134563664
0.22844241569129,8.94326515568811,12.3466318148801,14.1528464744803,15.2842703641101,16.0651429857795,16.6396023857628,17.0817633512359,17.4337170402225,17.7212808388677
0.228142032354986,9.32181629372337,12.9552870822134,14.9383978505346,16.2014335458555,17.0780769580814,17.7217896019291,18.2141245467464,18.602611689197,18.916780446383
0.223837645334114,8.93729316984311,12.3188052107507,14.1115293609798,15.2270851276229,15.9890574568906,16.542780123139,16.9634187676168,17.2938824829873,17.5603731490891
0.230899787223637,9.53574433645329,13.2256851424059,15.2068708658034,16.452418984682,17.3116240806975,17.9419642283944,18.4252290885073,18.808135908943,19.1194417674006
0.226826935171089,9.28134326857929,12.8491537952518,14.77237165928,15.9879856045391,16.8293409025391,17.4467738163741,17.9189106435903,18.2912464929015,18.5921215622373
3.6919734623417,124.734200278924,193.959310627066,236.82129972332,265.807298160536,286.712524145789,302.508119359503,314.865899660688,324.800382514459,332.961767961011
3.81905781389707,281.338397356386,432.10488820005,523.112836656779,583.467209083861,626.292746498691,658.212349517346,682.901986302779,702.559328076333,718.575958732793
0.231093630449384,9.97605441871237,13.8171619551067,15.8497580034027,17.1108919292938,17.9700907784808,18.593056405193,19.0653698289527,19.435724685234,19.7338972309193
0.223189022857016,9.60802323354763,13.2433595159898,15.1733790445141,16.3782628382159,17.2056124550471,17.8106703112151,18.2733180678556,18.6390722390573,18.9357917763529
0.226369914502746,9.93452262175359,13.6883568692198,15.6773268316865,16.9132350510634,17.7565200695738,18.3687572208969,18.8334428029704,19.1981906185189,19.4920827338303
0.260697919000952,242.75086200895,356.46247500434,423.944878477598,468.894919019931,501.022035504715,525.135278747695,543.902357755529,558.926006853863,571.218437524226
4.20625455097996,197.402200707434,274.568502127141,316.751170355402,343.755214277534,362.593488192951,376.502187650289,387.199350438545,395.685072953301,402.581955558443
0.24293879849865,11.1800843967455,15.4169536964037,17.6630162472598,19.0601520683768,20.0146700906637,20.708604646584,21.2359969758861,21.6504185772807,21.9846973965761
0.23146530832459,11.3461066062565,15.963793839941,18.4869061025197,20.0873609258845,21.1967641572368,22.01284192213,22.6392604618801,23.1357486346157,23.5392677857198
0.257408908762766,228.234711961161,329.794272712639,388.058070515506,425.876133192982,452.389241806638,471.998457435555,487.084292416349,499.047797716575,508.765981454387
0.224411385330317,11.0971077960909,15.45174451423,17.766044029204,19.2132056219577,20.2105548165364,20.9433237322765,21.506494324691,21.9540554661041,22.3189873893697
4.27058600440264,147.459778129677,215.973611491456,261.535591282311,294.10037166698,318.506380782335,337.459334667255,352.59434370495,364.954415889673,375.235607934753
0.242069360676104,12.2353254409308,16.8551765129747,19.2740704748931,20.7627846236827,21.7708011038988,22.4983336565349,23.0480589868729,23.4780204861821,23.8235089962589
4.49649812285139,347.615345429825,546.354169618457,666.1548131067,743.816749089022,797.734391330679,837.223050802492,867.352619008487,891.083113962341,910.252192130245
0.224001751267948,11.6977915491583,16.1010413766678,18.4231719400346,19.8614673935494,20.8402714646051,21.5493586501515,22.0866229447544,22.507643402283,22.8464259942731
0.227847591043894,12.1563539495301,16.785277565723,19.2637268854588,20.8181444210562,21.8891564598642,22.6749142585761,23.2777887660914,23.7561285149373,24.1456117721554
0.230007698391885,12.4328319618329,17.1792927548355,19.7078556055676,21.2830476841253,22.3594735920791,23.1419780790798,23.7367045145364,24.2041441377316,24.5812816147836
4.22087991214419,313.210852765475,463.55936887109,547.488548780401,601.585727687199,639.425044228604,667.397380249765,688.913374474561,705.983468312292,719.849882230503
0.249626215791875,216.547875997924,320.660494897599,381.670618198245,421.757092724716,450.114887123686,471.237611122552,487.582300643599,500.605969058438,511.228037476738
3.74086936227478,216.330181661506,297.667504116216,342.772853875711,371.881730942189,392.298770391723,407.433847622646,419.109991527076,428.394724690494,435.955772364883
4.41694996539853,355.126359897438,514.551984261972,609.27994271931,672.403221389732,717.505854541843,751.34322303079,777.667686256927,798.723544493464,815.952378378229
0.229676849223175,12.9942184065044,17.9624152745986,20.6312288614515,22.3005501424034,23.4416344575151,24.2697114436384,24.8972860566103,25.3889535473233,25.7843617103178
4.24534350334014,319.777362231704,481.25734121651,574.318953919213,634.127962353082,675.68418139601,706.212449072708,729.575822909649,748.035479735436,762.986258574495
0.22850346631471,13.2207272093363,18.2583557408096,20.9500263079923,22.6341573993606,23.79023110865,24.6340467196123,25.2775846071658,25.784831512222,26.1950777090341
3.77599046220247,297.676624687059,438.974347458655,519.430236984752,571.537108956412,608.086904196149,635.157362093268,656.017233865704,672.589631418013,686.067636450178
0.228942415855573,13.7929593103113,19.1432690222463,22.0072990957626,23.8048256207563,25.0457893760269,25.958397327373,26.6603449749516,27.2185922736587,27.6741748379855
0.226734823182948,13.7400285997812,19.0000109457446,21.8059128760353,23.5590430931675,24.7590839144816,25.6317939813685,26.2946410292807,26.8150445866621,27.2343472709717
