1.93903,1.94908,1.95245,1.95414,1.95516,1.95584,1.95632,1.95668,1.95697,1.95719
1.47162,1.975,2.22723,2.37874,2.47981,2.55205,2.60624,2.6484,2.68213,2.70974
1.30651,2.24372,2.71771,2.98992,3.16387,3.28383,3.37128,3.43773,3.48989,3.53188
1.1999,2.577,3.27187,3.65654,3.89612,4.05864,4.17584,4.26424,4.33325,4.38861
1.17194,3.06938,4.00645,4.50768,4.81424,5.02015,5.16777,5.27871,5.36511,5.43428
0.923143,1.98705,2.29286,2.42286,2.49387,2.53851,2.56915,2.59148,2.60846,2.62182
0.902994,2.79921,3.82777,4.48225,4.94282,5.28652,5.55344,5.76697,5.94179,6.08759
0.914997,3.7018,5.29386,6.20814,6.78151,7.1681,7.44381,7.64919,7.80755,7.93306
0.923815,4.48118,6.31703,7.25436,7.80507,8.16432,8.41651,8.60316,8.74687,8.86094
0.929726,5.17431,7.15963,8.13287,8.70489,9.0818,9.34928,9.54914,9.70424,9.82815
0.930419,5.77518,7.88057,8.90866,9.51897,9.92421,10.2132,10.4299,10.5983,10.7331
0.936332,6.37617,8.6293,9.73768,10.4002,10.8415,11.1568,11.3934,11.5774,11.7246
1.05468,7.67915,10.2853,11.5658,12.3302,12.8387,13.2013,13.4731,13.6843,13.8531
0.94062,7.40445,9.94328,11.2148,11.9816,12.4948,12.8624,13.1388,13.3541,13.5267
1.1652,9.70735,12.9639,14.5828,15.5521,16.1973,16.6577,17.0026,17.2706,17.4849
0.992449,8.74209,11.6644,13.1247,14.0019,14.5874,15.006,15.3202,15.5647,15.7604
1.0286,9.69315,13.0016,14.6721,15.6805,16.3554,16.8387,17.2019,17.4848,17.7114
1.00031,9.98608,13.3869,15.0938,16.119,16.8027,17.291,17.6571,17.9419,18.1696
1.00493,10.5575,14.1295,15.9167,16.9889,17.7037,18.2143,18.5972,18.895,19.1333
1.01657,11.163,14.9081,16.7791,17.9015,18.6498,19.1844,19.5853,19.8973,20.1468
1.01673,11.558,15.381,17.2859,18.4274,19.188,19.7312,20.1384,20.4552,20.7085
1.0258,11.9921,15.9113,17.8646,19.0359,19.8167,20.3744,20.7928,21.1182,21.3786
1.04308,12.8502,17.1911,19.3913,20.7226,21.6152,22.2552,22.7366,23.1119,23.4126
1.00403,12.9878,17.4144,19.6477,20.9921,21.8896,22.5311,23.0124,23.3867,23.6862
0.961166,13.1074,17.6261,19.9054,21.2777,22.1942,22.8496,23.3416,23.7245,24.031
0.991988,13.9628,18.6634,21.003,22.4016,23.3318,23.995,24.4917,24.8776,25.1861
1.0018,14.6545,19.6045,22.0853,23.5769,24.5732,25.286,25.8212,26.2379,26.5715
0.997233,15.056,20.1065,22.6321,24.148,25.1588,25.8809,26.4225,26.8437,27.1807
0.957203,14.7667,19.6463,22.0778,23.5348,24.5054,25.1985,25.7181,26.1221,26.4453
0.956954,15.1374,20.1458,22.6548,24.1633,25.1707,25.8912,26.4321,26.8531,27.1901
0.959903,15.6774,20.9226,23.5632,25.154,26.2172,26.9779,27.5491,27.9938,28.3498
0.986578,16.5332,22.0427,24.8039,26.4617,27.5671,28.3566,28.9487,29.4092,29.7776
0.996531,17.1511,22.8737,25.7444,27.4697,28.6212,29.4444,30.0622,30.5429,30.9276
0.971358,17.3708,23.2709,26.2495,28.0458,29.2471,30.1071,30.7531,31.2561,31.6589
0.97473,17.8294,23.7979,26.7797,28.566,29.7554,30.604,31.2399,31.7342,32.1294
0.992326,18.6772,24.9563,28.1071,30.0018,31.2671,32.1721,32.8515,33.3804,33.8037
0.985949,19.1967,25.7152,28.9968,30.9729,32.2932,33.2377,33.9469,34.4989,34.9407
1.01665,20.325,27.1853,30.6209,32.6826,34.057,35.0385,35.7745,36.3468,36.8046
1.01242,20.8361,27.8869,31.4247,33.5515,34.9713,35.9864,36.7482,37.3412,37.8158
1.00263,20.646,27.3735,30.7004,32.6848,34.0029,34.9419,35.6449,36.1909,36.6272
0.98745,21.0031,28.0671,31.6387,33.7992,35.2479,36.2872,37.0693,37.6793,38.1682
0.997446,21.714,29.0076,32.6703,34.8711,36.3387,37.3869,38.1729,38.784,39.2728
1.00477,22.3193,29.7878,33.5288,35.7745,37.2721,38.3419,39.1444,39.7687,40.2681
0.996005,22.6975,30.3455,34.1895,36.5025,38.0474,39.1524,39.9819,40.6277,41.1446
0.995828,23.0871,30.7989,34.6552,36.9683,38.5098,39.6106,40.436,41.0779,41.5913
0.987372,23.4519,31.3436,35.3087,37.6949,39.2889,40.4292,41.2853,41.9518,42.4853
0.986585,23.8561,31.8408,35.8389,38.239,39.8394,40.9826,41.8401,42.507,43.0405
1.00463,24.7621,33.0537,37.2107,39.7089,41.3763,42.5682,43.4627,44.1588,44.7159
0.980193,24.5452,32.7336,36.8342,39.2969,40.9396,42.1134,42.994,43.6791,44.2273
0.983504,25.1049,33.5088,37.7265,40.2627,41.956,43.1667,44.0754,44.7826,45.3486
0.99405,25.9928,34.7686,39.1841,41.842,43.6175,44.8873,45.8406,46.5826,47.1765
0.991054,26.6507,35.7292,40.3006,43.0523,44.8901,46.2044,47.1908,47.9586,48.573
0.978294,27.1801,36.531,41.2421,44.0779,45.9719,47.3263,48.343,49.1342,49.7674
1.00265,28.3365,37.9204,42.7012,45.5635,47.4687,48.8281,49.8467,50.6384,51.2715
0.977453,27.9551,37.2948,41.9511,44.7424,46.6029,47.9319,48.9288,49.7043,50.3248
0.963361,18.1353,21.5716,23.0267,23.8315,24.3425,24.6958,24.9546,25.1523,25.3084
0.961105,22.4384,30.6835,35.6567,39.053,41.5344,43.431,44.9295,46.1439,47.1485
0.970215,26.0877,36.8058,42.7378,46.4114,48.8773,50.6341,51.9435,52.9544,53.7569
1.00481,29.3913,41.0036,46.891,50.3689,52.6511,54.2609,55.4569,56.3803,57.115
0.985372,30.1307,41.2466,46.6825,49.8842,51.9962,53.4955,54.6158,55.485,56.1793
0.986986,30.9511,41.8103,47.1136,50.265,52.3583,53.8512,54.9702,55.8403,56.5363
0.96201,30.9223,41.5907,46.8704,50.0366,52.15,53.6615,54.7965,55.68,56.3874
0.973802,31.7858,42.5553,47.9007,51.1055,53.242,54.7681,55.9127,56.803,57.5151
0.97862,32.8641,44.1363,49.8005,53.2157,55.5003,57.136,58.365,59.3223,60.0889
0.978351,33.2537,44.458,50.0413,53.3858,55.6124,57.2012,58.3917,59.317,60.0567
0.985702,34.3842,46.1271,52.0368,55.5986,57.9805,59.6858,60.967,61.9649,62.764
0.974936,34.2411,45.69,51.391,54.8029,57.0733,58.6928,59.9061,60.849,61.6027
0.979598,34.6524,46.1639,51.9125,55.363,57.6648,59.3099,60.5445,61.5051,62.274
0.91303,32.7891,43.7815,49.3076,52.6359,54.8604,56.4523,57.6478,58.5786,59.3238
0.918342,34.4105,46.4293,52.5564,56.2703,58.7618,60.5489,61.8932,62.9411,63.7809
0.941131,35.5464,47.5597,53.5348,57.1003,59.4671,61.1519,62.4122,63.3903,64.1714
0.966009,37.1563,49.7518,56.0629,59.857,62.3909,64.2037,65.5651,66.6252,67.4741
0.971274,37.8006,50.5162,56.873,60.6878,63.2316,65.0487,66.4117,67.4718,68.3199
0.951539,36.962,49.1381,55.1919,58.8155,61.2279,62.9495,64.2399,65.2432,66.0455
0.957113,37.6619,50.2341,56.5567,60.3676,62.9165,64.7417,66.1131,67.1813,68.0369
0.967309,38.3609,51.1386,57.5464,61.3966,63.9651,65.8003,67.1769,68.2477,69.1044
0.982236,38.1621,50.3817,56.4206,60.0214,62.4126,64.116,65.3911,66.3814,67.1727
0.967121,38.3412,51.1449,57.6421,61.5804,64.2248,66.1237,67.5536,68.6693,69.5641
0.977062,39.3879,52.6673,59.3702,63.4066,66.1016,68.0278,69.4728,70.5967,71.4957
0.955245,39.5731,53.1594,60.0315,64.1749,66.9447,68.9266,70.4149,71.5736,72.5012
0.936805,40.1144,54.0891,61.1528,65.4089,68.2526,70.2866,71.8135,73.002,73.9533
0.9495,40.978,54.8408,61.7296,65.8428,68.5756,70.5229,71.9808,73.1131,74.0179
0.967377,41.9332,55.9159,62.8741,67.0432,69.822,71.8071,73.2964,74.455,75.3822
0.975451,42.7468,57.0591,64.2335,68.5502,71.4342,73.4976,75.047,76.2532,77.2189
0.99167,43.3634,57.6489,64.7688,69.035,71.8766,73.9049,75.4253,76.6073,77.5526
0.987076,43.237,57.4797,64.611,68.8975,71.7591,73.8054,75.3414,76.5369,77.4939
0.976269,43.4056,57.9613,65.3063,69.7369,72.7007,74.8225,76.4166,77.6579,78.652
0.998447,44.9363,60.0414,67.6346,72.1994,75.2451,77.4214,79.054,80.3239,81.3399
0.970434,44.0444,58.7891,66.1761,70.6105,73.5673,75.6796,77.264,78.4964,79.4823
0.976949,45.2696,60.6622,68.4247,73.1037,76.2324,78.4718,80.154,81.464,82.513
0.980607,46.5376,62.5218,70.5808,75.4335,78.675,80.9931,82.733,84.0871,85.1709
0.978315,46.4041,61.8755,69.5582,74.1463,77.1953,79.3683,80.9953,82.259,83.269
0.977884,47.2292,63.2177,71.2618,76.1109,79.3551,81.6787,83.425,84.7857,85.8757
1.00073,48.8426,65.2974,73.5411,78.4914,81.7925,84.1505,85.919,87.2943,88.3944
0.979084,47.7054,63.4903,71.3513,76.0583,79.1926,81.4296,83.1064,84.41,85.4526
0.983619,47.8572,63.5988,71.461,76.1809,79.3297,81.5802,83.2691,84.5832,85.635
0.982323,49.0843,65.8236,74.3233,79.4697,82.9208,85.396,87.2579,88.7094,89.8726
0.977617,49.6393,66.5387,75.0349,80.1382,83.5402,85.9692,87.7901,89.2057,90.3377
0.977651,50.0889,66.9763,75.4204,80.4832,83.8567,86.2656,88.0719,89.4767,90.6004
0.968115,50.0055,66.7887,75.1849,80.2257,83.5883,85.9915,87.7946,89.1977,90.3204
