1.60676,1.66372,1.68361,1.69374,1.69988,1.70399,1.70694,1.70916,1.71089,1.71228
1.23854,1.71953,1.9631,2.11011,2.20848,2.2789,2.33182,2.37302,2.40602,2.43304
1.11498,2.01369,2.48826,2.76657,2.9466,3.07174,3.16348,3.23348,3.28859,3.33307
1.05225,2.36724,3.04757,3.42631,3.66248,3.8227,3.93819,4.02527,4.09323,4.14772
1.02147,2.77816,3.65801,4.13043,4.42013,4.61516,4.75522,4.86064,4.94284,5.00873
1.00964,3.18178,4.20507,4.73554,5.0564,5.27097,5.42451,5.5398,5.62954,5.70138
0.97724,3.61251,4.85717,5.50957,5.90906,6.17877,6.37313,6.51986,6.63456,6.7267
1.04844,4.41981,5.95908,6.75201,7.23278,7.55507,7.78604,7.95965,8.09489,8.2032
1.00715,4.76815,6.43238,7.28271,7.79731,8.14214,8.38931,8.57516,8.72001,8.83606
1.04158,5.47939,7.39922,8.37915,8.97299,9.3714,9.65724,9.87233,10.04,10.1745
1.034,5.97068,8.05665,9.11825,9.76088,10.1917,10.5006,10.7329,10.914,11.0591
1.11306,6.99152,9.42926,10.6696,11.4209,11.9248,12.2862,12.5581,12.7701,12.9399
0.968193,6.50327,8.72993,9.8552,10.5343,10.9886,11.314,11.5584,11.7489,11.9013
0.954916,6.79508,9.09627,10.2612,10.9657,11.4378,11.7764,12.0311,12.2296,12.3887
0.98476,7.53701,10.1517,11.4922,12.3083,12.8575,13.2523,13.5498,13.782,13.9684
0.91641,7.42956,9.98643,11.2859,12.0716,12.5977,12.9745,13.2577,13.4782,13.6548
0.988264,8.6649,11.7548,13.3491,14.3222,14.978,15.4501,15.8061,16.0841,16.3074
0.946202,8.96098,12.2097,13.8808,14.8969,15.5795,16.0694,16.4381,16.7256,16.9561
0.960971,9.57384,12.9516,14.6591,15.6876,16.3748,16.8663,17.2352,17.5224,17.7522
0.992391,10.4306,14.1003,15.9629,17.0903,17.8464,18.3889,18.7971,19.1154,19.3707
0.898199,9.93168,13.4334,15.2187,16.3022,17.0299,17.5524,17.9458,18.2527,18.4988
0.933309,10.8351,14.6487,16.5897,17.7655,18.5539,19.1193,19.5446,19.8761,20.1417
0.93157,11.3253,15.3048,17.3291,18.555,19.3769,19.9664,20.4098,20.7555,21.0325
0.924363,11.3235,15.0949,16.9757,18.1027,18.8536,19.3896,19.7915,20.104,20.3539
1.00448,12.8235,17.2275,19.4819,20.856,21.782,22.4488,22.9519,23.345,23.6607
0.992263,13.1784,17.7542,20.0961,21.5186,22.4737,23.1592,23.6749,24.077,24.3992
0.94554,13.0585,17.6099,19.9316,21.3383,22.2814,22.9576,23.4661,23.8624,24.1799
0.889864,12.9424,17.5538,19.9215,21.3616,22.3299,23.0255,23.5495,23.9583,24.2863
0.902789,13.5139,18.2268,20.6123,22.051,23.0129,23.7012,24.218,24.6204,24.9425
1.0324,16.2478,22.0501,25.0264,26.8381,28.0572,28.9339,29.5947,30.1106,30.5246
0.916789,12.7067,16.2973,17.9854,18.9659,19.6065,20.0577,20.3927,20.6513,20.8569
0.906868,14.1732,19.3639,22.2101,24.0272,25.2923,26.2252,26.942,27.5103,27.9721
0.92884,14.7986,19.9601,22.5912,24.1716,25.2209,25.9665,26.5226,26.9531,27.2959
0.917321,15.8609,21.7939,24.897,26.8005,28.0873,29.0156,29.7172,30.2662,30.7075
0.882094,15.3897,20.7323,23.3934,24.9794,26.031,26.779,27.3381,27.7718,28.118
0.912322,16.9721,23.1957,26.4165,28.3905,29.7261,30.6907,31.4204,31.9917,32.4512
0.915498,17.4192,23.5687,26.669,28.5339,29.778,30.6668,31.3331,31.8511,32.2654
0.925936,18.1545,24.5431,27.7828,29.7436,31.0587,32.0023,32.7125,33.2663,33.7104
0.90361,17.8048,23.8662,26.9122,28.7465,29.9725,30.8499,31.5087,32.0217,32.4325
0.953173,18.7199,24.9645,28.1126,30.0146,31.289,32.2027,32.8899,33.4257,33.8551
0.98552,20.3848,27.6623,31.4552,33.7872,35.3666,36.5072,37.3696,38.0446,38.5872
0.965257,21.0283,28.7094,32.6784,35.0941,36.7167,37.8808,38.7565,39.4389,39.9856
0.917629,20.5852,27.9505,31.6866,33.939,35.4441,36.5207,37.329,37.9581,38.4617
0.95399,21.7112,29.2655,33.0668,35.3555,36.8852,37.9801,38.8026,39.4431,39.9561
0.912046,20.8656,27.9582,31.5232,33.6718,35.1092,36.1386,36.9122,37.5149,37.9977
0.911776,21.9854,29.9217,34.0424,36.5715,38.2828,39.5179,40.4515,41.182,41.7691
0.915516,22.203,29.887,33.7578,36.0839,37.6342,38.7407,39.57,40.2144,40.7295
0.885931,22.3503,30.3257,34.421,36.9162,38.5968,39.8062,40.7183,41.4309,42.0031
0.908438,23.6169,32.0405,36.3385,38.9427,40.6886,41.9402,42.8814,43.6147,44.2021
0.924547,24.8634,33.7706,38.3133,41.0662,42.9128,44.2373,45.2338,46.0106,46.6332
0.93657,25.4114,34.2452,38.6948,41.3743,43.1648,44.4457,45.4076,46.1564,46.7558
0.919862,24.6141,32.8263,36.9329,39.4012,41.0497,42.2289,43.1144,43.8038,44.3558
0.924232,25.3402,34.1157,38.6235,41.376,43.2328,44.5704,45.58,46.3691,47.0029
0.894783,24.8207,33.3676,37.7152,40.3452,42.1063,43.3676,44.3151,45.053,45.6437
0.967689,27.7802,37.6338,42.7018,45.7883,47.8653,49.3585,50.4838,51.3622,52.0669
0.915052,18.7882,22.9015,24.6977,25.7026,26.3444,26.7896,27.1165,27.3667,27.5644
0.921465,22.7323,31.238,36.2568,39.6304,42.0677,43.9152,45.3655,46.535,47.4984
0.897767,25.1636,35.5959,41.3658,44.9556,47.3792,49.1155,50.4162,51.4247,52.2286
0.918826,27.772,38.8954,44.6058,48.0168,50.2732,51.874,53.0683,53.9935,54.7313
0.957347,30.1166,41.4811,47.1408,50.512,52.751,54.3477,55.5444,56.4751,57.2198
0.931167,29.5469,40.0307,45.214,48.3143,50.3814,51.8592,52.9687,53.8326,54.5244
0.894807,27.4216,36.4062,40.8143,43.4471,45.2001,46.4519,47.3908,48.1211,48.7055
0.876337,27.5452,37.0608,41.9516,44.9493,46.978,48.4428,49.5504,50.4174,51.1145
0.915767,30.447,41.6175,47.4474,51.0259,53.4435,55.1853,56.4993,57.5258,58.3496
0.898503,29.681,39.9128,45.0325,48.0934,50.1266,51.5743,52.6573,53.4979,54.1693
0.929145,32.3574,44.189,50.3219,54.0808,56.6233,58.4586,59.8462,60.9324,61.8058
0.934085,32.1979,43.2695,48.8085,52.1261,54.3334,55.9073,57.0858,58.0012,58.7326
0.895482,30.104,40.026,44.9786,47.9549,49.9432,51.3661,52.4352,53.2678,53.9348
0.911284,31.9581,43.3003,49.2027,52.8334,55.2943,57.0729,58.4184,59.4721,60.3195
0.88292,32.5691,44.5696,50.8015,54.6067,57.1677,59.0077,60.3929,61.4732,62.3391
0.875014,32.6019,44.1495,49.9735,53.4715,55.8027,57.467,58.7146,59.6845,60.4602
0.876471,33.5529,45.5394,51.6469,55.3516,57.8402,59.6278,60.9743,62.0252,62.8683
0.920164,35.566,48.0163,54.3067,58.1023,60.6417,62.4599,63.8258,64.8896,65.7414
0.871629,34.5773,46.8811,53.1735,56.9999,59.5735,61.4234,62.8172,63.9053,64.7782
0.909871,36.6987,49.6646,56.256,60.2446,62.917,64.8322,66.2718,67.3935,68.292
0.847314,30.4644,39.4627,43.7563,46.2711,47.923,49.0912,49.9611,50.634,51.17
0.902186,35.0735,47.7119,54.5201,58.8153,61.781,63.9544,65.6165,66.9294,67.9927
0.861494,35.3604,48.5487,55.4532,59.6701,62.5022,64.5313,66.0547,67.2398,68.1874
0.896638,38.1096,52.136,59.2926,63.6075,66.4885,68.5477,70.0929,71.295,72.2571
0.859204,36.5407,49.3383,55.7368,59.5705,62.125,63.9496,65.3183,66.3831,67.2352
0.919984,39.3474,52.979,59.8576,64.0157,66.8042,68.8051,70.3111,71.4857,72.4276
0.916794,40.2438,54.5409,61.875,66.3453,69.3564,71.5227,73.156,74.4314,75.455
0.877212,38.5039,51.8011,58.5077,62.5468,65.2444,67.1731,68.6203,69.7462,70.6471
0.902192,40.0217,53.9073,60.9669,65.2456,68.1176,70.179,71.7309,72.9415,73.9122
0.877567,39.9164,54.0793,61.3475,65.7716,68.7478,70.8869,72.4984,73.7561,74.765
0.880519,40.994,55.6241,63.1044,67.6413,70.6851,72.8682,74.5102,75.7901,76.8157
0.906178,42.4306,57.2386,64.7187,69.2271,72.2406,74.3968,76.0161,77.2767,78.286
0.928503,42.9067,57.4232,64.7157,69.1073,72.0434,74.1452,75.7244,76.9543,77.9394
0.88834,41.9432,56.6462,64.2059,68.8208,71.9331,74.1745,75.8658,77.1874,78.2488
0.863713,41.6694,56.4647,64.055,68.6677,71.7655,73.9887,75.6615,76.9656,78.0108
0.902437,43.0814,57.8238,65.2474,69.7135,72.6949,74.8262,76.4257,77.6703,78.6663
0.934696,45.9765,62.3318,70.7548,75.8967,79.3643,81.8616,83.7461,85.2189,86.4017
0.907984,38.3398,49.3847,54.6574,57.7467,59.7762,61.2114,62.2799,63.1063,63.7645
0.897287,41.2366,56.1132,64.1936,69.3138,72.8586,75.4613,77.4545,79.0304,80.3079
0.879775,43.0627,59.3442,67.9258,73.1785,76.7091,79.2394,81.1393,82.6172,83.799
0.937135,46.6435,63.5047,72.0148,77.1083,80.4926,82.9033,84.7075,86.1085,87.2279
0.877383,44.3805,60.156,68.112,72.9067,76.115,78.4139,80.1426,81.4901,82.5702
0.907194,47.4183,64.614,73.42,78.7805,82.3894,84.9852,86.9424,88.4707,89.6974
0.864375,45.2683,61.0895,69.0389,73.8178,77.0064,79.2848,80.9937,82.3229,83.3862
0.856145,45.891,62.2016,70.5278,75.5888,78.9928,81.4399,83.2842,84.7242,85.8797
