1.83969,1.85732,1.86328,1.86627,1.86807,1.86927,1.87013,1.87077,1.87127,1.87168
1.52265,2.06039,2.33147,2.49482,2.60402,2.68215,2.74084,2.78653,2.82311,2.85306
1.23889,2.142,2.59991,2.86296,3.03103,3.14691,3.23135,3.29551,3.34585,3.38637
1.15006,2.40603,3.01139,3.33857,3.53958,3.67476,3.77166,3.84443,3.90105,3.94636
1.42567,3.69495,4.82722,5.44386,5.82649,6.08629,6.27408,6.41611,6.52729,6.61668
1.09615,3.38536,4.48743,5.06466,5.41458,5.6485,5.81568,5.94104,6.03848,6.1164
1.17493,4.23922,5.66505,6.39797,6.8401,7.13545,7.34665,7.50517,7.62853,7.72727
1.02617,4.12427,5.4604,6.12643,6.52323,6.78645,6.97383,7.11402,7.22285,7.30978
1.23784,5.73624,7.72713,8.7517,9.37619,9.79703,10.1,10.3286,10.5073,10.6507
1.28225,6.53577,8.73489,9.83408,10.491,10.9274,11.2382,11.4706,11.651,11.7951
1.08385,6.18294,8.33202,9.4242,10.0854,10.5288,10.847,11.0865,11.2732,11.423
1.20487,7.42345,9.92536,11.172,11.9173,12.4128,12.766,13.0304,13.2358,13.3999
1.05159,6.95914,9.28152,10.4418,11.1384,11.6032,11.9355,12.185,12.3792,12.5346
1.02255,7.39224,9.93829,11.2315,12.0149,12.5405,12.9176,13.2014,13.4226,13.6
1.10872,8.59575,11.5317,13.007,13.8934,14.4844,14.9064,15.2229,15.4689,15.6657
0.972833,8.17305,11.0187,12.4595,13.3297,13.9121,14.3294,14.6431,14.8874,15.0832
0.97656,8.78797,11.8361,13.3691,14.2907,14.9057,15.3452,15.6748,15.9313,16.1364
1.02078,9.54087,12.7127,14.2817,15.2174,15.8389,16.2817,16.6132,16.8707,17.0765
1.02671,10.168,13.6138,15.3517,16.4019,17.1058,17.6107,17.9905,18.2867,18.5242
1.08411,11.2081,14.9638,16.8456,17.9759,18.7297,19.2682,19.6721,19.9862,20.2374
1.15076,12.2659,16.2974,18.3077,19.5127,20.3157,20.8891,21.3191,21.6535,21.921
1.00129,11.274,15.0945,17.0326,18.2059,18.9929,19.5575,19.9823,20.3135,20.579
1.06027,12.3434,16.4585,18.5195,19.7559,20.5795,21.1674,21.608,21.9505,22.2243
1.14479,12.9782,16.931,18.8523,19.9883,20.739,21.2721,21.6702,21.9788,22.2252
1.10118,13.542,18.2139,20.6523,22.1575,23.1809,23.9224,24.4847,24.9257,25.281
0.994448,12.911,17.3924,19.6717,21.0448,21.9604,22.6137,23.1029,23.4827,23.7862
1.03467,14.2412,19.2396,21.7699,23.2936,24.3112,25.0388,25.585,26.0101,26.3504
1.03761,14.1621,18.7119,20.9287,22.2386,23.1034,23.7171,24.1751,24.5301,24.8133
0.97031,14.3209,19.3726,21.9822,23.583,24.6671,25.4506,26.0434,26.5078,26.8814
1.00056,15.5222,20.9674,23.7177,25.371,26.4725,27.2583,27.8467,28.3037,28.6688
1.08125,16.9031,22.4912,25.2413,26.8752,27.9576,28.7274,29.3031,29.7498,30.1065
1.08502,17.6218,23.5868,26.5955,28.4147,29.635,30.5107,31.17,31.6843,32.0968
1.03767,17.4191,23.3265,26.2998,28.09,29.2857,30.1407,30.7824,31.2816,31.6811
1.01757,17.8843,24.075,27.2116,29.1065,30.375,31.2836,31.9665,32.4984,32.9245
1.01192,18.5508,24.9955,28.246,30.2028,31.5095,32.4437,33.1448,33.6902,34.1268
1.05273,20.1245,27.1355,30.6671,32.7928,34.2125,35.2279,35.9902,36.5835,37.0584
1.04327,20.3359,27.2157,30.6374,32.6838,34.0451,35.0162,35.7437,36.309,36.7611
1.03087,20.1977,26.8337,30.1242,32.0929,33.4039,34.3398,35.0416,35.5874,36.0241
1.01623,19.0161,24.7826,27.5895,29.254,30.3564,31.1404,31.7267,32.1817,32.545
1.02887,20.7832,28.0511,31.8714,34.2393,35.8531,37.0242,37.9131,38.6109,39.1733
1.00717,21.3142,28.826,32.6567,34.9655,36.5045,37.6021,38.4237,39.0615,39.5708
1.01528,19.9207,25.872,28.6994,30.3454,31.4217,32.1805,32.7442,33.1796,33.5259
1.02696,21.8234,29.461,33.4745,35.968,37.6727,38.9135,39.8577,40.6006,41.2004
1.03474,21.5108,28.4096,31.8032,33.8108,35.1336,36.0695,36.7659,37.3041,37.7322
1.02182,23.1938,31.6178,36.0339,38.7587,40.61,41.9507,42.9669,43.7639,44.4059
1.02171,23.1458,30.8915,34.7048,36.9596,38.4455,39.4972,40.2803,40.8857,41.3677
1.01642,24.0802,32.4487,36.6928,39.2638,40.9906,42.2313,43.1662,43.8962,44.4822
1.01745,23.6244,31.2318,34.9559,37.1631,38.6228,39.6593,40.4332,41.0331,41.5116
0.996202,23.1522,30.63,34.3665,36.6164,38.1216,39.2001,40.0111,40.6432,41.1499
1.03681,24.9668,33.4379,37.7669,40.3992,42.169,43.4405,44.3981,45.1453,45.7444
0.981141,24.1147,32.2671,36.3751,38.8442,40.4903,41.6655,42.5464,43.231,43.7785
1.01603,26.2507,35.4927,40.2129,43.0749,44.9953,46.3732,47.4101,48.2187,48.8669
1.01941,27.6066,37.4391,42.4246,45.4301,47.438,48.8739,49.9515,50.7899,51.4608
1.02118,28.7355,38.8988,44.0057,47.072,49.1164,50.5766,51.6718,52.5236,53.2051
1.06322,30.4693,40.938,46.1429,49.2556,51.327,52.8049,53.9125,54.7734,55.462
1.04013,30.5965,41.1191,46.3956,49.5719,51.695,53.2149,54.3566,55.2459,55.9581
0.98233,28.3127,37.4545,41.9401,44.6067,46.3743,47.632,48.5726,49.3025,49.8854
1.01185,30.2715,40.6264,45.9121,49.1315,51.3006,52.8622,54.0404,54.9611,55.7005
1.03133,29.8619,39.3312,43.9774,46.7328,48.5546,49.8478,50.813,51.5607,52.157
0.990583,30.1897,40.6556,46.061,49.3727,51.6126,53.2295,54.452,55.4089,56.1784
1.03246,30.9905,41.0995,46.0994,49.0711,51.0373,52.4332,53.4751,54.2822,54.9258
1.01931,31.9696,43.0497,48.7231,52.1771,54.5031,56.177,57.4397,58.4264,59.2187
1.01282,32.1679,43.0894,48.5638,51.8445,54.0277,55.5844,56.7501,57.6555,58.3789
1.01477,32.686,43.7191,49.2477,52.5684,54.7841,56.3681,57.5569,58.482,59.2226
1.00664,32.8188,43.847,49.3749,52.6974,54.9154,56.5011,57.6913,58.6175,59.3589
1.02882,32.479,42.7419,47.7808,50.7766,52.7628,54.1761,55.2332,56.0537,56.709
1.04254,34.0246,45.5354,51.4326,55.0308,57.4578,59.2064,60.5263,61.5583,62.3872
1.01536,34.0407,45.7241,51.6552,55.2344,57.6261,59.336,60.6188,61.6165,62.4145
0.977252,34.3588,46.561,52.7901,56.5613,59.0883,60.8993,62.2609,63.3219,64.1719
0.989301,35.3174,47.4646,53.5183,57.1334,59.5346,61.2448,62.5247,63.5185,64.3124
1.04007,37.9573,51.007,57.5519,61.4884,64.1186,66.0008,67.4147,68.5159,69.3978
0.984329,36.9844,49.8164,56.2837,60.1825,62.7897,64.656,66.0578,67.1494,68.0235
0.991104,38.3254,51.6686,58.3884,62.4343,65.137,67.0699,68.5209,69.6501,70.554
1.02668,39.6449,52.912,59.4844,63.4069,66.013,67.8702,69.2606,70.3407,71.2038
0.974613,38.2574,51.2058,57.7181,61.6466,64.2765,66.1611,67.5781,68.6826,69.5676
0.978769,39.3253,52.8102,59.6218,63.7325,66.4825,68.4511,69.93,71.0815,72.0034
1.03329,42.3457,56.8805,64.2001,68.6058,71.5477,73.6513,75.23,76.4584,77.4416
0.992801,40.7127,54.3289,61.11,65.1684,67.8695,69.7967,71.2408,72.3634,73.261
0.980443,40.706,54.4209,61.3181,65.475,68.2556,70.2467,71.7431,72.9087,73.8425
1.04152,41.9381,55.2951,61.8707,65.7844,68.3802,70.2277,71.6096,72.6822,73.5389
1.03279,43.2129,58.0458,65.6718,70.3316,73.4773,75.7447,77.4571,78.7962,79.8721
1.02675,43.4136,58.1292,65.5322,69.9753,72.9337,75.0434,76.6232,77.8502,78.8305
1.03764,44.3389,59.3092,66.8236,71.3382,74.3505,76.5037,78.1196,79.377,80.3835
0.988161,39.9213,52.2219,58.1991,61.732,64.0658,65.7225,66.9595,67.9184,68.6835
0.978904,41.5944,55.9461,63.4034,67.9954,71.1127,73.369,75.0785,76.4186,77.4975
0.997159,44.2181,59.9083,67.9471,72.813,76.0678,78.3954,80.1414,81.4991,82.5848
0.972202,41.2773,54.4292,60.8079,64.559,67.0264,68.7722,70.0724,71.0784,71.8799
0.976073,43.1772,58.057,65.6881,70.3517,73.5036,75.7785,77.4987,78.8454,79.9286
0.997818,45.3274,61.0619,69.0315,73.8354,77.0431,79.335,81.0536,82.3897,83.4581
0.978104,45.2805,60.8868,68.7248,73.4307,76.568,78.8087,80.4892,81.7961,82.8416
1.00165,47.4416,63.8384,72.0855,77.0481,80.3629,82.7341,84.5145,85.9005,87.0101
0.996158,48.0491,64.5816,72.8787,77.8662,81.1951,83.5748,85.3606,86.7502,87.8623
1.00057,47.9636,63.9014,71.8036,76.5247,79.6641,81.9026,83.5795,84.8825,85.9242
0.991493,45.3988,59.5499,66.4777,70.5976,73.3311,75.2779,76.735,77.8668,78.7712
0.97362,47.1338,63.6254,72.2248,77.527,81.1279,83.7343,85.7087,87.2562,88.5019
0.975829,48.6858,65.7781,74.4605,79.6878,83.1718,85.657,87.5178,88.9626,90.1167
0.960092,48.9428,65.9544,74.4943,79.6149,83.0257,85.4605,87.2858,88.7052,89.8405
1.03255,53.4366,71.7943,80.9769,86.4858,90.1591,92.7838,94.753,96.2851,97.5111
1.00402,52.2874,69.9804,78.8136,84.1132,87.6475,90.1729,92.0677,93.5418,94.7214
0.994198,51.7962,69.0823,77.7092,82.8864,86.3395,88.807,90.6584,92.0987,93.2513
