1.68037,1.76057,1.78903,1.80361,1.81247,1.81843,1.82271,1.82593,1.82844,1.83046
1.32892,1.87324,2.15132,2.31987,2.43292,2.514,2.57499,2.62253,2.66063,2.69184
1.52304,2.74438,3.3786,3.74671,3.98326,4.14696,4.26657,4.35762,4.42917,4.48683
1.08404,2.40197,3.07101,3.44167,3.67266,3.82945,3.94256,4.02793,4.0946,4.1481
0.988591,2.65385,3.48872,3.941,4.22029,4.40923,4.5454,4.64817,4.72847,4.79293
0.938035,2.86972,3.76266,4.22355,4.5016,4.68719,4.81978,4.91921,4.99653,5.05837
0.910419,3.22851,4.30248,4.86531,5.21036,5.44357,5.61178,5.73887,5.83829,5.91819
0.906721,3.7948,5.17868,5.91639,6.37267,6.68248,6.90649,7.07598,7.20867,7.31537
0.894136,4.26026,5.8547,6.69947,7.22031,7.57325,7.82811,8.02077,8.17151,8.29266
0.887461,4.71678,6.43631,7.31651,7.84808,8.20337,8.45743,8.64809,8.79642,8.9151
0.874401,4.94339,6.61881,7.45211,7.95003,8.28126,8.51757,8.69468,8.83238,8.94251
0.926491,5.91616,8.09568,9.23989,9.94781,10.4298,10.7794,11.0447,11.2529,11.4207
0.874321,5.975,8.08,9.14529,9.78654,10.2142,10.5195,10.7483,10.9261,11.0681
0.855878,6.46441,8.85071,10.0927,10.8552,11.3715,11.7443,12.0262,12.247,12.4245
0.92696,7.33527,9.89864,11.1914,11.9691,12.4882,12.859,13.1371,13.3534,13.5265
0.850208,7.25454,9.92955,11.3405,12.2161,12.8134,13.2472,13.5768,13.8356,14.0444
0.926798,8.39286,11.4076,12.9478,13.8792,14.5021,14.9475,15.2817,15.5415,15.7494
0.836098,7.3737,9.7158,10.8652,11.5485,12.0016,12.3243,12.5658,12.7533,12.9032
0.871598,8.58114,11.7474,13.4431,14.5059,15.236,15.7688,16.1749,16.4949,16.7535
0.917442,9.59958,13.0837,14.8746,15.9586,16.683,17.2006,17.5884,17.8898,18.1306
0.838026,9.45112,12.959,14.773,15.8794,16.6245,17.1606,17.5649,17.8807,18.1342
0.835307,10.0105,13.6983,15.5873,16.7334,17.5026,18.0546,18.4698,18.7936,19.0532
0.838081,10.1814,13.6955,15.4529,16.5076,17.2109,17.7135,18.0906,18.384,18.6188
0.874778,11.0472,14.9112,16.8879,18.093,18.9056,19.4909,19.9326,20.278,20.5554
0.842757,11.0757,14.9899,17.0035,18.2316,19.0588,19.6537,20.1022,20.4523,20.7332
0.906998,12.7674,17.4918,19.9593,21.4744,22.499,23.238,23.7961,24.2325,24.5831
0.884422,12.9961,17.7069,20.1111,21.5648,22.5376,23.2338,23.7566,24.1636,24.4894
0.915229,13.2905,17.7502,19.9703,21.2999,22.1858,22.8184,23.293,23.6622,23.9577
0.886476,13.3943,18.2189,20.7689,22.3562,23.4418,24.2317,24.8327,25.3053,25.6867
0.874802,13.9404,19.0565,21.7197,23.3473,24.4426,25.2293,25.8213,26.2827,26.6524
0.844465,14.2121,19.4767,22.1955,23.8502,24.9622,25.7608,26.362,26.831,27.207
0.873374,15.1356,20.5796,23.3444,25.0143,26.132,26.9325,27.5342,28.0029,28.3784
0.882034,16.0592,21.9358,24.9583,26.8013,28.0433,28.9373,29.6116,30.1385,30.5615
0.91178,16.8544,22.801,25.8116,27.6299,28.8471,29.7188,30.3738,30.884,31.2926
0.845005,15.9256,21.526,24.3887,26.1308,27.3035,28.147,28.783,29.2797,29.6784
0.904354,16.7925,22.4021,25.2204,26.9174,28.0513,28.8625,29.4716,29.9457,30.3252
0.875378,16.2427,21.6548,24.4054,26.0749,27.1968,28.0029,28.6102,29.0842,29.4644
0.900147,18.077,24.8243,28.4256,30.6681,32.1991,33.3108,34.1546,34.817,35.3508
0.863633,18.0486,24.6776,28.0858,30.1483,31.5272,32.5129,33.2521,33.8268,34.2864
0.859635,18.5604,25.294,28.7303,30.811,32.2063,33.2071,33.9602,34.5475,35.0184
0.852701,17.9305,23.9388,26.9296,28.7215,29.9158,30.769,31.409,31.907,32.3054
0.844743,18.7342,25.5205,29.0743,31.2704,32.7642,33.8468,34.6676,35.3115,35.8301
0.858045,18.9457,25.4728,28.7742,30.7628,32.0899,33.0379,33.7486,34.3011,34.7428
0.852166,20.1236,27.6239,31.5685,34.0043,35.6588,36.8564,37.7636,38.4747,39.0471
0.843159,20.4841,27.9316,31.7349,34.0337,35.5709,36.6705,37.4958,38.1378,38.6514
0.851887,21.691,29.7182,33.8535,36.3739,38.0712,39.2925,40.2134,40.9327,41.5102
0.865103,22.6717,30.9266,35.1358,37.6857,39.3957,40.622,41.5443,42.2632,42.8392
0.888629,22.4038,29.8774,33.5937,35.8207,37.3054,38.3661,39.162,39.7813,40.2769
0.838745,21.9038,29.6763,33.7202,36.2112,37.9021,39.1257,40.0525,40.7789,41.3635
0.831009,22.4733,30.6262,34.8573,37.444,39.187,40.4404,41.3848,42.1217,42.7127
0.82831,22.5538,30.4754,34.4955,36.9212,38.5428,39.703,40.5741,41.2522,41.795
0.840634,23.786,32.4725,36.9897,39.7624,41.6389,42.9939,44.0184,44.8204,45.4652
0.849417,24.8645,33.9627,38.645,41.4925,43.4053,44.7781,45.811,46.6163,47.2616
0.847419,25.143,34.0979,38.642,41.387,43.2244,44.5406,45.5298,46.3003,46.9176
0.866042,26.4812,36.0572,40.9807,43.9834,46.0071,47.464,48.563,49.4217,50.1112
0.844754,25.8485,34.8979,39.4857,42.259,44.1163,45.4469,46.447,47.2261,47.8502
0.843415,25.8261,34.7691,39.3229,42.0871,43.9444,45.2787,46.2837,47.0681,47.6972
0.87761,27.4699,37.2077,42.2322,45.3024,47.3732,48.8644,49.9894,50.8684,51.5741
0.842821,26.1441,35.1389,39.7108,42.477,44.3302,45.6581,46.6563,47.434,48.0569
0.836062,24.8261,32.8415,36.839,39.2365,40.835,41.977,42.8338,43.5003,44.0337
0.830202,26.0484,35.4681,40.464,43.5714,45.6934,47.2353,48.4067,49.3269,50.0689
0.845074,27.2053,37.0238,42.0904,45.1675,47.23,48.707,49.8162,50.6794,51.3701
0.837079,28.4279,39.0868,44.6368,48.0325,50.3236,51.9737,53.2188,54.1919,54.9733
0.848855,28.7258,38.8416,43.9209,46.9664,48.9946,50.4418,51.5264,52.3694,53.0433
0.856312,30.2498,41.3711,47.1357,50.6714,53.0645,54.7929,56.1002,57.1237,57.9469
0.856689,30.8344,41.9966,47.7055,51.1694,53.4935,55.1603,56.4139,57.3907,58.1734
0.85068,31.0845,42.2354,47.9341,51.3953,53.721,55.3915,56.6496,57.6313,58.4186
0.83372,19.7335,23.6355,25.296,26.216,26.8005,27.2049,27.5012,27.7276,27.9064
0.837012,24.5073,33.868,39.5887,43.5296,46.4271,48.6523,50.4169,51.8514,53.0409
0.828717,28.0894,40.2896,47.2211,51.5847,54.5463,56.673,58.2675,59.5041,60.4894
0.85524,31.6796,44.9859,51.9017,56.0407,58.7776,60.7179,62.1645,63.2844,64.1771
0.861337,32.1026,44.0169,49.8435,53.2746,55.5374,57.1437,58.3439,59.275,60.0188
0.864594,34.0343,46.9978,53.6323,57.6886,60.4344,62.4194,63.9224,65.1004,66.0486
0.821508,33.4321,45.9553,52.3386,56.2159,58.8212,60.6918,62.0997,63.1975,64.0774
0.853396,34.4405,46.528,52.5589,56.1784,58.5923,60.317,61.6107,62.6171,63.4224
0.829464,34.261,46.59,52.9343,56.8187,59.4452,61.3407,62.7736,63.8949,64.7965
0.828665,33.688,45.2842,51.1404,54.6753,57.0399,58.7324,60.0034,60.9929,61.785
0.866869,36.5542,49.8323,56.7531,61.0101,63.8947,65.9792,67.556,68.7907,69.7837
0.865988,36.9403,50.1228,56.8566,60.9342,63.6652,65.6211,67.0904,68.2344,69.1502
0.845828,37.3498,51.0332,58.1087,62.4315,65.3468,67.4462,69.0304,70.2683,71.2624
0.810306,22.1272,26.3148,28.0714,29.0364,29.6463,30.0665,30.3736,30.6079,30.7924
0.814735,28.3524,39.5401,46.5451,51.4518,55.1035,57.9342,60.1954,62.0445,63.5853
0.814231,32.9369,47.5208,55.8289,61.0472,64.5765,67.1016,68.9883,70.4471,71.6061
0.860411,37.6023,53.3236,61.4242,66.2435,69.4184,71.6639,73.3354,74.6281,75.6579
0.823438,38.0555,53.214,60.8408,65.405,68.4474,70.6232,72.258,73.532,74.5531
0.856109,39.725,54.2352,61.3864,65.6541,68.4956,70.5252,72.048,73.233,74.1814
0.834006,39.009,52.9524,59.975,64.2346,67.1004,69.162,70.7167,71.9313,72.9064
0.812338,38.5445,52.3253,59.3579,63.6419,66.527,68.6023,70.1668,71.3883,72.3684
0.837252,38.7351,51.8209,58.3674,62.3014,64.9262,66.8018,68.2088,69.3032,70.1788
0.850525,41.7104,57.2107,65.3925,70.4671,73.9252,76.4343,78.3382,79.8325,81.0367
0.823924,41.7021,57.1591,65.1321,69.9773,73.2273,75.5562,77.3062,78.6688,79.7596
0.832944,41.8202,56.9198,64.6867,69.4228,72.6146,74.9126,76.6466,78.0018,79.0902
0.846558,43.7406,59.7654,68.0356,73.0816,76.4806,78.9257,80.7688,82.2078,83.3625
0.859998,44.2655,59.8299,67.6901,72.4257,75.5896,77.8525,79.5513,80.8733,81.9315
0.810139,42.7648,58.2374,66.2291,71.1193,74.4231,76.8056,78.6054,80.0132,81.1446
0.814325,42.7181,57.7166,65.3435,69.9596,73.0528,75.2695,76.9358,78.234,79.2737
0.814082,43.2391,58.5638,66.4228,71.2077,74.428,76.7438,78.4894,79.8523,80.946
0.835142,45.478,61.9304,70.4246,75.6097,79.1036,81.6175,83.5128,84.9929,86.1806
0.812695,43.2928,58.1172,65.5699,70.0497,73.0384,75.174,76.7759,78.022,79.0189
0.803795,40.556,53.558,60.0152,63.8848,66.465,68.309,69.6929,70.7699,71.632
