1.93526,1.96752,1.97851,1.98405,1.9874,1.98963,1.99123,1.99243,1.99336,1.99411
1.44887,1.97021,2.23238,2.39013,2.49548,2.57082,2.62737,2.67139,2.70662,2.73546
1.28641,2.24709,2.73901,3.02312,3.20525,3.33112,3.423,3.49289,3.54779,3.59201
1.20835,2.62644,3.34377,3.74056,3.98746,4.15481,4.27542,4.36636,4.43732,4.49423
1.13574,2.96858,3.86163,4.3364,4.62599,4.82024,4.95939,5.06392,5.14529,5.21044
1.11247,3.42678,4.51928,5.08853,5.43385,5.66522,5.83098,5.95555,6.0526,6.13032
1.08265,3.87775,5.16613,5.83088,6.23357,6.50338,6.69672,6.84206,6.95529,7.046
1.06664,4.36181,5.83615,6.58878,7.04312,7.34696,7.56441,7.72773,7.85488,7.95668
1.0388,4.73931,6.32953,7.1317,7.61387,7.93558,8.1655,8.33801,8.47222,8.57962
1.04799,5.33726,7.16145,8.0881,8.64851,9.02406,9.29332,9.49583,9.65368,9.78018
1.01949,5.68917,7.62052,8.59424,9.18038,9.57184,9.85176,10.0619,10.2253,10.3562
1.0205,6.21837,8.33988,9.41215,10.0592,10.4921,10.8022,11.0352,11.2166,11.362
1.02078,6.75341,9.0676,10.2381,10.9446,11.4174,11.7559,12.0103,12.2084,12.367
1.26193,9.07056,12.2098,13.7997,14.7597,15.4022,15.8623,16.208,16.4772,16.6928
1.00393,7.74949,10.4162,11.7595,12.568,13.1079,13.494,13.7838,14.0094,14.1899
1.17617,9.59521,12.8377,14.462,15.4377,16.0887,16.554,16.9032,17.1749,17.3923
0.997409,8.68783,11.6639,13.1699,14.0804,14.6905,15.1278,15.4567,15.7131,15.9186
1.23285,11.2814,15.0956,17.0123,18.1651,18.9347,19.4849,19.8977,20.2189,20.4759
1.17667,11.4557,15.3947,17.3916,18.5993,19.4085,19.9886,20.4248,20.7648,21.0373
0.994023,10.2178,13.728,15.4997,16.5673,17.2807,17.791,18.1741,18.4723,18.711
1.07907,11.5762,15.5068,17.482,18.6702,19.4636,20.031,20.4569,20.7884,21.0538
1.10449,12.4832,16.7691,18.9376,20.2476,21.1249,21.7535,22.2261,22.5943,22.8893
0.985355,11.5845,15.5142,17.488,18.6746,19.4664,20.0323,20.4569,20.7872,21.0515
0.981579,11.986,16.0464,18.0924,19.326,20.1512,20.742,21.1859,21.5317,21.8086
1.12363,14.2946,19.1665,21.63,23.1178,24.1137,24.827,25.3632,25.7808,26.1153
1.08357,14.4616,19.4525,21.9828,23.5118,24.5354,25.2686,25.8196,26.2488,26.5925
1.07113,14.8185,19.8799,22.4257,23.9566,24.9783,25.7086,26.2565,26.6828,27.024
1.08784,15.594,20.9079,23.5831,25.1945,26.2715,27.0423,27.6212,28.072,28.433
0.975337,14.5406,19.5277,22.0477,23.5687,24.5866,25.3156,25.8634,26.2902,26.6319
0.967151,14.6565,19.5473,21.9906,23.4558,24.4321,25.1292,25.6519,26.0583,26.3834
1.02507,16.0855,21.5528,24.3241,26.0017,27.1269,27.9342,28.5418,29.0156,29.3954
0.973067,15.8306,21.2567,24.0058,25.6661,26.7772,27.5728,28.1705,28.6359,29.0085
1.08248,17.8636,23.8298,26.8141,28.6037,29.7962,30.6476,31.2859,31.7822,32.1792
1.04281,18.0014,24.2236,27.3954,29.3206,30.6139,31.5428,32.2424,32.7883,33.2261
0.965651,17.2234,23.1554,26.1516,27.9565,29.162,30.0239,30.6707,31.1739,31.5765
1.08235,19.7993,26.5565,29.9561,32.0019,33.3683,34.3457,35.0794,35.6505,36.1077
0.954387,17.8086,23.8174,26.8327,28.6458,29.8565,30.7222,31.3721,31.8779,32.2828
0.99361,18.8712,25.2027,28.3853,30.3019,31.583,32.4998,33.1883,33.7245,34.1538
1.06094,20.7213,27.7661,31.334,33.4909,34.9359,35.9716,36.7502,37.357,37.8432
1.07359,21.856,29.4668,33.3443,35.693,37.2677,38.3967,39.2457,39.9074,40.4376
1.06918,22.4142,30.1585,34.0622,36.4104,37.9775,39.0974,39.9375,40.591,41.1138
1.02108,21.6879,29.0005,32.6534,34.8434,36.3028,37.3451,38.1268,38.7348,39.2212
1.03834,22.522,30.1423,33.9805,36.2959,37.8455,38.9556,39.7901,40.4402,40.9611
0.980518,21.9068,29.4244,33.2347,35.5388,37.0823,38.1884,39.02,39.668,40.1871
1.04857,24.0028,32.2222,36.3688,38.8668,40.5359,41.7296,42.6258,43.3232,43.8815
1.01837,23.6158,31.5822,35.5781,37.9793,39.5817,40.7271,41.5866,42.2554,42.7906
1.03961,24.8141,33.3284,37.6438,40.2541,42.0036,43.2581,44.2017,44.9372,45.5267
1.01733,24.7898,33.2586,37.5284,40.1003,41.8185,43.0474,43.9699,44.6878,45.2623
0.988724,24.2886,32.4325,36.5104,38.9589,40.592,41.759,42.6344,43.3155,43.8605
1.00295,25.3449,34.0427,38.4622,41.14,42.9371,44.2268,45.1975,45.9546,46.5616
0.982863,25.1744,33.6996,37.9853,40.5618,42.2807,43.5088,44.4299,45.1463,45.7194
1.01932,26.5064,35.473,39.9906,42.7133,44.5338,45.837,46.8161,47.5786,48.1892
1.03109,27.3332,36.6263,41.3205,44.1531,46.0483,47.4053,48.425,49.2191,49.8551
0.997267,27.3884,36.9326,41.7933,44.7381,46.713,48.1294,49.1948,50.0253,50.6908
1.01214,27.7488,37.0172,41.6284,44.3834,46.2141,47.5187,48.4953,49.2537,49.8597
0.968556,27.3002,36.6649,41.4189,44.2999,46.2341,47.623,48.6689,49.485,50.1396
1.01443,29.31,39.4284,44.5541,47.6493,49.7203,51.2028,52.3164,53.1835,53.8776
1.00219,29.3491,39.34,44.3571,47.3717,49.3828,50.8198,51.8978,52.7363,53.4073
1.02295,30.6677,41.2102,46.5411,49.7608,51.9166,53.4614,54.6228,55.5278,56.2529
1.00969,30.6912,41.1481,46.4091,49.5753,51.6899,53.2021,54.3371,55.2204,55.9273
1.01507,31.5022,42.3079,47.769,51.0659,53.2725,54.8532,56.0411,56.9666,57.7079
1.02251,32.3145,43.3941,48.9862,52.3578,54.6121,56.2255,57.4373,58.3807,59.1361
1.03562,33.3041,44.704,50.4508,53.9134,56.2278,57.8839,59.1276,60.0959,60.8711
1.01427,33.1272,44.446,50.1524,53.5919,55.8916,57.5376,58.7739,59.7367,60.5076
0.964021,32.1174,43.1459,48.7186,52.0815,54.3315,55.9427,57.1533,58.0962,58.8513
0.987266,33.2546,44.5705,50.2638,53.6907,55.9797,57.6168,58.8458,59.8023,60.568
0.96948,32.7735,43.7754,49.2939,52.6119,54.8272,56.4113,57.6003,58.5257,59.2665
0.962844,32.996,44.1804,49.8359,53.2532,55.5422,57.1827,58.4162,59.3775,60.1477
0.976305,34.0729,45.731,51.6367,55.2044,57.5926,59.3031,60.5884,61.5895,62.3912
1.01591,35.9301,48.1767,54.3509,58.0691,60.5529,62.3295,63.6631,64.701,65.5318
0.964872,34.5568,46.318,52.247,55.82,58.2086,59.9182,61.2023,62.2021,63.0027
1.01269,36.8924,49.5309,55.9233,59.7831,62.3668,64.2175,65.6084,66.6919,67.5597
0.949404,35.4447,47.7254,53.9499,57.7102,60.2275,62.0305,63.3853,64.4407,65.2859
0.962037,36.3488,48.8038,55.0714,58.8423,61.3599,63.16,64.511,65.5622,66.4035
0.918583,14.5649,16.2103,16.8434,17.1788,17.3865,17.5278,17.6301,17.7077,17.7685
0.936312,21.5014,30.219,36.3511,41.0092,44.6897,47.6778,50.1547,52.2421,54.0259
0.957004,28.3785,42.8281,51.821,57.6671,61.6656,64.5287,66.6595,68.2966,69.5883
0.949739,32.8212,48.5313,56.7429,61.5337,64.6225,66.7681,68.3427,69.547,70.498
0.949131,35.7469,50.9326,58.2638,62.5033,65.2694,67.2212,68.6747,69.8003,70.6983
0.937548,37.3373,51.9073,58.9145,63.0509,65.7944,67.7517,69.2199,70.3625,71.2772
0.930736,38.5083,52.7571,59.7072,63.861,66.6322,68.6145,70.1033,71.2625,72.1908
0.940998,39.8954,54.1157,61.1239,65.3281,68.1347,70.1419,71.6488,72.8217,73.7606
0.941724,40.2947,54.1974,61.0843,65.2182,67.9771,69.9494,71.4297,72.5817,73.5038
0.970212,42.4892,57.2664,64.7093,69.2104,72.2278,74.3916,76.0192,77.288,78.3049
0.952402,42.3352,56.9459,64.2937,68.721,71.6797,73.7962,75.3852,76.622,77.6119
0.950256,42.9367,57.7348,65.1885,69.6813,72.6852,74.8352,76.45,77.7074,78.7142
0.957351,44.0504,59.2782,66.9667,71.6059,74.7097,76.9321,78.6019,79.9024,80.944
0.977743,45.3975,60.9203,68.7218,73.4155,76.5499,78.7911,80.4734,81.7826,82.8304
0.950679,44.6906,59.9869,67.7002,72.3521,75.4641,77.6924,79.3668,80.6709,81.7154
0.959418,45.4491,60.9063,68.6838,73.3669,76.4959,78.7343,80.4149,81.723,82.7702
0.958389,45.8577,61.4733,69.349,74.0985,77.2753,79.5497,81.2584,82.5891,83.6548
0.946666,45.9441,61.6892,69.6509,74.4574,77.674,79.9777,81.7087,83.0571,84.1369
0.957158,46.7103,62.5704,70.549,75.3503,78.5566,80.8493,82.5702,83.9095,84.9814
0.945146,46.1235,61.6183,69.3982,74.0785,77.2044,79.4401,81.1186,82.4252,83.4711
0.967697,47.4908,63.5089,71.5915,76.4688,79.7327,82.0704,83.8272,85.1957,86.2919
0.955399,47.3525,63.4315,71.5619,76.4699,79.7541,82.1059,83.8729,85.249,86.3511
0.945006,47.6923,64.1106,72.4401,77.475,80.8467,83.2623,85.0779,86.4924,87.6254
0.946084,48.4308,65.1007,73.5218,78.5974,81.9898,84.4168,86.2391,87.6577,88.7932
0.951934,48.7249,65.1682,73.4033,78.3464,81.6426,83.9974,85.7637,87.1378,88.2371
0.942473,48.4756,64.8387,73.0775,78.0443,81.3669,83.7461,85.534,86.9267,88.0423
