1.98785,2.02375,2.03601,2.0422,2.04592,2.04842,2.0502,2.05154,2.05259,2.05342
1.6282,2.19704,2.47927,2.64787,2.75996,2.83987,2.89972,2.94622,2.98339,3.01378
1.27411,2.20596,2.68059,2.95465,3.13048,3.25212,3.341,3.40867,3.46186,3.50474
1.17781,2.57786,3.3014,3.70706,3.96158,4.13504,4.26051,4.35537,4.42955,4.48914
2.66723,7.04322,9.20287,10.3533,11.0544,11.5241,11.8601,12.1121,12.3082,12.465
1.17197,3.6779,4.88014,5.50834,5.88968,6.14526,6.32841,6.46608,6.57335,6.65929
1.65244,5.96813,7.93948,8.94606,9.55196,9.95628,10.2452,10.4619,10.6305,10.7654
1.11149,4.44101,5.86154,6.57183,6.99652,7.27904,7.48056,7.63156,7.74893,7.84278
1.05322,4.67264,6.1937,6.96407,7.42978,7.74197,7.9659,8.13438,8.26576,8.37108
1.4785,7.4154,9.96424,11.2772,12.0772,12.6156,13.0027,13.2943,13.5219,13.7045
1.27666,7.1956,9.73748,11.0399,11.829,12.3576,12.7362,13.0208,13.2423,13.4197
1.01711,6.11519,8.15213,9.16067,9.76068,10.1583,10.4411,10.6525,10.8165,10.9474
1.00398,6.24541,8.20754,9.17161,9.74602,10.1277,10.4,10.604,10.7626,10.8894
1.04256,7.17831,9.64586,10.9236,11.7083,12.2398,12.6239,12.9144,13.1419,13.3249
1.38465,10.5132,14.2549,16.1796,17.3482,18.1317,18.6931,19.1147,19.4431,19.7058
1.00399,8.00015,10.6952,12.0321,12.8278,13.355,13.7298,14.0099,14.2272,14.4007
1.01538,8.82703,11.9416,13.5339,14.5026,15.1547,15.6239,15.9779,16.2544,16.4765
1.31586,12.2924,16.6284,18.8227,20.1454,21.029,21.6608,22.1349,22.5038,22.7988
1.11295,10.1981,13.3579,14.8784,15.7717,16.3596,16.7757,17.0858,17.3258,17.517
1.00948,9.7891,13.0388,14.7005,15.7168,16.4042,16.9006,17.2762,17.5703,17.807
0.96824,10.3262,14.0496,15.9943,17.1881,17.9946,18.5756,19.0138,19.3561,19.6307
1.22507,13.8775,18.798,21.2863,22.7796,23.7732,24.4814,25.0114,25.4229,25.7515
1.09828,12.2575,16.1429,18.023,19.1301,19.8597,20.3768,20.7626,21.0615,21.2999
0.987405,12.0508,16.3292,18.5573,19.9321,20.8672,21.5451,22.0593,22.4629,22.7881
0.969622,11.3863,14.9014,16.6,17.5974,18.2522,18.7145,19.0582,19.3235,19.5345
0.943004,12.0641,16.2973,18.5116,19.8809,20.8134,21.4901,22.0039,22.4073,22.7327
1.08426,12.6778,16.307,18.0244,19.0211,19.6705,20.1268,20.4646,20.7247,20.931
1.14483,15.2632,20.844,23.8762,25.797,27.127,28.1038,28.8522,29.4442,29.9243
0.913303,11.5248,15.0419,16.7316,17.7143,18.3538,18.8021,19.1333,19.3877,19.5892
1.08236,15.3521,20.9882,23.9983,25.8809,27.1729,28.116,28.8353,29.4022,29.8608
1.05466,16.1864,22.2077,25.3066,27.1796,28.4294,29.3212,29.9888,30.507,30.9207
0.924101,15.2076,20.8381,23.6876,25.3996,26.5409,27.356,27.9673,28.4427,28.8231
1.04805,17.9806,24.3867,27.5728,29.4761,30.7418,31.6446,32.321,32.8468,33.2672
1.09029,19.4879,26.339,29.7633,31.8214,33.1963,34.1802,34.9192,35.4947,35.9557
0.99351,17.9413,23.9629,26.939,28.7169,29.8994,30.7429,31.3749,31.866,32.2587
0.9769,18.4059,24.774,28.0052,29.9661,31.2839,32.2309,32.9442,33.5011,33.9478
0.953309,18.1496,24.2296,27.2637,29.0818,30.2923,31.1559,31.8029,32.3056,32.7075
1.03273,19.2275,25.3274,28.337,30.1333,31.3275,32.1792,32.8173,33.3132,33.7098
1.04122,19.4749,25.7598,28.9311,30.8502,32.1378,33.0619,33.7576,34.3003,34.7354
1.00673,20.6626,28.2446,32.259,34.7452,36.4357,37.6595,38.5863,39.3125,39.8967
1.03199,19.8925,26.05,29.0021,30.7216,31.8438,32.6329,33.2176,33.668,34.0257
1.04614,21.8953,29.7108,33.8149,36.3597,38.0969,39.36,40.3206,41.0761,41.686
0.899929,20.1854,27.6305,31.4742,33.8082,35.372,36.4913,37.3314,37.9848,38.5073
0.897433,6.58425,7.11745,7.3106,7.4099,7.47031,7.51092,7.54009,7.56206,7.5792
0.901998,10.5935,15.1868,18.7118,21.5673,23.9406,25.9482,27.6703,29.1643,30.4731
0.908724,14.9123,23.6026,29.4538,33.4017,36.146,38.1219,39.592,40.718,41.602
0.887271,18.6622,29.4519,35.4226,38.9369,41.1937,42.7513,43.8873,44.7518,45.4316
0.910383,21.5661,31.7803,36.579,39.2645,40.9776,42.1685,43.0462,43.721,44.2564
0.940534,24.2143,34.3257,39.048,41.7978,43.613,44.9061,45.8759,46.631,47.2358
0.910618,24.542,33.8419,38.254,40.868,42.6062,43.8475,44.7788,45.5035,46.0834
0.929629,25.6513,34.7688,39.1811,41.8182,43.5767,44.8338,45.7773,46.5116,47.0994
0.887731,25.0625,33.7822,38.0987,40.6993,42.4397,43.6865,44.6237,45.3539,45.9388
0.919783,27.5522,37.5658,42.6783,45.7955,47.8954,49.4059,50.5446,51.4338,52.1473
0.914358,28.2285,38.2391,43.2547,46.2643,48.2684,49.698,50.7689,51.6008,52.2657
0.921078,27.9318,37.1411,41.6529,44.3336,46.1104,47.3748,48.3207,49.055,49.6417
0.95534,29.7503,39.9157,45.073,48.2064,50.3149,51.8316,52.9754,53.8689,54.5861
0.873067,27.4528,36.7402,41.4142,44.2284,46.1077,47.451,48.4587,49.2426,49.8698
0.882366,27.7536,36.9913,41.6193,44.4,46.2555,47.5817,48.5768,49.3512,49.9709
0.922512,30.3511,41.0217,46.504,49.8452,52.0953,53.7139,54.9343,55.8873,56.6521
0.869657,29.5617,39.9867,45.2751,48.4638,50.5937,52.1164,53.2587,54.1473,54.8581
0.901137,30.1582,40.1349,45.0542,47.9799,49.9193,51.2992,52.3313,53.1323,53.7721
0.934525,32.4917,43.8096,49.5966,53.1222,55.4983,57.2094,58.5007,59.51,60.3206
0.944361,34.1736,46.3158,52.506,56.2529,58.7623,60.5594,61.9095,62.9606,63.802
0.944038,33.1517,43.9439,49.2251,52.3517,54.4176,55.8841,56.9789,57.8274,58.5043
0.874507,31.4118,42.0757,47.497,50.7929,53.0122,54.6096,55.8148,56.7568,57.5133
0.897847,32.4281,43.3311,48.8185,52.1208,54.3251,55.9002,57.0817,58.0005,58.7353
0.895687,29.9883,39.0001,43.3625,45.9363,47.6346,48.8391,49.738,50.4344,50.99
0.891762,30.6523,40.8174,46.0717,49.3005,51.4902,53.0741,54.2737,55.2138,55.9706
0.913449,33.7022,45.986,52.4467,56.4199,59.1058,61.0408,62.5004,63.6403,64.5549
0.885797,33.731,45.776,51.867,55.5162,57.9407,59.6668,60.9575,61.959,62.7586
0.903782,35.7326,48.5238,54.9856,58.8765,61.4768,63.3378,64.736,65.8251,66.6975
0.898521,36.2236,48.8884,55.2197,59.0156,61.5454,63.3521,64.7071,65.761,66.604
0.941685,38.2497,51.316,57.8345,61.7463,64.3559,66.2214,67.6214,68.7109,69.5829
0.958946,39.3289,52.6927,59.3998,63.4401,66.1419,68.0761,69.5293,70.6611,71.5676
0.943539,38.5125,51.3353,57.7467,61.5982,64.1683,66.0054,67.3838,68.4563,69.3146
0.921752,38.5864,51.8668,58.6327,62.7396,65.4985,67.4798,68.9717,70.1357,71.0692
0.953513,40.1171,53.705,60.5332,64.6357,67.3713,69.3248,70.7895,71.9283,72.839
0.896495,38.1136,51.0548,57.5817,61.5174,64.1499,66.0348,67.4512,68.5545,69.4382
0.902713,37.6667,49.9779,56.1007,59.7644,62.2028,63.9425,65.2462,66.2595,67.0698
0.898611,39.5697,53.6357,60.9294,65.4018,68.4265,70.6093,72.2589,73.5495,74.5869
0.915824,40.4971,54.3506,61.2827,65.4266,68.1782,70.1366,71.601,72.737,73.6438
0.930753,41.3814,55.3917,62.4159,66.6385,69.4585,71.4761,72.9914,74.1714,75.1165
0.912188,40.2231,53.5432,60.1947,64.1869,66.8499,68.753,70.1809,71.2919,72.181
0.925936,42.6824,57.7503,65.5154,70.259,73.4588,75.7635,77.5026,78.8616,79.9529
0.907812,42.278,56.8412,64.1562,68.5422,71.461,73.5419,75.1,76.3101,77.2768
0.938466,41.6993,54.8787,61.3082,65.1161,67.635,69.4251,70.763,71.8009,72.6295
0.934677,44.1235,59.8065,68.0036,73.067,76.5113,79.0079,80.9013,82.3869,83.5836
0.934894,45.7453,62.1073,70.4551,75.4945,78.8591,81.262,83.0627,84.4618,85.5799
0.927455,46.4474,62.8135,71.0421,75.9795,79.2693,81.6182,83.3794,84.7489,85.8445
0.959725,49.1513,66.3775,75.0403,80.2535,83.7369,86.2294,88.1016,89.5594,90.7268
0.914863,47.179,63.3495,71.4303,76.2798,79.5139,81.8248,83.5584,84.9071,85.9862
0.94462,48.9454,65.552,73.8767,78.8863,82.2339,84.6294,86.4286,87.8295,88.9513
0.906363,46.7347,62.3314,70.1364,74.8275,77.9591,80.1982,81.8787,83.1866,84.2333
0.967573,50.4723,67.6018,76.2779,81.5275,85.0467,87.5704,89.4688,90.9486,92.1346
0.953097,49.9817,66.8922,75.4185,80.555,83.9869,86.4414,88.284,89.7179,90.8655
0.919934,45.6941,59.9554,66.9385,71.0822,73.8258,75.7764,77.2344,78.3655,79.2686
0.952809,50.173,67.892,77.177,82.9167,86.8219,89.6527,91.7996,93.4839,94.8408
0.950743,50.9443,68.7095,77.7145,83.1289,86.7346,89.305,91.2288,92.7221,93.9145
0.933512,46.5751,60.9102,67.8221,71.8832,74.5552,76.447,77.8569,78.9484,79.8185
0.925216,49.5384,67.2401,76.5701,82.3678,86.3292,89.2106,91.4016,93.1245,94.515
