1.72785,1.76043,1.77156,1.77718,1.78057,1.78284,1.78446,1.78568,1.78663,1.78739
1.43094,1.97326,2.25099,2.41975,2.53314,2.61458,2.6759,2.72374,2.7621,2.79354
1.1683,2.03057,2.46314,2.70949,2.86591,2.97326,3.05123,3.1103,3.15655,3.19371
1.13162,2.50558,3.22309,3.62852,3.88449,4.05981,4.18713,4.28371,4.35945,4.42042
1.21799,3.21558,4.18964,4.70441,5.01652,5.22482,5.37342,5.48466,5.57102,5.63999
1.28223,3.96004,5.21429,5.86464,6.25836,6.52194,6.71075,6.85265,6.9632,7.05177
1.0745,3.83844,5.10282,5.75471,6.14992,6.41496,6.60503,6.748,6.85944,6.94875
1.17339,4.76189,6.35586,7.17005,7.66204,7.99129,8.22705,8.40417,8.5421,8.65256
1.06043,4.78757,6.38342,7.19073,7.6769,8.00169,8.234,8.40841,8.54416,8.65283
1.11035,5.30519,6.9612,7.77812,8.2644,8.58705,8.81678,8.98868,9.12216,9.22881
1.21624,6.59979,8.88793,10.0827,10.8191,11.3191,11.681,11.9552,12.1701,12.3431
1.12942,6.77958,9.1534,10.3675,11.1016,11.5924,11.9432,12.2064,12.411,12.5746
1.23534,8.11655,10.9563,12.3951,13.2621,13.8413,14.2555,14.5665,14.8086,15.0024
1.03173,7.35617,9.92109,11.2162,11.9966,12.5182,12.8915,13.1719,13.3902,13.5651
1.12489,8.55866,11.4907,12.9623,13.8471,14.4378,14.8602,15.1772,15.424,15.6215
0.885987,3.42568,3.81766,3.96876,4.04891,4.09859,4.1324,4.15691,4.17549,4.19006
0.912373,5.3222,7.49677,9.02895,10.1943,11.1161,11.8651,12.4863,13.0102,13.4581
0.90365,7.05385,10.6612,12.9074,14.3679,15.3668,16.0822,16.6145,17.0235,17.3462
0.983746,9.25925,13.7035,16.0273,17.3836,18.2583,18.866,19.3122,19.6535,19.923
0.976261,10.1761,14.3993,16.4173,17.5785,18.3341,18.8661,19.2618,19.568,19.812
1.00159,11.6232,16.2738,18.5544,19.9174,20.8289,21.483,21.9758,22.3606,22.6696
0.912628,10.9694,14.8866,16.7634,17.8721,18.6056,19.1271,19.5168,19.8192,20.0606
0.8994,11.0764,14.8271,16.6594,17.7562,18.4882,19.012,19.4053,19.7117,19.9571
1.01309,13.482,18.333,20.8204,22.3442,23.3747,24.1183,24.6802,25.1197,25.4729
0.944132,13.3503,18.1529,20.588,22.0585,23.0415,23.7444,24.2717,24.6819,25.0099
1.01521,14.6902,19.7193,22.2158,23.7069,24.698,25.4044,25.9334,26.3444,26.6729
1.01578,15.3972,20.7592,23.4738,25.1178,26.2213,27.0136,27.6102,28.0757,28.4491
0.935833,14.9625,20.2701,22.9731,24.6114,25.7104,26.4986,27.0914,27.5534,27.9237
1.02209,16.817,22.6266,25.5391,27.2872,28.4522,29.284,29.9076,30.3925,30.7803
1.02052,17.1487,22.9597,25.8681,27.6159,28.7828,29.6173,30.2438,30.7315,31.122
1.03013,17.7998,23.8589,26.9183,28.7666,30.0048,30.8923,31.5597,32.0798,32.4966
0.942441,16.8879,22.7205,25.683,27.4763,28.6783,29.5401,30.1882,30.6933,31.0979
0.990544,18.3508,24.71,27.9335,29.8806,31.1838,32.117,32.8182,33.3643,33.8016
0.952894,18.1298,24.3619,27.504,29.3966,30.6612,31.5658,32.245,32.7737,33.197
0.966913,18.8854,25.3633,28.6324,30.6042,31.9232,32.8677,33.5774,34.1301,34.5728
0.987693,19.8678,26.7118,30.1741,32.2651,33.6648,34.6675,35.4211,36.0081,36.4783
1.12,22.9045,30.6794,34.5886,36.941,38.512,39.6355,40.4788,41.1352,41.6605
0.984638,20.7433,27.8747,31.4898,33.6765,35.142,36.1927,36.983,37.599,38.0927
0.99068,18.0142,22.9084,25.1909,26.5116,27.3725,27.9781,28.4273,28.7737,29.049
1.04705,21.2884,28.8892,33.044,35.6927,37.5351,38.8928,39.9357,40.7621,41.4334
0.997597,21.6479,29.6077,33.7619,36.2872,37.9758,39.181,40.0829,40.7826,41.3409
1.00254,22.5968,30.6885,34.7694,37.211,38.8332,39.9887,40.8536,41.5253,42.0621
0.999618,23.6345,32.1465,36.4547,39.0534,40.7927,42.039,42.9761,43.7066,44.292
0.980162,23.4989,31.5939,35.6151,38.0182,39.6164,40.7562,41.6101,42.2736,42.8041
1.04834,25.8777,34.8655,39.4027,42.1463,43.9863,45.3065,46.3001,47.0751,47.6964
1.016,25.5628,34.34,38.7536,41.4116,43.1875,44.4579,45.4115,46.1538,46.7478
1.04979,25.9646,34.4229,38.6088,41.109,42.7715,43.9569,44.8449,45.535,46.0866
1.1433,29.7809,40.259,45.6801,49.0043,51.2534,52.877,54.1045,55.0651,55.8374
1.00855,26.5573,35.6276,40.1862,42.9203,44.74,46.0371,47.0082,47.7622,48.3646
0.973915,26.3315,35.4379,40.0555,42.8478,44.7191,46.0609,47.0704,47.8574,48.4883
0.985347,27.2874,36.7405,41.5256,44.4143,46.3473,47.7314,48.7713,49.5811,50.2297
1.03545,29.2655,39.3688,44.4716,47.5489,49.607,51.0802,52.1868,53.0486,53.7386
0.999484,28.7366,38.6068,43.586,46.588,48.5957,50.0329,51.1125,51.9532,52.6265
0.998388,29.2192,39.2466,44.3106,47.3663,49.4109,50.8751,51.9753,52.8323,53.5186
0.975047,29.028,38.9769,44.0006,47.0312,49.0586,50.5101,51.6005,52.4498,53.1299
1.00671,29.1217,38.4924,43.1163,45.8716,47.7007,49.0034,49.9783,50.7354,51.3403
1.00952,30.5238,41.1471,46.6405,50.0091,52.2885,53.9344,55.179,56.1532,56.9366
1.02217,28.6757,37.3932,41.6108,44.091,45.7215,46.8743,47.7321,48.3952,48.923
1.02874,30.0075,40.185,45.4795,48.7443,50.9639,52.5725,53.7925,54.75,55.5215
1.03252,27.1362,34.9914,38.7703,40.9848,42.437,43.4618,44.2231,44.8108,45.2781
1.02922,30.3806,41.6326,47.7864,51.6916,54.3967,56.3833,57.9051,59.1085,60.0843
1.01969,31.7948,43.5748,49.6548,53.3234,55.7654,57.5033,58.8015,59.8071,60.6087
1.02355,33.5475,45.9166,52.1916,55.9639,58.4798,60.2773,61.626,62.6755,63.5155
1.00786,33.2799,44.8512,50.5759,53.9857,56.2495,57.8623,59.0698,60.0078,60.7576
1.00793,34.3267,46.3991,52.4932,56.1797,58.6535,60.4294,61.7667,62.8101,63.647
1.02773,35.5946,47.9431,54.1518,57.8914,60.3906,62.1785,63.5208,64.5655,65.4018
1.02389,35.8143,48.0716,54.2287,57.9362,60.414,62.187,63.5185,64.5552,65.3853
1.02492,36.9093,49.8234,56.3977,60.3856,63.0632,64.9854,66.4324,67.561,68.466
1.02208,38.3518,52.078,59.0869,63.3358,66.1852,68.2283,69.7647,70.962,71.9212
0.995123,38.223,51.7122,58.5145,62.6074,65.3394,67.2921,68.7573,69.8972,70.8093
0.996374,38.498,51.6977,58.2934,62.2499,64.8879,66.7725,68.1864,69.2863,70.1665
0.998999,38.8159,52.0076,58.6377,62.6345,65.3089,67.2245,68.6644,69.7863,70.6851
1.00603,39.5917,53.1325,59.9849,64.1284,66.905,68.8953,70.392,71.5584,72.4929
1.01216,40.5746,54.5823,61.6895,65.9877,68.867,70.9301,72.481,73.6893,74.6572
0.988205,39.9412,53.604,60.4963,64.6494,67.425,69.4107,70.9018,72.0625,72.9917
1.03468,42.3455,56.8519,64.1838,68.6093,71.571,73.6923,75.2865,76.5284,77.5231
1.01179,41.6772,55.8827,63.0559,67.3838,70.2792,72.3525,73.9103,75.1236,76.0953
1.04105,43.1161,57.7254,65.089,69.5267,72.4935,74.6167,76.2113,77.4528,78.4469
1.03723,43.8991,59.0742,66.7939,71.4705,74.6075,76.8578,78.5508,79.8708,80.9288
1.02747,43.8096,58.7825,66.3306,70.8752,73.9104,76.0807,77.7096,78.977,79.9913
1.0482,45.2865,60.8362,68.7063,73.4605,76.6441,78.9254,80.6405,81.9769,83.0476
1.02322,44.6752,59.9718,67.6964,72.355,75.4704,77.7004,79.3754,80.6797,81.724
1.03055,45.4665,61.0148,68.8656,73.6012,76.7688,79.0366,80.7404,82.0673,83.1299
1.02774,39.3042,50.2463,55.3892,58.3778,60.3313,61.7082,62.7309,63.5206,64.1486
1.03308,42.939,58.0544,66.2191,71.384,74.9574,77.5804,79.589,81.1771,82.4644
1.03704,45.7498,62.6266,71.465,76.8569,80.4732,83.0608,85.0014,86.5094,87.7143
1.01877,45.6726,61.8172,69.9167,74.7482,77.9515,80.2296,81.9327,83.2539,84.3089
1.06302,48.6927,65.7866,74.3858,79.5604,83.0195,85.4964,87.3581,88.8088,89.9711
1.03683,46.731,62.3179,70.0414,74.6574,77.7289,79.9203,81.5626,82.8392,83.8601
1.03315,48.189,65.0774,73.7303,79.0077,82.566,85.1285,87.0624,88.5738,89.7876
1.00862,45.1641,59.7176,66.8727,71.1217,73.9338,75.9314,77.4233,78.5796,79.5021
1.02077,46.7372,62.6863,70.8664,75.8622,79.2349,81.6667,83.5038,84.9409,86.096
1.06693,51.2146,69.6315,79.1644,84.9831,88.9002,91.7155,93.8358,95.4898,96.8159
1.02747,50.8497,69.0601,78.3084,83.8808,87.6005,90.2584,92.2518,93.8021,95.0421
1.04868,52.8118,71.3632,80.6815,86.2774,90.0098,92.677,94.6782,96.2353,97.4814
1.04474,52.7353,70.7768,79.7912,85.2019,88.8117,91.3922,93.3288,94.836,96.0424
1.03841,53.5111,72.1068,81.5331,87.2417,91.0721,93.8209,95.8897,97.5033,98.7969
1.03452,53.8191,72.3404,81.6725,87.2942,91.0505,93.7372,95.754,97.3236,98.5799
1.0558,55.7788,75.0668,84.8237,90.717,94.6628,97.4898,99.6148,101.27,102.597
1.04554,55.3671,74.2253,83.7054,89.4099,93.2195,95.9439,97.9888,99.5803,100.854
