1.87135,1.92274,1.94051,1.94952,1.95496,1.95861,1.96122,1.96318,1.96471,1.96594
1.37745,1.88348,2.13642,2.28809,2.38915,2.4613,2.5154,2.55747,2.59112,2.61864
1.21934,2.13554,2.60395,2.87452,3.04806,3.16806,3.25572,3.32243,3.37485,3.4171
1.14561,2.50003,3.18913,3.57212,3.81123,3.97369,4.09097,4.1795,4.24867,4.30418
1.09994,2.8971,3.7837,4.25844,4.5492,4.74472,4.88501,4.99053,5.07275,5.13862
1.05231,3.27296,4.33425,4.89002,5.22793,5.45461,5.61713,5.73934,5.83457,5.91086
1.0391,3.7551,5.01875,5.67293,6.06988,6.33613,6.52706,6.67067,6.7826,6.8723
1.01906,4.19654,5.62624,6.35747,6.79935,7.09507,7.30682,7.46592,7.58981,7.68903
1.01293,4.6877,6.29683,7.11636,7.61172,7.94346,8.18117,8.35986,8.49908,8.61062
0.991231,5.06884,6.8002,7.67698,8.20597,8.55984,8.8132,9.00355,9.1518,9.27052
0.996638,5.6118,7.54483,8.52736,9.12202,9.52068,9.80656,10.0216,10.1892,10.3236
0.964771,5.91507,7.94982,8.98139,9.60465,10.0219,10.3208,10.5455,10.7205,10.8606
0.967488,6.45359,8.6929,9.83155,10.5208,10.9829,11.3142,11.5634,11.7577,11.9133
0.964865,6.87095,9.21802,10.402,11.1155,11.5924,11.9337,12.1899,12.3894,12.5491
0.963762,7.30284,9.78689,11.0422,11.8002,12.3077,12.6712,12.9446,13.1575,13.3281
0.95619,7.81178,10.5326,11.9221,12.7657,13.3323,13.7392,14.0454,14.2844,14.4759
0.952978,8.2962,11.1802,12.6434,13.5273,14.1188,14.5423,14.8604,15.1081,15.3064
1.14867,10.5281,14.1393,15.9605,17.0578,17.7912,18.316,18.7102,19.017,19.2628
1.04982,10.2684,13.853,15.6774,16.783,17.5249,18.0572,18.4578,18.7702,19.0206
1.07764,11.1276,14.9965,16.9553,18.1376,18.9285,19.4947,19.92,20.2511,20.5163
1.05341,11.3606,15.2556,17.2167,18.3976,19.1866,19.7511,20.1749,20.5049,20.769
0.937101,10.654,14.3491,16.2246,17.36,18.1213,18.6673,19.0781,19.3984,19.6551
1.09303,12.9391,17.3929,19.6452,21.0049,21.9147,22.5662,23.0556,23.4369,23.7422
0.93662,11.4827,15.3915,17.3607,18.5472,19.3403,19.9078,20.3339,20.6658,20.9314
0.936076,11.8337,15.8418,17.8662,19.0887,19.9071,20.4936,20.9345,21.278,21.5532
1.06081,14.0343,18.8907,21.37,22.8754,23.8866,24.6128,25.1595,25.586,25.9279
1.01559,13.9915,18.833,21.2886,22.7716,23.7637,24.4738,25.0072,25.4225,25.755
1.01148,14.4376,19.4053,21.9149,23.428,24.4398,25.1639,25.7079,26.1314,26.4706
0.929975,13.8572,18.6772,21.1253,22.6067,23.5998,24.3119,24.8475,25.265,25.5996
0.924077,14.0962,18.9079,21.3313,22.7907,23.7658,24.4633,24.987,25.3946,25.7209
1.02759,16.2661,21.8959,24.7601,26.4964,27.6618,28.4983,29.128,29.6191,30.0129
0.984272,16.2256,21.8888,24.7678,26.5096,27.6765,28.5126,29.141,29.6306,30.0227
0.918722,15.5366,20.8719,23.5591,25.1764,26.2565,27.0289,27.6086,28.0598,28.4208
0.926832,16.0144,21.4689,24.2202,25.88,26.9909,27.7865,28.3846,28.8506,29.2238
0.954035,17.05,22.9458,25.9468,27.7662,28.9874,29.8637,30.5233,31.0377,31.45
0.911419,16.9396,22.8674,25.8851,27.7119,28.9361,29.8135,30.4731,30.987,31.3987
0.996565,18.8247,25.2546,28.4874,30.4312,31.7285,32.6558,33.3516,33.893,34.3262
0.956776,18.6472,25.094,28.3673,30.3494,31.679,32.633,33.3509,33.9107,34.3596
0.994567,19.809,26.5987,30.0273,32.0948,33.4771,34.4665,35.2094,35.7878,36.2509
0.973693,19.9735,26.9371,30.4959,32.6587,34.1128,35.1577,35.9449,36.5593,37.0522
0.989788,20.9438,28.2507,31.9598,34.2004,35.6997,36.773,37.5793,38.207,38.7095
0.974004,20.9537,28.1232,31.7277,33.8953,35.3422,36.3766,37.1529,37.757,38.2405
0.950663,20.9518,28.1577,31.8062,34.0122,35.4907,36.5507,37.3481,37.9696,38.4678
0.910189,20.4519,27.4544,30.993,33.1285,34.5573,35.5803,36.349,36.9475,37.4269
0.976278,22.6584,30.5488,34.5661,37.0006,38.634,39.8057,40.6873,41.3747,41.9257
0.974603,22.8982,30.7112,34.6424,37.0072,38.5858,39.7142,40.5609,41.2196,41.7467
0.939065,22.6625,30.4951,34.4724,36.8805,38.4955,39.6541,40.5258,41.2056,41.7505
0.974645,24.0858,32.4251,36.6536,39.2092,40.9203,42.1461,43.0673,43.7849,44.3597
0.961214,24.1415,32.4199,36.5972,39.1151,40.7983,42.003,42.9077,43.612,44.176
0.958259,24.6274,33.1422,37.4654,40.0823,41.8369,43.0954,44.0422,44.7803,45.3718
0.959765,25.2543,34.0149,38.4602,41.1478,42.9478,44.2375,45.2069,45.9621,46.567
0.954272,25.4235,34.1277,38.5173,41.1624,42.9303,44.1954,45.1454,45.885,46.4772
0.959943,26.2337,35.3285,39.9495,42.7476,44.6241,45.9701,46.9828,47.7723,48.4052
0.897189,13.3542,15.3986,16.2255,16.6728,16.953,17.145,17.2848,17.3911,17.4746
0.925508,18.3012,25.3489,29.9117,33.1823,35.6573,37.6002,39.1677,40.4598,41.5437
0.926496,22.3012,32.4879,38.4576,42.2468,44.8178,46.6575,48.0303,49.0897,49.9297
0.907427,24.7003,35.5511,41.1865,44.5204,46.7016,48.2351,49.3712,50.2464,50.9415
0.924321,27.02,37.9196,43.2786,46.4275,48.5015,49.9729,51.0722,51.9253,52.6069
0.923247,28.2085,38.8473,44.0474,47.1389,49.1948,50.6629,51.7647,52.6222,53.3087
0.889331,27.9494,38.0517,43.041,46.0354,48.0365,49.4694,50.5462,51.3852,52.0573
0.932766,29.9987,40.6039,45.8956,49.0848,51.2192,52.7481,53.8974,54.7927,55.5099
0.895203,29.3342,39.5774,44.7229,47.8291,49.9088,51.3987,52.5186,53.3911,54.0901
0.925143,30.3918,40.7348,45.9131,49.029,51.1103,52.599,53.7166,54.5865,55.2829
0.944723,31.5727,42.4296,47.9323,51.2653,53.5014,55.1059,56.3133,57.2549,58.0097
0.907414,30.9331,41.6616,47.1151,50.4175,52.6315,54.2188,55.4125,56.3427,57.088
0.904216,31.5402,42.548,48.1398,51.5216,53.7867,55.4097,56.6296,57.5799,58.3412
0.925492,32.4663,43.5602,49.1364,52.4894,54.7274,56.3272,57.5277,58.4618,59.2093
0.917901,32.7981,44.1231,49.8684,53.346,55.6781,57.3511,58.6099,59.5914,60.3782
0.910379,33.1689,44.6856,50.5318,54.0677,56.4365,58.134,59.4101,60.4043,61.2007
0.926429,33.8576,45.3884,51.1897,54.6809,57.0124,58.6797,59.9312,60.9052,61.6848
0.913584,33.8336,45.4296,51.3043,54.8572,57.2384,58.9457,60.2299,61.231,62.0333
0.904147,33.9936,45.7043,51.6454,55.2381,57.6449,59.3697,60.6664,61.6766,62.486
0.900804,34.5492,46.555,52.6568,56.3489,58.8231,60.5966,61.93,62.9692,63.8017
0.923833,35.9095,48.3163,54.5901,58.3747,60.9057,62.7175,64.0783,65.1379,65.9863
0.9461,37.4334,50.4199,57.0025,60.9813,63.6464,65.5563,66.9923,68.1113,69.0078
0.919722,36.9032,49.6605,56.1118,60.0054,62.6105,64.4759,65.8774,66.9689,67.843
0.926652,37.252,49.9156,56.2854,60.1203,62.6826,64.5157,65.8921,66.9636,67.8215
0.91865,37.6586,50.7065,57.3518,61.3831,64.0903,66.034,67.4974,68.6391,69.5545
0.904115,37.3128,50.1068,56.5717,60.4705,63.077,64.9421,66.3426,67.4328,68.3055
0.917936,38.3856,51.6196,58.3341,62.3956,65.1176,67.0691,68.5367,69.6806,70.5973
0.908933,38.6517,52.056,58.862,62.9783,65.7359,67.7122,69.1979,70.3556,71.283
0.920832,39.3519,52.8121,59.5971,63.684,66.4148,68.3683,69.8351,70.9769,71.8909
0.919156,39.9391,53.7475,60.7581,65.0014,67.8466,69.8871,71.4222,72.6189,73.5781
0.919573,40.2798,54.0985,61.0784,65.2877,68.1024,70.1168,71.6297,72.8076,73.7507
0.918755,40.9687,55.1878,62.4156,66.7923,69.7274,71.8326,73.4164,74.6511,75.6407
0.922497,41.6457,56.0532,63.3481,67.7524,70.6994,72.8096,74.3949,75.6295,76.6182
0.922591,42.0535,56.5228,63.8324,68.2418,71.1914,73.3031,74.8897,76.1253,77.1149
0.940696,43.0491,57.7283,65.1308,69.5941,72.5792,74.7163,76.3218,77.5721,78.5735
0.925436,42.7723,57.4355,64.8674,69.3623,72.3746,74.5341,76.1582,77.424,78.4383
0.904325,42.6728,57.5462,65.1267,69.7218,72.8048,75.0163,76.6801,77.9772,79.0168
0.905054,43.2282,58.2334,65.838,70.4299,73.5025,75.7024,77.3552,78.6422,79.6729
0.913553,40.2821,52.5934,58.545,62.0523,64.3646,66.0037,67.2264,68.1734,68.9285
0.931115,43.4448,58.7296,66.7859,71.7942,75.2168,77.7064,79.5995,81.088,82.2894
0.899272,43.3375,58.8383,66.8243,71.6701,74.9153,77.2373,78.9796,80.3345,81.4181
0.906743,44.7512,60.6584,68.7329,73.5988,76.8488,79.1728,80.9171,82.2746,83.3612
0.907517,44.9599,60.4811,68.2597,72.9278,76.0408,78.265,79.9338,81.2323,82.2713
0.877775,17.6392,19.5962,20.3468,20.7442,20.9905,21.158,21.2795,21.3715,21.4437
0.874164,25.6691,36.2445,43.7704,49.5362,54.1219,57.8645,60.9799,63.6149,65.8734
0.890146,34.0133,51.7881,62.9939,70.3277,75.3616,78.973,81.6633,83.7313,85.3632
0.881663,39.6083,59.1845,69.5178,75.5641,79.4656,82.1763,84.1656,85.687,86.8883
