2.06472,2.11503,2.13235,2.14112,2.14641,2.14996,2.15249,2.1544,2.15589,2.15708
2.38443,3.27593,3.7267,3.99867,4.18061,4.31087,4.40873,4.48493,4.54596,4.59593
1.2425,2.21777,2.72912,3.02801,3.22096,3.35491,3.45301,3.5278,3.58666,3.63414
1.11148,2.38737,3.01017,3.34699,3.55362,3.69235,3.79165,3.86612,3.92401,3.97029
1.11573,2.99474,3.95746,4.48771,4.81897,5.04496,5.20887,5.33319,5.4307,5.50924
1.13699,3.62312,4.83771,5.47578,5.86299,6.12198,6.30711,6.44594,6.55387,6.64016
1.06662,3.97495,5.35175,6.0643,6.49602,6.78528,6.99258,7.14844,7.2699,7.36722
0.677475,1.4142,1.54786,1.59845,1.62493,1.64122,1.65224,1.6602,1.66622,1.67093
0.77028,2.15732,2.77568,3.16288,3.43377,3.63501,3.79072,3.91489,4.01627,4.10064
0.685393,2.88285,4.35129,5.35694,6.06889,6.59175,6.98881,7.29911,7.54752,7.75047
0.907106,5.32735,8.44966,10.3318,11.5114,12.2996,12.857,13.2697,13.5865,13.8368
0.782284,5.71586,8.70548,10.2166,11.083,11.6389,12.0251,12.3091,12.5268,12.6991
0.696684,5.9657,8.72005,10.0346,10.796,11.2952,11.649,11.9133,12.1185,12.2826
0.713992,6.76482,9.52687,10.8329,11.6012,12.1102,12.473,12.745,12.9565,13.1258
0.896842,9.0902,12.4911,14.1258,15.1004,15.7502,16.2149,16.5639,16.8356,17.0532
0.714682,7.747,10.5685,11.9648,12.8078,13.3733,13.7791,14.0845,14.3227,14.5137
0.734817,8.15492,10.9244,12.2821,13.0933,13.633,14.0178,14.3061,14.5302,14.7093
0.753237,8.87848,11.9936,13.5785,14.5446,15.1958,15.6648,16.0186,16.2952,16.5173
0.724479,8.9663,12.1064,13.6982,14.6609,15.3056,15.7673,16.1141,16.3841,16.6003
0.799116,10.3703,14.0067,15.8514,16.9671,17.7145,18.2501,18.6528,18.9666,19.218
0.771891,10.4564,14.1053,15.9513,17.0657,17.8113,18.3453,18.7466,19.059,19.3093
0.80121,11.2537,15.1525,17.1232,18.313,19.1094,19.6799,20.1087,20.4427,20.7103
0.797752,11.1145,14.7213,16.5035,17.5666,18.2729,18.7763,19.1531,19.4459,19.6799
0.770195,11.5169,15.6066,17.7364,19.0477,19.9374,20.5811,21.0684,21.4503,21.7577
0.769737,11.3325,15.014,16.8307,17.9094,18.6226,19.1287,19.5064,19.7988,20.032
0.774024,12.1609,16.4518,18.6781,20.0453,20.9715,21.6409,22.1475,22.5444,22.8637
0.762297,12.5982,17.0983,19.4043,20.802,21.7384,22.4091,22.9129,23.3051,23.619
0.838272,14.4374,19.5636,22.1649,23.7346,24.7843,25.5356,26.0999,26.5393,26.8911
0.853644,15.0199,20.2063,22.8102,24.3753,25.4201,26.1671,26.7278,27.1643,27.5136
0.820081,15.0952,20.4255,23.1429,24.7926,25.9011,26.6975,27.2973,27.7654,28.1408
0.808856,15.207,20.4526,23.0921,24.6801,25.7403,26.4982,27.0668,27.5092,27.8632
0.843368,16.3761,22.0752,24.9687,26.721,27.8965,28.74,29.3747,29.8697,30.2666
0.82622,16.3209,21.9007,24.7106,26.4029,27.5336,28.3425,28.9497,29.4223,29.8006
0.815842,15.4507,20.3024,22.6843,24.1016,25.0418,25.7114,26.2125,26.6016,26.9125
0.789066,15.9928,21.6569,24.6339,26.4782,27.7348,28.6466,29.3385,29.8817,30.3194
0.830366,9.76401,11.3595,12.0136,12.3681,12.5899,12.7416,12.8519,12.9356,13.0013
0.792214,12.2407,16.9262,19.9099,22.0232,23.6085,24.845,25.8375,26.6523,27.3335
0.803196,14.7181,21.1327,24.8006,27.1006,28.6514,29.7573,30.581,31.216,31.7192
0.776596,16.6984,24.2632,28.3042,30.746,32.3681,33.5214,34.383,35.0511,35.5845
0.76076,18.0123,25.5998,29.3829,31.6138,33.0834,34.1249,34.9021,35.5044,35.9849
0.757605,18.8244,26.0627,29.5834,31.6655,33.045,34.0276,34.7636,35.3356,35.7932
0.74414,8.91855,10.1235,10.5786,10.8193,10.9687,11.0706,11.1445,11.2006,11.2446
0.758634,13.0096,18.3954,22.075,24.8281,26.9806,28.714,30.1413,31.3377,32.3554
0.769161,16.9208,25.511,30.7632,34.1604,36.4818,38.1453,39.3852,40.3396,41.094
0.766511,19.1666,27.989,32.5112,35.1388,36.8322,38.0091,38.8734,39.5347,40.0572
0.786606,21.8398,31.2352,35.8713,38.6005,40.4029,41.6854,42.6462,43.3937,43.9922
0.769695,22.6172,31.5138,35.8275,38.381,40.0751,41.2831,42.1885,42.8926,43.4558
0.775964,23.0955,31.3827,35.3876,37.7679,39.35,40.4788,41.3251,41.9832,42.5097
0.79749,24.651,33.5225,37.9708,40.6692,42.4845,43.7901,44.7745,45.5434,46.1606
0.796484,25.1943,34.0987,38.5692,41.2674,43.0729,44.3656,45.3366,46.0926,46.6978
0.80694,26.8079,36.5839,41.5912,44.6422,46.6963,48.1735,49.287,50.1564,50.8541
0.803919,26.542,35.6274,40.1394,42.8345,44.625,45.9005,46.8551,47.5963,48.1884
0.834902,28.9262,39.3613,44.7344,48.0201,50.2394,51.8399,53.049,53.9948,54.755
0.8012,28.7185,39.0676,44.3364,47.5229,49.6558,51.1826,52.3293,53.2219,53.9363
0.783063,28.0582,37.7153,42.5352,45.4223,47.3447,48.7167,49.7452,50.5449,51.1844
0.809749,29.1054,39.0326,44.0357,47.0583,49.0841,50.5371,51.6303,52.4829,53.1664
0.805755,29.1874,39.1466,44.189,47.2394,49.2839,50.7497,51.8519,52.711,53.3993
0.803,30.2202,40.9792,46.5233,49.906,52.1851,53.8247,55.0609,56.0262,56.8009
0.82621,31.7162,42.909,48.5942,52.0266,54.3218,55.9639,57.1968,58.1563,58.9242
0.80809,31.389,42.3248,47.8522,51.1865,53.4171,55.0143,56.2145,57.1494,57.8982
0.797632,31.0434,41.6396,46.9662,50.1726,52.3152,53.8482,54.9994,55.8957,56.6133
0.81508,32.353,43.6094,49.3496,52.8359,55.179,56.8624,58.1304,59.12,59.9138
0.809008,32.9361,44.541,50.4617,54.0506,56.4576,58.1837,59.4817,60.4933,61.3039
0.819695,32.9246,44.0152,49.5597,52.8836,55.0979,56.6786,57.8636,58.7849,59.5218
0.82878,34.4095,46.5387,52.7737,56.5788,59.1447,60.9927,62.3874,63.4774,64.3529
0.821211,34.6352,46.7506,52.8986,56.6106,59.0928,60.8688,62.2022,63.2399,64.0703
0.845316,35.0225,46.7159,52.5476,56.041,58.3678,60.0288,61.2742,62.2427,63.0173
0.824202,33.1326,43.8369,49.1787,52.3888,54.5331,56.0674,57.2198,58.1172,58.8359
0.815659,34.01,45.8999,52.0854,55.8885,58.4651,60.3265,61.7343,62.8365,63.7227
0.836322,35.4647,47.8576,54.1831,58.0076,60.5654,62.3949,63.7679,64.8359,65.6904
0.817103,35.6484,48.3149,54.794,58.7229,61.3591,63.2505,64.6737,65.7835,66.6732
0.832678,36.6837,49.4752,55.9352,59.8261,62.4256,64.285,65.6808,66.7673,67.6369
0.839312,37.4147,50.4075,56.9822,60.9544,63.6149,65.5218,66.9557,68.0733,68.9688
0.838333,38.4245,52.0474,59.011,63.2413,66.084,68.1258,69.6633,70.8628,71.8248
0.854482,40.1631,54.4441,61.7108,66.1071,69.0519,71.1618,72.7475,73.9827,74.972
0.865042,40.6396,54.6125,61.6152,65.8191,68.6225,70.6251,72.1273,73.2957,74.2306
0.841787,40.2909,54.3567,61.5121,65.8532,68.7695,70.8642,72.4419,73.6732,74.6608
0.848207,40.9294,55.0846,62.2439,66.5655,69.4568,71.5268,73.0817,74.2925,75.2619
0.860023,42.4326,57.3435,64.9464,69.5581,72.6542,74.8764,76.549,77.8536,78.8995
0.825847,40.0212,53.4305,60.1222,64.1306,66.7994,68.7038,70.131,71.2403,72.1273
0.84772,42.2564,57.0737,64.6879,69.3353,72.4698,74.7276,76.4318,77.7639,78.8339
0.869331,43.4956,58.5213,66.1334,70.7268,73.7978,75.9947,77.644,78.9274,79.9546
0.87018,43.1819,57.7885,65.1445,69.5759,72.5382,74.6583,76.2509,77.491,78.4841
0.859262,42.9444,57.6848,65.2,69.7632,72.8296,75.0325,76.6917,77.9865,79.025
0.871969,43.8398,58.8848,66.5249,71.1448,74.2387,76.4552,78.1208,79.4182,80.4573
0.859675,42.4675,56.5569,63.609,67.8408,70.6618,72.6766,74.1877,75.3629,76.3031
0.840938,42.1285,56.5815,63.9796,68.4836,71.516,73.6975,75.3425,76.6273,77.6586
0.856884,44.3087,60.0501,68.1603,73.1002,76.4229,78.8099,80.6075,82.0097,83.134
0.848334,44.9438,60.9581,69.127,74.0682,77.3765,79.7456,81.5256,82.9117,84.0217
0.849645,45.8174,62.0056,70.2029,75.1479,78.4552,80.8227,82.6013,83.9864,85.0956
0.850482,45.6955,61.3653,69.2265,73.9527,77.1083,79.365,81.0592,82.3779,83.4336
0.872358,48.0503,64.9608,73.5959,78.8447,82.3747,84.9119,86.8237,88.3161,89.5135
0.842063,45.8281,61.3172,69.0659,73.7131,76.809,79.0187,80.6749,81.9622,82.9915
0.867438,47.9075,64.4859,72.9422,78.0811,81.5372,84.0217,85.8942,87.3562,88.5294
0.864653,49.094,66.5186,75.457,80.892,84.5442,87.1667,89.1409,90.6805,91.9148
0.883742,51.3206,69.5593,78.8421,84.4544,88.2114,90.9019,92.9233,94.4975,95.7582
0.903374,52.2579,70.2088,79.2081,84.6112,88.2146,90.7891,92.7204,94.2229,95.4252
0.880819,48.6791,64.3207,72.043,76.654,79.721,81.9091,83.5491,84.824,85.8437
0.869027,49.2287,66.2036,74.9809,80.3673,84.0143,86.6487,88.6413,90.2012,91.4558
0.861612,50.5369,68.6095,77.9473,83.6372,87.4623,90.2083,92.2744,93.885,95.1755
