1.4892,1.52716,1.54024,1.54687,1.55087,1.55355,1.55547,1.55692,1.55804,1.55894
1.21199,1.70999,1.97171,2.13298,2.24231,2.32131,2.38107,2.42784,2.46545,2.49636
1.12561,2.05701,2.54978,2.83703,3.02162,3.1492,3.24227,3.313,3.3685,3.41316
1.05251,2.36068,3.02234,3.38499,3.60905,3.76018,3.86871,3.95034,4.01392,4.06483
1.06152,2.89202,3.80588,4.29736,4.59963,4.80364,4.95048,5.06121,5.14767,5.21706
1.09975,3.4748,4.58846,5.1641,5.51152,5.74347,5.9092,6.03349,6.13014,6.20745
1.17717,4.14961,5.44771,6.10285,6.49578,6.75761,6.9446,7.08484,7.19392,7.28119
0.92883,3.66281,4.84116,5.44439,5.81088,6.05733,6.23448,6.36799,6.47222,6.55586
0.929713,4.35492,5.95608,6.81228,7.34436,7.70692,7.96976,8.16903,8.32527,8.45107
1.18722,6.26445,8.53404,9.69527,10.3945,10.8603,11.1925,11.4411,11.6341,11.7882
0.948206,5.40367,7.25265,8.17192,8.72007,9.08408,9.34345,9.53767,9.68858,9.80921
0.994873,6.23625,8.41871,9.53013,10.2053,10.6597,10.9865,11.2329,11.4254,11.58
1.01507,7.05779,9.60614,10.9158,11.7132,12.2496,12.6351,12.9253,13.1518,13.3334
0.904787,6.72304,9.06572,10.2421,10.9481,11.4184,11.7542,12.0058,12.2014,12.3578
0.959236,7.71514,10.4452,11.8354,12.679,13.2457,13.6528,13.9594,14.1988,14.3907
0.901352,7.76307,10.4996,11.8881,12.7275,13.2897,13.6924,13.9951,14.231,14.4198
0.904319,8.18546,11.0057,12.4251,13.2799,13.8511,14.2598,14.5667,14.8056,14.9968
0.992662,9.57764,12.9364,14.6497,15.6903,16.3896,16.8921,17.2706,17.566,17.8029
0.904108,9.09763,12.215,13.7848,14.7297,15.3607,15.8119,16.1505,16.4139,16.6247
1.01211,10.6287,14.2618,16.1007,17.2125,17.9576,18.4918,18.8937,19.207,19.4581
0.95081,10.5165,14.1612,16.0181,17.144,17.8997,18.442,18.85,19.1682,19.4233
0.892543,10.4615,14.1522,16.0394,17.1849,17.9539,18.5057,18.921,19.2448,19.5043
0.942907,11.4366,15.3825,17.3741,18.5738,19.3753,19.9487,20.3791,20.7141,20.9822
0.9774,11.9553,15.898,17.8621,19.0391,19.8234,20.3836,20.8037,21.1304,21.3919
0.925784,11.8612,15.9324,18.0188,19.2911,20.1488,20.7663,21.2322,21.5964,21.8888
0.930217,12.4904,16.8516,19.0846,20.4403,21.3501,22.0027,22.4935,22.876,23.1825
0.976937,13.8257,18.7332,21.2453,22.7692,23.7917,24.5252,25.0769,25.507,25.8517
0.947933,13.8677,18.6951,21.1323,22.5999,23.5801,24.281,24.8071,25.2165,25.5442
0.98636,14.8071,19.8927,22.4596,24.0085,25.0454,25.7882,26.3467,26.7819,27.1305
0.902265,14.2294,19.2621,21.8428,23.414,24.4716,25.232,25.8052,26.2527,26.6117
0.896469,14.6683,19.8322,22.4579,24.0458,25.109,25.8705,26.4427,26.8883,27.2451
0.901587,15.0323,20.187,22.7799,24.3401,25.382,26.1272,26.6866,27.122,27.4706
0.885041,14.2421,18.7173,20.9099,22.2128,23.0768,23.6916,24.1517,24.5088,24.7942
0.912505,15.8482,21.5165,24.5096,26.3698,27.6402,28.5634,29.265,29.8162,30.2609
0.926113,17.0635,23.2977,26.5215,28.481,29.7946,30.7352,31.4415,31.991,32.4306
0.966325,18.486,25.1066,28.4591,30.4763,31.8223,32.7842,33.5058,34.0671,34.5163
0.936498,18.2777,24.6248,27.8068,29.7181,30.9937,31.9058,32.5905,33.1235,33.5502
0.932167,10.4133,12.075,12.7509,13.1183,13.3493,13.508,13.6238,13.7121,13.7815
0.915256,13.5859,18.8438,22.2265,24.6419,26.4644,27.8919,29.0416,29.9878,30.7806
0.889678,15.5241,22.2201,26.0264,28.4018,29.997,31.1308,31.9729,32.6205,33.1327
0.91495,16.6951,23.0796,26.2633,28.1204,29.3287,30.1762,30.8034,31.2863,31.6698
0.859461,17.8553,25.2495,29.1122,31.4791,33.0826,34.243,35.1227,35.8131,36.3695
0.876946,19.7551,27.6582,31.65,34.046,35.6425,36.782,37.6358,38.2992,38.8294
0.898311,21.3628,29.4924,33.5325,35.9488,37.5578,38.7066,39.5681,40.2383,40.7745
0.912864,22.58,30.8548,34.9695,37.44,39.0899,40.2705,41.1573,41.8479,42.401
0.939815,23.8825,32.3935,36.6456,39.2065,40.9195,42.1464,43.0685,43.7869,44.3623
0.91175,22.6188,30.0597,33.7089,35.8836,37.3281,38.3575,39.1284,39.7272,40.2058
0.885332,22.4309,30.0677,33.9571,36.3277,37.9262,39.0776,39.9467,40.6261,41.1719
0.935677,23.3999,31.1016,34.9638,37.2861,38.8356,39.9425,40.7727,41.4182,41.9344
0.898969,23.813,32.3425,36.7958,39.5359,41.3927,42.7343,43.7491,44.5436,45.1826
0.878013,24.2008,32.9273,37.4014,40.111,41.9249,43.2231,44.1979,44.9564,45.5634
0.916248,26.0575,35.3836,40.1187,42.9766,44.8883,46.2568,47.285,48.0858,48.7271
0.921596,25.4805,33.8708,38.0007,40.4576,42.0872,43.2474,44.1156,44.7896,45.3281
0.922607,26.3374,35.4649,40.1469,43.0079,44.9404,46.3341,47.3872,48.2112,48.8734
0.862224,24.2547,32.2785,36.2875,38.6897,40.2885,41.4286,42.2824,42.9456,43.4755
0.89203,26.5771,36.1444,41.1367,44.2086,46.2909,47.796,48.9349,49.827,50.5446
0.881501,26.7863,36.2191,40.9998,43.8776,45.7968,47.1669,48.1936,48.9915,49.6292
0.888027,27.9252,37.886,42.9636,46.0401,48.1041,49.5851,50.6998,51.5691,52.2662
0.90431,29.1694,39.5219,44.7759,47.9516,50.0783,51.602,52.7474,53.6397,54.3545
0.875563,28.5952,38.5419,43.5525,46.5708,48.5881,50.0317,51.1158,51.9599,52.6358
0.881209,28.3927,38.0917,43.0227,46.018,48.0327,49.4813,50.5733,51.4261,52.1106
0.872561,28.2363,37.8108,42.655,45.5808,47.5389,48.9408,49.994,50.814,51.4706
0.872829,28.7649,38.6921,43.7584,46.8333,48.8982,50.3805,51.4964,52.3668,53.0647
0.879086,30.144,40.9209,46.471,49.8516,52.1259,53.7602,54.9913,55.952,56.7225
0.936744,32.8568,44.4864,50.3887,53.9496,56.3299,58.0327,59.311,60.3059,61.1022
0.890055,31.9483,43.2413,48.9729,52.4383,54.76,56.4243,57.6759,58.6515,59.4332
0.877643,32.2084,43.5641,49.3214,52.8014,55.1323,56.8026,58.0584,59.0368,59.8207
0.938145,34.3009,45.9871,51.8433,55.3623,57.7109,59.3898,60.6497,61.6301,62.4148
0.882095,32.2415,43.1367,48.6306,51.9487,54.1714,55.7647,56.963,57.897,58.6455
0.919097,32.9567,43.776,49.1966,52.4568,54.634,56.191,57.3598,58.2695,58.9977
0.864774,31.3144,41.9001,47.3098,50.6008,52.8151,54.4071,55.607,56.5437,57.2954
0.888917,31.1092,41.1223,46.1198,49.1133,51.1059,52.5273,53.5921,54.4195,55.0809
0.87442,32.4546,44.1099,50.2466,54.0421,56.6235,58.4938,59.9116,61.0234,61.9188
0.883236,33.9552,46.2199,52.5192,56.3331,58.8846,60.7095,62.0787,63.1436,63.9953
0.876636,34.5017,46.7967,53.0243,56.7757,59.2817,61.0742,62.42,63.4676,64.3063
0.879363,35.0353,47.2809,53.4477,57.1613,59.6435,61.4202,62.7549,63.7943,64.6267
0.8694,35.7692,48.5483,55.08,59.0509,61.7216,63.6413,65.0877,66.2169,67.1228
0.874365,37.0013,50.2653,57.0254,61.1206,63.8664,65.8349,67.3151,68.4685,69.3926
0.87723,37.4759,50.5826,57.1833,61.1567,63.8106,65.7086,67.1333,68.2422,69.1298
0.884073,38.7244,52.4134,59.3732,63.591,66.4217,68.4534,69.9827,71.1755,72.132
0.900516,38.9295,52.0485,58.5876,62.5042,65.1121,66.973,68.3678,69.4519,70.3187
0.897334,37.516,49.6281,55.6495,59.2613,61.671,63.3938,64.687,65.6937,66.4996
0.88492,37.4458,50.093,56.5776,60.5349,63.2036,65.1256,66.576,67.7094,68.6196
0.874425,38.5758,52.3662,59.534,63.9211,66.8804,69.0103,70.6162,71.8702,72.8763
0.919234,42.1429,57.4448,65.3057,70.072,73.2659,75.5542,77.2736,78.6127,79.6851
0.883578,41.5365,56.4275,63.9701,68.5144,71.5502,73.7216,75.3517,76.6205,77.6361
0.887538,42.0218,56.6762,64.032,68.454,71.4065,73.5182,75.1036,76.3377,77.3258
0.876461,40.6538,54.1838,60.9118,64.9439,67.6319,69.5524,70.9932,72.1142,73.0112
0.901545,42.4516,57.0229,64.4593,68.9855,72.0331,74.2257,75.8791,77.1706,78.2072
0.877995,41.6868,56.0244,63.3128,67.7235,70.6783,72.7951,74.386,75.625,76.6173
0.892228,41.8714,55.9036,62.956,67.1975,70.0289,72.0531,73.5722,74.7543,75.7004
0.913749,43.0502,57.6448,65.0592,69.5517,72.5667,74.7305,76.3593,77.6297,78.6483
0.891479,43.5866,59.1106,67.1372,72.0408,75.3466,77.726,79.5203,80.9216,82.0464
0.885642,44.8837,61.1518,69.5094,74.5831,77.9869,80.4277,82.263,83.6932,84.8389
0.882563,44.7491,60.3074,68.1078,72.7839,75.898,78.1205,79.7864,81.0814,82.117
0.892678,43.4354,57.5335,64.4938,68.6495,71.4139,73.3866,74.8653,76.0151,76.9349
0.88317,44.2513,59.6391,67.5942,72.4759,75.7813,78.1691,79.9751,81.3891,82.5263
0.879378,46.0639,62.8089,71.4961,76.8025,80.3755,82.9435,84.8773,86.3858,87.5951
0.919601,48.9481,66.3846,75.2277,80.5548,84.1112,86.6528,88.5594,90.0425,91.229
0.910474,48.0441,64.4331,72.6128,77.5132,80.7779,83.1091,84.8575,86.2175,87.3055
