1.81801,1.85219,1.86388,1.86977,1.87333,1.87571,1.87741,1.87869,1.87969,1.88048
1.34475,1.82433,2.06397,2.20768,2.30344,2.37182,2.42309,2.46297,2.49486,2.52095
1.20675,2.12473,2.60198,2.88027,3.05979,3.18441,3.27568,3.34528,3.40005,3.44425
1.12341,2.44957,3.12007,3.48989,3.71937,3.87456,3.98619,4.07023,4.13573,4.1882
1.09425,2.89566,3.78711,4.26478,4.55756,4.7546,4.8961,5.00259,5.08563,5.15218
1.24672,3.90858,5.1837,5.85035,6.25509,6.5263,6.72057,6.86655,6.98024,7.07129
1.0387,3.78901,5.06707,5.72602,6.12482,6.39183,6.58309,6.72681,6.83875,6.92841
1.0117,4.19029,5.60857,6.32963,6.76405,7.05427,7.26184,7.41767,7.53896,7.63604
1.00399,4.66308,6.24857,7.05185,7.53624,7.86019,8.09211,8.26634,8.40204,8.51071
0.98823,5.10195,6.84813,7.73271,8.26666,8.62398,8.87989,9.07218,9.22197,9.34193
0.984495,5.57668,7.48263,8.44587,9.02679,9.41532,9.69345,9.90237,10.0651,10.1953
0.972217,5.98165,8.01862,9.04667,9.66653,10.0811,10.3778,10.6007,10.7743,10.9133
1.08375,7.22918,9.7071,10.9622,11.7207,12.2286,12.5926,12.8662,13.0795,13.2503
1.09042,7.7986,10.4536,11.7922,12.5986,13.1376,13.5231,13.8126,14.038,14.2183
1.03535,7.96114,10.6966,12.0825,12.9201,13.4811,13.8831,14.1854,14.4209,14.6096
0.971595,7.90651,10.586,11.9335,12.7441,13.2853,13.6723,13.9627,14.1887,14.3695
0.957132,8.25027,11.0512,12.4651,13.3183,13.8893,14.2983,14.6056,14.8451,15.0369
0.953677,8.71924,11.7015,13.2117,14.1241,14.7351,15.1728,15.5017,15.758,15.9633
0.944138,9.11345,12.2329,13.81,14.7616,15.3982,15.8538,16.1961,16.4627,16.6761
0.940396,9.55968,12.8368,14.4942,15.4946,16.1641,16.6435,17.0037,17.2843,17.509
0.935895,10.0583,13.5416,15.3094,16.3785,17.0947,17.608,17.9939,18.2947,18.5356
1.01611,11.3181,15.1501,17.0721,18.2263,18.9961,19.5461,19.9585,20.2794,20.536
0.953311,11.2132,15.0918,17.0631,18.2574,19.0588,19.634,20.0669,20.4045,20.6752
0.951172,11.6685,15.6774,17.701,18.9204,19.7353,20.3182,20.7558,21.0964,21.369
1.02001,12.9991,17.4397,19.678,21.0267,21.9283,22.5736,23.0583,23.4357,23.7379
0.989637,13.1165,17.6003,19.8637,21.229,22.1424,22.7964,23.2878,23.6705,23.977
0.987929,13.6798,18.3987,20.7893,22.2339,23.2013,23.8944,24.4154,24.8213,25.1464
0.970338,13.963,18.7689,21.1956,22.6587,23.6368,24.3368,24.8624,25.2717,25.5993
0.932641,13.9443,18.7488,21.1762,22.6406,23.6202,24.3216,24.8486,25.2591,25.5878
0.953089,14.6431,19.6261,22.1322,23.6407,24.6484,25.3692,25.9103,26.3315,26.6687
0.980628,15.6455,21.0263,23.7513,25.3986,26.5022,27.2932,27.888,28.3515,28.7229
0.95206,15.7415,21.1669,23.9104,25.5659,26.6732,27.4659,28.0613,28.525,28.8962
0.971701,16.6343,22.3746,25.2757,27.0259,28.1966,29.0347,29.6643,30.1547,30.5473
0.941533,16.4216,21.9783,24.7655,26.4406,27.5585,28.3575,28.9572,29.4238,29.7972
0.980135,17.5979,23.6096,26.6536,28.4946,29.7286,30.6134,31.2791,31.798,32.2139
0.957878,17.7517,23.8525,26.9421,28.8082,30.0571,30.9516,31.6236,32.147,32.5661
0.954908,18.2368,24.5115,27.6838,29.5976,30.8776,31.7938,32.482,33.018,33.4471
0.976643,19.1246,25.6657,28.9618,30.9471,32.2738,33.223,33.9357,34.4905,34.9347
0.927337,18.5198,24.8008,27.9605,29.8629,31.1342,32.0438,32.7268,33.2586,33.6843
0.998733,20.378,27.3026,30.8005,32.9124,34.3261,35.3389,36.1002,36.6933,37.1685
0.966899,20.2027,27.0971,30.5858,32.693,34.1035,35.1138,35.8731,36.4646,36.9383
0.964348,20.7049,27.8096,31.4058,33.577,35.0299,36.0703,36.852,37.4607,37.9483
0.975954,21.3094,28.5364,32.171,34.3575,35.8174,36.8612,37.6446,38.2542,38.7421
0.963198,21.4077,28.6522,32.3025,34.5029,35.9744,37.0279,37.8193,38.4357,38.9293
0.949381,21.5024,28.7992,32.4868,34.7132,36.2035,37.2709,38.0732,38.6981,39.1987
0.945389,22.0336,29.6217,33.4763,35.8088,37.372,38.4925,39.3351,39.9918,40.5179
0.935385,14.9565,17.9726,19.2669,19.9857,20.443,20.7594,20.9913,21.1686,21.3085
0.911324,18.0672,24.8503,28.9282,31.7047,33.7289,35.2736,36.4926,37.4796,38.2954
0.91218,20.6689,29.1762,33.8631,36.7612,38.7063,40.0924,41.1261,41.9245,42.5587
0.946421,23.0688,32.0999,36.6752,39.384,41.1656,42.4248,43.3617,44.086,44.6629
0.912068,23.5013,32.3345,36.7253,39.339,41.075,42.3132,43.2416,43.9638,44.5418
0.917539,24.4672,33.2877,37.6522,40.261,41.9991,43.2408,44.1726,44.8977,45.4781
0.952869,26.152,35.3855,39.9879,42.7553,44.6049,45.929,46.9238,47.6986,48.3192
0.914171,25.4766,34.2426,38.6107,41.2343,42.9855,44.2375,45.1771,45.9084,46.4936
0.949364,26.9609,36.2097,40.8588,43.6638,45.5412,46.8861,47.897,48.6847,49.3156
0.933122,27.2088,36.6333,41.4036,44.2882,46.2208,47.6059,48.6472,49.4586,50.1086
0.948005,28.3171,38.1341,43.0957,46.0895,48.0918,49.5251,50.6016,51.4399,52.111
0.920845,27.7968,37.2681,42.0214,44.8787,46.7856,48.1488,49.1717,49.9677,50.6047
0.926615,28.3424,38.0266,42.925,45.8864,47.871,49.2941,50.3645,51.199,51.8678
0.914907,28.5874,38.4296,43.4162,46.4295,48.447,49.8922,50.9783,51.8243,52.5018
0.922428,29.255,39.2795,44.3394,47.3896,49.4286,50.8877,51.9835,52.8366,53.5196
0.907204,29.2725,39.3061,44.3718,47.4269,49.4703,50.9332,52.0321,52.888,53.5733
0.925012,30.129,40.366,45.5204,48.625,50.6999,52.1845,53.2994,54.1673,54.8622
0.931775,30.7205,41.16,46.4283,49.6065,51.7329,53.2556,54.3998,55.2909,56.0047
0.934626,31.2217,41.8441,47.2087,50.4453,52.6105,54.1608,55.3255,56.2325,56.9589
0.921874,31.4964,42.3609,47.8759,51.2118,53.447,55.0491,56.2537,57.1924,57.9445
0.932639,32.401,43.5557,49.1941,52.5944,54.8679,56.4949,57.7168,58.668,59.4296
0.925064,32.4302,43.4647,49.0133,52.3516,54.581,56.1752,57.372,58.3034,59.049
0.92804,33.0785,44.4014,50.1245,53.5803,55.8939,57.5514,58.7974,59.7682,60.5459
0.925726,32.9628,44.0223,49.5689,52.9025,55.1271,56.7173,57.9104,58.8387,59.5816
0.930286,33.8155,45.4025,51.2877,54.8524,57.2437,58.9594,60.2504,61.2572,62.0642
0.902298,33.1076,44.3719,50.0533,53.4757,55.7621,57.3973,58.6247,59.5799,60.3443
0.945465,34.6773,46.2969,52.1299,55.6375,57.9794,59.654,60.911,61.8893,62.6724
0.932324,35.0245,47.083,53.2237,56.9477,59.4478,61.2425,62.5934,63.6471,64.492
0.929896,35.9325,48.4962,54.8905,58.759,61.3501,63.2063,64.6013,65.6879,66.5581
0.925214,36.2784,48.8174,55.1366,58.9389,61.4773,63.292,64.6538,65.7134,66.5614
0.931686,37.2492,50.1457,56.6581,60.5863,63.2143,65.0962,66.5103,67.6119,68.4942
0.926308,37.5621,50.4846,56.9933,60.9138,63.5339,65.4085,66.8162,67.9121,68.7894
0.960403,39.5617,53.1769,60.0476,64.1921,66.9647,68.9499,70.4416,71.6034,72.5339
0.932445,38.5773,51.6538,58.2171,62.1637,64.7984,66.6821,68.0959,69.196,70.0765
0.931954,38.9819,52.2522,58.9531,62.999,65.7076,67.6482,69.1071,70.2437,71.1543
0.914204,38.8495,52.1976,58.9639,63.0548,65.7951,67.7587,69.2349,70.3851,71.3065
0.924649,39.8849,53.6054,60.5435,64.7293,67.5287,69.5325,71.0375,72.2094,73.1476
0.927936,40.501,54.3842,61.3881,65.6092,68.431,70.4503,71.9669,73.1477,74.0931
0.914979,40.3318,54.1033,61.0448,65.2281,68.0247,70.0263,71.5297,72.7003,73.6377
0.902949,39.6674,52.9732,59.6475,63.6605,66.3398,68.2556,69.6936,70.8128,71.7086
0.927048,41.1973,55.2041,62.3017,66.5958,69.4745,71.5389,73.0917,74.3023,75.2725
0.923111,41.631,55.9212,63.1723,67.5562,70.4922,72.5956,74.1765,75.4081,76.3945
0.944763,42.9509,57.6011,64.9911,69.4425,72.4166,74.5439,76.1409,77.384,78.379
0.917174,42.2765,56.7734,64.1053,68.5315,71.4939,73.6157,75.2103,76.4525,77.4476
0.92059,43.2485,58.2115,65.7946,70.3761,73.4435,75.6408,77.2922,78.5787,79.6091
0.91945,43.1826,57.8091,65.1468,69.5551,72.4959,74.5974,76.1739,77.4003,78.3816
0.921964,44.186,59.4419,67.1877,71.8777,75.0235,77.2803,78.9785,80.3027,81.3642
0.915744,44.3571,59.5941,67.2871,71.9242,75.0237,77.2412,78.9061,80.202,81.2394
0.926604,45.5616,61.2786,69.2303,74.0315,77.245,79.5468,81.2767,82.6244,83.7038
0.929553,46.0948,61.8814,69.8382,74.6317,77.8353,80.1274,81.8485,83.1884,84.2611
0.932012,46.8039,62.874,70.9927,75.8922,79.1708,81.5189,83.2834,84.6578,85.7586
0.92744,46.8879,62.8874,70.9514,75.8108,79.0592,81.3837,83.1295,84.4887,85.5769
0.899933,22.7304,25.9365,27.2177,27.9076,28.3389,28.634,28.8487,29.0119,29.1401
0.8912,30.6186,42.6628,50.6706,56.5162,60.9991,64.5545,67.4463,69.8459,71.8697
