1.93558,1.95724,1.96456,1.96825,1.97046,1.97194,1.973,1.9738,1.97442,1.97491
1.44055,1.93738,2.18498,2.33327,2.43201,2.50249,2.55531,2.59638,2.62922,2.65609
1.68313,2.90138,3.51992,3.87623,4.10444,4.2621,4.37718,4.46473,4.53349,4.5889
1.19165,2.57595,3.2801,3.67158,3.91599,4.08204,4.2019,4.29237,4.36304,4.41974
1.12307,2.93173,3.81729,4.28847,4.5757,4.76822,4.90601,5.00945,5.08992,5.15431
1.09397,3.34047,4.38794,4.92893,5.2553,5.47316,5.62885,5.74564,5.83649,5.90917
1.09543,3.89485,5.17793,5.83904,6.23956,6.50804,6.70053,6.8453,6.95813,7.04856
1.07423,4.38037,5.86032,6.61619,7.07257,7.37778,7.5962,7.76022,7.8879,7.99012
1.12967,5.16179,6.89893,7.77469,8.30063,8.6513,8.90177,9.08961,9.23569,9.35255
1.04249,5.27664,7.05066,7.94283,8.47918,8.83723,9.09325,9.28542,9.43499,9.5547
1.03286,5.7435,7.67982,8.65468,9.24163,9.63384,9.91446,10.1252,10.2892,10.4206
1.06859,6.48919,8.68664,9.79397,10.461,10.9068,11.2258,11.4653,11.6518,11.801
1.07275,7.08382,9.49501,10.7103,11.4423,11.9314,12.2813,12.544,12.7485,12.9122
1.07429,7.60067,10.1587,11.4404,12.2098,12.723,13.0896,13.3646,13.5784,13.7496
1.05663,8.10637,10.8943,12.3063,13.1597,13.7314,14.1411,14.4492,14.6893,14.8816
1.01407,8.24311,11.0213,12.41,13.2422,13.7963,14.1917,14.488,14.7183,14.9024
1.08197,9.43147,12.6662,14.3015,15.2892,15.9508,16.4248,16.7813,17.0592,17.2818
1.04518,9.56588,12.7804,14.3865,15.3491,15.9903,16.4478,16.7908,17.0574,17.2705
1.029,9.90426,13.2305,14.9,15.9046,16.5758,17.056,17.4166,17.6974,17.9222
1.02419,10.4353,13.9868,15.7805,16.8631,17.5875,18.1063,18.4961,18.7997,19.0429
0.983467,10.5325,14.1093,15.9081,16.9901,17.7123,18.2285,18.6158,18.9172,19.1583
0.9846,11.0723,14.8396,16.7357,17.8773,18.64,19.1856,19.5953,19.9142,20.1695
0.994042,11.8342,15.9223,17.9903,19.2386,20.0739,20.6721,21.1215,21.4716,21.752
1.01044,12.3365,16.441,18.479,19.6961,20.5049,21.0812,21.5127,21.8479,22.1157
0.977585,12.4344,16.6219,18.7308,20.0033,20.8553,21.4658,21.925,22.2828,22.5696
0.970739,12.7751,17.0653,19.2222,20.5204,21.3875,22.0076,22.473,22.8351,23.125
0.976716,13.2775,17.7237,19.9565,21.2993,22.1958,22.8368,23.3179,23.6923,23.9919
0.987429,14.1267,18.9921,21.4643,22.9608,23.9641,24.6835,25.2246,25.6465,25.9845
1.00856,15.0532,20.2357,22.849,24.4215,25.4712,26.2214,26.7842,27.222,27.5723
0.96494,14.8138,19.8203,22.3224,23.8222,24.8214,25.5348,26.0697,26.4857,26.8184
0.986637,15.8097,21.2424,23.9885,25.6472,26.7583,27.5546,28.1534,28.62,28.994
0.991702,16.2027,21.6254,24.3292,25.9481,27.0257,27.7944,28.3704,28.818,29.1758
1.00962,17.0312,22.7869,25.686,27.4345,28.6045,29.4425,30.0724,30.5632,30.9563
0.995799,17.4004,23.332,26.3255,28.1304,29.3372,30.2008,30.8494,31.3544,31.7586
0.980293,17.6792,23.7025,26.7334,28.5571,29.7748,30.6455,31.2989,31.8074,32.2143
0.981224,18.1569,24.3031,27.3879,29.2423,30.48,31.3649,32.029,32.5457,32.9593
0.997101,18.8543,25.1888,28.3637,30.2718,31.5452,32.4556,33.1388,33.6704,34.0959
0.984089,19.298,25.9071,29.2526,31.2743,32.6284,33.5988,34.3284,34.8969,35.3524
0.992796,19.5898,26.0682,29.2886,31.2132,32.4925,33.4043,34.0871,34.6174,35.0411
0.99497,20.1098,26.851,30.2482,32.2985,33.6712,34.655,35.3947,35.9711,36.4331
1.00788,20.9586,28.0641,31.6539,33.8196,35.2681,36.3049,37.0836,37.69,38.1754
0.988458,20.8943,27.893,31.4002,33.5054,34.9088,35.9112,36.6628,37.2473,37.7149
0.996808,21.6453,28.9781,32.6779,34.9094,36.4023,37.4713,38.2746,38.9003,39.4015
0.976238,21.7721,29.1845,32.923,35.1756,36.681,37.758,38.5667,39.1962,39.7001
0.988096,22.6437,30.3713,34.2633,36.6063,38.1712,39.2904,40.1306,40.7845,41.3079
0.986892,23.0377,30.8198,34.7198,37.0619,38.624,39.7402,40.5775,41.2289,41.7501
0.978115,23.104,30.8142,34.6704,36.9856,38.53,39.6337,40.4619,41.1062,41.6219
0.986647,23.9355,32.061,36.168,38.6489,40.3104,41.501,42.396,43.0935,43.6523
0.985816,24.3221,32.5259,36.6481,39.1267,40.7807,41.9628,42.8497,43.5395,44.0915
0.967983,24.415,32.6954,36.8686,39.3834,41.0646,42.2678,43.1716,43.8753,44.4388
0.966226,25.2786,34.0419,38.4885,41.1767,42.9771,44.2672,45.2369,45.9924,46.5976
0.966009,25.7859,34.5933,39.0072,41.6548,43.4188,44.6779,45.6216,46.3553,46.942
0.95206,26.286,35.3994,40.0053,42.7856,44.6466,45.9798,46.982,47.7629,48.3885
0.986196,27.6531,37.0543,41.7533,44.5702,46.4465,47.7859,48.7898,49.5703,50.1944
0.983533,27.7348,36.9809,41.59,44.3535,46.1957,47.5117,48.4989,49.2669,49.8814
0.981282,28.2894,37.8734,42.7117,45.6342,47.5916,48.9945,50.0493,50.8714,51.53
0.975718,28.4564,38.0174,42.8158,45.6999,47.6242,48.9992,50.0306,50.8329,51.4747
0.984577,29.1072,38.8885,43.8057,46.7654,48.7427,50.1571,51.2191,52.0459,52.7078
0.986093,29.8288,39.9828,45.1132,48.2091,50.2804,51.7635,52.8778,53.7457,54.4407
0.989058,30.2038,40.3479,45.4297,48.4798,50.5131,51.9652,53.0541,53.9008,54.5781
0.981513,30.327,40.4998,45.6083,48.682,50.7351,52.2039,53.3067,54.1653,54.8526
0.979646,30.8349,41.2722,46.5368,49.7114,51.8346,53.3545,54.4963,55.3855,56.0974
0.964744,31.1544,41.842,47.2484,50.5113,52.694,54.2567,55.4306,56.3448,57.0768
0.966003,31.9053,42.8593,48.3785,51.7003,53.9185,55.5045,56.6947,57.621,58.3622
0.971748,32.5952,43.6878,49.2512,52.5931,54.8227,56.4159,57.6113,58.5414,59.2856
0.969426,33.0066,44.2043,49.8266,53.2088,55.4678,57.0836,58.2967,59.241,59.997
0.967253,33.5136,44.9077,50.6399,54.0917,56.3983,58.0486,59.2878,60.2524,61.0247
0.988538,34.383,45.8742,51.6176,55.0632,57.3599,59.0003,60.2305,61.1872,61.9525
0.985794,34.7825,46.5126,52.4242,55.99,58.3758,60.0845,61.3687,62.369,63.1703
0.987238,35.1452,46.9403,52.8643,56.4267,58.8046,60.5044,61.7798,62.7722,63.5663
0.982993,35.0691,46.716,52.5488,56.0522,58.3895,60.0599,61.3132,62.2883,63.0687
0.968121,34.8688,46.5281,52.4009,55.9411,58.3086,60.0035,61.2769,62.2685,63.0627
0.976511,35.9057,48.1224,54.3091,58.046,60.5475,62.3392,63.6855,64.7342,65.5741
0.979092,36.1808,48.3051,54.3784,58.0218,60.4496,62.1829,63.4823,64.4926,65.3006
0.962549,35.9225,47.9879,54.0565,57.7109,60.1534,61.9014,63.2144,64.2368,65.0555
0.950424,36.35,48.8094,55.1238,58.9402,61.4961,63.3274,64.704,65.7765,66.6356
0.958413,37.7416,50.8646,57.5156,61.5306,64.2164,66.139,67.5831,68.7074,69.6076
0.97774,38.5157,51.448,57.8788,61.7205,64.2736,66.0932,67.4555,68.5137,69.3594
0.97031,38.6055,51.596,58.1176,62.0451,64.6714,66.552,67.9652,69.0661,69.948
0.995328,40.4168,54.2245,61.2071,65.4249,68.2488,70.2718,71.7922,72.9766,73.9253
0.968343,39.4785,52.7452,59.3882,63.3746,66.0315,67.9288,69.3512,70.4573,71.3419
0.969881,39.8692,53.2715,60.008,64.0639,66.7745,68.7142,70.171,71.3054,72.2138
0.953652,39.3565,52.5079,59.1082,63.0773,65.7273,67.622,69.044,70.1506,71.0363
0.948052,40.5956,54.7601,62.0004,66.3984,69.3535,71.4757,73.0738,74.3206,75.3204
0.959451,41.6528,55.9357,63.1012,67.3975,70.2577,72.2979,73.8261,75.0135,75.9625
0.967012,42.2109,56.4507,63.5657,67.833,70.6778,72.7103,74.2351,75.4214,76.3707
0.975991,42.8938,57.3122,64.5437,68.8944,71.801,73.8806,75.4422,76.6581,77.6316
0.967422,42.9419,57.4179,64.7016,69.0894,72.0224,74.1212,75.6973,76.9245,77.907
0.95567,43.0717,57.7168,65.1085,69.5662,72.5475,74.6814,76.2843,77.5325,78.5319
0.967552,44.2839,59.3933,67.011,71.5998,74.666,76.8593,78.506,79.7878,80.8139
0.971288,45.2548,60.769,68.593,73.3069,76.4574,78.7116,80.4043,81.722,82.777
0.981981,46.2159,61.9145,69.7884,74.5184,77.6737,79.9283,81.6198,82.9356,83.9884
0.97807,46.3042,61.9035,69.721,74.419,77.5548,79.7967,81.4794,82.7889,83.8371
0.975686,46.3527,61.8754,69.6593,74.3401,77.4657,79.7009,81.3787,82.6847,83.73
0.987619,47.1288,62.9054,70.8352,75.6097,78.8,81.0825,82.7965,84.1308,85.1991
0.983113,46.8857,62.4722,70.2916,74.9929,78.1313,80.3749,82.0587,83.369,84.4176
0.992881,48.1254,64.4474,72.7134,77.7093,81.0555,83.4535,85.2564,86.6611,87.7866
0.996862,49.0199,65.7203,74.1493,79.2272,82.6197,85.0459,86.8671,88.2844,89.4187
0.978518,48.5669,65.0349,73.3127,78.2901,81.6123,83.9872,85.7695,87.1563,88.2661
0.968669,48.6449,65.169,73.4866,78.4951,81.842,84.2366,86.0349,87.4349,88.5558
