3.6127,3.6898,3.71624,3.7296,3.73767,3.74306,3.74692,3.74983,3.75209,3.7539
1.52057,2.16088,2.503,2.71581,2.86097,2.96631,3.04624,3.10895,3.15948,3.20106
1.06472,1.87984,2.28668,2.51587,2.66001,2.75818,2.82902,2.88243,2.92406,2.9574
1.04476,2.38932,3.11098,3.52434,3.78763,3.96914,4.10163,4.20252,4.28189,4.34596
1.13634,3.18123,4.23337,4.80087,5.14827,5.38138,5.54822,5.6734,5.77072,5.84854
0.966156,3.07964,4.05455,4.54847,4.84279,5.0377,5.17624,5.27975,5.36004,5.42413
1.05708,4.00492,5.40848,6.14719,6.60172,6.90992,7.13281,7.30157,7.43382,7.54026
1.00297,4.32898,5.84198,6.616,7.08317,7.39525,7.61831,7.78561,7.9157,8.01973
1.00526,4.76194,6.36362,7.16648,7.64764,7.96818,8.19705,8.36867,8.50214,8.60892
1.22369,6.29136,8.37603,9.42462,10.0567,10.4796,10.7827,11.0105,11.1881,11.3303
1.17401,6.61128,8.84755,9.98698,10.6785,11.1431,11.4767,11.7278,11.9238,12.0809
1.02336,5.91019,7.74811,8.65265,9.19056,9.54706,9.80062,9.99019,10.1373,10.2547
1.14575,7.69423,10.5426,12.0735,13.0332,13.6921,14.1727,14.539,14.8274,15.0603
0.946618,7.00066,9.56581,10.8814,11.6748,12.2035,12.5804,12.8623,13.0811,13.2556
0.909854,7.3841,10.095,11.4758,12.3097,12.8677,13.2674,13.5678,13.8019,13.9894
0.923067,7.68426,10.2605,11.5261,12.2776,12.7756,13.1299,13.3948,13.6005,13.7647
1.0189,8.985,12.0559,13.6132,14.5595,15.1965,15.6549,16.0008,16.2711,16.4881
0.917302,8.71793,11.8028,13.3877,14.3536,15.0037,15.4709,15.8229,16.0976,16.3179
1.02638,10.1638,13.6547,15.4129,16.4703,17.1757,17.6796,18.0576,18.3515,18.5865
1.00899,10.7592,14.6015,16.5759,17.7789,18.5891,19.172,19.6115,19.9548,20.2303
1.1199,12.2942,16.4845,18.5801,19.8353,20.6706,21.2664,21.7126,22.0594,22.3365
0.961592,11.2167,15.1632,17.1818,18.4102,19.2371,19.8319,20.2804,20.6308,20.912
1.00277,12.2527,16.5402,18.7159,20.0306,20.9105,21.5405,22.0138,22.3823,22.6774
1.02986,13.3826,18.1671,20.6139,22.0994,23.0971,23.8134,24.3526,24.7732,25.1105
0.996896,12.8012,16.9588,18.9958,20.2032,21.0017,21.5689,21.9925,22.3209,22.5829
0.914876,12.3474,16.592,18.771,20.1036,21.0044,21.6546,22.1462,22.5309,22.8404
0.974059,13.939,18.903,21.4635,23.0244,24.0745,24.829,25.397,25.84,26.1951
0.912725,13.5571,18.3019,20.7018,22.1464,23.1104,23.7992,24.3158,24.7175,25.0389
0.891754,13.8035,18.6499,21.1098,22.5977,23.5948,24.3099,24.8477,25.2671,25.6032
1.08138,17.2538,23.2456,26.2754,28.1046,29.3288,30.2056,30.8646,31.3779,31.789
0.926337,15.5276,21.0372,23.8514,25.5601,26.7079,27.5321,28.1527,28.6367,29.0249
1.00145,17.2381,23.2264,26.2458,28.0639,29.2782,30.1465,30.7982,31.3053,31.7111
1.00994,18.1592,24.5789,27.8523,29.8386,31.1727,32.1308,32.8522,33.415,33.8664
1.00886,18.4613,24.7965,27.9771,29.8883,31.1632,32.0741,32.7573,33.2888,33.7139
0.976785,18.34,24.6538,27.8524,29.7879,31.086,32.0172,32.7179,33.2644,33.7025
0.98076,18.9067,25.4342,28.7478,30.7532,32.0975,33.0613,33.786,34.3508,34.8034
0.896478,17.7991,23.9838,27.1296,29.0346,30.3117,31.2275,31.9163,32.4532,32.8833
0.96375,18.6676,24.7063,27.6924,29.473,30.6554,31.4976,32.128,32.6176,33.0088
0.89641,18.1514,24.4494,27.7064,29.7039,31.0559,32.0323,32.7707,33.3488,33.8137
0.954306,19.7601,26.5819,30.053,32.1505,33.5534,34.5571,35.3104,35.8964,36.3654
0.997763,21.6648,29.403,33.3835,35.8062,37.4357,38.6068,39.4891,40.1778,40.7302
0.935479,21,28.4395,32.2135,34.4897,36.0111,37.0994,37.9163,38.5521,39.0609
0.942482,20.6828,27.4546,30.789,32.7725,34.088,35.0244,35.7251,36.269,36.7037
0.926044,21.3827,28.9276,32.8333,35.2315,36.8563,38.0307,38.9195,39.6157,40.1758
0.967269,23.0768,31.2245,35.3776,37.8892,39.5695,40.7718,41.6742,42.3763,42.9381
0.995792,24.1408,32.489,36.6952,39.2262,40.9162,42.1245,43.0316,43.7375,44.3026
0.974876,21.586,27.9859,31.0502,32.849,34.0325,34.8706,35.4952,35.9788,36.3643
0.952102,22.9673,31.1914,35.5957,38.3626,40.2672,41.6598,42.7229,43.5614,44.2397
0.986101,25.1062,34.3011,39.073,41.9739,43.9169,45.3066,46.3487,47.1586,47.8059
0.946414,24.7386,33.5255,37.953,40.6063,42.3718,43.6308,44.574,45.3069,45.8928
0.937187,25.4416,34.5586,39.1933,41.9994,43.8821,45.2335,46.2509,47.0447,47.6813
0.980954,27.1413,36.6488,41.4328,44.3123,46.2357,47.6114,48.6441,49.4479,50.0912
0.93114,26.497,35.8502,40.6041,43.4859,45.4206,46.8095,47.8551,48.6708,49.3249
0.966695,28.1227,37.9701,42.9512,45.9583,47.9704,49.411,50.4933,51.3361,52.011
0.92225,26.1467,34.7007,38.9262,41.4463,43.1203,44.3132,45.2063,45.9001,46.4545
0.979915,28.4946,38.2902,43.321,46.3964,48.4738,49.9721,51.1041,51.9896,52.7014
1.01261,30.1182,40.5886,45.938,49.1813,51.3558,52.9141,54.0854,54.9977,55.7283
0.957859,29.0778,39.2391,44.421,47.5601,49.6648,51.1739,52.3089,53.1935,53.9024
0.96414,29.9576,40.435,45.7549,48.9692,51.121,52.6621,53.8202,54.7223,55.4448
0.955987,30.0279,40.3828,45.6097,48.7607,50.8678,52.3761,53.5091,54.3914,55.0979
1.02154,33.2732,45.1,51.1624,54.8515,57.3336,59.118,60.4627,61.5124,62.3547
1.08806,33.4325,44.0265,49.1984,52.2594,54.282,55.7176,56.7893,57.6197,58.2822
1.1,35.4019,47.7819,54.2298,58.2066,60.9095,62.8678,64.3526,65.5174,66.4557
1.0685,35.4028,47.9305,54.3588,58.2581,60.871,62.7422,64.1474,65.2412,66.1165
0.954975,32.4054,43.8413,49.6546,53.1652,55.5138,57.195,58.458,59.4416,60.2292
0.924636,15.0614,17.0801,17.8741,18.2983,18.5622,18.7423,18.873,18.9722,19.0501
0.916625,20.1273,27.8126,32.9027,36.611,39.4509,41.7008,43.5294,45.0458,46.3239
0.974002,27.0542,40.1886,48.2228,53.4454,57.0393,59.6337,61.581,63.0895,64.289
0.924662,29.5191,43.1886,50.3688,54.605,57.3617,59.2897,60.7115,61.8027,62.6666
0.962873,33.9337,48.5319,55.7695,60.0235,62.8252,64.8135,66.2997,67.4536,68.3761
0.898726,33.2271,46.2199,52.5173,56.2387,58.705,60.4624,61.7792,62.803,63.6219
0.917061,34.5633,47.1398,53.2718,56.9329,59.3739,61.1194,62.4302,63.4508,64.2682
0.932159,36.19,49.2132,55.727,59.6683,62.3145,64.2149,65.6461,66.7627,67.6584
0.921855,35.8173,48.1688,54.312,58.0026,60.4656,62.226,63.5468,64.5743,65.3965
0.940729,37.6926,51.0337,57.834,61.9726,64.7583,66.7618,68.2721,69.4516,70.3981
0.928202,38.3248,52.0113,58.988,63.2178,66.0546,68.0886,69.6181,70.8099,71.7647
0.972899,39.7625,53.2633,59.9933,64.0224,66.704,68.6171,70.0505,71.1647,72.0554
0.945703,39.4179,53.1094,60.084,64.322,67.1725,69.222,70.7668,71.9731,72.9413
0.955899,38.5718,51.1952,57.4733,61.2302,63.7302,65.5133,66.8491,67.887,68.7167
1.01038,42.0736,56.7425,64.3237,68.9685,72.109,74.3752,76.0879,77.428,78.5053
0.90586,38.5667,52.1576,59.1192,63.3416,66.1725,68.2012,69.7259,70.9135,71.8645
0.944348,41.1855,55.7863,63.2335,67.7415,70.7622,72.9271,74.5548,75.8231,76.8393
0.93537,39.6348,52.7011,59.1546,62.9964,65.5447,67.3585,68.7153,69.7686,70.6099
0.981035,43.2031,58.4562,66.3425,71.1791,74.4532,76.8182,78.6072,80.008,81.1348
0.932101,42.5054,57.7883,65.6336,70.397,73.5924,75.883,77.6048,78.9459,80.0199
0.927345,43.3976,58.9172,66.7983,71.5551,74.7362,77.0128,78.7225,80.0537,81.1195
0.999291,47.098,63.5111,71.7617,76.7238,80.0373,82.407,84.1861,85.571,86.6796
0.92393,42.8051,57.1153,64.2481,68.5271,71.3812,73.4212,74.952,76.1432,77.0967
0.905155,41.3051,54.9237,61.7599,65.882,68.6409,70.6175,72.1034,73.2612,74.1889
0.934445,43.539,58.5563,66.28,70.9949,74.1736,76.462,78.1881,79.5366,80.6191
0.950004,45.8213,62.1871,70.6318,75.7763,79.2358,81.7204,83.5909,85.0498,86.2193
0.923815,45.8101,62.208,70.5701,75.625,79.0075,81.4291,83.2479,84.664,85.7979
1.05438,51.867,69.5946,78.4465,83.747,87.2761,89.7947,91.6827,93.1505,94.3245
0.972298,49.2612,66.6854,75.6048,81.0364,84.695,87.328,89.3141,90.8659,92.1117
0.950142,45.6198,60.2025,67.3406,71.5715,74.3693,76.3561,77.8394,78.9891,79.9062
0.920258,45.7047,61.6292,69.9003,74.9931,78.4506,80.9536,82.8501,84.3372,85.5347
0.926564,46.9694,63.5118,71.9935,77.1386,80.5872,83.0574,84.9131,86.3576,87.5139
0.924186,43.1988,56.5017,62.943,66.7351,69.2321,71.0006,72.3187,73.3391,74.1524
0.993202,46.4689,61.698,69.4962,74.2654,77.4908,79.82,81.582,82.9618,84.0719
0.983804,49.7123,68.1611,77.9905,84.0931,88.2468,91.2549,93.533,95.3177,96.7533
