1.61243,1.67958,1.70322,1.71529,1.72262,1.72754,1.73107,1.73372,1.7358,1.73746
1.55613,2.17677,2.49215,2.68282,2.8105,2.90198,2.97074,3.0243,3.06721,3.10235
1.12187,2.03442,2.51546,2.79708,2.979,3.10534,3.19789,3.26846,3.324,3.36881
1.04894,2.35352,3.02323,3.3948,3.62616,3.78301,3.89603,3.98123,4.04771,4.10102
1.04542,2.84206,3.74529,4.23285,4.53306,4.73574,4.88163,4.99161,5.07748,5.14637
1.01911,3.25955,4.3421,4.91068,5.25694,5.48944,5.65623,5.7817,5.8795,5.95787
1.00173,3.69692,4.95436,5.60584,6.00153,6.26715,6.45775,6.60118,6.71302,6.80268
0.941065,3.92062,5.26,5.9473,6.36392,6.6434,6.84388,6.99471,7.1123,7.20655
0.9628,4.48767,6.03963,6.83709,7.32197,7.64797,7.8822,8.05864,8.19634,8.30679
0.94823,4.87508,6.55849,7.41853,7.93987,8.28959,8.54044,8.72914,8.87624,8.99412
0.979743,5.58682,7.55957,8.57443,9.19237,9.60815,9.90703,10.1322,10.308,10.4491
0.900375,5.5771,7.52465,8.51587,9.11541,9.51696,9.80465,10.0209,10.1893,10.3242
1.06867,7.12026,9.58512,10.8372,11.5949,12.1028,12.467,12.741,12.9546,13.1257
0.96074,6.93111,9.37379,10.6278,11.3916,11.9057,12.2755,12.5542,12.7719,12.9465
0.883066,6.95053,9.45951,10.7532,11.5417,12.0723,12.4537,12.7411,12.9654,13.1452
0.878075,7.2743,9.80445,11.0808,11.8489,12.3617,12.7282,13.0032,13.2172,13.3884
0.920877,8.18915,11.1064,12.6058,13.5203,14.1368,14.5808,14.9158,15.1776,15.3878
0.915295,8.54893,11.5327,13.0463,13.9608,14.5729,15.0112,15.3405,15.5969,15.8022
0.922882,9.22004,12.5197,14.2179,15.2538,15.9518,16.4542,16.8331,17.1291,17.3667
0.910209,9.56919,12.9592,14.6875,15.7343,16.436,16.939,17.3172,17.6119,17.848
0.883106,9.76718,13.2225,14.9847,16.0533,16.7706,17.2854,17.6728,17.975,18.2173
0.870949,10.101,13.6688,15.4886,16.5924,17.3333,17.8651,18.2654,18.5775,18.8277
0.890248,10.8301,14.6661,16.6259,17.8157,18.6147,19.1884,19.6203,19.9572,20.2273
0.921437,11.7073,15.8466,17.9592,19.2408,20.1011,20.7185,21.1831,21.5454,21.8359
0.92637,12.0407,16.1777,18.2662,19.5258,20.3683,20.9715,21.4246,21.7775,22.06
0.897968,12.2732,16.6185,18.8541,20.2183,21.138,21.8002,22.2997,22.6901,23.0035
0.932806,13.1182,17.6844,20.0046,21.4076,22.3471,23.0199,23.5255,23.9193,24.2346
0.892732,13.1166,17.7545,20.1312,21.5768,22.5489,23.2475,23.7739,24.1847,24.5143
0.903919,13.6324,18.3797,20.7919,22.2511,23.2286,23.9292,24.4559,24.8662,25.195
0.888902,13.9593,18.8891,21.4137,22.9487,23.9809,24.7226,25.2813,25.7174,26.0671
0.913137,14.8726,20.1439,22.8416,24.4801,25.5806,26.3707,26.9654,27.4292,27.8011
0.858677,14.5201,19.6802,22.3178,23.9184,24.9929,25.764,26.3443,26.7968,27.1596
0.905491,15.7653,21.3274,24.1613,25.8786,27.0306,27.8571,28.4788,28.9636,29.3522
0.886858,15.7036,21.1334,23.8818,25.5422,26.654,27.4506,28.0494,28.516,28.8898
0.906558,16.6197,22.4844,25.4956,27.331,28.5673,29.4568,30.1276,30.6515,31.0721
0.874483,16.3345,22.0056,24.8852,26.626,27.7915,28.6263,29.2536,29.7422,30.1334
0.869678,16.8752,22.8729,25.9575,27.8378,29.1042,30.0154,30.7024,31.2389,31.6696
0.917866,18.2561,24.671,27.9345,29.9084,31.2304,32.1774,32.8891,33.4434,33.8873
0.888755,18.2,24.6323,27.9208,29.9183,31.2606,32.2248,32.9509,33.5176,33.9721
0.862533,17.9585,24.1994,27.3632,29.2751,30.5551,31.4721,32.1612,32.6981,33.128
0.873353,18.6019,25.0852,28.3886,30.3923,31.7377,32.7036,33.4307,33.9979,34.4528
0.880307,19.4389,26.3592,29.9162,32.083,33.5413,34.5899,35.38,35.9968,36.4916
0.898898,20.3796,27.602,31.2877,33.5211,35.0186,36.0923,36.8997,37.529,38.0331
0.904317,20.6476,27.7585,31.3455,33.5072,34.9524,35.9867,36.7636,37.3685,37.8528
0.901302,21.1384,28.5734,32.389,34.7149,36.2822,37.4102,38.2611,38.9259,39.4597
0.848101,15.7635,19.681,21.4602,22.4759,23.1325,23.5916,23.9308,24.1915,24.3981
0.867102,18.6984,25.6399,29.6061,32.2108,34.061,35.4456,36.5218,37.3828,38.0874
0.860451,20.2838,28.2261,32.4933,35.117,36.8796,38.14,39.0838,39.8158,40.3996
0.861687,21.3774,29.4778,33.6117,36.0899,37.7364,38.9089,39.7862,40.4675,41.0118
0.873618,22.4115,30.6325,34.7757,37.2665,38.9306,40.1217,41.0169,41.7143,42.2732
0.857895,22.829,31.1621,35.3954,37.9615,39.6853,40.9235,41.8563,42.5842,43.1682
0.853625,23.3466,31.7466,36.0045,38.5811,40.3084,41.547,42.4786,43.2047,43.7866
0.881274,24.2962,32.7646,37.0246,39.5923,41.3094,42.5387,43.4622,44.1814,44.7573
0.878958,24.6583,33.2837,37.6747,40.3414,42.1341,43.4222,44.3927,45.1501,45.7578
0.858154,24.8826,33.7939,38.3802,41.1777,43.062,44.4175,45.4392,46.237,46.8772
0.858176,25.5161,34.6218,39.2704,42.0874,43.976,45.3298,46.3477,47.1409,47.7763
0.87181,26.0404,35.0737,39.633,42.3815,44.2193,45.5348,46.523,47.2925,47.9087
0.848537,26.0421,35.2719,40.0055,42.8891,44.8313,46.2286,47.2823,48.1053,48.766
0.864461,27.0477,36.6265,41.5224,44.4939,46.4887,47.9201,48.9971,49.8368,50.5098
0.86609,27.5803,37.3242,42.2964,45.312,47.3359,48.7882,49.881,50.7332,51.4164
0.892051,28.4607,38.2837,43.2512,46.2498,48.2564,49.6936,50.7735,51.6146,52.2884
0.84452,27.5152,37.197,42.1634,45.1889,47.2262,48.6919,49.7971,50.6602,51.353
0.877179,29.3204,39.7694,45.1348,48.3988,50.593,52.1689,53.3555,54.2811,55.0233
0.844483,28.6494,38.7648,43.9184,47.0388,49.1303,50.6296,51.757,52.6356,53.3395
0.881235,30.4653,41.2322,46.7241,50.0546,52.2902,53.8946,55.1022,56.044,56.7991
0.841914,29.4944,39.8603,45.1391,48.3382,50.4844,52.0241,53.1826,54.0858,54.8098
0.891232,31.7037,42.855,48.544,51.9958,54.3135,55.9771,57.2294,58.2061,58.9892
0.890036,32.0818,43.3477,49.0942,52.5799,54.9197,56.5989,57.8626,58.8481,59.6381
0.858045,31.2703,42.2022,47.7692,51.1425,53.4054,55.0287,56.2499,57.202,57.9651
0.875882,32.4195,43.8276,49.6631,53.2092,55.5924,57.3044,58.5937,59.5997,60.4066
0.871003,32.8049,44.3798,50.2927,53.8802,56.2882,58.0161,59.3162,60.33,61.1426
0.890968,33.9667,45.8964,51.9753,55.6591,58.1302,59.9029,61.2365,62.2762,63.1096
0.848951,32.911,44.5334,50.4761,54.0857,56.5111,58.2529,59.5645,60.5878,61.4084
0.852266,33.5995,45.4694,51.5274,55.2011,57.6663,59.4349,60.7657,61.8031,62.6347
0.892072,35.584,48.1099,54.4979,58.3719,60.9722,62.8383,64.2428,65.338,66.2161
0.880443,35.5825,48.1027,54.4908,58.3663,60.968,62.8354,64.2408,65.3369,66.2157
0.85015,34.7769,46.9847,53.2064,56.9779,59.5084,61.3239,62.6899,63.7549,64.6086
0.871306,36.0084,48.6366,55.0803,58.9903,61.6158,63.5005,64.9192,66.0258,66.9131
0.845523,35.4783,47.99,54.389,58.2759,60.8873,62.7624,64.1742,65.2755,66.1586
0.84641,35.621,48.0031,54.2917,58.0957,60.6444,62.4711,63.8444,64.9146,65.7719
0.8636,37.1128,50.2459,56.9812,61.0802,63.838,65.8205,67.3145,68.4807,69.4163
0.852561,36.3222,48.7618,55.0386,58.8207,61.3482,63.1562,64.5135,65.57,66.4157
0.862622,37.7154,51.08,57.9627,62.1645,64.998,67.0384,68.5781,69.7814,70.7476
0.852308,37.839,51.2245,58.0637,62.2101,64.9907,66.9844,68.4835,69.6517,70.5875
0.88835,39.4377,53.1017,60.0194,64.1959,66.9909,68.9927,70.497,71.6689,72.6075
0.861306,38.3267,51.5407,58.2514,62.3156,65.042,66.9982,68.4703,69.6183,70.5386
0.857463,38.3626,51.6413,58.4165,62.5298,65.2928,67.2768,68.7705,69.9358,70.8702
0.847402,38.2805,51.623,58.4462,62.5903,65.3741,67.3728,68.8774,70.051,70.9919
0.856511,39.1417,52.8424,59.8436,64.0918,66.9435,68.9898,70.5297,71.7305,72.693
0.863194,39.9556,53.9875,61.1545,65.5023,68.4205,70.5146,72.0905,73.3194,74.3045
0.852654,40.4462,54.914,62.3504,66.8777,69.9237,72.1131,73.7627,75.0502,76.0831
0.877557,42.5616,57.8237,65.6306,70.3665,73.5443,75.8238,77.5387,78.8755,79.9468
0.854007,41.7452,56.4534,63.9123,68.4189,71.4363,73.598,75.2229,76.4887,77.5028
0.861735,42.2318,56.901,64.3285,68.8184,71.8268,73.9834,75.6053,76.8695,77.8826
0.883059,43.3531,58.3445,65.964,70.5822,73.6818,75.9064,77.5808,78.8867,79.9337
0.876802,43.3562,58.423,66.1123,70.7804,73.9158,76.1669,77.8616,79.1834,80.2433
0.879262,44.4821,60.3023,68.4425,73.4027,76.7414,79.1417,80.9506,82.3626,83.4953
0.839792,43.1398,58.4763,66.3204,71.0786,74.2711,76.5612,78.2838,79.6267,80.7028
0.885864,46.0559,62.3609,70.6762,75.7161,79.0973,81.523,83.3482,84.7713,85.912
0.876978,45.7621,61.7526,69.8715,74.7833,78.0752,80.4352,82.2101,83.5934,84.702
