1.65761,1.68859,1.69917,1.70451,1.70774,1.70989,1.71143,1.71259,1.71349,1.71422
1.57247,2.19508,2.51986,2.71922,2.85405,2.95131,3.02478,3.08224,3.12841,3.16631
1.13842,1.9623,2.36498,2.5903,2.73167,2.82786,2.89728,2.94961,2.99042,3.02311
1.12317,2.46789,3.16348,3.55604,3.80416,3.97438,4.09822,4.19229,4.26616,4.32569
1.16284,3.12976,4.12288,4.65856,4.98722,5.20822,5.36668,5.48573,5.57841,5.65257
1.06667,3.0558,3.87944,4.2796,4.51287,4.66525,4.77253,4.85213,4.91354,4.96235
1.36335,4.49263,5.85064,6.55502,6.98727,7.28031,7.49234,7.65299,7.77897,7.88044
0.936098,3.75657,5.11067,5.8443,6.30255,6.61551,6.84264,7.01489,7.14997,7.25872
0.95958,4.5865,6.3414,7.26597,7.82967,8.20771,8.47836,8.68151,8.83954,8.96593
0.801607,2.58411,2.98987,3.14991,3.23474,3.28719,3.32282,3.34859,3.3681,3.38338
0.805449,3.57307,4.88653,5.71035,6.28989,6.72298,7.05988,7.32979,7.55104,7.73577
0.811258,4.57384,6.56978,7.72186,8.45039,8.94475,9.29898,9.56382,9.76858,9.93124
0.919469,6.44345,9.41467,11.0149,11.9845,12.6289,13.0869,13.4288,13.6938,13.9051
0.814943,6.41241,9.14539,10.5391,11.3747,11.9318,12.3302,12.6296,12.8629,13.0498
0.920354,8.15054,11.4233,13.0383,13.9965,14.6314,15.0832,15.4213,15.6837,15.8933
1.03809,10.0864,13.9313,15.8186,16.9434,17.6916,18.2256,18.626,18.9374,19.1866
0.819304,8.56446,11.6996,13.2449,14.17,14.7868,15.2277,15.5586,15.8162,16.0223
0.832113,9.16111,12.3877,13.9832,14.9399,15.578,16.0342,16.3766,16.643,16.8563
0.893067,9.69479,12.7611,14.2398,15.1142,15.6922,16.1028,16.4096,16.6475,16.8374
0.875585,10.3507,13.9966,15.8899,17.0583,17.8528,18.4285,18.8651,19.2075,19.4834
1.11473,13.5267,18.0868,20.3666,21.7304,22.636,23.2803,23.7619,24.1354,24.4333
1.01165,12.725,17.0151,19.1737,20.4743,21.344,21.9668,22.4347,22.7993,23.0914
0.87783,11.4258,15.2789,17.2216,18.3931,19.1766,19.7375,20.159,20.4871,20.75
0.940557,12.6537,16.9274,19.0854,20.3874,21.2585,21.8822,22.3508,22.7157,23.008
0.967251,13.8828,18.7977,21.3235,22.8614,23.8961,24.6399,25.2002,25.6376,25.9884
0.951355,14.4502,19.5964,22.2102,23.7868,24.8403,25.5936,26.1588,26.5986,26.9504
0.994726,15.4101,20.645,23.2434,24.7938,25.8236,26.5573,27.1066,27.5333,27.8742
0.877186,14.2752,19.2538,21.7796,23.3103,24.3382,25.0764,25.6324,26.0663,26.4143
0.880504,14.7122,19.7486,22.2776,23.7981,24.8128,25.5379,26.0818,26.5049,26.8434
0.982774,16.6057,22.1327,24.889,26.5418,27.6435,28.4305,29.0208,29.4799,29.8473
0.946567,16.294,21.7213,24.4516,26.0982,27.2002,27.9895,28.5828,29.0451,29.4154
0.952162,17.1532,23.0926,26.1301,27.9762,29.217,30.1082,30.7793,31.3028,31.7227
0.936605,16.3441,21.4956,24.0136,25.5035,26.4873,27.1851,27.7058,28.1091,28.4307
0.878783,16.2873,21.9414,24.8736,26.6759,27.8978,28.7815,29.4506,29.975,30.3971
0.916353,17.8508,24.1832,27.4289,29.3958,30.713,31.656,32.3639,32.9149,33.3557
0.92309,18.2929,24.5436,27.6657,29.5319,30.7722,31.656,32.3177,32.8317,33.2424
0.941691,19.4566,26.2552,29.7063,31.7958,33.1978,34.2041,34.9617,35.5527,36.0267
0.918081,19.6673,26.5462,30.0237,32.1209,33.5231,34.5264,35.2799,35.8663,36.3358
0.953348,20.7819,27.8748,31.4225,33.5506,34.969,35.982,36.7416,37.3324,37.8051
0.972265,18.9951,24.4001,26.9525,28.4412,29.4169,30.106,30.6186,31.015,31.3305
0.943701,19.7513,26.4901,30.0591,32.2906,33.8224,34.9403,35.7927,36.4644,37.0074
0.903233,19.9461,27.035,30.712,32.9495,34.4495,35.523,36.3285,36.9549,37.4556
0.992967,22.9186,31.0878,35.2438,37.7464,39.4159,40.6085,41.5028,42.1983,42.7547
0.976527,23.5636,31.9893,36.2558,38.8269,40.5453,41.7752,42.6989,43.4183,43.9943
0.989041,24.8001,33.6097,38.0474,40.7179,42.5015,43.7772,44.7349,45.4804,46.0771
0.950676,24.5029,33.0692,37.3638,39.9446,41.6671,42.8987,43.823,44.5423,45.1181
0.949343,24.8284,33.3112,37.5469,40.0892,41.7851,42.9971,43.9066,44.6142,45.1805
0.969457,25.5398,34.1343,38.4382,41.0281,42.7588,43.9974,44.9277,45.6521,46.2322
0.963624,26.1666,35.1923,39.7796,42.5606,44.4272,45.7667,46.7749,47.5611,48.1914
0.929146,25.5787,34.2781,38.6512,41.2802,43.0342,44.2872,45.227,45.9579,46.5426
0.925603,25.9072,34.7194,39.1616,41.8397,43.6308,44.9131,45.8766,46.627,47.228
0.964005,27.6633,37.1925,42.0237,44.945,46.9021,48.3048,49.3594,50.1812,50.8396
0.962481,28.1174,37.7504,42.607,45.5319,47.4859,48.8834,49.9324,50.7488,51.4023
0.950647,26.7267,35.1917,39.3401,41.8029,43.4342,44.5943,45.4616,46.1346,46.6719
0.971793,28.7031,38.6815,43.8554,47.0353,49.1909,50.7495,51.9293,52.8535,53.5973
0.951216,29.2036,39.5361,44.8215,48.0207,50.1615,51.6932,52.8427,53.7369,54.4523
0.915823,14.0577,16.0108,16.7811,17.1922,17.4477,17.6218,17.7481,17.8439,17.919
0.932942,19.8277,27.7166,32.9965,36.8717,39.8565,42.2321,44.1701,45.782,47.1444
0.926789,24.4782,36.1309,43.0725,47.4976,50.4988,52.6414,54.2354,55.4614,56.4305
0.905951,27.0779,39.1509,45.3652,49.0028,51.3632,53.0127,54.2291,55.1631,55.903
0.922701,29.5839,41.5266,47.3307,50.7193,52.9439,54.5196,55.6957,56.6079,57.3365
0.932952,30.6012,41.7605,47.1086,50.2597,52.345,53.8295,54.941,55.8047,56.4954
0.909972,31.5735,43.2292,49.0617,52.5956,54.9731,56.6837,57.9741,58.9822,59.7916
0.9158,32.1556,43.3805,48.9102,52.2131,54.4089,55.9738,57.1454,58.0552,58.782
0.940978,34.3393,46.5484,52.7155,56.4529,58.9627,60.765,62.1223,63.1814,64.031
0.925539,33.8859,45.4503,51.1981,54.639,56.9288,58.562,59.7854,60.736,61.4958
0.928341,33.6503,44.7726,50.2975,53.6095,55.8178,57.3958,58.5799,59.5012,60.2387
0.906735,34.2112,46.1882,52.3402,56.0964,58.6298,60.4545,61.8314,62.9075,63.7716
0.932444,35.7928,48.1965,54.463,58.2358,60.7535,62.552,63.9006,64.9491,65.7876
0.909902,34.4817,45.9021,51.5696,54.9545,57.2047,58.8089,60.0105,60.9442,61.6906
0.921935,36.0322,48.501,54.8694,58.7439,61.3518,63.2279,64.6425,65.7474,66.6343
0.919415,36.6537,49.337,55.7551,59.625,62.2109,64.06,65.4477,66.5273,67.3911
0.934636,37.0657,49.4637,55.643,59.3414,61.8028,63.5589,64.8749,65.8978,66.7158
0.949973,38.8533,52.3554,59.2455,63.4325,66.2481,68.272,69.7973,70.988,71.9435
0.943447,38.9485,52.267,58.9647,62.9898,65.6741,67.5912,69.0285,70.146,71.0397
0.944797,39.2692,52.5854,59.278,63.3056,65.9964,67.9215,69.3672,70.4927,71.3939
0.917378,38.9604,52.4051,59.2276,63.3566,66.1247,68.1098,69.603,70.7669,71.6998
0.936061,37.6647,49.4599,55.2091,58.6099,60.8563,62.4506,63.6406,64.5627,65.2982
0.936967,39.1922,52.6645,59.639,63.9247,66.8303,68.9316,70.5227,71.7694,72.7729
0.925641,40.1456,54.3402,61.6273,66.0485,69.0116,71.1339,72.7279,73.9687,74.9618
0.927569,40.0604,53.6001,60.3449,64.3702,67.0423,68.9448,70.3682,71.4732,72.3559
0.899929,40.1775,54.2508,61.4252,65.7807,68.7084,70.8125,72.3982,73.6362,74.6296
0.918191,41.6337,56.0588,63.3278,67.7017,70.6212,72.7077,74.2729,75.4904,76.4643
0.952796,43.617,58.5519,66.0523,70.5632,73.5752,75.7292,77.3462,78.6048,79.6123
0.945878,44.0537,59.2561,66.945,71.5907,74.7025,76.9328,78.6097,79.9165,80.9636
0.944472,44.8471,60.4033,68.2755,73.0287,76.2096,78.4874,80.1988,81.5317,82.5991
0.910825,39.3353,51.0427,56.635,59.9096,62.0597,63.5795,64.7107,65.5854,66.282
0.910877,41.9879,56.7208,64.5119,69.3705,72.6989,75.1244,76.9717,78.4258,79.6006
0.910843,43.6563,59.2791,67.3185,72.1888,75.4451,77.772,79.5158,80.8707,81.9532
0.940124,45.4087,61.1033,68.9587,73.6543,76.7742,78.9972,80.6613,81.9539,82.9869
0.946149,46.6026,62.7965,70.9723,75.906,79.2095,81.5774,83.3582,84.7464,85.8591
0.942491,47.6074,64.2906,72.737,77.839,81.2547,83.7016,85.5405,86.973,88.1203
0.955704,49.1867,66.3443,74.9979,80.212,83.6968,86.19,88.0621,89.5194,90.686
0.937463,41.1608,52.4848,57.7468,60.7874,62.7684,64.1615,65.1947,65.9915,66.6247
0.912467,44.0249,59.685,68.1826,73.58,77.3259,80.0821,82.1965,83.8708,85.2297
0.943523,45.9993,61.9034,69.9894,74.84,78.0576,80.3419,82.045,83.3625,84.4113
0.939686,48.1064,65.4759,74.4038,79.8235,83.4622,86.0745,88.0414,89.5761,90.8072
0.920726,47.0607,63.1689,71.1681,75.9327,79.0923,81.3404,83.0215,84.3259,85.3675
0.951073,50.4307,68.3001,77.4002,82.9242,86.6381,89.3078,91.3201,92.8913,94.1524
0.94117,48.0597,63.6278,71.2376,75.7441,78.7225,80.8367,82.4148,83.6377,84.613
