1.68844,1.71503,1.72408,1.72864,1.73139,1.73323,1.73455,1.73553,1.7363,1.73692
0.61602,0.707532,0.743627,0.762941,0.774969,0.783179,0.78914,0.793665,0.797217,0.80008
0.677288,1.25532,1.6538,1.94152,2.15838,2.32749,2.46299,2.57397,2.66651,2.74485
0.931261,2.48484,3.57794,4.27576,4.73478,5.05162,5.28032,5.45175,5.58433,5.68954
0.736542,2.5334,3.63878,4.23495,4.5879,4.81737,4.97758,5.09555,5.18598,5.25749
0.789632,3.13824,4.31757,4.88685,5.21417,5.4266,5.57582,5.68655,5.77204,5.8401
0.963138,4.5242,6.25262,7.12043,7.64364,7.99524,8.24839,8.43958,8.58915,8.70942
0.818945,4.39703,6.03797,6.85712,7.3489,7.67717,7.91184,8.08793,8.22491,8.33449
0.811652,4.82416,6.55391,7.41131,7.92458,8.2665,8.51065,8.69373,8.83611,8.95
0.86299,5.58936,7.54248,8.51437,9.09808,9.48781,9.76658,9.9759,10.1389,10.2693
0.87907,6.11236,8.20083,9.24221,9.86801,10.2859,10.5847,10.809,10.9836,11.1234
0.847812,6.27076,8.38405,9.44188,10.0786,10.504,10.8085,11.0372,11.2152,11.3577
1.02027,7.24364,9.33597,10.3335,10.9184,11.3028,11.5748,11.7774,11.9342,12.0591
0.842445,6.76171,9.13123,10.3959,11.189,11.7343,12.1326,12.4365,12.676,12.8697
0.920582,8.16275,11.1431,12.6944,13.6388,14.2719,14.7249,15.0648,15.329,15.5402
0.9505,9.13936,12.4528,14.1336,15.1432,15.8156,16.2954,16.6548,16.9342,17.1576
0.841356,8.03187,10.5995,11.8376,12.565,13.0437,13.3828,13.6356,13.8314,13.9874
0.88456,8.49247,11.142,12.4522,13.2388,13.7648,14.1417,14.4251,14.6462,14.8233
0.864538,8.89707,11.9213,13.4872,14.4488,15.0997,15.5696,15.9248,16.2027,16.4261
0.960842,10.7231,14.562,16.5518,17.7651,18.5809,19.1665,19.607,19.9504,20.2255
0.856322,10.3385,14.1087,16.0387,17.2056,17.9861,18.5446,18.9638,19.2901,19.5513
0.858342,10.8981,14.7558,16.6881,17.8448,18.6145,19.1635,19.5748,19.8945,20.1501
0.964991,12.697,17.0655,19.2428,20.5479,21.4181,22.0399,22.5065,22.8696,23.1602
0.863396,12.0489,16.2988,18.4572,19.7659,20.6447,21.2758,21.7509,22.1216,22.4189
0.881581,12.8124,17.2721,19.5163,20.8669,21.7687,22.4133,22.897,23.2732,23.5743
0.926926,13.8304,18.5319,20.8824,22.2932,23.2342,23.9065,24.411,24.8034,25.1175
0.942796,14.5222,19.4675,21.96,23.4644,24.4716,25.1934,25.736,26.1588,26.4975
0.940062,14.2848,18.8526,21.1043,22.4459,23.3365,23.9707,24.4453,24.8138,25.1082
0.941566,15.0073,20.1231,22.7499,24.3543,25.4373,26.2178,26.8072,27.2681,27.6385
0.968493,16.2178,21.8945,24.8006,26.563,27.7443,28.5908,29.2269,29.7223,30.119
0.937324,15.5648,20.6353,23.1336,24.6168,25.5983,26.2957,26.8166,27.2205,27.5428
0.955274,16.9648,22.9751,26.0875,27.9967,29.2891,30.2228,30.9291,31.4822,31.9271
0.903577,16.4544,22.1244,24.976,26.6865,27.8249,28.6365,29.244,29.7158,30.0926
0.882719,16.9207,22.9096,25.9596,27.8074,29.0471,29.9366,30.6061,31.1283,31.547
0.961928,18.9747,25.5734,28.8931,30.8891,32.221,33.1728,33.8869,34.4424,34.8868
0.93383,18.6226,24.8882,28.0075,29.8753,31.1191,32.007,32.6727,33.1904,33.6045
0.946165,19.6823,26.532,30.0213,32.1406,33.5653,34.5891,35.3606,35.9627,36.4458
0.954612,20.3275,27.3022,30.8105,32.92,34.3273,35.3326,36.0865,36.6728,37.1417
0.908651,18.701,24.6067,27.4951,29.2086,30.3432,31.15,31.7531,32.221,32.5947
0.899504,15.7113,19.7547,21.647,22.7493,23.472,23.9827,24.363,24.6571,24.8914
0.954976,19.269,26.3238,30.2888,32.8572,34.662,36.0013,37.035,37.8574,38.5274
0.955989,20.6886,28.3887,32.4132,34.8498,36.4715,37.6241,38.4836,39.1483,39.6773
0.919766,21.4563,29.569,33.7279,36.2342,37.9067,39.102,39.9989,40.6969,41.2556
0.95035,23.2219,31.7202,35.9716,38.5119,40.2007,41.4048,42.3069,43.0079,43.5684
0.923716,23.2435,31.4655,35.5509,37.9955,39.6239,40.7871,41.6596,42.3384,42.8816
0.919976,23.6961,31.931,36.0447,38.5185,40.1718,41.3551,42.2441,42.9364,43.4909
0.931647,24.0946,32.2088,36.2479,38.6712,40.2876,41.4427,42.3094,42.9837,43.5232
0.97185,25.7993,34.6568,39.1452,41.865,43.6906,45.0009,45.9873,46.7566,47.3735
0.93242,25.3285,34.038,38.4395,41.0951,42.8709,44.1417,45.0959,45.8387,46.4333
0.920133,25.2552,33.8069,38.0998,40.6805,42.4029,43.634,44.5578,45.2767,45.8519
0.963483,27.1538,36.5058,41.2494,44.1199,46.0443,47.4243,48.4625,49.2718,49.9205
0.926001,25.3448,33.4901,37.5034,39.8915,41.475,42.6017,43.4443,44.0982,44.6204
0.919728,25.6265,34.2013,38.5675,41.2224,43.0095,44.2952,45.2649,46.0225,46.6307
0.926356,27.1503,36.7788,41.7568,44.7957,46.8423,48.314,49.4227,50.288,50.982
0.973228,29.388,39.728,44.9623,48.1109,50.2104,51.7092,52.8327,53.7059,54.4041
0.936036,28.0661,37.4338,42.0712,44.8354,46.6707,47.9781,48.9569,49.7172,50.3248
0.944741,27.7198,36.6248,41.0328,43.6705,45.4282,46.6838,47.6259,48.3589,48.9456
0.920425,28.2152,38.0042,43.062,46.1615,48.2574,49.7696,50.9123,51.8063,52.5248
0.934675,29.8021,40.3611,45.7654,49.0389,51.2308,52.8,53.9782,54.8953,55.6292
0.930466,30.5576,41.3173,46.7525,50.0219,52.2033,53.762,54.9312,55.8407,56.5684
0.916544,30.6831,41.3218,46.66,49.8665,52.0059,53.5352,54.6829,55.5759,56.2907
0.940983,32.0816,43.1528,48.7244,52.0819,54.3273,55.935,57.143,58.084,58.8376
0.935684,32.6654,43.9925,49.7143,53.1682,55.4799,57.1355,58.3798,59.3489,60.1252
0.991917,34.6229,46.2727,52.0868,55.5718,57.8935,59.551,60.7936,61.7597,62.5324
0.97001,34.5094,46.3135,52.2911,55.9085,58.3345,60.075,61.3847,62.406,63.2248
0.959727,32.2624,42.2704,47.1469,50.0326,51.9395,53.2931,54.3036,55.0867,55.7114
0.950922,33.3951,44.8814,50.849,54.5237,57.0184,58.8241,60.1921,61.2647,62.1283
0.929799,33.9573,45.9834,52.1664,55.9189,58.4338,60.2348,61.5874,62.6401,63.4825
0.91194,34.2478,46.3101,52.4122,56.0824,58.5304,60.2791,61.5905,62.6103,63.4262
0.938761,35.7946,48.1877,54.4079,58.1438,60.6362,62.4178,63.7549,64.7953,65.6281
0.964776,35.157,46.3027,51.7411,54.9649,57.0989,58.6162,59.7505,60.6305,61.3333
0.916449,33.2174,43.9922,49.4268,52.7198,54.9326,56.5228,57.7213,58.657,59.4079
0.914947,34.9238,47.2707,53.7053,57.6579,60.3315,62.2601,63.7166,64.8554,65.7701
0.931047,33.6862,44.3036,49.4781,52.5259,54.5306,55.9482,57.0032,57.8186,58.4678
0.969595,35.5402,47.3292,53.3344,56.9892,59.4523,61.2267,62.5665,63.6143,64.4564
0.927677,36.2763,49.4179,56.2901,60.5117,63.3663,65.4243,66.978,68.1922,69.1671
0.974536,39.3704,53.4625,60.608,64.9021,67.7617,69.8008,71.3277,72.5134,73.4608
0.935766,37.9082,50.8835,57.3281,61.1737,63.7288,65.55,66.914,67.9739,68.8212
0.931193,38.5996,51.9726,58.7232,62.803,65.5379,67.5,68.9765,70.128,71.0512
0.959875,40.6034,54.6864,61.796,66.0853,68.9546,71.0085,72.5513,73.7526,74.7144
0.939898,40.9012,55.2507,62.5229,66.9177,69.8606,71.9689,73.5535,74.7881,75.777
0.956222,42.1656,56.7202,64.0261,68.4157,71.3438,73.436,75.0054,76.2262,77.2029
0.986813,43.9958,59.0861,66.6776,71.2514,74.3095,76.4988,78.1436,79.4246,80.4506
0.924275,42.1386,56.7632,64.1698,68.6473,71.6467,73.7963,75.4125,76.6719,77.6809
0.933253,43.0293,57.8067,65.2409,69.7142,72.701,74.8364,76.439,77.686,78.6839
0.948715,44.1002,59.1243,66.6755,71.2206,74.2571,76.4294,78.0606,79.3305,80.3472
0.928532,42.8932,57.2009,64.3583,68.6571,71.5255,73.5758,75.1143,76.3114,77.2695
0.950138,41.9296,55.0886,61.5678,65.4295,67.9944,69.8222,71.1907,72.2539,73.1036
0.974571,45.2645,61.1326,69.4257,74.543,78.0194,80.5364,82.4434,83.9384,85.1419
0.938661,44.518,60.0545,67.9498,72.7053,75.876,78.1386,79.8332,81.1494,82.2009
0.983343,47.5724,64.1303,72.4899,77.5207,80.88,83.2823,85.0856,86.4893,87.6131
0.966547,44.5525,58.696,65.5955,69.6799,72.3806,74.2992,75.7326,76.8442,77.7314
0.9498,45.6652,61.5418,69.759,74.8077,78.2305,80.7057,82.5797,84.0481,85.2299
0.964297,47.1714,63.5247,71.821,76.8225,80.1613,82.5462,84.3339,85.7234,86.8341
0.928937,46.6649,63.0216,71.3184,76.3271,79.6781,82.0775,83.8804,85.2846,86.4093
0.936683,48.0089,64.7651,73.2165,78.305,81.7041,84.1353,85.9604,87.381,88.518
0.943378,48.3323,64.7297,72.9152,77.8218,81.0914,83.4262,85.1771,86.5389,87.6282
0.935724,48.5661,65.1804,73.567,78.633,82.0268,84.4596,86.2893,87.7154,88.8583
0.970606,51.6193,69.6008,78.7361,84.2656,87.9718,90.6287,92.6265,94.1833,95.4306
0.961394,51.587,69.3,78.2037,83.5554,87.1256,89.6765,91.59,93.0783,94.2689
