1.93425,1.97087,1.98339,1.9897,1.99351,1.99606,1.99789,1.99926,2.00032,2.00118
1.39629,1.87455,2.10975,2.2496,2.3423,2.40827,2.4576,2.49588,2.52646,2.55144
1.26081,2.20855,2.70241,2.99157,3.17878,3.30909,3.40475,3.47784,3.53545,3.58199
1.16686,2.55289,3.26208,3.65579,3.90092,4.06701,4.18661,4.27671,4.34697,4.40327
1.58254,4.18461,5.4683,6.15284,6.57076,6.8512,7.05214,7.20311,7.32066,7.41478
1.08414,3.39966,4.5087,5.08834,5.44034,5.67632,5.84544,5.97259,6.07165,6.151
1.4165,5.08817,6.7551,7.60488,8.11606,8.45702,8.70059,8.88328,9.02536,9.13903
1.04633,4.29172,5.73824,6.47783,6.92553,7.22568,7.44093,7.60287,7.72911,7.8303
1.03232,4.75388,6.36699,7.18571,7.67956,8.00976,8.24605,8.4235,8.56163,8.67222
1.03441,5.21815,6.95629,7.82847,8.35201,8.70109,8.95046,9.1375,9.28299,9.39939
1.00794,5.63834,7.57178,8.55701,9.15459,9.55587,9.84399,10.0609,10.2302,10.3659
1.24461,7.53417,10.079,11.3594,12.1291,12.6427,13.0096,13.2848,13.4988,13.67
0.994079,6.56572,8.82286,9.9687,10.662,11.1267,11.4599,11.7105,11.9059,12.0625
1.19772,8.52897,11.4559,12.9349,13.8267,14.4229,14.8495,15.1698,15.4192,15.6188
1.21893,9.39079,12.6497,14.3016,15.2996,15.9677,16.4464,16.8062,17.0864,17.3109
1.16986,9.64827,12.9846,14.6684,15.6832,16.3614,16.8466,17.2109,17.4946,17.7216
0.982375,8.62636,11.5963,13.0924,13.9935,14.5957,15.0266,15.3501,15.602,15.8037
1.16367,10.7451,14.3954,16.2284,17.331,18.0675,18.5942,18.9897,19.2975,19.5439
0.974614,9.47901,12.7032,14.3291,15.31,15.9664,16.4364,16.7897,17.0649,17.2853
1.18706,12.0922,16.1926,18.26,19.5066,20.3402,20.9369,21.3851,21.7341,22.0136
1.09691,11.7643,15.7867,17.822,19.0512,19.8739,20.4633,20.9062,21.2512,21.5276
1.11681,12.5708,16.8763,19.0514,20.3632,21.2404,21.8681,22.3397,22.7068,23.0007
0.96138,11.2521,15.0722,16.9946,18.1519,18.9249,19.4778,19.893,20.2161,20.4748
1.11205,13.4762,18.022,20.3097,21.6878,22.6089,23.2682,23.7633,24.1488,24.4576
0.965714,12.339,16.6061,18.7778,20.0939,20.9769,21.6105,22.0872,22.4588,22.7568
0.957567,12.6437,16.9495,19.1162,20.4194,21.2891,21.9106,22.3769,22.7396,23.0298
0.955625,13.0115,17.4138,19.63,20.9651,21.8576,22.4965,22.9764,23.3502,23.6495
0.955261,13.5246,18.1516,20.4965,21.9145,22.8646,23.5456,24.0578,24.4569,24.7767
0.968199,14.2424,19.1385,21.6184,23.116,24.1184,24.8362,25.3755,25.7955,26.1319
0.952293,14.5059,19.4869,22.0041,23.5222,24.5375,25.2643,25.8101,26.2352,26.5756
1.01426,16.0093,21.516,24.2995,25.9791,27.1028,27.9074,28.512,28.9828,29.3599
0.953055,15.5837,20.9436,23.649,25.2799,26.3703,27.1507,27.7368,28.1932,28.5586
1.06581,17.9694,24.1305,27.2385,29.1122,30.3652,31.2621,31.9359,32.4605,32.8807
1.00443,17.5641,23.6265,26.6929,28.5442,29.7833,30.6707,31.3376,31.857,32.2731
1.0438,18.7711,25.1983,28.4337,30.3812,31.6821,32.6125,33.3109,33.8544,34.2895
1.05599,19.2526,25.7034,28.9302,30.8673,32.1595,33.0828,33.7755,34.3145,34.7458
1.05106,19.6648,26.3217,29.6861,31.7193,33.0815,34.058,34.7923,35.3647,35.8234
1.01021,19.6301,26.4179,29.872,31.9641,33.3669,34.3728,35.1292,35.7188,36.1912
1.023,20.0429,26.7549,30.1098,32.1199,33.4582,34.413,35.1285,35.6846,36.1292
1.02225,20.7004,27.7953,31.3979,33.5801,35.0444,36.0953,36.8864,37.5034,37.9982
1.02373,21.4665,28.9088,32.6864,34.9695,36.498,37.5926,38.4151,39.0557,39.5686
0.995604,21.4257,28.8033,32.5229,34.7623,36.258,37.3276,38.1304,38.7553,39.2553
1.03492,22.7329,30.4888,34.3886,36.7355,38.3032,39.4246,40.2666,40.922,41.4468
1.03877,23.1458,30.9536,34.8732,37.2314,38.8066,39.9333,40.7792,41.4378,41.9649
1.00584,22.8387,30.5657,34.4637,36.8159,38.39,39.5175,40.3647,41.0248,41.5534
1.01881,23.717,31.8191,35.9213,38.3997,40.0591,41.2478,42.1412,42.8371,43.3945
0.978739,23.3956,31.4386,35.5101,37.9679,39.6123,40.7897,41.6743,42.3631,42.9147
0.975304,23.8847,32.0963,36.2437,38.7441,40.4158,41.6122,42.5108,43.2103,43.7705
1.00391,25.0881,33.6733,37.9995,40.6054,42.347,43.5931,44.5288,45.2574,45.8406
0.992502,25.4839,34.2816,38.7356,41.4264,43.2283,44.5193,45.4899,46.2461,46.8518
0.991911,25.8201,34.5984,39.0064,41.656,43.4242,44.6879,45.6361,46.3737,46.9639
1.02827,27.3613,36.7295,41.4646,44.3243,46.2392,47.6113,48.6428,49.4466,50.0906
1.00729,27.2985,36.6185,41.3177,44.1496,46.0425,47.3968,48.4138,49.2055,49.8392
0.97639,26.7025,35.7051,40.2263,42.9457,44.7617,46.0602,47.035,47.7936,48.4008
0.998132,27.6305,36.9471,41.6433,44.4754,46.3701,47.7268,48.7463,49.5403,50.1763
0.970477,27.6793,37.241,42.1081,45.0573,47.0357,48.4548,49.5225,50.3548,51.0219
0.998526,28.8319,38.6406,43.5721,46.5358,48.5125,49.9246,50.9837,51.8073,52.4661
1.01526,29.9673,40.2525,45.455,48.597,50.7008,52.2082,53.3415,54.2246,54.9322
1.00231,29.9783,40.1801,45.3151,48.4062,50.4709,51.9476,53.056,53.9187,54.6092
0.982615,30.1234,40.5085,45.7713,48.9528,51.0841,52.6117,53.7603,54.6554,55.3726
0.955101,29.9474,40.2939,45.5252,48.6809,50.7912,52.3017,53.4362,54.3194,55.0266
0.978612,31.0927,41.7259,47.0772,50.2982,52.4498,53.9887,55.1441,56.0434,56.7633
1.00277,32.1105,42.9688,48.4229,51.7048,53.8972,55.4655,56.643,57.5597,58.2935
0.976699,31.8044,42.651,48.1368,51.4514,53.6714,55.2623,56.4584,57.3905,58.1373
0.975089,32.1296,43.0503,48.5589,51.8794,54.099,55.6873,56.8801,57.8086,58.552
0.996212,33.098,44.2781,49.9067,53.2965,55.5617,57.1824,58.3993,59.3467,60.1052
0.964647,32.9238,44.3072,50.0985,53.6071,55.9607,57.6491,58.9194,59.9098,60.7037
0.975062,33.6664,45.1778,50.9783,54.4693,56.8002,58.4664,59.7168,60.6896,61.468
0.980702,34.137,45.6937,51.5009,54.9944,57.3277,58.9964,60.2493,61.2245,62.0052
0.993588,35.1471,47.1403,53.2035,56.8654,59.3173,61.0741,62.3948,63.4238,64.2482
0.984181,35.509,47.7209,53.904,57.6381,60.1374,61.9273,63.2722,64.3198,65.1587
0.951303,35.0356,47.1347,53.2547,56.9474,59.4173,61.1855,62.5137,63.548,64.3762
0.990182,36.8078,49.3633,55.6767,59.4747,62.0109,63.8243,65.1855,66.2449,67.0928
0.972061,36.771,49.3909,55.7683,59.6186,62.196,64.0424,65.4302,66.5115,67.3777
0.940848,36.1698,48.6077,54.8952,58.6899,61.2289,63.047,64.4129,65.4767,66.3287
0.970395,37.6168,50.423,56.8668,60.7457,63.3367,65.1898,66.581,67.6638,68.5306
0.957096,37.1974,49.7147,56.0006,59.7826,62.3089,64.1159,65.4726,66.5287,67.3742
0.964746,37.9726,50.8806,57.4128,61.3611,64.0062,65.9021,67.3276,68.4386,69.3288
0.996148,39.8798,53.5712,60.5144,64.7114,67.522,69.5355,71.0488,72.2277,73.1719
0.979626,39.4645,52.8525,59.5871,63.6377,66.3416,68.2743,69.7246,70.853,71.756
0.964395,39.5374,53.1085,59.9833,64.1388,66.9225,68.9178,70.4181,71.5874,72.5244
1.0074,42.0943,56.6327,63.9948,68.4401,71.4148,73.5448,75.1451,76.3914,77.3894
0.993293,41.4955,55.4871,62.491,66.6934,69.4945,71.495,72.9952,74.1619,75.0951
0.948121,40.28,54.0733,61.0617,65.2896,68.1243,70.1574,71.687,72.8797,73.8357
0.976078,42.33,56.9742,64.4009,68.8893,71.8944,74.0468,75.6642,76.924,77.933
0.953324,41.9234,56.3487,63.6228,68.0033,70.9297,73.0226,74.5937,75.8165,76.7952
0.937692,42.0322,56.5778,63.9337,68.3742,71.3461,73.4747,75.0744,76.3206,77.3188
0.920542,15.8592,17.4962,18.1173,18.4442,18.6458,18.7826,18.8816,18.9564,19.0151
0.936414,23.7835,33.5125,40.4953,45.8761,50.1746,53.6951,56.634,59.1258,61.2658
0.89953,13.8378,16.3397,17.4154,17.986,18.3303,18.557,18.7159,18.8327,18.9217
0.907117,21.3838,31.9941,39.5437,45.2641,49.7783,53.4445,56.4875,59.0568,61.257
0.903367,29.2414,47.0782,58.3636,65.7008,70.7091,74.2876,76.9452,78.9834,80.5885
0.896312,35.7138,55.7556,66.1792,72.1848,76.0217,78.6702,80.6053,82.0806,83.2427
0.891948,40.396,59.8745,69.0805,74.336,77.7444,80.1421,81.9247,83.3038,84.4034
0.911451,43.995,62.2412,70.6895,75.6015,78.8362,81.1343,82.8535,84.1889,85.2564
0.890825,45.1994,62.62,70.9548,75.9253,79.2436,81.6199,83.4064,84.7989,85.9148
0.907441,47.2725,64.4887,72.8704,77.8926,81.245,83.6426,85.4424,86.8434,87.9648
0.937997,49.3843,66.651,75.1539,80.2583,83.666,86.1029,87.9322,89.356,90.4957
0.904715,48.3804,65.1866,73.5993,78.6792,82.0817,84.5202,86.3537,87.7826,88.9275
0.896308,48.7757,65.7296,74.2741,79.4359,82.8918,85.3674,87.2279,88.6771,89.8379
