1.66769,1.68869,1.69581,1.6994,1.70155,1.70299,1.70402,1.7048,1.7054,1.70588
1.30599,1.81061,2.07337,2.23452,2.34344,2.42199,2.48131,2.52769,2.56495,2.59555
1.26181,2.26926,2.7977,3.10476,3.30177,3.43782,3.53702,3.61237,3.67148,3.71905
1.14334,2.5637,3.29023,3.69078,3.93901,4.10672,4.22729,4.31803,4.38874,4.44539
1.14908,3.07465,4.00566,4.49514,4.79171,4.98985,5.1314,5.23754,5.32006,5.38606
1.27363,4.05607,5.38403,6.07857,6.50132,6.78533,6.98925,7.14276,7.26252,7.35854
1.12178,3.8744,5.02664,5.59285,5.92685,6.1469,6.30276,6.41891,6.50882,6.58046
1.09703,4.47491,6.00669,6.81319,7.31192,7.65143,7.89767,8.08453,8.23122,8.34944
1.59556,7.44855,10.063,11.4075,12.2211,12.765,13.1538,13.4454,13.672,13.8531
1.24996,6.52347,8.79492,9.94142,10.6295,11.0879,11.4151,11.6604,11.851,12.0035
1.03091,5.94969,8.01308,9.05111,9.67513,10.0917,10.3897,10.6133,10.7874,10.9268
1.00458,5.92939,7.76965,8.65939,9.18389,9.52984,9.77519,9.95825,10.1001,10.2132
1.00523,6.65108,8.95586,10.1527,10.8902,11.3913,11.7542,12.0293,12.2451,12.419
0.788909,2.30717,2.50796,2.5829,2.62193,2.64584,2.66196,2.67356,2.68231,2.68914
0.780725,3.68719,5.25069,6.42575,7.36151,8.12847,8.76979,9.3145,9.78313,10.1907
1.03362,6.99709,11.0114,13.6939,15.5001,16.7566,17.6631,18.3394,18.8588,19.2678
0.786718,6.78556,10.473,12.4548,13.6054,14.3389,14.8429,15.2093,15.4875,15.7058
0.787025,7.91239,11.6064,13.3678,14.3677,15.0124,15.4639,15.7985,16.0569,16.2626
0.976599,11.0152,15.6364,17.8211,19.0991,19.9439,20.5457,20.9971,21.3483,21.6295
0.905335,10.9981,15.1945,17.1903,18.3709,19.1546,19.7135,20.1323,20.4579,20.7184
0.811857,10.4078,14.1524,15.967,17.051,17.7737,18.2902,18.6779,18.9796,19.2211
0.825163,10.0293,13.0709,14.4953,15.3287,15.8764,16.2639,16.5525,16.7759,16.9538
0.808086,10.8226,14.6613,16.6743,17.9295,18.7894,19.4162,19.8934,20.2691,20.5726
1.08999,15.5991,21.2111,24.0844,25.8239,26.9864,27.8168,28.439,28.9222,29.3083
0.907386,13.5964,18.3794,20.7774,22.2133,23.1683,23.8492,24.3591,24.7553,25.072
0.829393,12.4274,16.4962,18.4874,19.6686,20.4508,21.0072,21.4233,21.7462,22.0041
0.996167,15.8531,21.3793,24.2082,25.935,27.1004,27.9406,28.5752,29.0715,29.4703
0.846272,13.6777,18.2554,20.534,21.8955,22.7997,23.4435,23.9251,24.2987,24.5971
0.986115,15.861,20.9602,23.4832,24.9909,25.9941,26.7101,27.2468,27.6641,27.9979
0.919021,13.4338,17.1864,18.9783,20.031,20.7242,21.2153,21.5816,21.8653,22.0915
0.911383,15.1046,20.578,23.5689,25.469,26.7862,27.7538,28.4951,29.0813,29.5565
0.863571,15.6708,21.5969,24.6986,26.5843,27.845,28.7448,29.4181,29.9405,30.3573
0.896099,17.0164,23.1651,26.2376,28.0643,29.2728,30.1312,30.7722,31.2693,31.666
0.885642,17.5968,23.8652,26.9986,28.8774,30.1309,31.0272,31.7004,32.2245,32.6443
1.03037,20.7593,27.8112,31.2922,33.369,34.7496,35.734,36.4715,37.0446,37.5028
0.962675,19.8259,26.5283,29.8797,31.8973,33.2466,34.2129,34.9392,35.5049,35.9582
0.948118,20.1292,27.0113,30.485,32.5834,33.9886,34.9953,35.7521,36.3416,36.8139
0.951834,20.7701,27.876,31.4568,33.6141,35.0557,36.0869,36.861,37.4635,37.9458
0.978952,22.0853,29.7052,33.5535,35.8744,37.4265,38.5374,39.3719,40.0216,40.5419
0.924772,21.2816,28.5182,32.1437,34.3201,35.7712,36.8077,37.5851,38.1897,38.6733
0.963133,22.6783,30.3884,34.264,36.5974,38.1568,39.2727,40.1108,40.7634,41.2859
0.964668,23.5327,31.6797,35.8074,38.3024,39.9736,41.1712,42.0715,42.773,43.3349
0.938371,23.5127,31.6148,35.6927,38.1459,39.7833,40.9537,41.8318,42.515,43.0616
0.924738,23.221,30.9453,34.7819,37.0754,38.6009,39.6889,40.504,41.1375,41.644
0.920156,23.8077,31.9427,36.065,38.5612,40.2363,41.4386,42.3436,43.0495,43.6156
0.902842,23.7024,31.7137,35.7374,38.1561,39.7696,40.9224,41.7869,42.4593,42.9972
0.948285,22.598,29.1355,32.2482,34.0691,35.2644,36.1093,36.7382,37.2245,37.6119
0.971712,25.2801,34.2034,38.9683,41.9565,44.0111,45.5122,46.6575,47.5603,48.2906
0.978973,26.9236,36.6586,41.6821,44.7242,46.7562,48.2065,49.2925,50.1355,50.8085
0.958822,26.7579,35.9829,40.5707,43.3001,45.1077,46.3927,47.3531,48.0982,48.693
0.967687,24.1325,31.0442,34.2962,36.189,37.4288,38.3043,38.9559,39.4597,39.861
0.963061,26.0923,35.2288,40.0974,43.1531,45.2565,46.7947,47.9692,48.8958,49.6455
0.987097,28.7087,39.2909,44.8066,48.1676,50.4214,52.0344,53.2444,54.185,54.9367
0.936947,28.4816,38.7983,44.0037,47.1195,49.1896,50.6638,51.7669,52.6234,53.3075
0.931114,29.0981,39.352,44.4632,47.5195,49.5535,51.005,52.0932,52.9395,53.6165
0.986384,31.4628,42.3404,47.763,51.0155,53.1852,54.7361,55.9002,56.8062,57.5313
0.946402,12.6347,14.0421,14.5793,14.8633,15.0391,15.1586,15.2452,15.3107,15.3622
0.973888,17.7322,24.2616,28.6574,31.8959,34.3957,36.388,38.0149,39.369,40.514
0.907733,21.6939,32.5292,39.364,43.8813,47.019,49.2964,51.0114,52.3427,53.4025
0.897764,23.7668,34.1477,39.4059,42.4209,44.3418,45.6641,46.6275,47.3599,47.9353
0.920345,25.8256,35.9126,40.7558,43.5647,45.4035,46.7048,47.676,48.4296,49.0319
0.927328,30.0358,42.8052,49.3879,53.425,56.1665,58.1536,59.6613,60.8448,61.7988
0.945435,33.023,46.209,52.7164,56.5834,59.143,60.9606,62.3171,63.3677,64.2053
0.911054,32.7024,44.6391,50.4017,53.8061,56.057,57.6566,58.8523,59.7802,60.5212
0.93434,30.121,38.9969,43.0852,45.4543,47.0037,48.097,48.91,49.5385,50.0389
0.948111,33.3661,45.2906,51.6006,55.5631,58.2931,60.2911,61.8176,63.0225,63.9977
0.947784,31.3737,41.1335,45.8577,48.6305,50.4471,51.7266,52.6754,53.4065,53.9867
0.941495,34.0616,46.4915,53.0752,57.1723,59.9732,62.0111,63.5614,64.7808,65.7654
0.910234,32.3272,43.0691,48.3537,51.4746,53.5283,54.9799,56.0594,56.8931,57.5561
0.927188,33.3915,44.63,50.2798,53.6869,55.9687,57.6052,58.8368,59.7975,60.5681
0.870025,29.816,39.0645,43.5807,46.2584,48.0305,49.2899,50.2309,50.9607,51.5431
0.891026,33.9791,46.6807,53.4944,57.7636,60.6936,62.8304,64.4583,65.7399,66.7752
0.880709,35.4494,48.5916,55.2972,59.326,62.0031,63.9072,65.3292,66.431,67.3093
0.896983,37.8111,51.6533,58.6107,62.7791,65.5542,67.5348,69.0196,70.1744,71.0982
0.917262,39.8005,53.9853,61.0498,65.2773,68.0923,70.1021,71.6092,72.7813,73.7189
0.975269,42.7746,57.5082,64.8078,69.1736,72.0804,74.1556,75.7116,76.9216,77.8895
0.911741,34.869,44.6397,49.2012,51.8509,53.5841,54.8066,55.7152,56.4172,56.9758
0.903584,37.4999,50.618,57.6439,62.0721,65.1287,67.3685,69.0814,70.4343,71.5301
0.941727,40.9115,55.5921,63.1762,67.773,70.8439,73.0355,74.676,75.9491,76.9651
0.913484,41.159,55.881,63.3326,67.8068,70.7867,72.9131,74.5067,75.7454,76.7361
0.981749,45.3032,61.2219,69.1915,73.9667,77.1476,79.4189,81.1223,82.4471,83.507
0.912398,42.4916,57.052,64.3034,68.6475,71.5424,73.6101,75.1611,76.3676,77.3329
0.940964,45.1206,60.8712,68.835,73.6509,76.8792,79.1945,80.9363,82.2942,83.3826
0.896506,43.7796,58.9436,66.5652,71.1495,74.2096,76.3968,78.0379,79.3145,80.3359
0.935932,45.1581,60.1238,67.53,71.9505,74.8881,76.9818,78.5497,79.7679,80.7415
0.883753,39.7442,51.7492,57.5704,61.0165,63.2969,64.9182,66.1302,67.0707,67.8218
0.933115,44.2625,59.5683,67.5906,72.5592,75.9447,78.4014,80.2661,81.7299,82.9097
0.940498,45.4706,61.166,69.1412,73.9427,77.1418,79.4229,81.1302,82.4554,83.5136
0.91963,45.6723,61.5999,69.6661,74.5262,77.7733,80.0962,81.8403,83.1982,84.2855
0.932601,46.1815,61.7176,69.4444,74.0606,77.1294,79.3172,80.9558,82.2289,83.2466
0.933481,47.1565,63.3189,71.4862,76.4222,79.7305,82.103,83.888,85.2798,86.3954
0.910179,47.2364,63.6853,72.0221,77.0589,80.4305,82.8451,84.6593,86.0721,87.2035
0.948289,49.8999,67.0713,75.6904,80.8666,84.3179,86.7831,88.6317,90.0694,91.2194
0.936353,48.3667,64.2291,72.0639,76.7352,79.8378,82.0486,83.7039,84.9898,86.0175
0.954062,50.3885,67.5791,76.319,81.6259,85.194,87.7588,89.6916,91.2007,92.4116
0.922128,49.5326,66.5314,75.1274,80.3108,83.7749,86.2524,88.1117,89.5584,90.716
0.970088,52.7376,70.758,79.8235,85.2754,88.9143,91.5154,93.4672,94.9859,96.2012
0.951016,52.3973,70.3187,79.3423,84.7762,88.4075,91.0056,92.9568,94.4758,95.6921
0.980073,55.4292,74.7368,84.5267,90.4448,94.4089,97.2496,99.3851,101.049,102.382
0.970281,52.0853,68.496,76.4689,81.1752,84.28,86.4814,88.1235,89.3954,90.4095
