1.72687,1.7847,1.80484,1.81509,1.82129,1.82545,1.82843,1.83068,1.83243,1.83383
1.3196,1.83674,2.10028,2.25992,2.36696,2.44371,2.50145,2.54645,2.58251,2.61205
1.20505,2.17502,2.68635,2.98576,3.17918,3.31352,3.41191,3.48695,3.54599,3.59363
1.1335,2.52844,3.24152,3.63612,3.88141,4.04748,4.16704,4.25711,4.32735,4.38364
1.10584,3.01021,3.97259,4.49329,4.81427,5.03115,5.18732,5.3051,5.39709,5.47091
1.07843,3.46663,4.62631,5.23537,5.606,5.85469,6.033,6.16707,6.27152,6.3552
1.0712,3.99558,5.37087,6.08401,6.51717,6.80794,7.01658,7.17359,7.29603,7.39417
1.38189,5.829,7.83331,8.85853,9.47857,9.89386,10.1914,10.4151,10.5894,10.729
1.04219,4.917,6.6173,7.48631,8.01313,8.36669,8.62041,8.81137,8.9603,9.0797
0.97698,5.05141,6.77361,7.64624,8.17307,8.52563,8.77811,8.96783,9.1156,9.23394
1.02364,5.82719,7.84768,8.88108,9.509,9.93107,10.2343,10.4627,10.6409,10.7839
1.08388,6.76671,9.14518,10.3639,11.1043,11.6017,11.9588,12.2276,12.4373,12.6053
0.984025,6.47994,8.65595,9.74626,10.4004,10.8364,11.1477,11.3811,11.5625,11.7077
1.05751,7.58673,10.2428,11.6105,12.4461,13.0099,13.4163,13.7231,13.963,14.1557
1.0167,7.80281,10.5216,11.9072,12.746,13.3079,13.7104,14.0129,14.2485,14.4372
1.05845,8.68518,11.7216,13.2692,14.2068,14.8357,15.2868,15.6262,15.8907,16.1028
1.024,8.80799,11.8215,13.3434,14.2612,14.8751,15.3145,15.6446,15.9016,16.1075
1.02806,9.47218,12.8123,14.5294,15.5765,16.282,16.7898,17.1728,17.472,17.7122
1.06519,10.5131,14.2705,16.1971,17.3671,18.1526,18.7161,19.1401,19.4706,19.7354
0.973546,10.1171,13.6813,15.4894,16.5813,17.3118,17.8349,18.2279,18.534,18.7791
1.00933,10.9827,14.8189,16.7645,17.9413,18.7301,19.2957,19.7211,20.0528,20.3186
0.985139,11.2468,15.1914,17.2025,18.4229,19.2425,19.8309,20.274,20.6196,20.8967
1.0464,12.2494,16.4224,18.5255,19.7929,20.6401,21.2463,21.7016,22.056,22.3397
1.07869,13.1866,17.747,20.0737,21.4869,22.4367,23.1191,23.6331,24.0342,24.356
1.03951,13.4508,18.238,20.7031,22.2055,23.217,23.9441,24.4921,24.9197,25.2628
1.07322,14.4523,19.543,22.1332,23.6994,24.7479,25.4988,26.063,26.5023,26.8542
1.04659,14.7051,19.8845,22.5193,24.1143,25.1836,25.9505,26.5273,26.977,27.3374
0.994,14.5671,19.7221,22.3529,23.9491,25.0209,25.7904,26.3696,26.8214,27.1836
1.02936,15.3015,20.5214,23.1449,24.7231,25.7768,26.5303,27.0957,27.5358,27.888
1.04595,16.1979,21.8704,24.7784,26.5504,27.7441,28.6031,29.251,29.7572,30.1636
1.02882,16.2362,21.7985,24.6108,26.307,27.4409,28.2522,28.8613,29.3354,29.7148
1.07741,17.3591,23.2885,26.2983,28.1206,29.3429,30.2197,30.8795,31.3939,31.8064
1.01944,16.7581,22.4734,25.3783,27.1376,28.3175,29.1638,29.8004,30.2967,30.6944
0.997014,16.6065,22.2027,25.0334,26.7425,27.8863,28.7055,29.321,29.8005,30.1844
0.971339,17.0154,23.0484,26.1722,28.0839,29.3745,30.3046,31.0068,31.5556,31.9965
1.02206,18.6203,25.2567,28.6581,30.7213,32.1049,33.0967,33.8423,34.4232,34.8885
1.10669,21.0343,28.5746,32.4272,34.762,36.3278,37.4508,38.2955,38.9539,39.4817
1.04522,20.4394,27.6496,31.2996,33.502,34.9753,36.0302,36.8227,37.4399,37.9342
1.03635,21.0047,28.4573,32.2525,34.5535,36.0981,37.2069,38.0415,38.6925,39.2145
1.0838,22.6072,30.5806,34.6301,37.0804,38.7225,39.8996,40.7848,41.4746,42.0272
1.03008,21.885,29.4984,33.3538,35.684,37.245,38.3637,39.2049,39.8603,40.3855
1.06531,22.7013,30.3968,34.2718,36.608,38.1706,39.2895,40.1301,40.7848,41.3092
1.04597,23.0834,31.1727,35.3269,37.8596,39.566,40.7939,41.7199,42.4432,43.0238
1.03012,23.5148,31.8546,36.128,38.7232,40.4654,41.7155,42.6559,43.389,43.9765
1.03694,17.0498,20.7796,22.4071,23.3179,23.8997,24.3035,24.6001,24.8272,25.0067
1.01265,19.7404,26.9401,31.1427,33.9493,35.9678,37.4928,38.6869,39.6478,40.438
1.0026,22.1509,31.1509,36.1154,39.2049,41.2925,42.7897,43.9123,44.7837,45.4787
1.0681,25.5553,35.7295,40.9822,44.1331,46.2232,47.7091,48.8191,49.6799,50.367
1.13005,28.4138,39.1829,44.5739,47.7908,49.9288,51.4537,52.5968,53.4856,54.1968
1.02424,26.4788,36.0707,40.8456,43.7083,45.6192,46.9863,48.0132,48.813,49.4536
1.04865,27.5623,37.2441,42.0836,44.9981,46.9482,48.3452,49.3954,50.2138,50.8694
1.02623,27.4137,36.9427,41.7474,44.6534,46.6019,47.9995,49.051,49.8708,50.5279
1.00609,27.6159,37.3374,42.2947,45.3068,47.3313,48.7855,49.8807,50.7351,51.4203
1.10872,31.1906,42.2479,47.9048,51.3428,53.6532,55.3123,56.5615,57.536,58.3173
1.13064,32.4132,43.8005,49.5847,53.0825,55.4249,57.1031,58.3644,59.347,60.134
1.04042,30.4832,41.2152,46.6816,49.9951,52.2188,53.8144,55.0153,55.9518,56.7026
1.04245,30.9793,41.7741,47.2472,50.5556,52.7713,54.359,55.5525,56.4823,57.2272
1.08565,33.0379,44.6601,50.5894,54.1876,56.6039,58.3387,59.6448,60.6635,61.4804
1.08398,33.3435,44.9136,50.7745,54.3147,56.6844,58.3816,59.657,60.6504,61.446
1.08053,34.2634,46.4084,52.6283,56.4106,58.954,60.7817,62.1586,63.2333,64.0953
1.06679,34.3582,46.417,52.5442,56.2495,58.7312,60.5092,61.8456,62.8866,63.7204
1.05027,33.9787,45.6773,51.5853,55.1496,57.5343,59.242,60.5252,61.5247,62.3253
1.04265,34.6011,46.7712,53.0005,56.7896,59.3386,61.171,62.5517,63.6296,64.4943
1.08057,36.4114,49.1391,55.6081,59.5209,62.1416,64.0191,65.4302,66.5293,67.4097
1.05672,35.9851,48.4559,54.7761,58.5956,61.1536,62.9866,64.3645,65.4382,66.2984
1.05271,36.4153,49.0961,55.5518,59.465,62.0913,63.9759,65.3943,66.5003,67.3871
1.05288,36.9355,49.8009,56.3487,60.3151,62.9751,64.8828,66.3178,67.4364,68.3328
1.06541,38.08,51.4351,58.2491,62.3821,65.1563,67.1471,68.6453,69.8135,70.7501
1.10319,39.1205,52.3814,59.0461,63.0543,65.7299,67.6427,69.0782,70.1951,71.0889
1.03401,36.9137,49.5355,55.9576,59.8541,62.4718,64.3521,65.7683,66.8735,67.76
1.04535,38.2592,51.7147,58.6349,62.852,65.6907,67.7318,69.2699,70.4704,71.4336
1.08492,40.7722,55.2766,62.7091,67.2205,70.248,72.4197,74.0533,75.3267,76.3471
1.09729,41.3956,55.7163,62.9341,67.2766,70.1755,72.2478,73.803,75.013,75.9814
1.08912,41.2322,55.377,62.5328,66.8583,69.7572,71.836,73.3999,74.6191,75.5965
1.00645,37.5578,50.0782,56.3655,60.1503,62.6792,64.4885,65.8471,66.9048,67.7515
1.02824,40.0824,54.418,61.8809,66.4669,69.5725,71.8154,73.5114,74.8389,75.9063
1.11538,44.4009,60.1712,68.2182,73.0832,76.3373,78.6654,80.4129,81.7725,82.8604
1.08164,43.8461,59.3338,67.2015,71.9569,75.1416,77.4237,79.1395,80.4765,81.5478
1.05489,42.9276,57.7865,65.2858,69.8083,72.8335,74.9997,76.6274,77.8951,78.9105
1.17749,46.294,61.3825,68.8684,73.3468,76.3282,78.4562,80.0513,81.2916,82.2836
1.04571,40.1195,53.0897,59.6173,63.5624,66.2075,68.1051,69.5331,70.6469,71.5399
1.05578,40.2685,53.5662,60.3517,64.4758,67.2481,69.2397,70.7396,71.9099,72.8484
1.00653,39.3873,53.0493,60.1197,64.4392,67.3504,69.4449,71.0239,72.2568,73.2461
1.04643,42.3454,57.4603,65.259,70.0032,73.1902,75.4775,77.1986,78.5404,79.6158
1.1299,46.3476,62.6037,70.8368,75.795,79.1058,81.4727,83.2488,84.6307,85.7365
1.06374,43.1276,57.6716,64.9451,69.3092,72.2197,74.2997,75.8605,77.0751,78.0471
1.0995,47.5348,65.1081,74.3278,80.0202,83.888,86.6883,88.8098,90.4728,91.8115
1.13104,49.7431,67.5233,76.5161,81.9203,85.5197,88.0866,90.0086,91.5011,92.6934
1.08825,49.4143,67.2665,76.3725,81.8949,85.6032,88.2662,90.2716,91.8365,93.0919
1.17326,54.5377,74.0728,83.9799,89.9665,93.9749,96.8465,99.0047,100.686,102.032
1.11136,51.5823,69.4087,78.3443,83.7151,87.3003,89.8637,91.7877,93.2852,94.4837
1.02818,48.2421,64.9909,73.4901,78.6422,82.1017,84.5858,86.4564,87.9158,89.0863
1.1108,53.1855,71.9664,81.5824,87.4318,91.3654,94.1919,96.3209,97.9822,99.3146
1.07054,52.3474,70.9261,80.4099,86.1588,90.0144,92.7792,94.8584,96.4788,97.7771
1.16051,56.7709,76.3998,86.2922,92.2484,96.2273,99.0731,101.21,102.873,104.204
1.1089,55.4304,75.0151,85.0411,91.142,95.2478,98.2004,100.426,102.164,103.559
1.11092,56.5318,76.5129,86.6909,92.854,96.9847,99.9452,102.171,103.905,105.294
1.14002,57.6403,77.3761,87.2973,93.2651,97.2497,100.099,102.238,103.902,105.234
1.09768,56.6623,76.5796,86.7812,92.993,97.1753,100.184,102.453,104.225,105.647
1.08681,56.7304,76.6057,86.7232,92.8483,96.9529,99.8945,102.106,103.828,105.208
