1.91915,1.93162,1.93581,1.93792,1.93918,1.94003,1.94063,1.94108,1.94143,1.94172
1.45085,1.95434,2.20755,2.35994,2.46173,2.53453,2.58918,2.63172,2.66577,2.69364
1.27427,2.22667,2.71929,3.00542,3.18944,3.31689,3.41007,3.48103,3.5368,3.58176
1.24067,2.71571,3.4681,3.88459,4.1435,4.31877,4.44494,4.53997,4.61407,4.67344
1.16639,3.0657,3.98703,4.4731,4.76795,4.96498,5.10575,5.21127,5.29331,5.35889
0.843495,1.69893,1.92299,2.01589,2.06619,2.09766,2.11921,2.13489,2.14681,2.15618
0.859369,2.61289,3.61593,4.28753,4.77728,5.15235,5.44948,5.69094,5.89114,6.05988
0.87924,3.58024,5.219,6.18781,6.80129,7.21568,7.51076,7.72995,7.89838,8.03142
0.990231,4.9188,7.04843,8.14226,8.78179,9.19666,9.48658,9.70043,9.86464,9.99473
0.892667,5.14983,7.21605,8.2256,8.81616,9.20424,9.47925,9.6846,9.84389,9.97113
0.917012,5.87867,8.05417,9.10253,9.72066,10.1297,10.4207,10.6386,10.8079,10.9432
0.913222,6.34677,8.56929,9.64914,10.2919,10.7194,11.0246,11.2534,11.4314,11.5738
0.936212,6.9993,9.39738,10.581,11.2911,11.7651,12.1042,12.3587,12.5569,12.7155
0.999103,8.06211,10.838,12.2277,13.0655,13.6259,14.0271,14.3285,14.5632,14.7512
0.940711,8.09139,10.8481,12.2249,13.0514,13.6024,13.996,14.2912,14.5207,14.7043
0.936517,8.48537,11.3314,12.7494,13.5994,14.1659,14.5703,14.8737,15.1096,15.2983
1.00087,9.48261,12.6254,14.1925,15.1326,15.7595,16.2074,16.5435,16.8049,17.0141
0.943445,9.31988,12.3933,13.93,14.8531,15.4691,15.9094,16.2399,16.497,16.7028
0.984551,10.3298,13.835,15.6109,16.6848,17.4043,17.92,18.3078,18.61,18.8521
0.945912,10.4863,14.0671,15.8725,16.9591,17.6844,18.2028,18.5917,18.8942,19.1363
0.956141,11.0168,14.7096,16.5516,17.6543,18.3882,18.9117,19.3041,19.609,19.8528
0.992933,12.0104,16.08,18.1272,19.3603,20.1847,20.7749,21.2182,21.5635,21.8401
0.945067,11.8945,15.8987,17.904,19.1079,19.9106,20.484,20.9141,21.2485,21.5161
1.00968,13.1949,17.6247,19.844,21.1773,22.067,22.7029,23.1801,23.5514,23.8486
0.992634,13.4255,17.9165,20.1659,21.5171,22.4186,23.063,23.5465,23.9226,24.2236
0.957092,13.3635,17.82,20.0522,21.3933,22.2881,22.9277,23.4076,23.781,24.0798
1.00765,14.4377,19.2135,21.6012,23.0342,23.9897,24.6723,25.1844,25.5827,25.9014
0.977855,14.5432,19.4268,21.8885,23.3728,24.3655,25.0763,25.6103,26.0261,26.3592
0.95051,14.7594,19.7916,22.334,23.867,24.8919,25.6252,26.1759,26.6046,26.9477
0.99672,15.9582,21.3413,24.0361,25.6521,26.7286,27.497,28.073,28.5209,28.879
0.989315,16.7083,22.5155,25.4608,27.2417,28.435,29.2904,29.9336,30.435,30.8368
0.956487,16.5931,22.2161,25.0181,26.6933,27.807,28.6007,29.195,29.6566,30.0255
0.959778,16.9554,22.5887,25.3892,27.0656,28.1821,28.9793,29.5771,30.042,30.414
0.973135,17.7571,23.7427,26.7555,28.5724,29.7883,30.6592,31.3137,31.8236,32.232
0.950537,17.6577,23.5235,26.4526,28.2085,29.3782,30.2131,30.8389,31.3253,31.7143
0.961022,12.1131,14.4378,15.4277,15.9763,16.325,16.5663,16.7432,16.8784,16.9851
0.963079,15.2299,20.8765,24.2873,26.6175,28.3202,29.6218,30.6503,31.4838,32.1733
0.950187,17.4862,24.7258,28.7349,31.2175,32.8837,34.0706,34.9551,35.6379,36.1799
0.91828,18.5116,25.848,29.5626,31.755,33.193,34.207,34.9601,35.5416,36.0041
0.957866,20.4119,28.0004,31.7183,33.9109,35.3587,36.3871,37.156,37.7529,38.2298
0.95343,21.0454,28.4919,32.1334,34.2987,35.7374,36.7637,37.533,38.1313,38.6099
0.94052,21.2907,28.6021,32.205,34.3604,35.7968,36.8231,37.5931,38.1922,38.6717
0.9733,22.6808,30.4375,34.3055,36.6319,38.1863,39.2986,40.1338,40.7841,41.3048
0.964256,22.8659,30.5575,34.3864,36.6824,38.2126,39.3053,40.1246,40.7618,41.2714
0.968039,23.7199,31.8318,35.9197,38.3867,40.0378,41.2204,42.1093,42.8017,43.3564
0.938064,23.4528,31.3833,35.3497,37.729,39.3144,40.4462,41.2947,41.9543,42.4818
0.967006,25.1303,33.824,38.2207,40.8762,42.654,43.9278,44.8853,45.6313,46.229
0.979879,25.6829,34.2754,38.5409,41.0874,42.7789,43.984,44.8859,45.5862,46.1458
0.969297,25.9487,34.6873,39.0707,41.7091,43.4727,44.735,45.6834,46.4221,47.0137
0.974071,26.5789,35.5297,40.0205,42.7209,44.5235,45.8122,46.7792,47.5317,48.1338
0.964871,26.8751,35.947,40.5024,43.2421,45.0712,46.379,47.3604,48.1242,48.7355
0.964277,27.3023,36.4787,41.0764,43.8377,45.6797,46.9958,47.9832,48.7513,49.3659
0.955731,27.42,36.5836,41.1694,43.9227,45.7592,47.0714,48.0558,48.8217,49.4345
0.96921,27.9248,37.1297,41.7215,44.4744,46.309,47.6192,48.6017,49.3658,49.9771
0.953867,28.1279,37.6023,42.3874,45.2767,47.2112,48.5972,49.6391,50.4509,51.1012
0.949629,28.7887,38.6224,43.5908,46.586,48.5878,50.0199,51.095,51.9318,52.6016
0.942069,28.9056,38.6197,43.4722,46.3786,48.3132,49.6936,50.7279,51.5318,52.1745
0.958328,29.9117,39.9832,45.0346,48.0718,50.1,51.5505,52.6396,53.4874,54.1661
0.964673,30.748,41.1619,46.3971,49.5477,51.6521,53.1571,54.287,55.1663,55.8702
0.963241,30.7834,40.9782,46.053,49.0899,51.1108,52.5525,53.6328,54.4724,55.1436
0.971034,31.8129,42.5935,48.0381,51.3264,53.5286,55.1068,56.2934,57.2182,57.9592
0.954993,31.7175,42.3893,47.738,50.9486,53.0888,54.617,55.7628,56.6536,57.366
0.967575,32.2704,42.9662,48.3011,51.4979,53.6275,55.1479,56.288,57.1745,57.8837
0.964792,32.8276,43.8924,49.4707,52.8356,55.0872,56.6997,57.9116,58.8557,59.6119
0.97684,33.8765,45.3472,51.119,54.5919,56.9104,58.5678,59.8116,60.7792,61.5535
0.986465,34.8245,46.6202,52.5436,56.1039,58.4796,60.1775,61.4515,62.4427,63.2359
0.989046,35.0492,46.6988,52.5034,55.9788,58.2926,59.9438,61.1815,62.1436,62.913
0.964258,34.135,45.3378,50.9225,54.2715,56.5043,58.0995,59.2962,60.2272,60.9721
0.965606,34.8845,46.6236,52.5592,56.1464,58.5494,60.2717,61.5667,62.5759,63.3845
0.978749,36.6451,49.3499,55.8097,59.7167,62.3331,64.2073,65.6157,66.7126,67.5911
0.968753,36.1705,48.1959,54.1553,57.7058,60.0608,61.7366,62.9898,63.9623,64.7389
0.958716,36.5416,48.9093,55.1375,58.8944,61.4093,63.2116,64.5668,65.6231,66.4696
0.976615,37.8468,50.6673,57.1084,60.9819,63.5673,65.4153,66.8018,67.8804,68.7435
0.96976,38.2529,51.2358,57.7566,61.6774,64.2945,66.1654,67.5695,68.662,69.5364
0.959272,38.2131,51.0588,57.483,61.3372,63.9064,65.7415,67.1177,68.188,69.0443
0.967732,38.7739,51.6934,58.1485,62.0219,64.6049,66.4503,67.8347,68.9117,69.7734
0.972417,39.651,53.037,59.7786,63.8423,66.5598,68.5052,69.9666,71.1047,72.016
0.974218,39.6774,52.7966,59.3338,63.2472,65.8518,67.7098,69.1019,70.1838,71.0487
0.972668,40.5303,54.2832,61.2388,65.4419,68.2576,70.2759,71.7936,72.9765,73.9245
0.967548,40.7212,54.4192,61.2827,65.4009,68.1452,70.1042,71.5727,72.7143,73.6271
0.98212,41.7736,55.8033,62.8363,67.062,69.8819,71.8976,73.4104,74.5876,75.5297
0.962088,41.3655,55.2517,62.2153,66.4006,69.1939,71.1907,72.6892,73.8551,74.7883
0.952924,24.7439,29.0378,30.8223,31.7998,32.4168,32.8418,33.1522,33.389,33.5755
0.966943,31.8955,43.8172,51.2112,56.3569,60.1678,63.1106,65.4543,67.3661,68.9558
0.945915,36.556,52.1624,60.9685,66.4614,70.1575,72.7917,74.754,76.2674,77.4675
0.937887,39.5686,55.6255,63.7747,68.5689,71.7023,73.9055,75.5383,76.7967,77.7964
0.955335,42.4909,58.627,66.5262,71.176,74.2428,76.4203,78.048,79.3113,80.3208
0.959143,44.4318,60.6531,68.6128,73.3536,76.5076,78.7597,80.4493,81.7639,82.8162
0.954501,44.801,60.3449,67.9475,72.4756,75.4849,77.6305,79.2379,80.487,81.4857
0.968914,45.9532,61.5668,69.2891,73.9188,77.0075,79.2156,80.8729,82.1628,83.1954
0.941722,46.082,62.0795,70.1427,75.0174,78.2843,80.6263,82.3876,83.7603,84.8602
0.943708,46.5107,62.2553,70.0885,74.7756,77.8935,80.1165,81.7814,83.0747,84.1082
0.963512,47.3655,63.0595,70.8542,75.5208,78.6288,80.8477,82.5115,83.8055,84.8407
0.959539,47.8526,63.9574,72.0638,76.9541,80.227,82.5714,84.3335,85.7063,86.806
0.9551,48.596,65.1712,73.5366,78.5802,81.952,84.3645,86.1759,87.586,88.7147
0.968005,49.6336,66.3587,74.7242,79.7396,83.0804,85.4649,87.2522,88.6417,89.7529
0.965714,50.1647,67.124,75.6368,80.7568,84.1759,86.6213,88.4572,89.8863,91.0304
0.960898,49.3823,65.5682,73.5966,78.3932,81.5823,83.856,85.559,86.8821,87.9397
0.975103,50.6197,67.5084,76.0135,81.1454,84.5809,87.0424,88.8931,90.3352,91.4907
0.965641,50.3508,67.1206,75.5362,80.5941,83.9686,86.3798,88.1884,89.5952,90.7206
