1.59251,1.63626,1.65139,1.65905,1.66369,1.66679,1.66902,1.67069,1.67199,1.67304
1.31628,1.8765,2.17488,2.36012,2.4863,2.57778,2.64714,2.70154,2.74534,2.78138
1.15622,2.13543,2.65726,2.96196,3.15779,3.2931,3.39176,3.4667,3.52548,3.57276
1.11749,2.57275,3.33032,3.75108,4.01295,4.19042,4.31828,4.41468,4.48991,4.55023
1.1008,3.06348,4.04986,4.5783,4.90198,5.11975,5.27611,5.39377,5.48551,5.55904
1.04057,3.41912,4.57085,5.17373,5.5403,5.78629,5.96271,6.09541,6.19884,6.28172
1.00824,3.81355,5.11842,5.79156,6.19961,6.47323,6.66945,6.81704,6.93208,7.02427
1.00953,4.32406,5.81595,6.58072,7.04425,7.35521,7.57827,7.74611,7.87696,7.98185
0.994159,4.76732,6.4255,7.27439,7.78942,8.13517,8.38333,8.57011,8.71578,8.83256
1.35871,7.20862,9.72252,11.0066,11.7853,12.3077,12.6826,12.9647,13.1846,13.3609
0.95664,5.563,7.49904,8.48417,9.08034,9.47987,9.76626,9.98161,10.1494,10.2839
0.950248,5.94826,7.98862,9.02212,9.64659,10.0648,10.3645,10.5898,10.7653,10.906
1.09836,7.43872,10.0208,11.3398,12.1411,12.6796,13.0665,13.3579,13.5852,13.7676
1.19121,8.59951,11.5476,13.0414,13.9436,14.5474,14.9797,15.3045,15.5575,15.76
0.946595,7.44573,10.0934,11.4577,12.2901,12.851,13.2546,13.559,13.7968,13.9876
1.24651,10.4215,14.0744,15.931,17.0529,17.8038,18.3414,18.7452,19.0597,19.3114
0.921828,8.21548,11.1064,12.58,13.4733,14.0729,14.5032,14.827,15.0796,15.2821
0.945376,8.86741,11.953,13.5189,14.4658,15.1003,15.5551,15.897,16.1634,16.3769
1.13685,11.2882,15.2507,17.2742,18.503,19.3286,19.9215,20.368,20.7163,20.9957
1.06613,11.1952,15.1433,17.1587,18.3811,19.2014,19.79,20.2328,20.578,20.8547
0.929228,10.2644,13.8707,15.7042,16.8136,17.557,18.0898,18.4904,18.8025,19.0526
0.868409,4.44711,4.94733,5.13958,5.24134,5.30433,5.34717,5.37819,5.40169,5.42011
0.915345,6.93753,9.7446,11.721,13.2233,14.4109,15.3755,16.1753,16.8495,17.4258
0.802759,8.11703,12.3312,14.9935,16.7426,17.9481,18.8162,19.465,19.9654,20.3612
1.01057,12.3245,18.4396,21.7002,23.6227,24.8698,25.7395,26.3794,26.8697,27.2575
0.828399,11.4206,16.5072,19.006,20.4614,21.4145,22.0887,22.5915,22.9813,23.2926
0.813034,12.1015,16.9744,19.3298,20.7218,21.6456,22.305,22.7997,23.1848,23.4932
0.828739,12.9844,17.8704,20.2611,21.6934,22.6509,23.3369,23.8527,24.2548,24.577
0.894101,14.5923,19.884,22.5138,24.1006,25.1641,25.9268,26.5006,26.948,27.3066
0.899456,15.4595,21.0821,23.9294,25.6592,26.8222,27.6578,28.2873,28.7785,29.1725
0.831205,14.6515,19.8001,22.382,23.9367,24.9753,25.718,26.2755,26.7094,27.0566
0.879014,16.0995,21.8062,24.7095,26.4727,27.6577,28.5092,29.1506,29.6512,30.0528
0.927737,17.4142,23.492,26.566,28.4228,29.6657,30.5558,31.2247,31.7456,32.1627
0.891971,17.2885,23.361,26.4533,28.3289,29.5882,30.4922,31.1727,31.7035,32.1291
0.882602,17.669,23.8977,27.0718,28.9959,30.2868,31.2128,31.9095,32.4526,32.8878
0.922517,18.9345,25.5637,28.9306,30.9675,32.3324,33.3108,34.0464,34.6197,35.079
0.923128,19.4258,26.212,29.6605,31.7483,33.1481,34.152,34.9072,35.4959,35.9677
0.916472,19.8147,26.7569,30.2917,32.434,33.8713,34.9024,35.6782,36.2832,36.768
0.906841,20.0927,27.1252,30.7037,32.8712,34.3247,35.3671,36.1512,36.7624,37.2522
0.826108,18.3787,24.6298,27.7759,29.6703,30.9359,31.8414,32.5212,33.0504,33.474
0.859141,19.6863,26.5734,30.1082,32.2633,33.7153,34.7605,35.5488,36.1647,36.6592
0.84988,19.8178,26.6921,30.1861,32.2989,33.7135,34.7267,35.4879,36.0807,36.5554
0.90865,21.8587,29.5708,33.5198,35.9198,37.5328,38.6914,39.5641,40.245,40.7912
0.902494,22.1771,29.9416,33.8867,36.2719,37.8691,39.0132,39.8731,40.5429,41.0794
0.923966,23.2748,31.4497,35.6131,38.136,39.8286,41.043,41.9568,42.6694,43.2406
0.900188,22.8999,30.7948,34.785,37.1929,38.8038,39.9573,40.8239,41.4989,42.0394
0.907075,23.7743,32.1466,36.4333,39.0411,40.7954,42.0565,43.0067,43.7485,44.3437
0.866282,22.8435,30.7075,34.6844,37.0837,38.6883,39.8368,40.6993,41.3708,41.9084
0.925975,25.1663,34.0419,38.5933,41.3639,43.2284,44.5691,45.5797,46.3687,47.0018
0.8966,24.9917,33.8204,38.3246,41.0536,42.8833,44.1951,45.1814,45.95,46.5657
0.855278,23.9163,32.1429,36.294,38.7961,40.4688,41.6661,42.5653,43.2655,43.8262
0.915745,26.2092,35.3809,40.0701,42.9212,44.8389,46.2173,47.2561,48.067,48.7176
0.892543,26.0318,35.1476,39.7954,42.6125,44.5021,45.8572,46.8764,47.6708,48.3073
0.859785,25.3794,34.1749,38.6343,41.3288,43.1329,44.4253,45.3967,46.1534,46.7596
0.902888,26.999,36.3531,41.1103,43.9924,45.9261,47.3135,48.3575,49.1717,49.8243
0.923588,28.3539,38.354,43.4775,46.5929,48.6873,50.192,51.3253,52.2096,52.9188
0.884329,27.5343,37.1362,42.0083,44.9516,46.9214,48.3318,49.3915,50.2167,50.8775
0.830758,12.7102,14.4554,15.1487,15.5209,15.7533,15.9122,16.0277,16.1154,16.1844
0.870852,18.5064,25.9517,30.9895,34.7128,37.5947,39.897,41.7805,43.351,44.6808
0.884544,23.4063,34.7351,41.5601,45.938,48.9184,51.0513,52.6407,53.8648,54.8331
0.841736,25.392,37.0326,43.1111,46.6952,49.0309,50.6677,51.8773,52.8074,53.5451
0.847444,27.507,38.9234,44.5303,47.8187,49.9831,51.5187,52.6663,53.5572,54.2692
0.854996,29.0511,40.2554,45.7363,48.9991,51.1722,52.7261,53.8933,54.8026,55.5311
0.859562,30.2805,41.539,47.1322,50.5025,52.7611,54.3815,55.601,56.5521,57.3147
0.884451,32.1198,43.8203,49.6921,53.2422,55.6225,57.3298,58.6142,59.6155,60.4179
0.85208,31.5884,42.8856,48.5782,52.0204,54.3274,55.9814,57.2252,58.1947,58.9715
0.88509,33.4803,45.3616,51.3754,55.016,57.4573,59.2082,60.5254,61.5522,62.3751
0.853914,32.8139,44.3612,50.2103,53.7492,56.121,57.8214,59.1001,60.0967,60.8953
0.850708,33.0777,44.6261,50.4781,54.0181,56.3905,58.0914,59.3705,60.3674,61.1662
0.87496,34.4656,46.4911,52.6024,56.3045,58.7879,60.5694,61.9097,62.9547,63.7924
0.877171,35.1625,47.5084,53.8041,57.6232,60.1869,62.0267,63.4114,64.4912,65.3568
0.860567,34.5002,46.3614,52.3532,55.9674,58.3845,60.1147,61.4144,62.4264,63.2367
0.866548,35.3342,47.6769,53.9842,57.8175,60.3947,62.2466,63.6418,64.7308,65.6043
0.865537,35.9734,48.6393,55.1102,59.0361,61.671,63.5614,64.9836,66.0924,66.981
0.85319,35.8348,48.3415,54.6901,58.5274,61.0969,62.9376,64.3211,65.3988,66.2621
0.865034,36.8662,49.7835,56.3646,60.3546,63.0325,64.9544,66.401,67.5291,68.4336
0.909536,39.1178,52.7374,59.6544,63.8392,66.6435,68.6536,70.165,71.3428,72.2864
0.878837,38.2688,51.6373,58.4486,62.5787,65.3507,67.3401,68.8373,70.0049,70.941
0.875611,38.5714,52.0313,58.8798,63.0272,65.8079,67.8019,69.3016,70.4705,71.4071
0.884764,39.2859,52.9298,59.8603,64.0541,66.865,68.8802,70.3956,71.5768,72.5232
0.861974,38.4269,51.6894,58.4212,62.4945,65.2248,67.1823,68.6546,69.8022,70.7218
0.885176,40.2081,54.3248,61.55,65.9418,68.8941,71.0149,72.6123,73.8587,74.8583
0.870072,39.7245,53.4912,60.4705,64.6857,67.5064,69.526,71.0433,72.2248,73.1709
0.891447,41.199,55.5507,62.8586,67.288,70.2604,72.3934,73.9987,75.2506,76.2543
0.869806,40.9185,55.3331,62.7041,67.1806,70.1878,72.347,73.9726,75.2406,76.2573
0.875133,41.6788,56.2928,63.7248,68.2212,71.2337,73.3926,75.0155,76.2799,77.2929
0.882247,42.496,57.3677,64.9306,69.5097,72.5802,74.7823,76.4389,77.7303,78.7653
0.868411,41.5507,55.7142,62.8459,67.1412,70.0117,72.0655,73.6077,74.8084,75.7696
0.854038,41.6211,56.1807,63.6414,68.1847,71.2436,73.4439,75.1028,76.3984,77.4382
0.899388,44.6537,60.4157,68.4774,73.3699,76.6533,79.0088,80.7808,82.162,83.2689
0.860782,42.5942,57.3421,64.824,69.3469,72.3763,74.5471,76.1791,77.4508,78.4696
0.85601,43.1123,58.269,66.021,70.7312,73.8969,76.1709,77.8836,79.22,80.2919
0.884679,45.2493,61.1869,69.3125,74.2355,77.5366,79.9036,81.6837,83.071,84.1826
0.869197,45.0602,60.9247,69.0048,73.8995,77.1822,79.5366,81.3078,82.6886,83.7952
0.868905,45.3453,61.1473,69.1593,74.0018,77.245,79.5688,81.3157,82.6768,83.7671
0.876428,45.6754,61.3705,69.3078,74.102,77.3123,79.6126,81.3418,82.6891,83.7686
0.906637,47.3944,63.6986,71.9848,77.0056,80.3746,82.792,84.6112,86.0299,87.1671
0.906794,48.3612,65.3926,74.134,79.4552,83.0351,85.6081,87.5466,89.0595,90.2732
0.8745,47.3208,64.0076,72.525,77.6862,81.1467,83.6277,85.4933,86.9471,88.1119
0.866229,47.3417,63.9223,72.3429,77.4339,80.8436,83.2869,85.1236,86.5548,87.7013
