1.90601,1.93733,1.94801,1.95339,1.95663,1.9588,1.96035,1.96151,1.96242,1.96315
1.41119,1.94344,2.21633,2.38226,2.49381,2.57394,2.63429,2.68138,2.71915,2.75011
1.20457,2.07252,2.50152,2.74382,2.89688,3.00157,3.07741,3.13476,3.1796,3.21559
1.2298,2.61825,3.3071,3.68699,3.92369,4.08449,4.20063,4.28838,4.35698,4.41208
1.28109,3.40777,4.49683,5.09502,5.46717,5.72002,5.90274,6.04088,6.14895,6.23579
1.0735,3.26383,4.26877,4.77927,5.08315,5.28393,5.42627,5.53238,5.61449,5.67992
1.02859,3.72616,5.00149,5.67083,6.08133,6.35896,6.55937,6.71091,6.82953,6.92493
1.16097,4.79439,6.42959,7.26135,7.76137,8.09453,8.33223,8.51028,8.6486,8.75912
1.31796,5.34237,6.79279,7.47027,7.8616,8.11647,8.29569,8.4286,8.53111,8.61258
0.981347,4.86792,6.64126,7.61781,8.24247,8.67801,8.99955,9.24684,9.44303,9.6025
1.26213,7.23222,9.95299,11.3757,12.2399,12.8171,13.2287,13.5364,13.7749,13.9651
0.954341,5.77349,7.71007,8.65314,9.20644,9.56957,9.8261,10.017,10.1645,10.282
0.953568,6.49388,8.82871,10.0271,10.7592,11.254,11.6113,11.8815,12.0931,12.2634
0.95449,7.11972,9.66482,10.9515,11.7264,12.2438,12.6135,12.8908,13.1063,13.2786
0.940406,7.54142,10.1831,11.5068,12.3014,12.8313,13.2099,13.4939,13.7148,13.8916
1.03216,8.82734,11.8812,13.4124,14.3336,14.9489,15.3892,15.7199,15.9773,16.1834
1.13289,10.3251,13.8966,15.6959,16.7811,17.5073,18.0273,18.418,18.7224,18.9662
0.932491,9.0405,12.1706,13.7489,14.7005,15.3369,15.7923,16.1344,16.4007,16.6139
1.0382,10.6111,14.2586,16.0934,17.198,17.936,18.464,18.8603,19.1688,19.4158
1.00375,10.6592,14.2479,16.0423,17.1194,17.8377,18.351,18.736,19.0355,19.2752
0.934122,10.246,13.6564,15.3661,16.395,17.0826,17.5745,17.9441,18.2318,18.4622
0.990421,11.5207,15.4941,17.5217,18.7532,19.5807,20.175,20.6226,20.9717,21.2517
1.25941,15.4049,20.7354,23.4352,25.0637,26.1521,26.9306,27.5149,27.9697,28.3336
0.989697,12.2913,16.3479,18.3594,19.5596,20.3569,20.925,21.3503,21.6806,21.9446
0.912894,12.0305,16.2007,18.3334,19.6319,20.5063,21.1355,21.6101,21.9809,22.2786
0.977511,13.472,18.1417,20.5063,21.9323,22.8852,23.5667,24.0781,24.476,24.7943
1.03626,14.8915,20.0376,22.6325,24.1949,25.2387,25.9852,26.5457,26.982,27.3312
0.981448,14.495,19.4044,21.8609,23.3351,24.318,25.0202,25.547,25.9568,26.2846
0.979122,15.0586,20.2265,22.8396,24.4187,25.4766,26.235,26.8053,27.2498,27.606
1.04104,16.3704,21.8777,24.635,26.29,27.3935,28.1816,28.7726,29.2322,29.5998
1.11757,17.0317,22.3183,24.9021,26.4355,27.4511,28.1736,28.7138,29.133,29.4678
0.952043,15.552,20.9614,23.7835,25.5247,26.7079,27.5648,28.2143,28.7236,29.1337
1.0633,18.2627,24.704,27.9979,29.9893,31.3203,32.2717,32.985,33.5396,33.983
0.975302,17.256,23.2062,26.1908,27.9789,29.169,30.018,30.6541,31.1485,31.5439
0.994835,18.3283,24.7091,27.9346,29.8816,31.1853,32.1195,32.822,33.3695,33.8083
0.900453,17.1355,23.0612,26.0438,27.8392,29.0385,29.8962,30.54,31.0412,31.4422
0.96108,18.7671,25.2001,28.4339,30.3807,31.6814,32.612,33.3108,33.8548,34.2904
0.995441,18.6271,24.4064,27.2131,28.8724,29.9687,30.7469,31.328,31.7784,32.1378
0.938178,19.1049,25.9496,29.5584,31.8,33.3304,34.4427,35.2879,35.9521,36.4878
0.98427,20.9772,28.4787,32.3065,34.6149,36.1545,37.2529,38.0754,38.714,39.224
0.94442,20.1763,26.9635,30.3181,32.3125,33.6339,34.5738,35.2766,35.822,36.2576
0.979886,21.9094,29.5841,33.4962,35.8743,37.4748,38.6263,39.4948,40.1733,40.7181
0.963616,22.6299,30.714,34.8345,37.3295,39.0014,40.1993,41.0996,41.8008,42.3623
1.00622,20.8059,26.6872,29.4243,31.0041,32.0319,32.7539,33.2888,33.701,34.0284
0.915155,21.3792,29.2335,33.5129,36.2363,38.1291,39.5232,40.5936,41.4418,42.1305
0.918795,22.6937,31.0273,35.3196,37.9105,39.6356,40.8632,41.7801,42.4902,43.056
1.02103,26.5495,36.243,41.1484,44.0944,46.0575,47.4592,48.5103,49.3279,49.982
0.994548,25.2272,33.5128,37.5319,39.9016,41.4648,42.5737,43.4014,44.0428,44.5545
0.923295,23.9821,32.1038,36.2076,38.6983,40.3745,41.5807,42.4908,43.202,43.7732
1.00212,27.3253,37.0126,41.9885,45.0205,47.0609,48.5273,49.6318,50.4934,51.1844
0.936594,26.9877,36.8028,41.8278,44.8731,46.9137,48.3755,49.474,50.3295,51.0145
0.973516,15.5887,18.0657,19.057,19.5896,19.9217,20.1486,20.3134,20.4386,20.5368
0.932175,19.9647,27.7936,32.8467,36.4671,39.2072,41.3589,43.0956,44.5276,45.7291
0.935497,24.2337,35.2584,41.6451,45.6716,48.3913,50.331,51.7748,52.8868,53.7671
0.905323,25.5698,36.173,41.5183,44.6351,46.6574,48.0719,49.1159,49.9182,50.5541
0.946227,29.3784,41.3236,47.2997,50.8617,53.2319,54.9262,56.1993,57.1916,57.9872
1.01437,32.9629,45.4121,51.4938,55.0992,57.4892,59.1909,60.4646,61.4538,62.2442
0.929964,31.5191,43.0785,48.798,52.23,54.5232,56.1649,57.3987,58.3599,59.13
0.97011,33.9012,46.0236,52.0521,55.6751,58.0951,59.8263,61.1262,62.1381,62.9482
0.921958,32.8905,44.3937,50.1282,53.5749,55.8764,57.5224,58.758,59.7197,60.4896
1.01517,37.0091,49.8827,56.3467,60.2442,62.8516,64.7188,66.1219,67.2148,68.0902
0.978347,36.2305,48.7127,54.9812,58.7564,61.2793,63.0843,64.4397,65.4949,66.3396
0.950439,35.8376,48.1863,54.4106,58.1654,60.6774,62.476,63.8275,64.8801,65.7231
0.944032,35.7772,47.9115,54.0006,57.6631,60.1086,61.8573,63.1699,64.1914,65.0089
0.964964,36.828,49.2747,55.5396,59.3158,61.8413,63.6493,65.0076,66.0655,66.9127
0.91687,35.4106,47.4508,53.5388,57.2161,59.6782,61.4421,62.7678,63.8007,64.6281
0.937893,36.1418,48.2341,54.3069,57.9591,60.3972,62.1403,63.4483,64.4662,65.2807
0.90932,35.9618,48.3892,54.7325,58.5841,61.1718,63.0302,64.4298,65.5217,66.3974
0.98347,39.6079,53.3182,60.2679,64.4624,67.2674,69.2746,70.7818,71.955,72.8941
0.915282,35.6879,47.2196,52.9011,56.2806,58.5212,60.1155,61.308,62.2335,62.9728
0.987124,39.7659,53.4568,60.4873,64.7816,67.6805,69.7704,71.3489,72.5834,73.5755
0.934407,35.4463,46.4516,51.8232,54.9991,57.0948,58.5805,59.6883,60.5459,61.2294
0.958736,38.9187,52.794,60.1068,64.6431,67.7372,69.9843,71.6911,73.0318,74.113
0.957238,40.2461,54.6413,62.0006,66.4428,69.4074,71.5236,73.1089,74.3401,75.3238
0.933751,39.7146,53.4896,60.3847,64.5109,67.2558,69.2135,70.6802,71.8202,72.7318
0.948716,41.3814,55.8468,63.1536,67.5645,70.5185,72.6359,74.2284,75.4697,76.4645
0.923703,41.2778,55.7351,63.0392,67.4462,70.3946,72.5055,74.0913,75.3263,76.3152
0.948711,42.3048,56.6622,63.8351,68.1378,71.0061,73.0548,74.5914,75.7864,76.7425
1.02146,45.8153,61.3204,69.1182,73.8194,76.9647,79.2174,80.9104,82.2293,83.2859
0.938724,42.2694,56.5358,63.7251,68.061,70.9613,73.0378,74.5979,75.8128,76.7857
0.92114,42.277,56.8215,64.2133,68.6893,71.6906,73.8429,75.4618,76.7237,77.7349
0.962524,44.88,60.3587,68.1944,72.9224,76.0844,78.3474,80.0469,81.37,82.4293
0.936828,44.2883,59.546,67.2533,71.9006,75.0081,77.2322,78.9029,80.2037,81.2454
0.926969,18.247,20.3181,21.115,21.5369,21.7981,21.9757,22.1043,22.2017,22.2781
0.921705,26.2801,36.9879,44.5314,50.2682,54.8053,58.4916,61.5491,64.1274,66.3315
0.944376,34.6092,52.2247,63.1734,70.2838,75.1434,78.621,81.208,83.1949,84.762
0.901663,38.6714,57.3834,67.2194,72.978,76.6994,79.2888,81.1915,82.6482,83.7994
0.933735,44.0825,63.2502,72.5738,77.9816,81.5152,84.0108,85.8702,87.3107,88.4603
0.988288,49.2273,68.6264,77.922,83.3915,87.011,89.5891,91.5205,93.0222,94.2236
0.903917,42.876,57.067,63.6725,67.529,70.0659,71.8635,73.2045,74.2434,75.0721
0.940979,47.7302,65.1559,74.1104,79.6432,83.4148,86.154,88.2347,89.8695,91.1879
0.920931,47.6684,64.5625,73.0329,78.1238,81.515,83.9328,85.7425,87.1471,88.2687
0.908392,43.6799,57.1935,63.6734,67.482,69.9892,71.7649,73.0886,74.1136,74.9308
0.924531,47.223,63.9258,72.6751,78.1023,81.8066,84.4987,86.5448,88.1529,89.4503
0.973675,51.7115,70.2916,79.8151,85.5806,89.436,92.1916,94.2577,95.8635,97.147
0.92926,51.1422,69.5627,78.9087,84.5414,88.3039,90.9945,93.0142,94.5861,95.8443
0.930561,52.4472,71.0507,80.3978,86.0122,89.7574,92.4339,94.4421,96.0046,97.255
0.99242,55.6465,74.5497,83.9281,89.5351,93.2665,95.9292,97.925,99.4766,100.718
0.91616,52.4261,70.596,79.8006,85.3786,89.1241,91.8138,93.8393,95.4199,96.6875
0.907735,51.3771,68.5842,77.1735,82.3237,85.7548,88.204,90.0397,91.4667,92.6077
