1.8026,1.83932,1.85189,1.85825,1.86208,1.86464,1.86648,1.86786,1.86893,1.86979
1.50234,2.06915,2.35828,2.5336,2.65123,2.73564,2.79915,2.84866,2.88836,2.92088
2.27197,4.03211,4.94443,5.47346,5.81311,6.04795,6.21942,6.34986,6.45229,6.53481
1.22173,2.58066,3.22884,3.57573,3.78743,3.92912,4.03035,4.10618,4.16508,4.21212
1.27098,3.35609,4.41526,4.99948,5.36538,5.61553,5.79729,5.93532,6.04372,6.13111
1.06913,3.38455,4.52503,5.1285,5.49613,5.74254,5.91891,6.05128,6.15424,6.23659
1.06429,3.91322,5.24992,5.93748,6.35208,6.62891,6.82678,6.97526,7.09078,7.18322
1.02855,4.29987,5.76999,6.51704,6.96706,7.26777,7.48295,7.64455,7.77038,7.87114
1.02844,4.81745,6.46441,7.29811,7.80076,8.13694,8.37763,8.55847,8.69931,8.81211
1.24856,6.49395,8.72733,9.86024,10.545,11.0037,11.3324,11.5796,11.7722,11.9266
1.05664,6.08116,8.19992,9.27858,9.93183,10.3699,10.684,10.9203,11.1045,11.252
1.04132,6.53695,8.80155,9.94691,10.6377,11.0995,11.43,11.6782,11.8715,12.0262
1.13519,7.51488,10.0043,11.2425,11.9832,12.4762,12.8279,13.0914,13.2963,13.4602
1.00962,7.28372,9.80099,11.0892,11.8738,12.4024,12.7828,13.0697,13.2938,13.4738
1.01648,7.88905,10.6255,12.016,12.8565,13.419,13.8217,14.1242,14.3596,14.5481
1.01887,8.41286,11.3032,12.7613,13.6394,14.226,14.6456,14.9606,15.2058,15.4021
1.1418,9.98485,13.4047,15.1321,16.1745,16.8721,17.3717,17.7472,18.0398,18.2742
1.15435,10.8353,14.6301,16.5646,17.7377,18.525,19.0899,19.5151,19.8466,20.1124
1.00057,9.9605,13.4344,15.1925,16.2529,16.9618,17.4691,17.85,18.1465,18.3839
1.11505,11.5781,15.5324,17.5175,18.711,19.5076,20.0772,20.5047,20.8373,21.1036
1.07683,11.0251,14.4835,16.177,17.1833,17.8505,18.3254,18.6806,18.9564,19.1768
1.07718,11.9168,16.0579,18.2151,19.5453,20.4489,21.1032,21.5989,21.9877,22.3007
1.08671,11.9498,15.7693,17.6547,18.7741,19.514,20.0389,20.4304,20.7335,20.9751
0.995233,12.0318,16.3627,18.6385,20.0453,21.0023,21.6959,22.222,22.6347,22.9673
1.13026,14.3768,19.4661,22.0501,23.6048,24.6407,25.3796,25.9328,26.3623,26.7055
0.968466,12.1629,16.0729,17.9813,19.1098,19.8553,20.3847,20.78,21.0865,21.3312
0.949745,12.8397,17.3698,19.7215,21.1688,22.1513,22.8625,23.4014,23.8239,24.1642
0.945044,12.8428,17.0945,19.2076,20.4676,21.303,21.8969,22.3405,22.6844,22.9588
0.965734,14.179,19.2781,21.9284,23.5558,24.6576,25.4536,26.0556,26.5271,26.9063
1.00509,15.7184,21.4268,24.3446,26.1089,27.2889,28.1329,28.7663,29.259,29.6531
1.04111,16.907,22.8669,25.8542,27.6444,28.8364,29.687,30.3246,30.8202,31.2166
1.02449,17.3332,23.4241,26.4942,28.346,29.5855,30.4736,31.1413,31.6617,32.0786
1.01164,16.903,22.4118,25.1175,26.7268,27.7942,28.5539,29.1222,29.5634,29.9157
1.01985,17.8498,24.018,27.1839,29.1194,30.427,31.3702,32.083,32.6406,33.0888
1.07451,19.6279,26.5197,30.0402,32.174,33.6041,34.6287,35.3986,35.9981,36.4781
1.15028,21.348,28.6063,32.24,34.4176,35.8673,36.9015,37.6765,38.2789,38.7605
1.02607,19.894,26.8594,30.4115,32.5679,34.0171,35.0582,35.8426,36.4548,36.9459
1.08213,21.594,29.0863,32.8702,35.1502,36.6736,37.7631,38.5808,39.2171,39.7263
1.00619,18.147,23.3926,25.8765,27.3252,28.2743,28.9443,29.4426,29.8276,30.1342
0.987625,19.6116,26.611,30.3724,32.7429,34.3786,35.5769,36.4931,37.2166,37.8026
1.02823,21.6638,29.5575,33.6446,36.1239,37.7815,38.9652,39.8518,40.54,41.0896
1.01545,22.3059,30.3105,34.3585,36.7886,38.4072,39.5624,40.4282,41.1014,41.6398
1.05736,23.6597,31.8807,35.9934,38.4601,40.105,41.2806,42.1628,42.8494,43.399
0.979802,10.7812,12.2132,12.7755,13.0763,13.2638,13.3919,13.4849,13.5556,13.6111
1.05495,16.2665,22.7383,27.1125,30.3453,32.8476,34.8465,36.4819,37.8454,38.9999
0.957504,18.4522,27.2561,32.5279,35.8958,38.1816,39.8135,41.0273,41.9605,42.6979
0.967891,21.692,31.719,36.9784,40.0862,42.1137,43.5356,44.5869,45.3957,46.0373
0.945625,23.0858,32.7045,37.3996,40.1377,41.9321,43.2012,44.1474,44.8805,45.4655
0.892914,12.9756,15.296,16.1889,16.6632,16.9585,17.1604,17.3074,17.4191,17.507
0.974562,18.9715,26.6652,31.5295,34.9927,37.6057,39.6534,41.3035,42.6624,43.8015
0.934089,19.2303,26.5215,30.3434,32.6311,34.1286,35.1746,35.942,36.5266,36.9857
0.8892,20.385,28.4969,32.7161,35.2701,36.9784,38.2018,39.1217,39.839,40.4143
0.894557,23.4855,33.4543,38.6802,41.873,44.0243,45.5725,46.7401,47.6521,48.3842
0.903704,25.4341,35.5162,40.5199,43.4871,45.4482,46.8399,47.8786,48.6834,49.3251
0.93133,27.5646,37.9687,43.1036,46.169,48.2098,49.6676,50.7615,51.6128,52.2944
0.98958,28.3187,37.6629,42.1201,44.7411,46.4694,47.6953,48.6102,49.3193,49.8849
0.904125,25.8981,34.4629,38.7334,41.3172,43.0536,44.3021,45.2433,45.9786,46.5689
0.89965,27.4251,37.307,42.4502,45.6166,47.7625,49.3124,50.4841,51.401,52.1379
0.910344,27.4515,36.6658,41.2329,43.9501,45.7483,47.0251,47.9781,48.7163,49.3049
0.93344,28.5302,38.1881,43.0582,46,47.9716,49.386,50.4504,51.2807,51.9466
0.934308,30.3264,41.3128,47.0074,50.4938,52.8477,54.5439,55.824,56.8245,57.6278
0.953953,30.1357,40.0517,44.9135,47.7891,49.6864,51.031,52.0335,52.8094,53.4278
0.952581,31.7358,43.0209,48.8483,52.4199,54.8372,56.5836,57.9048,58.9397,59.7723
0.927485,32.054,43.5153,49.3539,52.8829,55.2434,56.9321,58.1995,59.1855,59.9743
0.926559,33.0855,44.8802,50.8476,54.4443,56.8481,58.5678,59.8592,60.8645,61.6693
0.942739,34.8849,47.3727,53.6985,57.5189,60.0765,61.9088,63.2861,64.3592,65.2188
0.913593,34.2457,46.1676,52.1377,55.722,58.1125,59.8205,61.1018,62.0985,62.8959
0.913511,35.1077,47.4011,53.615,57.3706,59.8872,61.6916,63.0487,64.1067,64.9546
0.935314,34.0996,44.8848,50.1386,53.2496,55.3066,56.7677,57.8589,58.705,59.3802
0.943161,31.573,40.8285,45.3486,48.043,49.8355,51.1149,52.0744,52.8209,53.4182
0.901883,32.9629,44.81,51.2059,55.2327,58.0046,60.03,61.5749,62.7923,63.7763
0.927439,35.6424,48.7057,55.4787,59.5847,62.328,64.2864,65.7528,66.8913,67.8002
0.920472,34.0655,45.1993,50.6213,53.8101,55.9074,57.3914,58.4969,59.3523,60.0339
0.914858,36.2405,49.4102,56.2768,60.5108,63.3894,65.4759,67.0587,68.3009,69.3021
0.917846,37.6211,51.1862,58.0826,62.2414,65.0176,67.0004,68.4866,69.6414,70.5645
0.963418,40.6273,55.1105,62.4106,66.8021,69.7339,71.8302,73.4037,74.6283,75.6086
0.942434,37.8352,49.9299,55.7952,59.2589,61.5461,63.1696,64.3817,65.3213,66.071
0.945115,39.1428,52.5958,59.5101,63.7477,66.617,68.6905,70.2596,71.4887,72.4776
0.931446,40.1415,54.4556,61.8276,66.316,69.3322,71.4969,73.1253,74.3945,75.4112
0.926892,40.994,55.5354,62.9112,67.3568,70.3258,72.4482,74.0407,75.2796,76.2709
0.905392,34.9426,44.9305,49.6189,52.3396,54.1167,55.3689,56.2989,57.0169,57.588
0.921897,38.7976,52.6653,60.1386,64.8615,68.1279,70.525,72.3606,73.8117,74.988
0.906254,39.7509,54.1314,61.5564,66.0529,69.0552,71.1969,72.7996,74.043,75.0351
0.912791,40.9741,55.5139,62.8507,67.2521,70.183,72.2745,73.8422,75.061,76.0358
0.924638,43.1056,58.607,66.4801,71.2403,74.4304,76.7181,78.4391,79.781,80.8566
0.917274,39.7789,52.1604,58.0994,61.5832,63.8733,65.4934,66.7,67.6334,68.3769
0.905789,39.3018,52.1478,58.6687,62.6434,65.3268,67.2623,68.7253,69.8703,70.791
0.940321,43.6889,59.6239,68.0319,73.2307,76.7611,79.3137,81.2449,82.7565,83.9717
0.938307,45.282,61.7434,70.1508,75.2187,78.5981,81.0095,82.8156,84.2185,85.3394
0.916555,43.6389,58.4121,65.6988,70.0266,72.8928,74.9311,76.4551,77.6378,78.5824
0.90801,19.36,21.7509,22.6844,23.1834,23.4945,23.7072,23.8618,23.9793,24.0717
0.894891,26.9952,37.8618,45.3587,50.977,55.3708,58.909,61.8222,64.2638,66.3405
0.892662,33.8178,50.3753,60.4379,66.9032,71.2991,74.4376,76.7702,78.5618,79.9754
0.900921,40.2321,59.6658,69.9995,76.1256,80.1247,82.9288,85.0015,86.5957,87.8601
0.883162,43.6932,62.9204,72.3773,77.8923,81.5044,84.0576,85.9604,87.4344,88.6105
0.883597,42.5329,57.5991,64.5093,68.4792,71.0667,72.8904,74.2462,75.2943,76.1289
0.917782,47.3472,65.14,74.1289,79.6406,83.3864,86.1034,88.1661,89.7861,91.0925
0.88896,45.9173,62.0034,69.9226,74.6533,77.7967,80.0351,81.7091,83.0078,84.0445
0.90496,47.7434,64.5072,72.9366,78.0356,81.4557,83.91,85.7573,87.1982,88.3537
0.895175,44.7947,59.0209,65.9388,70.037,72.7473,74.6725,76.1105,77.2253,78.1149
