1.83235,1.87468,1.88923,1.89659,1.90103,1.90401,1.90614,1.90774,1.90898,1.90998
1.31992,1.77799,2.00319,2.13707,2.2258,2.28892,2.33612,2.37275,2.402,2.4259
1.28812,2.29137,2.82523,3.14148,3.34771,3.49198,3.59827,3.67969,3.744,3.79604
1.111,2.48526,3.20354,3.60526,3.85609,4.02625,4.14885,4.24123,4.31327,4.371
1.05728,2.86393,3.76803,4.2509,4.54559,4.74323,4.88479,4.99111,5.07387,5.14012
1.37782,4.40908,5.86851,6.63041,7.09283,7.40279,7.62495,7.79197,7.92213,8.02641
1.006,3.48823,4.53532,5.05098,5.35571,5.55681,5.69943,5.80584,5.88828,5.95403
0.99324,4.05876,5.45953,6.20043,6.66004,6.97359,7.20137,7.37441,7.51037,7.62002
1.1344,5.14319,6.87201,7.74785,8.27365,8.62345,8.87262,9.059,9.20359,9.31901
1.24143,6.43367,8.73096,9.92128,10.6483,11.1385,11.4916,11.758,11.9662,12.1334
0.940229,5.162,6.8577,7.6945,8.19115,8.51964,8.75291,8.92707,9.06205,9.16971
1.01372,6.28119,8.52016,9.68152,10.3945,10.8775,11.2266,11.4908,11.6978,11.8644
1.12633,7.52912,10.1395,11.4559,12.2468,12.7739,13.1499,13.4316,13.6504,13.8252
1.08934,7.94346,10.7411,12.1646,13.0267,13.605,14.02,14.3323,14.5758,14.7711
1.12825,8.79858,11.8492,13.3868,14.3127,14.9311,15.3735,15.7055,15.9639,16.1708
0.95782,8.07985,10.9334,12.3869,13.2683,13.8599,14.2846,14.6043,14.8537,15.0537
1.05025,9.41605,12.7001,14.3585,15.3582,16.0263,16.5044,16.8633,17.1427,17.3663
1.05291,9.6015,12.7396,14.2898,15.2143,15.8285,16.2662,16.594,16.8486,17.0521
1.01979,9.92269,13.34,15.0949,16.1674,16.8917,17.414,17.8085,18.1172,18.3652
0.980444,10.2551,13.9012,15.7773,16.9189,17.686,18.2366,18.6509,18.9739,19.2327
1.024,11.1605,15.0114,16.948,18.1103,18.8846,19.4373,19.8515,20.1734,20.4309
1.01013,11.7079,15.8409,17.9495,19.2291,20.0889,20.7065,21.1717,21.5347,21.826
1.03429,12.6113,17.0481,19.2982,20.6574,21.5672,22.2186,22.7081,23.0892,23.3944
0.927589,11.567,15.5838,17.6346,18.8819,19.7212,20.3249,20.78,21.1354,21.4207
1.13235,14.7496,19.8772,22.482,24.0571,25.1117,25.8671,26.4347,26.8767,27.2307
0.957065,12.1745,16.0226,17.9053,19.0213,19.7596,20.2841,20.676,20.98,21.2226
0.968298,13.3933,18.1734,20.685,22.241,23.3014,24.0711,24.6555,25.1143,25.4842
0.96896,14.2401,19.3812,22.0216,23.6212,24.6914,25.4569,26.0312,26.4777,26.8348
1.08739,15.7178,20.8479,23.3609,24.8482,25.8308,26.5282,27.049,27.4526,27.7747
1.01476,15.8379,21.5205,24.4769,26.2973,27.5333,28.4281,29.1062,29.6379,30.0661
0.990925,16.0695,21.7262,24.5888,26.3115,27.4601,28.28,28.8941,29.3713,29.7525
0.98254,16.5779,22.3967,25.3386,27.1132,28.3002,29.1503,29.7891,30.2867,30.6854
0.992532,16.9156,22.6216,25.4676,27.1734,28.31,29.1217,29.7304,30.2039,30.5826
1.06966,18.2858,24.3069,27.3154,29.1241,30.3324,31.1969,31.8462,32.3518,32.7567
0.970927,17.4222,23.4908,26.6175,28.5286,29.8184,30.7476,31.4489,31.9971,32.4374
0.983344,18.4964,25.0637,28.4282,30.4687,31.8367,32.8171,33.5539,34.1278,34.5874
0.945175,18.3187,24.7252,27.9613,29.909,31.2094,32.139,32.8366,33.3793,33.8137
0.980538,18.3628,24.205,27.059,28.7504,29.8698,30.6656,31.2603,31.7218,32.0902
0.959721,19.2835,26.1557,29.7535,31.9785,33.4934,34.5921,35.4258,36.0802,36.6075
1.07854,22.0142,29.5804,33.3907,35.6759,37.1956,38.2782,39.0879,39.7162,40.2177
0.945844,20.0352,27.05,30.6217,32.7857,34.2377,35.2799,36.0644,36.6764,37.1672
0.954999,20.9114,28.2444,31.964,34.211,35.7149,36.7919,37.6012,38.2315,38.7362
0.93868,20.9465,28.1579,31.7843,33.9657,35.4222,36.4637,37.2454,37.8538,38.3407
0.948507,21.4664,28.7838,32.4712,34.6954,36.1838,37.25,38.0514,38.6757,39.1759
0.937208,21.1117,28.0945,31.5864,33.6838,35.0834,36.0837,36.8344,37.4185,37.8859
0.959862,21.9379,29.5749,33.5623,36.0238,37.6971,38.9093,39.8282,40.5489,41.1294
1.00699,24.4392,33.3455,37.9724,40.7956,42.6939,44.0564,45.0812,45.8798,46.5195
0.943987,23.7179,32.2017,36.4946,39.0739,40.7926,42.0192,42.9384,43.6529,44.2241
0.930732,24.0315,32.4996,36.7628,39.328,41.0418,42.2681,43.1892,43.9064,44.4808
1.07843,27.0979,35.9326,40.2752,42.86,44.5756,45.7976,46.7123,47.4228,47.9905
1.02733,26.5315,35.5966,40.2324,43.0612,44.9699,46.3456,47.3845,48.1969,48.8496
0.992601,26.6909,36.1327,40.9903,43.9482,45.937,47.3653,48.4403,49.2787,49.9506
0.95162,25.988,34.9698,39.494,42.2118,44.0232,45.3164,46.2858,47.0393,47.6418
1.01672,28.3657,38.1879,43.1587,46.1615,48.1727,49.6143,50.6985,51.5435,52.2207
1.00771,28.7934,38.8021,43.8755,46.9422,48.9963,50.4683,51.5748,52.437,53.1277
1.00218,29.2965,39.493,44.6606,47.7832,49.8742,51.3722,52.4981,53.3753,54.078
0.938092,15.2922,17.715,18.6995,19.2332,19.5681,19.7978,19.9652,20.0925,20.1927
0.938649,20.3662,28.3182,33.4597,37.1423,39.9275,42.1131,43.876,45.3287,46.547
0.918643,23.0934,32.9727,38.5514,42.0156,44.3333,45.9758,47.193,48.1273,48.8652
0.90762,25.5423,36.3428,41.9547,45.3003,47.5064,49.0679,50.2311,51.1313,51.849
1.04215,32.1645,45.3593,52.0031,55.9627,58.5924,60.4677,61.8736,62.9672,63.8424
0.96302,30.3679,41.5479,46.9578,50.1454,52.2503,53.7452,54.8622,55.7287,56.4205
0.968597,29.2049,38.6714,43.1891,45.8544,47.618,48.8726,49.8113,50.5402,51.1227
0.969906,31.6068,43.1916,49.2462,53.0064,55.5753,57.4433,58.8634,59.9796,60.8801
0.931503,31.6704,43.2312,49.1255,52.689,55.0701,56.7712,58.0462,59.0368,59.8285
1.01538,35.5099,48.2225,54.6257,58.4766,61.0465,62.8834,64.2619,65.3345,66.193
0.985497,34.3723,46.0856,51.8982,55.374,57.6872,59.3379,60.5753,61.5374,62.3069
0.918592,32.5699,43.7805,49.4501,52.884,55.1893,56.8447,58.0913,59.064,59.8442
0.948833,34.089,45.816,51.7517,55.3398,57.7428,59.4644,60.7584,61.7663,62.5736
0.978397,35.0824,46.9298,52.8924,56.4842,58.8846,60.6022,61.892,62.8961,63.6999
0.94516,34.8974,47.074,53.303,57.0901,59.6363,61.4659,62.8442,63.9198,64.7826
1.00698,38.5538,52.3245,59.3824,63.6681,66.545,68.6091,70.162,71.3725,72.3427
1.01335,39.4702,53.3149,60.3005,64.5032,67.3081,69.3127,70.8166,71.9865,72.9225
0.953752,35.8238,47.888,53.9991,57.7048,60.1955,61.9859,63.3353,64.3891,65.235
0.967846,37.7565,51.0982,57.9777,62.1769,65.0063,67.0418,68.5761,69.774,70.7351
0.953959,34.4911,45.1173,50.2582,53.2817,55.2705,56.6775,57.7251,58.5354,59.1807
0.957428,36.9257,50.0402,56.9569,61.2557,64.1931,66.3297,67.9546,69.2323,70.2636
1.01712,39.076,52.333,58.9925,62.9765,65.6207,67.5011,68.9056,69.9941,70.8622
1.03134,40.6636,54.8369,62.0707,66.4597,69.4077,71.5253,73.1205,74.3656,75.3646
0.9304,38.8466,53.1281,60.5281,65.0488,68.0959,70.2884,71.9416,73.2324,74.2683
0.952201,40.3779,54.6615,61.8306,66.1239,68.9792,71.0143,72.5379,73.7211,74.6664
1.13638,49.5114,67.1139,76.0332,81.4278,85.0451,87.6403,89.5935,91.117,92.3386
0.930761,41.6128,56.3921,63.877,68.3996,71.4281,73.5978,75.2286,76.499,77.5166
0.908659,37.0653,48.3036,53.6777,56.8286,58.8995,60.3645,61.4555,62.2996,62.9721
0.954197,37.7114,49.4289,55.3237,58.9018,61.3111,63.046,64.3555,65.3794,66.2021
0.942477,39.6968,53.8302,61.337,66.0026,69.1826,71.4885,73.2367,74.6075,75.7111
1.00149,44.0602,60.109,68.4172,73.4609,76.838,79.2542,81.0671,82.4772,83.6049
0.983058,43.553,58.7458,66.3555,70.9029,73.9239,76.0761,77.6872,78.9385,79.9385
0.934816,43.255,58.8763,66.8696,71.7289,74.9983,77.3496,79.1225,80.5071,81.6187
1.00632,47.0953,63.5721,71.8334,76.7898,80.0922,82.4495,84.2163,85.5895,86.6875
0.960563,46.0482,62.2882,70.5182,75.4983,78.8383,81.2346,83.038,84.4444,85.572
0.936082,43.7063,58.1762,65.3402,69.6181,72.4616,74.4885,76.0063,77.1855,78.1279
0.996896,48.2693,65.244,73.9844,79.3309,82.9428,85.5478,87.5157,89.0551,90.2923
0.954948,47.2618,63.9317,72.4232,77.5598,80.998,83.4593,85.3075,86.7462,87.8977
0.96886,48.955,66.2161,74.9733,80.2624,83.8021,86.3371,88.2419,89.7257,90.9141
0.981951,44.6758,57.9836,64.3292,68.0421,70.4794,72.2022,73.4845,74.4762,75.266
0.989394,47.1982,63.4719,72.0325,77.359,81.0034,83.6572,85.6771,87.2666,88.5502
0.992204,45.4739,60.103,67.3906,71.7362,74.6147,76.659,78.1844,79.3657,80.3073
0.9882,44.2609,58.4646,65.6112,69.9197,72.8029,74.8687,76.4221,77.6329,78.6034
0.978015,46.3524,62.9272,71.6506,77.0385,80.6977,83.3453,85.3499,86.9203,88.1839
