1.82758,1.85974,1.87071,1.87624,1.87958,1.88181,1.88341,1.88461,1.88554,1.88629
1.35379,1.8376,2.07994,2.22546,2.3225,2.39184,2.44386,2.48432,2.51669,2.54318
1.2345,2.17234,2.65924,2.94283,3.12561,3.2524,3.34522,3.41597,3.47163,3.51654
1.48334,3.23774,4.12575,4.61579,4.91996,5.12571,5.27373,5.38518,5.47205,5.54165
1.10547,2.93831,3.84949,4.33852,4.63848,4.84043,4.98548,5.09467,5.17982,5.24807
1.06606,3.31945,4.38237,4.93293,5.26534,5.48729,5.64588,5.76482,5.85733,5.93132
1.0641,3.82643,5.08864,5.73656,6.12827,6.3905,6.57835,6.71955,6.82956,6.91769
1.02752,4.17351,5.55665,6.2587,6.68164,6.96422,7.16634,7.31809,7.4362,7.53074
1.01446,4.63057,6.19198,6.98587,7.46564,7.78694,8.01716,8.19023,8.32507,8.4331
1.00777,5.16004,6.94194,7.85105,8.4016,8.77069,9.03531,9.23431,9.3894,9.51367
1.00072,5.62964,7.55797,8.53094,9.11639,9.50721,9.78656,9.99616,10.1592,10.2897
1.07569,6.59662,8.85159,9.98889,10.6742,11.1324,11.4604,11.7068,11.8986,12.0523
0.990521,6.55874,8.78872,9.91156,10.5878,11.0398,11.3631,11.606,11.795,11.9464
1.03662,7.40997,9.94707,11.2301,12.005,12.5237,12.8953,13.1747,13.3923,13.5666
0.979405,7.52451,10.1086,11.4147,12.2026,12.7296,13.1068,13.3902,13.6108,13.7875
1.00578,8.28547,11.1449,12.5912,13.464,14.0481,14.4663,14.7805,15.0252,15.2211
1.03237,8.99616,12.0608,13.6003,14.526,15.1438,15.5854,15.9168,16.1747,16.3811
1.02307,9.44041,12.664,14.2903,15.2714,15.9279,16.398,16.7514,17.0266,17.2471
0.970853,9.42643,12.6326,14.2481,15.2215,15.8722,16.3379,16.6875,16.9598,17.1778
0.96458,9.82622,13.1632,14.8457,15.86,16.5383,17.0239,17.3886,17.6726,17.9
0.964552,7.73463,9.47977,10.2523,10.6882,10.9681,11.1631,11.3067,11.4169,11.5041
0.97304,9.5075,12.9934,15.0126,16.3525,17.3114,18.033,18.5964,19.0486,19.4198
0.930748,10.3211,14.3596,16.5319,17.8638,18.7554,19.3907,19.8649,20.2317,20.5234
0.906069,6.63115,7.86579,8.36844,8.63736,8.80423,8.91778,9.00003,9.06236,9.11124
0.914538,8.88962,12.3815,14.5509,16.0652,17.191,18.0635,18.7606,19.3309,19.8062
0.893769,10.5952,15.3366,18.0274,19.7122,20.8488,21.6602,22.2653,22.7324,23.1029
0.90403,12.1072,17.2207,19.8227,21.3554,22.3578,23.063,23.5857,23.9887,24.3089
0.902965,13.2353,18.4872,21.0738,22.6021,23.6126,24.3315,24.8696,25.2877,25.622
0.91608,14.2138,19.4903,22.0651,23.5945,24.6102,25.3347,25.8777,26.2999,26.6377
0.929389,15.1143,20.5328,23.2063,24.8091,25.8792,26.6448,27.2199,27.6678,28.0264
0.912233,15.4714,20.9242,23.6418,25.2774,26.3711,27.154,27.7421,28.2002,28.567
0.901904,15.6231,20.9502,23.5962,25.1831,26.2411,26.9969,27.5638,28.0047,28.3574
0.917964,16.2831,21.8004,24.5671,26.235,27.3508,28.1499,28.7505,29.2184,29.5932
0.898329,16.3909,21.9718,24.7883,26.4893,27.6281,28.4439,29.057,29.5347,29.9172
0.917831,17.2195,23.0977,26.067,27.8589,29.0577,29.916,30.5607,31.0628,31.4648
0.91204,17.7236,23.8452,26.9485,28.8239,30.0797,30.9794,31.6556,32.1824,32.6044
0.925869,18.4462,24.7609,27.9403,29.8536,31.1312,32.0447,32.7303,33.2638,33.6908
0.907494,18.652,25.0766,28.3237,30.2836,31.5952,32.5347,33.2407,33.7907,34.2313
0.926698,19.5439,26.25,29.6305,31.6674,33.0287,34.0027,34.7341,35.3035,35.7593
0.915661,19.9117,26.7842,30.2584,32.3554,33.7588,34.7638,35.519,36.1073,36.5784
0.929487,20.5941,27.609,31.1329,33.2521,34.6667,35.678,36.437,37.0275,37.5001
0.908631,20.7822,27.9616,31.5993,33.7989,35.2729,36.3295,37.1242,37.7435,38.2398
0.927824,21.5266,28.8265,32.4879,34.6874,36.1543,37.2024,37.9885,38.5999,39.089
0.900154,21.1462,28.2567,31.8275,33.9768,35.4129,36.4405,37.2123,37.8132,38.2943
0.906298,21.9127,29.4369,33.2598,35.5755,37.1289,38.2434,39.0819,39.7357,40.2597
0.912552,21.9876,29.2638,32.8916,35.0632,36.5082,37.5388,38.3108,38.9107,39.3902
0.929901,22.6852,30.2651,34.0926,36.4053,37.9549,39.066,39.9017,40.5533,41.0756
0.930652,22.8947,30.5262,34.3737,36.6931,38.2437,39.3532,40.1865,40.8351,41.3544
0.915308,23.1799,31.1216,35.1687,37.6221,39.2683,40.4494,41.3381,42.031,42.5864
0.908847,24.2692,32.956,37.4253,40.1442,41.9715,43.2838,44.2717,45.0422,45.6599
0.900895,24.7453,33.4383,37.8147,40.441,42.1903,43.4385,44.3738,45.1006,45.6816
0.940291,25.6189,34.1347,38.341,40.8479,42.5127,43.6991,44.5874,45.2776,45.8293
0.911819,25.3621,33.9693,38.3227,40.9594,42.7298,44.0012,44.9588,45.7061,46.3055
0.925939,26.0988,34.9276,39.3783,42.0611,43.8543,45.1372,46.1003,46.8498,47.4497
0.93193,27.0695,36.436,41.2009,44.0868,46.0221,47.4101,48.4541,49.2679,49.9202
0.914947,27.1379,36.4892,41.2098,44.0531,45.9523,47.3103,48.3296,49.1227,49.7574
0.931033,27.9934,37.5363,42.3325,45.2174,47.1437,48.5212,49.5552,50.36,51.0042
0.929349,28.3267,37.9516,42.7971,45.7168,47.6689,49.0662,50.1158,50.9333,51.5878
0.939771,29.4826,39.705,44.9001,48.046,50.1556,51.6686,52.8068,53.694,54.4051
0.922052,29.0359,38.8337,43.7358,46.6752,48.6331,50.0305,51.0779,51.892,52.5431
0.923604,29.6154,39.7162,44.8225,47.9079,49.9749,51.4567,52.5711,53.4398,54.136
0.937877,31.0502,41.8822,47.3967,50.7372,52.9772,54.5834,55.7915,56.733,57.4874
0.91352,30.2417,40.4237,45.504,48.5444,50.567,52.0094,53.0898,53.9291,54.6001
0.937293,32.0163,43.1402,48.8045,52.2417,54.551,56.2098,57.4594,58.4345,59.2169
0.909324,31.5905,42.472,47.9576,51.2597,53.4643,55.0402,56.2226,57.1424,57.8782
0.912208,31.9882,42.8697,48.3344,51.6208,53.8151,55.3843,56.5623,57.4791,58.213
0.918293,32.7735,43.9941,49.6618,53.0834,55.3738,57.0147,58.2481,59.209,59.9788
0.920934,33.1864,44.4574,50.1286,53.5428,55.8235,57.4547,58.6792,59.6323,60.3951
0.915819,33.7666,45.4157,51.3243,54.8984,57.2936,59.0107,60.302,61.3085,62.115
0.915907,34.5559,46.5431,52.6116,56.2742,58.7241,60.4778,61.7951,62.8207,63.6419
0.923103,35.2419,47.3172,53.3879,57.0387,59.4757,61.2179,62.5253,63.5427,64.3569
0.909282,34.8647,46.6349,52.5346,56.0807,58.4479,60.1405,61.411,62.3999,63.1914
0.892387,34.1977,45.6246,51.3605,54.8135,57.1212,58.7725,60.0128,60.9785,61.7518
0.883804,35.0516,47.2956,53.5732,57.3952,59.9674,61.8168,63.2105,64.2986,65.1715
0.904876,36.8515,49.7758,56.3352,60.2935,62.9392,64.8316,66.2519,67.3571,68.2414
0.911881,36.9491,49.3787,55.5616,59.2562,61.7124,63.4635,64.7749,65.7939,66.6085
0.919773,38.2322,51.4519,58.1673,62.2389,64.9736,66.9377,68.417,69.5715,70.4976
0.900307,36.7334,48.8122,54.8034,58.3805,60.757,62.45,63.7171,64.701,65.487
0.916427,38.2554,51.3442,58.0193,62.0775,64.8079,66.7714,68.2517,69.4076,70.3355
0.917583,38.7434,51.971,58.6584,62.69,65.3838,67.3103,68.7561,69.881,70.7811
0.912507,38.8317,52.0197,58.665,62.6667,65.3404,67.253,68.6891,69.807,70.702
0.91335,39.6792,53.3649,60.3083,64.5075,67.3212,69.3381,70.8547,72.0367,72.9839
0.920777,40.6548,54.6671,61.7451,66.0114,68.863,70.9031,72.435,73.6273,74.5818
0.926901,41.4012,55.5809,62.72,67.0179,69.8891,71.9429,73.4849,74.6852,75.6461
0.924166,41.5828,55.7154,62.8211,67.0984,69.9561,72.0005,73.5357,74.7308,75.6876
0.926635,41.4664,55.2869,62.2036,66.3582,69.1305,71.1121,72.5991,73.7561,74.682
0.857857,38.4018,51.217,57.6725,61.5667,64.1726,66.0391,67.4419,68.5348,69.4102
0.899365,42.1102,57.0477,64.7587,69.4681,72.6429,74.928,76.6513,77.9974,79.0779
0.907999,42.5859,57.1357,64.4166,68.7718,71.6658,73.7272,75.2696,76.4668,77.4231
0.945652,45.054,60.5454,68.365,73.0838,76.2428,78.5067,80.209,81.5358,82.5991
0.917961,43.605,58.257,65.5874,69.9875,72.9217,75.018,76.5903,77.8132,78.7916
0.922245,44.1967,59.1643,66.7212,71.2849,74.3412,76.5315,78.1784,79.4617,80.4901
0.905889,28.3296,33.8203,36.1651,37.466,38.2931,38.8654,39.2849,39.6056,39.8586
0.878254,34.0009,46.7669,54.5202,59.8346,63.727,66.7075,69.0657,70.9791,72.5632
0.914673,41.1194,58.6491,68.4845,74.6207,78.7586,81.7158,83.9248,85.6331,86.991
0.876404,42.373,59.3818,68.0014,73.0847,76.4152,78.7616,80.503,81.8466,82.9149
0.87617,44.4522,61.3464,69.6927,74.6398,77.9176,80.2522,82.0011,83.3608,84.4485
0.896133,47.0349,64.2496,72.7625,77.8532,81.2472,83.6738,85.4957,86.9142,88.05
0.880478,46.7102,63.0543,71.1167,75.9384,79.1504,81.4442,83.1646,84.5027,85.5732
0.872158,46.8597,63.0673,71.1653,76.0442,79.3087,81.6472,83.4049,84.7744,85.8716
