1.9673,2.00786,2.02176,2.02878,2.03301,2.03585,2.03788,2.0394,2.04059,2.04154
1.22983,1.63882,1.83731,1.95452,2.03189,2.08677,2.12773,2.15946,2.18478,2.20544
1.11723,1.97344,2.42898,2.69943,2.87618,3.00005,3.09144,3.16154,3.21696,3.26185
1.01673,2.15169,2.70112,2.99641,3.17655,3.29692,3.38273,3.44688,3.4966,3.53625
1.00528,2.70792,3.60005,4.09801,4.41162,4.62676,4.78345,4.90266,4.9964,5.07206
0.984601,3.19798,4.30834,4.89511,5.25139,5.4895,5.65954,5.78691,5.88583,5.96486
1.19914,4.36769,5.78815,6.49673,6.91678,7.19432,7.39131,7.53839,7.6524,7.74337
1.248,5.26707,7.09,8.02914,8.60163,8.98769,9.26586,9.47593,9.64021,9.77222
0.961841,4.53203,6.07859,6.85941,7.32883,7.6419,7.86548,8.03309,8.16339,8.26757
0.923224,4.62068,6.09415,6.81987,7.2516,7.53796,7.74182,7.89436,8.01281,8.10744
0.91749,5.22773,7.07092,8.03151,8.62316,9.02471,9.31529,9.53536,9.70784,9.84668
0.979736,6.20179,8.41514,9.548,10.2334,10.6919,11.0199,11.2659,11.4573,11.6103
0.936159,6.08223,8.02953,8.97693,9.53558,9.9038,10.1647,10.3593,10.51,10.6302
0.995656,7.03622,9.42235,10.6418,11.3859,11.8883,12.2507,12.5246,12.7389,12.9112
0.907616,6.9948,9.44467,10.701,11.4645,11.9771,12.3449,12.6216,12.8371,13.0098
0.976,8.00674,10.7648,12.1551,12.9908,13.5482,13.9462,14.2447,14.4768,14.6625
0.936401,7.97409,10.6182,11.9344,12.7223,13.2468,13.6212,13.902,14.1203,14.2949
1.09565,10.0771,13.5892,15.3905,16.4887,17.2288,17.7615,18.1635,18.4776,18.7297
1.02231,9.60677,12.7577,14.319,15.2494,15.8664,16.3054,16.6336,16.8881,17.0913
1.05272,10.6402,14.336,16.2335,17.3912,18.1719,18.7344,19.159,19.4909,19.7575
0.946699,10.1533,13.6979,15.4991,16.587,17.3145,17.835,18.2257,18.5298,18.7731
0.95615,10.7548,14.4658,16.3346,17.4585,18.2088,18.7451,19.1475,19.4607,19.7113
0.937865,10.9943,14.7519,16.6417,17.7793,18.5396,19.0836,19.4921,19.8102,20.065
1.00482,12.3418,16.5881,18.7356,20.0329,20.9017,21.5243,21.9923,22.3569,22.6491
0.992045,12.4075,16.5305,18.5876,19.8205,20.6419,21.2283,21.6679,22.0097,22.2831
0.941541,12.4051,16.6805,18.8622,20.1881,21.0796,21.7205,22.2033,22.5803,22.8827
1.06142,14.523,19.5043,22.0222,23.5398,24.5538,25.2789,25.8231,26.2465,26.5853
0.926712,13.2263,17.7917,20.1034,21.4991,22.4333,23.1024,23.6053,23.997,24.3107
0.997276,14.1779,18.7763,21.0458,22.3975,23.2942,23.9327,24.4104,24.7812,25.0775
0.950701,13.381,17.6067,19.7093,20.9721,21.8155,22.4191,22.8725,23.2257,23.5086
0.991394,15.3175,20.8564,23.7883,25.6081,26.8483,27.748,28.4304,28.9658,29.3971
0.983113,16.0171,21.76,24.6851,26.4451,27.6169,28.452,29.0768,29.5617,29.9488
0.981874,16.7454,22.6898,25.687,27.4883,28.6901,29.5491,30.1938,30.6956,31.0973
1.06464,18.1866,24.2426,27.2265,29.0025,30.181,31.0203,31.6485,32.1364,32.5263
1.05659,18.8619,25.3852,28.7049,30.7232,32.0817,33.0592,33.7964,34.3722,34.8346
1.03347,18.8676,25.2909,28.5208,30.4637,31.7602,32.6865,33.3812,33.9215,34.3536
0.965411,17.6824,23.517,26.4253,28.1684,29.3298,30.1592,30.7812,31.265,31.652
0.99638,18.6467,24.9017,28.0699,29.988,31.275,32.1986,32.8937,33.4358,33.8705
1.0183,19.6315,26.3242,29.7251,31.7832,33.1622,34.1504,34.8932,35.4719,35.9354
0.944097,18.613,24.9295,28.1162,30.0351,31.3166,32.233,32.9208,33.4559,33.8842
0.955361,19.2498,25.7859,29.0867,31.0777,32.4095,33.3631,34.0796,34.6377,35.0847
0.950342,20.06,27.1054,30.7073,32.8939,34.3625,35.4168,36.2104,36.8293,37.3256
0.92166,20.2033,27.3104,30.9125,33.0851,34.5372,35.576,36.3558,36.9626,37.4483
0.913047,20.4662,27.5217,31.0594,33.1831,34.5991,35.6107,36.3694,36.9596,37.4318
0.922765,21.6313,29.2815,33.1753,35.536,37.1209,38.2586,39.1152,39.7834,40.3192
0.937811,22.3998,30.1134,33.9758,36.2925,37.8358,38.9375,39.7631,40.405,40.9181
0.894595,21.8582,29.3679,33.1486,35.4279,36.9528,38.0449,38.8657,39.5051,40.0174
0.936407,22.1544,29.2071,32.6661,34.7218,36.0845,37.0539,37.779,38.3416,38.791
0.926854,23.2872,31.4888,35.7571,38.386,40.1704,41.4616,42.4395,43.2061,43.8231
0.934407,23.1756,30.8365,34.6455,36.9158,38.4201,39.4893,40.2877,40.9065,41.4001
1.02988,27.1315,36.8264,41.8487,44.9254,47.0053,48.5062,49.6405,50.5282,51.2419
0.966818,26.0801,35.1837,39.7684,42.5193,44.3505,45.6563,46.6339,47.3932,47.9998
0.940348,25.9641,34.9612,39.4884,42.2131,44.0336,45.3363,46.3147,47.0766,47.6868
0.933183,25.8058,34.4665,38.783,41.3698,43.0935,44.3244,45.2475,45.9654,46.5398
0.920983,26.2465,35.3116,39.9229,42.7212,44.6014,45.952,46.9692,47.7631,48.3998
0.919933,26.6157,35.711,40.2925,43.0501,44.8911,46.2071,47.1944,47.9624,48.5768
0.91476,27.5072,37.2,42.151,45.1568,47.1759,48.6257,49.7173,50.569,51.252
0.925163,26.6998,35.2166,39.3722,41.8293,43.4514,44.6021,45.4606,46.1257,46.656
0.897586,27.1271,36.5505,41.4189,44.4065,46.4303,47.8932,49.0005,49.8679,50.566
0.923923,27.1937,36.0015,40.3583,42.9506,44.6672,45.8868,46.7975,47.5032,48.066
0.899004,27.4104,36.8512,41.7036,44.6665,46.6658,48.1067,49.1949,50.0458,50.7296
0.927904,26.1446,34.0098,37.8071,40.0388,41.5062,42.5438,43.3161,43.9133,44.3887
0.965586,29.7385,40.48,46.2192,49.8122,52.2786,54.0783,55.4503,56.5311,57.4047
0.910441,29.7092,40.6576,46.3113,49.7358,52.024,53.6579,54.8818,55.8322,56.5912
0.930533,30.898,41.7581,47.1725,50.3989,52.5384,54.0607,55.1993,56.0831,56.789
0.936286,32.0444,43.3306,49.0148,52.4419,54.7361,56.3804,57.6172,58.5813,59.3542
0.954312,33.7713,45.7456,51.8056,55.4678,57.9209,59.6789,61.0005,62.0303,62.8553
0.919445,33.0952,44.6028,50.3756,53.845,56.16,57.8145,59.0558,60.0214,60.7941
0.93499,33.8122,45.3024,51.0467,54.497,56.7996,58.4458,59.6814,60.643,61.4127
0.95551,33.1322,43.6029,48.7362,51.7896,53.8152,55.2574,56.3367,57.1747,57.8442
0.945397,32.7765,43.5,48.946,52.2573,54.4865,56.0905,57.3003,58.2455,59.0044
0.921465,33.3494,45.0292,51.0866,54.7935,57.2941,59.0942,60.4515,61.5115,62.362
0.899093,33.6243,45.5273,51.6062,55.2796,57.7355,59.492,60.8102,61.8357,62.6563
0.956063,33.7223,44.303,49.4274,52.4431,54.4287,55.835,56.8833,57.6948,58.3417
0.948083,34.417,46.0736,52.0621,55.7291,58.211,60.0042,61.3612,62.4241,63.2794
0.932104,32.5702,42.9051,48.0194,51.0661,53.0859,54.5219,55.5949,56.4268,57.0906
1.00989,37.9976,51.7558,59.022,63.5259,66.5942,68.82,70.5089,71.8345,72.9027
0.900858,34.957,47.4366,53.7774,57.5891,60.1262,61.9341,63.2868,64.3364,65.1743
0.917586,36.5079,49.3848,55.8675,59.7623,62.3607,64.218,65.6119,66.6967,67.5651
0.931066,37.9992,51.3458,58.0661,62.1131,64.8183,66.7545,68.209,69.3417,70.2487
0.936533,38.709,52.073,58.7726,62.8,65.4887,67.4113,68.8544,69.9775,70.8764
0.933625,38.4754,51.4037,57.8531,61.7229,64.3038,66.1482,67.5319,68.6086,69.4701
0.897682,35.0933,46.0107,51.3521,54.5269,56.6323,58.131,59.2523,60.123,60.8185
0.927189,37.9664,51.134,57.9998,62.2356,65.1137,67.198,68.7775,70.016,71.0132
0.936864,39.3277,53.0559,60.0581,64.2869,67.1114,69.1294,70.6421,71.8178,72.7576
0.910759,37.5325,49.9117,56.0419,59.6918,62.1121,63.8345,65.1228,66.1229,66.9217
0.96464,41.6675,56.4222,64.0364,68.6948,71.8425,74.1132,75.8291,77.1716,78.2507
0.930149,42.2509,57.6609,65.5771,70.3818,73.604,75.9134,77.649,79.0007,80.0831
0.94988,43.7977,59.1922,66.8914,71.4961,74.5572,76.7388,78.3722,79.641,80.6548
0.942446,43.875,58.9863,66.5386,71.0729,74.0993,76.2636,77.8886,79.1537,80.1667
0.936377,41.8791,55.292,61.8706,65.7853,68.3834,70.234,71.6191,72.6949,73.5545
0.929159,42.7693,57.4237,64.955,69.5632,72.6779,74.9251,76.6233,77.952,79.0201
0.903088,40.2344,53.2073,59.6383,63.4722,66.0147,67.8231,69.1745,70.2226,71.0591
0.903502,42.4273,57.475,65.3134,70.1334,73.4001,75.7612,77.548,78.9475,80.0735
0.939984,43.2185,57.5361,64.6357,68.8575,71.6511,73.6346,75.1151,76.2619,77.1763
0.944042,46.2184,62.9916,71.7198,77.0812,80.7128,83.3371,85.3228,86.8781,88.1294
0.93986,46.8404,63.3527,71.6628,76.6441,79.9572,82.318,84.0845,85.4558,86.5509
0.910028,46.091,62.1361,70.1905,75.0316,78.2636,80.5752,82.3108,83.6621,84.744
0.923576,48.0592,64.9692,73.528,78.701,82.167,84.6516,86.5201,87.9764,89.1434
0.913066,44.1683,57.8295,64.4164,68.2938,70.8482,72.6578,74.007,75.0515,75.8842
