1.69745,1.74119,1.75627,1.76391,1.76853,1.77162,1.77383,1.7755,1.77679,1.77783
1.3114,1.8235,2.08665,2.24681,2.35454,2.43196,2.49028,2.5358,2.57231,2.60224
1.93468,3.30936,3.97658,4.34973,4.58406,4.74372,4.85908,4.94614,5.01411,5.06859
0.999379,2.08562,2.61229,2.90078,3.08014,3.20191,3.28986,3.35631,3.40828,3.45002
1.28178,3.42475,4.55939,5.19968,5.6052,5.88409,6.08742,6.24214,6.36381,6.46196
0.946159,3.04851,4.10924,4.67158,5.0131,5.24124,5.40405,5.52595,5.62057,5.69613
1.01246,3.79538,5.11859,5.79764,6.20621,6.47868,6.67332,6.81933,6.93292,7.02382
0.951133,4.07895,5.50854,6.23717,6.67704,6.9715,7.18249,7.34112,7.46475,7.56382
0.955864,4.60088,6.20497,7.01777,7.50814,7.83623,8.0712,8.24776,8.38529,8.49544
1.15328,6.28666,8.55132,9.71442,10.4223,10.8986,11.241,11.499,11.7004,11.862
1.18363,6.9795,9.38086,10.5811,11.2997,11.7778,12.1187,12.374,12.5724,12.7309
0.923631,5.8935,7.91209,8.92991,9.54449,9.9562,10.2514,10.4734,10.6465,10.7853
0.912479,6.0128,7.94285,8.89642,9.46562,9.84396,10.1137,10.3156,10.4726,10.598
0.879877,6.32867,8.50433,9.6281,10.3171,10.7833,11.1198,11.3743,11.5735,11.7337
0.915206,7.01492,9.41746,10.6399,11.3787,11.8729,12.2265,12.4919,12.6985,12.8637
0.8568,7.04448,9.49595,10.7485,11.5081,12.018,12.3838,12.6591,12.8738,13.046
0.889699,7.83424,10.5845,11.9872,12.8367,13.4062,13.8145,14.1215,14.3608,14.5525
1.15443,10.8764,14.7213,16.6798,17.8655,18.6601,19.2298,19.6582,19.9921,20.2596
0.907363,9.18974,12.4828,14.1633,15.1818,15.865,16.355,16.7236,17.011,17.2412
1.05907,11.0473,14.8008,16.669,17.7859,18.5286,19.0582,19.4548,19.763,20.0094
0.987525,10.2588,13.5265,15.1368,16.0981,16.7377,17.1941,17.5363,17.8023,18.0152
0.986665,11.1086,15.0232,17.0687,18.3315,19.1899,19.8116,20.2827,20.6521,20.9495
1.02989,12.2716,16.6151,18.8378,20.1829,21.0827,21.7263,22.2092,22.5847,22.8851
0.971632,12.2814,16.6667,18.9033,20.2566,21.1632,21.8128,22.3013,22.6819,22.9868
0.861079,10.5697,13.9158,15.541,16.5001,17.133,17.5818,17.9168,18.1763,18.3832
0.875677,10.9896,14.5762,16.3936,17.4987,18.2432,18.7794,19.1842,19.5007,19.7549
0.951631,12.8566,17.43,19.8236,21.2976,22.2961,23.0171,23.5619,23.9882,24.3307
0.954786,13.6262,18.5082,21.0122,22.5281,23.5424,24.2681,24.8128,25.2366,25.5757
1.01862,15.4073,20.9725,23.8112,25.5277,26.6772,27.5006,28.1196,28.6018,28.9882
0.860239,13.1968,17.6965,19.9308,21.2644,22.1504,22.7818,23.2546,23.6219,23.9154
0.928101,15.0103,20.3162,23.0277,24.6784,25.7904,26.5908,27.1946,27.6665,28.0454
0.974223,16.3478,22.0867,24.9948,26.751,27.926,28.767,29.3986,29.8903,30.2839
0.930195,16.2256,21.9436,24.8492,26.6082,27.7874,28.6331,29.2692,29.765,30.1625
0.957868,17.0419,22.8965,25.8386,27.6081,28.7895,29.6341,30.268,30.7613,31.156
0.918566,16.8827,22.7371,25.7085,27.508,28.7153,29.5816,30.2336,30.7421,31.1497
0.940039,18.1676,24.675,28.0205,30.0588,31.4308,32.4172,33.1605,33.7407,34.2062
0.950766,18.6827,25.133,28.37,30.3119,31.6054,32.5284,33.2201,33.7577,34.1875
1.02195,19.3225,25.4217,28.4046,30.1756,31.3494,32.1847,32.8097,33.2949,33.6825
0.907129,17.7209,23.7119,26.7976,28.6894,29.9701,30.8953,31.5952,32.1433,32.5842
0.940843,19.3899,26.2968,29.8811,32.072,33.5481,34.6093,35.4086,36.0323,36.5323
0.926173,18.4599,24.3966,27.3091,29.0321,30.1692,30.9754,31.5766,32.0421,32.4132
0.923834,19.3003,26.0062,29.4748,31.603,33.0447,34.0869,34.8757,35.4938,35.9912
0.928407,20.0288,27.0331,30.6095,32.7743,34.2237,35.2613,36.0404,36.6468,37.132
0.906708,20.2342,27.3465,30.9635,33.1498,34.6134,35.6618,36.4497,37.0634,37.555
0.899815,20.6221,27.8305,31.4808,33.6842,35.1586,36.2144,37.0078,37.6258,38.1208
0.897939,20.8322,27.9604,31.5439,33.7004,35.1409,36.1714,36.945,37.5473,38.0295
0.933135,21.9915,29.5064,33.3069,35.6044,37.144,38.2479,39.0782,39.7254,40.2441
0.943214,22.0157,29.2887,32.9297,35.1175,36.5776,37.6213,38.4045,39.0139,39.5015
0.976863,23.923,32.3762,36.7588,39.446,41.2633,42.5745,43.5653,44.3404,44.9634
0.928066,22.3653,29.7633,33.442,35.6359,37.091,38.1261,38.8998,39.4998,39.9787
0.918593,22.4098,29.9535,33.7841,36.1072,37.6681,38.7897,39.6349,40.2947,40.8242
0.910972,23.2264,31.4305,35.6645,38.2487,39.9897,41.2421,42.1862,42.9232,43.5145
0.97596,24.999,33.5047,37.7719,40.3291,42.0309,43.2443,44.153,44.8589,45.423
0.937882,23.9516,31.9293,35.9302,38.3371,39.9455,41.0967,41.9615,42.6351,43.1747
0.92005,16.9583,20.602,22.2071,23.112,23.6931,24.0978,24.396,24.6248,24.8059
0.866163,19.2287,26.3486,30.5537,33.3789,35.4181,36.9624,38.1737,39.1497,39.9531
0.876246,22.8347,32.6377,38.1559,41.6209,43.9731,45.6645,46.9348,47.9217,48.7095
0.948226,27.3575,38.8124,44.7363,48.2739,50.6101,52.2645,53.4969,54.4502,55.2095
0.889262,27.0264,37.4954,42.6644,45.7203,47.7398,49.1749,50.2479,51.0809,51.7464
0.88629,26.2698,35.179,39.4406,41.9468,43.6012,44.7764,45.6548,46.3363,46.8806
0.91563,29.4868,40.5691,46.3323,49.8991,52.3316,54.0986,55.441,56.4957,57.3463
0.906963,28.7919,38.6187,43.4527,46.323,48.2205,49.5667,50.5705,51.3476,51.9668
0.910789,30.3365,41.2313,46.818,50.2305,52.5346,54.1961,55.4514,56.4336,57.2231
0.907076,30.2979,40.7252,45.9418,49.0699,51.1529,52.6388,53.752,54.6168,55.3079
0.890635,30.3118,40.8086,46.1215,49.3359,51.4915,53.0379,54.2017,55.1092,55.8369
0.856336,30.0111,40.5992,46.0041,49.2854,51.4892,53.0713,54.2623,55.1911,55.9358
0.901537,31.8807,42.9087,48.4713,51.822,54.0604,55.6613,56.8629,57.7981,58.5465
0.860272,9.92534,10.7614,11.072,11.2341,11.3338,11.4012,11.4499,11.4868,11.5156
0.818738,14.7144,20.9704,25.7055,29.4968,32.6174,35.2357,37.4658,39.3889,41.0648
0.820306,18.0838,26.7234,31.9532,35.2579,37.462,39.0064,40.1344,40.9871,41.6504
0.846571,24.5247,38.298,46.3166,51.3112,54.6761,57.0891,58.9035,60.3182,61.4529
0.822167,28.0121,42.2194,49.3646,53.4981,56.1744,58.0467,59.43,60.4938,61.3374
0.841974,30.9215,44.2224,50.4597,54.0547,56.4033,58.0627,59.2992,60.2571,61.0214
0.826458,32.1203,44.8049,50.8771,54.4837,56.8875,58.6082,59.9019,60.9106,61.7192
0.798209,32.4721,44.7606,50.7967,54.4301,56.8644,58.6104,59.9241,60.9484,61.7695
0.823231,29.6447,38.4333,42.4707,44.8081,46.3339,47.4084,48.206,48.8215,49.3108
0.851584,33.0995,44.914,51.1718,55.1081,57.8233,59.8123,61.3333,62.5345,63.5074
0.851912,35.3225,48.5539,55.4678,59.7002,62.5477,64.5903,66.1252,67.3199,68.2758
0.84022,35.3902,48.0147,54.3442,58.126,60.6357,62.4217,63.7573,64.7937,65.6214
0.838666,35.9024,48.5115,54.8481,58.6632,61.2143,63.0415,64.415,65.4855,66.3433
0.836412,35.4703,47.4283,53.3814,56.9502,59.3295,61.0294,62.3046,63.2966,64.0903
0.844738,36.7322,49.5525,56.1084,60.1023,62.793,64.7295,66.1901,67.3313,68.2474
0.815406,36.3814,49.2314,55.7886,59.763,62.4277,64.3378,65.7737,66.8924,67.7884
0.817763,37.9365,51.6689,58.7147,62.9969,65.8737,67.9393,69.4944,70.7073,71.6799
0.801699,38.7533,52.9554,60.221,64.6257,67.5798,69.698,71.2911,72.5326,73.5275
0.816363,41.2896,56.5576,64.3476,69.0643,72.2256,74.4917,76.1956,77.5235,78.5874
0.811741,39.835,53.1733,59.6962,63.5598,66.1145,67.9291,69.2845,70.3355,71.1742
0.896536,46.0104,62.522,71.0459,76.2781,79.8238,82.3876,84.3285,85.8494,87.0735
0.80879,42.6406,57.9311,65.722,70.4364,73.5923,75.8513,77.5474,78.8674,79.9237
0.802189,41.1843,54.9431,61.7512,65.8104,68.5055,70.4252,71.8621,72.978,73.8698
0.809848,42.7343,57.6816,65.3433,70.0189,73.1734,75.4467,77.1632,78.5054,79.5839
0.806441,43.5178,58.8696,66.6977,71.4392,74.6164,76.8928,78.6035,79.9358,81.0026
0.80376,44.7813,60.8604,69.0838,74.0729,77.4211,79.8234,81.631,83.0405,84.1702
0.8007,45.0671,60.8852,68.858,73.6553,76.858,79.1476,80.8657,82.2026,83.2724
0.813299,45.6977,61.3732,69.2464,73.9859,77.1536,79.4208,81.1239,82.4503,83.5125
0.805964,46.1604,62.3172,70.5573,75.5631,78.9282,81.3462,83.1677,84.5893,85.7297
0.80522,46.7125,63.0393,71.3312,76.346,79.7047,82.1109,83.9192,85.3277,86.4558
0.819631,47.5428,63.875,72.1124,77.0773,80.3965,82.772,84.5562,85.9454,87.0577
0.80155,47.1774,63.5921,71.9462,77.011,80.4106,82.8507,84.6873,86.1198,87.2684
0.794379,46.4012,62.1457,70.0644,74.8291,78.0106,80.2853,81.9924,83.3208,84.3838
