1.67312,1.74695,1.77303,1.78637,1.79447,1.79991,1.80381,1.80675,1.80905,1.81088
1.24613,1.72937,1.97135,2.11649,2.21319,2.28224,2.334,2.37425,2.40644,2.43277
1.12298,2.00964,2.47176,2.74142,2.91549,3.03637,3.12494,3.19251,3.2457,3.28864
1.06582,2.37871,3.05802,3.43803,3.67602,3.838,3.95505,4.04348,4.11259,4.16808
1.03257,2.76406,3.62338,4.08395,4.36613,4.55595,4.69218,4.79466,4.87453,4.93852
0.993482,3.14078,4.17995,4.72842,5.06368,5.28944,5.45175,5.57407,5.66954,5.74614
0.960094,3.48418,4.65474,5.2604,5.62785,5.87428,6.05097,6.18384,6.2874,6.37037
1.06519,4.42562,5.96159,6.75737,7.24228,7.56864,7.80329,7.98013,8.11818,8.22895
0.937588,4.34484,5.84407,6.61046,7.07437,7.3852,7.60796,7.77542,7.90589,8.0104
0.93027,4.82744,6.53184,7.40922,7.94343,8.30291,8.56136,8.75614,8.90819,9.03019
0.919917,5.21453,7.03095,7.95564,8.51503,8.88977,9.15829,9.36014,9.5174,9.64337
0.911265,5.68122,7.69802,8.73462,9.36602,9.79106,10.0968,10.3272,10.5071,10.6515
0.898235,6.06139,8.19778,9.28751,9.94776,10.3905,10.7079,10.9466,11.1327,11.2817
0.900587,6.62379,9.00005,10.2216,10.9656,11.4663,11.8263,12.0976,12.3095,12.4795
0.964625,7.58369,10.2649,11.6292,12.4548,13.0079,13.4043,13.7023,13.9345,14.1204
0.891143,7.42682,10.021,11.338,12.135,12.6693,13.0524,13.3406,13.5653,13.7454
0.871806,5.88772,7.27066,7.8889,8.23962,8.46563,8.62342,8.73984,8.82927,8.90012
0.845484,6.95523,9.54189,11.0418,12.0375,12.7502,13.2866,13.7053,14.0415,14.3173
0.874119,8.2784,11.6187,13.443,14.5731,15.335,15.8808,16.2899,16.6074,16.8606
0.88088,9.15082,12.7205,14.5509,15.6475,16.3751,16.8925,17.2792,17.5792,17.8188
0.862654,9.55566,13.1172,14.906,15.978,16.6927,17.2037,17.5873,17.8861,18.1254
0.873319,10.257,14.0052,15.8969,17.0401,17.8067,18.3569,18.7711,19.0943,19.3534
0.860755,10.6916,14.5694,16.5376,17.7308,18.532,19.1072,19.5403,19.8781,20.1489
0.8442,10.9865,14.9251,16.9245,18.1359,18.9486,19.5317,19.9704,20.3125,20.5866
0.835036,11.3443,15.3845,17.4397,18.686,19.5225,20.1229,20.5748,20.9272,21.2098
0.840151,11.9055,16.1418,18.3027,19.6144,20.4955,21.128,21.6042,21.9757,22.2736
0.869955,12.6643,17.0788,19.3142,20.6651,21.5698,22.218,22.7052,23.0848,23.3889
0.841814,12.722,17.1958,19.4818,20.8712,21.8054,22.4768,22.9825,23.3772,23.6939
0.859574,13.3868,18.0746,20.4654,21.9155,22.8887,23.587,24.1124,24.5221,24.8505
0.855772,13.835,18.722,21.2234,22.7434,23.7649,24.4985,25.051,25.4819,25.8275
0.851449,14.191,19.1821,21.7275,23.2706,24.3058,25.0484,25.607,26.0425,26.3916
0.856387,14.7034,19.8677,22.5019,24.0996,25.172,25.9416,26.5209,26.9727,27.3348
0.86211,15.2398,20.5979,23.3346,24.9959,26.1117,26.9127,27.5158,27.9862,28.3634
0.863,15.6038,21.0505,23.8253,25.5072,26.6357,27.4452,28.0544,28.5293,28.91
0.848389,15.7283,21.2187,24.0192,25.7181,26.8587,27.6773,28.2935,28.774,29.1593
0.875725,16.6526,22.4849,25.4667,27.2779,28.4948,29.3687,30.0267,30.5401,30.9517
0.865466,16.8277,22.6979,25.6905,27.5046,28.7215,29.5945,30.2513,30.7633,31.1737
0.885663,17.6734,23.8688,27.0358,28.9589,30.2508,31.1785,31.877,32.4219,32.8588
0.864319,17.824,24.1431,27.3824,29.3516,30.6751,31.6257,32.3416,32.9,33.3478
0.859767,18.3614,24.9255,28.29,30.3342,31.7076,32.6936,33.4359,34.0149,34.4791
0.862698,18.6519,25.1402,28.4212,30.4002,31.7237,32.6711,33.3827,33.9368,34.3805
0.856223,18.8475,25.4024,28.7404,30.7658,32.1263,33.1035,33.8394,34.4137,34.8743
0.853786,19.197,25.9093,29.3413,31.4268,32.8285,33.8352,34.5933,35.1848,35.6591
0.851447,19.7135,26.7054,30.2975,32.4844,33.9555,35.0129,35.8095,36.4312,36.9298
0.860132,20.3114,27.4505,31.0879,33.2903,34.7665,35.8246,36.6202,37.2401,37.7368
0.873329,21.2732,28.8414,32.7188,35.0758,36.6603,37.7987,38.6561,39.3252,39.8619
0.864824,21.3225,28.7633,32.5384,34.8203,36.3483,37.4431,38.2659,38.907,39.4205
0.851364,21.5405,29.1559,33.0578,35.4321,37.0297,38.1783,39.0439,39.7197,40.262
0.857041,22.416,30.4493,34.574,37.0833,38.7703,39.9822,40.8947,41.6066,42.1775
0.864728,23.0514,31.2066,35.3564,37.8675,39.55,40.7559,41.6624,42.3688,42.9347
0.847265,22.9083,30.9329,35.0121,37.4826,39.1397,40.3285,41.223,41.9205,42.4797
0.831546,19.0005,24.1714,26.5846,27.9827,28.8952,29.5377,30.0145,30.3825,30.6751
0.836187,21.3457,29.1468,33.4775,36.2661,38.2191,39.6654,40.7804,41.6667,42.3882
0.857403,23.5403,32.5472,37.3324,40.2678,42.241,43.6542,44.7143,45.538,46.1961
0.839627,23.9579,32.8619,37.4031,40.1329,41.9509,43.248,44.2199,44.9753,45.5793
0.846535,25.2363,34.5992,39.3747,42.2661,44.206,45.5984,46.6467,47.4647,48.1208
0.857194,26.0626,35.4228,40.1404,42.9828,44.8835,46.244,47.2662,48.0622,48.6996
0.841341,25.7795,34.7998,39.3452,42.0897,43.9282,45.2461,46.2373,47.01,47.6292
0.8522,26.9782,36.6566,41.6281,44.6621,46.7077,48.1805,49.2916,50.1598,50.8568
0.846485,26.7736,36.0381,40.7113,43.5274,45.409,46.7548,47.7649,48.551,49.1801
0.863284,27.6957,37.3595,42.2932,45.2922,47.3091,48.7589,49.8515,50.7045,51.3889
0.865101,28.4728,38.5885,43.7871,46.9535,49.0843,50.616,51.77,52.6706,53.3931
0.839847,28.0593,37.9538,42.999,46.0552,48.1041,49.573,50.6775,51.5382,52.2278
0.842949,28.4482,38.3906,43.4472,46.509,48.5621,50.0347,51.1425,52.0061,52.6983
0.844935,28.864,38.9556,44.1033,47.2272,49.3252,50.8314,51.9655,52.8501,53.5594
0.83362,29.0361,39.2841,44.5317,47.7215,49.8654,51.4053,52.565,53.4697,54.1953
0.827632,29.5221,40.0387,45.4288,48.7044,50.9053,52.4857,53.6755,54.6035,55.3477
0.837774,30.0632,40.5552,45.8735,49.0856,51.2354,52.7751,53.932,54.8331,55.5548
0.836696,30.7374,41.6484,47.2427,50.6478,52.9395,54.5874,55.8295,56.7994,57.5777
0.831297,30.8483,41.6695,47.1736,50.5048,52.7371,54.337,55.5399,56.4771,57.2279
0.846726,32.0941,43.4862,49.3226,52.8723,55.2594,56.975,58.2675,59.2763,60.0856
0.848376,32.5998,44.0964,49.9546,53.5036,55.8834,57.59,58.8734,59.8738,60.6754
0.823208,32.0541,43.3287,49.074,52.557,54.8943,56.5715,57.8336,58.8179,59.6069
0.83476,33.3222,45.221,51.3257,55.0404,57.5391,59.335,60.6879,61.7439,62.5909
0.850728,33.9637,45.7691,51.7427,55.3475,57.7588,59.4849,60.7815,61.7911,62.5994
0.845525,34.0973,46.0039,52.0798,55.7702,58.2508,60.0331,61.3758,62.4237,63.2644
0.860215,35.2168,47.6198,53.9723,57.8348,60.4313,62.2965,63.7012,64.7972,65.676
0.871065,36.0545,48.7183,55.1822,59.1022,61.7325,63.6195,65.0393,66.1461,67.0332
0.855987,35.6617,48.089,54.4111,58.2392,60.8059,62.6465,64.031,65.1102,65.9751
0.840032,35.7318,48.4108,54.9232,58.8897,61.5596,63.4796,64.9267,66.0566,66.9632
0.854738,27.8049,34.5738,37.6244,39.3592,40.4781,41.2596,41.8362,42.2791,42.63
0.839482,31.788,43.6992,50.5618,55.0951,58.3288,60.7564,62.6479,64.164,65.4067
0.842568,34.7211,48.447,55.8426,60.392,63.4474,65.6309,67.2649,68.5316,69.5412
0.842354,36.2062,49.983,57.008,61.2149,64.0077,65.9956,67.4825,68.6368,69.5589
0.851509,37.525,51.3179,58.264,62.4385,65.2271,67.2233,68.7234,69.8924,70.8291
0.840464,37.8057,51.4545,58.3493,62.5166,65.3109,67.3156,68.8244,70.0011,70.9445
0.833813,28.2881,35.0929,38.1169,39.8296,40.9327,41.7027,42.2706,42.7068,43.0524
0.833171,33.2164,45.7852,53.0625,57.895,61.3556,63.9612,65.996,67.6298,68.9709
0.831426,36.0102,50.2776,57.9549,62.6731,65.8383,68.0979,69.7872,71.0956,72.1376
0.820776,37.7223,52.4431,60.0177,64.5762,67.6119,69.7773,71.3996,72.6605,73.6688
0.845687,40.2462,55.388,63.0251,67.6118,70.673,72.8624,74.5066,75.7871,76.8126
0.83475,40.3167,54.8893,62.1902,66.5815,69.5169,71.6188,73.1983,74.4288,75.4146
0.841531,41.0991,55.6911,63.0538,67.5079,70.496,72.6404,74.2544,75.5133,76.5227
0.842783,41.9194,56.8798,64.5132,69.1556,72.2786,74.5235,76.2149,77.5352,78.5944
0.836729,42.3002,57.3637,65.0449,69.7054,72.8337,75.0784,76.7674,78.0843,79.1398
0.840659,42.9499,58.1377,65.8705,70.5575,73.7021,75.9581,77.6555,78.979,80.0399
0.854922,43.8987,59.2679,67.0799,71.8112,74.9845,77.2606,78.973,80.308,81.378
0.840255,43.6324,58.9794,66.8183,71.5796,74.7789,77.0767,78.807,80.157,81.2397
0.844251,43.8382,59.053,66.7813,71.4581,74.5924,76.8393,78.5288,79.8455,80.9004
0.836018,44.2298,59.8998,67.9505,72.8556,76.1582,78.5336,80.3242,81.7224,82.8445
