1.73057,1.79558,1.81835,1.82995,1.83698,1.8417,1.84509,1.84763,1.84962,1.85121
1.2691,1.74218,1.97715,2.1175,2.21079,2.27729,2.32709,2.36577,2.39669,2.42196
1.88853,3.34457,4.09934,4.53914,4.8229,5.01995,5.16434,5.27449,5.36122,5.43123
1.09646,2.43885,3.13744,3.52993,3.77639,3.94443,4.066,4.15793,4.22983,4.28758
1.04683,2.81183,3.69527,4.16981,4.4606,4.65613,4.79642,4.9019,4.98407,5.04989
1.02032,3.27952,4.39303,4.98339,5.34475,5.58824,5.76336,5.89535,5.99839,6.08107
0.988746,3.65827,4.90739,5.55178,5.94164,6.20256,6.38938,6.52971,6.63898,6.72647
0.973989,4.0837,5.48584,6.20357,6.63805,6.9293,7.13815,7.29525,7.41772,7.51588
0.972854,4.5553,6.12821,6.93339,7.42207,7.75029,7.98597,8.16341,8.30184,8.41285
0.945009,4.79696,6.40392,7.21443,7.70256,8.02873,8.26205,8.43723,8.57359,8.68274
0.943279,5.36981,7.27831,8.27078,8.87994,9.29217,9.58975,9.81471,9.99075,10.1323
0.969801,5.84219,7.80103,8.78252,9.3704,9.76146,10.0402,10.2489,10.4109,10.5404
0.941248,6.1746,8.31559,9.41567,10.0868,10.5395,10.8655,11.1116,11.304,11.4586
1.09515,7.79137,10.5298,11.9346,12.7884,13.3618,13.7734,14.0831,14.3246,14.5182
1.07119,7.98304,10.6783,12.0324,12.8458,13.3884,13.7759,14.0666,14.2927,14.4736
0.925794,7.46148,10.0733,11.4143,12.2315,12.7821,13.1783,13.4772,13.7107,13.8981
0.906732,8.02663,10.969,12.4974,13.4325,14.0633,14.5174,14.8599,15.1273,15.342
0.871874,8.17983,11.0913,12.5651,13.4523,14.0443,14.4673,14.7845,15.0313,15.2286
0.886425,9.01617,12.308,13.9966,15.0239,15.7149,16.2118,16.5863,16.8787,17.1133
0.89503,9.50429,12.8397,14.5151,15.5216,16.193,16.6726,17.0323,17.312,17.5358
0.992303,11.2001,15.2029,17.2498,18.4955,19.3341,19.9374,20.3923,20.7476,21.0328
0.966392,11.4253,15.455,17.4984,18.7334,19.5603,20.1525,20.5974,20.944,21.2215
1.00435,11.2818,14.7299,16.3929,17.3725,18.0182,18.476,18.8175,19.082,19.293
0.913881,10.7277,14.3042,16.1558,17.2969,18.0725,18.6346,19.0609,19.3954,19.6649
0.913882,6.52316,7.57914,8.01983,8.26135,8.41363,8.51832,8.59468,8.65282,8.69856
0.90422,8.92936,12.5489,14.9302,16.6512,17.9607,18.993,19.8285,20.519,21.0994
0.901824,11.1681,16.5148,19.6827,21.701,23.0725,24.0543,24.787,25.3524,25.8006
0.879536,12.3362,17.774,20.5636,22.1998,23.2644,24.0101,24.5611,24.9849,25.3209
0.901546,13.9131,19.6573,22.5095,24.1995,25.3199,26.1189,26.7181,27.1846,27.5583
0.913743,14.4372,19.697,22.2256,23.7161,24.7017,25.4028,25.9272,26.3344,26.6597
0.915403,15.1715,20.6529,23.3921,25.0513,26.1676,26.971,27.577,28.0506,28.431
0.852866,14.8106,20.334,23.2103,24.9884,26.1983,27.0752,27.7399,28.2612,28.681
0.865599,15.3959,20.8753,23.6369,25.2986,26.4065,27.1972,27.7896,28.2498,28.6176
0.903987,16.5435,22.353,25.2872,27.0596,28.2467,29.0976,29.7375,30.2363,30.6361
0.902994,17.4017,23.6895,26.9179,28.8855,30.2106,31.1639,31.8826,32.4439,32.8943
0.857796,16.8201,22.6776,25.6223,27.3921,28.5727,29.4159,30.0483,30.54,30.9334
0.944499,19.3393,26.261,29.8128,31.9779,33.4367,34.4869,35.2791,35.8981,36.3952
0.87448,17.6377,23.5043,26.4135,28.1498,29.3029,30.1242,30.7387,31.2159,31.597
0.888833,18.3637,24.6643,27.8871,29.8522,31.1773,32.132,32.8527,33.4161,33.8688
0.89093,19.5368,26.6515,30.3604,32.6361,34.1741,35.2826,36.1194,36.7734,37.2985
0.906865,20.8105,28.4137,32.3142,34.678,36.2617,37.3959,38.2481,38.9116,39.4429
0.918133,21.5746,29.2366,33.1021,35.428,36.981,38.0914,38.925,39.5737,40.093
0.893991,20.7875,27.7746,31.2515,33.3349,34.7237,35.716,36.4604,37.0397,37.5033
0.90218,21.6501,29.2293,33.1274,35.5114,37.1218,38.2833,39.1607,39.847,40.3985
1.00355,24.9734,33.898,38.4921,41.29,43.1715,44.5229,45.5402,46.3337,46.9697
0.890248,23.0198,31.3264,35.5843,38.1685,39.9027,41.1467,42.0825,42.812,43.3966
0.971958,24.8938,33.3445,37.5575,40.0781,41.7553,42.9515,43.8479,44.5445,45.1015
0.888949,23.6185,31.99,36.3011,38.9373,40.718,42.0023,42.9726,43.7317,44.3418
0.898169,23.1596,30.7626,34.5354,36.7876,38.2833,39.3484,40.1453,40.7639,41.2579
0.919332,24.7543,33.4984,38.0428,40.837,42.7312,44.1008,45.1374,45.9496,46.6031
0.898175,25.1529,34.2106,38.8785,41.7177,43.6241,44.9916,46.02,46.8213,47.4631
0.854489,23.7338,31.8052,35.8376,38.2501,39.8545,40.9984,41.8552,42.5209,43.053
0.897251,26.2097,35.7124,40.6512,43.6851,45.7403,47.2255,48.3493,49.2295,49.9376
0.919915,25.6672,33.9906,38.0759,40.4969,42.0966,43.2317,44.0786,44.7345,45.2575
0.880692,24.9268,33.3705,37.6967,40.3397,42.1253,43.4136,44.3875,45.1497,45.7626
0.90652,27.43,37.553,42.8833,46.1717,48.4014,50.0121,51.2298,52.1824,52.948
0.880636,26.7369,36.0559,40.7338,43.5307,45.3875,46.7088,47.6966,48.4628,49.0745
1.10365,34.2945,46.3384,52.4588,56.1664,58.6554,60.4427,61.789,62.8397,63.6828
0.898834,28.8587,39.1717,44.4521,47.6622,49.8202,51.3705,52.5381,53.4491,54.1796
0.87327,28.3824,38.3118,43.3312,46.3579,48.3813,49.8291,50.9162,51.7625,52.4399
0.904151,30.8384,42.1179,47.9528,51.5222,53.932,55.6688,56.98,58.0052,58.8286
0.917265,29.8098,39.5257,44.2852,47.1045,48.9677,50.29,51.277,52.0418,52.6517
0.900364,28.2508,37.2428,41.7345,44.4427,46.2573,47.5591,48.539,49.3036,49.9168
0.917619,30.7996,41.9543,47.8778,51.5633,54.079,55.9058,57.2926,58.3813,59.2586
0.859983,28.8564,38.8154,43.8409,46.8522,48.8525,50.276,51.3399,52.1648,52.8231
0.86514,30.748,42.0541,47.9335,51.5363,53.9717,55.7288,57.0567,58.0958,58.9311
0.915529,33.9702,46.5668,53.0481,56.9851,59.6276,61.5232,62.9488,64.0599,64.9501
0.863965,33.0003,44.995,51.0692,54.73,57.1762,58.9261,60.24,61.2627,62.0814
0.853728,16.7696,19.2617,20.2509,20.7821,21.1138,21.3406,21.5055,21.6309,21.7294
0.850308,20.569,27.719,32.1705,35.285,37.6014,39.3959,40.8287,41.9999,42.9755
0.923261,28.1454,41.3359,49.41,54.7175,58.4176,61.1221,63.1749,64.7812,66.0697
0.842956,29.7256,43.5183,50.9055,55.3282,58.2333,60.277,61.7897,62.9534,63.8761
0.834936,30.9896,43.5351,49.6394,53.186,55.5019,57.1349,58.3493,59.2885,60.0369
0.854994,32.3313,44.2551,50.0285,53.449,55.7217,57.3448,58.5633,59.5122,60.2724
0.896647,34.3501,46.5235,52.5422,56.1641,58.5904,60.3309,61.6407,62.6623,63.4814
0.90885,36.6778,50.241,57.2091,61.4788,64.3664,66.4499,68.0242,69.2556,70.2451
0.89062,37.5225,51.4483,58.5672,62.8894,65.7895,67.8689,69.4324,70.6506,71.6263
0.877443,38.181,52.164,59.2536,63.5366,66.4031,68.4558,69.9983,71.1997,72.162
0.883266,38.8996,52.7027,59.637,63.8108,66.5995,68.5948,70.0932,71.2599,72.1941
0.908204,40.4011,54.5383,61.6694,65.9777,68.8643,70.9339,72.4905,73.7039,74.6764
0.864123,39.1776,53.0104,60.0606,64.3426,67.2203,69.2874,70.8443,72.059,73.0332
0.876213,40.6179,55.0573,62.4274,66.8994,69.901,72.0549,73.6755,74.939,75.9518
0.892678,41.746,56.3861,63.8097,68.2966,71.3011,73.4536,75.0715,76.332,77.3417
0.866397,38.7183,51.2792,57.4866,61.1907,63.6525,65.4073,66.7216,67.7428,68.5592
0.833562,37.5894,50.3597,56.9209,60.9339,63.6457,65.6022,67.0807,68.2375,69.1674
0.859166,39.0216,52.4322,59.299,63.4693,66.2684,68.2762,69.7862,70.9629,71.9057
0.863575,40.7603,55.4623,63.0995,67.7725,70.9252,73.1955,74.9082,76.2464,77.3207
0.885575,42.5419,57.6959,65.4133,70.0735,73.1893,75.4185,77.0918,78.3941,79.4364
0.855953,40.338,53.9423,60.7232,64.7818,67.4838,69.4124,70.8582,71.9824,72.8816
0.847535,41.5974,56.5449,64.2975,69.0566,72.2791,74.607,76.3679,77.7466,78.8555
0.856127,42.9427,58.3233,66.1829,70.9432,74.1319,76.4155,78.131,79.4665,80.5357
0.88321,19.7825,22.285,23.2588,23.7764,24.0975,24.3162,24.4748,24.595,24.6892
0.872672,27.7083,39.04,46.8854,52.7821,57.4052,61.1359,64.2133,66.7965,68.9965
0.890362,35.7011,53.627,64.6509,71.7907,76.6725,80.1721,82.7812,84.7899,86.3779
0.922167,42.8815,63.5039,74.4108,80.8542,85.0499,87.9866,90.1542,91.8195,93.1391
0.839691,42.3056,60.4831,69.3805,74.5697,77.9719,80.3793,82.1751,83.5675,84.6792
0.836203,44.2132,61.7071,70.2301,75.2947,78.6662,81.0773,82.8889,84.3005,85.4317
0.854737,46.3742,63.6285,72.1005,77.1779,80.5703,82.9991,84.8244,86.2465,87.3856
0.86412,47.5474,64.6641,73.201,78.3577,81.816,84.2974,86.1649,87.6213,88.789
0.856079,47.5785,64.3736,72.8149,77.9191,81.3405,83.7937,85.6387,87.0767,88.229
