2.00729,2.04596,2.05918,2.06586,2.06988,2.07257,2.0745,2.07595,2.07708,2.07798
1.39739,1.90117,2.1538,2.30558,2.40685,2.47921,2.53351,2.57575,2.60955,2.63721
1.2889,2.23564,2.71512,2.99057,3.16663,3.28808,3.37662,3.44391,3.49673,3.53926
1.18019,2.53417,3.2119,3.58588,3.81851,3.97622,4.08991,4.17566,4.2426,4.29629
1.18524,3.11009,4.06802,4.58498,4.90325,5.11805,5.27258,5.38903,5.4799,5.55279
1.12092,3.37355,4.40355,4.92993,5.24523,5.45462,5.60367,5.71513,5.80162,5.87068
1.04651,3.51305,4.57261,5.10612,5.42594,5.63907,5.79131,5.90553,5.9944,6.06552
1.01189,4.04119,5.44525,6.19076,6.65268,6.96713,7.19507,7.36789,7.50345,7.61262
1.33089,6.08098,8.22238,9.32285,9.98742,10.431,10.7477,10.985,11.1694,11.3167
1.2118,6.26969,8.50225,9.63943,10.3254,10.784,11.1122,11.3587,11.5506,11.7043
1.0274,5.86259,7.90713,8.93334,9.54887,9.95909,10.2521,10.4718,10.6426,10.7793
1.00802,6.20823,8.31361,9.36373,9.99328,10.413,10.7129,10.9379,11.1129,11.253
0.970877,6.43001,8.59956,9.68952,10.3465,10.7861,11.1009,11.3375,11.5219,11.6695
0.962724,6.96782,9.39442,10.6328,11.385,11.8903,12.2533,12.5265,12.7397,12.9106
1.12742,8.81717,11.8956,13.4558,14.3974,15.027,15.4775,15.8157,16.0789,16.2896
0.955419,7.54147,9.93632,11.1051,11.7969,12.2541,12.5788,12.8213,13.0093,13.1593
1.08532,9.40692,12.6931,14.3971,15.4451,16.1559,16.6702,17.0596,17.3649,17.6106
0.962263,8.95827,12.1094,13.7153,14.6855,15.3341,15.7977,16.1454,16.4158,16.6321
0.970222,9.60276,12.9582,14.6524,15.6721,16.3529,16.8397,17.205,17.4893,17.7169
1.12457,11.7658,15.8534,17.9136,19.1545,19.984,20.5777,21.0236,21.3708,21.6488
0.979172,10.8076,14.5556,16.446,17.5857,18.348,18.8937,19.3037,19.623,19.8787
0.96655,11.1697,15.0162,16.9537,18.1211,18.9016,19.4602,19.8797,20.2064,20.4679
1.07496,12.7498,17.0209,19.1557,20.4371,21.2918,21.9025,22.3607,22.7172,23.0024
0.949508,11.6319,15.5291,17.4921,18.6766,19.4696,20.0376,20.4647,20.7974,21.064
0.9792,12.6187,16.9647,19.1801,20.5241,21.4263,22.0738,22.5611,22.9411,23.2457
0.967473,13.0678,17.602,19.9037,21.294,22.2243,22.8902,23.3905,23.7799,24.0917
1.01475,13.3962,17.6238,19.688,20.9098,21.7173,22.2907,22.7188,23.0507,23.3156
0.940009,12.5465,16.5714,18.5991,19.8266,20.6511,21.2436,21.69,22.0385,22.3182
1.0424,14.9145,20.1406,22.8655,24.5401,25.6733,26.4909,27.1086,27.5916,27.9797
0.952757,14.5613,19.8088,22.5096,24.1474,25.2445,26.0298,26.6196,27.0786,27.4459
1.08157,16.8402,22.5905,25.4504,27.1547,28.2851,29.0896,29.6913,30.1584,30.5314
0.949609,15.258,20.4607,23.0746,24.6494,25.703,26.4579,27.0255,27.4678,27.8224
0.990689,16.2278,21.6951,24.4433,26.0991,27.2063,27.9988,28.5942,29.0578,29.429
1.04979,17.7609,23.815,26.8805,28.7339,29.9757,30.8657,31.5348,32.0563,32.474
0.957525,16.8451,22.6827,25.6521,27.4499,28.6551,29.5191,30.1687,30.675,31.0807
0.94216,16.7911,22.4397,25.2666,26.9617,28.0909,28.8969,29.5011,29.9708,30.3464
1.02497,17.5756,23.0164,25.6747,27.2521,28.297,29.0402,29.5961,30.0276,30.3722
1.07825,20.2336,27.5184,31.3765,33.7772,35.4177,36.6104,37.5169,38.2294,38.8041
0.988558,18.9899,25.5648,28.8756,30.8565,32.1707,33.1049,33.8026,34.3431,34.7741
1.064,21.4645,29.072,32.9446,35.2885,36.8601,37.9876,38.8361,39.498,40.0287
0.994547,20.8781,28.249,31.9716,34.2135,35.7112,36.7823,37.5863,38.212,38.7128
0.991553,20.5366,27.2697,30.5754,32.5391,33.8402,34.7657,35.4578,35.9949,36.4239
0.99737,21.7895,29.4351,33.3664,35.7712,37.3964,38.5689,39.4552,40.1486,40.7061
0.991961,20.5317,26.8918,29.9723,31.7862,32.9801,33.8248,34.4538,34.9402,35.3276
0.935546,19.4888,25.7739,28.9584,30.8939,32.1973,33.1358,33.8441,34.3979,34.8428
0.994628,22.4089,30.5061,34.7758,37.4139,39.2046,40.4992,41.4786,42.2452,42.8615
0.993021,22.2793,29.7572,33.4693,35.6728,37.1282,38.1599,38.929,39.5243,39.9986
0.996668,23.3424,31.4994,35.6623,38.1908,39.8915,41.1147,42.037,42.7575,43.3361
0.991091,24.6761,33.6527,38.268,41.0748,42.9608,44.3148,45.334,46.1287,46.7656
0.967908,25.1437,34.1914,38.7607,41.5078,43.3397,44.648,45.6288,46.3914,47.0013
1.0167,27.3497,37.0737,41.9622,44.9018,46.8648,48.2687,49.3227,50.1433,50.8002
0.950182,26.1681,35.3013,39.877,42.6273,44.4635,45.7767,46.7625,47.5298,48.1441
0.966976,27.0936,36.4206,41.0989,43.915,45.7972,47.1441,48.1557,48.9435,49.5743
0.978221,27.7565,37.1961,41.9318,44.7822,46.6867,48.0493,49.0724,49.869,50.5067
0.980963,28.0132,37.4302,42.1571,45.0029,46.9047,48.2654,49.2873,50.083,50.72
0.947936,27.8614,37.4885,42.394,45.3711,47.3705,48.806,49.8868,50.7298,51.4058
0.972276,27.9952,37.1419,41.6803,44.3897,46.1895,47.4715,48.431,49.1761,49.7713
1.00306,28.8338,38.3051,43.0774,45.96,47.8917,49.277,50.3193,51.132,51.7836
1.18107,35.0554,47.128,53.3295,57.1081,59.6516,61.4804,62.8585,63.9341,64.7971
0.986574,29.8696,40.1745,45.4095,48.57,50.6831,52.1948,53.3297,54.2128,54.9195
0.961546,29.6023,39.7767,44.919,48.0184,50.0902,51.5726,52.686,53.5529,54.2469
0.987672,31.5942,42.7517,48.4465,51.9,54.2179,55.8812,57.1331,58.1093,58.892
1.03451,33.387,44.8277,50.5562,53.99,56.2766,57.9084,59.1311,60.0815,60.8413
0.989713,31.2958,41.4948,46.5394,49.5519,51.5556,52.9849,54.056,54.8887,55.5546
0.951093,31.0654,41.7689,47.2602,50.6125,52.8743,54.5039,55.7342,56.696,57.4686
0.938523,32.0214,43.4362,49.3004,52.864,55.2563,56.9722,58.2627,59.2683,60.0739
1.04004,35.4204,47.4442,53.4338,57.0097,59.3843,61.0752,62.3404,63.3226,64.1072
1.01865,35.1381,47.1039,53.1348,56.7749,59.2129,60.9607,62.2754,63.3005,64.1222
0.973526,33.2161,44.178,49.6472,52.9273,55.1136,56.675,57.8459,58.7565,59.4849
0.993691,34.8528,46.8502,52.9877,56.7234,59.2379,61.0463,62.4096,63.4742,64.3286
0.933211,33.1215,44.4541,50.1863,53.6417,55.9503,57.601,58.8397,59.8035,60.5746
0.933504,13.175,14.5674,15.0997,15.3807,15.5543,15.6723,15.7577,15.8223,15.8729
0.919052,19.4149,27.5439,33.4254,37.9836,41.6414,44.6481,47.1658,49.3058,51.1479
0.929579,25.9476,39.8065,48.6306,54.4234,58.4005,61.2508,63.3707,64.9975,66.2787
0.928234,30.4493,45.4797,53.3328,57.8838,60.799,62.8136,64.2862,65.409,66.2935
0.965789,35.3642,51.1163,58.7776,63.2188,66.1226,68.1755,69.7068,70.8944,71.8431
1.02551,40.171,56.4013,64.1774,68.7528,71.7814,73.9392,75.5561,76.8135,77.8195
0.964646,39.8359,55.0865,62.5174,66.9595,69.9248,72.0472,73.6421,74.8845,75.8798
0.927502,39.7708,54.4022,61.607,65.9301,68.8169,70.8819,72.4324,73.6393,74.6055
0.902922,38.2267,51.2024,57.5189,61.2783,63.7744,65.5526,66.8838,67.9178,68.7441
0.931376,39.2896,52.4197,58.9527,62.89,65.526,67.4155,68.8367,69.9445,70.8324
0.938628,40.3792,54.2299,61.2669,65.5412,68.4136,70.4767,72.0303,73.2422,74.214
0.942728,41.334,55.6338,62.8908,67.279,70.2168,72.3206,73.9011,75.1319,76.1173
0.939099,41.9337,56.4587,63.8048,68.2356,71.1981,73.3181,74.9103,76.1499,77.1423
0.938314,40.2004,53.0595,59.3668,63.1115,65.5916,67.3552,68.6736,69.6965,70.5133
0.926556,41.478,55.9748,63.4868,68.102,71.2299,73.4912,75.2027,76.5435,77.6224
0.936605,40.4197,53.458,59.8873,63.7041,66.2277,68.0186,69.3546,70.3894,71.2142
0.945428,43.613,59.3802,67.6445,72.7469,76.215,78.7274,80.6319,82.1257,83.3289
0.940884,43.3427,58.2024,65.6281,70.0586,72.9956,75.0829,76.6419,77.85,78.8135
0.935938,41.5282,54.8328,61.3655,65.25,67.8271,69.6627,71.037,72.1047,72.9583
0.950049,43.8258,59.0707,66.9568,71.7978,75.077,77.4466,79.2396,80.6437,81.7733
0.916779,16.7575,18.5563,19.2449,19.6078,19.8314,19.983,20.0925,20.1752,20.2399
0.911308,23.8481,33.2822,39.901,44.9159,48.87,52.0749,54.7277,56.961,58.8676
0.916911,32.5196,50.2518,61.8312,69.6019,75.0344,78.9862,81.9619,84.2692,86.1026
0.928744,40.1413,61.3619,72.8277,79.5712,83.9182,86.9298,89.1327,90.812,92.1342
0.914618,42.7831,61.5605,70.4243,75.4446,78.6736,80.9301,82.5989,83.8848,84.9068
0.900016,44.4338,62.0248,70.3715,75.2773,78.5295,80.8515,82.5952,83.9538,85.0426
0.916569,47.6363,65.7743,74.6481,79.9766,83.5452,86.105,88.0317,89.5343,90.739
0.906266,49.3216,67.7132,76.8502,82.3575,86.0439,88.6847,90.6692,92.2151,93.4532
0.897595,48.5965,65.4044,73.6204,78.5142,81.7631,84.0772,85.8092,87.1541,88.2287
