1.79501,1.85966,1.88225,1.89376,1.90073,1.9054,1.90876,1.91128,1.91325,1.91482
1.33958,1.85667,2.1176,2.2748,2.37984,2.45499,2.51142,2.55534,2.5905,2.61928
2.18207,3.72061,4.46638,4.88459,5.14802,5.32799,5.4583,5.55685,5.63389,5.69574
1.08282,2.37378,3.05213,3.44042,3.68817,3.85924,3.98424,4.07951,4.15451,4.21507
1.06563,2.86111,3.77861,4.27714,4.58403,4.79071,4.93901,5.05049,5.13728,5.20675
1.03629,3.34555,4.49789,5.1091,5.48242,5.73339,5.91358,6.04921,6.15497,6.23976
0.999645,3.75887,5.07338,5.75294,6.16412,6.43932,6.63636,6.78438,6.89966,6.99197
1.02229,4.29468,5.75057,6.48632,6.92843,7.22345,7.43434,7.59261,7.71579,7.81437
0.989943,4.70488,6.34868,7.19252,7.70608,8.05177,8.30043,8.48791,8.63434,8.75186
1.31711,6.91785,9.31737,10.5371,11.2744,11.768,12.1215,12.3871,12.5939,12.7596
0.933575,5.02197,6.57883,7.33743,7.78624,8.08284,8.29345,8.45074,8.57268,8.66999
0.93731,5.76494,7.83193,8.92944,9.6141,10.083,10.4245,10.6844,10.889,11.0542
0.963745,6.56182,8.94647,10.1792,10.9281,11.4298,11.7889,12.0583,12.2679,12.4355
0.919012,6.71495,9.07743,10.2689,10.9843,11.4612,11.8017,12.057,12.2556,12.4144
1.01628,8.07242,10.9576,12.4302,13.324,13.9247,14.3562,14.6813,14.9351,15.1387
0.966852,8.29346,11.263,12.7743,13.6891,14.3023,14.7418,15.0722,15.3297,15.536
1.0492,9.37165,12.5882,14.2004,15.1692,15.8156,16.2778,16.6246,16.8944,17.1104
1.02718,9.72109,13.0983,14.8171,15.8606,16.562,17.066,17.4457,17.742,17.9798
0.949857,9.07716,12.0355,13.5035,14.381,14.9644,15.3804,15.6919,15.9339,16.1273
0.935824,9.71909,13.1814,14.9901,16.1055,16.8629,17.4111,17.8264,18.152,18.4141
0.920681,10.0339,13.5522,15.3425,16.423,17.1448,17.6606,18.0474,18.3482,18.5886
0.922844,10.4872,14.124,15.9658,17.0775,17.8215,18.3544,18.755,19.0671,19.3171
0.916935,10.8767,14.6579,16.5819,17.748,18.5307,19.0924,19.5151,19.8449,20.1093
1.08415,13.2541,17.7935,20.0909,21.4787,22.4077,23.0732,23.5734,23.963,24.2751
0.915788,12.0553,16.4215,18.6849,20.0704,21.0058,21.68,22.1888,22.5866,22.9061
0.908795,11.5399,15.2043,16.9882,18.0406,18.7343,19.2257,19.592,19.8755,20.1014
1.01378,12.7168,16.6952,18.6826,19.8815,20.6852,21.262,21.6964,22.0354,22.3074
1.02335,14.0052,19.02,21.6841,23.3416,24.473,25.2944,25.9179,26.4072,26.8015
0.930476,13.6608,18.6837,21.2911,22.8771,23.9404,24.7018,25.2734,25.7183,26.0742
1.00899,15.7325,21.5228,24.4855,26.277,27.476,28.3346,28.9797,29.4822,29.8847
1.0271,14.7858,19.2671,21.3934,22.6329,23.4446,24.0176,24.4437,24.773,25.0352
0.91127,12.698,16.524,18.4289,19.5801,20.3537,20.9101,21.3298,21.6578,21.9212
0.961334,15.1807,20.8897,24.0245,26.0143,27.3902,28.3982,29.1684,29.7761,30.2676
0.975706,15.7822,21.3314,24.1309,25.7987,26.8999,27.6794,28.2595,28.7076,29.0641
0.879469,12.9581,16.7392,18.5295,19.5721,20.2549,20.7371,21.096,21.3736,21.5948
1.0163,17.4386,24.2045,27.9669,30.3859,32.0778,33.3295,34.2937,35.0594,35.6824
0.88493,16.6167,23.1442,26.5604,28.6348,30.0198,31.0069,31.7448,32.3166,32.7723
0.916586,18.2578,25.2097,28.7345,30.8505,32.2599,33.266,34.0203,34.607,35.0765
0.973728,20.0871,27.3787,31.0124,33.1866,34.6347,35.6688,36.4446,37.0481,37.531
0.963083,20.4755,27.7481,31.3941,33.5914,35.0623,36.1164,36.9092,37.5271,38.0223
0.964197,21.2472,28.8071,32.6376,34.9587,36.5167,37.635,38.4767,39.1332,39.6595
0.95548,21.5343,29.064,32.8603,35.1504,36.6823,37.7789,38.6026,39.244,39.7576
0.952622,21.9755,29.6306,33.5058,35.8496,37.4205,38.5468,39.3939,40.0543,40.5835
0.974572,22.7638,30.5752,34.5174,36.8965,38.4886,39.6288,40.4855,41.1529,41.6873
1.01243,24.3894,32.9327,37.2988,39.9526,41.7367,43.0185,43.9841,44.7376,45.342
0.996044,21.2908,27.4535,30.3916,32.1114,33.2403,34.0382,34.632,35.0911,35.4567
0.960037,22.354,30.3128,34.6018,37.3074,39.1752,40.5438,41.5905,42.417,43.0864
0.958508,23.9323,32.8804,37.5838,40.4613,42.3956,43.7822,44.8237,45.634,46.2822
0.896742,12.2869,14.2239,14.9984,15.4125,15.6699,15.8452,15.9724,16.0688,16.1444
0.903468,16.7542,23.4428,27.811,30.9643,33.3645,35.2579,36.7916,38.06,39.127
0.887443,19.1807,27.5205,32.2454,35.1821,37.1468,38.5384,39.569,40.3595,40.9833
0.929571,22.6041,32.2888,37.3295,40.3362,42.3193,43.7233,44.7694,45.5791,46.2247
0.927862,25.2112,35.8909,41.3259,44.5838,46.7554,48.3081,49.4743,50.3828,51.1108
0.925116,26.5869,36.9885,42.1011,45.1338,47.1439,48.5748,49.6457,50.4774,51.1419
0.921715,27.4217,37.5664,42.5629,45.5527,47.5473,48.9741,50.0458,50.8804,51.5489
0.92989,27.7117,37.3299,42.0592,44.8893,46.7759,48.1241,49.1358,49.923,50.553
0.937551,28.6646,38.7291,43.8213,46.9158,48.998,50.4956,51.6246,52.5062,53.2139
0.927624,29.347,39.8426,45.2107,48.4777,50.675,52.2537,53.4426,54.3701,55.1139
0.942053,27.6365,36.2269,40.3853,42.8379,44.455,45.6012,46.4559,47.1178,47.6454
0.918593,28.5373,38.6395,43.9617,47.2707,49.5324,51.1777,52.429,53.413,54.2073
0.932509,29.9212,40.6076,46.1052,49.4402,51.6735,53.2715,54.4706,55.4032,56.1491
0.918764,30.9663,42.3434,48.2097,51.7783,54.1765,55.8988,57.1957,58.2074,59.0188
0.915691,29.652,39.3812,44.1342,46.9433,48.7974,50.1126,51.0938,51.8541,52.4603
0.904674,28.0734,36.8926,41.2548,43.8708,45.618,46.8688,47.8089,48.5415,49.1285
0.881593,29.8239,40.8272,46.7203,50.409,52.9378,54.78,56.182,57.2846,58.1746
0.964681,33.5714,45.7215,51.9413,55.6935,58.1953,59.9796,61.3151,62.3517,63.1794
0.907782,15.6117,17.8021,18.665,19.1253,19.4115,19.6067,19.7484,19.8559,19.9403
0.911568,21.9256,30.8701,36.9215,41.398,44.8667,47.6405,49.9119,51.8072,53.4132
0.910154,27.3658,40.7706,48.8431,54.0188,57.5403,60.0589,61.9347,63.3785,64.5201
0.882567,30.4733,44.6609,52.0713,56.4384,59.2825,61.2747,62.7462,63.8776,64.7745
0.873437,32.5203,46.1282,52.7766,56.6622,59.2139,61.0215,62.3708,63.4175,64.2535
0.898898,15.627,17.7706,18.5584,18.9695,19.2229,19.3952,19.52,19.6146,19.6888
0.865447,21.6553,30.8205,37.1093,41.8428,45.5633,48.5726,51.0597,53.151,54.9344
0.858691,27.5822,41.8577,50.6117,56.284,60.1625,62.9417,65.0123,66.6052,67.8635
0.853042,29.7215,42.7384,49.2181,52.9252,55.2921,56.9269,58.1221,59.0339,59.7524
0.873208,34.8454,50.385,58.3008,63.0687,66.2683,68.5717,70.3126,71.6763,72.7741
0.855489,36.1524,50.7164,57.8082,61.999,64.7707,66.7407,68.2131,69.3551,70.2667
0.858591,38.1115,52.7429,59.9478,64.2665,67.1522,69.2188,70.7725,71.9834,72.9539
0.8119,35.6438,48.0518,54.0696,57.6471,60.0222,61.7145,62.9816,63.966,64.7527
0.835291,38.4376,52.4466,59.6051,63.9885,66.9543,69.096,70.7156,71.9836,73.0033
0.826767,39.024,53.0581,60.1597,64.4515,67.3232,69.3782,70.921,72.1216,73.0824
0.866523,41.4754,56.126,63.5137,67.9707,70.9524,73.0874,74.6916,75.9411,76.9419
0.857238,38.6165,50.8642,56.8306,60.3668,62.7071,64.3706,65.614,66.5787,67.3488
0.866975,37.8614,49.8847,55.9228,59.577,62.0312,63.7945,65.1231,66.1604,66.9929
0.860403,40.087,54.5848,62.2871,67.0767,70.3433,72.7136,74.5116,75.9223,77.0586
0.866002,42.2863,57.9051,65.9966,70.912,74.2048,76.5616,78.3304,79.7064,80.8071
0.840807,42.4719,58.0111,65.9155,70.6799,73.8625,76.1386,77.8471,79.177,80.2415
0.91887,46.8633,63.3953,71.6752,76.6417,79.953,82.319,84.0941,85.4752,86.5804
0.848952,44.3928,60.2102,68.248,73.1228,76.3977,78.7503,80.5225,81.9056,83.0151
0.866599,45.3709,61.1094,69.0298,73.8015,76.9907,79.2725,80.9858,82.3195,83.3871
0.857368,45.1832,60.8025,68.7073,73.4887,76.694,78.9926,80.7217,82.0698,83.1503
0.818046,16.9579,18.7873,19.489,19.8604,20.0903,20.2466,20.3598,20.4456,20.5128
0.860561,26.1281,36.9022,44.6187,50.555,55.2909,59.1654,62.3971,65.1351,67.4852
0.824598,32.7215,50.009,61.0079,68.2443,73.2276,76.8102,79.4828,81.5393,83.1632
0.854875,39.9733,59.9818,70.6111,76.8453,80.8719,83.6708,85.7252,87.2966,88.5375
0.837134,43.1312,62.3497,71.7284,77.1687,80.7241,83.2357,85.1078,86.5587,87.717
0.823612,45.4014,64.034,73.0783,78.4387,82.0037,84.552,86.4664,87.9581,89.1534
0.820013,47.265,65.5123,74.4485,79.7992,83.3735,85.9324,87.8555,89.3538,90.5539
0.854166,48.7505,65.8557,74.1488,79.085,82.3652,84.7039,86.4559,87.8174,88.9059
0.8467,49.3362,66.7966,75.591,80.9366,84.5364,87.1272,89.0816,90.6088,91.8351
