1.77721,1.83287,1.85221,1.86203,1.86798,1.87196,1.87482,1.87696,1.87864,1.87998
1.34224,1.81616,2.04829,2.18597,2.27709,2.34185,2.39023,2.42776,2.45772,2.48218
1.12647,1.98686,2.43676,2.70088,2.87222,2.99168,3.07949,3.14664,3.19961,3.24244
1.45924,3.19372,4.07901,4.57039,4.87642,5.08383,5.23322,5.34579,5.43359,5.50395
1.07021,2.85383,3.7486,4.23133,4.52823,4.72846,4.87244,4.9809,5.06553,5.1334
0.999061,3.12663,4.14332,4.67379,4.99539,5.21068,5.36479,5.48054,5.57065,5.64279
0.952857,3.45214,4.61274,5.21328,5.57787,5.82259,5.9982,6.13037,6.23344,6.31608
0.996251,4.09519,5.48454,6.1954,6.62532,6.91323,7.11949,7.27452,7.39528,7.49201
0.994852,4.68616,6.35164,7.21426,7.74069,8.09539,8.35062,8.54308,8.69339,8.81403
0.965937,5.00234,6.72616,7.59557,8.11778,8.46584,8.71432,8.90057,9.04535,9.16112
0.936023,5.41711,7.34287,8.33084,8.9321,9.33677,9.62782,9.84724,10.0186,10.1562
1.08546,6.7631,9.08434,10.2499,10.9497,11.4161,11.7492,11.9989,12.193,12.3483
1.07722,7.22601,9.70057,10.9519,11.7082,12.2151,12.5786,12.8521,13.0653,13.2362
0.943726,6.82645,9.18813,10.3901,11.1187,11.6077,11.9586,12.2226,12.4285,12.5936
0.941913,7.24284,9.72271,10.9772,11.7344,12.2409,12.6036,12.876,13.0882,13.2581
1.00238,8.38018,11.3595,12.8928,13.8277,14.4574,14.9104,15.252,15.5188,15.7329
1.00136,8.79599,11.8235,13.3467,14.2617,14.8717,15.3073,15.6338,15.8876,16.0906
0.930214,8.81273,11.9461,13.5528,14.5309,15.1893,15.6629,16.0199,16.2988,16.5226
0.929267,9.10479,12.2056,13.7597,14.6922,15.3137,15.7574,16.09,16.3485,16.5553
0.880376,9.16952,12.3819,14.0261,15.0269,15.7008,16.1856,16.5512,16.8367,17.0659
0.893246,9.57905,12.821,14.4488,15.4268,16.079,16.5449,16.8942,17.1658,17.3831
0.926436,10.379,13.939,15.7514,16.8513,17.5903,18.1211,18.5209,18.833,19.0833
0.927159,10.8815,14.6564,16.5836,17.7531,18.5381,19.1014,19.5252,19.8557,20.1206
0.959701,8.53041,10.4076,11.2321,11.6949,11.9912,12.197,12.3484,12.4643,12.556
0.936181,10.2306,14.0522,16.3015,17.8099,18.8977,19.721,20.3666,20.8867,21.3148
0.919122,11.3813,15.9155,18.3743,19.8866,20.9001,21.6225,22.1616,22.5785,22.9101
0.877344,11.781,16.3154,18.6252,20.0032,20.9152,21.5628,22.0464,22.4213,22.7205
0.927516,13.3262,18.3241,20.8379,22.3453,23.3509,24.07,24.6102,25.0309,25.3679
0.915412,13.8321,18.8617,21.3778,22.8892,23.8986,24.6209,25.1633,25.5858,25.924
0.917224,14.4615,19.6138,22.1974,23.7538,24.795,25.5406,26.101,26.5375,26.8872
0.945934,15.4676,20.9086,23.6479,25.3017,26.409,27.2025,27.799,28.2638,28.6362
0.947436,15.9039,21.399,24.1617,25.8271,26.9408,27.7381,28.337,28.8034,29.1769
0.915436,15.8548,21.3448,24.125,25.8073,26.9353,27.7442,28.3527,28.8271,29.2073
0.925753,16.458,22.1287,24.9982,26.7319,27.8927,28.7243,29.3494,29.8363,30.2263
0.935258,17.4739,23.6996,26.8973,28.845,30.156,31.0985,31.8089,32.3634,32.8084
0.916927,17.55,23.6601,26.7429,28.5981,29.8364,30.7213,31.3851,31.9014,32.3145
0.919275,18.002,24.2131,27.3486,29.2405,30.5067,31.4138,32.0956,32.6269,33.0526
0.887558,17.7386,23.822,26.8962,28.7529,29.996,30.8867,31.5563,32.078,32.4959
0.904221,18.6823,25.2136,28.5509,30.5785,31.9413,32.9203,33.6575,34.2328,34.6942
0.908673,19.6917,26.7661,30.4021,32.6144,34.1017,35.1699,35.9743,36.6018,37.1049
0.909395,20.3616,27.6058,31.2831,33.5031,34.9877,36.0503,36.8482,37.4694,37.9667
0.926713,20.7033,27.6946,31.1734,33.2546,34.6398,35.6281,36.3689,36.9447,37.4053
0.919041,21.2799,28.7299,32.5448,34.8704,36.4381,37.567,38.419,39.0849,39.6196
0.902368,20.9848,28.1034,31.6808,33.8313,35.2657,36.2904,37.0587,37.6561,38.1338
0.916476,21.7028,29.1257,32.8932,35.1748,36.7056,37.804,38.6307,39.2755,39.7924
0.920432,21.5192,28.5954,32.1327,34.2553,35.6702,36.6808,37.4386,38.028,38.4994
0.921074,21.991,29.4655,33.2885,35.6157,37.1824,38.3093,39.1591,39.8227,40.3554
0.898604,22.6339,30.7703,34.9944,37.5782,39.3208,40.575,41.5207,42.2592,42.8518
0.895725,23.2978,31.6075,35.8371,38.3894,40.095,41.3145,42.2297,42.9417,43.5113
0.91248,23.853,32.0376,36.1348,38.592,40.2298,41.3996,42.2771,42.9597,43.5058
0.917577,24.515,33.0071,37.3166,39.928,41.6813,42.9402,43.8881,44.6278,45.221
0.924009,24.8269,33.2735,37.5312,40.098,41.8142,43.0424,43.9648,44.6829,45.2578
0.925746,25.0146,33.4731,37.7478,40.3302,42.0597,43.2992,44.2311,44.9572,45.5391
0.904107,25.0963,33.8063,38.2621,40.9706,42.7913,44.0992,45.0842,45.8528,46.4692
0.89827,25.257,33.9406,38.3389,40.9929,42.7677,44.0377,44.9914,45.7338,46.3281
0.912407,26.2554,35.3834,40.0307,42.8461,44.7347,46.0895,47.109,47.9038,48.541
0.901487,26.3903,35.5408,40.1842,42.991,44.8706,46.2173,47.2295,48.018,48.6497
0.905543,27.2675,36.844,41.7241,44.6815,46.6654,48.0885,49.1592,49.994,50.663
0.912047,28.3347,38.3972,43.5322,46.6451,48.7335,50.2315,51.3584,52.2369,52.941
0.919292,28.7307,38.6177,43.5809,46.5621,48.5503,49.9707,51.0361,51.8648,52.5277
0.92229,28.8761,38.6631,43.5878,46.5572,48.5442,49.9676,51.0375,51.8713,52.5392
0.918057,29.3326,39.468,44.6353,47.773,49.8813,51.3956,52.536,53.4258,54.1393
0.899906,28.967,38.8795,43.8971,46.9262,48.9528,50.4036,51.4933,52.3418,53.0212
0.910725,29.7411,39.9861,45.1949,48.3494,50.4649,51.9823,53.1239,54.0139,54.7272
0.891603,29.9325,40.4572,45.8429,49.114,51.3113,52.8889,54.0764,55.0027,55.7453
0.902077,30.6089,41.1988,46.5508,49.776,51.931,53.4724,54.6295,55.53,56.2508
0.918098,31.7656,42.8266,48.4459,51.8475,54.1285,55.7646,56.9955,57.9552,58.7245
0.909811,31.8249,42.8089,48.3649,51.7187,53.963,55.5701,56.7776,57.7181,58.4713
0.918274,33.3099,45.1916,51.2945,55.0116,57.5136,59.3128,60.6689,61.7277,62.5772
0.917694,33.8633,45.7604,51.7817,55.4117,57.8371,59.5717,60.8737,61.8867,62.6975
0.899681,33.2645,44.6473,50.3601,53.7947,56.0878,57.7276,58.9586,59.9168,60.6839
0.913313,33.8853,45.4192,51.245,54.7658,57.1252,58.817,60.0895,61.0815,61.8766
0.906077,34.2309,46.0846,52.13,55.7996,58.2643,60.0339,61.366,62.405,63.2381
0.916905,35.0105,47.0845,53.2079,56.9077,59.3841,61.1575,62.4899,63.5276,64.3585
0.917048,36.0083,48.7115,55.2122,59.1611,61.8144,63.7198,65.1546,66.274,67.1716
0.899698,35.7913,48.2685,54.5853,58.3956,60.9433,62.7663,64.1352,65.2008,66.0539
0.906498,36.189,48.5965,54.8497,58.6181,61.1378,62.9415,64.2965,65.3518,66.1969
0.900829,36.5228,49.164,55.5871,59.4783,62.0891,63.9624,65.3722,66.4715,67.3528
0.917758,37.7301,50.8064,57.444,61.4584,64.1477,66.0748,67.5235,68.6521,69.5563
0.902376,37.4018,50.3054,56.8464,60.8002,63.4485,65.3462,66.7729,67.8845,68.7752
0.913577,38.9359,52.6927,59.735,64.0149,66.8914,68.9575,70.5134,71.7273,72.7009
0.900679,38.6435,52.0207,58.7709,62.8355,65.55,67.4908,68.9472,70.0805,70.9873
0.91596,39.2467,52.5922,59.3077,63.3532,66.0579,67.9941,69.4487,70.5816,71.4889
0.895788,38.6841,51.9379,58.6695,62.7485,65.486,67.4507,68.9295,70.0828,71.0075
0.901479,40.3177,54.6887,62.0956,66.6139,69.6572,71.8461,73.4962,74.7844,75.8181
0.897796,41.0006,55.5266,62.9105,67.3694,70.3513,72.4849,74.0868,75.3336,76.3316
0.893502,40.9427,55.0776,62.1822,66.4538,69.3051,71.3438,72.874,74.065,75.0182
0.907463,41.3721,55.3667,62.3942,66.6259,69.4551,71.4804,73.0021,74.1873,75.1365
0.9024,41.6857,56.0489,63.3674,67.8116,70.7982,72.9438,74.5598,75.8208,76.8322
0.91583,42.6744,57.3815,64.8516,69.3703,72.3971,74.5658,76.1957,77.4654,78.4824
0.897226,43.274,58.7395,66.7026,71.5558,74.8231,77.1726,78.9434,80.3259,81.4352
0.899874,43.2862,58.1783,65.6564,70.1435,73.1327,75.266,76.8648,78.1074,79.101
0.907167,43.7403,58.6952,66.2466,70.8071,73.862,76.0521,77.6993,78.9835,80.0127
0.93015,45.9885,62.1947,70.5093,75.5734,78.9826,81.4343,83.2822,84.7249,85.8826
0.899567,44.3452,59.5156,67.1477,71.7351,74.7947,76.9801,78.6188,79.8931,80.9122
0.908126,45.0446,60.5063,68.3466,73.0916,76.2738,78.5567,80.2747,81.6144,82.6885
0.896489,44.5048,59.6941,67.386,72.0345,75.1477,77.3783,79.0551,80.3614,81.4079
0.906839,47.0263,63.9952,72.789,78.1705,81.8032,84.4206,86.396,87.9399,89.1798
0.912809,46.8259,62.8263,70.824,75.6068,78.7851,81.0491,82.7432,84.0584,85.1089
0.903663,46.6075,62.5777,70.658,75.5456,78.8236,81.1759,82.9466,84.328,85.4358
