1.96531,2.00139,2.01371,2.01993,2.02368,2.02619,2.02798,2.02933,2.03038,2.03122
1.44016,1.94996,2.20409,2.35628,2.45762,2.52994,2.58415,2.62629,2.65999,2.68756
1.24611,2.18114,2.66361,2.94388,3.1243,3.24936,3.34087,3.41061,3.46546,3.50971
1.16749,2.51991,3.19689,3.56896,3.79949,3.95528,4.06728,4.15158,4.21727,4.26989
1.14144,2.98502,3.89082,4.37581,4.67312,4.87327,5.01704,5.12527,5.20967,5.27733
1.75924,5.36608,7.04966,7.92135,8.44791,8.79963,9.05103,9.23963,9.38634,9.5037
1.13561,3.95175,5.21172,5.85521,6.24328,6.50268,6.6883,6.82771,6.93626,7.02317
1.36396,5.07179,6.56699,7.30287,7.73935,8.02823,8.23356,8.387,8.50602,8.60103
1.00044,4.00696,5.19397,5.78969,6.14886,6.38939,6.56184,6.69157,6.79273,6.87383
1.23365,5.96573,8.14979,9.33994,10.0896,10.6053,10.9816,11.2684,11.4941,11.6765
0.976004,5.03309,6.68915,7.50719,7.9889,8.30482,8.52748,8.69267,8.82,8.92112
1.20218,7.20234,9.85859,11.2512,12.1093,12.692,13.1139,13.4338,13.6848,13.887
0.995664,6.75241,9.28255,10.5805,11.3652,11.8897,12.2647,12.546,12.7647,12.9395
1.01233,7.43254,10.0799,11.3952,12.1786,12.6983,13.0681,13.3447,13.5594,13.7309
0.995679,7.84679,10.5823,11.9466,12.7656,13.3125,13.7038,13.9977,14.2266,14.4099
1.26562,10.5185,14.0839,15.8589,16.9238,17.6342,18.142,18.523,18.8195,19.0568
0.966362,8.63981,11.6434,13.1685,14.0936,14.7149,15.161,15.4969,15.759,15.9692
1.19963,11.5562,15.6466,17.7297,18.9914,19.8371,20.4434,20.8991,21.2542,21.5387
0.949342,9.73253,13.1507,14.8747,15.9124,16.6051,17.1003,17.4719,17.761,17.9923
1.09844,11.8416,15.9384,17.9945,19.2307,20.0558,20.6459,21.0888,21.4335,21.7094
1.05142,11.9575,16.101,18.19,19.45,20.2931,20.8968,21.3505,21.704,21.9871
1.15327,13.7806,18.5502,20.9559,22.4065,23.3767,24.0711,24.5928,24.999,25.3243
0.9813,11.968,15.9565,17.9421,19.1312,19.923,20.4882,20.9119,21.2412,21.5046
1.12349,14.3158,19.1886,21.6592,23.156,24.1608,24.882,25.425,25.8486,26.1883
1.06731,14.0766,18.8413,21.2424,22.6885,23.6545,24.3452,24.8636,25.2669,25.5897
0.978674,13.2976,17.7732,20.0259,21.3825,22.289,22.9376,23.4247,23.8039,24.1075
1.0781,15.401,20.7399,23.4635,25.1161,26.2259,27.0226,27.6223,28.0901,28.4651
1.03851,15.5753,21.0246,23.7914,25.4625,26.5804,27.3806,27.9816,28.4494,28.824
1.02568,15.7832,21.1585,23.8479,25.46,26.5338,27.3003,27.8749,28.3217,28.679
1.04933,16.6496,22.3123,25.1616,26.8787,28.0273,28.8498,29.4679,29.9495,30.3352
1.0583,17.4707,23.4927,26.5436,28.3883,29.6241,30.5098,31.1757,31.6946,32.1104
0.929646,15.8077,21.2179,23.9437,25.585,26.6814,27.4655,28.054,28.5121,28.8787
1.20414,21.0207,28.1842,31.7944,33.9705,35.4256,36.4671,37.2496,37.8589,38.3469
1.05664,18.955,25.418,28.6807,30.6492,31.9662,32.9093,33.6179,34.1698,34.6118
1.00407,18.666,25.1035,28.3658,30.3372,31.6573,32.603,33.3139,33.8677,34.3113
0.926245,16.5178,21.6643,24.1698,25.6513,26.6299,27.3244,27.8428,28.2446,28.5651
1.05427,19.8002,26.5843,30.0985,32.2594,33.7251,34.7854,35.5885,36.218,36.7247
1.00634,18.4375,24.2955,27.1875,28.9056,30.042,30.8486,31.4504,31.9165,32.2881
1.02725,18.6905,24.6184,27.5882,29.3764,30.5726,31.4294,32.0736,32.5757,32.9781
0.941233,18.7933,25.6514,29.2926,31.5533,33.0939,34.2111,35.0584,35.723,36.2583
0.954412,19.7911,26.8367,30.4078,32.5494,33.9723,34.985,35.7419,36.3287,36.797
1.04424,22.7135,30.8617,34.9953,37.4897,39.1589,40.3547,41.2536,41.9541,42.5155
1.03614,23.2421,31.3938,35.4766,37.9253,39.5572,40.7227,41.5966,42.2763,42.8199
0.998939,23.2515,31.4213,35.5381,38.0207,39.6819,40.8717,41.7661,42.4629,43.0211
1.00021,23.6277,31.693,35.7163,38.1283,39.7356,40.8833,41.7439,42.4131,42.9483
0.982807,23.4963,31.416,35.3821,37.7683,39.3628,40.5038,41.3609,42.0282,42.5627
1.04433,25.5126,34.1885,38.5715,41.2199,42.9938,44.2651,45.2209,45.9657,46.5624
1.0598,26.3169,35.2379,39.7352,42.4458,44.2576,45.554,46.5274,47.2852,47.8918
1.05094,24.4241,31.8153,35.3948,37.5073,38.9012,39.89,40.6279,41.1996,41.6556
0.996708,24.8662,33.5936,38.1959,41.0558,43.0092,44.4293,45.5088,46.3572,47.0417
0.974376,25.5489,34.7214,39.4442,42.3064,44.221,45.5898,46.6162,47.414,48.0517
0.999018,27.1794,36.8478,41.7341,44.6695,46.6259,48.0227,49.07,49.8843,50.5357
1.00264,28.05,37.8956,42.8426,45.8155,47.7999,49.2188,50.2841,51.1132,51.777
1.17675,31.7147,41.8598,46.8036,49.732,51.6696,53.0468,54.0761,54.8746,55.5121
0.967273,26.9229,36.0893,40.7819,43.6491,45.5861,46.9833,48.0392,48.8655,49.5296
0.955504,27.4236,36.95,41.8131,44.7604,46.7357,48.1508,49.214,50.0419,50.7047
1.00209,29.5979,39.9239,45.1597,48.3183,50.4297,51.9404,53.0746,53.9575,54.6642
1.04911,29.1109,38.0987,42.4423,44.9996,46.6844,47.8782,48.7684,49.4576,50.0072
1.00704,29.7414,40.1726,45.6305,49.0082,51.3095,52.98,54.2484,55.2444,56.0476
0.970367,29.976,40.7135,46.2289,49.5715,51.8087,53.409,54.6097,55.5433,56.2899
0.982079,31.1729,42.1487,47.6754,50.9913,53.1997,54.7757,55.9569,56.8751,57.6094
0.996793,32.5111,43.9008,49.6341,53.0851,55.3912,57.0416,58.2812,59.2466,60.0198
0.975577,32.6556,44.0598,49.803,53.2632,55.5765,57.2322,58.4759,59.4443,60.2197
0.998653,33.5553,44.9325,50.609,54.0128,56.2815,57.9019,59.117,60.0621,60.8182
0.98141,33.7943,45.4534,51.3578,54.9314,57.3282,59.0477,60.3416,61.3506,62.1594
0.983823,32.4701,42.7828,47.8388,50.841,52.8292,54.2427,55.2991,56.1185,56.7726
1.00071,34.5198,46.4964,52.6979,56.5066,59.087,60.9521,62.3635,63.4691,64.3586
0.995282,35.1155,47.2969,53.483,57.2135,59.7043,61.4836,62.8176,63.8545,64.6834
0.983628,35.7251,48.2346,54.5794,58.4091,60.971,62.8052,64.1833,65.2567,66.1163
1.05581,39.1692,52.8075,59.6873,63.8304,66.5986,68.5788,70.0656,71.2229,72.1494
0.984362,37.1276,49.9377,56.3786,60.2542,62.8428,64.6943,66.0844,67.1664,68.0326
0.991659,37.728,50.57,57.0109,60.8838,63.47,65.3194,66.7078,67.7884,68.6534
0.911912,15.0299,16.7921,17.4752,17.8385,18.064,18.2176,18.329,18.4135,18.4798
0.933494,22.0575,30.9521,37.1521,41.8311,45.5097,48.4844,50.942,53.0078,54.7689
1.0028,30.3871,45.6759,55.1236,61.2466,65.4296,68.4241,70.653,72.3664,73.7189
0.973726,33.3255,48.49,56.2557,60.7461,63.628,65.6245,67.0871,68.2043,69.0857
0.953033,36.1588,51.6142,59.2296,63.7015,66.6503,68.7467,70.3165,71.5374,72.5147
0.961332,38.8504,54.2067,61.6526,66.0549,68.9732,71.053,72.6111,73.8224,74.7912
0.935077,38.7309,52.87,59.7101,63.7733,66.4729,68.3984,69.8415,70.9635,71.8609
0.938267,39.2954,53.0066,59.736,63.7686,66.4605,68.3862,69.8323,70.9584,71.8601
0.963794,40.7136,54.6569,61.5964,65.7758,68.5715,70.5735,72.0778,73.2496,74.1881
0.934426,40.5362,54.6717,61.8295,66.1683,69.0803,71.1699,72.7424,73.9686,74.9514
0.930706,41.6781,56.419,63.9074,68.4399,71.4766,73.6526,75.2882,76.5623,77.5828
0.99739,41.0503,53.5227,59.4883,62.9824,65.2764,66.8977,68.1043,69.0372,69.7801
0.93954,40.4876,54.4146,61.6733,66.1628,69.2221,71.4433,73.1303,74.4556,75.5244
0.948245,42.9997,58.5373,66.597,71.5127,74.8165,77.1866,78.9685,80.3564,81.4677
0.985382,44.378,59.4372,66.9067,71.3461,74.2836,76.3699,77.9279,79.1355,80.099
0.990251,45.8381,61.8033,69.9041,74.8114,78.1065,80.4735,82.2568,83.6488,84.7659
0.949203,38.3407,49.2008,54.3093,57.2784,59.2191,60.5866,61.6021,62.386,63.0093
0.937954,41.747,56.7837,64.9272,70.0854,73.6571,76.2803,78.29,79.8793,81.1681
0.992439,46.7321,64.0033,72.9726,78.4149,82.0515,84.6467,86.589,88.096,89.2985
0.938395,45.3478,61.5931,69.755,74.6326,77.8715,80.1781,81.9043,83.2447,84.3158
0.938118,46.2429,62.5078,70.6518,75.5395,78.8009,81.1331,82.8842,84.2475,85.3392
1.03614,51.0008,68.3227,76.9341,82.0917,85.5285,87.9832,89.8243,91.2564,92.4021
0.939058,46.7724,62.7525,70.8049,75.6693,78.9286,81.2655,83.0232,84.3934,85.4915
0.967666,49.2101,66.2617,74.9094,80.1415,83.6476,86.1607,88.05,89.5222,90.7016
0.967637,50.6392,68.4622,77.5215,83.0017,86.6726,89.3027,91.2796,92.8197,94.0533
0.937866,43.6391,56.3269,62.3147,65.7967,68.0728,69.6768,70.8679,71.7874,72.5187
0.979296,49.4063,66.9866,76.3822,82.2853,86.3512,89.3262,91.5989,93.3925,94.8444
0.968169,46.1447,60.7349,67.8844,72.0985,74.8667,76.8203,78.271,79.39,80.279
