2.04712,2.08459,2.09738,2.10384,2.10774,2.11034,2.1122,2.1136,2.11469,2.11557
1.41734,1.83505,2.02993,2.14272,2.21625,2.26799,2.30637,2.33597,2.3595,2.37865
1.15081,2.03581,2.52269,2.81938,3.01695,3.15735,3.26204,3.343,3.40744,3.45993
1.75624,3.8958,5.01451,5.63703,6.02315,6.28341,6.46987,6.60968,6.71826,6.80494
1.05593,2.88949,3.82831,4.33422,4.64433,4.85291,5.00263,5.11527,5.20309,5.27347
1.07783,3.46996,4.61924,5.21328,5.57108,5.80961,5.97989,6.10751,6.20673,6.28606
1.02063,3.73121,4.94746,5.56092,5.92826,6.17277,6.34725,6.47804,6.57973,6.66106
1.04065,4.2258,5.58476,6.26674,6.67619,6.94944,7.14482,7.29149,7.40565,7.49705
0.996355,4.56375,6.09701,6.88189,7.35905,7.67995,7.91059,8.08437,8.22001,8.32882
1.09076,5.68574,7.69325,8.72891,9.35944,9.78332,10.0877,10.3169,10.4955,10.6388
0.96068,5.39634,7.20456,8.10404,8.64011,8.99557,9.24844,9.43748,9.58414,9.70123
1.01253,6.26277,8.42001,9.51585,10.1799,10.6258,10.9461,11.1873,11.3756,11.5267
1.03502,6.9557,9.35213,10.5635,11.294,11.7824,12.1318,12.3942,12.5984,12.7619
0.980552,6.91501,9.19455,10.3265,11.0029,11.4527,11.7735,12.0137,12.2003,12.3496
0.983629,7.564,10.1841,11.5256,12.3429,12.8935,13.2898,13.5887,13.8222,14.0097
1.06842,8.70966,11.6735,13.165,14.0613,14.6589,15.0856,15.4055,15.6541,15.8529
0.964542,8.44514,11.3722,12.8584,13.7574,14.36,14.7921,15.117,15.3704,15.5734
1.21971,11.3241,15.2197,17.1823,18.3634,19.152,19.7158,20.1389,20.4681,20.7315
1.07237,10.6458,14.3633,16.2491,17.3893,18.1532,18.7008,19.1126,19.4335,19.6907
1.10217,11.5473,15.5423,17.5537,18.7641,19.5723,20.1501,20.5837,20.9211,21.1911
1.13213,12.5448,16.9045,19.1076,20.4374,21.3274,21.9649,22.444,22.8173,23.1163
1.11165,10.9505,13.9283,15.3087,16.105,16.6233,16.9875,17.2574,17.4654,17.6307
1.05285,11.6434,15.7022,17.8945,19.2836,20.2462,20.9538,21.4962,21.9255,22.2737
1.09714,13.2117,18.0264,20.5421,22.0751,23.1023,23.8368,24.3873,24.8149,25.1564
1.06867,11.9461,15.4759,17.1407,18.1028,18.7283,19.1674,19.4926,19.743,19.9419
0.973521,12.3923,16.9534,19.4097,20.9582,22.0276,22.8118,23.4119,23.8863,24.2707
0.916511,12.5632,17.192,19.5699,21.005,21.9614,22.6427,23.1522,23.5471,23.8621
0.92509,13.4555,18.3272,20.7805,22.2512,23.2303,23.929,24.4526,24.8598,25.1855
1.02856,15.0518,20.0873,22.5521,24.0137,24.9816,25.67,26.1848,26.5843,26.9035
0.941583,14.6617,19.8334,22.4756,24.0868,25.1739,25.9574,26.5491,27.0118,27.3836
0.991156,16.1683,21.8649,24.7476,26.4866,27.6488,28.48,29.1036,29.5888,29.977
1.0215,17.358,23.4291,26.4851,28.3241,29.552,30.43,31.089,31.6019,32.0124
0.966439,16.9612,22.8187,25.7578,27.5248,28.7046,29.5483,30.1815,30.6744,31.069
0.923359,16.8076,22.6334,25.5731,27.3474,28.5349,29.3856,30.0251,30.5232,30.9223
1.00368,17.9554,23.748,26.5954,28.2892,29.4123,30.2115,30.8094,31.2734,31.644
1.00104,18.9023,25.4701,28.8549,30.9276,32.3291,33.3405,34.1051,34.7034,35.1845
1.00074,19.575,26.3799,29.8328,31.9156,33.3068,34.3012,35.047,35.6269,36.0906
0.923686,9.21065,10.4705,10.9683,11.2345,11.4003,11.5134,11.5955,11.6578,11.7067
0.945999,13.2149,18.4797,22.0186,24.623,26.6328,28.2346,29.5427,30.6316,31.5527
0.931712,14.503,20.2833,23.4502,25.3706,26.6317,27.5122,28.1567,28.6465,29.03
0.984248,18.6429,27.1711,31.8536,34.743,36.6941,38.0994,39.1604,39.9904,40.6577
0.917121,19.6049,28.0997,32.3858,34.9163,36.5803,37.7567,38.6322,39.309,39.8478
0.945513,20.4229,27.8423,31.3208,33.3305,34.6421,35.5666,36.2538,36.785,37.2079
0.983459,21.6252,29.0943,32.7202,34.8865,36.3335,37.3705,38.1507,38.7594,39.2475
0.96563,18.529,23.6326,25.9895,27.3581,28.2539,28.8859,29.3558,29.7188,30.0076
0.953729,21.3578,29.4883,34.0166,36.9433,38.9976,40.5208,41.6961,42.6308,43.392
0.956697,22.418,30.6067,34.7784,37.2739,38.9226,40.0888,40.9554,41.6238,42.1546
0.955364,24.2199,33.3822,38.0826,40.9296,42.8383,44.2074,45.2378,46.0416,46.6863
0.951264,24.7721,33.6111,37.9884,40.592,42.3175,43.5448,44.4625,45.1745,45.7431
0.906405,24.5378,33.2695,37.6496,40.2883,42.0543,43.3199,44.2717,45.0137,45.6085
0.97012,26.918,36.3218,41.0283,43.8581,45.7477,47.099,48.1133,48.9027,49.5345
0.937456,26.9732,36.4886,41.2982,44.2056,46.1537,47.5501,48.6002,49.4186,50.0744
1.0383,30.656,41.3592,46.7411,49.9803,52.1435,53.6903,54.8513,55.7547,56.4776
0.894147,26.703,35.8173,40.373,43.1077,44.9316,46.2349,47.2127,47.9734,48.5822
0.984053,29.6396,39.6498,44.6704,47.6928,49.7129,51.1588,52.2449,53.0907,53.768
0.935745,29.0319,39.0899,44.2075,47.3111,49.3945,50.89,52.0156,52.8934,53.5972
0.93274,27.4329,35.9882,40.1498,42.6082,44.2305,45.381,46.2392,46.9039,47.4339
0.955507,27.6001,36.3154,40.6916,43.3373,45.1127,46.3877,47.3482,48.0979,48.6994
0.954232,28.5244,38.2304,43.2559,46.3335,48.4119,49.9095,51.0398,51.923,52.6321
1.04797,33.2105,45.2171,51.4626,55.2767,57.8438,59.6881,61.0766,62.1596,63.0277
0.985398,32.2787,43.7852,49.6065,53.1013,55.4283,57.088,58.3311,59.2969,60.0689
0.958943,27.9993,36.1199,39.9261,42.1311,43.57,44.5832,45.3355,45.9161,46.3779
0.982573,31.6409,43.0812,49.2324,53.1144,55.7971,57.765,59.2713,60.4618,61.4267
0.943701,32.1243,43.9365,50.038,53.734,56.2023,57.9634,59.2814,60.3039,61.12
0.903971,13.3442,14.9362,15.5429,15.8612,16.0571,16.1897,16.2855,16.358,16.4147
0.907889,18.9726,26.4884,31.6526,35.5156,38.5339,40.9633,42.9631,44.6389,46.0641
0.870005,23.5455,35.4577,42.8595,47.6865,51.0024,53.3871,55.1692,56.5435,57.6314
0.951589,30.2296,44.7982,52.4593,56.9508,59.8557,61.8775,63.3631,64.5001,65.3983
0.929697,31.5995,44.6863,50.9274,54.5112,56.8384,58.4749,59.6902,60.6295,61.3777
0.913692,32.3992,44.6707,50.5476,54.0161,56.3178,57.9609,59.1941,60.1544,60.9236
0.940157,34.758,47.5122,53.7799,57.5439,60.0626,61.8679,63.2257,64.2842,65.1325
0.918246,35.4686,48.3897,54.8451,58.7415,61.3513,63.2215,64.6275,65.7229,66.6004
0.926492,37.2772,50.7839,57.5671,61.6586,64.3955,66.3548,67.8264,68.9723,69.8899
0.886006,36.9895,50.3194,57.026,61.0693,63.773,65.7082,67.1617,68.2935,69.1997
0.91314,31.0733,39.1722,42.825,44.9064,46.251,47.1912,47.8857,48.4196,48.8429
0.903279,34.9945,47.7978,54.9075,59.5028,62.7325,65.1314,66.9852,68.4615,69.6654
0.874485,36.587,50.5463,57.8962,62.3776,65.3756,67.5142,69.1132,70.3524,71.3401
0.991705,43.081,58.8884,66.829,71.559,74.6906,76.9155,78.5777,79.8667,80.8956
0.885664,39.5663,53.7198,60.7835,65.0126,67.8308,69.8446,71.356,72.5324,73.4743
0.888343,40.0917,53.971,60.8674,64.9981,67.7514,69.7185,71.1944,72.3426,73.2614
0.888544,39.4635,52.5233,58.981,62.8441,65.417,67.254,68.6316,69.7031,70.5602
0.96164,44.3541,59.8906,67.86,72.7261,76.0091,78.3742,80.1593,81.5547,82.6754
0.880527,40.6243,54.4104,61.3121,65.4481,68.2002,70.1623,71.6313,72.7721,73.6836
0.900385,42.7666,57.7078,65.317,69.9319,73.0307,75.2558,76.9312,78.2385,79.287
0.984582,47.6598,64.2378,72.6075,77.6488,81.016,83.4236,85.2304,86.6361,87.761
0.890046,41.3298,54.565,61.0424,64.884,67.4268,69.2343,70.5851,71.6331,72.4697
0.928612,44.2151,59.2756,66.9904,71.7014,74.8822,77.1758,78.9085,80.2639,81.3533
0.898085,42.7228,57.0633,64.2846,68.6272,71.5233,73.5911,75.1411,76.3457,77.3088
0.949576,46.5144,62.6897,70.9523,75.9667,79.3336,81.7507,83.5704,84.9898,86.128
0.925769,46.6934,63.1496,71.5221,76.5825,79.9693,82.3942,84.2158,85.6342,86.7699
0.91434,46.3026,62.1614,70.0963,74.8512,78.0177,80.2775,81.9712,83.2879,84.3409
0.979077,50.1511,67.3235,75.9688,81.1803,84.6669,87.164,89.0408,90.5031,91.6745
0.873639,45.7608,61.677,69.7538,74.6415,77.918,80.2673,82.0341,83.4111,84.5146
0.909761,47.3479,63.2765,71.2276,75.9909,79.1623,81.4252,83.1209,84.4389,85.4927
0.914158,46.2569,61.1896,68.59,73.0163,75.9632,78.0667,79.6439,80.8704,81.8516
0.879375,45.2079,60.4661,68.254,72.9928,76.1827,78.4772,80.2071,81.5581,82.6424
0.906921,48.3827,65.451,74.2336,79.5785,83.1706,85.7496,87.6905,89.204,90.417
0.904328,48.8868,65.8406,74.381,79.508,82.9233,85.3605,87.1867,88.6059,89.7405
0.881903,38.1644,47.8178,52.1966,54.6957,56.312,57.4433,58.2797,58.9231,59.4335
0.873767,42.6126,57.894,66.4027,71.9039,75.7704,78.6421,80.861,82.628,84.0688
