1.93646,1.97216,1.98436,1.99052,1.99423,1.99671,1.99848,1.99982,2.00086,2.00169
0.526838,0.583482,0.604654,0.615727,0.622534,0.627143,0.63047,0.632985,0.634952,0.636533
0.597502,1.11482,1.49512,1.78452,2.01178,2.19488,2.34552,2.4716,2.57867,2.67073
0.637292,1.74598,2.5723,3.11516,3.47606,3.72561,3.90532,4.03945,4.14266,4.22413
0.67408,2.41646,3.5404,4.15055,4.50973,4.74162,4.90259,5.02056,5.11068,5.18176
0.697919,3.00757,4.26181,4.87732,5.23276,5.46403,5.62685,5.74791,5.84155,5.9162
0.741657,3.72421,5.18505,5.89794,6.31982,6.60001,6.80014,6.95039,7.06741,7.16117
0.738473,4.1669,5.70906,6.46284,6.91228,7.21161,7.42547,7.58594,7.7108,7.81073
0.932631,5.798,7.86678,8.88759,9.49979,9.9085,10.2008,10.4204,10.5912,10.7281
0.905769,6.13256,8.2787,9.3473,9.99023,10.4199,10.7275,10.9585,11.1383,11.2823
0.775649,5.68143,7.65614,8.6467,9.24395,9.64349,9.92956,10.1445,10.3119,10.446
0.787133,6.11603,8.19269,9.23029,9.85368,10.2697,10.567,10.7901,10.9637,11.1026
0.939882,7.79331,10.4575,11.8024,12.6151,13.1595,13.5498,13.8432,14.0719,14.2552
0.795562,6.96793,9.32955,10.5171,11.232,11.7095,12.051,12.3074,12.5068,12.6665
1.00957,9.3705,12.5737,14.1947,15.1744,15.8306,16.3008,16.6544,16.9299,17.1506
0.808784,7.98387,10.743,12.1417,12.9868,13.5526,13.9578,14.2623,14.4995,14.6895
0.973837,9.98832,13.3529,15.0363,16.0459,16.7187,17.199,17.5591,17.8391,18.0631
0.825308,8.94521,12.0164,13.574,14.5168,15.1491,15.6028,15.9441,16.2104,16.4238
0.927968,10.5289,14.133,15.9526,17.0495,17.7827,18.3073,18.7012,19.0077,19.2532
0.971205,11.5772,15.5637,17.5797,18.7964,19.6105,20.1934,20.6314,20.9726,21.2458
0.845106,10.552,14.1881,16.0242,17.1313,17.8714,18.4012,18.7991,19.1089,19.3569
1.03091,13.333,17.873,20.1551,21.5282,22.4452,23.101,23.5933,23.9765,24.2832
0.844237,11.2595,15.0585,16.9672,18.1161,18.8837,19.4329,19.8453,20.1664,20.4235
0.837388,11.5154,15.3987,17.3567,18.5379,19.3282,19.8941,20.3194,20.6507,20.9161
0.921269,13.1893,17.7052,19.9978,21.3852,22.3151,22.9818,23.4831,23.8739,24.187
0.84918,12.6637,17.0272,19.2376,20.5718,21.4644,22.1033,22.5832,22.9568,23.256
0.851157,13.1363,17.6444,19.9189,21.2892,22.2049,22.8601,23.3521,23.7351,24.0417
0.910217,14.3295,19.1487,21.5629,23.0129,23.9803,24.6717,25.1905,25.5941,25.9171
0.97089,15.7855,21.1505,23.8631,25.5021,26.6002,27.3872,27.979,28.4403,28.8099
0.93233,15.6156,20.9333,23.6203,25.2416,26.3261,27.1025,27.6856,28.1397,28.5033
0.94529,16.5442,22.2989,25.2267,26.9993,28.1877,29.0397,29.6804,30.1799,30.58
0.960162,17.318,23.2781,26.2793,28.0843,29.2889,30.1497,30.7956,31.298,31.6999
0.984053,18.3989,24.7672,27.9853,29.9272,31.2267,32.1573,32.8567,33.4016,33.838
0.87109,16.7143,22.4378,25.3148,27.0455,28.2011,29.0273,29.6475,30.1301,30.5164
0.865325,16.9721,22.752,25.6627,27.4171,28.5905,29.4306,30.0617,30.5533,30.9471
0.961919,19.3304,25.9189,29.2441,31.2503,32.5926,33.5538,34.276,34.8385,35.289
0.956172,19.7464,26.5029,29.9166,31.9763,33.3542,34.3408,35.0819,35.659,36.1212
0.93473,19.762,26.5049,29.9045,31.9529,33.3221,34.3017,35.0373,35.61,36.0684
0.872888,18.9445,25.4322,28.7095,30.6868,32.0097,32.9569,33.6686,34.2229,34.6669
0.944582,20.6241,27.5154,30.9634,33.033,34.413,35.3988,36.1382,36.7134,37.1735
0.951065,21.4812,28.8712,32.6326,34.9139,36.4458,37.5457,38.3738,39.0199,39.5379
0.899719,20.6732,27.6947,31.2272,33.3511,34.7682,35.7806,36.5399,37.1305,37.6029
0.948252,22.395,30.0854,33.9787,36.3307,37.9058,39.0345,39.883,40.5442,41.074
0.955649,22.8761,30.6159,34.5022,36.8382,38.397,39.5111,40.3469,40.9971,41.5174
0.907639,22.4303,30.1802,34.1168,36.5004,38.099,39.2458,40.1086,40.7813,41.3206
0.908433,22.9488,30.8319,34.8074,37.2015,38.8005,39.9439,40.8021,41.4699,42.0043
0.965418,24.8492,33.3384,37.613,40.1872,41.9075,43.1383,44.0626,44.7822,45.3584
0.929519,24.2674,32.4939,36.6306,39.121,40.7849,41.9754,42.8693,43.5652,44.1224
0.910355,24.4006,32.7949,37.0508,39.6251,41.3504,42.5872,43.5174,44.2424,44.8233
0.945669,25.5914,34.2426,38.5849,41.194,42.9344,44.178,45.1107,45.8362,46.4167
0.948816,26.0194,34.8122,39.243,41.9145,43.7016,44.9813,45.9429,46.692,47.292
0.93081,25.9313,34.7213,39.1597,41.8376,43.6292,44.912,45.8758,46.6264,47.2275
0.916439,26.1978,35.2127,39.7873,42.5537,44.4068,45.7349,46.7333,47.5112,48.1344
0.950083,27.6481,37.1193,41.898,44.7765,46.6998,48.0754,49.108,49.9118,50.5551
0.944327,28.1378,37.8351,42.7385,45.6977,47.6777,49.0956,50.161,50.9909,51.6556
0.941468,28.5272,38.3032,43.2297,46.1972,48.1802,49.5989,50.6642,51.4935,52.1574
0.920105,28.3079,37.9698,42.8368,45.7692,47.7295,49.1323,50.186,51.0064,51.6633
0.95782,29.9288,40.1439,45.2982,48.4071,50.4869,51.976,53.0948,53.9662,54.664
0.922606,29.3508,39.4002,44.4779,47.542,49.5921,51.06,52.1629,53.0219,53.7098
0.947879,30.6216,41.079,46.352,49.5296,51.6536,53.1734,54.3146,55.2031,55.9145
0.958344,31.4126,42.1209,47.5192,50.7727,52.9478,54.5045,55.6737,56.5841,57.313
0.948667,31.703,42.5793,48.0788,51.3989,53.621,55.2124,56.4084,57.34,58.0862
0.919443,31.2586,41.9763,47.3855,50.6462,52.8261,54.3861,55.5576,56.4697,57.1999
0.93197,32.0148,42.9055,48.3873,51.6881,53.8936,55.4715,56.6563,57.5786,58.317
0.941088,32.9891,44.3236,50.0606,53.5268,55.8479,57.5111,58.7613,59.7355,60.5159
0.914492,32.4596,43.5436,49.1292,52.4935,54.7414,56.3494,57.5566,58.4962,59.2484
0.949798,34.0661,45.6395,51.4665,54.9763,57.322,59.0004,60.261,61.2424,62.0282
0.956528,34.3637,45.8795,51.6569,55.1309,57.4504,59.1089,60.3538,61.3226,62.0981
0.949181,34.8119,46.7274,52.7779,56.4418,58.8992,60.662,61.9884,63.0225,63.8514
0.946491,35.3609,47.5172,53.6699,57.3824,59.8653,61.6421,62.9765,64.0154,64.847
0.917621,34.8823,46.8858,52.9504,56.6072,59.0523,60.8023,62.1167,63.1401,63.9596
0.943431,36.2321,48.6007,54.8286,58.5787,61.0844,62.8769,64.223,65.2708,66.1097
0.940896,36.7032,49.2712,55.6156,59.4429,62.0033,63.8367,65.2142,66.2871,67.1464
0.922577,36.5756,49.1345,55.4798,59.3083,61.8695,63.7032,65.0809,66.1538,67.013
0.929992,37.2844,50.0166,56.431,60.2945,62.8764,64.7235,66.1104,67.19,68.0544
0.931921,37.4151,50.0114,56.3337,60.1361,62.6752,64.4909,65.8539,66.9147,67.7639
0.954457,39.1046,52.5319,59.3478,63.4743,66.2416,68.2265,69.7198,70.884,71.8171
0.943498,39.0053,52.3025,59.0071,63.0453,65.7429,67.6722,69.1203,70.2472,71.1491
0.956548,40.1937,53.9853,60.96,65.1703,67.9879,70.006,71.5225,72.7039,73.6502
0.947455,40.2179,53.9474,60.8679,65.0369,67.823,69.8164,71.3132,72.4784,73.4111
0.905643,39.0808,52.5028,59.2882,63.3838,66.1246,68.0876,69.5627,70.7117,71.632
0.922545,40.0454,53.6534,60.4992,64.6195,67.3716,69.3398,70.8173,71.9672,72.8877
0.969028,42.2267,56.4664,63.6242,67.933,70.8118,72.8714,74.418,75.622,76.5859
0.945597,41.9734,56.3806,63.6921,68.1171,71.0836,73.211,74.8111,76.0584,77.058
0.941962,42.2612,56.706,63.9943,68.3853,71.3191,73.4176,74.9928,76.2188,77.2
0.933417,42.4869,57.0649,64.4322,68.8774,71.8514,73.9809,75.5809,76.8272,77.8253
0.923419,42.7279,57.4462,64.8867,69.3762,72.3795,74.5298,76.1452,77.4032,78.4107
0.943031,43.979,58.9876,66.5401,71.0859,74.1223,76.2939,77.9241,79.193,80.2086
0.925497,43.7452,58.7332,66.3024,70.87,73.9266,76.1157,77.7608,79.0422,80.0687
0.942737,44.607,59.656,67.2068,71.7455,74.7745,76.9396,78.5642,79.8283,80.8398
0.921532,44.3027,59.4793,67.171,71.8237,74.9423,77.1785,78.8605,80.1717,81.2225
0.923181,44.7146,59.9545,67.6422,72.2749,75.371,77.5859,79.2489,80.5433,81.5794
0.926604,45.4777,61.0664,68.951,73.7112,76.8971,79.179,80.8938,82.2297,83.2997
0.926279,45.5329,60.9272,68.6617,73.3129,76.4179,78.6376,80.3034,81.5996,82.637
0.93634,46.7494,62.7702,70.8859,75.7923,79.0796,81.436,83.208,84.5891,85.6957
0.961312,48.6799,65.4241,73.8959,79.009,82.4296,84.8784,86.718,88.1504,89.2974
0.937064,48.023,64.5107,72.8314,77.8464,81.1987,83.5975,85.399,86.8015,87.9244
0.934762,48.3966,64.9635,73.3148,78.3471,81.7111,84.1184,85.9265,87.3343,88.4614
0.965421,49.7538,66.4464,74.8077,79.8305,83.1819,85.5773,87.3747,88.7733,89.8925
0.955834,49.3675,65.9523,74.3086,79.349,82.7218,85.1374,86.9528,88.3671,89.5
