1.75707,1.78515,1.79471,1.79952,1.80243,1.80437,1.80576,1.8068,1.80761,1.80826
1.54575,2.09986,2.37835,2.54587,2.65772,2.73771,2.79774,2.84446,2.88185,2.91245
1.20674,2.00377,2.38269,2.59334,2.72538,2.8153,2.88027,2.92932,2.96761,2.99833
1.21436,2.6025,3.32615,3.7401,4.00437,4.18694,4.32043,4.42222,4.50237,4.56712
1.72312,4.44346,5.7808,6.4936,6.92737,7.21727,7.42414,7.579,7.69917,7.79511
1.37334,4.37424,5.89622,6.71641,7.2228,7.56585,7.81352,8.00074,8.14724,8.265
1.41433,5.33873,7.24438,8.23142,8.82699,9.22426,9.50782,9.72028,9.88534,10.0173
1.00229,4.29355,5.77918,6.52429,6.96888,7.26406,7.47432,7.6317,7.75394,7.85163
0.987854,4.76634,6.41657,7.24742,7.74744,8.08174,8.3211,8.50099,8.64114,8.75342
1.16399,6.10983,8.14852,9.16176,9.76783,10.1712,10.4591,10.6748,10.8425,10.9765
1.06299,6.24125,8.42015,9.5335,10.2109,10.6668,10.9946,11.2418,11.4349,11.5898
0.98064,6.37951,8.64004,9.7904,10.486,10.9516,11.285,11.5353,11.7303,11.8863
1.0325,7.13925,9.55045,10.7472,11.4611,11.9352,12.2728,12.5255,12.7217,12.8784
1.03156,7.2783,9.56566,10.6844,11.3494,11.7905,12.1047,12.3398,12.5225,12.6685
1.19096,8.80814,11.6301,13.0515,13.9119,14.4895,14.9043,15.2167,15.4605,15.6561
0.941825,7.78466,10.5646,12.0237,12.9235,13.5337,13.9746,14.3081,14.569,14.7788
0.963536,3.81032,4.22288,4.37988,4.46213,4.51262,4.54673,4.57132,4.58986,4.60435
1.16278,6.97397,9.81663,11.8353,13.3791,14.6054,15.6053,16.4372,17.1404,17.743
0.934091,6.72176,9.57923,11.2038,12.2018,12.8593,13.3179,13.6528,13.9063,14.104
0.810087,7.65875,11.565,13.7909,15.1806,16.1233,16.8039,17.3185,17.7214,18.0457
0.922558,5.05897,5.88847,6.18775,6.33755,6.42694,6.48625,6.52845,6.56,6.58449
0.912466,7.53072,10.9494,13.2636,14.9942,16.3517,17.4494,18.357,19.1205,19.7722
0.871384,9.51276,14.5957,17.6472,19.5994,20.9237,21.8673,22.5673,23.1039,23.5267
0.822377,10.242,14.9105,17.2118,18.5235,19.3597,19.9369,20.3588,20.6806,20.9343
0.857496,12.5507,18.2286,21.064,22.7547,23.8825,24.6911,25.3004,25.7766,26.1593
0.801397,12.9315,18.2666,20.8426,22.3613,23.3649,24.078,24.6109,25.0243,25.3542
0.965968,16.2519,22.2721,25.147,26.845,27.9694,28.7696,29.3685,29.8337,30.2055
0.955405,16.9786,23.1485,26.1947,28.0301,29.2601,30.1426,30.8068,31.325,31.7405
0.845262,14.3606,18.874,21.0188,22.2792,23.1092,23.697,24.1352,24.4743,24.7446
0.910832,16.6917,22.5962,25.662,27.5584,28.8506,29.7885,30.5006,31.0599,31.5108
0.794427,15.4204,20.974,23.8158,25.5377,26.6901,27.5144,28.1327,28.6136,28.998
0.798178,5.13818,5.5492,5.69883,5.77605,5.82314,5.85485,5.87765,5.89484,5.90826
0.817175,8.36746,11.9344,14.6532,16.8429,18.654,20.1798,21.4839,22.6118,23.5973
0.781942,11.3791,18.1222,22.733,25.8804,28.0878,29.688,30.8851,31.806,32.5318
0.762374,13.3935,20.4382,24.1285,26.2297,27.5502,28.4479,29.0953,29.5837,29.9652
0.702055,14.4113,21.3279,24.7002,26.6456,27.9147,28.8115,29.481,30.0007,30.4163
0.746008,17.2809,24.92,28.5937,30.7548,32.1864,33.2072,33.9728,34.5685,35.0454
0.768345,18.1804,24.9486,28.0818,29.9046,31.1015,31.9487,32.5801,33.0689,33.4586
0.833397,20.7574,28.3642,32.0959,34.3488,35.863,36.9523,37.774,38.4161,38.9318
0.753904,19.6812,26.8141,30.37,32.5169,33.9546,34.9845,35.7584,36.3611,36.8438
0.800504,21.473,29.0267,32.7813,35.0349,36.5376,37.611,38.4159,39.0419,39.5427
0.877593,23.9967,32.2644,36.385,38.8607,40.5132,41.6948,42.5818,43.2721,43.8247
0.810593,22.841,30.7762,34.7776,37.1952,38.8145,39.9752,40.8479,41.5279,42.0728
0.813805,22.3908,29.6465,33.2123,35.3336,36.74,37.7408,38.4892,39.07,39.5338
0.777622,22.0106,29.4903,33.3041,35.6262,37.1904,38.3164,39.166,39.8299,40.363
0.814126,23.485,31.495,35.551,37.9988,39.6353,40.8059,41.6846,42.3682,42.9153
0.816382,24.3203,32.7751,37.0727,39.6717,41.4124,42.6596,43.5972,44.3277,44.9128
0.839798,26.1056,35.3789,40.1026,42.9609,44.8756,46.2477,47.279,48.0826,48.7262
0.809603,23.8725,31.3839,35.0153,37.1521,38.559,39.5552,40.2976,40.8723,41.3302
0.890575,27.2017,36.4679,41.2314,44.1505,46.1272,47.5559,48.6372,49.4844,50.1662
0.833989,26.1194,35.1229,39.705,42.4754,44.3286,45.6545,46.6495,47.4236,48.0428
0.802321,25.8036,34.7533,39.2861,42.0193,43.8461,45.1531,46.1343,46.8982,47.5097
0.831404,27.2689,36.6681,41.4018,44.25,46.1518,47.5117,48.5325,49.3269,49.9628
0.831801,27.8121,37.3761,42.1926,45.0936,47.0325,48.42,49.462,50.2734,50.923
0.828683,28.1976,37.8703,42.742,45.677,47.6389,49.0429,50.0973,50.9183,51.5757
0.827692,29.3178,39.6888,44.9796,48.1893,50.3442,51.8908,53.0549,53.9627,54.6905
0.852616,30.9218,41.7282,47.1678,50.4373,52.6179,54.1754,55.3434,56.2516,56.978
0.808499,29.8635,40.1935,45.3809,48.5004,50.5835,52.0733,53.1917,54.0624,54.7594
0.812588,30.5303,41.0381,46.3217,49.5036,51.6305,53.1525,54.2956,55.1858,55.8985
0.805274,30.4602,40.7784,45.9459,49.0509,51.123,52.6042,53.7157,54.5805,55.2726
0.795784,28.9733,38.16,42.6729,45.3587,47.1407,48.4096,49.3592,50.0966,50.6857
0.774346,29.4338,39.6327,44.9144,48.1578,50.3549,51.9424,53.1435,54.084,54.8405
0.780173,31.0711,42.2175,47.9533,51.4365,53.7723,55.4459,56.7033,57.6823,58.4659
0.776529,31.7075,42.903,48.547,51.9352,54.1925,55.8035,57.0109,57.9495,58.7
0.855301,33.5433,44.3194,49.5664,52.669,54.7194,56.1756,57.2633,58.1069,58.7801
0.796286,32.3028,43.4077,49.0998,52.5793,54.9308,56.6278,57.9105,58.9145,59.7217
0.902099,37.9128,51.2948,58.1423,62.296,65.0811,67.077,68.5769,69.745,70.6803
0.825791,35.6063,48.128,54.4601,58.2727,60.8179,62.637,64.0018,65.0636,65.9132
0.782776,31.1903,40.7012,45.2583,47.9301,49.6859,50.9281,51.8533,52.5691,53.1395
0.775693,32.6792,44.0772,50.0442,53.743,56.267,58.1013,59.4953,60.591,61.475
0.798347,34.9205,47.3471,53.7248,57.5887,60.1739,62.0225,63.409,64.4868,65.3485
0.804035,36.0344,48.7162,55.1137,58.9562,61.517,63.3453,64.716,65.7818,66.6343
0.817262,35.5395,47.119,52.7935,56.1598,58.3888,59.9739,61.159,62.0787,62.8132
0.819341,36.6586,49.2565,55.6915,59.6141,62.2596,64.1656,65.6047,66.73,67.634
0.830409,38.0851,51.344,58.0854,62.1619,64.8905,66.8438,68.3106,69.4523,70.3662
0.839745,36.6744,48.2823,53.9447,57.2932,59.5044,61.0733,62.2444,63.1518,63.8756
0.813356,37.5571,50.8264,57.7429,62.0078,64.9059,67.0051,68.5965,69.8447,70.85
0.827232,32.8811,42.0387,46.3223,48.795,50.4016,51.5282,52.3613,53.0023,53.5105
0.816329,36.279,49.5216,56.7621,61.3735,64.5791,66.9405,68.754,70.1911,71.3584
0.857832,40.1602,54.9779,62.647,67.2844,70.3747,72.5753,74.2193,75.493,76.5082
0.838321,41.01,56.0475,63.6678,68.2432,71.2911,73.4667,75.0978,76.3662,77.3809
0.880893,44.2317,60.0331,67.9342,72.6655,75.8167,78.0667,79.754,81.0664,82.1163
0.835859,42.3188,56.9441,64.2125,68.5641,71.4635,73.5345,75.0878,76.2962,77.2631
0.836925,37.0098,47.4777,52.3847,55.2401,57.1099,58.4297,59.4112,60.1698,60.7736
0.8132,36.2616,47.8362,53.8162,57.5086,60.0234,61.8489,63.2352,64.3241,65.2023
0.860627,42.1026,57.7954,66.2444,71.5152,75.1102,77.7159,79.6898,81.2363,82.4802
0.837952,42.8236,58.5662,66.5999,71.4192,74.6183,76.8927,78.5913,79.9075,80.9571
0.838503,44.6073,60.8678,69.0678,73.9896,77.2709,79.6155,81.3748,82.744,83.8401
0.830566,43.9444,58.9817,66.3884,70.7946,73.718,75.7999,77.3582,78.5684,79.5354
0.828156,44.0136,58.9294,66.3791,70.8626,73.8615,76.0098,77.6248,78.8834,79.8919
0.901074,46.9678,62.3323,69.96,74.5296,77.5742,79.7482,81.3782,82.6457,83.6595
0.818825,43.8393,58.9307,66.658,71.3675,74.5404,76.8237,78.5458,79.8911,80.971
0.848859,42.384,55.4443,61.7996,65.5527,68.0279,69.782,71.0898,72.1022,72.909
0.836055,44.3443,59.9941,68.2202,73.3177,76.7923,79.3149,81.2303,82.7346,83.9476
0.895493,49.947,68.1674,77.5793,83.2947,87.1237,89.8643,91.9213,93.5213,94.8011
0.846139,48.6279,66.1064,74.9324,80.2302,83.7587,86.2767,88.1637,89.6305,90.8034
0.834243,49.1454,66.5851,75.3428,80.6037,84.1146,86.6248,88.5091,89.9757,91.1498
0.834419,47.2174,62.4935,69.9278,74.3276,77.2373,79.3045,80.8491,82.0471,83.0033
0.853746,48.6901,64.9917,73.2465,78.2615,81.6374,84.0669,85.8997,87.3319,88.482
0.842729,39.4078,49.5861,54.2979,57.0166,58.7853,60.0275,60.9476,61.6564,62.2191
