1.49484,1.50172,1.50403,1.50519,1.50588,1.50635,1.50668,1.50693,1.50712,1.50727
1.24535,1.73354,1.9923,2.1526,2.26164,2.34063,2.40048,2.44739,2.48516,2.51622
1.16846,2.14522,2.67175,2.98121,3.18083,3.31907,3.42001,3.49677,3.55701,3.60549
1.08733,2.38467,3.01079,3.3427,3.54327,3.67648,3.77108,3.84163,3.89622,3.9397
1.05475,2.88035,3.79882,4.29693,4.60561,4.81527,4.96695,5.08179,5.17179,5.24422
1.08306,3.53065,4.71487,5.33195,5.70506,5.95411,6.13192,6.26514,6.36864,6.45134
1.04014,3.88516,5.17268,5.82177,6.2094,6.46674,6.65,6.78714,6.89362,6.97869
1.02878,4.34082,5.7816,6.50557,6.93995,7.22967,7.43675,7.59217,7.71312,7.80995
1.0081,4.60216,6.05717,6.77444,7.20125,7.4844,7.68598,7.83682,7.95392,8.04748
1.01453,5.23417,7.00976,7.91998,8.4749,8.84896,9.11831,9.32157,9.48041,9.60797
1.01831,5.82692,7.82451,8.83586,9.4449,9.85132,10.1416,10.3592,10.5284,10.6637
1.02164,6.43332,8.65019,9.76702,10.4384,10.8863,11.2064,11.4466,11.6334,11.7829
1.35019,9.1229,12.184,13.7056,14.6147,15.2191,15.65,15.9727,16.2235,16.424
1.02958,7.52736,10.0832,11.3679,12.1418,12.6594,13.03,13.3084,13.5253,13.6991
1.35311,10.3921,13.8047,15.4958,16.5056,17.1766,17.6548,18.0128,18.2909,18.5131
0.974897,7.91315,10.5198,11.8247,12.6096,13.1341,13.5094,13.7913,14.0108,14.1865
1.15054,9.36213,12.2291,13.629,14.459,15.0083,15.3987,15.6904,15.9166,16.0972
1.00526,8.47233,11.1316,12.4679,13.2751,13.8163,14.2045,14.4967,14.7247,14.9074
1.10538,9.7254,12.849,14.4289,15.3831,16.0217,16.4789,16.8224,17.0898,17.3039
1.01097,10.0494,13.7239,15.6649,16.8634,17.6765,18.2643,18.7089,19.057,19.3369
1.18811,12.7399,17.3246,19.6419,21.0282,21.9479,22.6018,23.0902,23.4688,23.7707
1.12747,13.1148,17.867,20.2616,21.6999,22.6593,23.3451,23.8598,24.2604,24.5811
0.986289,11.9466,16.0527,18.0726,19.2725,20.0674,20.6329,21.0558,21.3839,21.646
1.00377,12.7198,17.0556,19.2131,20.5081,21.3726,21.9911,22.4556,22.8173,23.1069
1.00346,11.6872,14.9994,16.5533,17.457,18.0483,18.4652,18.775,19.0143,19.2047
0.996246,12.7108,17.0475,19.3364,20.7654,21.7455,22.4604,23.0053,23.4344,23.7813
0.987158,12.5249,16.4943,18.4568,19.6203,20.3876,20.9305,21.3346,21.6468,21.8951
0.978749,13.1443,17.5892,19.8644,21.2483,22.1796,22.8496,23.3548,23.7496,24.0666
1.07845,15.4779,20.9148,23.6954,25.3789,26.5063,27.3137,27.9202,28.3924,28.7704
0.96453,15.0082,20.4811,23.281,24.9752,26.1096,26.922,27.5324,28.0077,28.3884
1.06564,17.2529,23.2809,26.2696,28.0475,29.2255,30.0631,30.6891,31.1748,31.5624
0.998051,16.6985,22.4016,25.2288,26.9192,28.0447,28.8484,29.4511,29.92,30.2952
1.13868,19.9793,26.9027,30.384,32.4834,33.8884,34.8949,35.6514,36.2409,36.7131
1.0408,18.6735,24.9601,28.0807,29.9459,31.186,32.0701,32.7322,33.2464,33.6574
0.97876,18.2954,24.5643,27.7213,29.6259,30.9007,31.814,32.5005,33.0355,33.4641
1.04448,19.579,25.9872,29.1504,31.0349,32.2853,33.1755,33.8414,34.3582,34.771
1.09468,21.2864,28.4813,32.1193,34.3208,35.7976,36.8573,37.6549,38.2771,38.776
0.980557,19.775,26.5362,29.949,32.0054,33.3793,34.3617,35.099,35.6726,36.1316
0.941458,5.89868,6.32653,6.48259,6.56332,6.61264,6.64589,6.66983,6.68788,6.70198
0.895592,9.07249,12.9614,15.9776,18.4359,20.4882,22.2304,23.7289,25.0322,26.1763
0.84261,12.163,19.387,24.3445,27.7248,30.0888,31.7967,33.0699,34.0461,34.8129
0.966577,17.7309,27.8235,33.3239,36.5132,38.5367,39.9201,40.9218,41.6796,42.2728
0.923705,19.7825,29.5207,34.1758,36.8038,38.4905,39.6687,40.5404,41.2126,41.7474
1.00302,23.9085,34.299,39.1486,41.9591,43.807,45.1194,46.1014,46.8644,47.4746
0.922525,23.5512,32.8121,37.1737,39.7443,41.4484,42.663,43.5731,44.2806,44.8464
0.930721,24.7916,33.8721,38.2244,40.8136,42.5358,43.7651,44.6866,45.4033,45.9766
0.965677,26.4996,35.8159,40.3623,43.0836,44.898,46.1945,47.1673,47.9243,48.53
0.927076,26.1582,35.2076,39.6881,42.3801,44.1776,45.4632,46.4282,47.1793,47.7805
0.934511,26.9528,36.1585,40.7394,43.4906,45.3261,46.6378,47.622,48.3876,49.0002
0.95666,28.0522,37.5199,42.2376,45.0685,46.9562,48.3047,49.3162,50.103,50.7324
0.904338,27.0306,36.1575,40.729,43.4785,45.3147,46.6278,47.6135,48.3808,48.9949
0.938009,28.4746,38.0478,42.8409,45.7204,47.6416,49.0145,50.0445,50.8459,51.4871
0.914872,28.2837,37.813,42.5939,45.4687,47.3879,48.7602,49.7901,50.5916,51.233
0.971147,30.5294,40.8103,45.967,49.0664,51.1349,52.6134,53.7228,54.586,55.2768
0.925446,29.2751,38.9932,43.8418,46.7476,48.6835,50.0656,51.1018,51.9075,52.5519
0.942495,30.4243,40.6725,45.8344,48.9464,51.0279,52.5182,53.6379,54.5101,55.2086
0.972053,31.8168,42.4934,47.846,51.0604,53.204,54.7352,55.8836,56.7767,57.4911
0.999471,33.3053,44.5377,50.1823,53.5782,55.846,57.4678,58.6854,59.633,60.3915
0.942419,31.9469,42.7276,48.1383,51.3904,53.5605,55.1115,56.2753,57.1807,57.9052
0.949109,32.3366,43.0836,48.4456,51.6589,53.7994,55.3276,56.4733,57.3641,58.0767
1.00144,34.3415,45.7112,51.3978,54.8131,57.092,58.721,59.9435,60.8948,61.6562
0.914949,25.2494,31.4544,34.2746,35.887,36.9309,37.6618,38.2022,38.618,38.9478
1.01074,28.674,37.5124,42.1855,45.1159,47.1337,48.6103,49.7387,50.6294,51.3507
0.971914,31.4577,43.4997,50.1541,54.3525,57.2321,59.3258,60.9147,62.1608,63.1637
0.93207,32.7238,45.3303,51.8402,55.7457,58.3329,60.1681,61.5358,62.5937,63.4361
1.00476,36.0393,48.8515,55.1222,58.8101,61.2362,62.9539,64.2342,65.2257,66.0162
0.906532,33.7686,45.7186,51.6638,55.2296,57.6113,59.3166,60.5986,61.5977,62.3985
0.967693,36.2232,48.4672,54.4895,58.0781,60.4618,62.1602,63.4318,64.4194,65.2086
0.902319,34.9442,47.0478,53.145,56.8308,59.302,61.0747,62.4086,63.4487,64.2825
0.955576,37.7248,50.6417,57.0988,60.9727,63.5538,65.3963,66.7773,67.8508,68.7091
1.00043,39.9654,53.4646,60.1946,64.2285,66.9163,68.8357,70.275,71.3943,72.2898
0.93689,35.0899,45.7341,50.8617,53.882,55.8732,57.2849,58.3379,59.1537,59.8042
1.00348,39.791,53.5122,60.6559,65.065,68.0634,70.2365,71.8846,73.1776,74.2193
0.929368,37.9044,51.0329,57.6927,61.7011,64.3719,66.2765,67.7021,68.8088,69.6926
0.937083,36.3077,47.6183,53.0905,56.3088,58.4267,59.9261,61.0434,61.9083,62.5976
0.897628,36.1471,48.4124,54.7044,58.5515,61.1522,63.0295,64.4491,65.5605,66.4544
0.948214,39.133,52.5507,59.3466,63.4418,66.1755,68.1282,69.5921,70.73,71.6396
0.949438,38.8691,51.6599,57.992,61.7632,64.2645,66.0447,67.3762,68.4097,69.2352
1.10318,47.3081,63.8537,72.3191,77.4701,80.9374,83.4317,85.3125,86.7816,87.9609
0.998917,43.5351,58.4547,65.9176,70.3834,73.3523,75.4676,77.0506,78.2796,79.2612
0.935257,42.1244,56.7984,64.1996,68.6603,71.6434,73.779,75.3837,76.6337,77.6349
1.01212,46.1541,61.8864,69.7246,74.4144,77.5348,79.7603,81.4276,82.7232,83.7588
0.961413,44.7963,60.1489,67.8534,72.4896,75.5874,77.804,79.4687,80.765,81.803
0.976274,46.1403,61.8217,69.6628,74.3679,77.5047,79.7452,81.4254,82.7321,83.7774
1.02674,49.0221,65.5524,73.8127,78.77,82.0759,84.4378,86.2097,87.5881,88.691
0.943932,44.8363,59.6124,66.9552,71.3497,74.2754,76.3633,77.9283,79.1449,80.1179
0.963943,46.7295,62.5412,70.5315,75.3607,78.5964,80.916,82.6605,84.0202,85.1098
0.940219,46.1677,61.7755,69.6165,74.3291,77.4725,79.718,81.402,82.7117,83.7592
0.93294,46.0178,61.4014,69.0891,73.6987,76.7703,78.9635,80.608,81.8869,82.9099
0.984832,49.0382,65.4801,73.7294,78.6908,82.0041,84.3738,86.1528,87.5377,88.6462
0.978551,49.5079,66.2721,74.7134,79.7976,83.1952,85.6259,87.451,88.8718,90.0092
0.986752,49.6357,66.0041,74.14,79.0032,82.2369,84.5424,86.269,87.6105,88.6827
0.950695,48.7421,65.227,73.5557,78.5874,81.9582,84.3746,86.1918,87.6083,88.7434
1.00051,51.0679,67.939,76.3423,81.3696,84.7134,87.0976,88.8831,90.2702,91.3787
1.02177,52.3875,69.7648,78.4777,83.7179,87.2179,89.7217,91.6018,93.0655,94.2375
0.950781,25.3938,29.0854,30.5731,31.377,31.8804,32.2253,32.4763,32.6672,32.8172
1.00923,35.8987,49.6067,58.5297,64.9467,69.8134,73.6402,76.7315,79.2822,81.4236
0.944335,41.1426,60.0558,71.1833,78.2482,83.0375,86.4601,89.0107,90.9763,92.533
0.951379,46.7052,67.1252,77.6213,83.7738,87.7713,90.5675,92.6308,94.2157,95.4713
0.94224,47.9851,66.3136,75.0491,80.0953,83.385,85.7035,87.4275,88.7608,89.8231
