1.74173,1.7963,1.81526,1.82489,1.83072,1.83462,1.83742,1.83953,1.84117,1.84248
1.39392,1.93687,2.21358,2.38121,2.49363,2.57425,2.63489,2.68216,2.72004,2.75108
1.2106,2.15432,2.6413,2.92305,3.10372,3.22857,3.31968,3.38898,3.44339,3.48721
1.1291,2.48218,3.1675,3.54669,3.78276,3.94287,4.05833,4.14542,4.21342,4.26797
1.06434,2.8249,3.69626,4.16438,4.45192,4.64573,4.78505,4.88999,4.97186,5.0375
1.26715,3.98283,5.29254,5.98204,6.40254,6.68516,6.88803,7.04071,7.15976,7.25519
1.01959,3.68778,4.91916,5.55332,5.93684,6.19348,6.37721,6.51523,6.62269,6.70875
1.01072,4.15278,5.56515,6.29057,6.73058,7.02591,7.23787,7.3974,7.52182,7.62158
0.987164,4.62959,6.26536,7.11074,7.62581,7.97243,8.22159,8.40932,8.55584,8.67338
0.967431,5.00998,6.74725,7.62779,8.15832,8.51268,8.76607,8.95622,9.10418,9.22257
0.990155,5.639,7.59862,8.59466,9.19745,9.60164,9.89155,10.1097,10.2798,10.4161
0.962148,5.93608,7.97939,9.01434,9.63962,10.0583,10.3583,10.5838,10.7595,10.9003
0.949332,6.26039,8.38402,9.45623,10.1033,10.5362,10.8464,11.0794,11.2609,11.4063
0.836822,3.62223,4.20986,4.45216,4.58453,4.66796,4.72538,4.7673,4.79926,4.82442
0.842572,5.00978,6.94463,8.1863,9.07017,9.73546,10.2556,10.6738,11.0175,11.3052
0.857349,6.41397,9.3307,11.033,12.1124,12.8452,13.37,13.762,14.0649,14.3053
0.885455,7.74198,11.1306,12.8923,13.9371,14.6221,15.1045,15.4623,15.7383,15.9576
0.848338,8.23869,11.5691,13.2154,14.1864,14.8274,15.2829,15.6236,15.8881,16.0996
0.803404,5.58667,6.75195,7.22487,7.48181,7.64369,7.75518,7.8367,7.89891,7.94796
0.812605,7.33949,10.2328,11.9795,13.182,14.0672,14.748,15.2885,15.7283,16.0933
0.816891,8.66207,12.3401,14.3655,15.6202,16.4628,17.0632,17.5108,17.8563,18.1305
0.878312,10.2865,14.422,16.5228,17.7705,18.5929,19.175,19.6086,19.9442,20.2117
0.823462,10.4479,14.4667,16.4703,17.666,18.4614,19.0293,19.4554,19.7871,20.0527
0.879414,12.0764,16.6685,18.9789,20.3731,21.3075,21.9778,22.4824,22.8759,23.1914
0.865609,12.477,17.0135,19.271,20.6249,21.5278,22.1729,22.6569,23.0334,23.3346
0.861297,12.8779,17.4296,19.7049,21.0753,21.9919,22.6485,23.142,23.5265,23.8346
0.874372,13.346,17.9237,20.214,21.5933,22.5157,23.1761,23.6722,24.0586,24.3681
0.864036,13.5448,18.1851,20.5316,21.9523,22.9054,23.5893,24.1039,24.5052,24.8269
0.858539,13.9492,18.7962,21.2685,22.7698,23.7782,24.5023,25.0473,25.4724,25.8133
0.841232,14.2309,19.2314,21.7833,23.3305,24.3683,25.1126,25.6724,26.1087,26.4583
0.815861,9.36392,11.2116,11.9985,12.4339,12.7104,12.9014,13.0413,13.1482,13.2326
0.866975,12.4879,17.2113,20.08,22.0476,23.4897,24.5947,25.4693,26.1794,26.7675
0.834429,13.8574,19.6409,22.8601,24.8621,26.2101,27.1729,27.8919,28.4478,28.8896
0.843225,15.3076,21.4632,24.6219,26.5038,27.7459,28.6257,29.2815,29.7891,30.1937
0.83366,16.1637,22.3886,25.5046,27.364,28.6005,29.4831,30.1451,30.6604,31.0728
0.849526,17.0736,23.2866,26.3587,28.1934,29.415,30.2874,30.9419,31.4512,31.8587
0.841698,17.5234,23.7864,26.9233,28.816,30.0842,30.9938,31.6783,32.212,32.6398
0.816173,17.4979,23.674,26.785,28.665,29.9248,30.8279,31.5069,32.0361,32.4602
0.81839,18.0271,24.3434,27.5343,29.4632,30.7553,31.6814,32.3776,32.9201,33.3548
0.83332,19.2564,26.2004,29.7627,31.9325,33.3929,34.4431,35.2345,35.8524,36.3482
0.839256,20.0135,27.1475,30.7653,32.9497,34.4109,35.4567,36.242,36.8533,37.3428
0.845499,20.4913,27.6113,31.1898,33.3427,34.7806,35.8091,36.5812,37.1823,37.6635
0.840074,20.5381,27.5644,31.1057,33.2435,34.6751,35.7012,36.4727,37.074,37.5559
0.859664,21.2671,28.5315,32.2129,34.4414,35.9359,37.0078,37.8142,38.4429,38.9468
0.850746,21.4191,28.7773,32.5183,34.7842,36.3039,37.3937,38.2134,38.8524,39.3645
0.843362,21.7897,29.3906,33.2748,35.6327,37.216,38.3525,39.2079,39.875,40.4099
0.839091,21.9914,29.5861,33.4355,35.7599,37.3152,38.4288,39.2653,39.9168,40.4385
0.850306,22.5506,30.289,34.2084,36.5768,38.163,39.2997,40.1543,40.8203,41.3539
0.852279,23.4716,31.8047,36.0904,38.7025,40.4614,41.7265,42.6803,43.425,44.0226
0.859208,23.9801,32.312,36.5232,39.0599,40.754,41.9652,42.8741,43.5811,44.1468
0.835165,16.8763,20.5952,22.2258,23.142,23.729,24.1374,24.4379,24.6683,24.8506
0.828105,20.1182,27.642,32.0713,35.0438,37.1883,38.8121,40.0856,41.1116,41.9563
0.831719,22.4845,31.4983,36.4015,39.4233,41.4509,42.8975,43.9779,44.8137,45.4787
0.83391,24.4084,34.0763,39.0524,42.0363,44.0168,45.4259,46.4794,47.297,47.9499
0.824707,24.7084,33.7544,38.2239,40.8745,42.6296,43.8783,44.8124,45.5379,46.1176
0.837918,26.1821,35.7606,40.5912,43.5132,45.4755,46.8855,47.9482,48.778,49.444
0.831988,27.0304,36.8857,41.8771,44.8985,46.9248,48.3782,49.4714,50.3235,51.0063
0.833135,27.4526,37.1162,41.9544,44.8621,46.8026,48.1896,49.2304,50.0402,50.6882
0.83144,27.6936,37.2998,42.1361,45.0562,47.0121,48.4141,49.4684,50.2903,50.9489
0.842364,28.6459,38.6619,43.7528,46.8402,48.9131,50.401,51.5209,52.3945,53.0948
0.848483,29.2838,39.4759,44.6451,47.7713,49.8656,51.3662,52.4943,53.3732,54.0772
0.850044,29.5454,39.7019,44.8336,47.9307,50.0031,51.4872,52.6024,53.471,54.1667
0.84608,30.061,40.5624,45.9199,49.1721,51.3566,52.9252,54.1063,55.0277,55.7665
0.847096,30.8049,41.6523,47.1845,50.5375,52.7863,54.399,55.612,56.5574,57.315
0.845355,30.9487,41.6285,47.0149,50.259,52.4264,53.9766,55.1405,56.0464,56.7715
0.85193,31.3887,42.1513,47.5938,50.8823,53.0851,54.6641,55.8515,56.777,57.5187
0.851566,31.4343,42.1341,47.5483,50.8207,53.0129,54.584,55.7652,56.6857,57.4232
0.851177,31.8819,42.8818,48.4891,51.8909,54.1747,55.814,57.0478,58.0101,58.7816
0.860721,32.5537,43.7702,49.4682,52.9146,55.2232,56.8774,58.1208,59.0895,59.8654
0.872264,33.7318,45.5458,51.5815,55.2444,57.7037,59.469,60.7977,61.834,62.6648
0.856305,33.6703,45.447,51.4335,55.0538,57.4785,59.2157,60.5214,61.5386,62.3534
0.848481,33.8091,45.5824,51.5534,55.1623,57.5792,59.3112,60.6132,61.6277,62.4404
0.853074,34.395,46.338,52.3961,56.0599,58.5149,60.2748,61.5982,62.6295,63.456
0.852709,34.7956,46.8656,52.9913,56.697,59.1804,60.9607,62.2995,63.3428,64.1788
0.841503,35.1225,47.4836,53.7956,57.6265,60.1989,62.0456,63.4356,64.5197,65.389
0.852854,35.5939,47.8106,53.9666,57.6729,60.1484,61.9186,63.2474,64.2814,65.109
0.857726,36.4148,49.1045,55.5757,59.5044,62.1442,64.0404,65.4686,66.5831,67.4771
0.859863,37.2085,50.2931,56.9743,61.0275,63.7479,65.6998,67.1684,68.3134,69.2311
0.864926,37.2027,49.8743,56.2433,60.0724,62.6277,64.4539,65.8241,66.8901,67.7431
0.858333,37.3478,50.2443,56.814,60.8018,63.4814,65.4064,66.8565,67.9882,68.896
0.870096,38.1295,51.2641,57.9339,61.9685,64.6715,66.6084,68.0643,69.1986,70.1072
0.858304,38.1661,51.4297,58.1865,62.2812,65.028,66.9984,68.4808,69.6365,70.5629
0.858781,38.9314,52.5795,59.5355,63.7498,66.5757,68.6022,70.1264,71.3144,72.2664
0.855324,39.1594,52.7808,59.6862,63.8576,66.6499,68.65,70.1531,71.3239,72.2617
0.862844,40.1454,54.1826,61.3217,65.645,68.5445,70.6242,72.1887,73.4085,74.3862
0.848352,39.8347,53.6488,60.6418,64.8643,67.6903,69.7141,71.2348,72.4193,73.3679
0.85645,40.5764,54.62,61.7405,66.0468,68.9325,71.0013,72.5571,73.7696,74.7413
0.868611,41.0266,54.9843,62.0221,66.2652,69.1027,71.1338,72.6595,73.8476,74.7989
0.852584,40.3876,54.1658,61.1564,65.3888,68.2273,70.2635,71.7956,72.9901,73.9476
0.851592,41.4501,56.0704,63.5863,68.1651,71.2469,73.4625,75.1321,76.4354,77.481
0.849307,42.4136,57.5097,65.2244,69.8986,73.0315,75.2768,76.9647,78.2796,79.3328
0.849199,43.0353,58.1799,65.848,70.4734,73.5663,75.78,77.4428,78.7375,79.7742
0.862614,43.7981,58.9071,66.5176,71.1031,74.169,76.3637,78.0125,79.2966,80.325
0.867243,44.6467,60.1857,68.0857,72.8744,76.0889,78.3963,80.1332,81.4879,82.5742
0.85947,44.5877,60.0442,67.8863,72.6293,75.807,78.0843,79.7963,81.1302,82.1988
0.865374,45.5118,61.3648,69.4238,74.3026,77.5734,79.9187,81.6826,83.0574,84.1591
0.872007,46.1629,62.1306,70.2185,75.1041,78.3747,80.7174,82.4781,83.8497,84.9482
0.880592,47.1712,63.5531,71.8746,76.9113,80.2879,82.7091,84.5303,85.9499,87.0875
0.867247,46.5062,62.5104,70.6192,75.5204,78.8032,81.1556,82.9241,84.3021,85.4061
0.858806,45.9988,61.7063,69.6576,74.4624,77.6804,79.9863,81.7199,83.0707,84.1529
