1.86712,1.91108,1.9262,1.93385,1.93847,1.94156,1.94377,1.94544,1.94673,1.94777
1.38838,1.92,2.19173,2.35665,2.46739,2.54687,2.6067,2.65335,2.69076,2.72142
1.23051,2.195,2.69708,2.98883,3.17636,3.30613,3.40093,3.47307,3.52975,3.57541
1.16239,2.57472,3.2949,3.69346,3.94132,4.10924,4.23019,4.32136,4.39248,4.4495
1.10538,2.96725,3.89323,4.38985,4.69436,4.89934,5.04656,5.15736,5.24377,5.31302
1.41788,4.48572,5.95404,6.72119,7.18696,7.49911,7.72277,7.89086,8.02179,8.12665
1.0673,3.89809,5.20402,5.87623,6.28297,6.55533,6.75043,6.89707,7.0113,7.1028
1.0806,4.49822,6.03383,6.82035,7.29653,7.61569,7.84449,8.01656,8.15066,8.25812
1.1182,5.22202,7.0135,7.92516,8.47594,8.84461,9.10867,9.30711,9.46167,9.58546
1.06316,5.4717,7.3345,8.27657,8.84458,9.2244,9.49628,9.70051,9.85954,9.98688
1.00793,5.67711,7.61406,8.59616,9.18992,9.58776,9.87294,10.0874,10.2546,10.3885
0.994807,6.05369,8.10383,9.14005,9.76536,10.1837,10.4833,10.7084,10.8837,11.0241
1.0393,6.88878,9.26971,10.4849,11.2224,11.7177,12.0733,12.341,12.5498,12.7172
1.08524,7.70044,10.3342,11.6661,12.4693,13.0063,13.3905,13.6789,13.9035,14.0832
0.974586,7.39076,9.92074,11.2023,11.9766,12.4952,12.8668,13.1462,13.3639,13.5383
0.969926,7.91051,10.6635,12.067,12.918,13.4891,13.8989,14.2072,14.4476,14.6404
0.972274,8.48952,11.4616,12.9737,13.8887,14.5017,14.941,15.2713,15.5286,15.7347
1.04322,9.61321,12.9328,14.6083,15.618,16.2927,16.7755,17.1381,17.4203,17.6463
0.933954,4.46185,5.01875,5.23627,5.35223,5.42432,5.47347,5.50913,5.53619,5.55743
0.982954,6.86808,9.636,11.543,12.9705,14.0861,14.984,15.7231,16.3424,16.869
0.89175,8.06651,12.0084,14.4019,15.9397,16.9856,17.7327,18.2881,18.715,19.0519
1.03018,11.1777,16.4798,19.2804,20.9361,22.0154,22.7718,23.3305,23.7602,24.1009
0.861123,10.585,15.1735,17.4321,18.7523,19.6186,20.2319,20.6894,21.0442,21.3274
0.865099,11.3872,15.8135,17.9396,19.1909,20.0186,20.6077,21.0487,21.3915,21.6656
0.864377,11.7534,15.9412,17.9636,19.1667,19.9673,20.5391,20.9682,21.3021,21.5694
0.927649,13.3493,18.1395,20.5447,22.0052,22.9884,23.6958,24.2293,24.646,24.9806
0.925583,13.8094,18.6382,21.0537,22.5082,23.48,24.1748,24.6963,25.102,25.4266
0.868229,13.5633,18.3449,20.7671,22.2346,23.2192,23.9257,24.4574,24.872,25.2044
0.888924,14.4485,19.5264,22.097,23.6506,24.691,25.4362,25.9963,26.4326,26.7821
0.922126,15.4826,20.8694,23.588,25.2278,26.3247,27.1099,27.6997,28.1591,28.527
0.959981,16.6926,22.5059,25.4488,27.2275,28.4189,29.2728,29.9147,30.415,30.8158
0.945902,16.7704,22.4934,25.3692,27.0998,28.2556,29.0822,29.7027,30.1856,30.5722
0.942636,17.0711,22.8721,25.7984,27.5647,28.7471,29.5941,30.2308,30.727,31.1244
1.03792,19.2852,25.8759,29.2162,31.2366,32.5905,33.561,34.2907,34.8595,35.3152
0.961193,18.4214,24.7856,28.022,29.9817,31.2954,32.2374,32.9457,33.4979,33.9402
0.956789,18.6043,24.9123,28.0869,29.9969,31.2722,32.1838,32.868,33.4004,33.8264
0.871592,17.6906,23.9038,27.0884,29.0266,30.3308,31.2685,31.9753,32.5272,32.97
0.940618,19.6702,26.5537,30.0488,32.1601,33.5726,34.5837,35.3432,35.9344,36.4077
0.92363,19.7252,26.5315,29.9631,32.0298,33.4109,34.3989,35.1409,35.7185,36.1809
0.909689,19.9912,26.9325,30.4525,32.5817,34.009,35.0324,35.8022,36.4023,36.8832
0.893279,20.1823,27.2064,30.7693,32.9236,34.3666,35.4006,36.178,36.7836,37.2688
0.924224,21.4703,28.9497,32.7402,35.0305,36.564,37.6624,38.488,39.1312,39.6463
0.928526,22.0786,29.7352,33.6078,35.9454,37.5097,38.63,39.4718,40.1275,40.6527
0.909267,22.1279,29.7889,33.6647,36.0053,37.5721,38.6945,39.5381,40.1952,40.7217
0.944476,23.1933,31.0735,35.0358,37.4209,39.0143,40.1541,41.0099,41.6761,42.2094
0.972016,23.9289,31.9291,35.9477,38.3675,39.9849,41.1424,42.0118,42.6888,43.2309
0.938658,23.3549,31.2129,35.1924,37.6,39.214,40.3714,41.242,41.9207,42.4646
0.952557,24.575,33.158,37.5648,40.2474,42.0519,43.3486,44.3254,45.0877,45.6991
0.984937,26.0221,35.0845,39.6854,42.4628,44.3199,45.6487,46.6464,47.4229,48.0445
0.9217,24.8409,33.447,37.801,40.4281,42.1855,43.4438,44.3893,45.1258,45.7156
0.92105,25.4946,34.3924,38.91,41.6429,43.4745,44.7876,45.7751,46.5448,47.1616
0.927759,25.6383,34.2794,38.6028,41.197,42.9264,44.1616,45.088,45.8084,46.3848
0.937357,26.7415,36.0602,40.8243,43.7223,45.6724,47.0746,48.1316,48.957,49.6193
0.957921,27.8411,37.4869,42.3737,45.3233,47.2958,48.7074,49.7673,50.5924,51.2528
0.929776,27.6427,37.2654,42.1502,45.1044,47.0838,48.5026,49.5695,50.401,51.0672
0.910947,27.5503,37.0751,41.8885,44.7918,46.7335,48.1234,49.1675,49.9804,50.6314
0.909734,27.6235,36.9839,41.6849,44.5128,46.4014,47.7522,48.7662,49.5555,50.1874
0.940933,28.7974,38.5456,43.469,46.4429,48.4347,49.8622,50.9356,51.7721,52.4424
0.906477,28.1181,37.7146,42.5868,45.5362,47.5136,48.9316,49.9981,50.8294,51.4955
0.914312,28.7133,38.5176,43.485,46.4857,48.4942,49.9327,51.0136,51.8555,52.5297
0.928937,30.0026,40.4765,45.825,49.0701,51.2485,52.812,53.9887,54.9063,55.642
0.930139,30.1707,40.4514,45.621,48.7281,50.8007,52.2815,53.3923,54.2561,54.9472
0.956401,32.0897,43.3828,49.1615,52.675,55.0379,56.7363,58.0161,59.0151,59.8167
0.932841,32.0604,43.3257,49.0431,52.4962,54.8063,56.4599,57.7018,58.6687,59.4428
0.931025,31.7785,42.4801,47.8162,51.0114,53.1387,54.6568,55.7947,56.6794,57.3869
0.975893,33.8653,45.4751,51.371,54.9465,57.3482,59.0734,60.3728,61.3869,62.2005
0.925105,32.9884,44.5369,50.4366,54.0175,56.4216,58.1468,59.445,60.4571,61.2683
0.958782,35.0866,47.4406,53.7258,57.5269,60.0723,61.8957,63.2659,64.3331,65.1879
0.907095,33.779,45.5636,51.5184,55.108,57.5077,59.2249,60.5145,61.5186,62.3226
0.94647,35.7888,48.2018,54.4707,58.253,60.7838,62.5962,63.9583,65.0193,65.8691
0.942563,35.4646,47.4295,53.426,57.0307,59.4373,61.1581,62.4498,63.4551,64.2597
0.901838,34.7616,46.8363,53.0033,56.7527,59.2745,61.0871,62.4529,63.5192,64.3746
0.941879,37.0057,49.8985,56.4496,60.4105,63.0624,64.9615,66.3883,67.4994,68.3891
1.00143,39.9245,53.7712,60.7787,65.0075,67.8365,69.862,71.3837,72.5688,73.5179
0.999013,39.6127,52.9563,59.6379,63.6498,66.326,68.2383,69.6731,70.7894,71.6826
0.910542,36.803,49.5067,55.9821,59.9147,62.5582,64.4577,65.8887,67.0056,67.9016
0.916911,37.7352,50.8463,57.5137,61.548,64.2505,66.1869,67.6422,68.7758,69.6837
1.00551,41.9742,56.5238,63.8948,68.3453,71.3234,73.4559,75.0582,76.3061,77.3055
0.927434,39.3142,52.9456,59.8498,64.02,66.8118,68.8119,70.3151,71.4862,72.4243
0.919523,39.5078,53.1743,60.0882,64.2624,67.0561,69.0569,70.5605,71.7317,72.6697
0.970161,41.7652,55.987,63.1449,67.4555,70.3361,72.3972,73.9449,75.1498,76.1144
0.909547,39.3663,52.759,59.5274,63.6158,66.3537,68.3158,69.7909,70.9404,71.8614
0.983248,42.6593,57.1356,64.4599,68.8851,71.8485,73.9718,75.5678,76.8113,77.8075
0.961525,42.7232,57.6207,65.2421,69.8729,72.9846,75.2193,76.902,78.2148,79.2674
0.911883,40.8746,54.9581,62.0745,66.3617,69.2253,71.2729,72.8095,74.0052,74.962
0.940403,42.2772,56.6744,63.9274,68.2968,71.2176,73.308,74.8782,76.1009,77.0801
0.97746,44.8362,60.4262,68.3761,73.2009,76.4418,78.7689,80.5212,81.8883,82.9846
0.91182,42.6644,57.5939,65.1874,69.7814,72.8588,75.0637,76.7209,78.0118,79.0458
0.975187,46.2145,62.2723,70.3935,75.2922,78.5682,80.9132,82.6745,84.0461,85.1443
0.991762,47.1051,63.2072,71.3107,76.1904,79.4514,81.7847,83.537,84.9014,85.9938
0.917568,44.2399,59.5301,67.2921,71.992,75.1444,77.4058,79.1072,80.4339,81.4974
0.910123,44.0416,59.0956,66.6924,71.2722,74.3341,76.5251,78.1705,79.4514,80.4768
0.971617,47.8546,64.4645,72.9177,78.0406,81.4781,83.9446,85.8006,87.248,88.4083
0.991491,48.5043,64.8945,73.125,78.0719,81.3727,83.7314,85.501,86.8775,87.9788
0.988443,48.7783,65.4508,73.9136,79.0389,82.4774,84.9448,86.8018,88.25,89.4111
0.921291,46.5186,62.7769,71.0836,76.125,79.5094,81.9382,83.7659,85.191,86.3333
0.949023,48.6671,65.6429,74.2529,79.4511,82.9284,85.4174,87.2869,88.7424,89.9078
0.935043,48.4411,65.2085,73.6784,78.7856,82.2009,84.6457,86.4822,87.9124,89.0578
0.930405,22.5218,25.4805,26.6455,27.2687,27.6568,27.9218,28.1143,28.2604,28.3751
0.921373,30.8084,43.0161,51.2786,57.3874,62.1169,65.8957,68.9875,71.5656,73.7488
