1.83342,1.8938,1.91482,1.9255,1.93197,1.93631,1.93942,1.94175,1.94358,1.94504
1.3666,1.88383,2.14373,2.29997,2.40423,2.47876,2.53468,2.57819,2.613,2.64149
1.11135,1.86569,2.22506,2.42502,2.55044,2.63589,2.69767,2.74432,2.78076,2.80999
1.8733,4.10501,5.29736,5.98909,6.43459,6.74422,6.97158,7.14551,7.28283,7.39398
1.73887,4.7145,6.26389,7.11118,7.63358,7.98541,8.23772,8.42725,8.5747,8.69264
1.04458,3.39159,4.56079,5.176,5.54938,5.79928,5.97812,6.1124,6.21693,6.30061
0.976395,3.66511,4.92932,5.57717,5.96755,6.22828,6.41474,6.55473,6.66369,6.75092
0.941947,3.68099,4.77471,5.30238,5.61214,5.81593,5.96024,6.0678,6.15107,6.21745
1.23989,5.69346,7.69361,8.75893,9.42507,9.88223,10.2158,10.4701,10.6704,10.8323
0.935144,4.79104,6.47153,7.3354,7.85838,8.20797,8.45775,8.64496,8.7904,8.90662
0.935539,5.39243,7.33928,8.34235,8.95208,9.36168,9.65577,9.87721,10.05,10.1885
0.924132,5.86977,7.97251,9.04134,9.68645,10.1179,10.4267,10.6586,10.8391,10.9837
0.938624,6.48753,8.78724,9.95098,10.6533,11.1233,11.4599,11.7129,11.91,12.0679
0.915809,6.79716,9.17444,10.3754,11.1005,11.5859,11.9337,12.1951,12.3989,12.5621
0.924746,7.36778,9.94766,11.257,12.0497,12.5813,12.9627,13.2496,13.4732,13.6525
0.919029,7.80841,10.5359,11.9202,12.7578,13.3191,13.7215,14.0241,14.2599,14.4489
0.908089,8.20005,11.0617,12.5144,13.3932,13.9822,14.4044,14.7219,14.9693,15.1676
0.913483,8.71784,11.7489,13.2858,14.2151,14.8376,15.2837,15.6191,15.8805,16.0899
0.91438,9.2099,12.4171,14.0466,15.0331,15.6946,16.1689,16.5257,16.8038,17.0267
1.03467,10.9298,14.7184,16.6398,17.8016,18.5798,19.1376,19.5569,19.8836,20.1454
0.91099,10.1393,13.6772,15.4769,16.5669,17.2979,17.8221,18.2165,18.5239,18.7703
1.01258,11.5942,15.5295,17.5083,18.6989,19.494,20.0625,20.4893,20.8214,21.0872
1.014,12.1666,16.3661,18.5045,19.8019,20.6732,21.2989,21.77,22.1376,22.4323
1.01814,12.9119,17.4635,19.7929,21.2077,22.1578,22.8398,23.353,23.7533,24.0741
0.936177,12.2431,16.4581,18.5833,19.8625,20.7166,21.3272,21.7854,22.142,22.4273
0.900777,12.2998,16.5868,18.7703,20.0946,20.9839,21.6225,22.1033,22.4784,22.7793
1.02746,14.4261,19.3784,21.8814,23.3916,24.4017,25.1248,25.668,26.0909,26.4296
0.994684,14.68,19.8497,22.4954,24.1037,25.1849,25.9617,26.5468,27.0034,27.3697
1.00187,15.4233,20.8546,23.6163,25.2862,26.4043,27.2052,27.8069,28.2756,28.6509
0.970647,15.4515,20.838,23.5622,25.2058,26.3054,27.0926,27.684,28.1447,28.5136
0.907323,14.8459,19.9745,22.5671,24.1328,25.181,25.9321,26.4968,26.9367,27.2892
0.913764,15.4146,20.7483,23.4543,25.0918,26.1895,26.9767,27.5688,28.0303,28.4001
1.06509,18.4509,24.821,28.0531,30.0084,31.3187,32.2579,32.9642,33.5146,33.9556
0.910562,16.1091,21.6246,24.4155,26.101,27.2294,28.0376,28.6451,29.1183,29.4973
1.00089,18.2711,24.6106,27.8436,29.8053,31.1226,32.0682,32.7801,33.3354,33.7807
0.964099,18.2629,24.6733,27.9442,29.9267,31.2565,32.2101,32.9274,33.4864,33.9344
0.985273,19.2493,25.9829,29.3995,31.4635,32.8451,33.8344,34.5779,35.1569,35.6207
1.19767,23.7531,31.8835,35.9753,38.4385,40.0842,41.2615,42.1455,42.8337,43.3847
0.961728,19.6634,26.4952,29.9744,32.0852,33.5029,34.521,35.2876,35.8857,36.3654
1.0023,17.0405,21.5085,23.5755,24.7675,25.5431,26.088,26.4918,26.8031,27.0503
0.925755,17.9248,24.4419,28.0739,30.4186,32.0638,33.2838,34.2254,34.9743,35.5845
0.966119,20.3243,28.0663,32.1683,34.6771,36.3592,37.5614,38.4616,39.1601,39.7175
0.991602,21.8742,29.9613,34.065,36.5229,38.1559,39.319,40.1895,40.8655,41.4057
0.973434,21.7976,29.4339,33.2304,35.4975,37.0056,38.0817,38.8885,39.5161,40.0181
0.94652,22.0629,29.9178,33.9072,36.3279,37.9554,39.1254,40.0073,40.6958,41.2484
0.943649,22.4948,30.3907,34.3826,36.7939,38.4082,39.5645,40.4334,41.1102,41.6522
0.916675,21.0421,27.7849,31.0883,33.0506,34.3509,35.2758,35.9674,36.5042,36.9328
0.913836,22.3213,30.2769,34.4391,37.0123,38.7634,40.0331,40.9962,41.752,42.361
0.926226,21.5923,28.4614,31.8264,33.8161,35.1279,36.0568,36.7487,37.2839,37.71
0.904664,22.6709,30.8436,35.1483,37.8171,39.6367,40.9581,41.9617,42.7501,43.3859
0.949806,22.9798,30.4422,34.116,36.2911,37.7259,38.7422,39.4993,40.085,40.5513
0.942278,24.3077,33.0427,37.6098,40.4271,42.3417,43.7287,44.7803,45.6053,46.27
0.96226,25.5752,34.683,39.3275,42.1328,44.0075,45.3477,46.3528,47.1344,47.7594
0.921545,25.7203,35.0856,39.8849,42.798,44.754,46.158,47.2149,48.0393,48.7004
0.981493,28.4075,38.6635,43.8637,47.0013,49.0995,50.6012,51.729,52.6071,53.31
0.968286,26.4408,34.8106,38.8541,41.2365,42.8074,43.9212,44.7522,45.3959,45.9093
1.03817,29.9797,40.5869,46.1284,49.5584,51.8964,53.594,54.8833,55.8961,56.7129
0.927595,27.8871,37.9122,43.0669,46.1965,48.2941,49.7962,50.9241,51.8018,52.504
0.909787,24.8482,32.3221,35.888,37.9705,39.3349,40.2979,41.0138,41.567,42.0073
0.963655,26.2394,34.6469,38.9391,41.5653,43.3432,44.6284,45.6015,46.3642,46.9781
0.914996,27.58,38.0045,43.6446,47.1801,49.6017,51.363,52.7013,53.7522,54.5993
0.968021,30.116,41.0672,46.6319,49.9647,52.1751,53.7456,54.9177,55.8256,56.5493
0.944323,31.0134,42.5049,48.3802,51.9392,54.3269,56.0407,57.3311,58.3379,59.1456
0.980563,32.0322,43.0569,48.5047,51.7478,53.8992,55.4307,56.5764,57.4658,58.1763
0.95456,32.379,43.9118,49.8014,53.3895,55.8084,57.5507,58.8658,59.894,60.72
0.998488,33.8881,45.5051,51.3243,54.8188,57.1485,58.8121,60.0592,61.0287,61.804
0.942989,33.0201,44.6626,50.6119,54.2303,56.6647,58.415,59.7342,60.7643,61.591
1.04674,37.6946,51.0615,57.8691,61.9908,64.7529,66.7323,68.2201,69.3792,70.3076
0.94289,34.6426,46.8403,53.0204,56.7523,59.2498,61.0384,62.3823,63.4292,64.2676
0.938032,35.0189,47.2804,53.4935,57.2495,59.7659,61.5696,62.9259,63.983,64.8301
0.921794,34.9805,47.1999,53.3958,57.1429,59.6537,61.4535,62.8068,63.8615,64.7065
0.956696,36.1781,48.4532,54.6112,58.3134,60.7845,62.5511,63.8769,64.9086,65.7342
0.902004,29.8188,38.2346,42.2273,44.5628,46.0964,47.1809,47.9885,48.6133,49.1111
0.936757,34.0098,46.2495,52.9172,57.1528,60.0903,62.2497,63.905,65.2146,66.2769
0.926656,34.7124,47.1728,53.6058,57.4964,60.0909,61.9399,63.3223,64.3942,65.2491
1.00048,37.9621,51.2342,57.9262,61.9401,64.6133,66.5213,67.9518,69.0643,69.9543
0.93871,37.402,51.0321,58.0475,62.3228,65.203,67.276,68.8398,70.0617,71.0428
0.959856,39.4108,53.6394,60.8636,65.2244,68.1407,70.2277,71.7947,73.0144,73.9907
1.01156,41.806,56.3805,63.6812,68.0642,70.9877,73.0768,74.6444,75.864,76.8401
0.916535,37.3421,49.8284,56.0418,59.7674,62.252,64.0278,65.3603,66.3973,67.2273
0.890383,34.4837,45.317,50.662,53.8572,55.9843,57.5029,58.6414,59.5269,60.2352
0.914227,37.8476,51.4777,58.6998,63.1929,66.2615,68.4913,70.1851,71.5155,72.5883
0.933656,40.3633,55.1273,62.7481,67.3714,70.4664,72.6802,74.3411,75.6325,76.6652
0.936869,40.9247,55.3334,62.5702,66.9056,69.7909,71.8491,73.3913,74.5901,75.5486
0.890189,34.9959,45.4315,50.4104,53.3289,55.2487,56.6081,57.6215,58.4063,59.032
0.919921,39.3161,53.5624,61.2092,66.0229,69.3415,71.7707,73.6269,75.0918,76.2776
0.92737,41.6736,57.1035,65.1159,69.9874,73.25,75.5829,77.3321,78.6913,79.7773
0.937128,42.5013,57.5577,65.1244,69.6548,72.668,74.8163,76.4255,77.6759,78.6757
0.945396,44.0301,59.706,67.654,72.4611,75.6847,77.9977,79.7387,81.0967,82.1857
0.935244,44.7018,60.6384,68.726,73.6183,76.8969,79.2473,81.0146,82.3918,83.4953
0.934454,44.7751,60.2812,68.0677,72.7514,75.8789,78.1154,79.7941,81.1006,82.1464
0.981654,47.8069,64.4806,72.9393,78.0625,81.5001,83.967,85.8237,87.2718,88.4328
0.906134,44.9416,60.6996,68.7091,73.5589,76.8104,79.1417,80.8949,82.2612,83.356
0.914614,45.9627,62.0194,70.1612,75.0825,78.3781,80.7393,82.5141,83.8969,85.0045
0.858738,12.627,13.5933,13.9482,14.1326,14.2455,14.3219,14.3769,14.4184,14.4509
0.851739,19.8468,28.3923,34.9942,40.3609,44.8317,48.6206,51.8749,54.7017,57.1805
0.931693,30.5917,49.0031,61.7477,70.5069,76.6738,81.1543,84.5103,87.0938,89.1304
0.865858,35.4805,55.8312,67.004,73.5219,77.6755,80.5243,82.5917,84.1584,85.3863
0.872488,41.2882,61.9793,72.0324,77.7684,81.4752,84.0761,86.0067,87.4992,88.6888
0.86451,44.6949,64.3594,73.6481,79.0648,82.6388,85.1826,87.0888,88.5715,89.7582
