1.20469,1.4783,1.59939,1.66768,1.71153,1.74207,1.76456,1.78181,1.79547,1.80654
1.33571,2.11338,2.49985,2.72517,2.8717,2.97433,3.05011,3.10833,3.15443,3.19183
2.06066,4.07658,5.08898,5.65815,6.01673,6.2618,6.43939,6.57381,6.679,6.76352
0.997303,2.35701,3.00932,3.3579,3.57105,3.71413,3.81662,3.8936,3.9535,4.00144
0.987547,2.82253,3.71613,4.19475,4.48955,4.68894,4.83271,4.94128,5.02616,5.09434
0.971705,3.28743,4.39492,4.97576,5.32944,5.56683,5.73704,5.86501,5.9647,6.04454
0.96757,3.6036,4.73782,5.30206,5.63697,5.85846,6.01574,6.13319,6.22423,6.29687
0.950743,4.1387,5.58608,6.34378,6.81024,7.12675,7.35577,7.52925,7.66523,7.7747
1.31244,6.06048,7.97863,8.92148,9.47913,9.84694,10.1075,10.3017,10.4519,10.5716
1.29778,6.8748,9.29564,10.5598,11.3388,11.8678,12.2509,12.5412,12.7689,12.9523
0.927573,5.46156,7.39296,8.37896,8.97448,9.37237,9.65673,9.86996,10.0357,10.1683
0.914015,5.9036,7.98,9.03017,9.66256,10.085,10.387,10.6138,10.7904,10.9317
0.926496,6.53939,8.84883,10.019,10.7258,11.199,11.5382,11.7931,11.9918,12.151
1.1549,8.67292,11.6439,13.13,14.0216,14.616,15.0405,15.3589,15.6066,15.8047
1.06688,8.20066,10.8412,12.1432,12.9201,13.4366,13.805,14.0809,14.2954,14.4669
0.917256,7.67707,10.3446,11.7247,12.5719,13.1456,13.56,13.8734,14.1189,14.3163
1.04975,9.35919,12.6043,14.2534,15.2488,15.9139,16.3892,16.7458,17.0231,17.2448
1.09269,10.5465,14.3102,16.2373,17.4069,18.1921,18.7556,19.1797,19.5105,19.7757
0.928359,9.56252,12.9548,14.6717,15.7063,16.3975,16.8918,17.2628,17.5514,17.7825
0.914159,9.9098,13.3663,15.1043,16.1496,16.8477,17.347,17.7219,18.0137,18.2472
1.1126,12.6492,17.0306,19.2385,20.5701,21.4611,22.0993,22.5789,22.9525,23.2518
0.928463,10.944,14.6756,16.5511,17.6806,18.4354,18.9756,19.3813,19.6971,19.95
1.05047,12.7155,16.992,19.1445,20.4426,21.3111,21.9332,22.4007,22.7648,23.0565
1.14328,14.2597,19.0441,21.4585,22.9158,23.8911,24.5896,25.1146,25.5235,25.851
1.06856,14.0118,18.8624,21.3446,22.8536,23.8679,24.5967,25.1455,25.5737,25.9172
0.921333,12.7097,17.1637,19.4332,20.8063,21.7259,22.3845,22.8794,23.2649,23.5735
1.09381,14.1587,18.4066,20.4412,21.6331,22.4158,22.9691,23.3809,23.6994,23.953
0.96587,11.8817,15.3253,17.0241,18.0442,18.7263,19.2153,19.5831,19.8699,20.0999
0.971493,13.7291,18.8585,21.6902,23.494,24.7444,25.6624,26.365,26.9199,27.3694
0.914052,14.1241,19.5141,22.3288,24.035,25.1732,25.9842,26.5905,27.0605,27.4353
0.955763,14.4947,19.2887,21.6026,22.9546,23.8402,24.465,24.9296,25.2886,25.5744
1.02358,16.9132,23.0885,26.2936,28.2671,29.6084,30.5808,31.3186,31.8979,32.3648
0.973004,16.5446,22.3308,25.2286,26.9638,28.1173,28.9389,29.5535,30.0303,30.411
1.10448,19.7589,26.7945,30.369,32.5343,33.9875,35.0306,35.8158,36.4285,36.9198
0.983566,16.5182,21.5745,23.9972,25.4183,26.3523,27.013,27.5049,27.8854,28.1885
1.0474,19.2244,26.125,29.778,32.0572,33.6191,34.7575,35.6245,36.3071,36.8586
0.902628,17.1844,23.2452,26.3245,28.1774,29.4111,30.2901,30.9475,31.4575,31.8645
0.945943,18.902,25.6615,29.104,31.1862,32.5812,33.5811,34.3331,34.9193,35.3891
0.919715,19.0982,25.8787,29.3066,31.3728,32.754,33.7423,34.4845,35.0623,35.525
0.893413,19.1233,25.827,29.2023,31.2349,32.5933,33.5653,34.2953,34.8637,35.3188
0.958649,20.4333,27.243,30.6209,32.641,33.9854,34.9447,35.6638,36.2228,36.6698
1.20923,26.9598,36.406,41.2516,44.2089,46.2035,47.6404,48.7249,49.5727,50.2536
0.982635,20.1047,26.0927,28.9591,30.6377,31.7391,32.517,33.0955,33.5424,33.8981
0.988499,21.9331,29.7117,33.8507,36.4403,38.218,39.5155,40.5047,41.2842,41.9143
0.98923,23.2823,31.782,36.1872,38.8647,40.6581,41.9411,42.9034,43.6514,44.2494
0.98034,22.0218,29.0491,32.45,34.4457,35.7563,36.6826,37.3721,37.9052,38.3298
1.03067,24.8824,33.8126,38.4813,41.3675,43.3334,44.7604,45.844,46.6952,47.3817
0.998918,25.138,34.1551,38.7546,41.5326,43.3884,44.7144,45.7084,46.4809,47.0984
0.9522,24.7417,33.5158,37.9457,40.612,42.3923,43.6654,44.621,45.3647,45.9601
1.09725,28.2537,37.6885,42.3522,45.1334,46.9812,48.2981,49.2843,50.0505,50.6629
1.00731,26.9064,36.2858,41.0809,44.003,45.9727,47.3912,48.4618,49.2985,49.9705
0.958426,25.585,34.1919,38.5007,41.0855,42.8073,44.036,44.9566,45.672,46.2439
0.961794,26.8398,36.3298,41.2103,44.1878,46.1947,47.6395,48.7295,49.5812,50.2651
1.02831,29.4397,39.7695,45.0043,48.1609,50.2698,51.7777,52.9092,53.7895,54.4937
0.954738,24.6416,31.8689,35.2982,37.299,38.6102,39.5359,40.2243,40.7564,41.18
0.953492,25.822,34.5792,39.1729,42.0281,43.9807,45.4021,46.4838,47.335,48.0223
1.03315,29.9152,40.849,46.5935,50.1201,52.4994,54.2105,55.4992,56.5041,57.3095
1.00043,30.0929,40.9581,46.4838,49.8064,52.0195,53.5981,54.7804,55.6989,56.433
0.959784,29.2249,39.387,44.4648,47.5042,49.5277,50.9722,52.0552,52.8976,53.5714
0.961672,30.4925,41.3623,46.8966,50.2549,52.5117,54.1333,55.355,56.3086,57.0737
0.957575,31.2718,42.36,47.9686,51.3524,53.6153,55.2347,56.4508,57.3975,58.1553
0.97931,30.917,40.9655,45.8884,48.8109,50.7464,52.1229,53.152,53.9505,54.5882
0.993855,32.0288,42.9001,48.4434,51.8212,54.0988,55.7396,56.9784,57.9469,58.7251
0.94956,31.1954,41.9268,47.3942,50.707,52.9276,54.5191,55.7153,56.6471,57.3932
0.952342,32.4536,43.9455,49.8355,53.4128,55.8149,57.5388,58.8361,59.8477,60.6587
0.930753,32.7904,44.4565,50.3876,53.9697,56.3659,58.0809,59.369,60.3718,61.1747
0.986995,35.1849,47.3764,53.4903,57.1599,59.6066,61.3543,62.6653,63.6849,64.5008
0.944731,34.2479,46.0908,52.064,55.6688,58.0822,59.8115,61.1117,62.125,62.9369
1.02534,37.7575,50.788,57.3694,61.3423,64.0015,65.9061,67.3373,68.4522,69.3452
0.992123,36.1945,48.2679,54.2962,57.912,60.3223,62.0437,63.3347,64.3388,65.142
0.95453,33.2618,43.6964,48.8401,51.9096,53.9504,55.4058,56.4962,57.3437,58.0214
0.946533,34.9305,47.2869,53.7822,57.8041,60.5426,62.5284,64.0346,65.2165,66.1686
0.967233,37.0847,50.3886,57.2225,61.3608,64.1289,66.1081,67.5927,68.747,69.67
0.953123,35.888,47.8812,53.8117,57.3369,59.6719,61.3322,62.5734,63.5364,64.3053
1.05769,41.3849,55.9568,63.4313,67.991,71.0671,73.284,74.958,76.2672,77.3192
0.94037,37.7592,51.0781,57.8455,61.9345,64.6703,66.6283,68.0985,69.2428,70.1586
0.950228,38.8676,52.4555,59.3151,63.4481,66.2101,68.1862,69.67,70.8252,71.75
1.02561,42.5094,57.2033,64.5975,69.0496,72.0245,74.1531,75.7517,76.9962,77.9927
0.950949,37.4057,49.205,54.9678,58.3859,60.6491,62.2584,63.4615,64.3949,65.1403
0.960642,39.5373,53.3177,60.4835,64.8985,67.8968,70.0674,71.7121,73.0016,74.0398
0.957289,39.0042,52.0731,58.6333,62.565,65.1796,67.0421,68.4356,69.517,70.3804
1.07817,45.1663,60.8803,68.9265,73.819,77.1096,79.475,81.2577,82.6497,83.7667
0.922481,37.5942,49.8739,55.9565,59.5811,61.9856,63.6968,64.9764,65.9695,66.7624
0.899417,38.0328,51.3111,58.1593,62.3491,65.1802,67.2223,68.7655,69.9728,70.9432
1.02897,45.3917,61.7397,70.1526,75.2665,78.6995,81.162,83.0138,84.4568,85.6126
0.934035,40.5322,54.1474,60.8831,64.8887,67.542,69.4284,70.8381,71.9316,72.8044
0.994542,43.6368,58.5194,66.0512,70.6132,73.6768,75.8776,77.5358,78.8302,79.869
0.953394,42.6725,57.4772,65.0177,69.5897,72.6576,74.8584,76.5141,77.8047,78.839
0.945604,42.6062,57.2051,64.5689,69.0038,71.9661,74.0843,75.6741,76.9112,77.9013
0.948587,41.8076,55.5143,62.3266,66.4017,69.1139,71.0491,72.4995,73.627,74.5287
0.972001,43.9535,59.1161,66.8989,71.6481,74.8509,77.1579,78.899,80.2599,81.3529
0.948883,44.5264,60.3889,68.5418,73.4976,76.8254,79.213,81.0089,82.4087,83.5302
1.02388,45.4071,59.8271,66.8448,70.9842,73.7125,75.6456,77.0867,78.2024,79.0918
0.985453,46.9454,63.9743,72.9397,78.5011,82.2956,85.0524,87.1471,88.793,90.1207
0.926731,44.4872,59.9859,67.7847,72.4548,75.5567,77.7639,79.4134,80.6923,81.7126
0.932076,45.7618,61.828,69.971,74.8918,78.1886,80.5524,82.3305,83.717,84.8285
0.991713,50.5193,68.6482,77.9024,83.5152,87.2824,89.9857,92.02,93.6062,94.8778
0.914272,47.5858,64.4421,72.9477,78.0686,81.4882,83.9332,85.7679,87.1955,88.3379
1.08925,57.8073,78.1337,88.3795,94.5544,98.6833,101.639,103.859,105.589,106.974
1.07241,43.8157,54.4653,59.2305,61.9354,63.6792,64.897,65.7958,66.4864,67.0336
