1.79626,1.82019,1.82831,1.8324,1.83486,1.83651,1.83768,1.83857,1.83925,1.8398
1.40998,1.9369,2.20721,2.37164,2.4822,2.56164,2.62148,2.66818,2.70563,2.73634
1.22732,2.16029,2.63865,2.91407,3.09003,3.21128,3.29957,3.3666,3.41915,3.46143
1.14295,2.51639,3.21686,3.60522,3.84716,4.01131,4.12969,4.219,4.28873,4.34468
1.33379,3.54938,4.63979,5.22037,5.57458,5.81216,5.98233,6.11015,6.20964,6.28928
1.11079,3.49123,4.62143,5.20917,5.5651,5.80327,5.97376,6.10181,6.2015,6.28132
1.07689,3.94105,5.26513,5.9465,6.35863,6.63453,6.83213,6.98062,7.09627,7.1889
1.0522,4.36147,5.82465,6.56519,7.01022,7.30704,7.51908,7.67812,7.80182,7.90078
1.05116,4.86796,6.50261,7.32724,7.82351,8.15503,8.39219,8.57027,8.70891,8.81991
1.03328,5.30402,7.09657,8.00195,8.54781,8.91285,9.17417,9.37048,9.52336,9.64578
1.28311,7.26025,9.7359,10.9879,11.7434,12.2487,12.6105,12.8822,13.0939,13.2634
1.13238,6.92943,9.25912,10.4275,11.1292,11.5972,11.9315,12.1822,12.3773,12.5333
1.10256,7.30637,9.78106,11.0297,11.783,12.287,12.648,12.9193,13.1306,13.2999
1.01256,7.40897,10.0245,11.3635,12.177,12.7236,13.116,13.4115,13.6419,13.8267
0.982756,7.6899,10.3383,11.6655,12.4607,12.9899,13.3674,13.65,13.8696,14.0452
1.07252,8.93165,11.9794,13.5076,14.4261,15.0395,15.4782,15.8076,16.064,16.2694
1.06107,9.34732,12.516,14.1067,15.0639,15.7034,16.161,16.5045,16.772,16.9861
0.975735,9.0561,12.1144,13.6514,14.5768,15.1952,15.6376,15.9698,16.2284,16.4354
1.01777,9.98219,13.3802,15.0966,16.1326,16.8259,17.3225,17.6956,17.9863,18.2191
0.991306,10.1596,13.5836,15.3035,16.3376,17.0278,17.5212,17.8914,18.1794,18.4099
0.99088,10.6549,14.267,16.0897,17.1892,17.9247,18.4514,18.8472,19.1555,19.4024
1.03803,7.87452,9.40475,10.057,10.4183,10.6479,10.8066,10.9229,11.0118,11.0819
0.99602,9.54974,13.0715,15.1899,16.6333,17.6862,18.49,19.1245,19.6384,20.0632
0.98625,11.0757,15.6149,18.1249,19.68,20.7248,21.4698,22.0256,22.455,22.7961
0.937189,11.7267,16.3981,18.7842,20.2014,21.1348,21.795,22.2864,22.6664,22.9692
1.01714,13.4845,18.4517,20.8846,22.3186,23.2647,23.9363,24.4382,24.8275,25.1384
0.96188,13.5168,18.383,20.7954,22.2413,23.2069,23.8982,24.4178,24.8227,25.1472
0.98004,14.3159,19.2994,21.7673,23.2454,24.2307,24.9345,25.4625,25.8731,26.2017
0.95227,14.6659,19.825,22.4228,23.9926,25.0446,25.7989,26.3663,26.8085,27.163
0.953434,15.376,20.7682,23.4813,25.1159,26.2084,26.9898,27.5765,28.0331,28.3986
0.958627,15.8571,21.2626,23.956,25.5698,26.6447,27.4119,27.9871,28.4343,28.792
0.989456,16.8221,22.5238,25.382,27.1025,28.2524,29.0755,29.6937,30.1752,30.5608
0.942634,16.334,21.7984,24.5336,26.1775,27.2748,28.0593,28.648,29.1061,29.4727
0.937243,17.0128,22.9168,25.9292,27.7588,28.9882,29.8713,30.5363,31.0552,31.4714
0.994415,18.494,24.7979,27.9627,29.8625,31.1283,32.0319,32.7091,33.2354,33.6562
0.959071,18.2149,24.3596,27.4399,29.2909,30.5264,31.4098,32.0729,32.589,33.0021
0.969918,18.8943,25.2951,28.5212,30.4668,31.7684,32.7005,33.4009,33.9464,34.3834
0.990854,19.8534,26.6177,30.0329,32.0929,33.4707,34.4569,35.1977,35.7746,36.2365
0.967933,19.9513,26.7694,30.2096,32.283,33.669,34.6607,35.4054,35.9852,36.4493
0.99969,20.99,28.0782,31.6339,33.7703,35.1957,36.2143,36.9786,37.5732,38.049
0.924125,19.8095,26.4978,29.8629,31.8898,33.2447,34.2144,34.9428,35.5099,35.9641
0.946867,20.7412,27.7667,31.3104,33.4475,34.877,35.9003,36.6691,37.2678,37.7472
0.960583,21.6864,29.1269,32.8948,35.1708,36.6944,37.7857,38.6058,39.2446,39.7563
0.94805,21.8427,29.273,33.0093,35.256,36.7554,37.8271,38.6312,39.2568,39.7573
0.941918,22.3134,29.9645,33.8286,36.1597,37.7194,38.8363,39.6756,40.3293,40.8529
0.974925,23.5064,31.483,35.4883,37.8962,39.5031,40.6517,41.5136,42.1842,42.7207
0.959754,23.9259,32.2029,36.4009,38.9402,40.6422,41.8624,42.7802,43.4955,44.0688
0.966885,24.3083,32.4878,36.5727,39.0196,40.6487,41.811,42.6819,43.3587,43.8999
0.964376,24.5336,32.7528,36.8774,39.3599,41.0189,42.2063,43.0982,43.7928,44.3491
0.96935,25.1324,33.626,37.9143,40.5029,42.2355,43.4765,44.4091,45.1355,45.7174
0.928751,25.0675,33.8255,38.297,41.0097,42.8305,44.1369,45.12,45.8865,46.5009
0.968779,26.476,35.4866,39.997,42.6992,44.4976,45.7803,46.7411,47.4876,48.0843
0.972236,26.6474,35.5183,39.9431,42.5962,44.365,45.6287,46.5769,47.3146,47.905
0.957734,26.6647,35.6378,40.1658,42.9006,44.7324,46.0453,47.0326,47.8021,48.4186
0.974606,28.0526,37.7578,42.7001,45.6949,47.7035,49.1439,50.2273,51.0717,51.7483
0.955295,27.6417,36.9338,41.5763,44.3559,46.2053,47.5242,48.512,49.2795,49.8929
0.949879,28.1475,37.7681,42.6353,45.5769,47.548,48.9613,50.0243,50.853,51.5173
0.960761,28.6926,38.3401,43.1749,46.0779,48.0136,49.3962,50.4331,51.2394,51.8844
0.96325,29.5974,39.7852,44.9564,48.0865,50.1854,51.6908,52.8234,53.7064,54.4142
0.966198,29.9989,40.1583,45.255,48.3153,50.3556,51.8126,52.9051,53.7546,54.434
0.962609,30.284,40.5294,45.6843,48.7891,50.8646,52.3501,53.4659,54.3348,55.0307
0.962178,30.5104,40.7514,45.8933,48.9862,51.0515,52.5284,53.637,54.4998,55.1903
0.981974,31.5758,42.2352,47.6114,50.8539,53.0229,54.5759,55.7428,56.6516,57.3794
0.978638,32.4335,43.6571,49.3663,52.8232,55.1408,56.8026,58.0523,59.0264,59.8069
0.974441,31.9238,42.4515,47.6732,50.7882,52.8562,54.3289,55.4308,56.2862,56.9696
0.95819,32.1326,43.0607,48.6068,51.9681,54.2252,55.8461,57.0668,58.0195,58.7836
0.972203,32.7684,43.7682,49.2944,52.6162,54.8324,56.4157,57.6031,58.5266,59.2653
0.970326,34.1246,46.1249,52.2745,56.0145,58.5294,60.3367,61.6982,62.7609,63.6133
0.978404,34.7098,46.5535,52.4777,56.0236,58.3816,60.0622,61.3205,62.2977,63.0784
0.974848,35.3969,47.5939,53.7498,57.464,59.9501,61.7314,63.0705,64.1141,64.9503
0.959173,35.5379,47.7826,53.9547,57.6733,60.1587,61.937,63.2723,64.3117,65.1438
0.968658,36.6999,49.3941,55.8019,59.6659,62.2502,64.1,65.4896,66.5718,67.4383
0.970599,36.2266,48.1523,54.0541,57.5751,59.9139,61.5802,62.8277,63.7966,64.5708
0.965962,36.3728,48.5311,54.6637,58.3707,60.8559,62.6387,63.9802,65.0265,65.8653
0.961637,36.5902,48.9265,55.166,58.9344,61.4567,63.263,64.6201,65.677,66.5233
0.964929,37.4082,50.187,56.6631,60.5747,63.1925,65.0672,66.4757,67.5727,68.4512
0.984233,38.7258,51.9425,58.6076,62.6207,65.301,67.2177,68.6564,69.776,70.6721
0.953412,37.7134,50.4288,56.8082,60.6416,63.1997,65.0281,66.4002,67.4678,68.3222
0.942691,38.0936,51.1663,57.7902,61.7954,64.4792,66.4032,67.8501,68.9779,69.8816
0.966915,39.705,53.3118,60.1727,64.3046,67.0645,69.0383,70.5197,71.6725,72.5951
0.958784,40.2623,54.1886,61.2331,65.4852,68.3305,70.3682,71.8994,73.0921,74.0474
0.938196,39.8993,53.5616,60.4266,64.5539,67.3083,69.2771,70.7543,71.9036,72.8232
0.966378,41.6842,55.9443,63.123,67.4475,70.3382,72.4071,73.961,75.1711,76.14
0.946992,41.9956,56.6256,64.0471,68.5357,71.5433,73.699,75.3199,76.583,77.595
0.962368,42.7402,57.1944,64.4076,68.7265,71.6009,73.6514,75.1875,76.3813,77.3356
0.963646,42.6814,56.8912,63.9904,68.2536,71.0988,73.1332,74.6604,75.8491,76.8007
0.964455,43.0948,57.6007,64.9241,69.3479,72.311,74.4345,76.0311,77.2753,78.2722
0.977545,44.3253,59.4155,67.0541,71.6673,74.7548,76.9658,78.627,79.9207,80.9566
0.974068,44.5315,59.6159,67.2088,71.7774,74.8275,77.008,78.6444,79.9177,80.9366
0.953429,44.2099,59.2879,66.902,71.4945,74.5666,76.7662,78.4188,79.7059,80.7368
0.974812,45.3205,60.5779,68.2321,72.8312,75.8997,78.0925,79.7377,81.0176,82.0417
0.960644,45.3407,60.7953,68.6092,73.3282,76.488,78.752,80.4539,81.78,82.8425
0.955808,45.9659,61.788,69.7977,74.6334,77.8691,80.186,81.9266,83.2821,84.3676
0.9719,46.7211,62.4426,70.3058,75.0207,78.162,80.4045,82.0857,83.3929,84.4383
0.959771,46.5821,62.3486,70.2947,75.0875,78.2945,80.5916,82.3182,83.6633,84.7409
0.972005,47.9693,64.4022,72.7209,77.7462,81.1105,83.5205,85.3316,86.7425,87.8724
0.976621,48.1359,64.2984,72.3911,77.247,80.4836,82.7948,84.5277,85.8753,86.9531
0.962722,47.5962,63.5663,71.599,76.4383,79.674,81.9903,83.7304,85.0857,86.1712
0.961527,48.6171,65.3587,73.8739,79.0325,82.4926,84.9745,86.8416,88.2971,89.4637
0.952011,48.717,65.3967,73.8015,78.8581,82.2329,84.6448,86.4541,87.8614,88.9874
