1.83203,1.86615,1.8778,1.88369,1.88723,1.88961,1.8913,1.89258,1.89357,1.89437
1.40393,1.94636,2.22647,2.39745,2.51268,2.59559,2.65811,2.70694,2.74613,2.77828
1.22853,2.19497,2.69727,2.9882,3.17467,3.30339,3.39724,3.46854,3.52448,3.5695
1.19505,2.64266,3.37541,3.77887,4.02904,4.1982,4.31991,4.41156,4.48302,4.54028
1.12022,2.96469,3.86072,4.33584,4.62544,4.8197,4.95888,5.06347,5.14492,5.21014
1.09829,3.4312,4.53719,5.11524,5.46679,5.70275,5.87202,5.99937,6.09865,6.17821
1.50197,5.45419,7.28286,8.22791,8.80088,9.18495,9.46022,9.66718,9.82842,9.9576
1.39461,5.74578,7.68209,8.66764,9.26161,9.65842,9.94221,10.1552,10.321,10.4537
1.03046,4.83086,6.51158,7.37254,7.89472,8.2452,8.49673,8.68604,8.83367,8.95204
1.02971,5.32315,7.13982,8.05428,8.60349,8.96966,9.23117,9.42726,9.57973,9.70168
1.02533,5.86114,7.88737,8.91514,9.53661,9.9531,10.2517,10.4764,10.6515,10.7918
1.26808,7.92494,10.6638,12.0487,12.8842,13.4429,13.8429,14.1433,14.3772,14.5645
1.25868,8.50703,11.429,12.9021,13.7897,14.3829,14.8075,15.1263,15.3745,15.5732
1.10474,8.05497,10.8325,12.2377,13.0865,13.6549,14.0621,14.3683,14.6068,14.7979
0.99129,7.25084,9.5071,10.6052,11.2547,11.6838,11.9884,12.2158,12.3921,12.5328
1.37112,10.9116,14.626,16.5472,17.7277,18.5282,19.1071,19.5455,19.889,20.1656
1.09336,7.73502,9.75988,10.7012,11.2437,11.5961,11.8432,12.026,12.1666,12.2781
0.946798,7.9031,10.772,12.3691,13.3978,14.1185,14.6522,15.0638,15.391,15.6574
0.937935,8.82308,12.1977,13.9845,15.0761,15.8074,16.3297,16.7206,17.0239,17.2658
1.03891,10.5849,14.503,16.4816,17.6624,18.4451,19.0016,19.4175,19.7402,19.9978
1.05179,10.8991,14.551,16.326,17.373,18.0642,18.5549,18.9215,19.2058,19.4328
1.05975,11.9091,16.1577,18.3347,19.6658,20.5659,21.2159,21.7074,22.0923,22.4019
1.02432,12.2375,16.5909,18.796,20.1267,21.0162,21.6522,22.1295,22.5007,22.7977
1.0032,12.6044,17.0316,19.2589,20.599,21.4937,22.1334,22.6136,22.9873,23.2864
0.9369,11.6538,15.4037,17.2362,18.3232,19.0429,19.5548,19.9374,20.2343,20.4715
1.05076,14.0638,19.0132,21.5778,23.1549,24.2245,24.9982,25.584,26.0431,26.4126
0.926177,12.4761,16.6012,18.6501,19.8715,20.6812,21.2567,21.6867,22.02,22.2858
1.08498,14.7337,19.5176,21.9075,23.3438,24.3032,24.9897,25.5054,25.9072,26.2289
1.02057,15.1014,20.5543,23.415,25.1804,26.3792,27.2465,27.9032,28.4176,28.8316
1.01879,15.9914,21.7723,24.7239,26.5047,27.6933,28.5421,29.1782,29.6725,30.0676
0.997333,16.1775,21.8292,24.6555,26.3468,27.472,28.2747,28.8761,29.3437,29.7175
1.01142,16.6275,22.2168,24.992,26.6527,27.7589,28.5489,29.1415,29.6024,29.9713
1.01558,17.5581,23.7056,26.8463,28.7584,30.046,30.9725,31.6712,32.2169,32.655
1.00776,18.1396,24.5031,27.7308,29.6801,30.9841,31.9172,32.6179,33.1633,33.5997
1.12263,20.9971,28.3602,32.085,34.3322,35.8352,36.9112,37.7194,38.3488,38.8529
0.993306,18.8557,25.2651,28.4684,30.3897,31.6702,32.5848,33.2707,33.8042,34.2309
0.939602,18.4454,24.8139,28.0424,29.9973,31.3088,32.25,32.9584,33.5109,33.9539
0.97747,9.73552,11.0592,11.5832,11.8641,12.0391,12.1586,12.2454,12.3113,12.363
0.931187,12.9552,18.0975,21.5553,24.1,26.0635,27.6281,28.9057,29.9692,30.8685
0.93754,16.3447,24.1367,28.7966,31.7727,33.7932,35.2363,36.3103,37.1366,37.7897
1.07936,21.7183,31.5996,36.7412,39.7667,41.7358,43.1145,44.1326,44.9151,45.5354
1.02729,22.3773,31.5202,35.9643,38.5539,40.2511,41.4516,42.3467,43.0404,43.5941
0.83563,6.76374,7.4232,7.65478,7.77335,7.8457,7.89453,7.92974,7.95635,7.97715
0.869114,10.905,15.5786,19.0221,21.7434,23.9627,25.8114,27.3767,28.7197,29.885
0.842447,14.6193,22.991,28.5208,32.2345,34.8177,36.6829,38.0759,39.1472,39.9918
0.881151,18.7917,28.9074,34.3109,37.4523,39.4593,40.8409,41.8471,42.6118,43.2126
0.922875,22.3538,32.821,37.849,40.7248,42.5878,43.8968,44.8692,45.6212,46.2206
0.900298,23.9042,34.0138,38.8271,41.653,43.5241,44.8584,45.8594,46.6386,47.2626
0.891756,24.9035,34.4861,39.0665,41.7818,43.5862,44.8738,45.8392,46.59,47.1907
0.879664,25.4842,34.8189,39.3822,42.1205,43.9511,45.262,46.2474,47.015,47.6301
0.928248,27.3084,36.8496,41.5439,44.3589,46.2369,47.5791,48.5863,49.3699,49.997
0.883063,21.0616,26.4236,28.8434,30.2296,31.1286,31.7591,32.2258,32.5852,32.8705
0.898653,24.5552,33.5078,38.5142,41.7654,44.0568,45.7616,47.0807,48.1321,48.99
0.881573,25.7054,35.2992,40.3271,43.3829,45.422,46.8739,47.9578,48.7969,49.465
0.851389,26.1513,35.8288,40.7503,43.7044,45.6703,47.0723,48.1226,48.9389,49.5917
0.886005,27.9422,37.8961,42.8586,45.823,47.7943,49.2005,50.2543,51.0737,51.7289
0.912058,14.4056,16.425,17.2171,17.6408,17.9049,18.0854,18.2166,18.3163,18.3946
0.904092,19.7231,27.5834,32.8367,36.6928,39.6633,42.0276,43.9562,45.5604,46.916
0.838063,22.5665,33.2322,39.5602,43.5873,46.3159,48.2627,49.7105,50.8238,51.7036
0.871996,27.0433,39.4145,45.8787,49.6987,52.1929,53.9435,55.2386,56.2355,57.0267
0.837665,28.2139,39.9644,45.7198,49.0862,51.2969,52.8623,54.0304,54.936,55.6591
0.962832,34.2311,47.4833,53.9282,57.7495,60.2877,62.0993,63.4583,64.5159,65.3626
0.938193,34.7355,47.6016,53.9267,57.7151,60.2444,62.0543,63.4139,64.4728,65.3209
0.89957,33.9785,46.0408,51.9956,55.5664,57.949,59.6525,60.931,61.9259,62.7223
0.906213,34.0482,45.5783,51.2727,54.685,56.9602,58.5859,59.8056,60.7546,61.5141
0.86772,32.7116,43.7315,49.2588,52.5964,54.8323,56.4352,57.6407,58.5803,59.3334
0.865808,33.9356,45.9102,52.0573,55.8061,58.3311,60.1474,61.5165,62.5855,63.4432
0.869549,34.6048,46.6239,52.6867,56.3341,58.7672,60.505,61.8079,62.8209,63.631
0.929051,36.5462,48.7416,54.8146,58.4509,60.8726,62.6013,63.8976,64.9056,65.712
0.888177,36.0485,48.6085,55.0365,58.951,61.5873,63.4842,64.9147,66.0322,66.9292
0.893658,36.8035,49.5253,55.956,59.831,62.4192,64.2696,65.6579,66.7378,67.6018
0.932452,39.1006,52.6594,59.523,63.6674,66.4415,68.4287,69.9222,71.0858,72.018
0.898251,38.2664,51.5113,58.2053,62.2439,64.9455,66.8797,68.3329,69.4646,70.3709
0.947339,40.867,54.9501,62.0591,66.3467,69.2145,71.2676,72.81,74.0113,74.9733
0.905939,35.9062,46.7486,51.9739,55.0502,57.0775,58.5142,59.5856,60.4153,61.0769
1.00237,42.4846,57.5101,65.4626,70.4193,73.8123,76.2832,78.1638,79.6434,80.8382
0.868273,37.2798,50.2166,56.7863,60.7379,63.3685,65.2427,66.6446,67.732,68.5998
0.895864,38.9726,52.4319,59.2344,63.3321,66.0704,68.0299,69.5017,70.6479,71.5659
0.906484,38.2211,50.6138,56.7312,60.3757,62.795,64.5183,65.8082,66.81,67.6105
0.936297,40.5396,54.4414,61.5697,65.92,68.8551,70.97,72.5669,73.8154,74.8185
0.912889,41.2593,56.0198,63.6299,68.2645,71.3802,73.6174,75.3012,76.6141,77.6663
0.872316,39.3694,52.8441,59.5783,63.6043,66.2793,68.185,69.6112,70.7186,71.6033
0.883648,41.1218,55.5926,62.9642,67.4367,70.4416,72.6005,74.2269,75.4964,76.515
0.924577,43.9043,59.2829,67.0578,71.7457,74.8793,77.1212,78.8043,80.1142,81.1626
0.989567,47.3298,63.6024,71.7708,76.6812,79.9588,82.3021,84.0608,85.4294,86.5247
0.95878,46.8129,63.1118,71.3778,76.381,79.7362,82.143,83.9538,85.3658,86.4976
0.988472,46.2362,61.064,68.3391,72.6596,75.5211,77.5555,79.076,80.2555,81.1971
0.891882,42.7238,57.2993,64.7788,69.3499,72.4374,74.6643,76.3469,77.6633,78.7215
0.897017,43.7482,58.8702,66.5795,71.2462,74.3714,76.6093,78.2901,79.5986,80.6459
0.924099,46.0945,62.2291,70.4466,75.4183,78.7487,81.135,82.9289,84.3265,85.4461
0.878979,44.9092,60.7254,68.7579,73.6109,76.8594,79.186,80.9343,82.296,83.3867
0.890982,45.0718,60.2718,67.843,72.3726,75.3865,77.5365,79.1475,80.3995,81.4006
1.01381,52.1505,70.0994,79.2082,84.7289,88.4359,91.0979,93.1027,94.667,95.9217
0.911872,41.7515,53.8522,59.6098,62.9753,65.1825,66.7412,67.9005,68.7964,69.5094
0.853603,16.8845,18.7929,19.5602,19.9777,20.241,20.4223,20.555,20.6562,20.736
0.932436,27.4027,38.9834,47.344,53.7957,58.9511,63.173,66.6968,69.6837,72.2484
0.925979,35.708,54.7508,66.8074,74.6876,80.0824,83.942,86.8096,89.0088,90.7404
0.846476,39.1857,59.3121,70.0439,76.341,80.4091,83.2375,85.3145,86.9037,88.1592
0.862416,44.7044,65.1615,75.1143,80.8638,84.6101,87.2511,89.2164,90.7377,91.9511
0.854693,46.6562,65.4104,74.279,79.4601,82.876,85.3037,87.1199,88.5306,89.6583
