1.7751,1.80658,1.81732,1.82274,1.82601,1.82819,1.82975,1.83093,1.83184,1.83258
1.38265,1.89378,2.15327,2.3102,2.41534,2.49069,2.54735,2.5915,2.62687,2.65584
1.02584,1.6118,1.86681,2.0024,2.08519,2.14062,2.18019,2.2098,2.23277,2.25108
1.01838,2.21259,2.88661,3.29758,3.57205,3.76798,3.91479,4.02888,4.12009,4.19468
1.02145,2.82062,3.80744,4.35711,4.69714,4.92569,5.08901,5.2112,5.30589,5.38135
1.01484,3.38149,4.58858,5.2187,5.5972,5.8485,6.02729,6.16095,6.26466,6.34748
1.0123,3.93139,5.32177,6.02718,6.44947,6.7305,6.93107,7.08145,7.19842,7.292
0.990679,4.40157,5.95327,6.73666,7.2078,7.52258,7.74786,7.91709,8.04889,8.15445
1.00231,4.95498,6.66166,7.51581,8.02829,8.3701,8.61435,8.79762,8.9402,9.05429
0.971527,5.24843,7.02118,7.90794,8.44086,8.79673,9.05127,9.24238,9.39116,9.51027
1.00893,6.00671,8.0754,9.12505,9.76091,10.1876,10.4937,10.7242,10.9038,11.0479
1.00487,6.46083,8.65766,9.76292,10.428,10.872,11.1895,11.4276,11.6129,11.7612
0.956832,6.6201,8.86958,10.004,10.6882,11.1458,11.4735,11.7197,11.9114,12.065
1.03632,7.69707,10.324,11.6523,12.4543,12.9911,13.3756,13.6646,13.8897,14.07
1.02437,8.08959,10.8344,12.218,13.0517,13.6089,14.0076,14.3069,14.54,14.7266
0.947385,8.01833,10.7818,12.1849,13.0338,13.6028,14.0108,14.3176,14.5568,14.7484
0.96381,8.61171,11.5458,13.0228,13.9115,14.5049,14.9291,15.2474,15.495,15.6932
1.03595,9.77727,13.1141,14.7989,15.8154,16.4956,16.9827,17.3488,17.634,17.8624
1.0121,10.0332,13.4458,15.167,16.2045,16.8983,17.3949,17.7678,18.0582,18.2907
0.989745,10.5072,14.194,16.0775,17.221,17.989,18.5404,18.9556,19.2794,19.539
0.972325,10.7455,14.4161,16.2562,17.3598,18.0949,18.6195,19.0126,19.3181,19.5623
0.967553,11.1064,14.866,16.7548,17.8919,18.652,19.196,19.6047,19.923,20.1779
0.960026,11.4972,15.4098,17.3866,18.5805,19.3799,19.9526,20.3832,20.7186,20.9874
0.957585,12.116,16.3339,18.4826,19.7848,20.6585,21.2851,21.7565,22.124,22.4186
0.980432,12.9343,17.3978,19.6489,21.0039,21.9085,22.5552,23.0404,23.4179,23.7199
0.922901,12.4609,16.6468,18.7386,19.9931,20.8294,21.4268,21.8749,22.2235,22.5023
0.939188,13.1437,17.6034,19.8573,21.2197,22.1326,22.7872,23.2796,23.6634,23.971
0.922738,13.6239,18.3908,20.8267,22.3055,23.2987,24.0115,24.5481,24.9665,25.3019
0.996649,15.3259,20.658,23.3525,24.9753,26.059,26.8338,27.4151,27.8673,28.2292
1.01294,16.1502,21.7327,24.5449,26.2382,27.3695,28.1789,28.7867,29.2599,29.6387
1.03004,17.0107,22.8797,25.8392,27.6235,28.8168,29.6711,30.313,30.8128,31.2132
0.938053,15.7855,21.11,23.7742,25.3738,26.4407,27.203,27.7749,28.2198,28.5757
0.976312,16.8278,22.5095,25.3728,27.1005,28.2569,29.0854,29.7081,30.1934,30.5821
0.956647,17.0083,22.8194,25.7657,27.548,28.7422,29.5983,30.2419,30.7435,31.1454
0.945412,17.4246,23.4453,26.501,28.348,29.5848,30.4707,31.1365,31.6551,32.0704
0.979483,18.4676,24.7623,27.9277,29.8309,31.101,32.0087,32.6898,33.2197,33.6437
0.968623,18.7842,25.211,28.4565,30.4149,31.7255,32.6643,33.3698,33.9195,34.3598
0.936482,18.6199,24.9779,28.1852,30.1189,31.4118,32.3372,33.0323,33.5734,34.0067
0.939014,19.233,25.8452,29.1909,31.2115,32.564,33.5328,34.261,34.8282,35.2825
0.950839,20.1186,27.084,30.6114,32.7415,34.167,35.188,35.9551,36.5526,37.0312
0.96075,20.7104,27.769,31.3141,33.445,34.8669,35.8833,36.6458,37.2391,37.7139
0.962161,20.9598,27.993,31.5185,33.6382,35.0537,36.0661,36.8261,37.4178,37.8914
0.961724,21.4856,28.8059,32.5156,34.7602,36.2651,37.3443,38.1562,38.789,39.2963
0.95454,21.8322,29.2954,33.0709,35.3496,36.8738,37.9649,38.7845,39.4226,39.9335
0.937289,22.1333,29.8015,33.6938,36.047,37.623,38.7524,39.6013,40.2627,40.7925
0.943177,22.6578,30.3938,34.2831,36.6214,38.1817,39.2969,40.1336,40.7845,41.3053
0.945785,23.2891,31.2894,35.3334,37.7752,39.4099,40.5812,41.4617,42.1477,42.6974
0.951892,23.8912,32.0659,36.1899,38.6762,40.3387,41.5285,42.4222,43.118,43.6752
0.974499,24.8486,33.3008,37.5585,40.1238,41.8385,43.0655,43.9871,44.7046,45.2791
0.957413,25.1039,33.7697,38.1666,40.8267,42.6094,43.8875,44.8486,45.5977,46.198
0.977251,26.2201,35.2614,39.8302,42.5851,44.4268,45.7447,46.7343,47.5048,48.1215
0.966623,26.6869,35.9605,40.657,43.4935,45.3923,46.7523,47.7745,48.5708,49.2086
0.930214,26.125,35.0938,39.6052,42.3193,44.1315,45.4272,46.3997,47.1565,47.7622
0.919839,26.2322,35.1858,39.6931,42.4089,44.2246,45.5243,46.5006,47.2609,47.8698
0.937984,27.0636,36.2344,40.8481,43.627,45.4843,46.8133,47.8114,48.5885,49.2107
0.947941,27.8449,37.3379,42.1361,45.0336,46.9732,48.3627,49.4071,50.2207,50.8725
0.921783,27.5958,37.0468,41.8279,44.7145,46.6461,48.0294,49.0688,49.8783,50.5266
0.920741,28.1647,37.8623,42.7708,45.7342,47.7172,49.1373,50.2043,51.0354,51.7009
0.930383,28.7049,38.4419,43.3345,46.2766,48.2405,49.6445,50.6982,51.5181,52.1742
0.950758,29.5121,39.4298,44.412,47.4107,49.4143,50.8478,51.9243,52.7624,53.4335
0.954677,29.8164,39.8061,44.8355,47.8668,49.8939,51.345,52.4351,53.2839,53.9637
0.967871,30.352,40.4954,45.6085,48.6916,50.7537,52.2299,53.3388,54.2025,54.894
1.00159,32.3837,43.5913,49.3219,52.8029,55.1418,56.8213,58.0859,59.0724,59.8635
0.95014,31.365,42.2081,47.6976,51.0068,53.2179,54.799,55.9857,56.9091,57.648
0.951478,32.1265,43.2641,48.8976,52.2959,54.5689,56.1962,57.4188,58.3709,59.1335
0.940279,32.1774,43.2034,48.7474,52.0821,54.3088,55.9009,57.0959,58.0259,58.7702
0.930973,32.656,43.9793,49.7153,53.1828,55.5059,57.1711,58.4234,59.3993,60.1813
0.940048,33.5597,45.1369,50.975,54.4924,56.8429,58.5244,59.7869,60.7696,61.5562
0.945155,34.0316,45.6162,51.4344,54.9342,57.2714,58.9427,60.1974,61.174,61.9556
0.934308,33.7813,45.157,50.8685,54.3059,56.6025,58.2456,59.4794,60.44,61.2091
0.947872,34.5917,46.2772,52.1736,55.7322,58.1139,59.8198,61.1019,62.1006,62.9006
0.944942,35.4224,47.6915,53.9414,57.7297,60.2713,62.0946,63.4662,64.5356,65.3927
0.957157,36.0896,48.3469,54.5019,58.1981,60.6622,62.4219,63.7413,64.7671,65.5876
0.95894,36.2684,48.4696,54.5992,58.2884,60.7535,62.5175,63.8423,64.8739,65.7
0.961369,36.8681,49.4151,55.7689,59.6107,62.1849,64.0303,65.418,66.4995,67.3661
0.971091,37.1408,49.5501,55.7768,59.5187,62.0153,63.7993,65.1377,66.1788,67.0117
0.973534,38.1427,51.2797,57.9779,62.0428,64.7731,66.7337,68.2099,69.3616,70.2852
0.977542,38.2846,51.1764,57.6471,61.5322,64.122,65.9711,67.3574,68.4352,69.2971
0.9493,37.3918,49.9885,56.3394,60.1695,62.7319,64.5671,65.9463,67.0208,67.8815
0.970656,39.178,52.7143,59.61,63.7902,66.5953,68.6079,70.1222,71.303,72.2494
0.945965,39.3553,53.1867,60.231,64.4936,67.349,69.3947,70.9323,72.13,73.0892
0.957417,40.3745,54.3378,61.3611,65.5817,68.397,70.4084,71.9172,73.0907,74.0296
0.972114,41.4315,55.6566,62.819,67.1347,70.0205,72.0866,73.6389,74.848,75.8164
0.932014,40.6418,54.7711,61.9345,66.2671,69.1705,71.2518,72.8169,74.0367,75.0141
0.995852,43.4485,58.1668,65.5335,69.9538,72.8999,75.0037,76.5811,77.8077,78.7888
0.954063,42.0169,56.2921,63.4905,67.8346,70.7425,72.8259,74.3921,75.6125,76.5903
0.982893,43.9752,59.0703,66.7192,71.3435,74.4411,76.6609,78.3296,79.6298,80.6714
0.951185,42.9488,57.6045,64.9924,69.4422,72.4151,74.5415,76.1377,77.3801,78.3745
1.00095,45.6763,61.2658,69.1329,73.8771,77.0501,79.3218,81.0285,82.3576,83.4221
0.992711,45.6775,61.2312,69.0766,73.8066,76.9695,79.2336,80.9342,82.2584,83.3188
0.951851,43.847,58.6138,66.035,70.5004,73.4828,75.6158,77.217,78.4633,79.4609
0.952893,45.0479,60.6812,68.6531,73.4903,76.7388,79.071,80.8267,82.1963,83.2944
0.963569,45.7737,61.3668,69.2015,73.9075,77.045,79.2856,80.9656,82.2717,83.3163
0.951522,45.8844,61.6511,69.6285,74.4477,77.6754,79.9887,81.7281,83.0837,84.1699
0.968949,47.3403,63.6135,71.8355,76.7953,80.1125,82.4871,84.2708,85.6597,86.7718
0.956562,47.279,63.5019,71.6887,76.6244,79.9246,82.2867,84.0609,85.4424,86.5486
0.985922,48.173,64.1954,72.1916,76.9852,80.1793,82.4601,84.1704,85.5004,86.5643
0.959068,46.8354,62.4718,70.3538,75.1122,78.2988,80.5825,82.2997,83.638,84.7104
0.952185,46.8564,62.6808,70.6979,75.5446,78.791,81.1172,82.8659,84.2282,85.3195
0.942429,46.863,62.8227,70.9117,75.7983,79.0691,81.4115,83.1716,84.5425,85.6404
