3.55178,3.70178,3.75463,3.78163,3.79801,3.80902,3.81692,3.82286,3.8275,3.83122
1.28076,1.81783,2.0967,2.2673,2.38239,2.46528,2.52781,2.57666,2.61589,2.64807
1.11033,2.03143,2.51757,2.80134,2.98409,3.11067,3.20318,3.2736,3.32892,3.37351
1.03632,2.36062,3.04952,3.43417,3.67462,3.8381,3.95615,4.0453,4.11496,4.17088
1.00338,2.74525,3.61792,4.08714,4.3753,4.5695,4.70909,4.81422,4.89624,4.962
0.9579,2.95305,3.86071,4.3246,4.60319,4.7887,4.92106,5.02023,5.09731,5.15893
0.928141,1.96984,2.20994,2.30789,2.36096,2.39427,2.41714,2.43381,2.4465,2.45649
0.697994,2.28518,3.205,3.84593,4.3273,4.70413,5.00778,5.2579,5.46762,5.64603
0.703572,3.11777,4.64135,5.57367,6.17452,6.58403,6.87699,7.09511,7.26288,7.39543
0.702927,3.92611,5.83209,6.85793,7.47073,7.87294,8.15609,8.36602,8.52786,8.65647
0.865459,5.78516,8.43109,9.76872,10.5605,11.084,11.4563,11.7349,11.9515,12.1248
0.721109,5.20771,7.22474,8.18395,8.74398,9.11229,9.37339,9.56829,9.71939,9.83999
0.837995,6.74287,9.35138,10.6616,11.4593,11.9986,12.3882,12.683,12.914,13.1
0.877857,7.59177,10.3988,11.8036,12.6519,13.22,13.627,13.9329,14.1712,14.3619
0.907102,8.56303,11.7693,13.4082,14.4081,15.0821,15.5673,15.9333,16.2193,16.4489
0.744805,7.5198,10.2799,11.6799,12.5273,13.0952,13.5021,13.808,14.0463,14.2372
0.7434,7.95852,10.8494,12.3211,13.2145,13.8147,14.2458,14.5704,14.8238,15.0269
0.750904,8.39906,11.3871,12.9036,13.8223,14.4386,14.8807,15.2134,15.4728,15.6807
0.889317,10.3129,13.9394,15.7879,16.911,17.6661,18.2087,18.6175,18.9365,19.1925
0.868706,10.5631,14.3075,16.2264,17.3943,18.1798,18.7444,19.1697,19.5016,19.7679
0.840986,10.7756,14.6427,16.6304,17.8407,18.6548,19.2399,19.6807,20.0246,20.3005
0.857862,11.4458,15.5329,17.6262,18.8981,19.7527,20.3663,20.8284,21.1888,21.4778
0.780176,10.5751,14.2193,16.0615,17.1735,17.9177,18.4507,18.8512,19.1632,19.4132
0.801317,6.26993,7.25497,7.65893,7.87931,8.01818,8.11372,8.1835,8.23669,8.27858
0.794332,8.49746,11.8902,14.1201,15.7338,16.963,17.9329,18.7185,19.3682,19.9145
0.750502,9.24719,13.1444,15.334,16.6882,17.5915,18.2302,18.7026,19.0648,19.3505
0.796957,11.135,15.8492,18.3282,19.8199,20.8105,21.5154,22.0427,22.4522,22.7795
0.791369,12.0155,16.8241,19.2407,20.6797,21.6345,22.3149,22.8245,23.2207,23.5375
0.806232,13.5175,18.982,21.7758,23.4737,24.6173,25.4407,26.0623,26.5482,26.9386
0.754851,13.5287,18.7886,21.4361,23.0309,24.0972,24.8603,25.4334,25.8795,26.2367
0.74,13.834,18.9796,21.556,23.1077,24.1457,24.8891,25.4479,25.8832,26.2321
0.779937,15.0851,20.5601,23.3199,24.9902,26.111,26.9154,27.521,27.9934,28.3722
0.781355,15.6521,21.3286,24.2278,25.9938,27.1833,28.0392,28.6845,29.1886,29.5931
0.784046,16.1516,21.9268,24.8635,26.6434,27.8373,28.6936,29.3377,29.8397,30.242
0.797433,14.1842,18.1782,20.0567,21.1505,21.8666,22.372,22.7478,23.0381,23.2693
0.774993,14.4206,19.2439,21.8053,23.412,24.5177,25.3264,25.944,26.4312,26.8255
0.770149,15.8078,21.8513,25.1343,27.1882,28.5903,29.6067,30.3766,30.9797,31.4646
0.868608,18.7581,25.8011,29.4332,31.6254,33.0869,34.1292,34.9095,35.5154,35.9994
0.792971,17.46,23.7194,26.8717,28.764,30.0261,30.9283,31.6054,32.1326,32.5546
0.790977,18.5362,25.482,29.0827,31.2895,32.7823,33.86,34.6748,35.3126,35.8254
0.928947,22.4528,30.633,34.7837,37.2893,38.9648,40.1635,41.0635,41.7638,42.3243
0.775899,19.5357,26.6939,30.3547,32.5799,34.0763,35.1518,35.9623,36.595,37.1026
0.788585,20.4489,27.8548,31.6262,33.9121,35.4457,36.5459,37.3737,38.0191,38.5364
0.777256,20.6308,28.0182,31.7768,34.055,35.5839,36.6811,37.5068,38.1508,38.667
0.805152,21.9059,29.7327,33.7259,36.1504,37.7791,38.9487,39.8294,40.5164,41.0674
0.778312,21.5237,29.1388,33.0185,35.3716,36.9513,38.085,38.9383,39.6037,40.1372
0.791867,21.464,28.6583,32.2592,34.4226,35.8665,36.8985,37.6731,38.2757,38.7581
0.797615,22.1927,29.9698,33.9899,36.4538,38.1203,39.323,40.2321,40.9435,41.5154
0.796874,23.0489,31.3882,35.7146,38.3594,40.1421,41.4244,42.391,43.1454,43.7506
0.782191,22.4516,30.1707,34.0558,36.3894,37.9449,39.0557,39.8884,40.5358,41.0536
0.803747,23.5504,31.8325,36.088,38.6842,40.4351,41.6962,42.6482,43.3924,43.9901
0.816085,23.6596,31.671,35.7097,38.1422,39.7672,40.9293,41.8015,42.4801,43.0232
0.849655,25.8133,35.1523,40.0274,43.027,45.06,46.5293,47.6409,48.5114,49.2116
0.798553,24.8231,33.7323,38.298,41.0659,42.9209,44.25,45.2486,46.0263,46.6489
0.804642,24.773,33.2464,37.4999,40.0548,41.7592,42.9773,43.8913,44.6024,45.1716
0.866964,26.7833,35.9683,40.645,43.4858,45.3964,46.77,47.8054,48.6139,49.2628
0.795634,25.5426,34.7227,39.4903,42.4125,44.3871,45.8106,46.8853,47.7254,48.4002
0.797795,26.4491,36.0662,41.0288,44.0508,46.0825,47.5415,48.6398,49.4964,50.183
0.795203,27.0337,36.796,41.7857,44.8092,46.8367,48.2904,49.3838,50.236,50.9188
0.825883,28.6116,38.8573,44.0824,47.2505,49.377,50.9032,52.0521,52.9481,53.6665
0.878651,31.3015,42.602,48.3939,51.917,54.2865,55.9894,57.2723,58.2736,59.0768
0.864071,31.4089,42.6783,48.4329,51.9243,54.2679,55.9498,57.2155,58.2025,58.9936
0.807261,28.3054,37.6917,42.349,45.133,46.9848,48.3056,49.2952,50.0643,50.6793
0.785982,28.2879,38.2369,43.3992,46.5739,48.7269,50.284,51.463,52.3867,53.1302
0.861161,32.0374,43.6253,49.6357,53.3088,55.7833,57.5625,58.9029,59.9488,60.7875
0.793755,30.2421,41.1616,46.7637,50.1633,52.4441,54.0799,55.3103,56.2693,57.0378
0.854654,32.5596,43.9409,49.696,53.1669,55.4883,57.1503,58.399,59.3716,60.1505
0.797831,30.3553,40.8218,46.1291,49.3425,51.4985,53.0457,54.2103,55.1186,55.847
0.834839,32.564,44.1749,50.1799,53.8554,56.3379,58.1273,59.4784,60.5347,61.3831
0.824311,32.2301,43.5002,49.2403,52.7143,55.0413,56.7083,57.9611,58.9367,59.7181
0.834945,33.1006,44.79,50.7891,54.4414,56.8994,58.667,59.9993,61.0396,61.8744
0.819695,33.4675,45.5419,51.7697,55.5672,58.1242,59.9628,61.3485,62.4301,63.2979
0.836979,34.4985,46.7304,52.9604,56.7306,59.2566,61.0668,62.4275,63.4877,64.337
0.826409,34.3548,46.4576,52.6286,56.3724,58.8865,60.6916,62.0507,63.111,63.9614
0.863341,36.6564,49.7562,56.4887,60.5909,63.3527,65.3391,66.8363,68.0053,68.9433
0.830875,35.9874,48.8846,55.4957,59.5132,62.2122,64.1501,65.6088,66.7465,67.6586
0.825021,35.3787,47.5941,53.7617,57.4807,59.9678,61.748,63.0854,64.1268,64.9607
0.845139,36.8775,49.8777,56.5503,60.6178,63.3584,65.3309,66.8186,67.9809,68.914
0.818032,36.3832,49.359,56.0311,60.0941,62.8275,64.7918,66.2713,67.4258,68.3517
0.813322,37.0066,50.3185,57.1576,61.3175,64.1138,66.1223,67.6347,68.8146,69.7608
0.810666,32.2546,41.7316,46.2509,48.8957,50.6319,51.8591,52.7726,53.479,54.0417
0.812208,34.8473,47.4518,54.2832,58.61,61.6056,63.8054,65.4904,66.8229,67.9033
0.796612,35.903,49.3356,56.4002,60.7252,63.634,65.7199,67.287,68.5066,69.4822
0.813432,38.1045,52.3385,59.6678,64.1086,67.0829,69.2133,70.8144,72.0615,73.0605
0.819156,39.0058,53.1359,60.2876,64.5969,67.4775,69.5392,71.088,72.2943,73.2603
0.839085,40.8807,55.6921,63.2501,67.8408,70.9275,73.1461,74.8181,76.1234,77.1707
0.815453,40.4565,55.0243,62.4549,66.9644,69.9929,72.1671,73.8037,75.0801,76.1035
0.835862,41.9109,56.8418,64.4473,69.06,72.1566,74.3791,76.0519,77.3565,78.4024
0.866059,43.6128,58.9332,66.7166,71.4305,74.5921,76.8599,78.566,79.8961,80.9622
1.04604,53.0739,71.7095,81.2187,86.9934,90.8736,93.6605,95.7592,97.3966,98.7099
0.846694,43.4172,58.7302,66.5685,71.3338,74.5371,76.8383,78.5714,79.9236,81.008
0.847217,43.5183,58.7482,66.5225,71.2402,74.4076,76.6811,78.3922,79.7267,80.7965
0.824818,42.8833,58.041,65.8203,70.5556,73.7416,76.0317,77.7574,79.1043,80.185
0.841348,43.7439,59.051,66.8674,71.6099,74.7935,77.0782,78.7975,80.1383,81.2131
0.84396,43.8958,59.1749,66.9724,71.7041,74.8814,77.1622,78.8792,80.2184,81.2922
0.81654,43.5355,59.2042,67.327,72.2999,75.6582,78.0785,79.9058,81.3341,82.4814
0.803266,20.0257,22.7334,23.8045,24.3775,24.734,24.9772,25.1537,25.2876,25.3926
0.823326,26.3104,35.8574,42.0435,46.4812,49.841,52.4793,54.6083,56.3635,57.836
0.816119,33.3302,49.6493,59.8316,66.5635,71.2605,74.6895,77.287,79.315,80.9379
0.808441,38.2208,56.4398,66.2094,72.0336,75.8438,78.516,80.4895,82.0053,83.2055
