1.79922,1.84898,1.86618,1.8749,1.88018,1.88371,1.88624,1.88814,1.88962,1.89081
1.36607,1.87273,2.12691,2.27962,2.3815,2.4543,2.50891,2.5514,2.5854,2.61322
1.2071,2.12147,2.59045,2.86168,3.03574,3.15613,3.24408,3.31102,3.36363,3.40602
1.32952,2.91076,3.71634,4.16402,4.44344,4.63325,4.77023,4.87364,4.95441,5.01922
1.08694,2.87031,3.75025,4.22122,4.5096,4.7035,4.84263,4.94726,5.02879,5.0941
1.05484,3.31501,4.40803,4.98367,5.3348,5.57083,5.7403,5.86787,5.96736,6.04712
1.02534,3.71982,4.9667,5.60824,5.99585,6.25505,6.4405,6.57975,6.68815,6.77491
1.00778,4.16842,5.58907,6.31565,6.75506,7.04939,7.26031,7.41889,7.54246,7.64147
1.00688,4.63648,6.20388,6.99731,7.4754,7.79494,8.02357,8.19525,8.32892,8.43593
0.996138,5.13616,6.91624,7.82583,8.37773,8.74833,9.01439,9.21469,9.37094,9.49622
0.977503,5.54603,7.46509,8.43888,9.02693,9.4204,9.7021,9.91372,10.0785,10.2104
0.972904,6.01088,8.08175,9.12943,9.76165,10.1846,10.4875,10.7151,10.8924,11.0344
0.972275,6.49654,8.73279,9.86513,10.5492,11.0074,11.3356,11.5824,11.7747,11.9287
1.04472,7.46182,10.0045,11.2873,12.0608,12.578,12.9482,13.2263,13.4429,13.6163
0.945911,7.30922,9.85569,11.155,11.9436,12.4732,12.8535,13.1398,13.3631,13.5422
0.941733,7.74024,10.4108,11.7616,12.5764,13.1211,13.5109,13.8037,14.0315,14.2139
0.945558,8.27499,11.1401,12.5932,13.4717,14.0603,14.4822,14.7994,15.0467,15.2448
0.995045,9.19721,12.3685,13.9742,14.9442,15.5936,16.0588,16.4085,16.6809,16.8991
1.00278,9.86905,13.314,15.0662,16.1273,16.8388,17.3489,17.7327,18.0318,18.2715
0.997799,10.2389,13.7384,15.4991,16.5583,17.2655,17.7711,18.1506,18.4458,18.6821
0.946443,10.2612,13.8195,15.628,16.7237,17.4589,17.9865,18.3835,18.6931,18.9414
0.946908,10.6834,14.3463,16.1966,17.3128,18.0592,18.5935,18.9948,19.3072,19.5574
0.969866,11.3149,15.1512,17.0856,18.2519,19.0321,19.5907,20.0103,20.3372,20.5989
0.968801,11.8781,15.988,18.0827,19.3534,20.2065,20.8189,21.2799,21.6395,21.9278
0.933909,12.0268,16.2262,18.3636,19.6571,20.5239,21.145,21.6119,21.9756,22.267
0.934533,12.493,16.8143,18.9993,20.3171,21.1984,21.8291,22.3029,22.6718,22.9672
0.956627,13.276,17.8633,20.1862,21.5898,22.5299,23.2036,23.7101,24.1048,24.421
0.951029,13.7456,18.5168,20.9372,22.4008,23.3813,24.0841,24.6124,25.0241,25.354
0.984738,14.6671,19.701,22.2408,23.7717,24.7952,25.5276,26.0777,26.506,26.8488
0.965951,14.8569,19.9576,22.5384,24.0976,25.1418,25.8901,26.4526,26.891,27.2422
0.967745,15.373,20.6622,23.3424,24.9625,26.0477,26.8253,27.4099,27.8654,28.2303
0.972408,16.0715,21.6697,24.5184,26.2438,27.4008,28.2305,28.8546,29.341,29.7309
0.958713,16.1057,21.5671,24.3086,25.9557,27.0545,27.8396,28.4286,28.8867,29.2532
0.966686,16.7725,22.5398,25.469,27.2435,28.4343,29.2889,29.9322,30.4339,30.8362
0.959181,17.006,22.8054,25.736,27.5042,28.6869,29.5334,30.1693,30.6644,31.0608
0.950651,17.3134,23.2509,26.2635,28.086,29.3074,30.1831,30.8417,31.355,31.7663
0.929221,17.3406,23.2825,26.2926,28.1111,29.3286,30.2006,30.856,31.3665,31.7754
0.944929,18.1144,24.3586,27.5313,29.4517,30.739,31.6621,32.3564,32.8975,33.3312
0.948305,18.6937,25.1509,28.4263,30.4057,31.731,32.6804,33.3939,33.9497,34.3949
0.946966,19.0773,25.6215,28.9282,30.9227,32.2567,33.2117,33.9291,34.4877,34.9351
0.916818,18.9631,25.5093,28.8326,30.8437,32.1919,33.1587,33.8859,34.4527,34.907
0.949567,20.1837,27.1935,30.7587,32.9175,34.3649,35.4027,36.1833,36.7918,37.2793
0.936608,20.4341,27.5195,31.11,33.2785,34.7297,35.769,36.5498,37.158,37.645
0.936577,21.0569,28.4016,32.1309,34.3865,35.8979,36.9813,37.7959,38.4307,38.9394
0.935296,21.6927,29.2907,33.1477,35.4797,37.0417,38.161,39.0024,39.6579,40.1831
0.929669,21.9611,29.5453,33.3705,35.6757,37.2166,38.3192,39.1473,39.7921,40.3083
0.936964,22.7107,30.5932,34.5893,37.0062,38.6261,39.7875,40.661,41.3419,41.8875
0.924266,23.536,32.0013,36.3508,38.9991,40.7809,42.0616,43.0265,43.7796,44.3837
0.9401,24.0538,32.2979,36.414,38.8765,40.514,41.6812,42.5551,43.2338,43.7762
0.952589,24.4883,32.7429,36.8832,39.3762,41.0435,42.2374,43.1348,43.834,44.3942
0.931155,24.5927,33.0956,37.4331,40.0688,41.8408,43.1141,44.0732,44.8218,45.4222
0.935891,25.2028,33.9032,38.3151,40.9803,42.7638,44.0406,44.9997,45.7464,46.3443
0.939788,25.7488,34.6175,39.1082,41.8201,43.6354,44.9356,45.9128,46.674,47.2837
0.930412,25.7243,34.4745,38.8847,41.5422,43.3186,44.5899,45.5446,46.288,46.8832
0.934437,26.3805,35.4645,40.0803,42.8759,44.7511,46.0964,47.1086,47.8978,48.5305
0.941272,27.2875,36.8084,41.66,44.5997,46.5714,47.9853,49.0488,49.8777,50.542
0.924195,27.2914,36.7568,41.5488,44.4405,46.3746,47.7591,48.799,49.6087,50.257
0.937759,28.0648,37.7083,42.5746,45.5085,47.4705,48.8749,49.93,50.7516,51.4096
0.936289,28.3087,37.9758,42.8575,45.8041,47.7762,49.1889,50.2507,51.0779,51.7406
0.928733,28.0503,37.4576,42.1862,45.033,46.9353,48.2962,49.3181,50.1137,50.7506
0.932818,28.7513,38.6249,43.6613,46.7197,48.7748,50.251,51.3628,52.2303,52.9261
0.940674,29.6425,39.9238,45.1588,48.3277,50.4511,51.9726,53.1163,54.0073,54.721
0.918904,29.6391,39.9875,45.251,48.4352,50.5684,52.0971,53.2464,54.1419,54.8593
0.938721,30.5267,40.9984,46.275,49.4519,51.574,53.0918,54.2313,55.1183,55.8282
0.925222,30.7897,41.4938,46.9353,50.2314,52.4427,54.0293,55.2233,56.1544,56.9008
0.919828,30.7656,41.2714,46.565,49.7535,51.8839,53.4079,54.552,55.4425,56.1553
0.929741,31.6623,42.6003,48.1604,51.529,53.7892,55.4111,56.6316,57.5834,58.3465
0.935999,32.3022,43.4215,49.0506,52.4493,54.7234,56.3516,57.5749,58.5275,59.2903
0.932807,33.1921,44.8903,50.8702,54.5013,56.9404,58.6917,60.0102,61.0388,61.8636
0.915203,33.8558,46.0241,52.2512,56.029,58.5639,60.3821,61.7499,62.816,63.6704
0.924464,34.0338,45.6684,51.4728,54.9459,57.2564,58.9042,60.1386,61.0978,61.8646
0.930995,34.5933,46.4407,52.4287,56.0506,58.4799,60.2231,61.5353,62.5589,63.3797
0.926535,34.9956,47.0907,53.2371,56.9604,59.4577,61.2488,62.5962,63.6464,64.4881
0.92144,35.4393,47.7404,53.985,57.7608,60.2896,62.1013,63.463,64.5237,65.3734
0.905412,35.9926,48.7921,55.3443,59.3246,61.9986,63.9186,65.3642,66.4919,67.3961
0.907281,35.9205,48.183,54.3223,58.0032,60.4549,62.2046,63.516,64.5354,65.3505
0.915181,36.8653,49.6134,56.0834,60.0027,62.6331,64.5213,65.9429,67.0519,67.9412
0.921785,37.3907,50.2073,56.6828,60.5902,63.2042,65.0754,66.4811,67.5756,68.452
0.919253,37.6201,50.5115,57.038,60.982,63.6235,65.5164,66.9395,68.0484,68.9368
0.931779,38.4267,51.5784,58.2386,62.2632,64.9583,66.8893,68.3408,69.4717,70.3776
0.901879,23.5992,28.0319,29.9097,30.9475,31.6058,32.0607,32.3938,32.6482,32.8489
0.920513,29.9247,41.148,48.0203,52.7587,56.2441,58.9219,61.0459,62.7728,64.205
0.911573,34.0474,48.3776,56.4117,61.4202,64.7949,67.205,69.0041,70.3945,71.4992
0.923722,37.0631,51.9115,59.496,63.9934,66.9513,69.0411,70.5955,71.7969,72.7534
0.90988,39.1248,54.4781,62.209,66.836,69.9191,72.1233,73.7787,75.0683,76.1015
0.936622,41.7571,57.3358,65.0636,69.6811,72.7556,74.9512,76.598,77.879,78.904
0.920652,41.244,55.7294,62.862,67.1228,69.9598,71.9856,73.5049,74.6867,75.6323
0.923886,41.8986,56.4535,63.7441,68.146,71.0964,73.2126,74.8049,76.0465,77.0419
0.916576,41.5619,55.7268,62.8339,67.1188,69.9851,72.0372,73.5789,74.7794,75.7408
0.911526,41.9988,56.5499,63.9553,68.4511,71.4714,73.6405,75.2739,76.5481,77.57
0.928405,44.1685,59.8795,67.9316,72.8264,76.1151,78.4763,80.2536,81.6397,82.7509
0.923252,43.6706,58.566,66.0174,70.4815,73.4529,75.5725,77.1604,78.3944,79.3808
0.920655,43.8974,58.9288,66.5308,71.1275,74.2092,76.4199,78.0834,79.3807,80.4208
0.921397,45.37,61.4506,69.7025,74.7265,78.1068,80.5366,82.3672,83.796,84.9421
0.913083,44.9313,60.3617,68.1156,72.7723,75.8764,78.0926,79.754,81.0456,82.0785
0.921507,45.1721,60.4454,68.1237,72.7487,75.8412,78.0554,79.7191,81.015,82.0531
0.935224,46.5461,62.5937,70.7654,75.7233,79.0531,81.4438,83.2438,84.648,85.7739
0.911985,46.6721,63.1728,71.6268,76.7637,80.2144,82.6916,84.5562,86.0102,87.1759
0.918005,47.2905,63.6731,71.9345,76.905,80.2224,82.5931,84.3717,85.7552,86.8621
0.908881,47.1363,63.3729,71.5763,76.5283,79.8436,82.219,84.0049,85.3966,86.5116
