1.88508,1.95415,1.97831,1.99062,1.99808,2.00308,2.00667,2.00937,2.01148,2.01316
1.32855,1.82324,2.06904,2.21589,2.31353,2.38312,2.43524,2.47573,2.5081,2.53456
1.14028,2.02699,2.48956,2.76003,2.9349,3.0565,3.14569,3.21379,3.26744,3.31076
1.25259,2.78985,3.58844,4.03599,4.31645,4.50737,4.64533,4.74955,4.831,4.89638
1.00652,2.70633,3.55937,4.01886,4.30108,4.4912,4.6278,4.73062,4.81081,4.87508
1.07185,3.41104,4.54774,5.14623,5.51113,5.75635,5.93238,6.06486,6.16817,6.25099
1.46153,4.8932,6.29513,6.97719,7.37753,7.64055,7.82652,7.96497,8.07205,8.15733
0.960653,3.74342,4.98325,5.63843,6.04544,6.32353,6.52582,6.67968,6.80068,6.89835
1.03619,4.76178,6.51251,7.44854,8.0282,8.42158,8.70571,8.9204,9.08826,9.22306
1.21565,6.37836,8.74603,9.97239,10.7157,11.2131,11.569,11.836,12.0437,12.2099
1.21326,6.7309,8.99297,10.1085,10.7702,11.2081,11.5193,11.752,11.9325,12.0766
0.954288,5.98914,8.16804,9.30191,9.99992,10.4738,10.8169,11.0769,11.2808,11.4449
0.934755,6.29079,8.4857,9.59159,10.2561,10.699,11.015,11.2518,11.4357,11.5826
0.92719,6.90513,9.41994,10.7184,11.5119,12.0475,12.4334,12.7247,12.9525,13.1355
0.890975,6.9243,9.28797,10.4665,11.1712,11.6397,11.9736,12.2235,12.4176,12.5727
0.88977,7.54354,10.2551,11.6571,12.5164,13.0976,13.5172,13.8345,14.0828,14.2826
0.910046,7.28591,9.44449,10.4727,11.0731,11.4664,11.7438,11.95,12.1091,12.2357
0.8689,7.81331,10.6113,12.1122,13.0569,13.7081,14.185,14.5494,14.8371,15.0701
0.869265,8.60782,11.8262,13.5153,14.549,15.2444,15.7432,16.1181,16.41,16.6435
1.04362,10.2978,13.6951,15.3577,16.3381,16.9837,17.4408,17.7814,18.0449,18.255
0.97618,10.664,14.5989,16.6685,17.9511,18.826,19.4616,19.9445,20.3241,20.6303
0.897531,10.4972,14.3506,16.3248,17.5198,18.3193,18.8911,19.3202,19.6538,19.9206
0.965801,11.8931,16.1954,18.384,19.7078,20.5948,21.2308,21.7091,22.0819,22.3808
0.929118,11.0911,14.6176,16.3268,17.3356,18.0015,18.4739,18.8264,19.0996,19.3176
0.945475,11.9982,16.1639,18.3258,19.6589,20.5653,21.2222,21.7205,22.1115,22.4266
0.857202,11.7146,15.9969,18.23,19.5983,20.5212,21.1852,21.6856,22.076,22.3892
0.892846,12.9267,17.6753,20.1195,21.6038,22.5996,23.3137,23.8507,24.2692,24.6045
0.880171,11.8983,15.5442,17.2845,18.3013,18.9679,19.4386,19.7887,20.0593,20.2747
0.948963,14.0836,19.1835,21.9018,23.6061,24.7783,25.6352,26.2893,26.8053,27.2228
0.92835,14.6419,20.013,22.7936,24.4842,25.6171,26.4279,27.0363,27.5093,27.8875
0.909166,13.6148,17.8929,19.9544,21.1627,21.956,22.5166,22.9339,23.2565,23.5134
0.914212,14.8186,20.135,22.9371,24.68,25.8721,26.74,27.4006,27.9205,28.3403
0.865795,14.9521,20.4597,23.317,25.0587,26.2287,27.0678,27.6984,28.1894,28.5825
0.894033,15.5279,20.8656,23.5248,25.1112,26.1641,26.9136,27.4743,27.9095,28.2572
0.909783,16.7839,22.8608,25.9963,27.9145,29.2106,30.1457,30.8525,31.4055,31.8501
0.844985,16.5131,22.5958,25.7234,27.6251,28.9025,29.8193,30.509,31.0466,31.4775
0.940107,18.992,25.823,29.2806,31.3652,32.7586,33.7556,34.5042,35.0869,35.5535
0.943072,19.4523,26.2681,29.6978,31.764,33.1456,34.1347,34.8779,35.4567,35.9203
0.871441,18.3664,24.761,27.9994,29.9596,31.2746,32.2181,32.9282,33.4819,33.9258
0.958894,19.4429,25.9125,29.2023,31.2035,32.551,33.5208,34.2523,34.8237,35.2826
0.920853,19.4087,26.1926,29.7052,31.8547,33.3051,34.3495,35.1373,35.7527,36.2467
0.89202,19.5254,26.4714,30.0452,32.2172,33.6752,34.7211,35.5077,36.1208,36.6121
0.882426,18.6252,24.654,27.6254,29.391,30.5605,31.3921,32.0138,32.4961,32.8812
0.930342,19.5429,25.9428,29.1879,31.1585,32.4845,33.4385,34.1581,34.7204,35.1719
0.903264,20.4864,28.0218,32.0269,34.5147,36.2101,37.4394,38.3715,39.1024,39.691
0.907211,21.9739,30.2759,34.599,37.233,39.0014,40.2692,41.2219,41.9638,42.5577
0.92051,23.1795,31.7112,36.0397,38.6445,40.3826,41.6246,42.5564,43.2813,43.8614
0.883756,22.5548,30.5082,34.4906,36.8816,38.4773,39.6183,40.475,41.1419,41.6759
0.870211,22.774,30.8215,34.9073,37.3859,39.0515,40.2483,41.15,41.8538,42.4184
0.922581,24.9667,33.8799,38.4301,41.1933,43.0494,44.382,45.385,46.1673,46.7945
0.861163,23.5158,31.6823,35.8001,38.2817,39.9402,41.1269,42.0178,42.7114,43.2666
0.910544,25.7807,34.9817,39.7023,42.5783,44.5151,45.9085,46.9591,47.7797,48.4383
0.89776,25.9538,35.1257,39.7883,42.6084,44.4972,45.8502,46.867,47.6589,48.2932
0.920176,27.1128,36.6391,41.477,44.4044,46.3665,47.7734,48.8315,49.6563,50.3173
0.895807,26.0644,34.8392,39.2363,41.8795,43.644,44.9058,45.8529,46.59,47.18
0.894148,27.1158,36.7758,41.778,44.8442,46.9176,48.4137,49.5442,50.4287,51.1396
1.03041,31.8727,43.1182,48.8457,52.3087,54.6259,56.2844,57.5297,58.499,59.2747
1.02879,31.4864,42.1105,47.4272,50.617,52.7435,54.2626,55.402,56.2884,56.9977
0.892855,28.6532,38.9665,44.3227,47.6111,49.8375,51.4454,52.6613,53.6132,54.3786
0.882493,27.6302,36.8359,41.4073,44.1327,45.9402,47.2258,48.1868,48.9321,49.527
0.894642,28.6076,38.5033,43.5784,46.6752,48.7646,50.2704,51.4075,52.2968,53.0115
0.891395,29.5257,40.1053,45.5801,48.9254,51.1803,52.8027,54.0257,54.9806,55.7467
0.922861,31.0719,42.0326,47.603,50.9656,53.2139,54.8223,56.0299,56.9696,57.7218
0.8945,30.8071,41.6977,47.2407,50.5972,52.8482,54.4628,55.6776,56.6249,57.3842
0.922485,29.73,39.04,43.5665,46.242,48.0094,49.2638,50.2003,50.9262,51.5053
0.914984,31.5747,42.9874,49.0429,52.8207,55.4083,57.2932,58.7283,59.8576,60.7696
0.883239,31.4241,42.7584,48.5845,52.1139,54.4747,56.1624,57.4279,58.4115,59.1978
0.894481,30.2341,40.0063,44.795,47.6312,49.5062,50.8378,51.8325,52.6039,53.2196
0.897556,32.2562,43.9305,50.0686,53.873,56.4671,58.351,59.7819,60.9059,61.8124
0.907311,33.8476,46.1955,52.5551,56.4164,59.0045,60.8581,62.2501,63.3334,64.2003
0.899958,34.5632,47.0762,53.4487,57.3001,59.8779,61.7242,63.1116,64.1924,65.058
0.907028,35.3136,47.8075,54.1145,57.9164,60.459,62.2793,63.6469,64.7122,65.5654
0.912897,36.3524,49.2649,55.8341,59.8175,62.4922,64.4125,65.8584,66.9864,67.891
0.901524,36.407,49.2069,55.695,59.6178,62.2456,64.1287,65.5443,66.6472,67.5308
0.863537,35.6628,48.3347,54.8103,58.745,61.3897,63.2897,64.7208,65.8375,66.7331
0.891145,37.0988,50.0887,56.679,60.6637,63.3327,65.245,66.6825,67.8023,68.6994
0.89483,37.7004,50.8856,57.5917,61.6549,64.381,66.3369,67.8087,68.9563,69.8763
0.905165,38.9457,52.7224,59.7654,64.0432,66.9171,68.9807,70.5344,71.7465,72.7183
0.921247,39.8799,53.7557,60.7822,65.0244,67.8627,69.895,71.4217,72.6107,73.5628
0.941732,41.1607,55.4894,62.7779,67.1952,70.1596,72.2871,73.8884,75.1373,76.1387
0.915694,40.4346,54.5242,61.6998,66.0495,68.9681,71.062,72.6376,73.866,74.8506
0.922501,41.6038,56.323,63.863,68.4466,71.5274,73.7403,75.4068,76.707,77.7498
0.900884,39.8066,53.2093,59.9222,63.9507,66.6361,68.5539,69.9919,71.1102,72.0047
0.880894,39.7846,53.6907,60.8368,65.198,68.1391,70.2574,71.8563,73.1059,74.1096
0.91575,42.1514,57.0212,64.6334,69.2539,72.3546,74.5788,76.2517,77.5555,78.6001
0.919057,42.6091,57.4657,65.0067,69.5632,72.6133,74.798,76.4397,77.7186,78.7429
0.906488,42.7674,57.8372,65.5361,70.2107,73.3512,75.6066,77.305,78.6302,79.693
0.899212,43.3467,58.7484,66.6206,71.3976,74.6044,76.9056,78.6373,79.9875,81.0698
0.889467,42.6679,57.3371,64.7177,69.1576,72.1218,74.2411,75.8315,77.0691,78.0596
0.919265,45.3196,61.4052,69.6648,74.6999,78.0924,80.5341,82.3758,83.8147,84.9699
0.880948,43.5912,58.7704,66.4607,71.1032,74.2085,76.431,78.1001,79.3995,80.4397
0.906675,45.5542,61.5597,69.7264,74.6831,78.0124,80.4031,82.2034,83.6079,84.7343
0.892945,45.338,61.2224,69.3072,74.2037,77.4869,79.8413,81.612,82.9921,84.098
0.90285,45.8565,61.6808,69.6897,74.5265,77.7643,80.0837,81.8268,83.1848,84.2725
0.908544,47.0284,63.5809,72.0569,77.2126,80.6804,83.173,85.0511,86.5171,87.6932
0.875108,45.9603,62.1574,70.4197,75.427,78.785,81.1929,83.0038,84.4152,85.546
0.87867,46.5922,62.9208,71.2221,76.2456,79.6123,82.0259,83.8409,85.2554,86.3889
0.881255,46.5361,62.5216,70.5977,75.4715,78.733,81.0688,82.8242,84.1916,85.2868
0.90386,48.4722,65.4352,74.1132,79.3907,82.9404,85.4918,87.4143,88.915,90.119
0.894344,46.1226,61.2557,68.7923,73.3035,76.3059,78.4476,80.0523,81.2993,82.2962
