1.70536,1.77875,1.80463,1.81786,1.82589,1.83128,1.83515,1.83807,1.84034,1.84216
1.27036,1.77428,2.02953,2.18357,2.28661,2.36038,2.41579,2.45895,2.4935,2.52179
1.94835,3.42959,4.17742,4.60548,4.87836,5.06625,5.20304,5.3069,5.38835,5.4539
1.37461,3.02264,3.88445,4.37577,4.68841,4.90387,5.06109,5.1808,5.27495,5.35093
1.00801,2.73781,3.63606,4.12949,4.43549,4.64265,4.79188,4.90439,4.99219,5.06261
1.29715,4.16717,5.58641,6.33606,6.79277,7.09926,7.31901,7.48423,7.61296,7.71608
0.946176,3.54116,4.77903,5.42236,5.81321,6.07558,6.26386,6.40556,6.51606,6.60465
1.01352,4.36245,5.92402,6.7333,7.22626,7.55799,7.79647,7.97619,8.11648,8.22904
1.06923,5.0424,6.76201,7.62782,8.14768,8.49429,8.74186,8.92753,9.07192,9.18742
0.925389,4.93638,6.70786,7.62649,8.18947,8.57019,8.84495,9.05263,9.21514,9.34578
1.11342,6.04448,7.94299,8.86975,9.41778,9.77957,10.0362,10.2276,10.3758,10.494
0.9785,6.033,8.19688,9.34415,10.0593,10.5488,10.9053,11.1766,11.3901,11.5625
1.20164,8.19446,11.1899,12.7465,13.6956,14.3334,14.7907,15.1345,15.4023,15.6166
0.900836,6.56757,8.89147,10.0705,10.7811,11.2558,11.5954,11.8502,12.0486,12.2074
0.922106,7.24913,9.83482,11.1582,11.9627,12.5038,12.8928,13.186,13.4149,13.5986
0.907969,7.68498,10.4437,11.8572,12.7163,13.2937,13.7084,14.0207,14.2643,14.4596
0.877128,7.93475,10.7842,12.243,13.1294,13.7249,14.1526,14.4746,14.7258,14.9272
0.889444,8.53315,11.5837,13.1433,14.0904,14.7266,15.1834,15.5274,15.7957,16.0108
0.932138,9.5154,12.9356,14.6882,15.7539,16.4702,16.9849,17.3725,17.6749,17.9175
0.904003,9.40715,12.596,14.19,15.1458,15.7827,16.2374,16.5783,16.8434,17.0554
0.896104,9.81819,13.2553,15.0243,16.106,16.8368,17.3638,17.762,18.0735,18.3239
0.948641,10.8732,14.6898,16.6453,17.8334,18.6314,19.2041,19.6349,19.9709,20.2401
0.968144,10.9978,14.5803,16.3609,17.4254,18.1333,18.638,19.0161,19.3099,19.5448
0.97235,11.6348,15.6655,17.7556,19.0394,19.9091,20.5377,21.0134,21.386,21.6857
0.886497,10.6066,14.0906,15.8389,16.8879,17.5865,18.0848,18.4581,18.748,18.9797
0.965391,11.526,15.2412,17.1148,18.2465,19.0048,19.5486,19.9577,20.2766,20.5323
0.96318,12.9475,17.8715,20.5378,22.2122,23.3617,24.1999,24.8381,25.3402,25.7456
0.889233,12.9651,17.9509,20.5499,22.1303,23.1891,23.9466,24.5148,24.9567,25.31
0.962718,14.7237,20.1673,22.9216,24.5763,25.6797,26.4679,27.0591,27.5191,27.8871
0.911085,14.5128,19.7509,22.3929,23.9864,25.053,25.8175,26.3924,26.8406,27.1998
0.903499,14.9282,20.262,22.9673,24.6066,25.7071,26.4972,27.092,27.5561,27.9282
0.91954,15.8004,21.4534,24.3366,26.0878,27.2645,28.1096,28.7461,29.2426,29.6408
0.85754,14.605,19.5137,21.9638,23.4339,24.4139,25.114,25.6391,26.0475,26.3743
0.891768,15.361,20.5476,23.1843,24.7863,25.8639,26.6388,27.2229,27.679,28.0451
0.864329,15.9759,21.8422,24.93,26.8373,28.1324,29.0691,29.7781,30.3333,30.7799
0.907637,16.8855,22.7481,25.7039,27.4777,28.6582,29.4999,30.13,30.6193,31.0102
0.914008,17.931,24.4354,27.8006,29.8594,31.2499,32.2526,33.01,33.6025,34.0788
0.918329,18.6264,25.3139,28.7268,30.7932,32.1778,33.1699,33.9155,34.4962,34.9613
0.941644,19.0689,25.584,28.8498,30.8117,32.1209,33.0569,33.7593,34.3059,34.7435
0.927645,19.8867,27.1259,30.8945,33.2119,34.7826,35.9178,36.7767,37.4494,37.9905
0.901746,20.0804,27.3707,31.1089,33.3769,34.8977,35.9876,36.8067,37.4447,37.9556
0.907215,20.8774,28.3989,32.2316,34.5521,36.1075,37.2228,38.0616,38.7154,39.2393
0.934941,21.8425,29.5309,33.4242,35.7771,37.3533,38.4831,39.3327,39.9948,40.5254
0.896287,20.3443,27.0208,30.3347,32.3183,33.6393,34.5824,35.2896,35.8395,36.2794
0.906796,21.3287,28.7984,32.6775,35.0639,36.6824,37.8528,38.7388,39.433,39.9916
0.884304,21.4723,29.1319,33.0895,35.5024,37.1255,38.2912,39.1687,39.853,40.4014
0.896652,22.3811,30.3548,34.4346,36.9072,38.5648,39.7532,40.6467,41.343,41.9009
0.929211,23.8636,32.3887,36.7487,39.3946,41.1713,42.4467,43.4068,44.1557,44.7562
0.902097,23.846,32.4058,36.7919,39.458,41.2501,42.5376,43.5073,44.264,44.8708
0.923823,24.9451,33.8177,38.3395,41.0795,42.9173,44.2354,45.227,46,46.6194
0.904055,14.8219,17.4698,18.5717,19.1758,19.5573,19.8202,20.0123,20.1588,20.2743
0.865232,17.8478,24.5509,28.7088,31.6041,33.7495,35.4071,36.7276,37.8052,38.7014
0.903797,21.3934,30.3656,35.42,38.578,40.7076,42.2288,43.3642,44.2415,44.9383
0.900619,24.2561,34.7941,40.4132,43.8252,46.103,47.7287,48.947,49.894,50.6513
0.8599,24.9934,35.2325,40.3965,43.4708,45.5084,46.9585,48.0435,48.8862,49.5595
0.919813,27.7036,38.2329,43.4351,46.5368,48.6009,50.0751,51.1812,52.0421,52.7313
0.885592,26.7012,36.1235,40.7575,43.5292,45.3776,46.6992,47.6915,48.464,49.0826
0.874546,27.1476,36.8627,41.8021,44.8136,46.8452,48.309,49.4142,50.2781,50.9722
0.910221,26.7927,35.4124,39.6375,42.1515,43.8187,45.0049,45.892,46.5802,47.1297
0.866708,25.5662,34.0883,38.4426,41.1021,42.898,44.1932,45.1718,45.9375,46.5529
0.905334,28.8113,39.5893,45.339,48.9159,51.3546,53.1232,54.4642,55.5157,56.3623
0.882883,29.351,40.2979,45.9467,49.3703,51.6611,53.2994,54.5285,55.4845,56.249
0.893322,29.4735,39.7095,44.8064,47.8486,49.8696,51.3099,52.3884,53.2264,53.8962
0.847796,29.1075,39.6571,45.1002,48.4332,50.6874,52.315,53.5457,54.5092,55.284
0.868644,30.4153,41.3059,46.8589,50.2232,52.4783,54.0946,55.3095,56.2559,57.0138
0.878457,31.3282,42.4876,48.176,51.6255,53.9407,55.6024,56.853,57.8284,58.6104
0.883573,31.9153,43.1712,48.8953,52.3625,54.6881,56.3562,57.6111,58.5895,59.3737
0.874358,32.3088,43.8197,49.714,53.2988,55.7096,57.4421,58.7472,59.7659,60.583
0.888095,32.1206,42.916,48.3067,51.5376,53.6896,55.2255,56.3768,57.2717,57.9874
0.881463,33.2496,45.2072,51.4331,55.2636,57.861,59.739,61.1606,62.2742,63.1702
0.879903,33.8232,45.9251,52.1296,55.8944,58.4192,60.2288,61.589,62.6485,63.4969
0.885577,34.8085,47.3142,53.7255,57.6213,60.2391,62.1192,63.535,64.6397,65.5257
0.865446,34.8799,47.4433,53.8721,57.7747,60.3952,62.2762,63.692,64.7961,65.6813
0.887774,33.2694,43.7801,48.8949,51.9194,53.9176,55.336,56.3952,57.2161,57.8712
0.893809,34.7465,46.9571,53.3705,57.3515,60.0698,62.046,63.5483,64.7292,65.682
1.25566,48.8564,65.7739,74.4278,79.6692,83.1774,85.6876,87.5714,89.0367,90.2088
0.878966,33.0255,43.8484,49.2617,52.5074,54.6699,56.2141,57.3721,58.2727,58.9933
0.852902,34.1089,46.5961,53.2008,57.2972,60.0889,62.1145,63.6515,64.858,65.8302
0.873471,34.883,47.0676,53.2305,56.932,59.396,61.1524,62.467,63.4875,64.3026
0.897468,37.4187,51.1458,58.2813,62.6566,65.6159,67.752,69.3669,70.6308,71.6471
0.89198,38.7269,53.1089,60.5292,65.0458,68.0815,70.2611,71.9016,73.1808,74.2061
0.872396,38.6105,52.5839,59.6681,63.9414,66.7986,68.8433,70.3789,71.5745,72.5317
0.902064,39.1094,52.3983,59.0091,62.9681,65.6058,67.4897,68.9027,70.0018,70.8813
0.855588,36.7311,49.1458,55.4309,59.2432,61.8057,63.6475,65.0355,66.1192,66.9889
0.894885,40.4042,55.1929,62.9616,67.7594,71.0176,73.3747,75.159,76.5567,77.681
0.880411,40.373,54.8738,62.2845,66.7661,69.7634,71.9073,73.5163,74.768,75.7693
0.870566,38.949,52.0936,58.6497,62.575,65.1888,67.0546,68.4534,69.5413,70.4115
0.860146,40.414,55.1787,62.9048,67.6727,70.9124,73.2585,75.0365,76.4306,77.5531
0.871967,42.1046,57.493,65.4139,70.2275,73.4578,75.774,77.5153,78.8716,79.9579
0.882766,40.281,53.419,59.8658,63.6901,66.2211,68.02,69.3643,70.407,71.2395
0.897537,42.9323,58.3858,66.4894,71.5068,74.9261,77.4081,79.2927,80.7727,81.966
0.863592,42.3666,57.7323,65.6659,70.4958,73.7399,76.067,77.8169,79.1801,80.2718
0.931224,45.9385,62.1533,70.3692,75.3226,78.6329,81.001,82.779,84.163,85.271
0.85965,43.6304,59.379,67.4745,72.4085,75.7323,78.1242,79.9283,81.3377,82.4692
0.901581,46.5024,63.1939,71.7259,76.9033,80.3786,82.8724,84.7488,86.2118,87.3844
0.864405,45.5363,61.9328,70.3231,75.4196,78.8437,81.3026,83.154,84.5984,85.7566
0.831732,18.3871,20.5649,21.4041,21.8486,22.1238,22.311,22.4465,22.5492,22.6297
0.842449,26.7652,37.7964,45.5637,51.4719,56.146,59.9447,63.0963,65.7545,68.0275
0.837636,34.0267,51.5171,62.4422,69.571,74.4626,77.9748,80.5947,82.6117,84.2057
0.829686,38.9467,57.8043,67.7648,73.6253,77.4275,80.0809,82.0349,83.5335,84.7194
