1.86583,1.89818,1.90921,1.91478,1.91814,1.92038,1.92198,1.92319,1.92413,1.92488
1.38386,1.86597,2.10512,2.24798,2.34295,2.41065,2.46136,2.50075,2.53224,2.55799
1.24946,2.18748,2.6735,2.95669,3.13937,3.26621,3.35912,3.42999,3.48577,3.5308
1.86584,4.0679,5.18679,5.80594,6.19087,6.4515,6.63912,6.78044,6.89064,6.97893
1.1232,2.96874,3.88006,4.36694,4.66462,4.8646,5.008,5.11581,5.19979,5.26705
1.47138,4.57603,6.04469,6.80734,7.26867,7.57713,7.79777,7.9634,8.09231,8.19548
1.06858,3.85391,5.13373,5.79172,6.18966,6.45608,6.64691,6.79033,6.90206,6.99155
1.06163,4.34996,5.80865,6.55029,6.99726,7.29592,7.50955,7.66995,7.79479,7.89472
1.04794,4.76348,6.34368,7.13913,7.6171,7.93603,8.16398,8.33503,8.46812,8.57462
1.03442,5.23398,7.00542,7.90493,8.44903,8.81372,9.07521,9.27189,9.42521,9.54808
1.43783,7.93926,10.6022,11.9427,12.749,13.2872,13.6718,13.9604,14.1849,14.3646
1.22417,7.47632,10.0616,11.3794,12.1782,12.7143,13.099,13.3885,13.6143,13.7953
1.27176,8.45843,11.3803,12.8574,13.7473,14.3418,14.7669,15.086,15.3342,15.5329
1.20569,8.65811,11.6356,13.1353,14.0379,14.6408,15.072,15.3957,15.6477,15.8494
1.00689,7.7384,10.3825,11.7123,12.5127,13.0475,13.4301,13.7174,13.941,14.12
0.99331,8.11009,10.8646,12.2501,13.0846,13.6423,14.0414,14.3411,14.5745,14.7614
1.26541,10.9112,14.597,16.4513,17.5683,18.3149,18.8491,19.2503,19.5627,19.8128
0.987722,9.05957,12.1597,13.7299,14.6789,15.3146,15.7702,16.1127,16.3795,16.5933
1.20544,11.4897,15.3227,17.2394,18.3887,19.1545,19.7012,20.111,20.4297,20.6845
0.978118,9.78958,13.0886,14.7551,15.7618,16.436,16.9193,17.2827,17.566,17.7929
1.09469,11.3751,15.1695,17.0761,18.223,18.9887,19.5362,19.947,20.2666,20.5224
1.09038,11.9761,16.075,18.1602,19.4235,20.2711,20.8792,21.3367,21.6935,21.9795
0.974851,11.2896,15.1851,17.1596,18.3514,19.1485,19.7189,20.1473,20.4808,20.7478
1.13701,13.8207,18.5904,20.9992,22.4507,23.4209,24.1149,24.6361,25.0418,25.3666
1.10077,14.026,18.868,21.3106,22.7824,23.7662,24.4702,24.9989,25.4105,25.7401
0.96705,12.9166,17.388,19.6452,21.0062,21.9164,22.5679,23.0573,23.4384,23.7436
1.03741,14.2951,19.1531,21.5873,23.0492,24.0244,24.7213,25.2441,25.6509,25.9763
0.969226,13.9249,18.703,21.1169,22.5748,23.551,24.2505,24.7765,25.1863,25.5146
1.01674,15.1372,20.313,22.9205,24.491,25.5405,26.2911,26.8547,27.2934,27.6445
1.07557,16.5984,22.2785,25.1424,26.8687,28.0228,28.8488,29.4693,29.9524,30.3393
1.03434,16.5096,22.1584,25.0072,26.7247,27.873,28.6949,29.3123,29.793,30.178
1.05915,17.2122,22.975,25.8572,27.5867,28.7398,29.5634,30.1812,30.6617,31.0461
1.06695,17.9444,24.0538,27.1471,29.018,30.272,31.1713,31.8478,32.3752,32.7979
1.05162,18.3265,24.6201,27.8069,29.7312,31.0187,31.9406,32.6331,33.1723,33.6041
1.02708,18.404,24.6852,27.8485,29.7524,31.0239,31.9331,32.6155,33.1466,33.5717
1.08972,20.0954,26.9518,30.407,32.4888,33.8805,34.8764,35.6245,36.207,36.6734
1.03982,19.7272,26.4618,29.8573,31.9037,33.2719,34.2512,34.9866,35.5593,36.0178
1.05131,20.46,27.4252,30.9329,33.0456,34.4575,35.4676,36.2261,36.8166,37.2894
0.997667,19.9213,26.7052,30.1246,32.1855,33.5633,34.5494,35.2901,35.8668,36.3286
1.03125,21.0751,28.2353,31.8419,34.0146,35.4668,36.5058,37.2861,37.8935,38.3799
0.988762,20.6056,27.5714,31.076,33.1862,34.5961,35.6048,36.3622,36.9518,37.4238
1.0604,22.6156,30.2879,34.1583,36.4925,38.0537,39.1714,40.011,40.665,41.1887
1.01,22.0305,29.5134,33.2879,35.5632,37.0844,38.173,38.9907,39.6273,40.137
1.00618,22.6205,30.3947,34.3318,36.7099,38.3019,39.4422,40.2993,40.9669,41.5017
1.03205,23.7559,31.8885,35.9876,38.4558,40.1046,41.2838,42.169,42.8579,43.4094
1.00336,23.6445,31.7299,35.8038,38.258,39.8983,41.072,41.9535,42.6398,43.1893
1.02216,24.4968,32.8052,36.9812,39.4942,41.1727,42.3733,43.2746,43.9761,44.5377
1.04168,25.4822,34.1474,38.5174,41.1528,42.9158,44.178,45.1264,45.865,46.4566
1.01459,25.1272,33.5822,37.8276,40.3807,42.085,43.3035,44.218,44.9295,45.499
1.0101,25.6838,34.4696,38.9216,41.6136,43.4174,44.7105,45.6829,46.4408,47.048
1.03676,26.9162,36.1263,40.7792,43.5851,45.461,46.8034,47.8115,48.5963,49.2246
1.01886,27.0061,36.2389,40.895,43.7002,45.5751,46.9165,47.9238,48.708,49.3359
1.0379,27.6408,36.8834,41.5044,44.2765,46.1244,47.4443,48.4341,49.204,49.82
1.02499,28.1614,37.8587,42.7915,45.7824,47.7905,49.2321,50.3174,51.164,51.8429
1.01991,28.6081,38.424,43.3779,46.3617,48.3546,49.7795,50.8488,51.6808,52.3465
1.02127,29.2732,39.3228,44.3922,47.4471,49.4893,50.9507,52.0483,52.9029,53.5872
1.03579,30.0197,40.1871,45.2889,48.3555,50.4022,51.8654,52.9634,53.8178,54.5016
0.993825,29.0366,38.7775,43.6635,46.602,48.5645,49.9681,51.0218,51.8421,52.4987
1.00529,30.0093,40.2455,45.433,48.571,50.6743,52.1824,53.3166,54.2007,54.9092
1.01416,30.64,41.0157,46.2395,49.3835,51.4829,52.9838,54.1102,54.9866,55.6879
0.969486,29.9894,40.2883,45.5075,48.6621,50.775,52.2892,53.4277,54.3148,55.0256
0.979454,30.5017,40.7831,45.9365,49.0301,51.0926,52.5657,53.6703,54.5294,55.2165
1.01525,31.9178,42.6599,48.0657,51.3229,53.5009,55.0602,56.2317,57.1442,57.8749
1.03359,33.2627,44.6687,50.4581,53.9616,56.3101,57.9938,59.2601,60.247,61.0379
1.02084,33.5542,45.1018,50.9426,54.4656,56.821,58.5065,59.7721,60.7573,61.546
1.00669,33.7661,45.3894,51.2556,54.7905,57.1531,58.8437,60.1131,61.1014,61.8927
0.988004,33.7373,45.3228,51.1614,54.6786,57.0292,58.7112,59.9742,60.9576,61.7449
0.997564,34.7638,46.7295,52.7669,56.407,58.8413,60.5839,61.8928,62.9121,63.7284
1.02495,35.929,48.0786,54.1667,57.8237,60.2634,62.0069,63.3149,64.3326,65.1469
1.03352,36.9153,49.5433,55.9292,59.788,62.3729,64.2256,65.6187,66.7045,67.5745
1.02606,36.7016,49.0098,55.1742,58.8752,61.343,63.1057,64.4277,65.4558,66.2782
1.00178,36.512,48.9694,55.2809,59.0985,61.6575,63.4924,64.8727,65.9487,66.8111
1.01103,37.1929,49.7941,56.1387,59.9574,62.5075,64.3308,65.699,66.7637,67.6157
0.995981,37.3691,50.1838,56.6722,60.592,63.2166,65.097,66.5106,67.6119,68.4943
1.00799,38.6161,51.935,58.672,62.7367,65.4553,67.4012,68.8628,70.0009,70.9121
1.00725,39.1891,52.6439,59.4228,63.5042,66.2307,68.1809,69.6449,70.7845,71.6966
0.980095,38.7674,52.0747,58.7825,62.8247,65.527,67.461,68.9137,70.0448,70.9506
1.00527,39.9598,53.4809,60.2644,64.3426,67.0649,69.0113,70.472,71.6088,72.5186
1.00988,40.6472,54.4758,61.4567,65.6706,68.4913,70.5121,72.0309,73.2143,74.1623
1.00698,41.0201,54.9891,62.0389,66.29,69.1327,71.1673,72.6955,73.8853,74.838
1.01369,41.9044,56.2267,63.4598,67.8225,70.7402,72.8288,74.3978,75.6195,76.5978
0.998553,41.3859,55.3184,62.3059,66.504,69.3049,71.3065,72.8082,73.9764,74.9112
1.02113,42.9976,57.6605,65.0786,69.561,72.5634,74.7152,76.3332,77.5941,78.6045
1.00798,43.1454,57.9327,65.4074,69.9165,72.9321,75.0904,76.7115,77.9736,78.9841
0.999305,43.034,57.608,64.9269,69.3262,72.2621,74.3604,75.9349,77.1599,78.1402
1.01928,44.5022,59.6734,67.3331,71.9552,75.0484,77.2638,78.9289,80.226,81.265
0.980287,42.6658,56.9296,64.0734,68.3633,71.2245,73.2689,74.8024,75.9953,76.9497
0.975359,43.4267,58.3528,65.944,70.5451,73.6332,75.8495,77.5177,78.8188,79.8619
0.997149,44.176,58.9471,66.3351,70.7638,73.713,75.8174,77.3944,78.62,79.5999
1.01581,45.4763,60.851,68.618,73.3086,76.4499,78.7012,80.394,81.7134,82.7706
0.988849,44.9018,60.2133,67.9598,72.6363,75.7655,78.0061,79.6894,81.0003,82.05
0.987711,45.2991,60.7157,68.4897,73.1727,76.3019,78.5404,80.221,81.5292,82.5763
0.994244,46.6688,62.8515,71.0741,76.0502,79.3857,81.7773,83.576,84.978,86.1015
0.97123,45.5887,60.9868,68.6887,73.305,76.3794,78.5733,80.2176,81.4956,82.5175
1.00818,48.4088,65.1342,73.6248,78.7663,82.2156,84.6907,86.5535,88.0063,89.1711
0.97948,47.6779,64.0663,72.3268,77.3002,80.6215,82.9962,84.7782,86.1648,87.2743
0.980219,47.5112,63.4356,71.3898,76.1595,79.3382,81.6084,83.3109,84.635,85.6943
0.990033,48.4707,64.896,73.1936,78.2071,81.5659,83.9738,85.7847,87.1963,88.3275
0.970203,47.4226,63.2872,71.2498,76.0368,79.2316,81.515,83.2281,84.5609,85.6272
0.960541,48.2203,64.9178,73.4371,78.608,82.0811,84.5749,86.4526,87.9173,89.092
