1.9068,1.93657,1.9467,1.95181,1.95488,1.95694,1.95841,1.95952,1.96038,1.96106
1.41791,1.91991,2.1711,2.32185,2.42236,2.49416,2.54802,2.5899,2.62341,2.65083
1.30203,2.26924,2.76518,3.05214,3.23638,3.36385,3.45698,3.52788,3.58361,3.62852
1.21888,2.63167,3.34164,3.73308,3.97615,4.14069,4.25914,4.34838,4.41798,4.47375
1.13429,2.88074,3.70226,4.13227,4.39244,4.5661,4.69009,4.78301,4.85522,4.91295
1.07836,3.34089,4.45013,5.04505,5.41275,5.66226,5.84266,5.97917,6.08608,6.17208
1.51295,5.54381,7.47184,8.4765,9.08583,9.49364,9.78538,10.0043,10.1746,10.3108
1.42625,6.00674,8.10224,9.16922,9.81077,10.2386,10.5441,10.7732,10.9514,11.0939
1.02681,4.68909,6.21183,6.96113,7.40555,7.69972,7.90887,8.06521,8.18651,8.28337
1.02142,5.30968,7.16295,8.11733,8.70099,9.09544,9.38006,9.59518,9.76352,9.89887
1.29957,7.51889,10.1618,11.5058,12.3174,12.86,13.2481,13.5393,13.7658,13.947
1.23376,7.73369,10.3799,11.7036,12.4965,13.0243,13.401,13.6833,13.9027,14.0781
0.988836,6.81571,9.20413,10.4171,11.1516,11.6444,11.998,12.2642,12.4719,12.6383
0.986114,7.25542,9.73121,10.9699,11.7128,12.2077,12.561,12.8258,13.0316,13.1963
0.972657,7.25877,9.54356,10.6598,11.3222,11.7609,12.073,12.3064,12.4875,12.6322
0.977281,8.02616,10.8147,12.2621,13.1527,13.7569,14.1941,14.5251,14.7845,14.9934
1.19645,10.5748,14.2791,16.1675,17.3085,18.071,18.6161,19.0248,19.3426,19.5968
1.10421,10.3679,13.9619,15.773,16.8616,17.5877,18.1066,18.4958,18.7986,19.0409
0.977648,9.6545,12.9552,14.6111,15.6063,16.2705,16.7454,17.1019,17.3793,17.6014
0.974019,9.91574,13.2062,14.8458,15.8287,16.4839,16.9519,17.3029,17.576,17.7944
1.02508,10.2881,13.4628,15.0183,15.9436,16.5576,16.9949,17.3222,17.5764,17.7795
0.95882,10.4524,14.0741,15.9668,17.1355,17.9299,18.5055,18.9417,19.2837,19.5592
1.08505,11.5265,15.0901,16.8298,17.8558,18.5311,19.0086,19.3639,19.6386,19.8571
0.945347,11.2998,15.4372,17.6429,19.0191,19.9613,20.6474,21.1696,21.5805,21.9124
0.909287,5.78001,6.57524,6.88746,7.05293,7.15507,7.22429,7.27426,7.31199,7.34149
0.927946,8.48691,11.946,14.2916,16.0287,17.376,18.4542,19.3378,20.0756,20.7011
0.866721,10.2122,15.249,18.2872,20.2343,21.5576,22.503,23.2064,23.7471,24.1743
0.8655,12.034,17.674,20.609,22.331,23.4487,24.2294,24.805,25.2468,25.5966
1.01506,15.7073,22.3589,25.5945,27.4785,28.7127,29.5856,30.2365,30.741,31.1437
0.878757,14.5047,20.0948,22.7806,24.3643,25.4133,26.1607,26.7207,27.1561,27.5044
0.959937,16.665,22.7665,25.7451,27.5261,28.7145,29.5649,30.2036,30.7011,31.0995
0.879954,15.8995,21.5436,24.3337,26.01,27.13,27.9315,28.5335,29.0022,29.3775
0.874337,16.1559,21.7031,24.4528,26.1031,27.2041,27.9911,28.5817,29.0412,29.4089
0.869835,16.6931,22.4846,25.4043,27.1705,28.3546,29.2039,29.8427,30.3408,30.74
1.00625,19.6695,26.3487,29.6911,31.6993,33.039,33.9961,34.7141,35.2725,35.7192
0.954341,19.3241,25.9915,29.3675,31.4096,32.7784,33.7599,34.4981,35.0736,35.5348
0.922857,18.9819,25.3959,28.6082,30.5365,31.8221,32.7402,33.4286,33.9639,34.3921
0.939359,20.0283,26.9504,30.4659,32.5951,34.0236,35.0485,35.8198,36.4214,36.9036
0.939934,20.469,27.4584,30.9739,33.0881,34.4989,35.5072,36.2635,36.8519,37.3226
0.937953,20.4803,27.2783,30.6698,32.7029,34.058,35.0258,35.7516,36.3162,36.7679
1.0896,24.0403,32.0293,36.0499,38.4751,40.0983,41.2611,42.1353,42.8163,43.362
0.950525,21.8141,29.3698,33.24,35.5942,37.1774,38.315,39.1719,39.8406,40.3768
0.912229,21.6975,29.2795,33.1316,35.4573,37.0123,38.1248,38.96,39.61,40.1302
0.935075,22.605,30.3324,34.2064,36.5306,38.0796,39.1857,40.0151,40.6601,41.1761
1.00827,24.8627,33.3468,37.6187,40.1934,41.9156,43.1489,44.0756,44.7976,45.3759
0.934304,23.4323,31.388,35.3915,37.8029,39.4146,40.5677,41.4337,42.1079,42.6476
0.945048,24.3268,32.6815,36.9117,39.4681,41.1802,42.407,43.3293,44.048,44.6237
0.92463,13.4078,15.5257,16.388,16.8559,17.1494,17.3508,17.4976,17.6092,17.697
0.919152,17.7832,24.6968,29.1581,32.3483,34.7582,36.6473,38.1698,39.4237,40.4748
0.916865,21.3488,30.9319,36.4661,39.9474,42.2959,43.9695,45.2149,46.1737,46.9327
0.90034,23.4585,33.4834,38.63,41.6619,43.6423,45.0337,46.0642,46.8581,47.4885
0.936359,26.02,36.2454,41.2486,44.1867,46.1218,47.4948,48.5206,49.3167,49.9527
0.904714,26.3609,36.1888,41.003,43.8697,45.7778,47.1411,48.1645,48.9612,49.5991
0.988186,29.6646,40.2775,45.5064,48.6372,50.7255,52.2185,53.3393,54.2116,54.9099
0.86108,12.9049,14.6995,15.3986,15.7727,16.0058,16.1651,16.2809,16.3688,16.4379
0.863275,17.98,25.1711,29.987,33.5302,36.2642,38.443,40.222,41.7029,42.9552
0.866777,22.2165,32.6504,38.811,42.7186,45.3594,47.2395,48.6354,49.7073,50.5533
0.854935,25.2406,36.7124,42.687,46.2124,48.5124,50.1261,51.3196,52.2382,52.9672
0.852674,25.2895,34.6434,39.0052,41.4939,43.1038,44.2323,45.0683,45.713,46.2254
0.989553,32.0504,44.4501,50.6931,54.4921,57.0624,58.9219,60.3313,61.4371,62.3281
0.892626,30.203,41.3794,46.9138,50.2261,52.4309,54.0034,55.1808,56.0952,56.8257
0.894503,31.5164,42.9597,48.6616,52.0889,54.3782,56.0159,57.2459,58.2035,58.9703
0.901258,32.6396,44.2201,49.9923,53.4597,55.7741,57.4288,58.6707,59.6373,60.4109
0.872537,32.0693,43.1725,48.7058,52.0287,54.2462,55.8315,57.0213,57.9472,58.6883
0.902559,33.8172,45.4983,51.3677,54.9073,57.2758,58.9721,60.247,61.2401,62.0356
0.93519,35.5575,47.7657,53.9054,57.6051,60.0784,61.8483,63.1776,64.2125,65.041
0.95983,36.6768,49.0731,55.2841,59.0175,61.5094,63.2908,64.6277,65.668,66.5006
0.905084,35.1909,47.228,53.317,56.9977,59.4637,61.2314,62.5606,63.5966,64.4268
0.899497,35.1303,46.9897,52.947,56.5296,58.9209,60.6302,61.9127,62.9105,63.709
0.912492,35.9825,48.1563,54.2945,57.9962,60.4724,62.2454,63.5776,64.6152,65.4463
0.971978,38.6544,51.7297,58.3241,62.2999,64.9584,66.8612,68.2905,69.4034,70.2945
0.905953,35.4247,47.0043,52.7718,56.2255,58.5252,60.1665,61.3966,62.353,63.1178
0.892323,34.0018,44.8418,50.2399,53.4778,55.6374,57.1808,58.3391,59.2404,59.9618
0.903994,36.4723,49.394,56.154,60.3203,63.1471,65.1912,66.7383,67.9501,68.9249
0.935067,38.3343,51.6556,58.3919,62.4368,65.1287,67.0473,68.483,69.5976,70.4876
0.904493,38.0221,51.3006,58.0155,62.063,64.7693,66.7066,68.1621,69.2959,70.204
0.915935,39.3974,53.1434,60.0788,64.2572,67.0501,69.0486,70.5495,71.7181,72.6537
0.909252,39.8468,53.6783,60.6436,64.8382,67.6413,69.6469,71.1529,72.3255,73.2642
0.911754,32.2266,40.427,44.1522,46.2813,47.6594,48.6244,49.3378,49.8867,50.3221
0.890471,36.0916,49.3382,56.773,61.6025,65.007,67.5409,69.5021,71.0656,72.3418
0.944181,41.2528,56.9862,65.2843,70.3387,73.7158,76.1221,77.9195,79.3112,80.4197
0.853926,16.5157,18.5801,19.3647,19.774,20.0247,20.194,20.3159,20.408,20.4799
0.863177,23.261,32.4063,38.6052,43.2008,46.7689,49.6272,51.9711,53.9292,55.5902
0.883954,31.4241,47.8145,58.1577,64.985,69.7189,73.1486,75.7264,77.724,79.3116
0.963677,40.7653,61.1759,72.0131,78.3829,82.5025,85.367,87.4691,89.0761,90.3441
0.951687,41.906,58.9127,66.8323,71.3135,74.1963,76.2105,77.6997,78.8467,79.758
0.898568,43.2038,60.614,69.1921,74.3493,77.8161,80.3144,82.2032,83.6823,84.8725
0.906289,45.7537,63.2034,71.7634,76.881,80.2908,82.7256,84.5511,85.9703,87.105
0.870548,45.5903,62.3764,70.6744,75.6548,78.98,81.3582,83.1439,84.5341,85.647
0.959107,50.466,68.0345,76.6671,81.8241,85.2555,87.7036,89.5383,90.9644,92.1049
0.877448,44.6825,59.1941,66.2845,70.5098,73.3179,75.3201,76.8201,77.986,78.9182
0.897407,47.6604,64.3718,72.9805,78.2609,81.8352,84.4164,86.3683,87.8962,89.1248
0.937602,50.915,68.7733,77.8369,83.3077,86.9629,89.5756,91.5353,93.059,94.2776
0.888688,48.8762,65.8027,74.3175,79.4364,82.8521,85.2933,87.125,88.5502,89.6907
0.884567,50.0159,67.6363,76.5853,82.0019,85.634,88.2391,90.1991,91.7273,92.9522
0.88344,50.4516,67.8985,76.6582,81.9212,85.4318,87.9399,89.8211,91.2843,92.4548
0.949273,55.0483,74.0959,83.6988,89.49,93.3644,96.139,98.2241,99.8484,101.149
0.932614,54.7565,73.6417,83.1602,88.8978,92.7342,95.48,97.5424,99.1483,100.434
0.89491,52.0375,69.4427,78.1246,83.329,86.7969,89.2731,91.1299,92.5738,93.7287
0.887281,52.5255,70.5675,79.7376,85.2988,89.0336,91.7154,93.7348,95.3103,96.5739
