4.9601,5.04136,5.06905,5.083,5.09142,5.09704,5.10106,5.10408,5.10644,5.10832
1.47,1.9921,2.25338,2.41019,2.51475,2.58944,2.64545,2.68903,2.72388,2.75241
1.29555,2.23674,2.71184,2.9844,3.15849,3.27852,3.36601,3.43249,3.48466,3.52667
1.2747,2.72039,3.44061,3.83733,4.08387,4.25093,4.37131,4.46208,4.53293,4.58975
1.14181,2.92339,3.78273,4.23957,4.51849,4.70575,4.83996,4.94083,5.01939,5.0823
1.50082,4.60491,6.09889,6.888,7.37039,7.69513,7.92853,8.10435,8.24154,8.35158
1.1373,3.98863,5.2767,5.93189,6.32482,6.5862,6.77251,6.91199,7.02031,7.10686
1.24478,5.01451,6.70049,7.56439,8.08778,8.43888,8.6908,8.8804,9.02826,9.14682
1.07029,4.90949,6.60619,7.47396,7.99924,8.35119,8.60339,8.79297,8.94065,9.05894
1.01073,5.24319,7.09102,8.03279,8.60195,8.98288,9.25565,9.46059,9.62018,9.74798
1.05747,6.10624,8.25856,9.3471,10.0027,10.4407,10.7539,10.9891,11.1721,11.3186
1.02575,6.57837,8.92257,10.111,10.8288,11.3093,11.6536,11.9123,12.1138,12.2753
1.04021,7.08235,9.46944,10.6493,11.3522,11.8186,12.1507,12.3991,12.592,12.7461
1.00582,7.46404,10.0559,11.3714,12.1696,12.706,13.0916,13.3821,13.6089,13.7909
1.2887,10.2897,13.8589,15.6617,16.7489,17.4756,17.9956,18.3859,18.6896,18.9327
0.991959,8.45887,11.3754,12.843,13.7263,14.3162,14.738,15.0546,15.3011,15.4983
1.03161,9.34896,12.5638,14.1829,15.1585,15.8106,16.2774,16.628,16.901,17.1196
1.01085,8.45935,10.8404,11.9607,12.6124,13.0388,13.3395,13.5629,13.7355,13.8728
1.04863,9.94327,13.4573,15.3501,16.5453,17.3711,17.9768,18.4402,18.8064,19.1031
1.05269,10.9901,15.0334,17.1398,18.421,19.2787,19.8916,20.3509,20.7075,20.9923
1.07661,11.2494,14.9194,16.7018,17.7474,18.4337,18.9184,19.2791,19.5578,19.7798
1.03841,11.7655,15.9107,18.0413,19.3445,20.2261,20.8629,21.3447,21.7221,22.0259
1.05188,12.809,17.4048,19.7494,21.1682,22.118,22.7979,23.3084,23.7056,24.0235
0.967725,12.4637,16.8781,19.0989,20.4326,21.3216,21.9564,22.4324,22.8025,23.0986
1.081,13.6789,18.0371,20.1492,21.3959,22.2189,22.803,23.239,23.577,23.8466
1.05875,14.3829,19.3945,21.9807,23.5688,24.6452,25.4237,26.013,26.4749,26.8466
1.0342,14.8513,20.0884,22.757,24.3704,25.4495,26.2212,26.8003,27.2507,27.6109
1.13002,16.8389,22.6666,25.5931,27.3494,28.5198,29.3554,29.9819,30.469,30.8587
1.09613,16.599,22.1499,24.9109,26.5635,27.6641,28.4497,29.0388,29.4969,29.8634
1.05375,16.7192,22.4883,25.4209,27.2,28.3951,29.2535,29.9001,30.4046,30.8092
1.02968,16.7634,22.4488,25.3017,27.0151,28.1575,28.9732,29.5848,30.0602,30.4404
1.02553,17.4798,23.5555,26.6438,28.5143,29.7689,30.669,31.3464,31.8745,32.2979
0.993747,17.3205,23.2099,26.1623,27.9344,29.1156,29.959,30.5913,31.0829,31.4761
1.08066,18.9869,25.2621,28.387,30.2592,31.5066,32.3974,33.0654,33.585,34.0007
1.00313,17.3846,22.9162,25.6589,27.3007,28.3944,29.1754,29.7611,30.2167,30.5812
1.02375,18.8822,25.4678,28.8879,30.9885,32.4107,33.4377,34.2142,34.822,35.3106
1.041,20.2232,27.408,31.0829,33.3056,34.7919,35.8548,36.6523,37.2726,37.7687
1.0509,20.5905,27.5415,30.993,33.0501,34.4148,35.3863,36.1131,36.6773,37.128
1.09515,20.9756,27.6326,30.9003,32.8453,34.1369,35.0574,35.7469,36.2828,36.7112
1.04023,20.8326,27.9419,31.5979,33.8348,35.3466,36.4371,37.2612,37.9059,38.4241
1.03981,20.0871,26.3726,29.4566,31.2844,32.4921,33.3488,33.9879,34.4828,34.8774
1.03614,20.334,26.967,30.3369,32.3835,33.7602,34.7504,35.4971,36.0803,36.5486
1.04469,21.9483,29.7644,33.8439,36.3477,38.0399,39.2595,40.1801,40.8995,41.4772
0.948515,21.1292,28.7956,32.7239,35.0984,36.6854,37.8199,38.6709,39.3328,39.8622
0.992845,23.4353,31.9996,36.3473,38.967,40.7168,41.9683,42.9077,43.6389,44.2242
0.993123,23.8001,32.0291,36.0971,38.5185,40.1248,41.2683,42.1238,42.788,43.3186
0.990212,24.6876,33.3567,37.7309,40.3756,42.1494,43.4224,44.3807,45.1283,45.7278
0.956637,20.9743,26.8859,29.648,31.2494,32.2948,33.0308,33.577,33.9985,34.3335
0.986208,22.9852,30.7407,34.833,37.3899,39.145,40.4262,41.4033,42.1733,42.796
0.977697,22.4277,29.6518,33.2713,35.4346,36.8688,37.8875,38.6477,39.2363,39.7053
0.958484,23.7531,32.3203,36.819,39.5906,41.4699,42.8285,43.8568,44.6623,45.3104
0.990024,25.5433,34.6647,39.2949,42.0771,43.9293,45.2497,46.238,47.0053,47.6181
0.993486,25.889,34.7227,39.1053,41.7174,43.4515,44.6868,45.6115,46.3298,46.904
0.982288,25.8286,34.5015,38.829,41.4278,43.1632,44.4049,45.3375,46.0638,46.6455
0.959254,26.0228,34.9812,39.5256,42.2787,44.126,45.4517,46.4493,47.2273,47.8509
0.971721,28.1816,38.4691,43.781,47.0215,49.2034,50.7721,51.9542,52.8767,53.6166
1.01266,30.5325,41.4903,47.0105,50.3222,52.5267,54.0988,55.2762,56.1907,56.9216
1.01201,31.0921,41.8992,47.2796,50.4982,52.6405,54.1694,55.3156,56.2068,56.9197
0.948087,28.8879,38.4739,43.2101,46.0396,47.9225,49.2662,50.2736,51.0568,51.6834
0.97163,30.3831,40.786,46.0679,49.2749,51.431,52.9807,54.1485,55.0602,55.7916
0.92002,15.6309,18.0128,18.9769,19.4985,19.8253,20.0491,20.212,20.3358,20.4331
0.967311,20.9227,28.4855,33.2465,36.5957,39.0956,41.0375,42.5912,43.8634,44.9245
0.965065,25.4168,36.7366,43.3849,47.6291,50.5263,52.611,54.1744,55.3861,56.3505
0.967742,29.3503,42.4166,49.3056,53.4147,56.1151,58.0183,59.4303,60.519,61.3839
0.95379,31.5972,44.6727,51.1399,54.9374,57.4338,59.2017,60.5204,61.5424,62.358
0.927287,32.4651,44.974,51.066,54.6717,57.0622,58.7657,60.0421,61.0346,61.8284
0.949237,34.3692,46.9192,53.0601,56.7254,59.1671,60.9119,62.2212,63.2402,64.0558
0.964207,33.8495,44.942,50.2673,53.4146,55.4961,56.9755,58.0811,58.9387,59.6234
0.906785,17.095,19.6439,20.6735,21.2351,21.5894,21.8334,22.0119,22.148,22.2553
0.938644,24.1526,33.7668,40.1192,44.7392,48.2712,51.0651,53.3327,55.2109,56.7925
0.932377,29.4641,43.2868,51.4219,56.5784,60.0656,62.5515,64.4,65.8217,66.9455
0.931387,32.662,46.7661,53.9366,58.1172,60.8259,62.7176,64.1123,65.1831,66.0313
0.947119,33.8214,46.3714,52.3206,55.7592,58.0041,59.5882,60.7676,61.6804,62.4084
0.943201,36.1109,49.7873,56.6323,60.7767,63.5685,65.5811,67.1022,68.2926,69.2499
0.931513,35.2821,47.3275,53.1473,56.5873,58.8602,60.4734,61.6774,62.6102,63.3539
0.931147,36.9928,50.233,56.9637,61.0691,63.8403,65.8383,67.3477,68.5284,69.4775
0.923691,36.9097,49.5673,55.8572,59.6197,62.121,63.9031,65.2368,66.2721,67.0989
0.925854,38.7876,52.6649,59.749,64.0571,66.9552,69.0388,70.6093,71.8356,72.8197
0.935162,36.9082,48.5109,54.1051,57.3936,59.5566,61.0869,62.2264,63.1077,63.8096
0.929088,39.1937,53.182,60.497,65.0236,68.108,70.347,72.0472,73.3826,74.4594
0.917719,37.2987,49.3593,55.2714,58.766,61.0685,62.698,63.9111,64.8488,65.5951
0.920472,39.284,53.1023,60.2421,64.6176,67.5783,69.7167,71.3343,72.6012,73.6204
0.935852,41.8634,57.0269,64.8176,69.5466,72.7178,74.9905,76.6983,78.0283,79.0931
0.93283,42.9045,58.1842,65.8795,70.498,73.5747,75.7705,77.4161,78.6953,79.7181
0.932793,42.4527,57.5369,65.3242,70.1001,73.3349,75.6731,77.4429,78.8295,79.9455
0.915899,43.0825,58.4265,66.2189,70.9203,74.0607,76.3051,77.9882,79.2968,80.3431
0.927449,44.4638,60.0277,67.8406,72.5305,75.6571,77.8902,79.565,80.8677,81.9099
0.927659,45.4071,61.2553,69.2325,74.0384,77.2518,79.5522,81.2806,82.6268,83.7051
0.941002,44.3453,58.6256,65.6126,69.7591,72.5052,74.4578,75.9174,77.0499,77.9541
0.920013,43.961,58.7209,66.2208,70.7812,73.8518,76.0616,77.7285,79.031,80.0768
0.942551,45.8331,61.5119,69.4861,74.3128,77.5462,79.8624,81.6027,82.958,84.0432
0.93691,47.0417,63.5823,72.0312,77.1518,80.5853,83.0471,84.8983,86.341,87.497
0.915312,46.7831,63.077,71.2932,76.234,79.5303,81.8855,83.6521,85.0262,86.1254
0.94356,48.2236,64.5645,72.721,77.6086,80.8649,83.1901,84.9337,86.2898,87.3747
0.913687,47.4731,63.771,72.0095,76.9894,80.3268,82.72,84.5202,85.9237,87.0486
0.931627,42.8855,55.202,61.0384,64.444,66.6752,68.2501,69.421,70.3257,71.0456
0.922335,46.3466,62.9103,71.8215,77.4387,81.3145,84.1536,86.3241,88.0381,89.426
0.942291,41.3402,53.118,58.6858,61.9037,63.9914,65.4521,66.5301,67.3577,68.0127
0.941317,46.4197,63.6261,73.0406,79.0254,83.1793,86.2359,88.5814,90.4391,91.9473
0.932735,49.0704,67.6084,77.237,83.0661,86.9536,89.7235,91.7941,93.3988,94.6783
