1.86854,1.89771,1.90764,1.91264,1.91565,1.91767,1.91911,1.92019,1.92104,1.92171
1.38304,1.86843,2.11048,2.25549,2.35205,2.42098,2.47265,2.51282,2.54495,2.57123
0.853274,1.21295,1.35067,1.42011,1.46135,1.4885,1.50767,1.52191,1.53288,1.54159
0.864923,1.8392,2.43927,2.83551,3.11609,3.32521,3.48714,3.61626,3.72165,3.8093
0.878781,2.48411,3.45276,4.01617,4.36976,4.60804,4.77795,4.90453,5.00217,5.0796
0.887175,3.07516,4.25573,4.87082,5.23567,5.47518,5.64409,5.76954,5.86638,5.94342
0.893308,3.63851,4.98682,5.66276,6.06375,6.32929,6.5183,6.65982,6.7698,6.85775
0.883075,4.06325,5.49745,6.20577,6.6273,6.9074,7.10719,7.25694,7.37339,7.46653
0.893972,4.60811,6.22037,7.02639,7.51145,7.83596,8.06844,8.24322,8.37943,8.48857
0.902138,5.13781,6.92071,7.81504,8.35366,8.71375,8.97145,9.165,9.3157,9.43635
0.88984,5.51516,7.40414,8.35087,8.92037,9.30071,9.57272,9.77691,9.93584,10.063
0.898767,6.06759,8.16173,9.21942,9.85829,10.2861,10.5926,10.8231,11.0026,11.1465
0.905219,6.57733,8.83249,9.9675,10.6509,11.1075,11.434,11.6791,11.8699,12.0226
1.01938,7.92217,10.6278,11.9899,12.8104,13.3588,13.7513,14.0461,14.2756,14.4593
0.902199,7.49077,10.0538,11.3459,12.1248,12.6456,13.0183,13.2983,13.5163,13.6909
0.898806,7.89927,10.5856,11.9372,12.7509,13.2946,13.6835,13.9755,14.2028,14.3848
0.898521,8.26729,11.0394,12.4289,13.264,13.8214,14.2198,14.5189,14.7516,14.9378
1.01237,9.8454,13.1925,14.8868,15.9112,16.5976,17.0897,17.4598,17.7482,17.9794
0.903663,9.30994,12.5089,14.1292,15.1077,15.7625,16.2313,16.5835,16.8577,17.0773
1.01397,10.9307,14.6517,16.5237,17.6497,18.4014,18.9387,19.342,19.6557,19.9068
0.990104,11.1057,14.8504,16.7299,17.8599,18.6144,19.1539,19.5589,19.8741,20.1263
0.98443,11.5711,15.5103,17.5003,18.7016,19.5058,20.0819,20.5149,20.8522,21.1224
0.896192,11.0755,14.8887,16.8199,17.9864,18.7671,19.3262,19.7463,20.0736,20.3356
1.00359,12.9163,17.3374,19.5648,20.9058,21.8014,22.442,22.9228,23.2969,23.5964
0.989453,13.2799,17.8318,20.1274,21.511,22.4362,23.0984,23.5958,23.9831,24.2932
0.900274,12.5896,16.9082,19.0855,20.3975,21.2746,21.9022,22.3735,22.7404,23.0342
0.959894,13.7815,18.429,20.7581,22.1573,23.0909,23.7582,24.2589,24.6484,24.9601
0.903909,13.5356,18.1788,20.5311,21.9537,22.9072,23.5908,24.105,24.5058,24.827
0.899115,13.8276,18.5113,20.8657,22.2817,23.227,23.9026,24.4096,24.804,25.1196
0.966958,15.3554,20.5807,23.2194,24.8118,25.8774,26.6407,27.2144,27.6613,28.0193
0.963287,15.8378,21.2565,23.9951,25.6475,26.7529,27.5442,28.1387,28.6016,28.9723
0.949778,16.022,21.4485,24.1748,25.814,26.908,27.6901,28.2769,28.7335,29.0989
0.962378,16.8396,22.6167,25.5399,27.3057,28.4881,29.3353,29.9722,30.4684,30.866
0.905917,16.3066,21.8751,24.6807,26.3702,27.4989,28.3061,28.9121,29.3838,29.7613
0.979149,18.0361,24.1514,27.2271,29.0787,30.3157,31.2006,31.8651,32.3824,32.7965
0.979093,18.6487,25.0433,28.278,30.2315,31.5394,32.4763,33.1805,33.7292,34.1687
0.941697,18.3727,24.621,27.763,29.653,30.9147,31.8167,32.4935,33.0201,33.4415
0.90639,18.0322,24.1176,27.1744,29.0135,30.242,31.1206,31.7803,32.2938,32.7049
0.925095,18.9606,25.4361,28.7112,30.6895,32.0142,32.9633,33.6767,34.2325,34.6778
0.989832,20.8139,27.9163,31.4976,33.655,35.0966,36.1277,36.9019,37.5045,37.9868
0.956458,20.4715,27.3851,30.856,32.9427,34.3355,35.3313,36.0786,36.6601,37.1255
0.96028,21.1502,28.3833,32.0426,34.2533,35.7338,36.7947,37.5923,38.2138,38.7117
0.951386,21.3378,28.5673,32.202,34.3882,35.8476,36.8908,37.6736,38.2827,38.7701
0.926942,21.3536,28.6556,32.3464,34.5744,36.0656,37.1338,37.9366,38.562,39.063
0.940819,22.2523,29.8889,33.7463,36.0725,37.628,38.7413,39.5775,40.2285,40.7497
0.987965,23.6324,31.5939,35.5821,37.9765,39.5733,40.7141,41.5699,42.2355,42.7681
0.940737,23.1328,31.0533,35.0636,37.4883,39.1131,40.2779,41.154,41.8369,42.3841
0.952841,23.9358,32.1086,36.2279,38.7087,40.3659,41.5511,42.4407,43.133,43.6871
0.97421,24.9562,33.46,37.7438,40.3242,42.0488,43.2827,44.2094,44.9309,45.5085
0.946343,24.8683,33.4035,37.7161,40.3184,42.0594,43.3061,44.2428,44.9723,45.5566
0.954891,25.519,34.2028,38.5683,41.1941,42.9472,44.2005,45.1411,45.8731,46.4588
0.962817,26.1383,35.0021,39.4617,42.1475,43.9426,45.2271,46.1918,46.943,47.5444
0.93219,25.8619,34.6964,39.1602,41.8546,43.6578,44.9492,45.9197,46.6756,47.2811
0.969676,27.1214,36.2461,40.8233,43.5738,45.4089,46.7203,47.7042,48.4696,49.082
0.947503,27.168,36.4688,41.1819,44.032,45.942,47.3113,48.3412,49.1439,49.7872
0.962211,27.7783,37.1249,41.8138,44.6305,46.5092,47.8514,48.858,49.641,50.2673
0.943062,27.715,37.1159,41.8623,44.7266,46.6435,48.0166,49.0486,49.8526,50.4967
0.950184,28.3345,37.9354,42.7746,45.6901,47.6386,49.0326,50.0794,50.8942,51.5465
0.96236,29.3597,39.4181,44.5082,47.5818,49.6391,51.1126,52.2199,53.0824,53.7733
0.964857,30.1504,40.5426,45.7978,48.9681,51.0883,52.6058,53.7457,54.6332,55.3438
0.924775,29.4745,39.6005,44.7021,47.7736,49.8253,51.2927,52.3943,53.2517,53.938
0.925912,29.8543,40.0028,45.0999,48.1656,50.2128,51.6768,52.7759,53.6313,54.316
0.950212,31.2074,41.8687,47.2478,50.4928,52.664,54.2188,55.3872,56.2972,57.0261
0.945409,31.5938,42.3904,47.8338,51.1141,53.3068,54.8758,56.0541,56.9713,57.7057
0.95138,32.3009,43.326,48.8815,52.2286,54.4658,56.0665,57.2686,58.2045,58.9538
0.965145,33.2978,44.6605,50.3863,53.8361,56.1421,57.7922,59.0314,59.9963,60.7687
0.964411,33.6755,45.1087,50.8599,54.3219,56.6346,58.2889,59.5309,60.4977,61.2716
0.940668,33.3436,44.6974,50.424,53.8773,56.187,57.8406,59.0829,60.0504,60.8251
0.940974,33.7587,45.2371,51.0242,54.5124,56.8445,58.5136,59.7671,60.7432,61.5246
0.892724,15.7567,17.8957,18.7446,19.2,19.4842,19.6783,19.8194,19.9265,20.0106
0.93364,22.6378,31.5158,37.4527,41.8042,45.1513,47.812,49.9803,51.7822,53.3039
0.909446,27.2413,40.0428,47.6575,52.5076,55.7955,58.1421,59.8878,61.2305,62.2918
0.943951,32.245,46.7285,54.2435,58.6622,61.5374,63.5502,65.0366,66.1791,67.0847
0.937901,34.6031,48.7646,55.6746,59.71,62.3582,64.2328,65.6314,66.7157,67.5814
0.917939,35.3509,48.7046,55.1616,58.9795,61.5111,63.3159,64.6686,65.7206,66.5623
0.916882,36.5382,49.8078,56.3242,60.2268,62.8327,64.6976,66.0986,67.1899,68.0639
0.891625,36.2821,49.0547,55.3747,59.1684,61.7011,63.5123,64.8719,65.9301,66.7771
0.929212,38.1567,51.3682,57.9848,61.9788,64.6541,66.5717,68.0137,69.1377,70.0383
0.929537,38.891,52.3286,59.0868,63.1629,65.8892,67.8408,69.3066,70.4479,71.3617
0.916777,38.9311,52.3053,59.0289,63.078,65.7834,67.7188,69.1718,70.3029,71.2083
0.9222,39.2875,52.5541,59.1951,63.1847,65.8468,67.7494,69.1771,70.2879,71.1769
0.914775,39.2231,52.4552,59.1132,63.1266,65.811,67.7331,69.1772,70.3021,71.203
0.921442,40.2784,54.0974,61.1054,65.3446,68.1853,70.2214,71.7525,72.9456,73.9015
0.922077,40.8557,54.8483,61.9092,66.1633,69.0057,71.0386,72.5647,73.7524,74.703
0.918733,40.7231,54.4065,61.2554,65.3656,68.106,70.0636,71.5319,72.6739,73.5877
0.909753,41.1008,55.1871,62.3293,66.6514,69.5496,71.6284,73.1924,74.4118,75.3893
0.915576,41.8299,56.1087,63.3067,67.6414,70.5368,72.6073,74.1614,75.3706,76.3383
0.879058,17.1488,19.142,19.913,20.3222,20.5758,20.7485,20.8735,20.9684,21.0427
0.910161,25.3202,35.4459,42.4842,47.7847,51.9455,55.306,58.0796,60.4091,62.3937
0.895608,31.7945,47.6472,57.4165,63.7395,68.0565,71.1461,73.4457,75.2133,76.6087
0.910652,37.8875,56.0648,65.637,71.2585,74.9007,77.44,79.3086,80.7407,81.8733
0.902018,40.8596,58.2485,66.6558,71.5162,74.6848,76.9185,78.5803,79.8662,80.8914
0.916356,43.6726,60.6317,68.7622,73.5507,76.7219,78.9819,80.6759,81.9936,83.048
0.879847,43.6935,59.9231,67.8561,72.6037,75.7742,78.044,79.7496,81.0784,82.143
0.900852,45.4822,61.577,69.4771,74.2049,77.3559,79.6066,81.2948,82.6079,83.6584
0.910077,46.3813,62.3598,70.2777,75.0332,78.2085,80.4795,82.1846,83.5119,84.5746
0.878555,45.7403,61.6286,69.6303,74.4689,77.712,80.0375,81.7865,83.1499,84.2425
0.898637,46.8879,62.8119,70.772,75.5524,78.7405,81.0178,82.7257,84.054,85.1165
0.914842,48.3041,64.7812,73.0819,78.0899,81.4411,83.8413,85.6452,87.0505,88.1762
0.906258,48.684,65.4436,73.9192,79.0376,82.4635,84.9171,86.7608,88.1968,89.347
