1.603,1.64185,1.65523,1.662,1.66608,1.66882,1.67078,1.67225,1.6734,1.67432
1.34622,2.00591,2.38374,2.62845,2.79984,2.92657,3.02408,3.10143,3.16428,3.21637
1.23385,2.40855,3.06069,3.4442,3.69013,3.85925,3.98192,4.07465,4.14704,4.20505
1.32588,3.20241,4.18402,4.72136,5.05181,5.27385,5.43288,5.55226,5.64512,5.71941
1.13673,3.32491,4.4341,5.02665,5.38949,5.63385,5.80952,5.94188,6.04521,6.12812
1.12145,3.51536,4.5283,5.02337,5.31372,5.50428,5.6389,5.73905,5.81646,5.87808
1.24432,4.83446,6.60796,7.58383,8.20353,8.63306,8.94871,9.19063,9.38201,9.53724
1.14187,5.02599,6.80777,7.72086,8.26953,8.63399,8.89306,9.08644,9.23617,9.35547
1.35045,6.5393,8.77211,9.89373,10.566,11.014,11.3339,11.574,11.7608,11.9103
1.38802,7.77302,10.6702,12.1917,13.1306,13.7684,14.2302,14.58,14.8543,15.0751
1.26484,7.88873,10.7962,12.2832,13.1821,13.7833,14.2132,14.5358,14.7867,14.9874
1.18778,8.00197,10.8441,12.2745,13.1346,13.7089,14.1196,14.428,14.668,14.8602
1.21373,8.9496,12.1769,13.8259,14.8286,15.5033,15.9885,16.3542,16.6398,16.869
1.28845,10.1211,13.679,15.4768,16.5618,17.2876,17.8073,18.1976,18.5016,18.7449
1.25267,10.5326,14.2537,16.1509,17.3029,18.0771,18.6332,19.0521,19.379,19.6412
1.3435,12.0603,16.3263,18.5002,19.818,20.7022,21.3364,21.8135,22.1854,22.4835
1.48888,14.0621,18.9601,21.4405,22.9389,23.9421,24.6607,25.2008,25.6215,25.9586
1.18609,11.9597,16.2116,18.391,19.7174,20.6098,21.2515,21.735,22.1125,22.4154
1.35839,14.2309,19.1432,21.62,23.1114,24.1074,24.8196,25.3541,25.77,26.1028
1.23497,13.6504,18.4313,20.8712,22.353,23.349,24.0646,24.6036,25.0243,25.3619
1.22518,14.2833,19.3395,21.9273,23.4996,24.556,25.3146,25.8856,26.331,26.6882
1.14668,14.1012,19.1234,21.6905,23.2479,24.293,25.0429,25.6071,26.047,26.3995
1.19207,14.6797,19.7705,22.39,23.9915,25.0733,25.8534,26.4428,26.9039,27.2744
1.31799,17.0824,23.1167,26.2174,28.1032,29.3702,30.2797,30.964,31.4975,31.9251
1.39392,19.0749,25.9127,29.4225,31.5548,32.9867,34.0145,34.788,35.3912,35.8748
1.19969,16.6379,22.298,25.1271,26.8214,27.9493,28.7539,29.3569,29.8255,30.2002
1.47481,21.0979,28.354,32.0476,34.291,35.7998,36.8847,37.7025,38.3411,38.8537
1.18027,16.2236,21.2856,23.7708,25.2483,26.2276,26.9243,27.4452,27.8493,28.172
1.23523,17.212,22.8034,25.6608,27.4043,28.581,29.4292,30.0698,30.5709,30.9736
1.09654,16.9926,23.3926,26.8431,29.0013,30.4777,31.5509,32.3661,33.0062,33.522
1.11107,18.6077,25.7144,29.4099,31.6537,33.1555,34.2294,35.0348,35.661,36.1617
1.16865,20.4855,28.0134,31.8084,34.0831,35.5974,36.678,37.4878,38.1175,38.6211
1.19741,21.7435,29.5472,33.4772,35.8462,37.4318,38.5681,39.4226,40.0888,40.6227
1.00898,19.0465,25.8575,29.31,31.4008,32.8038,33.8106,34.5683,35.1593,35.6331
1.09216,20.4039,27.2393,30.6348,32.668,34.0221,34.9888,35.7135,36.2769,36.7276
1.13483,22.1,29.8601,33.8547,36.2989,37.9506,39.1419,40.0421,40.7462,41.3122
1.35592,27.1368,36.6647,41.5325,44.485,46.4652,47.8849,48.9522,49.7838,50.4499
1.23158,24.3726,32.4674,36.5047,38.9221,40.5312,41.6792,42.5396,43.2083,43.743
1.3068,27.3343,37.1027,42.1846,45.3084,47.4253,48.9551,50.1127,51.0193,51.7486
1.26219,27.5081,37.4408,42.5518,45.658,47.7429,49.2381,50.3624,51.2384,51.9401
1.27452,26.9557,35.7903,40.1376,42.7184,44.4268,45.641,46.5483,47.2521,47.8139
1.22022,27.3186,37.0903,42.1859,45.3284,47.4639,49.0109,50.1838,51.1038,51.8448
1.3115,28.6946,38.1658,42.87,45.6745,47.5339,48.8559,49.8437,50.6095,51.2204
1.19667,26.6921,35.7744,40.4168,43.2438,45.1486,46.52,47.555,48.3639,49.0137
1.17148,27.8813,38.1131,43.4802,46.7849,49.0235,50.6397,51.8613,52.8169,53.5848
1.1893,28.9639,39.2637,44.483,47.6217,49.7136,51.2063,52.3246,53.1935,53.8879
1.25094,31.6195,42.981,48.7817,52.3007,54.6641,56.3614,57.6398,58.6374,59.4377
1.33112,34.17,46.1602,52.2187,55.8733,58.318,60.0683,61.3832,62.4072,63.2272
1.21975,31.7161,42.7069,48.2657,51.6256,53.8768,55.4908,56.7047,57.6509,58.4091
1.21058,32.9058,44.757,50.8678,54.6,57.1167,58.9288,60.2958,61.3637,62.2211
1.19585,33.2762,45.1129,51.1348,54.7758,57.2131,58.9584,60.2695,61.2904,62.1078
1.21642,34.1945,46.0853,52.0879,55.7076,58.1287,59.8622,61.1646,62.1791,62.9916
1.33398,38.3968,51.8844,58.7612,62.9362,65.7415,67.7565,69.2742,70.4584,71.4083
1.2165,34.9262,46.8217,52.8111,56.4186,58.8292,60.5537,61.8484,62.8561,63.6628
1.32581,39.2654,53.1088,60.2271,64.5701,67.4977,69.6053,71.1953,72.4376,73.435
1.235,37.6359,51.0149,57.8621,62.0165,64.8037,66.8025,68.3058,69.4773,70.4158
1.18626,36.6769,49.5261,56.0409,59.975,62.6077,64.493,65.9096,67.013,67.8967
1.06842,20.6306,24.4401,26.0401,26.9211,27.4789,27.864,28.1458,28.3609,28.5306
1.1307,27.5808,38.098,44.6122,49.141,52.4927,55.0796,57.139,58.8183,60.2144
1.1723,32.2245,45.483,52.8331,57.3809,60.4285,62.5958,64.2085,65.4515,66.437
1.33187,40.329,56.935,65.5966,70.8054,74.265,76.7272,78.5686,79.9981,81.1403
1.08081,34.8617,48.6289,55.5747,59.7285,62.4926,64.4658,65.9458,67.0974,68.0191
1.15797,37.3372,50.6233,57.0995,60.9342,63.4737,65.2807,66.6327,67.6825,68.5214
1.1396,39.0342,53.6148,61.0985,65.6845,68.7908,71.0361,72.7357,74.0672,75.1387
1.28215,44.6637,60.6852,68.7382,73.5858,76.822,79.1345,80.8688,82.2174,83.2958
1.18764,42.6702,58.0271,65.8271,70.5565,73.732,76.0118,77.7284,79.0677,80.1418
1.33101,42.8008,55.5772,61.6568,65.2158,67.5529,69.2053,70.4353,71.3866,72.1443
1.16346,40.6866,55.4626,63.4084,68.4192,71.8781,74.4124,76.3504,77.881,79.1206
1.24775,45.5151,62.2565,70.9501,76.2392,79.7832,82.3184,84.2198,85.6977,86.8788
1.11197,41.4933,56.4002,63.9566,68.503,71.536,73.7029,75.3284,76.593,77.6049
0.878162,20.0761,23.7592,25.2913,26.1309,26.6613,27.0269,27.2943,27.4983,27.6591
0.961932,28.3492,39.5076,46.5216,51.4502,55.1268,57.9818,60.2656,62.1352,63.6945
1.09375,37.5787,54.0738,63.417,69.2571,73.1909,75.9961,78.0864,79.6988,80.9774
0.981824,36.5839,51.7387,59.4985,64.0964,67.1178,69.2511,70.8371,72.0627,73.0384
1.10297,41.3293,56.4571,63.797,68.1065,70.9457,72.9603,74.4653,75.633,76.5657
1.12758,44.6234,61.3263,69.7935,74.9451,78.4215,80.9292,82.8247,84.3084,85.5015
1.03293,41.9943,57.3,65.0054,69.656,72.7683,74.9969,76.6709,77.9742,79.0176
1.04951,41.8524,56.0607,63.084,67.283,70.0774,72.0714,73.5659,74.7278,75.657
1.08907,45.4094,61.7801,70.2373,75.427,78.9408,81.479,83.3988,84.9018,86.1106
1.0794,46.2267,62.8606,71.3537,76.5001,79.9486,82.4188,84.2748,85.7199,86.8768
1.01178,44.2817,60.1053,68.1449,73.0068,76.2634,78.597,80.3515,81.7186,82.8139
1.05063,46.1935,62.2862,70.3941,75.2795,78.5457,80.8835,82.6395,84.007,85.102
0.990995,44.2771,59.8271,67.7478,72.5562,75.7872,78.1083,79.8566,81.2209,82.3152
0.97458,40.1992,52.6109,58.6335,62.1911,64.5397,66.2058,67.4492,68.4125,69.1807
1.16341,51.9501,70.9739,81.1606,87.5498,91.9409,95.1475,97.593,99.5202,101.078
1.15461,50.0552,66.8011,75.1347,80.0884,83.3608,85.6797,87.4072,88.7431,89.8066
1.12379,50.8867,69.1421,78.6219,84.4387,88.3769,91.2222,93.3751,95.0616,96.4186
1.19585,56.5459,77.3208,88.0433,94.5685,98.9523,102.098,104.465,106.31,107.788
1.06006,51.7147,70.5778,80.1843,85.9885,89.8722,92.6526,94.7413,96.3678,97.6703
1.00897,49.2011,66.3604,74.9441,80.0923,83.5243,85.9759,87.815,89.2457,90.3904
1.01901,51.1193,69.394,78.7432,84.4371,88.2728,91.0335,93.1161,94.7432,96.0497
1.01969,52.2956,70.9741,80.4864,86.2481,90.1106,92.8793,94.9608,96.5825,97.8816
1.01705,52.941,71.6906,81.2057,86.9598,90.8147,93.5775,95.6547,97.2734,98.5703
1.27145,66.8667,90.3871,102.33,109.561,114.41,117.887,120.504,122.544,124.179
1.18953,62.9744,84.982,96.1624,102.933,107.475,110.732,113.183,115.094,116.625
1.15116,57.3476,75.5616,84.5047,89.8221,93.3473,95.8558,97.732,99.1882,100.351
1.31958,68.7078,93.051,105.838,113.762,119.163,123.083,126.059,128.396,130.279
1.04,55.3794,75.1289,85.2853,91.4476,95.5761,98.5318,100.751,102.478,103.859
1.19133,63.5143,85.6055,96.775,103.501,107.993,111.206,113.617,115.494,116.997
1.18022,64.5368,87.5411,99.3444,106.53,111.367,114.847,117.47,119.519,121.163
