1.6876,1.75473,1.77831,1.79034,1.79763,1.80253,1.80605,1.80869,1.81075,1.81241
1.21362,1.67664,1.90814,2.0469,2.13933,2.2053,2.25476,2.29321,2.32396,2.34911
0.828936,1.26344,1.44314,1.53674,1.59332,1.63098,1.65777,1.67777,1.69326,1.7056
0.855962,1.90385,2.54157,2.95342,3.23981,3.45029,3.6115,3.73892,3.84218,3.92757
0.883211,2.55721,3.54437,4.11063,4.46438,4.70269,4.87285,4.99989,5.09811,5.17618
0.842556,2.96294,4.09675,4.69139,5.04746,5.28308,5.45027,5.57503,5.67171,5.74883
0.828963,3.40072,4.66542,5.30808,5.69302,5.94948,6.13276,6.27035,6.37749,6.4633
0.873969,4.01633,5.43834,6.14905,6.57477,6.8587,7.0617,7.2141,7.33275,7.42774
1.03148,5.32976,7.23496,8.20468,8.79377,9.19014,9.47521,9.69013,9.85798,9.9927
0.963364,5.49216,7.43873,8.42765,9.02664,9.42836,9.71646,9.93314,10.102,10.2374
0.95387,5.87362,7.90714,8.93362,9.55312,9.9677,10.2646,10.4877,10.6615,10.8007
0.932891,6.39897,8.72938,9.93787,10.6786,11.1794,11.5406,11.8135,12.0269,12.1984
0.877524,6.26719,8.39182,9.45251,10.0873,10.5094,10.8102,11.0355,11.2104,11.3502
0.908806,7.18655,9.80318,11.1672,12.0068,12.5763,12.9881,13.2999,13.5442,13.7409
0.853743,7.22437,9.80706,11.1225,11.9174,12.449,12.8293,13.1146,13.3367,13.5143
0.907161,8.2439,11.2113,12.7296,13.6517,14.2713,14.7164,15.0517,15.3133,15.5231
0.837682,7.93444,10.6873,12.0737,12.9084,13.4661,13.865,14.1645,14.3977,14.5843
0.831738,8.31549,11.2263,12.7111,13.6134,14.2202,14.6564,14.9851,15.2417,15.4476
0.851753,8.93979,12.0697,13.6671,14.6367,15.2877,15.755,16.1068,16.381,16.6009
0.826039,8.83152,11.7999,13.2916,14.1891,14.7885,15.2171,15.5388,15.7892,15.9896
0.990685,11.3969,15.4934,17.6288,18.9424,19.8325,20.4759,20.9626,21.3437,21.6502
0.820858,9.95909,13.5254,15.3513,16.4574,17.1983,17.7288,18.1273,18.4375,18.6858
0.82616,10.495,14.2265,16.1269,17.2772,18.0482,18.6009,19.0167,19.3408,19.6005
0.804848,6.92131,8.26261,8.83097,9.14515,9.34456,9.48238,9.58335,9.6605,9.72138
0.800455,8.8071,12.1857,14.2617,15.697,16.755,17.5692,18.2159,18.7422,19.1791
0.827121,10.4752,14.8144,17.2192,18.7089,19.7087,20.4208,20.9514,21.3609,21.6859
0.799269,10.87,15.0793,17.2132,18.4776,19.3098,19.8984,20.3366,20.6756,20.9458
0.797348,11.7237,16.2226,18.504,19.8787,20.7992,21.4596,21.9568,22.3449,22.6563
0.859121,13.4386,18.5041,21.0698,22.621,23.6613,24.4078,24.9695,25.4076,25.7588
0.798296,13.0439,17.8084,20.2056,21.651,22.6181,23.3107,23.8311,24.2366,24.5613
0.807301,14.0304,19.2395,21.9047,23.528,24.6211,25.4075,26.0005,26.4637,26.8355
0.794822,9.44512,11.3771,12.1938,12.6447,12.9306,13.128,13.2724,13.3827,13.4697
0.811964,11.9279,16.4209,19.119,20.9595,22.3037,23.331,24.1427,24.8007,25.3449
0.798985,13.6688,19.4763,22.7348,24.7758,26.1578,27.1491,27.8918,28.4677,28.9266
0.801774,15.0804,21.2778,24.4802,26.3951,27.6614,28.5594,29.229,29.7475,30.1608
0.790734,10.4683,12.771,13.7256,14.2446,14.5711,14.7955,14.9595,15.0845,15.183
0.81385,13.7369,19.2819,22.63,24.9283,26.6169,27.914,28.943,29.7799,30.4741
0.777769,15.3372,22.098,25.8604,28.2047,29.7859,30.9164,31.7613,32.4148,32.9345
0.805251,17.386,24.6147,28.3004,30.4906,31.9341,32.9556,33.7164,34.3049,34.7738
0.791041,17.6513,24.2896,27.5385,29.4586,30.7285,31.6318,32.3077,32.8328,33.2526
0.822633,18.5968,25.1788,28.423,30.3668,31.6654,32.5954,33.2947,33.8398,34.2767
0.777123,17.6851,23.7725,26.8185,28.6592,29.8939,30.7801,31.4471,31.9673,32.3845
0.794159,19.1877,26.2181,29.8699,32.1157,33.6372,34.7362,35.5672,36.2175,36.7404
0.758632,15.4825,19.7269,21.688,22.8154,23.5466,24.059,24.4377,24.7291,24.9602
0.811307,18.9398,26.0523,30.0196,32.5833,34.3838,35.7202,36.7525,37.5742,38.2441
0.776402,15.8611,20.4361,22.601,23.8486,24.6551,25.2175,25.6312,25.948,26.1981
0.777002,15.1455,19.6235,21.8749,23.2404,24.1602,24.8231,25.324,25.7162,26.0316
0.762107,17.8656,25.2257,29.4686,32.2351,34.1817,35.6256,36.739,37.6236,38.3433
0.782276,20.6192,29.3524,34.0187,36.864,38.7643,40.118,41.1291,41.9121,42.5358
0.754427,21.0643,29.3566,33.5085,35.9706,37.5968,38.7507,39.6122,40.28,40.813
0.804669,23.7298,32.8436,37.4285,40.1909,42.0413,43.3691,44.3689,45.1492,45.7752
0.763916,23.3825,32.0671,36.4223,39.0463,40.8021,42.0598,43.0052,43.7418,44.3318
0.77874,23.4237,31.4395,35.3903,37.7517,39.3238,40.4462,41.2876,41.942,42.4655
0.779805,24.4987,33.3358,37.8947,40.6934,42.5892,43.9592,44.9958,45.8075,46.4605
0.776494,24.8045,33.5797,38.0322,40.723,42.5232,43.8113,44.7782,45.5307,46.1328
0.768268,24.6535,33.3085,37.7303,40.4195,42.2288,43.5297,44.5103,45.2761,45.8906
0.797322,26.1479,35.3816,40.0999,42.964,44.887,46.267,47.3054,48.1151,48.7641
0.844182,28.7612,39.1813,44.5493,47.8209,50.0232,51.6067,52.8,53.7315,54.4789
0.806058,28.1033,38.1871,43.3263,46.4368,48.5207,50.0139,51.1364,52.0108,52.7113
0.792883,27.6659,37.2652,42.0986,45.0093,46.9546,48.3466,49.392,50.206,50.8578
0.821249,28.6719,38.4925,43.4575,46.46,48.4728,49.9166,51.0029,51.8499,52.5288
0.782797,27.6442,37.2198,42.1114,45.0852,47.0849,48.5219,49.6045,50.4494,51.1271
0.789384,28.8374,39.1744,44.5159,47.7781,49.9768,51.5588,52.7517,53.6832,54.4307
0.781527,29.2976,39.8104,45.1907,48.4525,50.6395,52.2073,53.386,54.3044,55.0401
0.774393,29.4474,39.865,45.154,48.3506,50.4912,52.0249,53.1779,54.0762,54.7959
0.803111,29.8149,39.7721,44.7328,47.705,49.6854,51.0996,52.1603,52.9852,53.6451
0.820893,30.5507,40.9119,46.1886,49.3971,51.5565,53.1097,54.2809,55.1957,55.93
0.801126,31.1493,42.4002,48.273,51.8824,54.3251,56.0878,57.4196,58.4612,59.298
0.823726,32.1626,43.4019,49.0922,52.5168,54.801,56.432,57.6546,58.6049,59.3647
0.793226,32.2109,43.9048,49.9457,53.6362,56.1258,57.9193,59.2731,60.3314,61.1815
0.825364,34.072,46.2393,52.4293,56.1713,58.6761,60.4697,61.8172,62.8664,63.7065
0.819654,34.3691,46.5556,52.7512,56.5024,59.018,60.8225,62.1801,63.2387,64.0873
0.792378,33.233,44.7467,50.5625,54.0733,56.4231,58.1064,59.3716,60.3571,61.1466
0.800788,34.0098,45.9051,51.9799,55.6726,58.1558,59.9406,61.2853,62.335,63.1771
0.790382,34.1602,46.2266,52.4065,56.1632,58.6879,60.5011,61.8663,62.9313,63.7852
0.823704,33.446,44.0788,49.2978,52.3969,54.4491,55.9082,56.9987,57.8447,58.52
0.79279,34.0632,46.3317,52.8214,56.8584,59.6172,61.6236,63.149,64.3482,65.3158
0.79785,35.2934,48.0752,54.6692,58.6739,61.3578,63.2794,64.7222,65.8448,66.743
0.826124,33.1649,43.4244,48.3973,51.328,53.26,54.6297,55.6514,56.4429,57.0742
0.82489,35.6611,48.6783,55.6437,60.0113,63.0135,65.2063,66.8792,68.1978,69.2641
0.827323,32.4344,42.4764,47.3752,50.2621,52.1604,53.5019,54.4993,55.2697,55.8824
0.820958,34.343,46.695,53.2676,57.3688,60.1778,62.2243,63.7827,65.0094,66.0004
0.81173,35.9096,49.3678,56.4163,60.7274,63.6287,65.7115,67.2782,68.4988,69.4764
0.825559,37.8153,51.7989,58.9407,63.2506,66.1303,68.1896,69.7351,70.9378,71.9004
0.814174,39.1522,53.8605,61.4133,66.0043,69.0909,71.3091,72.9805,74.2853,75.3321
0.797719,39.5037,54.0398,61.4062,65.8519,68.8262,70.9556,72.5553,73.801,74.7985
0.830907,40.1844,53.9616,60.8121,64.9171,67.6536,69.6089,71.0761,72.2176,73.1313
0.810565,39.7002,53.572,60.6538,64.9695,67.8786,69.9735,71.5544,72.79,73.7824
0.811659,40.5991,55.0175,62.4155,66.9193,69.9484,72.1246,73.7634,75.0419,76.067
0.803415,40.1477,54.0683,61.1118,65.3613,68.2027,70.2361,71.763,72.9518,73.9034
0.828,41.9224,56.6342,64.1566,68.7296,71.8049,74.0151,75.6806,76.9807,78.0238
0.809441,41.4096,55.9308,63.3359,67.8249,70.8364,72.9965,74.6213,75.8879,76.9029
0.801269,42.1929,57.3693,65.1834,69.9461,73.1526,75.4585,77.1965,78.5535,79.6423
0.828326,44.1896,59.9095,67.9165,72.7619,76.0081,78.3341,80.0824,81.4444,82.5354
0.805572,43.2543,58.4479,66.1596,70.8242,73.9503,76.1915,77.8772,79.1911,80.2441
0.862857,42.6843,56.1256,62.742,66.6876,69.3099,71.1797,72.5805,73.6691,74.5396
0.824453,43.2487,58.8503,67.1386,72.3066,75.8426,78.4158,80.373,81.9118,83.1536
0.795873,43.814,60.1939,68.7649,74.0082,77.5377,80.0721,81.979,83.465,84.6554
0.808733,43.5531,58.5324,65.9847,70.4224,73.3632,75.4546,77.0179,78.2308,79.1991
0.801338,44.5357,60.5237,68.7601,73.7967,77.2003,79.6562,81.5128,82.966,84.1345
