1.51167,1.56539,1.58416,1.59371,1.5995,1.60338,1.60616,1.60826,1.60989,1.6112
1.58365,2.22489,2.55539,2.7568,2.89238,2.98985,3.06331,3.12065,3.16665,3.20438
1.1065,2.03014,2.52375,2.81415,3.0021,3.13273,3.22844,3.30143,3.35886,3.40519
1.16171,2.64758,3.41806,3.84587,4.11204,4.2923,4.42208,4.51986,4.59611,4.65722
1.11381,3.07726,4.06695,4.59911,4.92578,5.14588,5.30407,5.4232,5.51614,5.59067
0.992093,3.18796,4.23095,4.77234,5.09994,5.31908,5.47589,5.59364,5.68531,5.75869
0.969494,3.60289,4.82616,5.46029,5.84618,6.10568,6.29216,6.43266,6.54232,6.6303
0.929945,3.59167,4.65407,5.17196,5.47749,5.67899,5.82185,5.9284,6.01093,6.07674
0.918253,4.21031,5.71507,6.52645,7.03663,7.38785,7.64465,7.84069,7.99529,8.12036
0.89384,4.71701,6.47155,7.3924,7.95505,8.33311,8.60413,8.80771,8.96615,9.09291
0.985945,5.82178,7.96384,9.05898,9.71965,10.1609,10.4765,10.7133,10.8975,11.045
0.913934,5.83721,7.89402,8.92508,9.54342,9.95562,10.2501,10.4711,10.643,10.7806
0.950244,6.66429,9.05955,10.2844,11.03,11.5321,11.8934,12.166,12.3789,12.5499
0.899616,6.76139,9.14138,10.3455,11.0726,11.5591,11.9074,12.169,12.3728,12.5359
0.909014,7.03156,9.36153,10.5204,11.2146,11.6772,12.0075,12.2552,12.4479,12.6021
0.876819,7.31372,9.86613,11.1833,11.9903,12.536,12.9298,13.2275,13.4604,13.6477
0.970407,8.32709,11.1005,12.4925,13.3284,13.8854,14.2829,14.5808,14.8122,14.9973
0.996283,9.23235,12.4962,14.1895,15.2279,15.9303,16.4372,16.8204,17.1203,17.3613
1.04069,10.2838,13.9464,15.8262,16.967,17.7323,18.2808,18.6933,19.0145,19.2719
0.925215,9.21637,12.255,13.7599,14.6567,15.2518,15.6755,15.9925,16.2386,16.4352
0.904885,9.75525,13.2431,15.0618,16.1824,16.9433,17.4941,17.9115,18.2386,18.5021
0.881848,6.60216,7.89858,8.4506,8.75549,8.94859,9.08174,9.17908,9.25331,9.31179
0.863357,8.43087,11.7402,13.7877,15.2083,16.2582,17.0677,17.7117,18.2365,18.6725
0.871382,10.164,14.6242,17.1438,18.7196,19.783,20.5431,21.1107,21.5494,21.898
0.868816,11.2716,15.9447,18.3372,19.7563,20.6895,21.3489,21.8392,22.2182,22.52
0.838065,11.7341,16.3157,18.5943,19.9495,20.8493,21.4911,21.9723,22.3468,22.6465
0.868333,12.8667,17.6792,20.0757,21.5149,22.4772,23.1667,23.6852,24.0893,24.4132
0.877762,13.12,17.6534,19.8827,21.2149,22.1021,22.7356,23.2107,23.5802,23.8759
0.861118,13.4527,18.1974,20.6096,22.0791,23.0697,23.7832,24.3216,24.7424,25.0804
0.860901,14.2743,19.4713,22.1491,23.7844,24.8865,25.6793,26.2769,26.7435,27.1178
0.883385,15.1424,20.5267,23.2522,24.8958,25.9941,26.7795,27.369,27.8277,28.1948
0.870664,15.1014,20.2803,22.8782,24.4408,25.4846,26.2313,26.7921,27.2288,27.5784
0.857211,15.0686,20.1978,22.7947,24.3677,25.4234,26.1813,26.7518,27.197,27.5539
0.876422,16.4493,22.4475,25.5787,27.5043,28.8084,29.75,30.4618,31.0188,31.4665
0.849024,16.1768,21.8225,24.6695,26.3794,27.5185,28.3312,28.9399,29.4129,29.7908
0.913843,17.3016,23.0699,25.9492,27.6768,28.8292,29.6531,30.2716,30.753,31.1384
0.892084,17.6474,23.8788,27.1076,29.0893,30.4308,31.3997,32.1324,32.706,33.1672
0.874425,18.1648,24.7473,28.1489,30.2222,31.6166,32.6179,33.3717,33.9594,34.4305
0.884137,19.2038,26.1884,29.7639,31.9306,33.3829,34.4238,35.2064,35.8162,36.3047
0.857485,18.4481,24.6948,27.796,29.6476,30.8782,31.7553,32.4122,32.9226,33.3305
0.839748,18.7905,25.426,28.8359,30.9197,32.327,33.342,34.1087,34.7086,35.1907
0.901533,20.4494,27.5555,31.1659,33.3501,34.813,35.8609,36.6483,37.2615,37.7525
0.877442,20.4253,27.5904,31.2512,33.4741,34.9673,36.0396,36.847,37.4769,37.982
0.883859,20.6014,27.6167,31.1538,33.2849,34.7091,35.7281,36.4932,37.0888,37.5656
0.891372,21.5974,29.254,33.2018,35.6135,37.2403,38.4121,39.2965,39.9876,40.5427
0.899996,21.915,29.4456,33.248,35.5377,37.0666,38.1594,38.9793,39.617,40.1273
0.87305,21.9939,29.776,33.7742,36.2109,37.8521,39.0331,39.9237,40.6194,41.1779
0.860575,22.1689,29.9674,33.9379,36.3405,37.9499,39.1029,39.9695,40.6445,41.1851
0.90409,24.2428,32.9713,37.4554,40.1845,42.0204,43.34,44.3343,45.1104,45.733
0.884938,24.2832,32.9161,37.3041,39.9569,41.7332,43.0056,43.9617,44.7065,45.303
0.889834,24.8897,33.6781,38.1475,40.8549,42.6712,43.9744,44.9551,45.7199,46.333
0.896447,25.248,33.9706,38.3754,41.0334,42.812,44.0856,45.0427,45.7881,46.3851
0.884008,24.2553,32.207,36.1698,38.5467,40.1318,41.2644,42.1142,42.7754,43.3045
0.856606,24.278,32.7447,37.1318,39.8246,41.6475,42.9641,43.9596,44.7389,45.3656
0.872274,25.3421,34.2578,38.8289,41.6025,43.4624,44.7954,45.7972,46.5775,47.2023
0.875424,26.1147,35.4579,40.2741,43.2096,45.1859,46.6073,47.6787,48.5154,49.1868
0.877154,26.8354,36.3904,41.2618,44.2091,46.1832,47.5973,48.66,49.4877,50.1506
0.828374,25.8399,34.9557,39.5816,42.3776,44.2503,45.5922,46.6012,47.3874,48.0173
0.865547,21.4922,26.9345,29.4115,30.829,31.7473,32.3908,32.8668,33.2332,33.524
0.872566,25.1749,34.651,40.0644,43.6195,46.1444,48.0338,49.502,50.6765,51.6375
0.848639,25.8028,35.4917,40.5741,43.6569,45.7099,47.1691,48.2569,49.0978,49.7666
0.845538,27.6681,38.3766,43.9411,47.3225,49.5915,51.2194,52.4445,53.4001,54.1664
0.841014,28.6105,39.3504,44.797,48.0757,50.2653,51.8313,53.0071,53.9223,54.655
0.85343,30.203,41.3878,47.0495,50.4689,52.7594,54.4015,55.6366,56.5994,57.3711
0.848624,30.8605,42.0647,47.7223,51.1389,53.4271,55.0671,56.3002,57.2611,58.0311
0.831535,30.5857,41.3897,46.8265,50.1059,52.3006,53.8727,55.0542,55.9747,56.7121
0.843046,31.1729,41.9979,47.4626,50.7664,52.9808,54.5687,55.7632,56.6944,57.4407
0.837962,31.2361,42.0515,47.5419,50.8694,53.1025,54.7051,55.9111,56.8516,57.6056
0.842348,32.1331,43.4923,49.3219,52.8726,55.2624,56.9806,58.2754,59.2862,60.0971
0.828629,31.8599,43.0086,48.6871,52.1264,54.432,56.0849,57.3277,58.2962,59.0722
0.834531,32.2836,43.4644,49.1362,52.5654,54.8624,56.5087,57.7463,58.7108,59.4835
0.82143,32.7357,44.4169,50.4309,54.0992,56.5706,58.3491,59.6903,60.7378,61.5786
0.851923,34.7027,47.0881,53.4183,57.256,59.8297,61.6751,63.0627,64.1441,65.0104
0.843982,34.8103,47.0647,53.2793,57.0335,59.5467,61.3469,62.6999,63.7539,64.5982
0.87064,36.4572,49.3049,55.8494,59.8183,62.483,64.396,65.8362,66.9596,67.8605
0.83862,35.6362,48.1801,54.5683,58.4399,61.0373,62.9006,64.3025,65.3954,66.2714
0.888492,38.0936,51.4002,58.1604,62.252,64.9947,66.9613,68.4403,69.593,70.5168
0.913793,39.1454,52.5929,59.3936,63.5008,66.2506,68.2205,69.7012,70.8547,71.7788
0.845168,36.4367,49.0342,55.4593,59.3609,61.9828,63.8662,65.2847,66.3916,67.2794
0.839658,36.9039,49.8834,56.5375,60.5839,63.3039,65.2576,66.7287,67.8764,68.7967
0.845942,37.9923,51.5058,58.4345,62.6446,65.4726,67.503,69.0313,70.2232,71.1788
0.855133,38.9083,52.6415,59.6321,63.8625,66.697,68.7286,70.2561,71.4462,72.3998
0.840789,38.6618,52.2307,59.1301,63.3074,66.1086,68.1177,69.6291,70.8074,71.7518
0.856834,39.8278,53.7653,60.8529,65.1454,68.0242,70.0891,71.6425,72.8535,73.8241
0.875146,40.6522,54.6647,61.761,66.0498,68.9224,70.9809,72.5285,73.7345,74.7006
0.90592,41.4657,55.4002,62.4181,66.6493,69.4795,71.5058,73.0283,74.2142,75.1639
0.92807,43.2455,58.3038,66.0522,70.7824,73.972,76.2688,78.0017,79.3557,80.4429
0.909628,42.4972,57.1608,64.6199,69.1309,72.1511,74.314,75.9389,77.2042,78.2173
0.992662,46.5483,62.602,70.7745,75.7253,79.0461,81.4283,83.2207,84.6183,85.7386
0.924855,43.3549,58.2363,65.8037,70.3862,73.4591,75.663,77.3208,78.6132,79.6489
0.8754,40.7819,54.6245,61.6395,65.8799,68.7202,70.7557,72.2859,73.4782,74.4335
0.906749,43.614,59.1193,67.1384,72.0411,75.349,77.7316,79.5295,80.9345,82.0627
0.887854,43.5199,58.9856,66.8904,71.6785,74.8866,77.1851,78.9124,80.2577,81.3351
0.860393,43.6078,59.43,67.5632,72.5114,75.8389,78.2299,80.0311,81.4368,82.5644
0.841573,43.645,59.3748,67.3873,72.2353,75.483,77.8103,79.5597,80.9226,82.0143
0.839174,44.3689,60.2617,68.3428,73.2345,76.5144,78.8665,80.636,82.0154,83.121
0.896873,47.5836,64.238,72.6475,77.722,81.1178,83.5499,85.3776,86.8013,87.9417
0.848005,45.5398,61.5311,69.67,74.6075,77.9236,80.3049,82.0979,83.4967,84.6185
0.868966,42.5,55.463,61.7333,65.4325,67.873,69.6037,70.8949,71.8952,72.6929
0.86039,43.7716,58.9568,66.9505,71.9196,75.3155,77.7857,79.6643,81.1414,82.3336
