1.85188,1.89502,1.90985,1.91736,1.92189,1.92492,1.92709,1.92872,1.92999,1.93101
1.38366,1.88593,2.13717,2.28789,2.38835,2.4601,2.5139,2.55575,2.58922,2.6166
1.19213,2.08974,2.5507,2.81756,2.98895,3.10757,3.19425,3.26025,3.31213,3.35395
1.11522,2.40969,3.05783,3.41459,3.63597,3.78577,3.89358,3.9748,4.03813,4.08889
1.0757,2.78014,3.6034,4.04085,4.30792,4.48724,4.61582,4.71247,4.78777,4.84808
1.06034,3.28003,4.35105,4.91773,5.26467,5.49849,5.66669,5.79348,5.89247,5.97189
1.00757,3.65398,4.90074,5.5484,5.94141,6.2048,6.3935,6.5353,6.64574,6.73417
1.15493,4.79439,6.44579,7.28931,7.79806,8.13804,8.38124,8.56381,8.70592,8.81967
1.03066,4.8396,6.52222,7.37802,7.89469,8.24046,8.4881,8.67421,8.81918,8.93531
0.973818,4.99483,6.67404,7.51348,8.01631,8.35118,8.5902,8.76937,8.90867,9.02008
1.10927,6.23743,8.35287,9.42275,10.0696,10.5032,10.8141,11.0481,11.2306,11.3768
0.960477,5.95349,8.02351,9.08022,9.72152,10.1521,10.4612,10.6937,10.8751,11.0205
0.952165,6.33703,8.49313,9.57676,10.2278,10.6618,10.9719,11.2043,11.3851,11.5297
0.948734,6.87276,9.26372,10.4808,11.2186,11.7138,12.0692,12.3368,12.5455,12.7129
0.949232,7.38945,9.95302,11.2503,12.033,12.5564,12.931,13.2123,13.4313,13.6066
0.943764,7.53687,9.98851,11.199,11.9204,12.3992,12.7402,12.9955,13.1937,13.3521
0.982116,8.53702,11.517,13.0552,13.9975,14.6348,15.0948,15.4425,15.7147,15.9335
1.01528,9.46396,12.7923,14.4887,15.5144,16.2006,16.6916,17.0601,17.3468,17.5762
1.02053,9.95771,13.3653,15.0741,16.0992,16.7822,17.2699,17.6356,17.9199,18.1474
0.976064,10.1458,13.6866,15.4862,16.5765,17.3082,17.8334,18.2288,18.5372,18.7845
1.00849,10.7529,14.3405,16.1256,17.1931,17.9031,18.4093,18.7884,19.083,19.3184
0.92774,10.3761,13.9079,15.6992,16.7849,17.5138,18.0373,18.4315,18.7391,18.9858
0.966379,11.5158,15.5694,17.6477,18.9117,19.7613,20.3714,20.8309,21.1892,21.4765
0.925268,11.5554,15.5859,17.6245,18.8525,19.6726,20.2588,20.6987,21.0409,21.3147
0.922812,12.1621,16.4482,18.6256,19.9427,20.8253,21.4581,21.9341,22.3051,22.6024
0.949954,12.5938,16.7563,18.8126,20.0376,20.8505,21.4292,21.8622,22.1983,22.4668
0.939612,13.2629,17.9253,20.3249,21.7925,22.784,23.4992,24.0395,24.4623,24.8021
0.963443,14.1572,19.086,21.5798,23.0823,24.0855,24.8023,25.3398,25.7578,26.0921
0.977983,15.1139,20.4509,23.1654,24.8082,25.9094,26.699,27.2929,27.7559,28.1269
0.924038,14.8561,20.0586,22.6856,24.2686,25.3265,26.0833,26.6516,27.0939,27.448
0.956439,15.5983,20.8659,23.4933,25.068,26.1172,26.8665,27.4285,27.8655,28.2151
0.946903,15.5282,20.6394,23.1893,24.7207,25.743,26.474,27.0229,27.4501,27.7922
0.93772,15.6362,20.8215,23.4403,25.0238,26.0852,26.8464,27.4189,27.8652,28.2229
0.937058,16.1338,21.6159,24.4102,26.105,27.2424,28.0584,28.6724,29.151,29.5347
0.96519,17.2944,23.2994,26.3665,28.2257,29.4724,30.3664,31.0386,31.5625,31.9823
0.95245,17.1469,22.8591,25.7087,27.4131,28.5466,29.3546,29.9598,30.4299,30.8057
0.951685,17.5346,23.4445,26.4332,28.2402,29.4515,30.3204,30.9743,31.4842,31.8929
0.949271,18.324,24.7382,28.0265,30.0263,31.3708,32.3367,33.064,33.6315,34.0865
0.96506,19.0831,25.6487,28.9562,30.9442,32.2698,33.2165,33.9262,34.478,34.9193
0.965941,19.3425,25.8578,29.1206,31.0798,32.387,33.3213,34.0225,34.5682,35.005
0.937738,19.4983,26.2562,29.6995,31.7893,33.1933,34.2017,34.9611,35.5537,36.029
0.931285,19.8581,26.6964,30.1504,32.2317,33.6224,34.6169,35.3634,35.9442,36.409
0.938832,20.245,27.0748,30.4987,32.5557,33.9282,34.9092,35.6454,36.2182,36.6766
0.936277,20.7843,27.921,31.543,33.7361,35.2072,36.2626,37.0568,37.6761,38.1726
0.941247,21.4419,28.8242,32.5616,34.818,36.3277,37.4085,38.2203,38.8525,39.3586
0.931348,21.7755,29.2862,33.0851,35.3775,36.911,38.009,38.8339,39.4763,39.9908
0.929804,22.1782,29.7756,33.6051,35.912,37.4539,38.5571,39.3855,40.0305,40.5468
0.914689,22.6148,30.527,34.5557,36.9975,38.636,39.8117,40.6964,41.3864,41.9395
0.918815,23.2633,31.3377,35.4155,37.8728,39.5148,40.6893,41.571,42.2573,42.8065
0.935782,24.2591,32.6509,36.8857,39.4388,41.1462,42.3684,43.2866,44.0017,44.5743
0.91746,24.5974,33.2232,37.604,40.2553,42.0325,43.3068,44.2653,45.0123,45.611
0.950449,25.9571,34.9225,39.4338,42.1481,43.9602,45.2557,46.2279,46.9843,47.5897
0.931246,25.8397,34.6987,39.1608,41.8504,43.6492,44.9371,45.9047,46.6584,47.2621
0.956362,26.5667,35.4683,39.9257,42.6042,44.392,45.67,46.6291,47.3755,47.9728
0.946432,26.1912,34.8362,39.1702,41.7784,43.5212,44.7683,45.7049,46.4342,47.0181
0.962195,26.7001,35.5428,40.0062,42.7018,44.5068,45.8002,46.7724,47.53,48.1369
0.956187,27.9777,37.9236,43.0846,46.2453,48.3796,49.9175,51.0784,51.9857,52.7143
0.925595,28.1791,38.2644,43.41,46.5181,48.5955,50.081,51.1957,52.0627,52.7563
0.941668,29.4283,39.8093,45.0421,48.1883,50.2879,51.7886,52.9147,53.791,54.4923
0.973173,30.9566,41.7118,47.1167,50.3688,52.5417,54.0965,55.2641,56.1733,56.9014
0.921392,30.0497,40.5304,45.8285,49.0292,51.1731,52.7095,53.8647,54.765,55.4863
0.921508,29.662,39.4998,44.3796,47.2958,49.235,50.6177,51.6534,52.4581,53.1013
0.946898,31.2637,42.0104,47.4898,50.8221,53.0647,54.6777,55.8938,56.8436,57.606
0.930132,30.2014,40.1234,45.065,48.0215,49.9879,51.3896,52.4391,53.2543,53.9057
0.950571,32.0339,43.1853,48.923,52.4265,54.7898,56.4922,57.7772,58.7816,59.5884
0.915501,31.8796,43.1408,48.8918,52.3735,54.7051,56.3749,57.6292,58.6057,59.3875
0.917868,32.5341,43.8701,49.5893,53.0306,55.3279,56.9702,58.2025,59.1615,59.9289
0.965373,34.9815,47.1826,53.3521,57.076,59.5687,61.3545,62.6968,63.7427,64.5806
0.933606,33.1697,44.1017,49.513,52.7427,54.8888,56.4184,57.5638,58.4535,59.1646
0.917344,33.2315,44.5702,50.3478,53.8613,56.2263,57.9275,59.2104,60.2125,61.017
0.932632,34.8564,47.0802,53.3374,57.1373,59.6883,61.5185,62.8953,63.9684,64.8284
0.927531,34.9272,46.8982,52.9164,56.5302,58.9389,60.6586,61.9478,62.9502,63.7517
0.919942,34.8462,46.6725,52.62,56.2011,58.5947,60.308,61.595,62.5974,63.4001
0.969552,37.5284,50.5206,57.1331,61.1427,63.8345,65.7667,67.2211,68.3554,69.265
0.945716,37.3285,50.2886,56.859,60.8272,63.4824,65.3834,66.8114,67.9233,68.8135
0.966364,38.1562,51.0744,57.5472,61.4327,64.0236,65.8744,67.2626,68.3424,69.2062
0.919512,37.0537,49.8615,56.3769,60.3281,62.9814,64.8867,66.3213,67.4406,68.3383
0.920435,37.4247,50.228,56.6841,60.5726,63.1699,65.0273,66.4213,67.5059,68.3739
0.918029,38.0289,51.1738,57.8406,61.8725,64.5741,66.5107,67.9671,69.1022,70.0119
0.908556,38.3278,51.6176,58.3496,62.4151,65.136,67.0846,68.5487,69.689,70.6022
0.920769,39.4749,53.1669,60.0986,64.2844,67.0861,69.0928,70.6008,71.7755,72.7165
0.920445,39.2572,52.4871,59.1098,63.0855,65.7369,67.6312,69.0521,70.1575,71.0418
0.91217,39.3431,52.7494,59.5378,63.6447,66.3984,68.3735,69.8596,71.0183,71.9471
0.904315,26.799,32.3386,34.739,36.0795,36.9351,37.5285,37.9641,38.2976,38.561
0.910254,31.5828,42.7799,49.3206,53.6913,56.8359,59.212,61.0727,62.5701,63.8016
0.902187,35.5527,49.9453,57.9279,62.9068,66.2745,68.6907,70.5029,71.9095,73.0314
0.948025,39.698,55.0951,62.9415,67.6033,70.6747,72.847,74.4637,75.7137,76.7089
0.9219,41.1274,56.9002,64.8532,69.6198,72.7977,75.07,76.7765,78.1057,79.1706
0.930532,41.9937,56.9464,64.2808,68.6343,71.52,73.5741,75.1109,76.3042,77.2576
0.917219,43.1054,58.6893,66.555,71.3211,74.5243,76.8268,78.5621,79.9172,81.0048
0.907413,43.6371,59.1482,66.9404,71.6342,74.771,77.0148,78.6993,80.0103,81.0595
0.919657,44.8103,60.4169,68.2321,72.9312,76.0688,78.3125,79.9967,81.3075,82.3568
0.907363,44.7209,60.166,67.9314,72.613,75.7448,77.9875,79.6727,80.9854,82.0369
0.920023,45.2267,60.5014,68.1464,72.7415,75.8087,78.0017,79.6475,80.9282,81.9532
0.909498,44.293,59.0033,66.3721,70.8056,73.7676,75.8867,77.4781,78.7171,79.7092
0.906395,45.6347,61.6125,69.8334,74.8513,78.2342,80.6694,82.5065,83.9416,85.0937
0.914461,46.8505,63.198,71.4893,76.49,79.831,82.2197,84.0119,85.4061,86.5215
0.917697,47.7327,64.3368,72.7321,77.7949,81.1807,83.6044,85.4252,86.8432,87.9789
0.908748,47.7893,64.3104,72.6481,77.6754,81.0376,83.4447,85.253,86.6614,87.7892
0.900111,48.0957,64.784,73.2297,78.3314,81.7475,84.195,86.0347,87.4681,88.6163
