1.90782,1.92289,1.92797,1.93051,1.93205,1.93307,1.9338,1.93435,1.93477,1.93512
1.40784,1.87579,2.10683,2.24452,2.33593,2.40103,2.44976,2.48759,2.51782,2.54253
1.32657,2.31232,2.82593,3.12645,3.32086,3.45611,3.55532,3.63109,3.69078,3.73899
1.54005,3.33369,4.23842,4.73615,5.04423,5.25214,5.40143,5.51365,5.60101,5.67092
1.38965,3.62079,4.70266,5.27516,5.62335,5.85652,6.02337,6.14862,6.24609,6.32409
1.4376,4.49595,5.96793,6.74086,7.21171,7.52802,7.75506,7.92593,8.05917,8.16598
1.1373,4.0489,5.35095,6.00735,6.39919,6.65914,6.8441,6.98239,7.08969,7.17536
1.35254,5.39874,7.13247,8.00279,8.52472,8.87272,9.1214,9.308,9.45322,9.56946
1.09424,4.90005,6.51264,7.32902,7.82182,8.15169,8.388,8.56562,8.704,8.81485
1.07417,5.31513,7.07034,7.954,8.48533,8.83988,9.09325,9.28331,9.43115,9.54943
1.07357,5.84495,7.79497,8.7779,9.3697,9.76506,10.0479,10.2602,10.4254,10.5577
1.05531,6.28802,8.40411,9.47065,10.1127,10.5416,10.8484,11.0786,11.2579,11.4013
1.15425,7.46913,9.9877,11.2537,12.0148,12.5228,12.8858,13.1582,13.3702,13.5397
1.08068,7.64646,10.278,11.609,12.4121,12.9494,13.334,13.623,13.8481,14.0284
1.1316,8.70383,11.7223,13.2445,14.1607,14.7724,15.2098,15.538,15.7934,15.9978
1.01489,8.28829,11.0902,12.4842,13.3175,13.8717,14.2668,14.5627,14.7927,14.9765
1.00372,8.73639,11.6988,13.184,14.0775,14.6745,15.1017,15.4225,15.6724,15.8724
1.0706,10.0079,13.4621,15.2068,16.2598,16.9644,17.469,17.8481,18.1433,18.3797
1.14696,11.4287,15.3743,17.3578,18.5503,19.3459,19.9144,20.3409,20.6726,20.938
1.01206,10.344,13.7329,15.4011,16.3933,17.0511,17.5191,17.8692,18.141,18.358
0.949626,5.88849,6.7977,7.16834,7.37016,7.49724,7.58466,7.64848,7.69714,7.73547
0.987327,8.39493,11.6397,13.7372,15.2385,16.3731,17.2628,17.9799,18.5705,19.0655
1.0223,10.4863,15.0052,17.5644,19.154,20.217,20.9697,21.5271,21.9547,22.2922
0.994664,11.5787,16.3576,18.7935,20.2265,21.1628,21.8212,22.3093,22.6856,22.9847
0.961959,12.063,16.6287,18.8475,20.1469,21.0013,21.6067,22.0585,22.4088,22.6885
0.995494,13.5927,18.6822,21.2037,22.7146,23.7241,24.4473,24.9911,25.4151,25.7549
1.00322,14.0863,18.9413,21.2916,22.6821,23.6018,24.2554,24.7436,25.1222,25.4244
0.990831,14.4579,19.3832,21.8213,23.2858,24.2645,24.9653,25.4919,25.9022,26.2309
0.928583,14.0707,18.8491,21.2355,22.6713,23.6305,24.3167,24.8319,25.2328,25.5538
0.947449,14.9688,20.085,22.6552,24.2033,25.2379,25.978,26.5337,26.9663,27.3126
0.975158,16.1569,21.7493,24.57,26.2704,27.4072,28.2206,28.8314,29.307,29.6877
0.96025,16.493,22.1439,24.9723,26.6689,27.7993,28.6065,29.2116,29.682,30.0583
0.989549,17.7965,23.9692,27.0793,28.9535,30.2066,31.1035,31.7773,32.302,32.7222
0.967474,17.682,23.5952,26.5246,28.2726,29.4336,30.2608,30.8799,31.3607,31.7449
0.975181,18.3811,24.5847,27.6982,29.5736,30.8278,31.7259,32.4009,32.9267,33.348
0.9786,19.0557,25.5297,28.7866,30.7477,32.058,32.9952,33.6988,34.2463,34.6846
0.956142,18.851,25.0976,28.2046,30.0629,31.2991,32.1807,32.8412,33.3544,33.7646
0.984894,20.2883,27.26,30.7987,32.942,34.38,35.4119,36.1885,36.7942,37.2798
0.970562,20.2434,26.9908,30.3474,32.3528,33.6852,34.6344,35.3448,35.8964,36.337
0.956793,20.2537,26.9606,30.3103,32.3209,33.6625,34.6215,35.3413,35.9015,36.3499
0.947764,20.5189,27.3749,30.8221,32.8984,34.2864,35.2796,36.0256,36.6064,37.0715
0.963073,21.5319,28.8492,32.5453,34.7747,36.2656,37.3326,38.1341,38.7581,39.2577
0.946224,21.2325,28.2153,31.6817,33.7513,35.1263,36.1059,36.8392,37.4087,37.8638
0.973963,22.9154,30.8412,34.8837,37.3389,38.9893,40.1752,41.0687,41.7662,42.3257
0.983456,23.2517,30.9698,34.7987,37.0811,38.595,39.6722,40.4776,41.1024,41.6012
0.998735,23.8707,31.7533,35.6895,38.0529,39.6302,40.7582,41.605,42.2643,42.7922
0.963967,24.0724,32.3815,36.6156,39.1846,40.9098,42.1482,43.0805,43.8077,44.3907
0.954416,24.1399,32.2501,36.2939,38.7111,40.3173,41.4614,42.3177,42.9825,43.5135
0.982161,25.7364,34.5821,39.052,41.7506,43.5576,44.8524,45.826,46.5848,47.1928
0.967247,25.5044,33.9917,38.2057,40.7219,42.3938,43.585,44.4766,45.169,45.7223
0.96461,26.0546,34.8511,39.277,41.9454,43.7309,45.0097,45.971,46.72,47.3201
0.975388,26.8169,35.8422,40.3688,43.0889,44.9036,46.2004,47.1731,47.9298,48.5351
0.997799,27.4446,36.4551,40.9339,43.6128,45.3953,46.6669,47.6197,48.3602,48.9523
0.981643,26.909,35.6263,39.9684,42.5722,44.3083,45.5488,46.4795,47.2036,47.783
0.96973,27.5656,36.9518,41.74,44.648,46.6022,48.0058,49.0629,49.8876,50.549
0.957098,28.1084,37.8017,42.7093,45.6665,47.6413,49.0528,50.1116,50.9351,51.5939
0.958811,28.8232,38.6855,43.6302,46.5956,48.5712,49.9814,51.0386,51.8605,52.5179
0.962966,29.8359,40.1232,45.2994,48.4149,50.4963,51.9853,53.1035,53.9741,54.6711
0.955999,17.8911,20.9809,22.2527,22.9459,23.3822,23.6821,23.9009,24.0675,24.1987
0.939005,22.3614,30.6776,35.8228,39.4013,42.0511,44.0973,45.7269,47.0562,48.1617
0.939693,26.0365,36.951,43.0653,46.8659,49.418,51.2343,52.5861,53.6279,54.4536
0.947477,29.1433,41.1062,47.2437,50.8816,53.2715,54.9582,56.2117,57.1799,57.9503
0.959605,30.6347,41.9958,47.494,50.7059,52.8129,54.303,55.4133,56.273,56.9585
0.903448,17.8557,21.1077,22.4128,23.1194,23.5638,23.8696,24.0929,24.2633,24.3976
0.90313,23.1406,32.1164,37.6716,41.5534,44.4399,46.6764,48.4623,49.9222,51.1384
0.924196,28.1883,40.6194,47.6324,52.0117,54.9594,57.0599,58.6239,59.8295,60.7851
0.932685,31.5947,44.8446,51.5704,55.5276,58.1132,59.9308,61.2774,62.3151,63.1393
0.93129,33.6541,46.7612,53.1553,56.9119,59.3867,61.1426,62.4543,63.472,64.285
0.92237,34.5805,47.2012,53.3225,56.9484,59.3531,61.0666,62.3502,63.348,64.1459
0.934942,34.9887,46.8354,52.5595,55.954,58.2051,59.8084,61.0085,61.9407,62.6857
0.946377,35.6552,47.5684,53.461,57.0021,59.3692,61.0641,62.3377,63.33,64.1248
0.937073,36.7655,49.5759,56.0835,60.0362,62.6924,64.6001,66.0365,67.157,68.0555
0.940569,37.2258,49.827,56.1001,59.8506,62.3427,64.118,65.4464,66.4776,67.3014
0.938589,37.2322,49.6054,55.7582,59.4428,61.8973,63.6499,64.9643,65.9867,66.8047
0.920226,36.9375,49.302,55.5091,59.2474,61.7466,63.5356,64.8795,65.9261,66.7642
0.922666,37.6906,50.4387,56.861,60.731,63.3176,65.1682,66.5578,67.6395,68.5054
0.927321,37.8387,50.3583,56.5942,60.3258,62.8087,64.5797,65.9064,66.9374,67.7617
0.945267,39.8665,53.588,60.5631,64.7898,67.6264,69.6621,71.1945,72.3896,73.3479
0.942939,40.7044,54.717,61.7712,66.011,68.8383,70.8575,72.3714,73.5484,74.4896
0.922179,40.4583,54.2642,61.1747,65.3196,68.0821,70.0549,71.5344,72.685,73.6055
0.934511,40.6281,53.9835,60.5876,64.5276,67.1456,69.0116,70.4089,71.4945,72.3623
0.958608,42.8164,57.4179,64.8194,69.3037,72.3139,74.475,76.1021,77.3715,78.3895
0.965431,43.4873,58.135,65.4703,69.8703,72.8012,74.8926,76.4598,77.6777,78.6514
0.949642,42.2347,55.9964,62.8135,66.8839,69.5896,71.5186,72.9635,74.0862,74.9837
0.940457,42.251,56.2902,63.3622,67.6309,70.4893,72.5379,74.0783,75.2789,76.2409
0.94459,40.7473,53.4732,59.7211,63.433,65.8916,67.6396,68.946,69.9594,70.7683
0.943176,42.4079,56.9092,64.3938,68.9775,72.0763,74.3124,76.0025,77.325,78.3881
0.929663,42.0451,56.1638,63.2499,67.4937,70.3147,72.3239,73.8269,74.9933,75.9245
0.937617,43.3142,58.0752,65.5223,70.0083,73.0066,75.1524,76.7642,78.0194,79.0247
0.936074,44.6402,60.1572,68.0121,72.7513,75.921,78.19,79.8943,81.2214,82.2839
0.928,45.5085,61.3625,69.3428,74.1403,77.3411,79.6283,81.3441,82.6787,83.7464
0.935746,45.4889,60.574,68.0084,72.4313,75.3641,77.4512,79.0124,80.2242,81.1922
0.953844,46.4415,61.8065,69.4746,74.0831,77.1619,79.3652,81.0203,82.3095,83.342
0.934434,46.2603,61.8717,69.7525,74.5117,77.698,79.9806,81.6962,83.0326,84.1031
0.934895,46.9471,62.8451,70.8441,75.6563,78.8682,81.1638,82.8861,84.2259,85.2978
0.956464,49.4732,66.5991,75.269,80.5023,84.0038,86.511,88.3946,89.8617,91.0366
0.940035,48.5307,64.7543,72.8056,77.6096,80.7998,83.0719,84.7723,86.0925,87.1473
0.937649,49.1657,65.8085,74.1766,79.2199,82.5938,85.0104,86.8268,88.2421,89.376
0.931369,49.0036,65.3815,73.563,78.4692,81.7383,84.0723,85.8221,87.1825,88.2704
0.922721,49.5142,66.3668,74.8715,80.0031,83.437,85.8963,87.7446,89.1844,90.3376
