1.91018,1.93197,1.93934,1.94305,1.94528,1.94677,1.94784,1.94864,1.94926,1.94976
1.68411,2.24242,2.51646,2.67926,2.78713,2.86385,2.92122,2.96573,3.00127,3.03031
1.24008,2.13261,2.58886,2.85341,3.02369,3.14178,3.22823,3.29416,3.34604,3.38791
1.72995,3.71424,4.71854,5.27519,5.6219,5.857,6.02642,6.15415,6.25381,6.33371
1.12132,2.97244,3.90734,4.41339,4.72501,4.93525,5.08643,5.20032,5.28916,5.3604
1.07848,3.25716,4.24481,4.74395,5.04071,5.23681,5.37591,5.47967,5.56002,5.62408
1.10661,3.94969,5.26854,5.95595,6.37626,6.66002,6.8646,7.01913,7.14002,7.23718
1.0955,4.43242,5.90725,6.65461,7.10337,7.40223,7.6154,7.77505,7.89905,7.99814
1.06853,4.91236,6.59335,7.44914,7.96629,8.31259,8.56073,8.74729,8.89266,9.00914
1.01725,5.13721,6.85204,7.70894,8.22163,8.56268,8.80588,8.98805,9.12958,9.24271
1.01774,5.16869,6.67407,7.39412,7.81644,8.0942,8.29083,8.43736,8.55079,8.64121
1.00898,5.72038,7.60762,8.58748,9.19199,9.60317,9.90126,10.1274,10.3049,10.4479
1.00656,6.57342,8.98381,10.2565,11.0403,11.5703,11.9522,12.2402,12.4651,12.6455
1.12199,8.12651,11.0829,12.5843,13.4847,14.083,14.5089,14.8274,15.0745,15.2718
1.24219,9.7727,13.2416,14.9737,16.0088,16.697,17.1878,17.5555,17.8413,18.0699
1.01385,8.55402,11.5304,13.0132,13.9017,14.4939,14.9171,15.2346,15.4816,15.6793
0.981585,8.33655,10.9729,12.2498,13.0044,13.5031,13.8573,14.1218,14.3269,14.4906
1.15726,10.6994,14.3883,16.2868,17.451,18.2393,18.8089,19.2399,19.5775,19.8491
1.01052,10.0289,13.5365,15.3211,16.3993,17.12,17.6353,18.0219,18.3225,18.5629
0.949387,9.94633,13.3738,15.0933,16.1244,16.8111,17.3012,17.6686,17.9541,18.1825
0.983028,10.8539,14.5823,16.4546,17.5807,18.3328,18.8707,19.2747,19.5892,19.841
1.36814,15.8496,21.2675,23.9865,25.6216,26.7133,27.494,28.0799,28.536,28.901
1.04644,12.4045,16.4999,18.5323,19.7473,20.5557,21.1323,21.5643,21.9,22.1685
0.956042,11.6327,15.4516,17.3619,18.5109,19.2787,19.8281,20.2407,20.5621,20.8194
1.02248,13.2485,17.8328,20.1814,21.6109,22.5728,23.2642,23.7852,24.1918,24.518
1.08937,14.5594,19.4711,21.929,23.4004,24.3788,25.076,25.5979,26.0031,26.3269
1.1049,13.2936,16.9716,18.6965,19.6979,20.3524,20.8137,21.1565,21.4212,21.6318
0.957263,13.0332,17.6854,20.2093,21.8098,22.9188,23.7338,24.3584,24.8524,25.2532
1.08588,15.7768,21.4403,24.3523,26.1083,27.2767,28.108,28.7287,29.2095,29.5926
0.966533,14.8705,20.1746,22.8504,24.4543,25.5217,26.2832,26.8539,27.2975,27.6523
0.950856,14.3782,18.9958,21.2306,22.5466,23.4141,24.0292,24.488,24.8436,25.1271
1.12785,18.3184,24.7551,28.0722,30.1067,31.4849,32.4814,33.2357,33.8266,34.3023
1.04835,17.6424,23.7312,26.7915,28.6279,29.8501,30.7215,31.3736,31.88,32.2843
1.066,18.9608,25.6613,29.0617,31.1173,32.4943,33.4812,34.2233,34.8016,35.2651
1.02951,19.028,25.6583,28.9826,30.9771,32.306,33.2548,33.966,34.5189,34.9611
1.08742,20.7627,27.9148,31.4934,33.6417,35.0748,36.0991,36.8676,37.4657,37.9443
0.950599,18.5977,24.9148,28.0712,29.9661,31.2301,32.1335,32.8114,33.3388,33.7609
1.03771,20.8,27.8397,31.3704,33.495,34.9144,35.9299,36.6925,37.2861,37.7614
1.05498,21.7139,29.0827,32.7904,35.0241,36.5172,37.5857,38.3881,39.0128,39.5129
1.02693,21.5595,28.8165,32.4551,34.6415,36.1005,37.1431,37.9254,38.5339,39.0209
1.06474,23.0453,30.9052,34.8748,37.2706,38.8739,40.0222,40.8852,41.5574,42.0959
1.02768,21.7621,28.7027,32.112,34.1374,35.4791,36.4331,37.1462,37.6995,38.1412
1.01697,21.8541,29.0177,32.6351,34.8248,36.2945,37.3498,38.1445,38.7647,39.2621
0.997931,19.9988,25.8872,28.7401,30.4238,31.5343,32.3216,32.9087,33.3633,33.7257
1.14935,22.5222,29.3434,32.7754,34.8527,36.2477,37.2499,38.0051,38.5946,39.0677
1.00905,21.9728,29.99,34.3129,37.0188,38.8715,40.2191,41.2432,42.0477,42.6963
1.03571,24.0191,32.8388,37.3685,40.0951,41.9084,43.1989,44.1633,44.9107,45.5069
0.997365,24.5967,33.6463,38.2265,40.9764,42.809,44.1177,45.0992,45.8628,46.4738
1.15784,29.0769,39.1708,44.1424,47.0953,49.0518,50.4437,51.4847,52.2928,52.9381
1.01342,25.4552,33.9216,38.092,40.5823,42.2399,43.4234,44.3111,45.0016,45.5541
1.02495,27.0347,36.5028,41.3333,44.2745,46.2555,47.6811,48.7561,49.5959,50.27
0.979489,26.6658,35.9566,40.6371,43.4525,45.3304,46.6715,47.6768,48.4583,49.0831
1.09764,29.9005,39.8769,44.8161,47.7627,49.72,51.1145,52.1587,52.9697,53.6179
1.01056,25.5903,33.1973,36.8539,39.0081,40.4293,41.4376,42.1903,42.7737,43.2392
1.01907,27.6476,37.2408,42.2896,45.427,47.5702,49.1284,50.3129,51.2439,51.9951
1.08556,30.0357,40.3025,45.4965,48.6144,50.6875,52.1632,53.2662,54.1215,54.8038
1.02522,29.8402,40.4419,45.8619,49.1461,51.3486,52.9285,54.1172,55.0441,55.7872
0.998017,30.1952,40.8944,46.292,49.536,51.6992,53.2442,54.4027,55.3036,56.0241
0.989659,30.1858,40.4381,45.515,48.5422,50.5525,51.9848,53.0571,53.89,54.5556
1.0131,30.352,40.1619,44.9864,47.8624,49.7738,51.1368,52.158,52.9517,53.5864
1.02106,31.4574,42.1062,47.5242,50.8184,53.0354,54.6298,55.832,56.7708,57.5243
0.934754,12.5687,14.0278,14.5945,14.8956,15.0821,15.209,15.3009,15.3705,15.4251
0.963478,18.6922,26.2245,31.4813,35.4498,38.5707,41.0948,43.1806,44.934,46.4292
0.972702,24.6401,37.2863,45.1797,50.3236,53.8492,56.3783,58.2634,59.7138,60.8595
0.953086,26.5641,38.1816,43.9727,47.2628,49.3494,50.7827,51.826,52.6191,53.2423
0.930642,28.4235,40.0883,45.7779,49.114,51.3154,52.8824,54.0571,54.9717,55.7046
0.93003,30.4529,42.3224,48.1168,51.5614,53.8531,55.4901,56.7186,57.6748,58.4401
1.12874,39.9729,55.4775,63.1992,67.8497,70.9635,73.1955,74.874,76.1823,77.2307
0.9279,34.3507,47.0554,53.3085,57.0404,59.521,61.289,62.6129,63.6412,64.4629
0.988579,36.2978,48.5864,54.5269,58.0438,60.3711,62.0259,63.2629,64.2229,64.9895
1.02394,38.9328,52.503,59.337,63.4828,66.271,68.276,69.7877,70.9684,71.9162
0.967908,34.5594,45.2224,50.3543,53.3765,55.3672,56.777,57.8275,58.6404,59.2881
0.989942,37.1759,49.9961,56.6406,60.7337,63.5139,65.5273,67.0534,68.2504,69.2144
0.98275,38.3334,51.8364,58.7359,62.9098,65.701,67.6966,69.1935,70.3573,71.2878
0.972585,39.228,53.0858,60.0953,64.3137,67.1289,69.1407,70.6501,71.8242,72.7638
0.947987,38.294,51.2534,57.6759,61.5055,64.0485,65.86,67.2161,68.2694,69.111
0.980449,40.9538,55.2153,62.4386,66.8115,69.7459,71.8522,73.438,74.6751,75.6673
1.49869,59.1605,77.5849,86.4941,91.743,95.2014,97.6514,99.4775,100.891,102.017
0.98361,41.1668,55.5995,63.1135,67.7491,70.9006,73.1845,74.9164,76.2753,77.37
1.04054,43.5669,58.254,65.5961,69.9819,72.8912,74.9597,76.5048,77.7023,78.6575
0.956127,41.598,56.174,63.602,68.105,71.1277,73.2977,74.9316,76.2065,77.229
0.928828,41.4239,55.8654,63.1387,67.5102,70.4257,72.5082,74.0697,75.2838,76.2549
1.07365,48.9806,65.9911,74.5378,79.6759,83.1057,85.5579,87.3984,88.8307,89.9772
0.950345,42.3026,56.0684,62.8245,66.8389,69.4994,71.3922,72.8078,73.9064,74.7839
0.950098,39.9367,52.1111,58.0582,61.5967,63.9464,65.6212,66.8758,67.8507,68.6303
1.11708,49.9153,67.3654,76.5306,82.2078,86.0747,88.8794,91.0071,92.6767,94.0218
0.928897,42.6571,57.5767,65.1659,69.7345,72.7779,74.9476,76.5713,77.8314,78.8376
0.977248,46.059,62.1459,70.2553,75.1273,78.3763,80.6975,82.4389,83.7936,84.8777
0.96482,45.7838,61.3695,69.1381,73.7872,76.882,79.0906,80.7461,82.0332,83.0626
0.957101,45.6496,61.0145,68.6913,73.3014,76.3783,78.5784,80.23,81.5156,82.5446
0.936306,35.2497,43.8474,47.7298,49.944,51.3755,52.3771,53.1172,53.6864,54.1377
0.977185,42.3203,57.6456,66.2884,71.9206,75.8996,78.8656,81.1638,82.9977,84.4957
1.03126,48.0904,66.2256,75.7836,81.5961,85.4733,88.232,90.2902,91.8823,93.1491
0.96324,47.045,64.3808,73.1261,78.3398,81.7927,84.2468,86.0805,87.5029,88.6386
0.949236,47.9361,65.1691,73.7589,78.8899,82.3032,84.7391,86.5655,87.986,89.1225
0.942432,47.0756,62.883,70.6116,75.1987,78.239,80.4029,82.0219,83.2789,84.2831
1.02679,53.3225,72.0348,81.5364,87.3115,91.199,93.9961,96.1056,97.7535,99.0766
0.931308,48.6932,65.3037,73.5868,78.5465,81.8463,84.1988,85.9603,87.3283,88.4213
0.954245,49.8865,66.618,74.9664,79.9769,83.3193,85.7083,87.5012,88.8966,90.0134
0.910114,16.4738,17.9731,18.5366,18.8324,19.0148,19.1386,19.228,19.2957,19.3487
