1.71304,1.76307,1.78041,1.7892,1.79452,1.79809,1.80064,1.80256,1.80406,1.80526
1.38755,1.94391,2.23178,2.40762,2.52617,2.6115,2.67586,2.72612,2.76647,2.79957
1.13367,1.95389,2.35446,2.57903,2.72023,2.81651,2.8861,2.93864,2.97966,3.01255
1.16659,2.64188,3.44607,3.91441,4.21623,4.426,4.58002,4.69782,4.79081,4.86607
1.12006,3.1397,4.20317,4.78374,5.14094,5.38114,5.55321,5.68236,5.78279,5.86307
1.09422,3.62771,4.87594,5.52567,5.91773,6.17926,6.36602,6.50605,6.61494,6.70204
1.12267,4.34148,5.87195,6.66181,7.14052,7.46162,7.69201,7.86541,8.00066,8.1091
1.10276,4.83918,6.53333,7.39545,7.91561,8.26356,8.51266,8.69981,8.84555,8.96225
1.02802,4.97575,6.67234,7.52624,8.03991,8.38302,8.62846,8.81276,8.95623,9.0711
1.26317,6.82664,9.22321,10.4524,11.2012,11.7055,12.0684,12.3421,12.5558,12.7274
1.06284,6.23049,8.37075,9.45219,10.104,10.5395,10.851,11.0849,11.2668,11.4124
1.23223,7.81244,10.4945,11.8554,12.6791,13.2314,13.6276,13.9256,14.158,14.3443
1.29732,9.0226,12.2197,13.8641,14.8663,15.5411,16.0264,16.3922,16.6778,16.907
1.08642,8.20351,11.1246,12.6173,13.5219,14.1283,14.563,14.8898,15.1445,15.3485
1.24219,9.88433,13.3477,15.1168,16.1916,16.9142,17.4333,17.8245,18.1299,18.3748
1.26579,10.8447,14.6954,16.6664,17.8635,18.6675,19.2446,19.6789,20.0177,20.2892
1.04818,9.60256,13.0106,14.7461,15.7965,16.5003,17.0047,17.3839,17.6794,17.9161
1.1608,11.2584,15.2204,17.2303,18.4452,19.259,19.8421,20.2805,20.6221,20.8958
1.21441,12.3521,16.644,18.815,20.1263,21.0044,21.6335,22.1064,22.4748,22.77
1.13019,12.078,16.2777,18.4102,19.7015,20.5674,21.1886,21.6559,22.0203,22.3123
1.04198,10.3559,13.3877,14.8367,15.6863,16.2447,16.6397,16.9339,17.1615,17.3428
1.27832,14.1536,19.2073,21.9257,23.6384,24.8198,25.6848,26.346,26.8679,27.2905
1.09758,13.1108,17.9214,20.4298,21.9585,22.9839,23.7179,24.2687,24.6969,25.0393
1.07252,13.5173,18.3834,20.855,22.3422,23.3342,24.0427,24.5741,24.9874,25.318
1.24026,16.5579,22.5342,25.5753,27.4154,28.6492,29.5342,30.2002,30.7196,31.136
1.01891,14.0953,19.0422,21.5304,23.0276,24.0277,24.7431,25.2801,25.6981,26.0328
1.27215,18.2915,24.6984,27.9455,29.9114,31.2302,32.1766,32.8889,33.4444,33.8898
1.1629,17.215,23.1699,26.1809,28.0001,29.2183,30.0912,30.7472,31.2584,31.6678
1.09539,16.9111,22.8508,25.8841,27.7267,28.9649,29.8543,30.5241,31.0467,31.4658
1.0584,16.6778,22.3996,25.2859,27.025,28.1872,29.0186,29.6427,30.1285,30.5173
1.1003,17.5985,23.5464,26.5467,28.3573,29.5694,30.4377,31.0904,31.599,32.0065
1.13341,18.4945,24.7542,27.9288,29.8506,31.1392,32.0635,32.7588,33.3009,33.7354
1.12576,19.184,25.9054,29.3625,31.4696,32.8882,33.9083,34.6771,35.2773,35.7589
1.01603,17.9623,24.2945,27.532,29.4946,30.8106,31.754,32.4634,33.0161,33.4589
1.11747,20.4605,27.6731,31.3445,33.5658,35.054,36.1205,36.9224,37.5472,38.0479
1.16588,21.9936,29.6992,33.6078,35.9699,37.5518,38.6853,39.5374,40.2013,40.7332
1.17634,22.9521,31.0393,35.1583,37.6552,39.3309,40.5334,41.4383,42.1441,42.7098
1.03315,20.1575,26.9526,30.3519,32.3918,33.7517,34.7231,35.4516,36.0182,36.4714
1.33044,27.0401,36.5628,41.468,44.4665,46.4909,47.95,49.052,49.9136,50.6059
1.16284,23.8715,32.0321,36.146,38.6212,40.2727,41.4525,42.3373,43.0252,43.5754
1.26282,25.9451,34.623,38.9878,41.6175,43.3759,44.6349,45.581,46.3179,46.9082
1.24258,27.0986,36.8509,41.9303,45.051,47.1637,48.6891,49.8423,50.7448,51.4703
1.06082,23.7668,32.1751,36.4488,39.0267,40.7484,41.979,42.902,43.6198,44.1939
1.03388,22.9201,30.5683,34.3689,36.6403,38.1509,39.2284,40.0357,40.6633,41.1651
1.17148,27.305,37.0341,42.0749,45.1682,47.2626,48.7755,49.9198,50.8158,51.5364
1.16078,28.0823,38.1424,43.2921,46.4138,48.5058,50.0045,51.1305,52.0073,52.7092
1.03071,25.6222,34.7112,39.3248,42.1114,43.9764,45.312,46.3157,47.0974,47.7236
1.01347,25.488,34.2956,38.7247,41.3901,43.1705,44.4442,45.4006,46.1451,46.7412
1.10268,28.636,38.7333,43.8899,47.0243,49.1321,50.6472,51.7889,52.6801,53.3951
1.2742,22.6281,27.2724,29.2679,30.3774,31.0836,31.5724,31.9309,32.2049,32.4212
1.19006,25.5926,35.0396,40.6655,44.4745,47.2406,49.3455,51.0027,52.3423,53.4478
1.07588,26.4766,37.4426,43.5453,47.351,49.9219,51.7636,53.1428,54.2117,55.0632
1.16362,31.2825,43.9832,50.5507,54.4828,57.0863,58.9342,60.3132,61.3817,62.2339
1.13173,30.5379,41.5253,46.8791,50.0273,52.1013,53.572,54.6699,55.5211,56.2005
1.04175,29.5766,40.4511,45.9673,49.3215,51.5834,53.2141,54.4462,55.4103,56.1854
1.06006,29.9814,40.2875,45.3894,48.4393,50.468,51.9146,52.9979,53.8394,54.5119
1.16309,33.3632,44.8605,50.6708,54.1927,56.5587,58.2585,59.539,60.5385,61.3405
1.08954,33.0179,45.0638,51.3127,55.144,57.7332,59.6,61.0095,62.1113,62.9963
1.18153,37.2297,50.7943,57.7227,61.9153,64.7216,66.7304,68.2389,69.413,70.3529
1.00615,32.0048,43.2263,48.8582,52.2404,54.4962,56.1082,57.3176,58.2585,59.0115
1.08843,35.7079,48.4165,54.8925,58.8249,61.4684,63.3681,64.7995,65.9169,66.8135
1.00756,32.1156,42.7166,47.9591,51.0866,53.1639,54.6437,55.7513,56.6114,57.2986
1.28418,42.3185,57.1336,64.7784,69.4634,72.6332,74.9218,76.6524,78.0071,79.0965
1.07067,34.8793,46.5962,52.4812,56.0152,58.3701,60.0507,61.3098,62.2882,63.0702
1.02758,34.9785,47.4697,53.9454,57.9131,60.5949,62.5294,63.9909,65.1343,66.0532
1.03495,35.4183,47.6711,53.8521,57.5674,60.0441,61.8122,63.1373,64.1671,64.9904
1.15983,40.4411,54.5532,61.735,66.0876,69.0093,71.1066,72.6858,73.9177,74.9057
1.24794,42.9556,57.3429,64.541,68.8605,71.7402,73.7971,75.3397,76.5393,77.4989
1.11558,39.279,52.8971,59.8759,64.1284,66.9934,69.0555,70.6109,71.826,72.8017
1.04825,36.3997,48.559,54.6632,58.3304,60.7758,62.5222,63.8315,64.8496,65.6638
1.03002,37.8941,51.6951,58.9236,63.3789,66.4018,68.5881,70.2432,71.5399,72.5832
0.997904,38.163,52.1075,59.2603,63.5919,66.4913,68.5662,70.1239,71.3359,72.3057
1.03544,21.7493,25.2486,26.6587,27.4188,27.8941,28.2195,28.4561,28.636,28.7774
1.11091,30.7774,42.8008,50.5454,56.0842,60.2702,63.5536,66.2012,68.3827,70.2118
1.07448,36.0257,52.6218,62.3346,68.5032,72.6926,75.6932,77.9342,79.6649,81.0381
1.10883,41.8416,60.3852,70.0423,75.7721,79.5293,82.1754,84.1381,85.6517,86.8546
1.13224,45.7405,64.4051,73.6279,79.0653,82.654,85.2035,87.1101,88.5908,89.7743
1.02325,43.0273,59.4286,67.4764,72.2705,75.4624,77.7435,79.4561,80.7897,81.8576
1.03312,43.3051,58.5238,65.9534,70.3849,73.3351,75.442,77.0224,78.2518,79.2355
0.950592,40.9325,55.5114,62.8861,67.3736,70.3974,72.5744,74.2171,75.5008,76.5316
1.15057,50.7058,68.761,77.9273,83.4855,87.2148,89.8895,91.9012,93.469,94.7251
1.19752,53.699,72.6757,82.2915,88.1066,92.0017,94.7928,96.8908,98.5254,99.8348
0.977911,44.1404,59.5123,67.2843,71.9796,75.1238,77.3768,79.0704,80.3901,81.4474
1.14123,52.2578,70.5287,79.8189,85.4496,89.2281,91.9395,93.98,95.5712,96.8468
1.20346,56.3737,76.3136,86.4916,92.667,96.8124,99.7873,102.026,103.772,105.171
1.15318,53.9681,72.5331,81.877,87.4994,91.2534,93.9373,95.9515,97.5188,98.7731
1.15777,55.0589,74.2801,84.081,90.0322,94.0318,96.9053,99.07,100.759,102.115
1.12451,53.2646,71.482,80.6838,86.2347,89.9473,92.6047,94.6007,96.1548,97.399
1.03887,42.8669,55.0358,60.8208,64.2054,66.4276,67.9989,69.1687,70.0736,70.7944
1.07303,48.134,65.3469,74.6933,80.6178,84.7207,87.734,90.0421,91.8673,93.347
1.1719,53.8028,73.0025,82.9232,88.9311,92.9424,95.804,97.9456,99.6071,100.933
0.96414,46.5959,63.8456,72.7753,78.21,81.8626,84.4862,86.4621,88.004,89.2408
1.08193,53.7316,73.2913,83.2257,89.2148,93.217,96.08,98.2294,99.9025,101.242
1.10484,55.9946,76.0597,86.2001,92.3165,96.4092,99.3406,101.544,103.261,104.636
1.04202,53.2303,71.9155,81.3339,87.0157,90.8184,93.5425,95.5901,97.1854,98.4635
1.0697,55.6948,75.3971,85.4271,91.5138,95.6027,98.5391,100.75,102.475,103.859
1.08992,57.1813,77.1543,87.2679,93.3788,97.4703,100.401,102.604,104.319,105.693
1.01341,52.7705,70.7467,79.7921,85.2419,88.8853,91.493,93.4518,94.9771,96.1985
1.06856,53.2999,70.8486,79.7177,85.0896,88.6963,91.2863,93.2368,94.759,95.98
1.05778,54.6178,74.4562,85.0287,91.6218,96.13,99.4081,101.899,103.857,105.436
