1.50964,1.55017,1.56416,1.57126,1.57555,1.57842,1.58047,1.58202,1.58323,1.58419
1.19625,1.7408,2.0404,2.22989,2.36053,2.45605,2.52893,2.58637,2.6328,2.67111
1.07862,2.01805,2.51825,2.80819,2.9932,3.12026,3.21243,3.28216,3.33665,3.38036
1.42252,3.30493,4.27945,4.81764,5.15156,5.37748,5.54011,5.66267,5.75829,5.83497
0.992485,2.75516,3.62339,4.08356,4.36391,4.55194,4.68666,4.78791,4.86676,4.9299
0.965525,3.2498,4.39377,5.00624,5.3841,5.64017,5.82513,5.96499,6.07445,6.16246
0.962187,3.79672,5.16742,5.88199,6.31625,6.6075,6.81625,6.97313,7.09533,7.19318
0.949539,4.26193,5.78361,6.56035,7.02896,7.34226,7.56647,7.73487,7.866,7.97099
1.07569,5.41551,7.34137,8.32169,8.91473,9.3123,9.59744,9.81196,9.97922,10.1133
1.08782,5.93178,7.95901,8.97632,9.58789,9.99622,10.2882,10.5074,10.678,10.8146
0.939175,5.68833,7.70667,8.74515,9.37931,9.80715,10.1154,10.348,10.5298,10.6759
0.9272,5.98344,8.02741,9.05665,9.67592,10.0892,10.3846,10.6061,10.7784,10.9163
0.930003,6.51637,8.79888,9.9698,10.6833,11.164,11.5099,11.7708,11.9746,12.1383
0.913648,6.66801,8.89687,10.0148,10.6862,11.1339,11.4536,11.6934,11.8799,12.029
0.907859,7.27109,9.87319,11.2284,12.0615,12.6259,13.0338,13.3423,13.5839,13.7782
1.00426,8.67354,11.7927,13.3944,14.3663,15.0181,15.4852,15.8362,16.1096,16.3286
0.979143,9.08842,12.36,14.0297,15.0407,15.7182,16.2039,16.5691,16.8538,17.0818
1.00673,9.87733,13.3723,15.142,16.2105,16.9255,17.4377,17.8227,18.1225,18.3627
0.92471,9.6228,13.0357,14.7724,15.8251,16.5316,17.0387,17.4205,17.7182,17.9569
0.996248,10.762,14.4918,16.3767,17.5148,18.2767,18.8225,19.2326,19.5522,19.8081
0.961263,10.9202,14.7448,16.6961,17.8811,18.6774,19.2494,19.6802,20.0164,20.286
0.901426,10.5799,14.2196,16.0618,17.1745,17.9193,18.4526,18.8534,19.1656,19.4155
0.91078,11.2291,15.1774,17.2036,18.4379,19.2689,19.8666,20.3173,20.6692,20.9516
0.937824,12.0617,16.3036,18.4704,19.7846,20.6663,21.2987,21.7744,22.1452,22.4423
0.952341,12.8501,17.403,19.7293,21.1404,22.0874,22.7669,23.2782,23.6769,23.9965
0.900577,12.5833,16.9852,19.218,20.5671,21.4705,22.1176,22.604,22.9829,23.2864
0.936692,13.5131,18.2171,20.6076,22.0554,23.0267,23.7235,24.2479,24.6568,24.9845
0.907693,13.5819,18.3353,20.7603,22.2319,23.2201,23.9294,24.4634,24.8799,25.2138
0.926461,13.7884,18.3422,20.6107,21.9687,22.8726,23.5175,24.0008,24.3764,24.6767
0.908062,14.3,19.3649,21.9981,23.6171,24.7143,25.5075,26.1077,26.5778,26.956
0.932111,14.776,19.7834,22.3052,23.8204,24.8301,25.5507,26.0905,26.51,26.8453
0.89893,15.0438,20.418,23.203,24.9088,26.0616,26.8931,27.5213,28.0127,28.4077
0.901224,14.9327,19.9026,22.3783,23.8572,24.8396,25.5392,26.0626,26.4689,26.7934
0.885735,15.548,21.1049,23.9963,25.774,26.979,27.8502,28.5097,29.0263,29.442
0.894089,16.4452,22.3943,25.458,27.3208,28.5715,29.4687,30.1434,30.6691,31.0902
0.949639,18.1028,24.588,27.8908,29.8879,31.2252,32.1832,32.9032,33.4641,33.9134
0.910603,17.9827,24.4064,27.6767,29.6575,30.9861,31.9393,32.6565,33.2157,33.664
0.929615,17.8551,23.6784,26.5418,28.2447,29.3738,30.1773,30.7782,31.2447,31.6173
0.907518,18.4631,25.0422,28.4735,30.5909,32.0301,33.0729,33.8634,34.4835,34.983
0.935408,19.8924,27.0806,30.7839,33.0359,34.5474,35.6312,36.4459,37.0805,37.5886
0.955743,20.0043,26.6814,29.9883,31.9576,33.2635,34.1927,34.8877,35.427,35.8578
0.916538,19.7499,26.5842,30.0846,32.2201,33.6608,34.6993,35.4836,36.097,36.5899
0.962219,21.683,29.4522,33.4653,35.9151,37.5652,38.7519,39.6461,40.344,40.9039
0.904241,21.0441,28.5604,32.3977,34.7205,36.2765,37.391,38.2286,38.881,39.4034
0.927196,22.2866,30.2479,34.3057,36.7637,38.412,39.5943,40.4838,41.1772,41.7331
0.929089,22.1742,29.6726,33.4113,35.6505,37.1417,38.206,39.0039,39.6242,40.1203
0.935299,16.1978,19.7362,21.2968,22.1785,22.7456,23.1413,23.4332,23.6574,23.835
0.909678,18.3795,24.9348,28.7341,31.2582,33.0661,34.4275,35.4905,36.3441,37.0447
0.905998,21.1678,29.9628,34.895,37.997,40.1084,41.6309,42.7773,43.67,44.3841
0.902352,21.9848,30.3443,34.5559,37.042,38.673,39.823,40.6768,41.3356,41.8594
0.894806,23.5448,32.6881,37.3705,40.2095,42.1181,43.4911,44.5272,45.3372,45.988
0.882129,24.4263,33.6625,38.323,41.1293,43.0049,44.347,45.3548,46.1394,46.7674
0.903425,25.715,35.062,39.7393,42.5509,44.429,45.7727,46.7819,47.5676,48.1968
0.900401,25.9086,34.9843,39.519,42.2474,44.0712,45.3768,46.3577,47.1217,47.7336
0.884283,25.0576,33.4272,37.5922,40.094,41.7645,42.9593,43.8564,44.5548,45.1139
0.885772,26.0931,35.3358,40.1193,43.0556,45.0434,46.4788,47.5641,48.4136,49.0966
0.876216,26.6757,36.2326,41.1386,44.1187,46.1184,47.5523,48.6303,49.4702,50.1429
0.884843,27.6761,37.5908,42.6559,45.726,47.785,49.2617,50.3725,51.2384,51.9325
0.905578,28.9207,39.1769,44.3845,47.5326,49.6411,51.152,52.2879,53.1729,53.8819
0.905584,29.3174,39.588,44.7918,47.9377,50.0454,51.5562,52.6924,53.5779,54.2875
0.897573,28.3585,37.7514,42.4292,45.2326,47.1009,48.4351,49.4357,50.2139,50.8365
0.92456,30.2529,40.9041,46.4202,49.805,52.0961,53.7506,55.0017,55.9811,56.7685
0.926327,31.1557,42.2703,47.9878,51.465,53.8003,55.476,56.7365,57.719,58.5061
0.909669,30.0387,40.1165,45.1391,48.1412,50.1367,51.5589,52.6238,53.451,54.1121
0.87796,29.9174,40.4434,45.8667,49.1827,51.4225,53.0378,54.2581,55.2128,55.9801
0.890959,30.7138,41.4182,46.8645,50.1586,52.3641,53.9435,55.1298,56.0536,56.7931
0.916341,32.4619,43.9757,49.8734,53.4574,55.8659,57.5958,58.8986,59.9151,60.7304
0.914045,31.1894,41.3977,46.4494,49.4611,51.4605,52.8844,53.9499,54.7772,55.4381
0.874037,31.1151,42.1348,47.8667,51.3939,53.7866,55.5174,56.828,57.8551,58.6818
0.883343,32.6372,44.4718,50.5904,54.3192,56.8262,58.6261,59.9805,61.0363,61.8824
0.92495,33.6645,45.0909,50.7815,54.1784,56.4337,58.0398,59.2416,60.1746,60.9199
0.915498,34.5218,46.8049,53.1326,57.0013,59.6145,61.4993,62.9234,64.0376,64.9332
0.899422,34.4543,46.6043,52.7885,56.53,59.0355,60.83,62.1782,63.228,64.0685
0.899073,35.4517,48.1647,54.6842,58.6495,61.3159,63.232,64.6754,65.802,66.7058
0.898721,34.4506,45.9299,51.625,55.0243,57.2825,58.8913,60.0956,61.0307,61.7779
0.919177,36.7235,49.8274,56.6254,60.8013,63.6307,65.6756,67.2231,68.4352,69.4103
0.913437,37.5678,51.0772,58.0091,62.217,65.0395,67.0627,68.5835,69.768,70.7166
0.920209,38.3688,51.942,58.8269,62.9835,65.7643,67.7553,69.2511,70.4161,71.3491
0.887519,37.7427,51.1297,57.9489,62.0831,64.8582,66.8502,68.3497,69.5193,70.4572
0.886026,36.5409,48.6549,54.6694,58.2652,60.6571,62.363,63.641,64.6342,65.4281
0.906537,38.4938,52.0085,58.9923,63.2739,66.171,68.2629,69.8447,71.0828,72.0785
0.877475,38.2241,51.8778,58.9088,63.1888,66.0656,68.1309,69.6851,70.8969,71.868
0.916938,40.8302,55.4712,62.9748,67.5298,70.5874,72.7813,74.4322,75.7194,76.7512
0.900518,40.6369,55.0135,62.3127,66.7231,69.6756,71.7906,73.38,74.6182,75.61
0.885069,40.477,54.7091,61.9316,66.3006,69.2288,71.3284,72.9076,74.1385,75.125
0.889767,38.8839,51.4868,57.7045,61.4108,63.8723,65.6259,66.9388,67.9585,68.7734
0.897554,40.8432,55.3183,62.8779,67.5444,70.7167,73.0149,74.7571,76.1236,77.2241
0.925998,43.2692,58.7833,66.7713,71.6257,74.8827,77.2173,78.9719,80.3382,81.4322
0.884498,42.2809,57.4128,65.1325,69.8033,72.9317,75.173,76.8577,78.1703,79.2218
0.916981,44.5644,60.3897,68.4289,73.2902,76.5471,78.8816,80.6371,82.0053,83.1017
0.901492,42.5374,56.6945,63.725,67.9294,70.7273,72.7235,74.2196,75.3825,76.3125
0.885722,42.9716,58.0971,65.9137,70.7066,73.9501,76.2923,78.0634,79.4499,80.5649
0.922343,45.0959,60.8641,68.9095,73.7828,77.0481,79.3873,81.1449,82.5135,83.6093
0.881935,44.2433,60.0214,68.1187,73.0424,76.352,78.7294,80.5199,81.917,83.0375
0.899137,45.8953,62.2043,70.5156,75.5469,78.9186,81.3352,83.1521,84.5678,85.702
0.886738,43.8716,58.4315,65.6534,69.9663,72.8332,74.877,76.4078,77.5971,78.5478
0.878863,44.0087,59.1824,66.9708,71.7293,74.9425,77.2596,79.01,80.3792,81.4796
0.915483,47.3702,64.3622,73.1638,78.5438,82.1702,84.7793,86.7459,88.2812,89.5128
0.904834,45.6212,60.9537,68.6059,73.1805,76.2204,78.3861,80.0071,81.2657,82.2713
0.89609,46.8109,63.5151,72.1702,77.4775,81.0686,83.6615,85.6224,87.1574,88.3918
