1.70219,1.75332,1.77105,1.78005,1.7855,1.78915,1.79176,1.79373,1.79526,1.79649
1.32058,1.8315,2.09161,2.2491,2.35468,2.43038,2.48731,2.53168,2.56724,2.59637
1.17698,2.10207,2.58282,2.86205,3.04153,3.16576,3.25652,3.32561,3.37989,3.42363
1.11853,2.50461,3.22346,3.62538,3.87695,4.04812,4.17179,4.26521,4.33824,4.39686
1.06426,2.85631,3.74062,4.21157,4.49886,4.69152,4.8295,4.93312,5.01377,5.07832
1.04551,3.28161,4.34075,4.89284,5.22805,5.45285,5.61404,5.73526,5.82975,5.90547
1.02168,3.69405,4.92225,5.55651,5.94136,6.19957,6.38481,6.52417,6.63281,6.7199
0.993248,4.08171,5.4664,6.17775,6.60915,6.89857,7.10618,7.26236,7.38412,7.4817
1.02238,4.72529,6.35203,7.18514,7.69017,8.02895,8.27193,8.45472,8.59721,8.7114
1.13445,5.81107,7.81222,8.8304,9.44585,9.85796,10.1532,10.3751,10.5479,10.6864
1.05092,5.88478,7.90024,8.92207,9.53933,9.95261,10.2487,10.4713,10.6447,10.7836
0.959275,5.86623,7.89133,8.92169,9.5457,9.9642,10.2644,10.4902,10.6663,10.8074
1.06004,7.12545,9.64858,10.9432,11.7306,12.2601,12.6404,12.9269,13.1504,13.3297
0.981661,7.09375,9.56527,10.8156,11.5691,12.0727,12.4328,12.7031,12.9135,13.0818
1.00307,7.79945,10.527,11.9124,12.7509,13.3131,13.7163,14.0197,14.2562,14.4458
1.04777,8.66728,11.6733,13.1951,14.1143,14.7297,15.1706,15.5019,15.76,15.9668
1.00324,8.80889,11.8598,13.4065,14.3419,14.9686,15.4178,15.7556,16.0189,16.2299
0.927184,8.62677,11.6223,13.1441,14.0652,14.6828,15.1256,15.4587,15.7183,15.9264
0.940589,9.1888,12.3576,13.9634,14.9339,15.5838,16.0495,16.3996,16.6724,16.8909
0.966333,9.96676,13.4318,15.1954,16.264,16.9809,17.4952,17.8822,18.1839,18.4257
0.92233,10.0505,13.573,15.3682,16.4562,17.186,17.7094,18.1032,18.4101,18.6561
0.958201,8.56235,10.6614,11.6078,12.1461,12.4933,12.736,12.915,13.0526,13.1616
0.904918,9.48666,12.9117,14.8465,16.1093,17.0027,17.6695,18.1866,18.5996,18.9372
0.940037,11.0807,15.3914,17.7114,19.141,20.1032,20.7923,21.3089,21.71,22.0301
0.94217,12.0034,16.5537,18.8754,20.2659,21.1886,21.8451,22.3358,22.7166,23.0207
0.92295,12.4618,17.0332,19.3271,20.7014,21.6172,22.2715,22.7627,23.1449,23.451
0.922662,13.1621,17.9381,20.347,21.8012,22.7756,23.4743,24,24.4099,24.7385
0.933447,13.7472,18.5684,20.9817,22.4327,23.4019,24.0951,24.6156,25.0207,25.3449
0.896848,13.7131,18.5139,20.9423,22.4123,23.3985,24.1062,24.6389,25.0543,25.3873
0.916861,14.5881,19.717,22.3239,23.9039,24.964,25.7245,26.2966,26.7427,27.1002
0.944004,15.3985,20.7089,23.3855,24.9984,26.0764,26.8477,27.4269,27.8777,28.2386
0.936907,15.7304,21.1551,23.9029,25.5649,26.6789,27.4777,28.0785,28.5469,28.9223
0.924517,16.0902,21.708,24.5723,26.31,27.4766,28.314,28.9442,29.4357,29.8297
0.924641,16.5944,22.3814,25.3226,27.102,28.2942,29.1485,29.7908,30.2912,30.6921
0.916984,16.857,22.6838,25.6337,27.4152,28.6076,29.4618,30.1037,30.6037,31.0043
0.901111,17.0667,22.9961,26.0094,27.834,29.0575,29.9351,30.5952,31.1099,31.5223
0.921217,17.9532,24.1976,27.3696,29.2887,30.5748,31.4967,32.1898,32.7299,33.1627
0.920086,18.4354,24.8492,28.1057,30.0756,31.3955,32.3415,33.0528,33.6071,34.0512
0.890905,18.453,24.9334,28.236,30.238,31.5812,32.5449,33.2701,33.8355,34.2887
0.933088,19.8046,26.6984,30.1893,32.2967,33.7068,34.7165,35.475,36.0657,36.5387
0.920733,19.8358,26.6355,30.0648,32.1324,33.5152,34.5052,35.249,35.8283,36.2923
0.928035,20.7422,28.0368,31.7689,34.0383,35.5646,36.6614,37.4878,38.1328,38.6503
0.902875,20.9483,28.3995,32.207,34.516,36.065,37.1759,38.0114,38.6626,39.1844
0.901845,21.1166,28.3737,32.0163,34.2039,35.6627,36.7047,37.4863,38.0942,38.5805
0.896587,21.2439,28.4988,32.1642,34.3796,35.8643,36.929,37.73,38.3545,38.8552
0.947842,22.8303,30.6567,34.6311,37.0384,38.6531,39.8113,40.6827,41.3621,41.9066
0.901934,22.0865,29.675,33.5319,35.867,37.4325,38.5549,39.399,40.0569,40.584
0.925319,22.8402,30.6039,34.5313,36.9023,38.4889,39.6251,40.4789,41.1438,41.6764
0.950756,23.7928,31.905,36.022,38.5131,40.1829,41.3801,42.2806,42.9825,43.545
0.908665,23.2559,31.2982,35.4018,37.8911,39.5621,40.7613,41.6638,42.3676,42.9317
0.952149,25.114,33.9375,38.4492,41.1867,43.024,44.3423,45.3342,46.1076,46.7274
0.940912,25.4793,34.4349,38.9893,41.7432,43.5873,44.9084,45.9013,46.6747,47.2942
0.951592,26.1485,35.2074,39.7835,42.5429,44.3882,45.7092,46.7015,47.4743,48.0931
0.897419,25.4611,34.4486,39.0373,41.8233,43.695,45.0393,46.0517,46.8415,47.475
0.902996,25.6589,34.4127,38.8063,41.4461,43.2069,44.4648,45.4084,46.1422,46.7293
0.930238,26.9495,36.2682,41.0101,43.887,45.8196,47.2078,48.2532,49.0691,49.7235
0.899107,26.7704,36.1806,40.9928,43.9153,45.8781,47.2872,48.3478,49.1749,49.8379
0.903444,27.1603,36.5242,41.2514,44.099,46.0014,47.362,48.3832,49.178,49.8141
0.945513,29.1344,39.3186,44.5068,47.653,49.7652,51.2815,52.4229,53.3133,54.0273
0.898591,28.0197,37.6968,42.5903,45.5429,47.5178,48.9315,49.9933,50.8201,51.4821
0.929139,29.0507,38.9255,43.9031,46.9043,48.9117,50.3489,51.4288,52.2699,52.9435
0.92788,29.6639,39.9624,45.2215,48.4167,50.5643,52.1071,53.2692,54.176,54.9034
0.904862,29.1745,39.1897,44.2588,47.318,49.3641,50.8285,51.9284,52.7846,53.4701
0.920009,30.4363,41.091,46.5337,49.838,52.0574,53.651,54.8509,55.787,56.5377
0.897833,30.2433,40.7972,46.1559,49.3945,51.5627,53.1156,54.2824,55.1913,55.9191
0.935147,32.3018,43.6765,49.4701,52.98,55.3343,57.023,58.2934,59.2839,60.0778
0.889115,30.9591,41.6534,47.0479,50.2982,52.4704,54.0246,55.1916,56.1001,56.8273
0.919854,32.5513,43.8446,49.5768,53.047,55.3744,57.0439,58.3,59.2795,60.0646
0.939179,33.5237,45.0693,50.9158,54.4486,56.8142,58.5091,59.783,60.7755,61.5705
0.89955,32.9918,44.6035,50.5421,54.1502,56.5748,58.3162,59.6276,60.6507,61.4712
0.946707,35.0064,47.1142,53.2322,56.9199,59.3844,61.1474,62.4709,63.501,64.3256
0.927437,34.597,46.5082,52.5382,56.1824,58.6236,60.3735,61.6893,62.7149,63.5367
0.893055,33.6554,45.2573,51.1483,54.7146,57.1058,58.8207,60.1107,61.1163,61.9223
0.924601,34.8366,46.6723,52.648,56.2526,58.6635,60.3895,61.686,62.6957,63.5041
0.900178,34.4051,46.2614,52.3019,55.9659,58.4259,60.1919,61.5212,62.5581,63.3895
0.926656,36.1211,48.7335,55.1746,59.0818,61.704,63.5854,65.0009,66.1044,66.9889
0.930222,37.2592,50.4516,57.1929,61.2807,64.023,65.9901,67.4698,68.6232,69.5476
0.924057,37.5129,50.6313,57.2721,61.2783,63.9575,65.8751,67.3154,68.4368,69.3348
0.890231,36.5284,49.2178,55.643,59.5256,62.1263,63.9904,65.392,66.4844,67.3597
0.904158,37.4112,50.3238,56.8591,60.8079,63.4525,65.3476,66.7722,67.8822,68.7715
0.887539,37.1645,50.0268,56.5581,60.5117,63.1625,65.0634,66.4933,67.6079,68.5011
0.927737,39.2649,52.8429,59.7333,63.9008,66.6929,68.694,70.1985,71.3708,72.31
0.933315,39.9018,53.685,60.677,64.9051,67.7376,69.7676,71.2939,72.4832,73.436
0.923451,39.8629,53.6316,60.6205,64.8485,67.6819,69.7131,71.2405,72.4308,73.3846
0.94492,41.4211,55.8326,63.1677,67.611,70.5911,72.7284,74.3362,75.5896,76.5941
0.929337,41.3817,55.8131,63.1474,67.5844,70.5572,72.6877,74.2895,75.5375,76.5374
0.930127,42.0413,56.7192,64.176,68.6872,71.7103,73.8773,75.5068,76.7767,77.7942
0.906071,41.4984,55.9672,63.3116,67.7536,70.7298,72.8629,74.4669,75.7167,76.7182
0.910859,41.768,56.0932,63.3218,67.6806,70.5956,72.6824,74.25,75.4707,76.4482
0.931444,43.4523,58.5853,66.2992,70.98,74.1236,76.3809,78.0804,79.4061,80.4693
0.891898,42.165,56.851,64.3133,68.8273,71.8512,74.0179,75.6466,76.9155,77.9319
0.899089,42.9032,57.7735,65.31,69.8638,72.9129,75.0974,76.7394,78.0186,79.0434
0.931286,44.1688,59.135,66.6635,71.1961,74.2247,76.3915,78.0185,79.2851,80.2992
0.894652,42.4014,56.7555,64.0191,68.4114,71.3552,73.466,75.0538,76.2915,77.2835
0.911136,44.0453,59.3775,67.2345,72.0147,75.2297,77.5401,79.2806,80.6388,81.7283
0.89921,43.9913,59.2873,67.0656,71.7684,74.9168,77.1715,78.8655,80.1847,81.2411
0.947934,46.7593,62.9481,71.1577,76.1183,79.44,81.8199,83.6089,85.0027,86.1194
0.892244,44.3575,59.6791,67.4478,72.1444,75.2907,77.5456,79.2411,80.5623,81.6209
0.921385,47.2542,64.0903,72.7369,78.0012,81.5433,84.0896,86.0083,87.506,88.7074
0.912243,47.267,63.7924,72.1415,77.1693,80.5266,82.9265,84.7272,86.1281,87.2489
