1.90995,1.96105,1.97869,1.98763,1.99304,1.99666,1.99925,2.0012,2.00272,2.00393
1.43697,1.96517,2.22953,2.38814,2.49388,2.5694,2.62603,2.67008,2.70531,2.73413
1.28568,2.24347,2.73117,3.01235,3.19251,3.31701,3.40791,3.47706,3.53139,3.57517
1.17738,2.58397,3.30919,3.71564,3.97074,4.14468,4.27056,4.36579,4.44029,4.50015
1.11547,2.95332,3.86312,4.34956,4.64685,4.84639,4.98934,5.09672,5.18029,5.24719
1.1336,3.56316,4.73546,5.35124,5.72625,5.97812,6.15887,6.29488,6.40094,6.48596
1.04086,3.69876,4.89114,5.49586,5.85854,6.09997,6.27222,6.40127,6.50156,6.58174
1.03537,4.25741,5.72178,6.48159,6.94582,7.25903,7.48468,7.65502,7.78818,7.89515
0.996788,4.56137,6.10588,6.88851,7.3595,7.67377,7.89826,8.0666,8.19749,8.30216
0.991928,4.85173,6.40845,7.18122,7.64269,7.94948,8.16825,8.33214,8.45952,8.56136
1.64847,9.08538,12.2438,13.8834,14.8901,15.5719,16.0644,16.437,16.7287,16.9633
1.15743,7.16488,9.75135,11.0889,11.9033,12.4505,12.8432,13.1385,13.3686,13.553
1.00558,6.85343,9.31604,10.5679,11.3226,11.8267,12.1872,12.4577,12.6681,12.8365
1.2193,7.33898,9.24217,10.1055,10.5978,10.9161,11.1388,11.3033,11.4299,11.5303
1.11845,7.41473,9.79686,11.0599,11.8541,12.4022,12.8041,13.1117,13.3547,13.5518
0.911517,7.16674,9.96356,11.5085,12.4839,13.1534,13.6404,14.0102,14.3002,14.5338
1.16956,9.61525,12.9721,14.637,15.6165,16.2581,16.7098,17.0448,17.3029,17.5078
0.907405,8.27223,11.3227,12.8918,13.848,14.4929,14.9577,15.309,15.5839,15.805
1.10813,11.0311,15.1218,17.2078,18.4697,19.3149,19.9203,20.3752,20.7294,21.013
0.924412,9.67597,13.0993,14.8061,15.8272,16.5067,16.9914,17.3546,17.6369,17.8626
1.03043,11.3842,15.3846,17.399,18.6152,19.43,20.0142,20.4538,20.7965,21.0713
0.924716,10.7651,14.5372,16.4426,17.5938,18.3648,18.9173,19.3325,19.6561,19.9153
1.1735,14.2844,19.2467,21.7503,23.2608,24.2714,24.9949,25.5385,25.9619,26.301
1.0116,13.0555,17.6838,20.0446,21.4775,22.4398,23.1307,23.6509,24.0566,24.382
0.958457,12.8464,17.3161,19.5694,20.9263,21.8326,22.4807,22.9671,23.3456,23.6485
0.92881,12.4427,16.5261,18.549,19.7578,20.562,21.1356,21.5655,21.8996,22.1669
1.14244,15.5659,20.7023,23.2963,24.8667,25.9209,26.6778,27.2478,27.6926,28.0493
0.96986,13.3163,17.6663,19.8613,21.1864,22.0733,22.7084,23.1856,23.5572,23.8549
1.01862,15.2043,20.7083,23.6033,25.3901,26.6028,27.4797,28.1434,28.6631,29.0812
0.920165,14.3803,19.5081,22.116,23.6856,24.7318,25.4782,26.0372,26.4714,26.8183
0.945033,15.4275,20.9056,23.6815,25.3564,26.4769,27.2795,27.8828,28.3528,28.7293
0.939477,15.7473,21.1987,23.9345,25.5786,26.6761,27.4608,28.0498,28.5081,28.8749
1.04287,18.0411,24.2932,27.4563,29.3691,30.6514,31.5712,32.2631,32.8026,33.235
0.828507,6.07273,6.72313,6.97167,7.10296,7.18414,7.2393,7.27922,7.30944,7.33313
0.8344,9.18575,13.0063,15.7558,17.8789,19.5777,20.9709,22.1353,23.1235,23.9729
0.909905,12.3871,18.2285,21.7148,23.916,25.3903,26.4296,27.1937,27.7751,28.2302
0.905851,15.3981,23.2264,27.5532,30.1813,31.9262,33.1654,34.0905,34.8077,35.3803
0.843744,16.5154,24.2114,28.0532,30.2955,31.7609,32.794,33.562,34.1555,34.6281
1.0455,19.9349,27.0129,30.2006,32.0094,33.1794,33.9999,34.6079,35.0767,35.4494
1.03204,21.8503,30.3322,34.6538,37.3225,39.1467,40.4759,41.4886,42.2863,42.9311
0.909276,20.7203,28.6982,32.7339,35.1781,36.8154,37.9874,38.867,39.5512,40.0983
0.867901,20.6914,28.3409,32.1532,34.4391,35.9618,37.0487,37.8634,38.4968,39.0033
0.908587,22.2491,30.158,34.0863,36.442,38.0131,39.1361,39.9788,40.6347,41.1597
1.01669,23.6448,31.0941,34.6836,36.8039,38.2051,39.2004,39.9438,40.5204,40.9806
1.01029,25.1217,34.069,38.7547,41.6615,43.6452,45.0866,46.1817,47.0422,47.7362
0.923239,23.6758,32.0386,36.2956,38.8648,40.5797,41.8041,42.7214,43.434,44.0033
0.897051,23.9441,32.4964,36.8511,39.4854,41.25,42.5146,43.4654,44.2065,44.8003
0.874279,23.804,32.1348,36.3313,38.8568,40.5436,41.7499,42.6555,43.3603,43.9245
0.903865,24.8946,33.4367,37.7251,40.3056,42.0298,43.2635,44.1899,44.9113,45.4889
0.95317,26.5749,35.6457,40.2207,42.9828,44.8323,46.1576,47.1539,47.9303,48.5523
0.88819,20.5607,25.9283,28.4077,29.8374,30.7677,31.4214,31.9059,32.2794,32.576
0.89404,23.3658,31.8045,36.4967,39.5222,41.6433,43.2154,44.4281,45.3925,46.1779
0.88869,20.4862,26.3647,29.1711,30.7952,31.8476,32.5827,33.124,33.5389,33.8666
0.878202,23.5293,32.6457,37.7386,41.0101,43.2958,44.9857,46.2872,47.3209,48.1622
0.974812,28.3859,39.5154,45.3332,48.8561,51.2034,52.8742,54.1217,55.0877,55.8573
0.884338,26.9364,37.0162,42.0701,45.0817,47.0783,48.4989,49.5615,50.3865,51.0456
0.881731,27.7316,37.7689,42.7741,45.7731,47.7733,49.2036,50.2776,51.1138,51.7835
0.984203,32.0237,43.5392,49.3384,52.8408,55.1882,56.8716,58.1381,59.1256,59.9171
0.897018,29.9895,40.6389,45.9986,49.2305,51.3924,52.9402,54.103,55.0085,55.7336
0.971635,33.2553,44.9773,50.8912,54.4618,56.8523,58.5648,59.8521,60.855,61.6584
0.910395,31.5934,42.5636,48.0857,51.4144,53.6404,55.2339,56.4308,57.363,58.1094
0.968395,34.2553,46.1886,52.2358,55.8955,58.3491,60.1089,61.4326,62.4646,63.2917
0.894343,32.3569,43.6825,49.4313,52.9095,55.2403,56.9108,58.1668,59.1455,59.9296
0.900099,31.9553,42.5562,47.8243,50.9745,53.0701,54.5646,55.6843,56.5543,57.2499
0.996831,36.3635,48.9556,55.4045,59.3354,61.9847,63.8922,65.3314,66.4561,67.3593
0.928125,34.3091,46.1503,52.1582,55.7872,58.2149,59.9525,61.2572,62.2727,63.0856
0.936088,35.574,48.0781,54.4583,58.3264,60.9217,62.7837,64.1847,65.2771,66.1527
0.928948,35.1218,47.0342,53.0044,56.5873,58.9757,60.6813,61.9603,62.9549,63.7504
0.913923,35.3709,47.6752,53.9525,57.7657,60.3292,62.1714,63.5595,64.643,65.5124
1.01416,39.9172,53.7819,60.8112,65.0565,67.8969,69.9304,71.4577,72.6468,73.5989
0.898766,35.8727,48.2804,54.5545,58.3402,60.8729,62.6862,64.0486,65.1097,65.9595
0.93409,36.7965,49.0945,55.2487,58.9447,61.4108,63.1734,64.4961,65.5254,66.3491
0.910698,36.7806,49.5455,56.0843,60.0669,62.7488,64.6783,66.1332,67.2696,68.1817
0.903194,37.1311,50.0744,56.6648,60.653,63.3242,65.2377,66.6755,67.7953,68.692
0.914966,34.043,44.1908,49.0589,51.9148,53.7921,55.1201,56.1092,56.8745,57.4841
0.911284,33.2108,43.639,48.9459,52.1854,54.3744,55.9545,57.1494,58.0849,58.8374
0.900577,36.0723,49.5313,56.8164,61.385,64.5156,66.7935,68.5248,69.8848,70.9812
0.902413,37.7103,51.6065,58.7338,63.0227,65.8752,67.9056,69.4229,70.5993,71.5377
0.972854,39.1314,52.0017,58.2632,61.9508,64.3804,66.1023,67.3869,68.3821,69.1759
0.91577,34.6244,45.2508,50.448,53.547,55.61,57.0839,58.19,59.0511,59.7405
0.917508,38.1161,52.2337,59.8414,64.6269,67.9199,70.3256,72.1603,73.6058,74.7742
0.911043,38.1993,51.6335,58.412,62.4635,65.1474,67.0521,68.4725,69.5717,70.4472
0.908175,40.316,55.1915,62.8615,67.5349,70.6822,72.9471,74.6557,75.9909,77.0633
0.994253,45.5207,62.0139,70.3498,75.365,78.7114,81.1024,82.8957,84.2904,85.4059
0.937429,39.897,52.3831,58.3705,61.8849,64.1971,65.8343,67.0545,67.9992,68.7522
0.890824,38.1376,50.7429,57.1617,61.0824,63.7329,65.6467,67.0942,68.2278,69.1396
0.914802,40.2582,54.2299,61.4433,65.8495,68.8182,70.953,72.5614,73.8165,74.823
0.890103,40.9331,55.7265,63.3776,68.0393,71.1733,73.4236,75.1175,76.4383,77.4971
0.971648,46.8123,64.0266,72.8556,78.2048,81.7888,84.3566,86.2865,87.7898,88.9939
0.949119,46.9375,63.8405,72.3639,77.4872,80.9052,83.3475,85.1798,86.6053,87.7458
0.906252,42.0847,55.4228,61.8581,65.649,68.1489,69.9218,71.2448,72.27,73.0877
0.9256,44.907,60.6338,68.7984,73.8346,77.2598,79.7429,81.6265,83.1047,84.2959
0.888036,44.3824,60.1557,68.2381,73.1395,76.4232,78.7742,80.5394,81.913,83.0121
0.914782,44.8324,59.8344,67.2848,71.7289,74.6789,76.7795,78.3514,79.5718,80.5468
0.936451,46.7446,62.8625,71.0747,76.0648,79.422,81.8364,83.6568,85.0786,86.22
0.941369,47.4757,63.832,72.1226,77.1309,80.4826,82.8823,84.6848,86.0883,87.2119
0.925655,48.0242,64.9977,73.6821,78.9566,82.4997,85.0437,86.959,88.453,89.651
0.914723,45.8826,60.9018,68.3078,72.7113,75.6288,77.7034,79.2541,80.4569,81.4172
0.906919,47.9786,65.2368,74.2401,79.7892,83.5575,86.2856,88.3527,89.9735,91.2785
0.898501,48.8275,66.3214,75.2405,80.6274,84.227,86.7999,88.7295,90.2298,91.4294
