1.89475,1.91968,1.92813,1.93239,1.93495,1.93666,1.93789,1.93881,1.93952,1.9401
2.21581,2.98892,3.37489,3.60625,3.7604,3.87045,3.95297,4.01714,4.06846,4.11044
1.24918,2.16614,2.63429,2.90463,3.07801,3.19788,3.28543,3.35205,3.4044,3.44659
1.19097,2.55249,3.23198,3.60551,3.83712,3.99374,4.10643,4.19128,4.25744,4.31044
1.12604,2.92317,3.80204,4.27163,4.55911,4.75245,4.89121,4.99559,5.07696,5.14215
1.11186,3.39553,4.4686,5.02585,5.36294,5.58828,5.74944,5.87038,5.96449,6.03979
1.07285,3.801,5.04847,5.68959,6.07714,6.33647,6.52217,6.66168,6.77033,6.85735
1.32289,5.38152,7.20065,8.13084,8.69298,9.06921,9.33863,9.54106,9.69872,9.82498
1.22198,5.59227,7.4878,8.44646,9.02315,9.40805,9.68314,9.88955,10.0501,10.1786
1.15151,5.89395,7.91426,8.93624,9.5523,9.96419,10.259,10.4804,10.6529,10.791
1.00467,5.6443,7.56087,8.52309,9.10101,9.48648,9.7619,9.96851,10.1292,10.2578
1.18484,7.26248,9.72885,10.9692,11.7158,12.2147,12.5716,12.8396,13.0483,13.2154
1.01949,6.77402,9.07529,10.233,10.9299,11.3955,11.7286,11.9786,12.1733,12.3291
1.00967,7.16703,9.57194,10.7767,11.5003,11.9831,12.3281,12.587,12.7884,12.9495
0.996118,7.55035,10.0883,11.3647,12.1334,12.6473,13.0151,13.2913,13.5064,13.6786
0.979599,7.78133,10.3415,11.6192,12.3853,12.8958,13.2603,13.5336,13.7461,13.9161
0.998765,8.57272,11.5187,13.0223,13.9357,14.5496,14.9907,15.3229,15.5822,15.7902
1.02651,9.2364,12.3346,13.885,14.8139,15.432,15.8728,16.2029,16.4593,16.6642
1.0634,10.2675,13.8159,15.6186,16.7099,17.4419,17.9669,18.362,18.6701,18.9171
0.970788,9.87781,13.2539,14.9496,15.9679,16.6469,17.1318,17.4954,17.778,18.0041
1.05095,11.1804,14.9572,16.8481,17.9834,18.7408,19.282,19.6881,20.0041,20.257
1.02902,11.5371,15.4765,17.464,18.6632,19.4656,20.0404,20.4723,20.8088,21.0784
1.02911,12.1895,16.396,18.5225,19.8055,20.6637,21.2781,21.7395,22.0989,22.3865
1.02761,12.8013,17.2195,19.4449,20.7844,21.6789,22.3184,22.7985,23.172,23.471
0.974999,12.6445,16.9577,19.1188,20.4164,21.2818,21.9002,22.3641,22.725,23.0138
0.974766,13.0454,17.4329,19.6264,20.9433,21.8217,22.4495,22.9206,23.2872,23.5805
1.04022,14.3685,19.1875,21.6058,23.0612,24.0336,24.7294,25.2519,25.6587,25.9844
0.95806,13.6688,18.2591,20.5677,21.958,22.8871,23.5518,24.0509,24.4395,24.7506
0.908185,7.59971,8.78678,9.2709,9.53388,9.69906,9.81244,9.89508,9.95799,10.0075
0.915671,10.2506,14.1523,16.6519,18.4301,19.768,20.8138,21.6545,22.3456,22.9238
0.969045,13.2154,19.0734,22.4519,24.5774,26.0119,27.0349,27.7966,28.3835,28.8483
0.910975,14.0364,19.9593,22.9925,24.7768,25.9411,26.7585,27.3635,27.8293,28.1991
0.934982,15.6385,21.7813,24.794,26.5651,27.7323,28.5608,29.1799,29.6605,30.0445
0.944078,16.6079,22.7006,25.6618,27.4162,28.5799,29.4094,30.0308,30.514,30.9004
0.950781,17.4471,23.6379,26.6848,28.5091,29.7263,30.5969,31.2506,31.7595,32.1671
0.924388,17.6002,23.7429,26.7975,28.634,29.861,30.739,31.3983,31.9117,32.3227
0.96335,19.6494,26.7935,30.4358,32.6507,34.1402,35.2105,36.0168,36.646,37.1507
0.965015,20.4011,27.5931,31.1808,33.3275,34.7547,35.7717,36.533,37.1241,37.5964
0.957957,20.2613,26.9957,30.3021,32.2691,33.5741,34.5035,35.1991,35.7393,36.1711
0.94353,20.0858,26.6872,29.9743,31.9503,33.2708,34.216,34.9263,35.4796,35.9228
0.958451,21.5397,29.0794,32.9537,35.3184,36.9125,38.0599,38.9253,39.6012,40.1438
0.951491,21.351,28.4257,31.9309,34.0177,35.4003,36.383,37.1172,37.6864,38.1406
0.944627,21.7958,29.1837,32.918,35.1759,36.6898,37.7759,38.5934,39.2311,39.7424
0.965927,22.8723,30.6664,34.5997,36.9704,38.5549,39.6884,40.5394,41.2017,41.7318
0.957897,23.0643,30.8447,34.7468,37.0906,38.6539,39.7708,40.6086,41.2603,41.7818
0.917367,22.0414,29.2667,32.8606,35.0118,36.4441,37.4664,38.2328,38.8286,39.3052
0.952567,23.2133,30.9177,34.7995,37.1423,38.711,39.835,40.6801,41.3387,41.8663
0.942181,23.9545,32.2634,36.5155,39.099,40.8347,42.081,43.0192,43.7509,44.3375
0.959658,24.7576,33.1504,37.3541,39.8718,41.5467,42.7407,43.6349,44.3293,44.8843
0.956797,24.9794,33.3586,37.5532,40.072,41.7527,42.9542,43.856,44.5579,45.1198
0.945957,25.8132,34.8373,39.4434,42.2401,44.1192,45.4687,46.485,47.2779,47.9137
0.944633,25.8603,34.5387,38.8553,41.4328,43.1446,44.3636,45.2757,45.9837,46.5492
0.932094,25.4807,33.8536,38.0207,40.5183,42.1834,43.3732,44.266,44.9607,45.5168
0.948657,26.5354,35.4885,40.0242,42.7701,44.612,45.9335,46.9279,47.7033,48.3249
0.945312,27.226,36.5806,41.3271,44.1954,46.1151,47.4898,48.5224,49.3265,49.9703
0.940539,27.8991,37.5545,42.436,45.3778,47.3434,48.7494,49.8048,50.6263,51.2838
0.950458,28.7952,38.6774,43.6394,46.6201,48.6083,50.0289,51.0946,51.9236,52.5869
0.945454,28.5755,38.0475,42.7484,45.5582,47.4273,48.7604,49.7593,50.5357,51.1565
0.942633,28.9096,38.6072,43.4911,46.4391,48.4133,49.8284,50.8924,51.7218,52.3864
0.935447,29.4069,39.4482,44.5342,47.6078,49.6657,51.1397,52.2475,53.1103,53.8013
0.939396,29.8127,39.8471,44.876,47.8938,49.905,51.341,52.4176,53.2546,53.9241
0.93139,30.2125,40.5095,45.7087,48.8458,50.9451,52.4487,53.5788,54.4591,55.1644
0.948794,31.1577,41.6907,46.9789,50.1571,52.2778,53.7933,54.9303,55.8148,56.5225
0.927874,31.1403,41.7768,47.1462,50.385,52.5518,54.1033,55.269,56.177,56.9042
0.951383,32.3387,43.2936,48.7928,52.0978,54.303,55.8789,57.0612,57.981,58.7169
0.942569,32.303,43.1508,48.5878,51.855,54.0357,55.5946,56.7646,57.675,58.4037
0.953768,33.1987,44.4267,50.0849,53.4963,55.778,57.4114,58.6386,59.5944,60.3598
0.960401,33.8047,45.196,50.9204,54.3637,56.6625,58.3061,59.5395,60.4992,61.2672
0.953835,34.1878,45.8072,51.6692,55.2037,57.5673,59.2593,60.5303,61.5201,62.3127
0.945369,34.3173,45.9347,51.7745,55.2869,57.6317,59.308,60.566,61.5448,62.3281
0.945552,34.6951,46.4003,52.281,55.8186,58.1811,59.8706,61.1389,62.1261,62.9163
0.949536,35.3092,47.2489,53.2584,56.8777,59.2965,61.0271,62.3267,63.3385,64.1486
0.954839,35.8717,47.9562,54.0265,57.6774,60.1148,61.8575,63.1654,64.1832,64.9977
0.949001,35.998,48.1074,54.1932,57.8555,60.3017,62.0514,63.3649,64.3874,65.2059
0.935363,36.1243,48.4141,54.6219,58.3676,60.8737,62.6682,64.0165,65.0667,65.9077
0.933794,36.8743,49.5428,55.9464,59.8086,62.3912,64.2396,65.6278,66.7086,67.5739
0.951989,38.1603,51.1846,57.7276,61.6597,64.2831,66.1578,67.5642,68.6583,69.5336
0.938238,37.9781,50.8262,57.2658,61.1347,63.7164,65.5619,66.9468,68.0245,68.887
0.921193,37.7593,50.5508,56.9838,60.858,63.4475,65.3005,66.6922,67.7758,68.6435
0.935702,39.687,53.5388,60.5862,64.855,67.7178,69.771,71.3154,72.5193,73.4841
0.948399,40.3891,54.0608,60.8784,64.956,67.6671,69.5996,71.0465,72.1704,73.0684
0.935917,40.0142,53.4218,60.1262,64.1534,66.8415,68.7638,70.2071,71.3306,72.2301
0.933774,40.1739,53.6335,60.3941,64.465,67.186,69.1332,70.5956,71.7342,72.6459
0.956257,41.6881,55.8154,62.956,67.2681,70.1546,72.2223,73.7762,74.9867,75.9563
0.957966,42.2191,56.5084,63.7015,68.0303,70.9206,72.987,74.5377,75.7442,76.7098
0.953965,41.9373,55.8753,62.841,67.0184,69.8024,71.7907,73.2816,74.4412,75.3688
0.955348,42.7676,57.2908,64.6427,69.0873,72.0655,74.2007,75.8065,77.0581,78.0612
0.973657,43.3578,57.7291,64.9041,69.2022,72.0636,74.1052,75.6349,76.8237,77.7741
0.957532,43.6966,58.6537,66.2539,70.8583,73.9478,76.1649,77.8336,79.1351,80.1786
0.948278,43.6661,58.4706,65.9105,70.3804,73.361,75.4897,77.0859,78.327,79.3195
0.951247,44.6225,59.8974,67.607,72.2554,75.3642,77.5898,79.2618,80.5641,81.607
0.954602,45.3208,60.7548,68.5106,73.174,76.2867,78.5117,80.1813,81.4803,82.5198
0.969434,46.3004,61.9114,69.7326,74.4306,77.5651,79.8054,81.4864,82.7943,83.841
0.967438,46.9668,62.9755,71.053,75.9263,79.1871,81.5224,83.2773,84.6443,85.7392
0.952009,46.6328,62.4276,70.3594,75.1278,78.3101,80.5844,82.2908,83.6183,84.6805
0.953728,46.8254,62.5106,70.3636,75.0796,78.2256,80.4738,82.1607,83.4731,84.5233
0.960895,48.1688,64.6557,73.0063,78.0553,81.4384,83.8636,85.6873,87.1087,88.2476
0.955936,47.7163,63.6253,71.5637,76.3173,79.4811,81.7379,83.4287,84.7426,85.7929
0.963924,49.1657,65.9897,74.518,79.6784,83.1384,85.6202,87.4875,88.9435,90.1107
0.954469,49.2029,65.9425,74.3612,79.423,82.8005,85.2138,87.0239,88.4319,89.5581
