1.98809,2.01561,2.02496,2.02966,2.0325,2.03439,2.03574,2.03676,2.03755,2.03819
1.4229,1.92962,2.18438,2.33765,2.44002,2.51322,2.56816,2.61093,2.64516,2.67317
1.26959,2.20294,2.67737,2.95034,3.12493,3.2454,3.33324,3.40002,3.45243,3.49463
1.19442,2.5969,3.31084,3.70761,3.95528,4.12354,4.245,4.33669,4.40831,4.4658
1.16427,3.04845,3.96852,4.45724,4.75492,4.95435,5.09706,5.20416,5.28747,5.35413
1.12778,3.50974,4.64697,5.24164,5.60297,5.84531,6.01906,6.14971,6.25153,6.33311
1.11261,4.02639,5.3724,6.06434,6.48228,6.76172,6.96166,7.11178,7.22863,7.32216
1.09824,4.52509,6.04967,6.82343,7.28907,7.59992,7.82214,7.9889,8.11867,8.22251
1.64746,6.69992,8.52345,9.37807,9.87282,10.1955,10.4225,10.591,10.721,10.8243
1.08868,5.27649,7.11429,8.10747,8.73562,9.17025,9.48932,9.73368,9.92691,10.0836
1.0444,5.19649,6.77593,7.54665,7.99909,8.29533,8.50386,8.65838,8.77738,8.87178
0.987997,5.38235,7.1253,8.01569,8.55773,8.92305,9.18623,9.38498,9.54045,9.66541
0.990215,5.74282,7.57981,8.50286,9.0571,9.42644,9.69005,9.88758,10.0411,10.1638
0.974841,6.73173,9.31714,10.7138,11.5881,12.1869,12.6227,12.9542,13.2148,13.425
1.13431,8.49394,11.5469,13.0722,13.9762,14.5717,14.9929,15.3061,15.548,15.7404
0.965835,8.09722,11.1105,12.6458,13.5753,14.1991,14.647,14.9845,15.2479,15.4593
0.97217,8.81421,11.9944,13.5814,14.5306,15.1619,15.612,15.9491,16.211,16.4203
1.21888,11.1938,14.8421,16.6065,17.6479,18.3356,18.8239,19.1886,19.4713,19.6969
1.00001,9.88115,13.2861,15.0189,16.0754,16.7884,17.3023,17.6906,17.9943,18.2383
1.14774,11.6731,15.5329,17.4513,18.5983,19.3606,19.9036,20.3098,20.6252,20.877
1.02511,11.3392,15.3564,17.4256,18.6895,19.5422,20.1564,20.62,20.9823,21.2734
1.08096,11.5092,15.0247,16.711,17.698,18.3451,18.8018,19.1412,19.4033,19.6118
1.03393,12.1656,16.4737,18.7375,20.1424,21.1016,21.799,22.3293,22.7462,23.0826
1.05518,13.4116,18.2695,20.7645,22.2749,23.2846,24.0062,24.5471,24.9674,25.3033
1.09947,13.5138,17.7335,19.7532,20.9324,21.7046,22.2494,22.6543,22.9671,23.216
1.04717,12.8614,16.8624,18.8487,20.0441,20.8448,21.4194,21.852,22.1897,22.4606
0.972076,13.0734,17.7035,20.1402,21.6485,22.6745,23.4176,23.9806,24.4219,24.7771
1.11862,16.0464,21.7916,24.7294,26.5018,27.6841,28.5278,29.1596,29.6503,30.0423
1.05764,16.3296,22.2931,25.3307,27.1643,28.3904,29.2679,29.9271,30.4404,30.8515
0.986792,15.9046,21.5231,24.3241,25.9975,27.1098,27.9026,28.4963,28.9575,29.3261
1.04676,17.5645,23.6882,26.7484,28.586,29.8127,30.69,31.3488,31.8616,32.2723
1.08904,18.5342,24.7413,27.813,29.6486,30.8698,31.7409,32.3937,32.901,33.3067
0.971342,17.2654,23.216,26.2312,28.0588,29.2859,30.1671,30.8306,31.3483,31.7636
1.05051,19.1298,25.6161,28.866,30.8172,32.1177,33.0463,33.7424,34.2835,34.7162
1.01458,18.5861,24.707,27.7518,29.575,30.7892,31.656,32.3059,32.8113,33.2155
1.01496,19.488,26.219,29.6581,31.7499,33.1572,34.169,34.9316,35.527,36.0048
1.03707,20.7131,27.9172,31.5673,33.7686,35.2394,36.2911,37.0803,37.6942,38.1855
1.08362,22.3075,29.996,33.8594,36.1803,37.7283,38.8343,39.6639,40.3093,40.8257
1.06348,22.2707,29.7886,33.5412,35.7907,37.2898,38.3605,39.1634,39.788,40.2876
1.03144,22.2358,29.8213,33.6466,35.9555,37.5012,38.6086,39.4412,40.0899,40.6097
1.02989,22.4673,29.9826,33.7392,35.9927,37.4946,38.567,39.3711,39.9964,40.4965
1.29108,28.4165,37.8238,42.5318,45.3611,47.2497,48.6002,49.614,50.403,51.0346
1.05332,23.1484,30.6761,34.4338,36.6887,38.1926,39.2671,40.0731,40.7002,41.202
1.03471,23.8853,32.1761,36.4439,39.049,40.8053,42.0697,43.0235,43.7686,44.3669
1.07875,25.4544,34.1581,38.5389,41.1681,42.9188,44.1675,45.1026,45.829,46.4095
1.08662,26.1685,35.0576,39.5204,42.2021,43.9919,45.2714,46.2318,46.9793,47.5776
1.04934,25.707,34.3859,38.7412,41.3602,43.1089,44.3596,45.2984,46.0292,46.6141
0.991064,24.8349,33.2693,37.5204,40.0832,41.7972,43.0242,43.9459,44.6638,45.2386
1.05221,26.9075,36.0397,40.6361,43.4034,45.2519,46.574,47.5666,48.339,48.9573
1.02746,13.0663,14.8218,15.5168,15.8895,16.1218,16.2804,16.3957,16.4833,16.552
1.05748,17.9418,24.5992,28.946,32.0802,34.4618,36.3373,37.8541,39.1069,40.1594
1.06135,21.5541,30.9109,36.3377,39.7559,42.0617,43.704,44.9249,45.8642,46.607
1.00372,24.4539,35.8214,41.9787,45.7096,48.188,49.9491,51.2638,52.2828,53.0958
0.93409,25.4784,36.4969,41.9796,45.1907,47.2942,48.7789,49.8833,50.7372,51.4172
0.963892,27.5988,38.2266,43.3044,46.2725,48.2251,49.6095,50.6431,51.4446,52.0845
0.980828,29.4463,40.3134,45.6172,48.7857,50.9001,52.4136,53.5511,54.4375,55.1478
0.950827,28.863,38.858,43.7277,46.6298,48.5594,49.9354,50.9664,51.7676,52.4081
0.971103,27.8973,36.5391,40.6819,43.1295,44.7479,45.8979,46.7572,47.4238,47.956
0.983525,30.3126,41.0474,46.6607,50.1418,52.5164,54.241,55.5507,56.5795,57.409
0.996642,31.7412,42.9133,48.5785,51.9884,54.2599,55.8791,57.0907,58.031,58.7817
0.979086,31.9869,43.1222,48.7145,52.071,54.3081,55.9059,57.1042,58.0363,58.7821
1.02527,33.7261,45.1304,50.8042,54.1994,56.4597,58.073,59.2824,60.2227,60.9749
0.940813,29.8594,39.2914,43.907,46.6501,48.4693,49.7643,50.7334,51.4858,52.087
0.981693,32.9551,44.4986,50.4967,54.1885,56.6931,58.5048,59.8767,60.9516,61.8166
1.00562,33.1959,44.0933,49.4896,52.6977,54.8197,56.3259,57.4496,58.3198,59.0134
1.02746,35.9943,48.8422,55.4943,59.569,62.3238,64.3118,65.8145,66.9906,67.9363
0.966566,34.3926,46.28,52.2331,55.793,58.1575,59.8407,61.0995,62.0762,62.8558
0.97625,35.3277,47.429,53.491,57.1317,59.5614,61.2987,62.6029,63.6182,64.4311
1.00166,37.381,50.4017,56.9899,60.971,63.6379,65.5494,66.9867,68.1068,69.0043
1.02065,38.8023,52.1793,58.8961,62.9328,65.6258,67.55,68.9934,70.1161,71.0142
0.992437,34.0399,43.9677,48.6727,51.4189,53.2191,54.4904,55.4361,56.1671,56.7491
0.98823,36.6713,49.5988,56.4741,60.7797,63.7379,65.8983,67.5463,68.8453,69.8957
0.996141,38.7697,52.7377,59.9324,64.2887,67.1989,69.2765,70.8324,72.0403,73.0048
0.961232,37.9787,51.1738,57.7646,61.6967,64.3058,66.1631,67.5524,68.631,69.4927
0.999117,39.8346,53.3913,60.1493,64.1987,66.8983,68.8274,70.2751,71.4017,72.3036
1.03482,38.9923,51.0496,56.8959,60.353,62.6384,64.2619,65.4747,66.4153,67.166
1.04206,41.1774,55.3687,62.7343,67.2709,70.3513,72.5813,74.271,75.5957,76.6623
1.00191,41.523,56.3718,64.0122,68.6504,71.7589,73.9848,75.6563,76.957,77.9977
0.996392,42.7856,58.0349,65.7438,70.3761,73.4633,75.6672,77.3191,78.6033,79.6303
0.971346,42.2829,56.9116,64.201,68.5602,71.4603,73.5293,75.0798,76.2851,77.249
0.958143,42.2039,56.6208,63.8244,68.1509,71.0391,73.1047,74.6556,75.863,76.8296
0.980344,43.3928,58.0138,65.3211,69.7108,72.6407,74.7352,76.3073,77.5306,78.5097
0.996443,44.6803,59.8462,67.4895,72.1017,75.1886,77.3996,79.0613,80.3558,81.3927
0.946786,43.3315,58.2218,65.7544,70.3028,73.3467,75.5263,77.164,78.4394,79.4607
0.985344,45.393,60.7834,68.5046,73.1425,76.2358,78.4457,80.1033,81.3926,82.424
0.955873,44.722,59.983,67.6763,72.3144,75.4164,77.6371,79.3056,80.6051,81.6459
0.952159,44.5921,59.5523,67.0379,71.5303,74.5255,76.665,78.2695,79.5174,80.5157
0.968152,46.2582,62.0991,70.1241,74.9777,78.2307,80.5631,82.3175,83.6851,84.7811
1.02868,47.0324,61.922,69.2191,73.5485,76.4136,78.4495,79.9705,81.15,82.0913
1.00894,48.0942,64.7222,73.3139,78.5822,82.1478,84.723,86.6707,88.1956,89.4221
1.02753,50.2182,67.6953,76.5724,81.9254,85.4993,88.0523,89.9664,91.4542,92.6436
0.972106,47.7448,63.9748,72.093,76.9549,80.1912,82.5002,84.2307,85.5758,86.6515
1.03969,52.2703,70.3318,79.465,84.9814,88.676,91.3242,93.3157,94.8678,96.1117
0.992723,50.5214,67.8329,76.5326,81.7638,85.2553,87.7509,89.6234,91.0802,92.2458
1.01224,45.4402,58.3489,64.4285,67.9652,70.2789,71.9105,73.1229,74.0594,74.8044
0.994542,48.4233,65.4618,74.5831,80.3204,84.2746,87.169,89.3808,91.1265,92.5398
1.00141,47.0394,62.2076,69.7141,74.1588,77.0858,79.1545,80.6924,81.8795,82.8232
0.979273,49.1029,66.7434,75.9549,81.6196,85.4592,88.2354,90.3371,91.9842,93.31
0.989079,51.6015,70.1854,79.6395,85.332,89.1275,91.8362,93.8653,95.4415,96.701
0.979385,51.1136,68.5887,77.2359,82.3812,85.7925,88.22,90.0359,91.4455,92.5715
