1.65051,1.67935,1.68918,1.69414,1.69713,1.69913,1.70057,1.70164,1.70248,1.70315
1.34765,1.93291,2.25178,2.45238,2.59021,2.69075,2.76732,2.82758,2.87624,2.91636
1.19091,2.2289,2.78913,3.11685,3.32724,3.47233,3.57791,3.65797,3.72065,3.77099
1.16975,2.72912,3.5404,3.98766,4.26434,4.45101,4.58506,4.68588,4.76442,4.8273
1.2506,3.52117,4.65284,5.25345,5.61931,5.86464,6.04041,6.17248,6.27535,6.35773
1.06587,3.54178,4.73104,5.34992,5.72528,5.97684,6.15714,6.29269,6.39832,6.48294
1.05037,4.00419,5.35864,6.05133,6.46935,6.74886,6.9489,7.09915,7.21613,7.30979
1.08643,4.67435,6.2616,7.06857,7.55572,7.88175,8.11526,8.29075,8.42746,8.53697
1.10528,5.34382,7.19114,8.13438,8.70611,9.08975,9.36502,9.57216,9.73368,9.86316
1.18264,6.30995,8.48101,9.58129,10.2453,10.6895,11.0074,11.2463,11.4322,11.5811
1.23036,7.20924,9.69781,10.9592,11.7212,12.2313,12.5968,12.8715,13.0856,13.257
1.00274,6.352,8.52326,9.61925,10.2801,10.722,11.0383,11.2759,11.461,11.6091
1.13118,7.71219,10.3467,11.6798,12.4851,13.0245,13.4109,13.7015,13.9279,14.1093
1.15059,8.39802,11.2665,12.7191,13.5969,14.1847,14.6058,14.9224,15.1691,15.3666
1.08716,8.52966,11.4813,12.9836,13.8937,14.5041,14.9419,15.2712,15.5279,15.7337
1.05313,8.7657,11.7737,13.2944,14.2116,14.825,15.2639,15.5936,15.8502,16.0557
0.944186,8.40203,11.326,12.8144,13.7163,14.3213,14.7553,15.0819,15.3366,15.5407
1.04766,9.86651,13.2846,15.0156,16.0606,16.7598,17.2604,17.6365,17.9294,18.1639
1.02464,10.0214,13.4094,15.1106,16.1336,16.8166,17.3051,17.6717,17.957,18.1854
0.970567,9.90611,13.2581,14.9526,15.9768,16.663,17.1549,17.5249,17.8133,18.0444
1.13501,12.3583,16.6937,18.9193,20.2745,21.1864,21.842,22.336,22.7215,23.0308
1.07078,12.2327,16.483,18.6343,19.9307,20.7966,21.4158,21.8803,22.2417,22.5309
1.08739,13.0708,17.6325,19.946,21.3441,22.2806,22.9517,23.4562,23.8495,24.1645
1.08213,13.573,18.2723,20.6448,22.0753,23.0318,23.7164,24.2306,24.631,24.9516
1.07961,14.2005,19.1508,21.6615,23.1799,24.1974,24.9268,25.4754,25.9029,26.2455
1.13608,15.3746,20.6143,23.2449,24.8264,25.8819,26.6363,27.2024,27.6428,27.9953
1.16883,16.3209,21.8735,24.6763,26.3686,27.5017,28.3137,28.9243,29.4,29.7812
0.951755,13.8879,18.7034,21.1563,22.6437,23.6421,24.3585,24.8977,25.3181,25.6551
0.991141,15.0561,20.2917,22.9485,24.5537,25.6282,26.3976,26.9756,27.4258,27.7863
1.08635,16.9416,22.7374,25.6551,27.4112,28.5841,29.4229,30.0526,30.5427,30.935
0.95728,15.4075,20.6929,23.3669,24.9825,26.0647,26.8403,27.4235,27.878,28.2422
1.04321,17.3478,23.3344,26.3733,28.2122,29.4448,30.3285,30.9931,31.511,31.926
1.03826,17.8261,23.9911,27.1186,29.0093,30.2756,31.1829,31.8649,32.3962,32.8218
1.09673,19.296,25.9128,29.2554,31.2716,32.6201,33.5854,34.3106,34.8753,35.3275
0.972825,17.6904,23.8128,26.9217,28.8032,30.0645,30.9689,31.6492,32.1795,32.6044
1.01139,18.8783,25.3754,28.6602,30.642,31.9675,32.9164,33.6291,34.1841,34.6285
0.993066,18.9633,25.4537,28.7315,30.709,32.032,32.9793,33.6912,34.2456,34.6897
1.12917,21.8196,29.1686,32.8647,35.0903,36.5775,37.6417,38.4408,39.0629,39.561
1.04287,20.7313,27.8336,31.4445,33.6328,35.1012,36.155,36.948,37.5664,38.0622
1.07251,22.0357,29.6918,33.5926,35.9556,37.5401,38.6761,39.5304,40.1962,40.7296
1.0897,23.1543,31.2568,35.3776,37.8701,39.5396,40.7359,41.6351,42.3356,42.8968
0.990954,21.7322,29.3358,33.1891,35.5155,37.0721,38.1868,39.0243,39.6766,40.1989
1.19013,26.8953,36.3039,41.0699,43.9487,45.8761,47.2569,48.2947,49.1033,49.751
0.990367,11.419,13.0132,13.645,13.9838,14.1951,14.3395,14.4443,14.524,14.5865
0.95678,15.2147,21.2186,25.223,28.1545,30.4077,32.1979,33.6561,34.8676,35.8904
0.979787,19.289,28.3586,33.7492,37.1849,39.5164,41.182,42.4223,43.3771,44.1324
0.918778,20.5567,29.6987,34.4306,37.2132,39.0247,40.2936,41.231,41.9517,42.5232
0.942709,22.8601,32.1939,36.776,39.4652,41.2359,42.4924,43.4315,44.1605,44.7432
1.08744,27.4812,37.7959,42.7998,45.7636,47.7306,49.1333,50.185,51.003,51.6574
1.03841,27.2571,37.1694,42.074,45.0237,46.9983,48.4141,49.4791,50.3096,50.9753
0.96891,25.9601,35.0914,39.6317,42.3631,44.1887,45.4953,46.4766,47.2406,47.8524
0.941215,25.5066,34.2584,38.6274,41.2571,43.0148,44.2726,45.2174,45.953,46.542
1.02664,28.8444,38.9997,44.1719,47.3155,49.4291,50.9478,52.0919,52.9848,53.701
0.936978,26.7756,36.0484,40.7203,43.5339,45.4129,46.7562,47.7643,48.5485,49.176
0.944729,27.5147,37.0204,41.8217,44.7201,46.6601,48.0499,49.0945,49.9084,50.5604
0.987966,29.5733,39.9085,45.1607,48.3411,50.4738,52.0034,53.154,54.0509,54.7697
1.003,30.2034,40.51,45.6881,48.8018,50.88,52.3655,53.4802,54.3474,55.0413
1.00498,30.831,41.4471,46.8307,50.0893,52.2746,53.8422,55.0217,55.9414,56.6787
0.98578,30.8574,41.5414,46.9651,50.2458,52.4439,54.0192,55.2035,56.1262,56.8654
0.933242,29.459,39.5174,44.587,47.6406,49.681,51.1406,52.2364,53.0895,53.7723
1.07019,34.3979,46.257,52.279,55.925,58.3702,60.1242,61.4438,62.4727,63.2975
1.01147,33.3254,44.9458,50.8583,54.4378,56.8372,58.5573,59.8507,60.8586,61.6661
1.01428,33.5153,44.9209,50.6521,54.0975,56.3966,58.0398,59.2727,60.2318,60.9993
1.08129,36.2859,48.7309,55.037,58.8515,61.4087,63.2426,64.6222,65.6978,66.56
1.05092,35.9198,48.3221,54.6169,58.4243,60.9752,62.8033,64.1777,65.2485,66.1063
0.963508,33.132,44.4152,50.1012,53.5258,55.814,57.4508,58.6797,59.6362,60.4019
1.01611,35.1041,46.9888,52.9862,56.6049,59.0265,60.761,62.0645,63.08,63.8935
1.02503,36.2557,48.8225,55.2359,59.1289,61.7436,63.6208,65.0341,66.1366,67.0205
1.09195,39.0461,52.4709,59.2629,63.3596,66.0986,68.0583,69.5298,70.6753,71.5922
0.961877,35.2006,47.4606,53.6958,57.4706,60.0015,61.8165,63.1817,64.246,65.0989
1.04673,38.6809,51.9811,58.6905,62.7325,65.4335,67.3656,68.8162,69.9454,70.8492
1.03982,39.4418,53.2539,60.2901,64.5563,67.4199,69.4752,71.0222,72.2288,73.1961
1.0845,41.6916,56.1384,63.4366,67.8361,70.7768,72.8807,74.4604,75.69,76.6743
0.974291,37.4135,50.0866,56.4468,60.2716,62.8256,64.6521,66.0233,67.0906,67.9449
1.01008,39.3527,52.8577,59.714,63.8675,66.6547,68.6548,70.1601,71.3342,72.2755
0.995149,39.4078,53.0299,59.9513,64.1396,66.9461,68.9575,70.4696,71.6479,72.5917
1.02868,25.9926,30.9147,32.9975,34.1473,34.8761,35.3793,35.7476,36.0289,36.2507
0.986187,31.0373,42.7219,49.8685,54.7931,58.4144,61.196,63.402,65.1955,66.6827
1.00953,35.8508,50.5638,58.7041,63.7409,67.1187,69.5232,71.314,72.6956,73.7918
0.90485,22.2787,27.1823,29.2414,30.3519,31.043,31.514,31.8554,32.1144,32.3176
0.91416,28.9298,40.8116,48.0362,52.9985,56.6462,59.4502,61.6767,63.489,64.9937
1.01806,37.5555,54.2082,63.4017,69.0818,72.8885,75.5969,77.6131,79.1679,80.401
1.0255,41.6537,59.237,68.172,73.4661,76.9499,79.4132,81.2468,82.665,83.7948
0.985429,42.0508,58.3831,66.3764,71.0949,74.2131,76.4299,78.0881,79.3758,80.4049
1.03912,46.086,63.2554,71.7358,76.8166,80.2103,82.6403,84.4672,85.891,87.032
0.946233,42.812,58.1336,65.7241,70.2801,73.3224,75.4987,77.1329,78.405,79.4235
0.990102,45.1286,60.7996,68.6025,73.2961,76.4329,78.6778,80.3641,81.6773,82.7289
0.991522,45.9953,62.0158,70.1017,74.9953,78.2773,80.6315,82.4029,83.7839,84.8909
1.00881,47.6744,64.3286,72.764,77.8667,81.2856,83.7358,85.5778,87.013,88.1628
0.953747,45.9602,62.0582,70.2188,75.1525,78.4569,80.8244,82.604,83.9905,85.1011
0.95223,46.7608,63.157,71.4686,76.4921,79.8562,82.2666,84.0784,85.49,86.6208
0.948278,46.8266,62.9531,71.0664,75.9498,79.2117,81.5448,83.2962,84.6594,85.7506
0.948998,48.0003,64.8658,73.4619,78.6788,82.183,84.6996,86.5946,88.073,89.2588
0.931901,47.7019,64.2978,72.6863,77.7449,81.1267,83.5465,85.3633,86.7776,87.9096
1.01724,51.8035,69.3791,78.1972,83.4995,87.0399,89.5716,91.4722,92.9515,94.1357
0.969762,49.0746,65.5405,73.8258,78.8218,82.1645,84.5586,86.3579,87.7597,88.8825
0.903357,46.656,62.8194,71.0902,76.1213,79.5052,81.9373,83.7696,85.1997,86.3469
0.976853,51.2669,69.124,78.2116,83.7086,87.3895,90.026,92.0069,93.5497,94.785
0.894718,48.0096,64.8883,73.4753,78.67,82.1501,84.644,86.519,87.9799,89.1504
0.886348,48.3077,65.2165,73.7776,78.9443,82.4008,84.8756,86.7349,88.1829,89.3425
