1.64735,1.70015,1.71852,1.72785,1.73349,1.73728,1.73999,1.74203,1.74362,1.7449
1.29077,1.83306,2.11845,2.29441,2.41374,2.49998,2.56521,2.61629,2.65736,2.6911
1.82569,3.38409,4.22199,4.71473,5.0331,5.25395,5.41548,5.53847,5.63513,5.71301
1.10362,2.55376,3.31275,3.73487,3.99759,4.17555,4.30369,4.40023,4.47554,4.5359
1.0631,2.93581,3.86337,4.35624,4.65672,4.85829,5.00274,5.11129,5.19584,5.26355
1.53335,5.01256,6.69964,7.58785,8.13054,8.49605,8.75892,8.95708,9.1118,9.23595
1.05416,3.98229,5.35255,6.0622,6.49307,6.78217,6.98953,7.14549,7.26706,7.36447
1.02569,4.41322,5.95339,6.74544,7.22598,7.54847,7.77985,7.95396,8.08972,8.19855
1.12338,5.40567,7.29218,8.25614,8.84005,9.2316,9.51241,9.72364,9.8883,10.0203
0.954002,5.1164,6.925,7.85203,8.41527,8.79376,9.0656,9.27031,9.43002,9.55811
0.96081,5.63946,7.61704,8.624,9.23356,9.64213,9.93504,10.1553,10.3269,10.4645
0.944994,6.02811,8.13648,9.20984,9.86013,10.2964,10.6093,10.8448,11.0284,11.1755
0.940791,6.49535,8.77136,9.9314,10.6347,11.1067,11.4453,11.7002,11.8989,12.0582
0.949561,7.06694,9.55555,10.827,11.5988,12.1171,12.4893,12.7694,12.9879,13.1631
0.928396,7.30667,9.82895,11.1061,11.8774,12.3936,12.7633,13.0412,13.2576,13.431
1.01215,8.37875,11.2444,12.6978,13.5775,14.1674,14.5905,14.9088,15.157,15.356
0.920869,8.23397,11.1666,12.6824,13.6093,14.2347,14.6851,15.025,15.2907,15.504
0.952393,9.02945,12.2235,13.8538,14.841,15.5023,15.9762,16.3322,16.6096,16.8317
0.939639,9.39879,12.7086,14.3945,15.4157,16.1006,16.5919,16.9615,17.2497,17.4807
1.04814,10.9254,14.7116,16.6301,17.7896,18.5663,19.1229,19.5414,19.8675,20.1288
0.926281,10.1068,13.6234,15.4163,16.5045,17.2354,17.7603,18.1556,18.4639,18.7112
0.975502,11.17,15.0909,17.0975,18.3169,19.1364,19.725,20.1682,20.5139,20.7911
0.974762,11.8003,16.0061,18.1645,19.4771,20.3593,20.9929,21.4701,21.8423,22.1407
0.920042,11.5751,15.6338,17.6934,18.9375,19.7702,20.3665,20.8145,21.1634,21.4428
0.937443,12.3427,16.6973,18.9189,20.2669,21.1722,21.8222,22.3116,22.6934,22.9996
0.914929,12.581,17.0276,19.2956,20.6709,21.5938,22.256,22.7542,23.1427,23.4541
0.985024,13.8254,18.5729,20.9671,22.4102,23.3751,24.0656,24.5843,24.9881,25.3114
0.905311,13.3667,18.1089,20.548,22.0362,23.0393,23.7614,24.3062,24.7318,25.0736
0.908126,13.7446,18.5262,20.9537,22.4208,23.4029,24.1061,24.6345,25.046,25.3755
0.925327,14.4663,19.5202,22.0988,23.6639,24.715,25.4698,26.0381,26.4815,26.8371
0.943244,15.1575,20.4244,23.1037,24.7263,25.8141,26.5942,27.1809,27.6382,28.0046
0.90738,15.1424,20.4768,23.2081,24.8684,25.9844,26.7861,27.3899,27.861,28.2389
0.982243,16.8455,22.7394,25.7409,27.5587,28.7773,29.6511,30.3082,30.8203,31.2307
0.979055,17.4517,23.638,26.8057,28.7308,30.0247,30.9541,31.654,32.2001,32.6381
0.990796,18.0478,24.3315,27.5155,29.4382,30.7248,31.6461,32.3383,32.8774,33.3091
1.04745,18.3164,24.1677,27.0595,28.7863,29.9348,30.7539,31.3678,31.8449,32.2265
0.996729,17.7211,23.6333,26.6684,28.5242,29.778,30.6824,31.3657,31.9003,32.33
1.05304,19.2637,25.911,29.3485,31.4485,32.8635,33.8812,34.6483,35.247,35.7272
0.995722,18.7721,25.3303,28.6991,30.7448,32.1177,33.1025,33.8432,34.4205,34.8832
0.985269,19.1676,25.9156,29.3713,31.4678,32.8748,33.8843,34.644,35.2362,35.711
1.04894,21.1328,28.6426,32.4895,34.8253,36.3941,37.5203,38.3681,39.0293,39.5595
1.03575,21.2908,28.7326,32.5068,34.7866,36.3127,37.4056,38.227,38.8667,39.3792
0.961126,20.5971,27.9914,31.7975,34.1189,35.6831,36.8089,37.658,38.3213,38.8537
0.992852,21.9698,29.8321,33.8483,36.2829,37.9156,39.0864,39.9668,40.6529,41.2026
0.960113,21.7499,29.4365,33.3399,35.7005,37.282,38.4155,39.2678,39.932,40.4641
1.03868,24.1117,32.6225,36.9583,39.5879,41.3535,42.6209,43.575,44.3193,44.9161
0.946753,22.4151,30.265,34.2542,36.6693,38.2885,39.4495,40.3228,41.0034,41.5489
0.954753,23.1678,31.3202,35.4805,38.0056,39.7015,40.919,41.8357,42.5507,43.124
0.955004,23.4528,31.5807,35.701,38.1915,39.8594,41.0544,41.9526,42.6524,43.213
0.941596,23.8184,32.2535,36.5864,39.227,41.0053,42.2846,43.2492,44.0025,44.6071
0.961421,24.7435,33.435,37.8661,40.5507,42.3507,43.6413,44.6118,45.3681,45.974
0.980053,25.64,34.5956,39.1522,41.9117,43.7622,45.0894,46.0878,46.8661,47.4899
1.00253,26.842,36.2865,41.1124,44.0427,46.0112,47.4248,48.4891,49.3193,49.9851
0.963189,26.5131,35.9239,40.7393,43.6636,45.6276,47.0376,48.0989,48.9266,49.5902
0.950825,26.6156,35.9639,40.7158,43.5906,45.5168,46.8972,47.9351,48.7439,49.3918
0.961067,27.2782,36.8036,41.6485,44.5838,46.5531,47.9661,49.0293,49.8584,50.5231
0.955339,27.6786,37.4131,42.3886,45.4111,47.4422,48.9009,49.9994,50.8564,51.5437
0.952248,28.0371,37.8598,42.8644,45.8969,47.9308,49.3895,50.4867,51.342,52.0274
0.966101,28.987,39.1715,44.3693,47.5229,49.64,51.1597,52.3035,53.1956,53.9108
1.00376,30.6062,41.3393,46.8107,50.1276,52.3533,53.95,55.1515,56.0883,56.8391
0.938342,29.1026,39.3395,44.571,47.7479,49.8821,51.4147,52.5686,53.4688,54.1906
0.932081,29.161,39.2909,44.4347,47.5458,49.63,51.1237,52.2467,53.1216,53.8226
0.928833,29.4101,39.6445,44.8637,48.0308,50.1579,51.6851,52.835,53.732,54.4513
0.966542,31.0351,41.8721,47.4075,50.7679,53.0247,54.6448,55.8643,56.8155,57.5781
0.933832,30.462,41.1324,46.583,49.8904,52.1108,53.7044,54.9037,55.8389,56.5886
0.913577,30.5525,41.3955,46.9539,50.3326,52.6035,54.2344,55.4626,56.4208,57.1892
0.931571,31.0852,41.7755,47.1697,50.4194,52.5909,54.1442,55.3105,56.2183,56.9449
0.938654,32.0829,43.3971,49.2062,52.747,55.1324,56.8491,58.1439,59.1554,59.9675
0.926805,31.6954,42.6,48.1144,51.4402,53.6636,55.2544,56.4487,57.3783,58.1223
0.954875,33.7051,45.7171,51.9106,55.6927,58.2434,60.0802,61.4663,62.5494,63.4192
1.02057,36.7948,49.9291,56.6595,60.7464,63.4901,65.4588,66.94,68.0947,69.0201
1.0016,36.562,49.4212,55.9478,59.8913,62.5311,64.422,65.843,66.95,67.8366
0.965198,35.8545,48.5046,54.9562,58.8708,61.4999,63.3876,64.809,65.9179,66.8072
1.00756,38.0118,51.4039,58.23,62.3687,65.146,67.1387,68.6381,69.8072,70.7443
0.91969,35.0118,47.2261,53.4284,57.181,59.6958,61.4986,62.8542,63.9107,64.7572
0.97144,37.3195,50.3423,56.9837,61.0147,63.7223,65.6667,67.1307,68.2729,69.1889
0.955473,37.1909,50.1978,56.8331,60.8576,63.5588,65.497,66.9555,68.0927,69.0042
0.932006,36.6154,49.3986,55.9174,59.8707,62.524,64.4279,65.8608,66.9781,67.8737
0.918105,36.7535,49.7272,56.3707,60.4083,63.1218,65.0708,66.5384,67.6834,68.6017
0.957027,38.7989,52.4419,59.3979,63.6129,66.4398,68.4671,69.9921,71.1807,72.1333
0.982528,40.0479,53.9671,61.0325,65.3058,68.1691,70.2215,71.7648,72.9676,73.9313
0.937934,38.7027,52.2555,59.1828,63.3923,66.222,68.2551,69.7865,70.9816,71.9402
0.970337,40.1249,53.9801,61.0079,65.2558,68.1004,70.1382,71.6697,72.8627,73.8183
0.907993,38.6609,52.4489,59.5537,63.8891,66.8109,68.9138,70.4999,71.7388,72.7334
0.973796,41.7348,56.3643,63.7994,68.2935,71.3018,73.456,75.0745,76.3348,77.344
1.01442,44.4364,60.2348,68.3288,73.2506,76.5604,78.9389,80.7309,82.1297,83.2518
0.971109,43.0288,58.1967,65.9184,70.5936,73.7276,75.9743,77.6638,78.9804,80.0353
0.967345,20.4043,23.1697,24.2645,24.8514,25.2175,25.4676,25.6493,25.7873,25.8957
0.954805,27.8221,38.9792,46.5378,52.1297,56.4612,59.9235,62.7574,65.1212,67.1234
0.87272,31.7242,47.2314,56.6458,62.7147,66.8601,69.8336,72.0533,73.765,75.1205
0.994742,41.4874,60.9217,71.1646,77.2282,81.1872,83.9645,86.018,87.5977,88.8509
0.93784,41.3693,58.4122,66.7116,71.5506,74.723,76.9675,78.6415,79.939,80.9749
0.925837,43.2678,60.3282,68.7684,73.83,77.2187,79.6512,81.4839,82.9149,84.0636
1.01297,49.1837,67.8267,77.1186,82.7208,86.4746,89.1666,91.1918,92.7707,94.036
0.906435,44.3586,60.2678,68.1623,72.9053,76.073,78.339,80.0404,81.3649,82.4252
0.954333,46.8305,63.2278,71.462,76.4419,79.7824,82.1795,83.9837,85.3909,86.5192
1.03416,52.0353,70.6575,80.2005,86.0238,89.9492,92.7747,94.9059,96.5707,97.9071
0.886094,45.2344,61.3007,69.4808,74.4367,77.7591,80.1405,81.9309,83.3258,84.4432
0.921359,47.7835,64.7517,73.4022,78.6485,82.1698,84.6967,86.5986,88.0817,89.2708
0.912274,48.0039,65.0684,73.7852,79.0779,82.6332,85.186,87.1081,88.6074,89.8097
