1.64697,1.6797,1.6909,1.69655,1.69997,1.70225,1.70388,1.70511,1.70607,1.70683
1.35908,1.92821,2.2321,2.42106,2.54992,2.64342,2.71435,2.77001,2.81485,2.85174
1.22004,2.22462,2.7509,3.05496,3.24903,3.38246,3.4794,3.55283,3.61029,3.65644
1.12218,2.54602,3.27595,3.67872,3.92864,4.09773,4.21944,4.31115,4.38269,4.44004
1.077,3.0027,3.98258,4.51198,4.83791,5.05792,5.21626,5.33561,5.42878,5.50354
1.14773,3.75846,5.00969,5.65753,6.04823,6.30882,6.49487,6.63431,6.7427,6.82935
1.06499,4.05227,5.44222,6.15714,6.58986,6.87982,7.08769,7.24403,7.3659,7.46357
1.08059,4.66158,6.26091,7.07338,7.56309,7.89038,8.12456,8.3004,8.43728,8.54686
1.00045,4.76565,6.36644,7.17035,7.65309,7.97511,8.20524,8.37791,8.51225,8.61976
1.04723,5.41779,7.20971,8.10973,8.65155,9.01375,9.27301,9.46778,9.61947,9.74096
1.01174,5.78334,7.76266,8.77467,9.38996,9.80372,10.1011,10.3251,10.4999,10.6401
0.98802,4.04226,4.7614,5.0627,5.22811,5.33257,5.4045,5.45704,5.4971,5.52865
1.0105,5.37821,7.30506,8.476,9.27973,9.86915,10.321,10.6788,10.9693,11.2099
1.02836,6.78258,9.66574,11.3138,12.3545,13.0621,13.5708,13.9524,14.2486,14.4846
0.988382,7.52819,10.6275,12.2273,13.1776,13.8021,14.2427,14.5699,14.8224,15.0232
0.983682,8.34067,11.5884,13.2012,14.1561,14.7879,15.2372,15.5734,15.8346,16.0435
0.972723,8.83684,12.0551,13.6328,14.5709,15.1942,15.6388,15.9722,16.2314,16.4388
0.900506,8.85496,12.071,13.683,14.6568,15.31,15.7788,16.1319,16.4073,16.6282
0.998888,10.4761,14.2189,16.096,17.2271,17.9834,18.5248,18.9313,19.2478,19.5012
0.938192,10.5883,14.4154,16.3559,17.5312,18.3196,18.8852,19.3107,19.6425,19.9084
1.03187,11.9466,16.0078,18.0155,19.213,20.0082,20.5746,20.9985,21.3276,21.5905
0.895722,10.9235,14.7136,16.6352,17.8011,18.5847,19.148,19.5724,19.9038,20.1697
1.01185,12.8292,17.2331,19.4518,20.7889,21.6824,22.3215,22.8013,23.1746,23.4734
0.990617,12.9793,17.3888,19.6069,20.9427,21.8355,22.4743,22.954,23.3275,23.6265
0.955929,13.0077,17.4591,19.714,21.0777,21.9917,22.647,23.1398,23.5239,23.8318
1.07114,15.2298,20.5062,23.188,24.8112,25.899,26.6788,27.2652,27.7221,28.0881
0.947082,13.9029,18.6667,21.0684,22.5146,23.4806,24.1714,24.6899,25.0935,25.4165
1.02624,15.6837,21.1128,23.867,25.533,26.6495,27.45,28.0521,28.5214,28.8975
1.02161,16.4056,22.1884,25.1353,26.9207,28.1181,28.9768,29.6227,30.1261,30.5295
1.07975,17.7608,23.8528,26.9085,28.7427,29.9654,30.8386,31.4934,32.0025,32.4097
0.898206,15.2058,20.4111,23.0358,24.6194,25.6794,26.4388,27.0097,27.4545,27.8109
0.990323,17.5514,23.7089,26.8494,28.7551,30.0348,30.9534,31.6449,32.1841,32.6165
0.986715,17.3338,23.0151,25.82,27.4896,28.5965,29.3839,29.9727,30.4295,30.7942
0.940991,17.1051,22.9276,25.8943,27.6985,28.913,29.7869,30.4461,30.9611,31.3746
0.983035,18.7925,25.4324,28.8442,30.9203,32.3159,33.3181,34.0725,34.6608,35.1324
1.03759,20.1282,26.9856,30.4181,32.4732,33.8401,34.8146,35.5442,36.111,36.564
0.977392,19.7902,26.7297,30.2686,32.4169,33.8606,34.8979,35.6794,36.2894,36.7788
1.04713,21.9902,29.7161,33.6341,36.0001,37.583,38.7162,39.5672,40.2299,40.7604
1.0246,21.7351,29.1194,32.8109,35.0245,36.4996,37.553,38.3428,38.9571,39.4484
1.05577,23.1438,31.159,35.229,37.6954,39.3511,40.5396,41.4345,42.1326,42.6924
1.0796,23.5744,31.3902,35.2815,37.6102,39.1597,40.2648,41.0926,41.7359,42.25
1.05794,23.5447,31.5061,35.5491,38.0013,39.6487,40.8321,41.7235,42.4192,42.9773
1.04772,23.9614,32.1886,36.3748,38.9094,40.6081,41.8256,42.7408,43.4539,44.0251
0.968396,22.1354,29.4943,33.1748,35.381,36.8503,37.8989,38.6849,39.2958,39.7844
1.02375,23.5776,31.4275,35.3877,37.7789,39.3802,40.528,41.3911,42.0639,42.6031
1.05579,25.1645,33.8654,38.3252,41.0388,42.8639,44.1754,45.1634,45.9344,46.5529
1.03044,25.9575,35.3233,40.1547,43.0966,45.0744,46.4949,47.5642,48.3982,49.0668
0.995635,25.4733,34.3068,38.7282,41.3729,43.1308,44.3834,45.321,46.0491,46.6309
1.01625,26.9075,36.3721,41.1738,44.0803,46.0303,47.4298,48.4833,49.3053,49.9644
1.05302,28.5934,38.5896,43.6406,46.6878,48.7261,50.1852,51.2812,52.1346,52.8179
1.04019,28.7782,38.7208,43.7254,46.7392,48.7532,50.1942,51.2762,52.1186,52.793
0.979709,27.1694,36.321,40.9008,43.6523,45.4886,46.8015,47.7868,48.5536,49.1673
1.04328,29.6936,39.9301,45.1374,48.2965,50.4182,51.9418,53.089,53.9841,54.7019
1.04677,29.9487,40.074,45.1652,48.2275,50.2714,51.7321,52.8279,53.6804,54.3624
1.01057,28.9511,38.6289,43.4966,46.4289,48.3893,49.7926,50.8468,51.6678,52.3253
1.08989,30.9625,41.1257,46.2218,49.2871,51.3343,52.7984,53.8977,54.7533,55.4382
1.09622,32.8205,44.4736,50.5324,54.251,56.7666,58.5821,59.954,61.0273,61.8899
1.04703,31.7875,42.7749,48.3128,51.6359,53.8478,55.4247,56.6052,57.522,58.2543
1.01419,31.0676,41.6353,46.9402,50.1287,52.2574,53.7797,54.9227,55.8125,56.525
1.02672,32.0668,43.078,48.6538,52.0254,54.2853,55.9057,57.1246,58.0748,58.8363
1.06015,33.4306,44.8018,50.5323,53.985,56.2925,57.9435,59.183,60.1479,60.9203
1.11518,34.7929,46.2592,51.9809,55.4118,57.6984,59.3315,60.5563,61.5089,62.2709
1.03338,33.869,45.872,52.0895,55.8999,58.4761,60.3346,61.7388,62.8373,63.7202
0.938059,31.3376,42.2617,47.7843,51.1059,53.3204,54.9011,56.0856,57.006,57.7417
0.938985,32.1035,43.3179,48.9962,52.4246,54.7195,56.3636,57.5996,58.5627,59.3344
1.10839,38.7378,52.2564,59.0945,63.2221,65.9842,67.9623,69.4487,70.6065,71.5338
0.997386,35.3667,47.5813,53.7354,57.443,59.9211,61.6943,63.026,64.0627,64.8928
0.994466,35.1123,46.9096,52.8126,56.3586,58.7249,60.4165,61.686,62.674,63.4646
0.953328,32.8219,43.429,48.7029,51.8637,53.9705,55.4756,56.6046,57.4829,58.1856
1.03755,37.271,50.3003,57.0565,61.2028,64.0088,66.0345,67.5659,68.7643,69.7278
1.13727,41.369,55.6422,62.8731,67.2278,70.1332,72.2081,73.7632,74.972,75.9383
0.974265,36.9605,50.1622,56.9294,61.0403,63.8021,65.7855,67.2791,68.4445,69.3792
1.06054,40.5816,54.6109,61.6423,65.8566,68.6625,70.6643,72.1642,73.3299,74.2617
0.991065,38.8224,52.3769,59.2434,63.3965,66.181,68.1784,69.6814,70.8535,71.7931
1.09572,43.8965,59.2733,67.0678,71.7794,74.9349,77.1959,78.8954,80.2193,81.2799
0.988097,39.6128,53.0777,59.8123,63.8522,66.5448,68.4676,69.9094,71.0305,71.9273
1.03749,39.7291,52.3026,58.4817,62.162,64.606,66.3474,67.6515,68.6646,69.4745
1.02928,40.7626,54.7616,62.0032,66.449,69.4602,71.6358,73.2817,74.5705,75.6072
1.00313,41.7232,56.7676,64.5627,69.3174,72.5152,74.8114,76.5393,77.8862,78.9656
0.986811,41.855,56.6095,64.0525,68.5195,71.4939,73.6157,75.2052,76.4403,77.4276
0.964968,41.1731,55.3114,62.3842,66.6269,69.4559,71.4776,72.9947,74.1752,75.1201
0.992926,43.5364,58.8029,66.5644,71.2707,74.4313,76.701,78.4102,79.7437,80.8132
1.17126,52.4402,70.7878,80.0672,85.6658,89.4098,92.0891,94.1011,95.6674,96.9212
0.986405,43.9389,58.7759,66.177,70.6115,73.5651,75.6736,77.2544,78.4835,79.4665
1.02812,46.6299,62.6977,70.8573,75.8044,79.1267,81.5124,83.3091,84.7109,85.8353
0.963375,43.2907,57.749,64.9787,69.3154,72.2049,74.2677,75.8139,77.0159,77.977
0.932746,42.2774,56.5979,63.8543,68.2464,71.1922,73.3056,74.896,76.1362,77.1305
0.976274,45.7286,61.8194,70.0774,75.1019,78.4804,80.9075,82.7353,84.1614,85.305
0.977529,46.1727,62.1153,70.1523,74.9847,78.2078,80.51,82.2364,83.5787,84.6524
1.02512,49.4764,66.7578,75.5306,80.8378,84.3952,86.9463,88.8653,90.3614,91.5606
0.942062,44.3106,58.8625,66.0568,70.3448,73.1912,75.2181,76.7348,77.9124,78.8531
0.947682,44.8238,59.8598,67.4744,72.0894,75.1892,77.416,79.0935,80.4028,81.4532
0.967741,46.7666,62.9127,71.1641,76.1747,79.5394,81.9542,83.7714,85.1882,86.3238
1.01589,49.9683,67.3037,76.1049,81.4198,84.975,87.5194,89.4302,90.9178,92.1087
0.953126,47.2769,63.5062,71.6848,76.6072,79.8947,82.2456,84.0104,85.3839,86.4834
0.925615,47.1687,63.7357,72.1796,77.3,80.7374,83.2047,85.0619,86.5106,87.6721
0.95899,48.7472,65.3137,73.6002,78.567,81.8746,84.2349,86.0037,87.3784,88.4776
0.929538,45.9196,60.8342,68.2296,72.6539,75.6,77.7032,79.2804,80.5071,81.4884
0.97418,50.4822,68.3826,77.6912,83.4149,87.2938,90.097,92.2179,93.8787,95.2145
0.964487,49.9715,67.0611,75.6415,80.7811,84.1977,86.6312,88.4517,89.8644,90.9924
