1.55797,1.63319,1.65991,1.6736,1.68192,1.68752,1.69154,1.69456,1.69692,1.69882
1.13832,1.56337,1.772,1.89579,1.97772,2.03594,2.07945,2.11318,2.14011,2.16211
1.02093,1.88939,2.37131,2.66364,2.85718,2.99399,3.09554,3.17379,3.23587,3.28631
0.981742,2.29994,3.01522,3.42059,3.67507,3.84811,3.97292,4.06702,4.14041,4.19922
0.945213,2.61625,3.44594,3.88422,4.14982,4.32715,4.45377,4.54866,4.62242,4.6814
0.935076,3.09993,4.17644,4.75075,5.10468,5.34455,5.51789,5.64903,5.75174,5.83437
0.924459,3.48175,4.66714,5.27584,5.64333,5.88892,6.06454,6.19632,6.29884,6.38087
0.89347,3.86616,5.23893,5.95334,6.39042,6.68551,6.8982,7.05881,7.18439,7.28528
0.926217,4.40642,5.92536,6.69907,7.16678,7.47991,7.70419,7.87271,8.00396,8.10906
1.08145,5.61489,7.5404,8.5247,9.12276,9.52486,9.81385,10.0316,10.2016,10.338
0.922274,5.1256,6.84206,7.71203,8.23795,8.59024,8.8427,9.0325,9.18038,9.29885
0.87624,5.31965,7.17436,8.1377,8.72887,9.12888,9.41761,9.63586,9.80663,9.94392
1.02051,7.02057,9.66349,11.0625,11.9266,12.5127,12.9362,13.2564,13.507,13.7084
0.912099,6.92864,9.53854,10.888,11.7079,12.2578,12.6519,12.9481,13.1788,13.3636
0.855771,7.0593,9.68095,11.0213,11.8332,12.3777,12.7683,13.0621,13.2913,13.4749
0.870793,7.66433,10.4466,11.8607,12.7169,13.2913,13.7034,14.0135,14.2554,14.4493
0.920062,8.58391,11.6648,13.2356,14.1896,14.8309,15.2917,15.6388,15.9097,16.1271
0.927698,9.16942,12.453,14.1323,15.1534,15.84,16.3334,16.705,16.9951,17.2277
0.847861,8.80791,11.9392,13.5392,14.5112,15.1643,15.6333,15.9865,16.262,16.4829
0.856845,9.06422,12.1431,13.6927,14.6265,15.2507,15.6975,16.0331,16.2944,16.5036
0.875092,6.46728,7.73387,8.27991,8.58488,8.77971,8.91497,9.01439,9.09055,9.15076
0.912441,8.50654,11.694,13.635,14.9671,15.9433,16.6911,17.2829,17.7631,18.1607
0.914853,9.87679,13.9491,16.2204,17.6351,18.5889,19.2708,19.7806,20.175,20.4887
0.892564,10.9336,15.5301,17.9657,19.445,20.4339,21.1407,21.6709,22.0834,22.4136
0.897183,12.103,17.0316,19.5487,21.0616,22.0706,22.7918,23.3332,23.7546,24.092
0.901751,13.0337,18.1044,20.6549,22.1884,23.2135,23.9476,24.4993,24.9293,25.2738
0.844475,12.9252,17.8277,20.3092,21.8133,22.8241,23.5505,24.0979,24.5253,24.8682
0.954654,14.6224,19.8534,22.5062,24.12,25.2071,25.9896,26.58,27.0414,27.4119
0.883699,13.9895,18.9721,21.516,23.0643,24.106,24.8548,25.419,25.8593,26.2125
0.851967,13.5443,18.1928,20.5443,21.9663,22.9192,23.6022,24.1158,24.516,24.8367
0.902874,15.3556,21.0196,23.9932,25.8293,27.0763,27.9787,28.662,29.1975,29.6284
0.881487,15.7613,21.5919,24.603,26.4354,27.6661,28.549,29.213,29.7304,30.145
0.84662,15.4641,20.9677,23.7509,25.4278,26.5484,27.3501,27.952,28.4207,28.7959
0.883298,15.872,21.1803,23.8303,25.4222,26.4852,27.2457,27.8169,28.2617,28.6179
0.849665,13.3518,17.1111,18.9224,19.9939,20.7032,21.2076,21.5849,21.8778,22.1117
0.950214,16.805,23.0257,26.4871,28.7112,30.2645,31.4115,32.2937,32.9933,33.5619
0.917451,17.5353,24.2804,27.8649,30.0628,31.5401,32.5982,33.3921,34.0093,34.5024
0.861787,17.2696,23.7391,27.0498,29.0443,30.3748,31.3252,32.038,32.5924,33.0361
0.930825,19.2526,26.2785,29.844,31.9979,33.441,34.4759,35.2547,35.862,36.3489
0.88364,17.9072,23.9272,26.9091,28.692,29.8789,30.7262,31.3615,31.8555,32.2507
0.916629,17.5655,23.0813,25.8228,27.4725,28.5764,29.3675,29.9625,30.4263,30.7981
0.955328,20.642,28.6452,33.0522,35.8562,37.799,39.225,40.3163,41.1783,41.8765
0.869636,20.2703,28.2316,32.4123,34.961,36.669,37.8906,38.8065,39.5182,40.0869
0.8518,20.7906,28.7468,32.825,35.2919,36.9438,38.1274,39.0173,39.7109,40.2667
0.906012,23.0848,31.7496,36.1585,38.8263,40.6153,41.8987,42.8645,43.6176,44.2215
0.870165,22.3308,30.2773,34.2629,36.6615,38.2648,39.4124,40.2745,40.946,41.4837
0.885775,22.8944,30.8726,34.9036,37.3444,38.9828,40.1591,41.0447,41.7358,42.29
0.878731,22.2908,29.7298,33.4618,35.711,37.2154,38.2926,39.1019,39.7322,40.237
0.882183,22.6358,30.4092,34.4103,36.8574,38.51,39.7014,40.6011,41.3047,41.8699
0.912938,25.0884,34.4912,39.4764,42.5636,44.6621,46.1807,47.3305,48.231,48.9554
0.90621,25.6745,35.1287,39.989,42.9338,44.9052,46.3163,47.3758,48.2004,48.8603
0.866464,25.2604,34.4782,39.1921,42.0508,43.9697,45.3471,46.384,47.193,47.8417
0.912873,27.2208,37.0599,42.0861,45.1378,47.1882,48.661,49.7701,50.6356,51.3297
0.901031,27.6548,37.6847,42.8264,45.9548,48.0592,49.5718,50.7114,51.6008,52.3144
0.868294,25.9161,34.6247,38.9584,41.5524,43.2791,44.5111,45.4344,46.1521,46.7259
0.910934,28.1427,38.1793,43.3972,46.6085,48.7871,50.3632,51.5567,52.492,53.2447
0.877553,27.7685,37.7503,42.9016,46.0413,48.1533,49.6702,50.8122,51.7028,52.4166
0.909279,29.3307,39.8238,45.1993,48.4623,50.6528,52.2246,53.4074,54.3297,55.069
0.914268,29.9131,40.5468,45.9848,49.287,51.5055,53.0987,54.2984,55.2344,55.985
0.883196,28.3183,37.929,42.7724,45.6926,47.646,49.0446,50.0955,50.9141,51.5696
0.895682,29.6202,40.1998,45.7037,49.0866,51.3783,53.034,54.2864,55.267,56.0556
0.874059,29.8202,40.6572,46.2694,49.6947,52.0006,53.6579,54.9062,55.8801,56.661
0.894274,30.9181,41.9738,47.6241,51.0482,53.3441,54.9904,56.2285,57.1935,57.9668
0.902504,30.5814,41.031,46.3062,49.4902,51.6219,53.1493,54.2977,55.1927,55.9099
0.870747,29.9339,40.3975,45.7789,49.0645,51.2806,52.8768,54.0813,55.0227,55.7787
0.863403,29.3103,39.2768,44.3327,47.3893,49.4361,50.9023,52.004,52.8621,53.5493
0.917071,31.528,42.4986,48.1464,51.593,53.9162,55.5887,56.8503,57.836,58.6274
0.875968,28.9807,38.4601,43.2048,46.0512,47.9478,49.3017,50.3167,51.1058,51.7367
0.880397,31.0489,42.4783,48.5581,52.3426,54.9279,56.8068,58.2345,59.3562,60.2609
0.886664,31.8248,43.2781,49.1463,52.694,55.0649,56.7593,58.0298,59.0174,59.8069
0.904414,34.1846,47.0197,53.7091,57.8095,60.5807,62.5795,64.0895,65.2707,66.22
0.884707,33.1338,44.7158,50.5069,53.9711,56.2743,57.9157,59.1445,60.0989,60.8614
0.940566,33.6288,44.5374,49.9312,53.158,55.3083,56.8448,57.998,58.8955,59.614
0.8819,33.4964,45.7703,52.2915,56.3589,59.1426,61.1686,62.7096,63.9214,64.8992
0.908198,34.4717,46.6192,52.8124,56.5509,59.0472,60.8299,62.166,63.2042,64.0339
0.905865,34.2025,45.9679,51.9237,55.5197,57.927,59.6519,60.9488,61.9596,62.7696
0.872141,33.002,44.4236,50.2707,53.8302,56.2266,57.9505,59.2503,60.2654,61.0802
0.939664,38.2245,52.7525,60.4605,65.2374,68.4872,70.841,72.6242,74.0218,75.1466
0.867884,37.0181,51.1179,58.4192,62.8589,65.8376,67.9726,69.5772,70.8269,71.8275
0.909462,38.9764,52.9919,60.0327,64.2565,67.0712,69.0813,70.5888,71.7613,72.6994
0.87352,37.411,50.539,57.1741,61.1896,63.8849,65.8203,67.278,68.4156,69.3283
0.902324,39.3733,53.4205,60.6376,65.0434,68.0147,70.1545,71.7689,73.0304,74.0432
0.908578,41.3847,56.7168,64.691,69.5784,72.8794,75.258,77.0531,78.4559,79.5822
0.934384,41.4672,55.7329,62.8816,67.1685,70.0237,72.0612,73.5882,74.775,75.7239
0.912064,39.3493,52.486,59.1104,63.1166,65.8041,67.7334,69.186,70.3194,71.2286
0.870559,39.1014,53.207,60.6107,65.1842,68.2916,70.5409,72.2444,73.5793,74.6536
0.884455,41.4257,56.8158,64.8392,69.7466,73.0527,75.4294,77.2196,78.6162,79.736
0.925057,43.4089,58.8467,66.6568,71.3562,74.492,76.7328,78.4136,79.7211,80.7672
0.900328,42.4995,57.4661,65.0752,69.6872,72.7842,75.0084,76.6837,77.9911,79.0399
0.889469,43.3023,59.0256,67.1552,72.1282,75.4855,77.9046,79.7307,81.158,82.3042
0.888834,43.3092,58.5796,66.3302,71.0124,74.1455,76.3885,78.0732,79.3849,80.435
0.915887,42.5189,56.4384,63.3598,67.5062,70.2694,72.2432,73.7238,74.8758,75.7975
0.907203,43.9788,59.826,68.1714,73.345,76.871,79.4297,81.3716,82.896,84.1246
0.901191,43.1021,57.936,65.4454,69.9643,72.9769,75.1266,76.737,77.9878,78.9873
0.917913,43.1419,57.6855,65.0438,69.4905,72.4702,74.6068,76.2143,77.4677,78.4725
0.897555,44.4361,60.7765,69.3906,74.7189,78.342,80.966,82.9543,84.513,85.7678
0.910432,45.4463,61.6636,69.9251,74.9096,78.2383,80.6166,82.3999,83.7862,84.8948
0.869631,45.77,62.9924,71.9855,77.5088,81.2473,83.9466,85.9875,87.585,88.8695
0.852079,43.5877,58.935,66.7215,71.4281,74.5801,76.8386,78.5363,79.8589,80.9184
0.844208,45.7036,62.9439,71.9981,77.5853,81.3789,84.1237,86.2021,87.8306,89.141
