1.65278,1.72685,1.75304,1.76643,1.77457,1.78003,1.78396,1.78691,1.78922,1.79107
1.21345,1.68336,1.91843,2.05933,2.15318,2.22017,2.27038,2.30942,2.34063,2.36617
1.2072,2.19494,2.72306,3.03573,3.23937,3.38166,3.48638,3.56653,3.62979,3.68095
1.00476,2.25516,2.89954,3.25743,3.48021,3.63113,3.73979,3.82164,3.88546,3.9366
0.980044,2.7643,3.71538,4.2447,4.57635,4.8028,4.96708,5.09166,5.18937,5.26805
0.970406,3.29353,4.4862,5.12332,5.51334,5.77568,5.96399,6.10565,6.21605,6.3045
1.0282,3.98404,5.38154,6.09695,6.52745,6.81462,7.0198,7.17371,7.29344,7.38924
0.923499,3.97086,5.32595,6.01409,6.42987,6.70854,6.90845,7.0589,7.17625,7.27034
0.935235,4.59312,6.25369,7.12178,7.65595,8.01806,8.27978,8.4778,8.63285,8.75756
1.01782,5.46645,7.38633,8.36544,8.95762,9.35401,9.63779,9.85092,10.0168,10.1496
0.972112,5.51856,7.36787,8.30033,8.86283,9.23932,9.50907,9.71187,9.86991,9.99656
0.923513,5.62912,7.54099,8.52176,9.11999,9.52332,9.81374,10.0329,10.2041,10.3416
0.874873,5.81346,7.86037,8.92345,9.57468,10.0144,10.3313,10.5704,10.7573,10.9073
0.898527,6.30027,8.45841,9.55675,10.2207,10.6652,10.9833,11.2224,11.4085,11.5575
0.877995,6.92514,9.52731,10.9059,11.7599,12.3411,12.7622,13.0815,13.3318,13.5334
0.860539,7.39519,10.1626,11.592,12.4604,13.0428,13.4602,13.7738,14.0181,14.2136
0.920801,8.4703,11.5847,13.1766,14.1413,14.7886,15.253,15.6025,15.8751,16.0936
0.878323,8.80545,12.1241,13.8428,14.8942,15.6041,16.1156,16.5018,16.8037,17.0462
0.916842,9.73127,13.2936,15.1052,16.2006,16.9342,17.4596,17.8544,18.1619,18.4082
1.02768,11.5435,15.7381,17.8781,19.1776,20.0509,20.6782,21.1509,21.5197,21.8156
0.93097,10.9177,14.8139,16.7954,17.9965,18.8026,19.3811,19.8165,20.156,20.4282
0.865044,9.96403,13.2138,14.8222,15.7837,16.4236,16.8802,17.2223,17.4884,17.7011
0.991137,11.4212,15.1246,17.0006,18.1404,18.9074,19.4592,19.8754,20.2005,20.4616
0.986172,11.8218,15.8891,18.0161,19.3276,20.2175,20.861,21.3479,21.7292,22.0358
0.850274,11.0599,15.1611,17.3327,18.6731,19.5814,20.2371,20.7325,21.1199,21.4311
0.961142,12.8336,17.3729,19.6772,21.0632,21.987,22.6464,23.1405,23.5244,23.8314
0.95314,12.3116,16.2495,18.1875,19.341,20.1067,20.6524,21.0611,21.3787,21.6326
0.938481,13.1238,17.8682,20.3819,21.9472,23.0176,23.7965,24.3888,24.8546,25.2304
0.882862,13.315,18.3254,20.9527,22.5628,23.6483,24.4285,25.0161,25.4743,25.8415
0.933315,14.7106,20.1008,22.8486,24.5065,25.6143,26.4065,27.0011,27.4638,27.8341
0.93968,14.6644,19.609,22.0586,23.521,24.4934,25.187,25.7069,26.111,26.4342
0.953614,16.0255,21.955,25.0769,27.0131,28.3337,29.2927,30.0211,30.5931,31.0543
0.945368,16.7799,23.0212,26.2477,28.212,29.5313,30.4776,31.189,31.7431,32.1869
0.952694,15.5085,20.3271,22.6554,24.027,24.9311,25.572,26.0501,26.4206,26.716
0.883925,15.4892,21.0519,24.0097,25.8599,27.13,28.0569,28.7636,29.3203,29.7704
0.985643,18.4923,25.4534,29.122,31.3775,32.9005,33.9966,34.8225,35.4668,35.9833
0.889566,16.3674,21.9213,24.6777,26.3167,27.4017,28.1727,28.7486,29.1951,29.5515
0.929978,17.1711,22.9619,25.8946,27.6729,28.8685,29.7284,30.3769,30.8835,31.2903
0.966157,19.0354,26.0045,29.6709,31.937,33.4768,34.5913,35.4353,36.0966,36.6286
0.931734,18.1415,24.2944,27.373,29.2137,30.436,31.306,31.9566,32.4614,32.8644
0.858149,17.7774,24.2964,27.7139,29.8232,31.2565,32.2947,33.0816,33.6988,34.1958
0.915551,12.5339,15.0115,16.0619,16.6406,17.0065,17.2586,17.4428,17.5831,17.6937
0.860954,15.591,22.0498,26.1419,29.0276,31.1856,32.8645,34.2095,35.3121,36.2327
0.909268,19.5271,28.4474,33.519,36.6919,38.8298,40.3545,41.4906,42.3669,43.0618
0.880932,21.361,30.8469,35.7936,38.7533,40.7101,42.0977,43.1328,43.9345,44.574
0.846156,22.1056,31.242,35.8095,38.5279,40.3327,41.6198,42.5848,43.3356,43.9364
0.869224,22.3567,30.2858,34.0801,36.3113,37.7841,38.8303,39.6122,40.2188,40.7033
0.839404,22.6843,31.0806,35.3848,38.0327,39.8328,41.1378,42.1279,42.9051,43.5314
0.879769,24.3905,33.2817,37.8198,40.5806,42.4365,43.7689,44.7716,45.5533,46.1797
0.858597,24.4137,33.2341,37.7332,40.4651,42.2999,43.6169,44.6083,45.3815,46.0015
0.829494,23.9339,32.4257,36.7387,39.3508,41.1025,42.3588,43.3039,44.0407,44.6313
0.814825,23.8875,32.3318,36.6402,39.2573,41.0162,42.2798,43.2315,43.9742,44.5699
0.901778,25.1185,33.2264,37.2377,39.6336,41.2266,42.3624,43.2132,43.8743,44.4028
0.87177,24.3755,32.8175,37.2633,40.0272,41.9159,43.2897,44.3342,45.1555,45.8183
0.856363,22.1286,28.9368,32.296,34.2913,35.6108,36.547,37.2453,37.786,38.2169
0.850237,24.3943,33.6255,38.6768,41.8761,44.0875,45.7086,46.9486,47.9279,48.7211
0.85844,26.088,36.0538,41.2655,44.4377,46.5629,48.0828,49.2226,50.1083,50.8162
0.890124,27.4056,37.2995,42.2807,45.2643,47.2496,48.6659,49.7272,50.5522,51.212
0.891568,28.6584,39.2656,44.7306,48.0689,50.3228,51.9481,53.176,54.1365,54.9086
0.859525,17.3978,20.7386,22.1388,22.9086,23.3954,23.731,23.9763,24.1634,24.3109
0.88362,22.2206,30.6721,35.8573,39.4434,42.0882,44.1244,45.7423,47.0597,48.1535
0.89295,25.8052,36.8161,43.0318,46.9285,49.5648,51.4532,52.8662,53.9602,54.8306
0.861782,27.3361,38.7605,44.7142,48.2856,50.6515,52.3312,53.5849,54.5564,55.3314
0.858165,28.6579,39.9042,45.5383,48.8961,51.1262,52.7165,53.9086,54.8358,55.5777
0.840538,29.7474,41.3079,47.1721,50.7258,53.1149,54.8332,56.1289,57.1412,57.9539
0.841039,30.5511,41.8995,47.5969,51.0307,53.3283,54.9737,56.2102,57.1733,57.9447
0.860903,30.6887,41.2132,46.4063,49.5114,51.5791,53.0552,54.1621,55.0229,55.7115
0.872235,32.5194,44.4014,50.5772,54.3855,56.973,58.8468,60.2668,61.3803,62.2769
0.843737,32.8097,45.0131,51.33,55.1876,57.7847,59.6511,61.0565,62.1527,63.0315
0.828291,33.4488,45.9333,52.3615,56.2733,58.9028,60.7915,62.2136,63.323,64.2127
0.858766,34.0834,45.8727,51.7429,55.2535,57.5887,59.2542,60.5019,61.4716,62.2468
0.845007,30.3265,39.5897,44.1151,46.8116,48.6049,49.8847,50.8445,51.5911,52.1885
0.854025,33.3514,45.7353,52.4734,56.7413,59.6925,61.8563,63.5113,64.8182,65.8766
0.861815,35.3868,48.7691,55.7809,60.0607,62.9332,64.9902,66.5341,67.7347,68.6947
0.859341,36.6351,50.404,57.4918,61.79,64.6719,66.7381,68.2922,69.5037,70.4746
0.855099,36.4993,49.5283,56.085,60.027,62.659,64.5414,65.9546,67.0548,67.9357
0.844968,36.4287,49.3394,55.9048,59.8902,62.5698,64.4959,65.9475,67.0809,67.9904
0.851093,36.9228,49.9091,56.5277,60.5463,63.2464,65.1854,66.6454,67.7844,68.6976
0.886562,38.8348,52.5343,59.5504,63.8196,66.6914,68.7555,70.3106,71.5244,72.498
0.84946,36.6569,49.1449,55.4496,59.2522,61.7953,63.6156,64.9827,66.0473,66.8996
0.852774,36.8728,49.5889,56.1021,60.0691,62.7407,64.6628,66.1124,67.2446,68.1535
0.848163,37.736,51.2977,58.3524,62.678,65.6011,67.7084,69.2994,70.5431,71.542
0.859938,39.0085,53.0355,60.2466,64.6275,67.5682,69.6778,71.2647,72.5015,73.4925
0.848359,39.4146,53.661,60.9713,65.4133,68.3976,70.5407,72.1543,73.4131,74.4226
0.900687,41.9632,56.7813,64.309,68.8623,71.9135,74.1007,75.7455,77.0273,78.0545
0.845479,39.9688,54.168,61.4367,65.8582,68.8328,70.9711,72.5827,73.8407,74.8502
0.854963,40.5035,54.6841,61.9001,66.2715,69.2032,71.3058,72.8873,74.1201,75.108
0.839144,40.3768,54.6753,62.0063,66.468,69.4697,71.6275,73.2535,74.5228,75.5411
0.854333,42.0867,57.2567,65.0791,69.8507,73.0645,75.3762,77.1188,78.4794,79.5711
0.841657,42.3108,57.6184,65.4886,70.2776,73.4976,75.8108,77.5528,78.9119,80.0019
0.861967,43.4023,58.6874,66.4367,71.1167,74.2488,76.4919,78.1774,79.4902,80.5416
0.87262,44.4357,60.1937,68.2677,73.1836,76.4932,78.8741,80.6693,82.0714,83.1968
0.844592,42.6625,57.4471,64.9579,69.5049,72.5532,74.7388,76.3825,77.6636,78.69
0.875065,43.0401,57.4071,64.6355,68.9915,71.9044,73.9896,75.5561,76.7761,77.7532
0.858989,44.1777,60.2498,68.712,73.9481,77.5104,80.0917,82.0483,83.5828,84.8185
0.865039,46.4336,63.8217,72.9017,78.4588,82.2037,84.8964,86.9248,88.5073,89.7762
0.85288,46.8166,64.0494,72.8702,78.2105,81.7878,84.3506,86.2769,87.7774,88.9794
0.860455,47.7705,65.024,73.8093,79.1312,82.702,85.2645,87.1934,88.6979,89.9042
0.881776,50.2841,68.6739,78.1303,83.8964,87.7814,90.5772,92.6858,94.3328,95.6548
0.873255,48.7508,65.5431,73.9633,79.0225,82.3978,84.8096,86.619,88.0264,89.1524
