1.81205,1.85019,1.86327,1.86987,1.87386,1.87653,1.87844,1.87987,1.88099,1.88188
1.24938,1.83081,2.15667,2.36505,2.50976,2.61611,2.69757,2.76197,2.81415,2.85729
1.15211,2.22241,2.81539,3.16537,3.39073,3.54628,3.65947,3.74525,3.81238,3.86627
1.08396,2.58702,3.37037,3.79908,4.06265,4.23966,4.36636,4.46141,4.53531,4.5944
1.03619,2.97585,3.94317,4.45552,4.76756,4.97693,5.12705,5.23994,5.32793,5.39844
1.15862,3.89903,5.20754,5.88661,6.29824,6.57411,6.77184,6.9205,7.03634,7.12916
0.987771,3.84392,5.16988,5.85369,6.26861,6.54705,6.74685,6.89719,7.01442,7.10839
0.984399,4.35757,5.87931,6.65882,7.131,7.44755,7.67451,7.84519,7.97821,8.0848
0.984362,4.86571,6.55879,7.4193,7.93907,8.28699,8.53618,8.72344,8.86931,8.98614
1.00798,5.44162,7.29916,8.23598,8.80041,9.17772,9.44777,9.65061,9.80856,9.93504
0.96292,5.69584,7.66224,8.66312,9.26998,9.67742,9.9699,10.1901,10.3618,10.4996
0.938431,6.04522,8.14494,9.21406,9.86168,10.2959,10.6073,10.8415,11.024,11.1703
0.980449,6.81364,9.17449,10.3728,11.0973,11.5825,11.9301,12.1915,12.395,12.5581
0.958583,7.11039,9.55182,10.7868,11.5324,12.0314,12.3888,12.6574,12.8666,13.0342
0.931894,7.37798,9.92181,11.2142,11.9967,12.5216,12.898,13.1812,13.402,13.579
0.978784,8.25189,11.1076,12.5596,13.4386,14.0279,14.4504,14.7682,15.0158,15.2142
0.92477,8.25981,11.1175,12.5691,13.4472,14.0356,14.4573,14.7744,15.0216,15.2196
0.92621,8.80829,11.8932,13.4672,14.4218,15.0626,15.5224,15.8685,16.1383,16.3547
0.937742,9.42557,12.7209,14.3956,15.4084,16.0869,16.573,16.9385,17.2232,17.4513
0.965558,10.238,13.8172,15.6348,16.7341,17.4707,17.9987,18.3957,18.7051,18.9529
0.944814,10.4292,14.0192,15.8313,16.9241,17.655,18.1782,18.5713,18.8773,19.1224
0.939054,10.8291,14.5663,16.4627,17.6106,18.3804,18.9326,19.348,19.6719,19.9315
0.917145,11.1922,15.1402,17.161,18.3891,19.2144,19.8071,20.2534,20.6016,20.8808
0.906536,9.31124,11.7074,12.8016,13.4275,13.8326,14.1161,14.3256,14.4868,14.6146
0.889945,10.5822,14.4146,16.5543,17.9392,18.9131,19.6367,20.196,20.6415,21.0048
0.918949,12.0173,16.5816,19.0036,20.4866,21.4815,22.1928,22.7255,23.1389,23.4687
0.903832,12.6638,17.3937,19.8073,21.2569,22.2216,22.9093,23.4245,23.8247,24.1446
0.915123,13.6144,18.6252,21.1586,22.6835,23.7026,24.432,24.9801,25.407,25.7491
0.910642,14.0184,18.9792,21.4575,22.9441,23.9357,24.6445,25.1763,25.5902,25.9214
0.923738,14.7399,19.9066,22.5093,24.0813,25.1346,25.89,26.4581,26.9011,27.2562
0.900646,14.7491,19.8401,22.4043,23.9517,24.9873,25.7291,26.2865,26.7207,27.0685
0.899028,15.3148,20.6795,23.4124,25.0712,26.1854,26.9854,27.5878,28.0577,28.4346
0.889302,15.5737,20.9772,23.7129,25.365,26.4705,27.2621,27.8568,28.3199,28.6907
0.890509,15.9564,21.4478,24.2257,25.9037,27.0272,27.8322,28.4373,28.9088,29.2865
0.907314,16.8501,22.7386,25.7421,27.5647,28.7886,29.6672,30.3286,30.8445,31.2582
0.898127,17.0937,23.0116,26.0083,27.8173,29.0276,29.8941,30.545,31.0518,31.4576
0.858526,17.1251,23.2327,26.367,28.2746,29.558,30.4806,31.1758,31.7184,32.1538
0.902217,18.4747,24.9477,28.2204,30.1926,31.5101,32.4523,33.1594,33.7097,34.15
0.888491,18.4928,24.8648,28.0786,30.0169,31.3139,32.2427,32.9409,33.4848,33.9205
0.897505,19.2834,26.0258,29.4621,31.5476,32.9483,33.9542,34.7115,35.3024,35.7762
0.898768,19.717,26.5458,30.0032,32.0907,33.4875,34.4876,35.2389,35.824,36.2924
0.893387,20.1794,27.2342,30.8261,33.0031,34.4638,35.5119,36.3007,36.9157,37.4088
0.885121,20.4491,27.5596,31.1644,33.3424,34.8006,35.8452,36.6301,37.2415,37.7313
0.899672,21.2418,28.6124,32.3498,34.6096,36.1235,37.2086,38.0245,38.6603,39.1697
0.878837,21.258,28.6627,32.427,34.7063,36.2347,37.3308,38.1554,38.7981,39.3133
0.910891,22.8281,30.918,35.0541,37.5652,39.2517,40.4623,41.3735,42.0842,42.654
0.884996,22.3157,29.9564,33.791,36.0937,37.629,38.7256,39.5479,40.1874,40.6989
0.900728,23.2252,31.2685,35.3571,37.836,39.5006,40.6958,41.5959,42.2982,42.8615
0.883924,23.2128,31.2497,35.3319,37.8023,39.458,40.6449,41.5372,42.2326,42.7897
0.872465,23.6811,32.0408,36.3158,38.9117,40.6553,41.907,42.8492,43.5842,44.1734
0.897914,24.8606,33.5498,37.9532,40.6114,42.3896,43.6625,44.6186,45.3631,45.9592
0.888322,24.7319,33.1861,37.4411,40.0035,41.7159,42.9414,43.8617,44.5784,45.1522
0.888855,25.2317,33.9612,38.4046,41.1003,42.9108,44.2109,45.1899,45.9537,46.5662
0.88006,25.2533,33.922,38.3129,40.9656,42.7413,44.0131,44.9687,45.713,46.309
0.889144,25.9218,34.8574,39.3978,42.1466,43.9896,45.3113,46.3054,47.0804,47.7015
0.896919,26.5388,35.6893,40.3354,43.1459,45.0289,46.3786,47.3933,48.184,48.8175
0.914412,27.1031,36.2868,40.918,43.7094,45.5756,46.9111,47.9142,48.6952,49.3206
0.897085,22.9341,29.2465,32.2221,33.9554,35.0904,35.8914,36.487,36.9472,37.3135
0.896761,25.3843,34.5107,39.517,42.7121,44.9355,46.5741,47.8327,48.83,49.64
0.915543,27.3544,37.4375,42.7114,45.921,48.0689,49.6028,50.7514,51.6428,52.3543
0.890367,27.6029,37.6371,42.7422,45.8122,47.8586,49.3199,50.4155,51.2676,51.9493
0.90333,28.8005,39.1033,44.3034,47.4336,49.5255,51.0227,52.1475,53.0236,53.7253
0.897132,29.5624,40.1676,45.5504,48.8082,50.9932,52.5608,53.7404,54.6603,55.3977
0.886153,29.5247,39.8143,44.9798,48.0863,50.1606,51.6437,52.7568,53.623,54.3163
0.872578,29.7771,40.2461,45.5643,48.7884,50.9532,52.5074,53.6776,54.5905,55.3227
0.891793,30.9397,41.7437,47.2157,50.5227,52.737,54.3234,55.5156,56.4442,57.188
0.884815,30.95,41.6245,47.0174,50.273,52.4519,54.0127,55.1856,56.0993,56.8312
0.888198,31.5599,42.5023,48.0615,51.4286,53.6872,55.3074,56.5265,57.4769,58.2388
0.885423,31.7994,42.7636,48.3169,51.6719,53.918,55.5269,56.736,57.6778,58.4321
0.895696,32.932,44.4815,50.3804,53.9617,56.3674,58.0947,59.3952,60.4097,61.2233
0.891254,32.5957,43.6533,49.2059,52.5423,54.7679,56.358,57.5506,58.4783,59.2205
0.900853,33.3567,44.8155,50.6433,54.1775,56.5508,58.2551,59.5385,60.5399,61.343
0.895106,33.9114,45.7779,51.846,55.531,58.0058,59.7823,61.1194,62.1621,62.998
0.886979,34.1068,45.9883,52.0198,55.6639,58.1027,59.8491,61.1612,62.183,63.0012
0.890306,35.1096,47.5016,53.8233,57.6566,60.2291,62.0752,63.4645,64.5479,65.4165
0.904027,35.6562,47.8773,54.0198,57.7125,60.1768,61.9381,63.2596,64.2876,65.1102
0.884646,35.2991,47.4623,53.6316,57.3666,59.8722,61.67,63.023,64.0782,64.9243
0.905874,36.6943,49.4355,55.9213,59.8521,62.4891,64.3809,65.8041,66.9136,67.8029
0.900717,37.2937,50.3904,57.0707,61.1203,63.8371,65.7857,67.2516,68.3944,69.3102
0.887973,36.643,49.1262,55.3963,59.1643,61.6781,63.4744,64.8219,65.8702,66.7089
0.894009,37.5581,50.6065,57.2621,61.3045,64.0218,65.9744,67.4455,68.5938,69.5151
0.892723,38.4502,52.02,58.9571,63.1672,65.9931,68.0207,69.5463,70.7356,71.6887
0.905959,38.8825,52.176,58.8579,62.8739,65.5532,67.4676,68.9038,70.021,70.9148
0.893552,39.0115,52.5758,59.4889,63.6852,66.5048,68.5304,70.0562,71.247,72.2022
0.889091,38.9501,52.318,59.077,63.1553,65.883,67.8355,69.302,70.4437,71.3578
0.881093,31.029,38.9297,42.5514,44.6309,45.9806,46.9274,47.6284,48.1683,48.5969
0.880979,35.1178,47.8912,55.0677,59.7279,63.0117,65.4547,67.3447,68.8511,70.0803
0.87269,37.6102,52.07,59.7748,64.497,67.6655,69.9302,71.626,72.9415,73.9908
0.885533,40.3499,55.7209,63.595,68.3289,71.4803,73.7276,75.4108,76.7187,77.7644
0.886219,40.7226,55.2406,62.4394,66.7241,69.5671,71.5922,73.1083,74.2863,75.2279
0.897615,42.1121,57.0401,64.5564,69.0972,72.1426,74.3286,75.9746,77.2589,78.289
0.892698,42.3593,57.1731,64.6411,69.1507,72.1706,74.3345,75.961,77.2282,78.2433
0.887616,42.5384,57.3119,64.7782,69.2905,72.3132,74.4795,76.1083,77.3774,78.3943
0.889175,43.3853,58.5857,66.3188,71.0066,74.1525,76.4098,78.1084,79.433,80.4947
0.90445,44.8445,60.5784,68.5769,73.4186,76.6637,78.99,80.7393,82.1024,83.1945
0.88378,44.3865,59.9028,67.7737,72.5322,75.7195,78.0034,79.7203,81.058,82.1297
0.881036,44.6317,60.1019,67.925,72.6474,75.8077,78.071,79.7718,81.0966,82.1577
0.876022,44.9597,60.5954,68.5315,73.3341,76.5537,78.8623,80.5988,81.9525,83.0373
0.885061,45.9446,61.9212,70.0303,74.9356,78.2225,80.5784,82.3499,83.7303,84.8363
0.876338,45.8623,61.7414,69.7879,74.6508,77.9074,80.2407,81.9947,83.3612,84.456
