1.60581,1.66741,1.68901,1.70002,1.7067,1.71118,1.71439,1.71681,1.7187,1.72021
1.21332,1.74169,2.02208,2.19572,2.3138,2.3993,2.46407,2.51484,2.55569,2.58928
1.13009,2.13218,2.67984,3.00427,3.2147,3.36101,3.46818,3.54987,3.61412,3.66591
1.0639,2.48398,3.22493,3.63487,3.88899,4.06062,4.18394,4.27671,4.34898,4.40684
0.991988,2.80894,3.73348,4.23198,4.5387,4.74577,4.89485,5.00728,5.0951,5.16559
0.975286,3.25051,4.36087,4.94412,5.2995,5.53829,5.70969,5.83869,5.93927,6.0199
1.04868,3.98285,5.3388,6.03596,6.45785,6.74047,6.94298,7.09522,7.21385,7.30889
1.04112,4.51591,6.10413,6.92745,7.43009,7.76896,8.01292,8.19698,8.34078,8.45624
0.914694,4.42994,5.98291,6.77845,7.26075,7.58422,7.81617,7.9906,8.12654,8.23545
1.04047,5.60812,7.59972,8.62365,9.24679,9.66598,9.96728,10.1943,10.3715,10.5137
0.91116,5.37551,7.2716,8.23998,8.82709,9.22098,9.50353,9.7161,9.88182,10.0146
0.927587,5.97054,8.0889,9.17479,9.83518,10.2793,10.5984,10.8389,11.0265,11.177
0.935655,6.44024,8.68056,9.81821,10.5063,10.9672,11.2976,11.5459,11.7394,11.8945
0.892227,6.65258,9.02017,10.2403,10.9853,11.4876,11.8494,12.1223,12.3356,12.5069
0.914542,7.25671,9.81568,11.1247,11.9193,12.4528,12.8356,13.1237,13.3483,13.5283
0.950449,8.07087,10.9414,12.4148,13.3115,13.9145,14.348,14.6745,14.9294,15.1338
0.871833,7.95191,10.8148,12.2864,13.1819,13.7842,14.2169,14.5428,14.7971,15.001
0.902381,8.65523,11.7118,13.2663,14.2069,14.8371,15.2887,15.6283,15.8929,16.105
0.905725,9.00691,12.1104,13.6802,14.6287,15.264,15.7193,16.0617,16.3286,16.5424
0.874282,9.20991,12.4694,14.1487,15.1746,15.8668,16.3653,16.7415,17.0356,17.2717
0.901835,10.0181,13.5885,15.4236,16.5404,17.2912,17.8305,18.2366,18.5533,18.8073
0.911335,10.5872,14.3363,16.2522,17.4144,18.1943,18.7538,19.1748,19.5031,19.7662
0.900552,10.851,14.6466,16.5779,17.7476,18.532,19.0947,19.518,19.848,20.1125
0.861246,10.7687,14.5332,16.4555,17.623,18.4075,18.9709,19.3953,19.7264,19.992
0.863113,11.1709,15.0709,17.064,18.2745,19.0877,19.6717,20.1114,20.4543,20.7294
0.919966,12.4365,16.8354,19.0947,20.4701,21.3954,22.0605,22.5616,22.9527,23.2664
0.890234,12.5723,17.0521,19.3516,20.75,21.69,22.3651,22.8734,23.2699,23.5879
0.910548,13.4768,18.3322,20.83,22.351,23.3743,24.1098,24.664,25.0965,25.4435
0.918635,14.2065,19.3189,21.9348,23.5222,24.5875,25.352,25.9272,26.3756,26.735
0.885223,14.1287,19.1417,21.6924,23.2368,24.2725,25.0152,25.5739,26.0095,26.3586
0.895149,14.7353,19.9382,22.5902,24.1991,25.2795,26.0553,26.6393,27.0948,27.4601
0.856668,14.6574,19.8823,22.5601,24.1892,25.2848,26.0722,26.6653,27.1282,27.4995
0.92205,16.1682,21.8612,24.7622,26.5205,27.7,28.546,29.1825,29.6787,30.0764
0.919208,16.4753,22.2369,25.1743,26.9565,28.1532,29.0124,29.6592,30.1637,30.5682
0.887785,16.4414,22.2598,25.2452,27.0625,28.2852,29.1642,29.8264,30.3434,30.7581
0.940552,17.8077,24.0386,27.2104,29.1307,30.4177,31.3403,32.034,32.5745,33.0075
0.848656,16.4293,22.1612,25.0819,26.8529,28.0416,28.8948,29.5369,30.0377,30.4392
0.925023,18.4359,24.9478,28.2907,30.3264,31.6965,32.6817,33.4242,34.0038,34.4689
0.905643,18.6142,25.2349,28.6326,30.6989,32.0879,33.0855,33.8367,34.4226,34.8925
0.900781,19.1829,26.0811,29.6284,31.7879,33.2405,34.2845,35.071,35.6848,36.1772
0.893923,19.4397,26.3289,29.84,31.9667,33.3926,34.4152,35.1842,35.7836,36.264
0.867759,19.3454,26.1885,29.6801,31.7986,33.2211,34.2423,35.0111,35.6108,36.0917
0.871396,19.8243,26.8008,30.3585,32.5167,33.9656,35.0056,35.7884,36.3989,36.8883
0.855553,19.865,26.8566,30.4303,32.6012,34.06,35.1078,35.8969,36.5125,37.0062
0.872081,20.7983,28.1802,31.9658,34.2686,35.8171,36.9297,37.7678,38.4217,38.9462
0.909315,21.9809,29.6825,33.6064,35.9841,37.5789,38.7227,39.5832,40.2539,40.7914
0.867974,21.5477,29.201,33.1325,35.5274,37.1395,38.299,39.1729,39.8553,40.4029
0.862472,21.9307,29.7218,33.7097,36.1312,37.7572,38.9242,39.8025,40.4873,41.0363
0.909551,23.6242,31.9966,36.275,38.8715,40.6149,41.8664,42.8084,43.5431,44.1322
0.868574,22.9599,31.0818,35.2374,37.7629,39.4604,40.6799,41.5984,42.3151,42.8899
0.861644,23.3145,31.5836,35.8137,38.3826,40.1081,41.3469,42.2794,43.0068,43.5899
0.849183,23.4817,31.8249,36.096,38.6914,40.4354,41.688,42.6313,43.3672,43.9573
0.859463,24.083,32.5669,36.8973,39.5248,41.2889,42.5551,43.5082,44.2515,44.8474
0.890958,25.6555,34.8412,39.5698,42.4533,44.3956,45.793,46.8466,47.6695,48.3298
0.895816,25.6739,34.5056,38.9609,41.6444,43.4371,44.7192,45.6816,46.4305,47.0299
0.881983,25.793,34.8344,39.47,42.294,44.1961,45.5649,46.5972,47.4035,48.0509
0.881559,26.4024,35.7934,40.6271,43.573,45.5559,46.9814,48.0556,48.894,49.5665
0.898217,27.1785,36.6872,41.5216,44.4447,46.402,47.804,48.8576,49.6782,50.3355
0.880962,26.7854,36.0508,40.7585,43.6092,45.5213,46.8931,47.9253,48.7302,49.3755
0.865679,26.7664,36.1449,40.9534,43.8805,45.8503,47.2667,48.3341,49.1673,49.836
0.913266,28.7054,38.8021,43.9726,47.1139,49.2241,50.7391,51.8795,52.7689,53.482
0.900186,29.1276,39.5713,44.9507,48.2291,50.4359,52.0227,53.2186,54.1522,54.9012
0.853596,27.8087,37.5508,42.4959,45.4833,47.4827,48.9145,49.9902,50.8279,51.4988
0.900713,30.1776,40.9823,46.542,49.9326,52.2173,53.8617,55.1021,56.071,56.8489
0.891595,30.4691,41.3455,46.9097,50.287,52.5541,54.1808,55.4048,56.359,57.1238
0.851479,29.2341,39.4436,44.6198,47.748,49.8429,51.344,52.4724,53.3515,54.0559
0.902686,31.4586,42.5266,48.1891,51.6331,53.9499,55.6155,56.8706,57.8505,58.6368
0.876343,30.9126,41.7524,47.2827,50.637,52.888,54.503,55.7181,56.6655,57.4247
0.85707,31.1362,42.3287,48.1024,51.6264,54.0014,55.7107,56.9997,58.0065,58.8147
0.853089,31.0194,41.8229,47.2886,50.5841,52.7865,54.362,55.5448,56.4653,57.2021
0.863244,32.2185,43.7522,49.7005,53.335,55.7877,57.5549,58.889,59.932,60.7699
0.851521,32.5417,44.2346,50.2338,53.8796,56.3284,58.0861,59.4088,60.4401,61.2667
0.858873,33.4809,45.4741,51.6043,55.3234,57.8198,59.6112,60.9593,62.0106,62.8533
0.856341,33.889,45.9304,52.0648,55.782,58.2757,60.0646,61.4106,62.4601,63.3013
0.890882,35.6809,48.2925,54.7226,58.6237,61.2432,63.1238,64.5395,65.6438,66.5293
0.866809,35.2018,47.656,54.0218,57.889,60.4878,62.3543,63.7599,64.8565,65.7359
0.885812,36.3396,49.1398,55.6735,59.6383,62.3003,64.211,65.6491,66.7707,67.6698
0.848375,34.7766,46.8118,52.9175,56.6104,59.0848,60.8584,62.192,63.2313,64.064
0.852,35.5897,48.1977,54.6916,58.6561,61.3292,63.2539,64.706,65.8406,66.7516
0.856892,36.3577,49.2548,55.8616,59.8737,62.5673,64.5002,65.9546,67.0884,67.9971
0.873797,37.1109,50.0539,56.6351,60.6182,63.288,65.2021,66.6417,67.7637,68.6629
0.880466,38.1709,51.7469,58.7294,62.9863,65.8538,67.917,69.4727,70.6877,71.663
0.878025,38.0043,51.1949,57.8822,61.921,64.6236,66.5586,68.0121,69.144,70.0503
0.876719,38.206,51.4984,58.2786,62.3944,65.1596,67.1456,68.6413,69.8084,70.7445
0.83574,24.1191,28.9886,31.0896,32.261,33.008,33.5259,33.906,34.197,34.4267
0.837825,29.8882,41.3912,48.4195,53.2533,56.8018,59.5237,61.68,63.4314,64.8827
0.833314,33.5909,47.7098,55.5736,60.4629,63.7543,66.1043,67.859,69.2156,70.2938
0.8459,36.8977,52.0714,59.9563,64.6923,67.8362,70.0727,71.7448,73.0424,74.0788
0.863013,39.4292,54.7815,62.4906,67.0952,70.1579,72.3438,73.9832,75.2587,76.2795
0.86525,40.8369,56.1482,63.8208,68.4376,71.5267,73.7408,75.406,76.7044,77.7451
0.87595,42.2988,57.7939,65.6086,70.3372,73.5106,75.7886,77.5037,78.8416,79.9144
0.881905,43.4412,59.1526,67.1171,71.9457,75.1877,77.515,79.267,80.6335,81.7291
0.867135,43.3521,58.8862,66.7867,71.5807,74.8004,77.1119,78.8522,80.2097,81.2981
0.870201,43.1652,58.1107,65.6427,70.1872,73.2279,75.4054,77.0416,78.3159,79.3366
0.903055,45.647,61.8255,70.1356,75.2066,78.6254,81.087,82.9442,84.3954,85.5607
0.88724,44.8703,60.5137,68.4673,73.281,76.5063,78.8174,80.5546,81.9079,82.9918
0.836354,42.4704,57.2755,64.8315,69.4188,72.5005,74.7136,76.3802,77.6804,78.7232
0.841338,43.8717,59.6173,67.7479,72.7131,76.06,78.469,80.2858,81.7048,82.8438
0.851226,44.7407,60.6081,68.7101,73.6198,76.9118,79.2719,81.0467,82.4296,83.5376
0.84291,44.8752,60.7984,68.9361,73.8759,77.1937,79.5759,81.3694,82.7686,83.8906
