2.02921,2.05802,2.0678,2.07273,2.07569,2.07768,2.07909,2.08016,2.08099,2.08165
1.44856,1.95568,2.20882,2.36054,2.46163,2.53379,2.5879,2.62997,2.66362,2.69115
3.046,5.28751,6.43402,7.09697,7.52252,7.81695,8.03209,8.19588,8.32461,8.42838
1.16449,2.44597,3.06657,3.40254,3.60904,3.74789,3.8474,3.92211,3.98024,4.02672
1.08681,2.81481,3.67456,4.14187,4.43148,4.62799,4.76995,4.87728,4.96128,5.0288
1.07958,3.35235,4.45819,5.04148,5.39667,5.63486,5.80547,5.93362,6.03338,6.11322
1.71347,5.8609,7.6461,8.53027,9.05287,9.39745,9.64165,9.82372,9.9647,10.0771
1.23715,4.6042,5.97565,6.65792,7.0664,7.33879,7.53355,7.67979,7.79366,7.88486
0.987797,4.45761,6.0805,6.95842,7.50951,7.88793,8.16389,8.37405,8.53946,8.67302
1.21136,6.2625,8.55373,9.73306,10.4439,10.9171,11.2541,11.506,11.7013,11.8571
0.990148,5.71837,7.76687,8.79605,9.41152,9.82067,10.1124,10.3308,10.5006,10.6364
0.957629,3.38849,3.866,4.05292,4.15256,4.21451,4.25678,4.28747,4.31077,4.32905
0.845948,3.95762,5.30075,6.1356,6.7193,7.15325,7.48935,7.75767,7.97694,8.15957
1.00448,6.31001,9.26513,11.08,12.2746,13.1079,13.7169,14.1792,14.5408,14.8308
0.936394,7.21689,10.5897,12.393,13.4681,14.1716,14.6648,15.0288,15.3083,15.5295
1.03732,9.0794,12.8892,14.7497,15.8296,16.5338,17.03,17.3987,17.6837,17.9107
0.952056,8.81283,12.0308,13.5489,14.4339,15.0157,15.4283,15.7365,15.9755,16.1663
0.850524,8.75107,12.0477,13.7017,14.7072,15.3858,15.8754,16.2455,16.5352,16.7681
1.20248,13.2585,18.0744,20.4638,21.896,22.85,23.5308,24.0407,24.4369,24.7535
0.861584,8.80709,11.376,12.5664,13.2554,13.7048,14.0212,14.256,14.4372,14.5813
0.775374,4.55042,5.18376,5.44432,5.58816,5.67967,5.74312,5.78973,5.82543,5.85366
0.936818,7.88916,11.0818,13.247,14.8462,16.0821,17.0677,17.8726,18.5427,19.1094
0.850591,9.03075,13.2904,15.8064,17.3966,18.4675,19.2276,19.7905,20.222,20.5619
0.783237,9.92041,14.5336,16.9564,18.3906,19.3282,19.987,20.4749,20.8508,21.1495
0.91354,13.0656,18.6747,21.4354,23.051,24.1118,24.8628,25.4231,25.8574,26.2041
0.990618,15.4545,21.598,24.5737,26.3308,27.4947,28.3237,28.9446,29.4273,29.8134
0.827582,13.5191,18.4632,20.8459,22.2581,23.195,23.8626,24.3626,24.7512,25.0618
0.801699,13.6809,18.5412,20.936,22.3745,23.3363,24.0251,24.5429,24.9464,25.2696
0.9739,16.3238,21.5937,24.141,25.6507,26.6501,27.3607,27.8918,28.3038,28.6327
0.884489,15.8076,21.3482,24.1967,25.9446,27.1284,27.9838,28.631,29.1379,29.5456
0.890519,16.6523,22.5148,25.4892,27.2848,28.4845,29.342,29.985,30.485,30.8848
0.867142,16.5245,22.1492,24.9526,26.6293,27.7445,28.5396,29.1352,29.5981,29.9681
0.956805,18.9434,25.4946,28.8058,30.8069,32.1479,33.1095,33.8329,34.3969,34.849
0.906679,18.408,24.7008,27.8597,29.7586,31.0258,31.9314,32.6108,33.1393,33.5621
0.95296,19.7134,26.3747,29.7133,31.7201,33.0598,34.0176,34.7366,35.2962,35.7441
0.900278,19.2173,25.8005,29.1292,31.1402,32.487,33.4521,34.1776,34.743,35.1959
0.835576,15.2924,19.3832,21.278,22.3705,23.0811,23.5802,23.9499,24.2349,24.4611
0.860674,17.6886,23.9876,27.4346,29.6349,31.167,32.297,33.1656,33.8543,34.4139
0.951398,20.7512,28.2804,32.1859,34.5509,36.1279,37.2513,38.0906,38.7409,39.2592
0.921183,19.6449,26.0481,29.1684,31.0024,32.2078,33.0603,33.6951,34.1862,34.5774
0.889697,19.403,25.8876,29.1553,31.1315,32.4584,33.4119,34.1306,34.6919,35.1425
0.933944,21.7308,29.5252,33.5616,36.0316,37.6988,38.8996,39.8057,40.5135,41.0817
0.913363,22.5037,30.6896,34.8659,37.388,39.0734,40.2782,41.1821,41.885,42.4472
0.898767,21.0295,27.6476,30.8157,32.6683,33.8833,34.7415,35.3799,35.8734,36.2662
0.877017,22.0147,29.8192,33.8787,36.3854,38.0919,39.3302,40.2703,41.0086,41.6039
0.947102,24.7355,33.5152,37.9807,40.6753,42.4744,43.7593,44.7222,45.4703,46.0682
0.912656,24.7047,33.4244,37.8187,40.4605,42.2229,43.4823,44.4271,45.1622,45.7504
0.893578,24.5821,33.0172,37.2215,39.7388,41.415,42.6114,43.5084,44.2058,44.7637
0.942695,26.4768,35.5428,40.0956,42.8382,44.6725,45.9859,46.9729,47.7418,48.3576
0.941382,25.5683,33.6853,37.6579,40.0168,41.5793,42.6905,43.5213,44.1658,44.6804
0.902089,25.5393,34.3077,38.8241,41.5905,43.4617,44.8125,45.8337,46.6331,47.2759
0.949484,27.9472,37.7656,42.7847,45.8244,47.8596,49.3166,50.4106,51.262,51.9433
0.918645,26.3218,34.8384,39.0139,41.4864,43.12,44.2794,45.1449,45.8156,46.3506
0.97707,25.1231,32.2242,35.6184,37.6151,38.9322,39.8669,40.5649,41.1062,41.5383
0.913522,26.2741,35.8222,41.0285,44.3327,46.6216,48.3022,49.5892,50.6065,51.4309
0.953915,29.3694,40.3358,46.042,49.5022,51.8123,53.4595,54.6917,55.6471,56.4093
0.913808,29.1225,39.604,44.8533,47.9816,50.0551,51.5298,52.6324,53.488,54.1713
0.939902,30.9757,41.9737,47.4765,50.7775,52.9798,54.5547,55.7372,56.6578,57.3951
0.901102,30.3233,40.8622,46.1186,49.2714,51.3742,52.8769,54.0044,54.8817,55.5837
0.913601,31.3526,42.1591,47.5724,50.8296,53.006,54.5634,55.7331,56.6438,57.373
0.929774,31.937,42.6414,47.9699,51.1636,53.2918,54.8115,55.9511,56.8373,57.5462
0.983729,33.7318,44.8915,50.4688,53.8216,56.0606,57.6622,58.8647,59.8009,60.5504
0.934325,32.9682,44.2932,50.0684,53.5762,55.9336,57.6268,58.902,59.8969,60.6948
0.957087,34.5398,46.4575,52.4902,56.128,58.5587,60.2971,61.6017,62.6168,63.4291
0.920256,33.8044,45.4211,51.273,54.7945,57.1461,58.8276,60.0898,61.0721,61.8583
0.949861,35.3147,47.3323,53.363,56.9877,59.4068,61.1363,62.4342,63.4442,64.2525
0.947124,35.0713,46.738,52.5644,56.0608,58.3926,60.0588,61.309,62.2816,63.0599
0.935021,35.3974,47.4898,53.63,57.3505,59.8473,61.6391,62.9877,64.0395,64.8828
0.909988,34.9162,46.8287,52.8432,56.4679,58.8899,60.6221,61.9224,62.9343,63.7441
0.958548,37.4541,50.2898,56.7704,60.6769,63.2885,65.1575,66.5613,67.6542,68.5293
0.923101,36.8969,49.6422,56.0855,59.9725,62.5724,64.4337,65.8319,66.9208,67.7927
0.968111,39.2013,52.6091,59.3448,63.3938,66.096,68.0273,69.4765,70.604,71.5062
0.92337,37.5345,50.2004,56.5503,60.3677,62.9165,64.7391,66.1073,67.1723,68.0248
0.931525,38.7688,52.1205,58.8908,62.9873,65.7335,67.7026,69.1837,70.3383,71.2635
0.959237,39.5518,52.6799,59.2156,63.1251,65.7254,67.5795,68.9682,70.047,70.9093
0.964459,40.1252,53.601,60.3992,64.5048,67.2547,69.226,70.7085,71.8641,72.7903
0.889918,37.9776,51.0697,57.732,61.7676,64.4738,66.4143,67.8736,69.011,69.9223
0.926458,40.2794,54.1731,61.1936,65.4232,68.2485,70.2688,71.7851,72.9649,73.9091
0.992198,43.2209,57.8001,65.0901,69.4609,72.3733,74.4529,76.0122,77.2248,78.1948
0.960845,42.6865,57.3299,64.7416,69.2226,72.2258,74.3791,75.9989,77.2616,78.2736
0.941787,42.5144,57.1156,64.4858,68.9283,71.8978,74.0223,75.6175,76.8592,77.8531
0.905965,34.501,43.7779,48.0816,50.5659,52.1832,53.3199,54.1627,54.8124,55.3286
0.953807,39.974,54.07,61.744,66.6272,70.0204,72.5192,74.4375,75.9572,77.1912
0.947812,41.4336,56.2914,63.9794,68.632,71.7345,73.9447,75.5965,76.8766,77.897
0.911657,41.2469,55.976,63.4359,67.914,70.8961,73.0241,74.619,75.8591,76.8509
0.899503,42.2068,57.3064,64.9296,69.5171,72.5816,74.7741,76.4207,77.7028,78.7295
0.977322,46.889,63.364,71.6116,76.5598,79.8589,82.2158,83.9837,85.3589,86.4592
1.03749,42.4497,54.0775,59.4368,62.5231,64.5303,65.9405,66.9856,67.7911,68.4311
0.929279,42.1921,57.3365,65.5754,70.8223,74.4712,77.1602,79.2256,80.8625,82.1921
0.921824,43.9113,59.8963,68.1586,73.1574,76.4897,78.8631,80.6364,82.0104,83.1055
0.923178,45.3424,61.5503,69.7116,74.5963,77.8433,80.1574,81.8903,83.2367,84.313
0.918205,45.5599,61.3222,69.1657,73.8549,76.9756,79.2028,80.8727,82.1713,83.2102
0.969696,49.1389,66.2099,74.8007,79.9826,83.4519,85.9382,87.8077,89.2647,90.4322
0.880725,17.0325,18.7843,19.4462,19.7942,20.0088,20.1543,20.2595,20.3391,20.4014
0.877291,25.3435,35.9002,43.5454,49.4781,54.2439,58.1645,61.4498,64.2438,66.6499
0.893549,33.9797,52.0352,63.5152,71.0437,76.2074,79.9047,82.6524,84.7594,86.4178
1.38006,58.7781,85.7779,99.4078,107.161,112.071,115.44,117.889,119.749,121.21
0.868144,42.2247,61.1489,70.5801,76.1529,79.8468,82.4846,84.467,86.0136,87.255
0.867274,45.8191,64.7906,73.9922,79.4208,83.013,85.5691,87.4817,88.9669,90.1536
0.859668,47.709,66.0446,74.9091,80.1694,83.6625,86.1534,88.0199,89.4709,90.6314
