1.7634,1.82022,1.83999,1.85003,1.85611,1.86018,1.86311,1.8653,1.86702,1.86839
1.26629,1.74651,1.98829,2.13379,2.23096,2.30045,2.3526,2.39319,2.42568,2.45227
1.18138,2.1217,2.61743,2.90826,3.0965,3.22743,3.32346,3.39677,3.4545,3.50112
1.07519,2.41054,3.10272,3.48879,3.72982,3.89345,4.01146,4.10048,4.16996,4.22569
1.04102,2.82203,3.71404,4.19283,4.48631,4.68377,4.82553,4.93219,5.01534,5.08196
1.07482,3.4444,4.59065,5.1919,5.55777,5.80336,5.97954,6.11207,6.21537,6.29816
1.44559,5.36621,7.19929,8.1475,8.72275,9.10858,9.38528,9.59341,9.75564,9.88565
0.987045,4.02749,5.33637,5.99218,6.38444,6.64535,6.83141,6.97079,7.0791,7.16568
1.2127,5.60422,7.52882,8.52354,9.13193,9.54291,9.8393,10.0632,10.2384,10.3792
0.961889,4.97208,6.71448,7.61125,8.15653,8.5228,8.78566,8.98343,9.1376,9.26114
1.03061,5.89965,7.98421,9.05155,9.69874,10.1328,10.4442,10.6783,10.8608,11.0071
0.94067,5.66547,7.54731,8.48577,9.04751,9.42141,9.68822,9.88818,10.0436,10.1679
0.967809,6.44711,8.72526,9.90575,10.6299,11.12,11.4739,11.7416,11.9511,12.1195
0.96087,5.84629,7.43424,8.17439,8.6017,8.87959,9.07467,9.21911,9.33033,9.4186
0.918772,6.42182,8.67307,9.89903,10.6791,11.2211,11.6203,11.9269,12.1697,12.367
0.89917,7.17,9.9218,11.3997,12.3143,12.9333,13.379,13.7148,13.9765,14.1863
0.929538,8.14899,11.2299,12.8112,13.7632,14.3972,14.8493,15.1879,15.4508,15.6609
0.754012,2.92826,3.22434,3.33385,3.3907,3.42552,3.44904,3.466,3.47881,3.48884
0.868301,5.27335,7.5149,9.15869,10.4479,11.4925,12.3581,13.0879,13.7117,14.2513
0.874082,7.39649,11.5512,14.2768,16.1001,17.3667,18.2814,18.9652,19.4917,19.9074
0.84782,8.92262,13.6665,16.2165,17.7103,18.6714,19.3367,19.8233,20.1945,20.4869
0.855688,9.9634,14.3498,16.4341,17.6235,18.3932,18.9336,19.3348,19.6448,19.8918
0.887552,11.5961,16.4725,18.8626,20.2927,21.2512,21.9406,22.4609,22.8679,23.195
0.829301,11.5335,15.9666,18.118,19.3995,20.2523,20.861,21.3173,21.672,21.9557
0.886716,13.195,18.1692,20.6513,22.1536,23.1629,23.8881,24.4346,24.8611,25.2034
0.849744,11.8774,15.5944,17.3523,18.3829,19.0606,19.5402,19.8975,20.1739,20.3942
0.778672,11.9839,16.376,18.7053,20.1658,21.1704,21.9045,22.4647,22.9065,23.2639
0.933102,15.3883,21.1331,24.1102,25.9239,27.1408,28.0123,28.6667,29.1757,29.5827
0.837452,14.3991,19.6191,22.2584,23.8456,24.9041,25.6602,26.2272,26.6682,27.021
0.84269,15.0715,20.4701,23.2001,24.8487,25.9528,26.7442,27.3395,27.8035,28.1754
0.807799,15.0014,20.3544,23.0715,24.7169,25.8208,26.6128,27.2087,27.6735,28.046
0.768705,5.65941,6.22961,6.44434,6.5571,6.6266,6.67372,6.70778,6.73354,6.75371
0.731396,8.16334,11.5743,14.0601,15.998,17.5601,18.8489,19.9313,20.8537,21.6493
0.78752,11.8376,18.2876,22.469,25.2475,27.1708,28.5571,29.5925,30.3896,31.0189
0.800452,14.7348,22.4925,26.6866,29.159,30.7577,31.8688,32.684,33.3072,33.7992
0.735048,14.5729,20.8401,23.7947,25.4709,26.5508,27.3063,27.8656,28.2968,28.6397
0.814371,17.7743,25.1433,28.7629,30.9333,32.3903,33.4397,34.2326,34.8534,35.3528
0.829071,19.2486,26.7679,30.4681,32.6881,34.1716,35.2336,36.0313,36.6524,37.1496
0.8227,19.4229,26.4267,29.8546,31.9044,33.2702,34.2459,34.9777,35.547,36.0025
0.839433,17.8058,23.0618,25.5242,26.9639,27.91,28.5794,29.0783,29.4644,29.7721
0.793255,18.7459,25.6938,29.4623,31.8588,33.5225,34.7465,35.6853,36.4284,37.0313
0.780156,19.2866,26.4009,30.081,32.314,33.8066,34.8721,35.6698,36.2889,36.783
0.853391,22.1082,30.258,34.4229,36.9412,38.6265,39.8335,40.7405,41.4471,42.0132
0.810666,21.6314,29.4194,33.3503,35.7172,37.2988,38.4304,39.2803,39.942,40.4718
0.821691,22.6022,30.6885,34.7837,37.2602,38.9204,40.1111,41.0069,41.7053,42.2652
0.839888,21.0965,27.4876,30.5445,32.3386,33.5189,34.3544,34.9769,35.4587,35.8427
0.819885,21.3363,28.5996,32.3969,34.7528,36.3618,37.5319,38.4215,39.1211,39.6856
0.851369,22.0076,29.3253,33.0344,35.2701,36.7617,37.8265,38.624,39.2436,39.7385
0.791738,22.2501,30.5866,35.022,37.7745,39.6493,41.0087,42.0396,42.8483,43.4998
0.813523,24.0005,32.9438,37.5395,40.3175,42.1735,43.4995,44.4937,45.2664,45.8842
0.835491,25.3514,34.5258,39.1533,41.9345,43.7901,45.1166,46.1121,46.8869,47.5071
0.814483,25.5627,34.8011,39.4894,42.3274,44.2313,45.5978,46.6264,47.4287,48.0721
0.835035,23.4066,30.3862,33.7062,35.6499,36.9269,37.8301,38.5027,39.023,39.4375
0.81669,23.919,32.1036,36.4022,39.0773,40.9081,42.2414,43.2564,44.0552,44.7003
0.951699,30.0162,41.2394,47.1926,50.8693,53.3597,55.1557,56.5112,57.5699,58.4194
0.831211,26.1697,35.2633,39.8055,42.509,44.2977,45.5675,46.5152,47.2494,47.835
0.833238,27.8189,38.0803,43.3969,46.6531,48.855,50.4446,51.6467,52.5879,53.3449
0.811627,28.218,38.6198,43.9419,47.1672,49.3291,50.8783,52.0427,52.9496,53.6758
0.851253,30.2775,41.176,46.6841,50.0043,52.2241,53.8127,55.006,55.9351,56.6791
0.823244,29.9212,40.5835,45.9816,49.2455,51.4331,53.0018,54.1819,55.1019,55.8393
0.81275,30.0225,40.6103,45.972,49.2147,51.388,52.9462,54.1181,55.0315,55.7634
0.808854,30.347,40.9969,46.3994,49.6695,51.862,53.4343,54.617,55.539,56.2779
0.840639,31.9334,43.1015,48.7778,52.2168,54.5239,56.179,57.4243,58.3952,59.1735
0.835071,32.1579,43.3921,49.105,52.5655,54.8862,56.5506,57.8027,58.7787,59.5609
0.805565,31.2175,42.0177,47.4936,50.8046,53.0227,54.6124,55.8076,56.739,57.4851
0.823784,32.2016,43.3512,49.0241,52.4623,54.7695,56.4251,57.671,58.6426,59.4215
0.852674,33.6153,45.2424,51.1562,54.7377,57.1393,58.8616,60.157,61.1668,61.9759
0.861948,34.4061,46.4031,52.5332,56.2558,58.7566,60.5524,61.9045,62.9592,63.805
0.834569,31.7249,41.8958,46.9155,49.9048,51.8878,53.2994,54.3553,55.1749,55.8295
0.858747,34.175,46.284,52.6283,56.5498,59.2177,61.1517,62.6184,63.7692,64.6964
0.86756,35.3152,47.8528,54.2827,58.1786,60.787,62.6538,64.0551,65.1454,66.0176
0.856893,35.9029,48.7843,55.3794,59.3791,62.0626,63.9878,65.4364,66.5659,67.4714
0.857309,36.8166,50.0051,56.7239,60.7904,63.5158,65.4695,66.9386,68.0836,69.001
0.849135,33.4322,43.7637,48.7514,51.6895,53.6264,54.9996,56.024,56.8174,57.4502
0.857962,35.8783,48.6791,55.4538,59.6784,62.572,64.6801,66.2853,67.5487,68.5691
0.889971,38.1937,51.9341,59.0344,63.3527,66.2492,68.324,69.8822,71.0947,72.0649
0.879297,38.4423,52.1244,59.088,63.2927,66.1047,68.1172,69.6288,70.8058,71.7483
0.825343,17.6245,20.0823,21.0547,21.5754,21.8999,22.1216,22.2827,22.405,22.501
0.818583,24.2847,34.1356,40.7977,45.7227,49.5364,52.5841,55.0784,57.1586,58.9206
0.82603,29.5616,43.3219,51.4164,56.5336,59.9841,62.4368,64.2557,65.6513,66.752
0.81978,34.001,49.8062,58.1955,63.2097,66.5111,68.843,70.5768,71.9166,72.9833
0.8658,39.0436,55.6412,63.8561,68.6819,71.857,74.1073,75.7872,77.0898,78.1299
0.869829,41.1841,57.3627,65.2712,69.9689,73.0924,75.3232,76.9975,78.301,79.3448
0.804338,39.6237,54.5769,61.9854,66.4415,69.4249,71.5641,73.1734,74.4282,75.4342
0.830093,41.8317,57.0856,64.6973,69.2879,72.3619,74.5651,76.2216,77.5125,78.5469
0.82068,41.6687,56.3734,63.7274,68.1606,71.1269,73.2513,74.8477,76.0913,77.0874
0.818602,40.6061,54.2614,61.0687,65.1635,67.8999,69.858,71.3288,72.4741,73.3913
0.84214,41.269,55.0445,61.9921,66.1961,69.0156,71.0384,72.5606,73.7475,74.699
0.817113,40.1631,53.8061,60.7699,65.0026,67.8478,69.8916,71.4308,72.6317,73.5947
0.824663,42.6015,58.1262,66.2444,71.2337,74.6093,77.0446,78.8843,80.3229,81.4787
0.82757,44.1069,60.1638,68.3873,73.3629,76.692,79.0742,80.8626,82.2544,83.3681
0.840699,44.8056,60.4446,68.2862,72.9892,76.1232,78.3614,80.04,81.3456,82.3901
0.823146,42.6634,56.8095,63.8426,68.0581,70.8694,72.8788,74.387,75.5609,76.5005
0.825762,41.4645,54.9892,61.8033,65.9262,68.693,70.6792,72.1746,73.3413,74.277
0.825661,44.089,60.1879,68.7094,73.9946,77.5934,80.2018,82.179,83.7294,84.9777
0.865108,47.8541,65.3909,74.4174,79.8857,83.5442,86.1607,88.1237,89.6503,90.8713
0.831065,46.0495,62.2221,70.344,75.2143,78.4589,80.7753,82.5122,83.863,84.9437
0.827359,46.8043,63.4289,71.8981,77.0389,80.4945,82.978,84.8495,86.3106,87.4831
0.84735,48.6618,65.8992,74.6688,79.9813,83.5443,86.0996,88.0216,89.5197,90.7201
0.839518,47.7982,64.1706,72.3965,77.3457,80.6509,83.0146,84.7888,86.1697,87.275
