1.83207,1.86081,1.87059,1.87552,1.87849,1.88048,1.8819,1.88296,1.8838,1.88446
1.41686,1.92248,2.17624,2.32877,2.43057,2.50334,2.55794,2.60043,2.63443,2.66226
1.25157,2.17264,2.64085,2.91031,3.08271,3.2017,3.28849,3.35447,3.40627,3.44798
1.16964,2.55622,3.26764,3.66476,3.91331,4.08245,4.2047,4.29706,4.36926,4.42723
1.1209,2.93982,3.82694,4.29715,4.58305,4.77434,4.91107,5.01361,5.09333,5.15707
1.088,3.38835,4.48616,5.06037,5.40946,5.64371,5.81174,5.93815,6.03669,6.11568
1.06129,3.77782,5.00271,5.62562,5.99973,6.24898,6.42688,6.56021,6.66385,6.74672
1.05098,4.29182,5.73893,6.48029,6.92957,7.23101,7.44731,7.61009,7.73704,7.83883
1.03805,4.74504,6.34195,7.1492,7.63479,7.95884,8.19041,8.36411,8.49922,8.60731
1.05209,5.32713,7.12409,8.03108,8.57738,8.94249,9.20375,9.39996,9.55274,9.67506
1.14938,6.38272,8.53567,9.62063,10.274,10.7105,11.0229,11.2574,11.4399,11.5861
1.02306,6.41994,8.7223,9.91019,10.635,11.1233,11.4747,11.7397,11.9466,12.1127
1.14689,7.69091,10.3071,11.607,12.3813,12.8946,13.2595,13.5322,13.7437,13.9125
1.01481,7.36178,9.88781,11.1603,11.928,12.442,12.8104,13.0876,13.3036,13.4768
1.00336,7.53488,9.98,11.1868,11.9063,12.384,12.7243,12.979,13.1768,13.3348
1.04514,8.3932,11.2122,12.6435,13.5123,14.0963,14.5161,14.8323,15.0793,15.2774
1.01065,8.68662,11.6569,13.1661,14.0789,14.6901,15.1278,15.4567,15.7128,15.9178
0.995549,8.99653,12.0308,13.5554,14.4712,15.0819,15.5182,15.8454,16.0998,16.3033
0.993937,9.49129,12.7148,14.3425,15.3244,15.9815,16.452,16.8057,17.0812,17.3018
1.08857,11.0779,14.913,16.8609,18.0393,18.8289,19.3948,19.8203,20.1518,20.4174
0.978879,10.4256,13.9743,15.7542,16.8223,17.5343,18.0426,18.4237,18.7199,18.9569
1.05065,11.6353,15.5542,17.5195,18.7012,19.4903,20.0547,20.4785,20.8084,21.0725
0.973007,11.3471,15.2305,17.196,18.3841,19.1799,19.7504,20.1792,20.5135,20.7812
0.98826,12.0112,16.0991,18.1572,19.3959,20.2232,20.8146,21.2585,21.6039,21.8804
1.04173,13.0898,17.4955,19.7058,21.0345,21.9214,22.5554,23.0312,23.4015,23.6979
0.964243,12.6136,16.8915,19.0505,20.3532,21.2249,21.8493,22.3184,22.6839,22.9767
0.927953,7.9149,9.33008,9.92219,10.2475,10.4531,10.5948,10.6984,10.7774,10.8397
0.948601,10.559,14.5829,17.087,18.8328,20.1274,21.128,21.9255,22.5764,23.118
0.958701,12.5258,17.7806,20.7089,22.5218,23.7359,24.5984,25.2393,25.7328,26.1235
0.933952,13.6128,19.138,21.9618,23.6349,24.7346,25.5114,26.0892,26.5357,26.8913
0.931951,14.2647,19.5292,22.0906,23.5941,24.5838,25.2854,25.8091,26.2152,26.5393
0.963402,15.8089,21.6334,24.5394,26.2884,27.4602,28.3011,28.9342,29.4283,29.8247
0.918976,15.6162,21.105,23.8129,25.4303,26.5062,27.2735,27.8483,28.2949,28.6519
0.969111,17.2617,23.3508,26.4076,28.2531,29.4894,30.3758,31.0425,31.5623,31.9788
0.965889,17.7881,23.957,27.042,28.8957,30.1327,31.0167,31.6798,32.1957,32.6084
0.968784,18.6058,25.1082,28.3878,30.3677,31.6931,32.6425,33.3562,33.9122,34.3576
0.944211,18.3798,24.5764,27.6569,29.4998,30.7259,31.6005,32.2557,32.7648,33.1718
0.95553,19.3191,25.9819,29.3562,31.399,32.7695,33.753,34.4932,35.0706,35.5335
0.913503,18.6213,24.8366,27.9334,29.7873,31.021,31.9009,32.5601,33.0722,33.4816
0.950328,19.9917,26.8169,30.2758,32.3697,33.7744,34.7822,35.5407,36.1323,36.6066
0.943871,20.4077,27.391,30.9175,33.0434,34.4642,35.4806,36.2437,36.8376,37.3129
0.927951,20.8314,28.0787,31.7563,33.9795,35.4684,36.5353,37.3372,37.9621,38.4626
0.956579,21.7357,29.0783,32.7434,34.9378,36.3982,37.44,38.2206,38.8272,39.3121
0.930441,21.7477,29.1883,32.9457,35.2148,36.7345,37.8239,38.643,39.2815,39.7932
0.954872,23.1017,31.1197,35.1843,37.6409,39.2859,40.4644,41.35,42.0399,42.5925
0.94755,23.1631,30.9832,34.8889,37.2287,38.7865,39.8981,40.7311,41.3785,41.8962
0.965573,23.7295,31.6142,35.5548,37.9215,39.5011,40.6306,41.4785,42.1384,42.6667
0.933481,23.4069,31.303,35.2954,37.709,39.3262,40.4855,41.3574,42.0369,42.5815
0.950561,24.0712,32.1185,36.1622,38.594,40.2171,41.3772,42.2476,42.9247,43.4665
0.960888,25.4391,34.3419,38.9031,41.6769,43.542,44.8823,45.8919,46.6799,47.3119
0.951576,25.2463,33.7152,37.9321,40.4501,42.1222,43.3129,44.2036,44.895,45.4472
0.951588,25.6676,34.3263,38.6846,41.3124,43.0709,44.3308,45.278,46.0162,46.6077
0.927197,25.3474,33.8889,38.1907,40.783,42.516,43.7562,44.6876,45.4127,45.9933
0.95798,26.9244,36.1763,40.8727,43.714,45.6181,46.983,48.0093,48.8091,49.45
0.958048,27.0072,36.0396,40.5533,43.2577,45.0584,46.3431,47.3059,48.0541,48.6524
0.945031,27.5486,37.0668,41.9111,44.8484,46.8206,48.2365,49.3026,50.1343,50.8012
0.9473,27.7231,37.0346,41.6893,44.4781,46.3345,47.6589,48.651,49.422,50.0382
0.937895,27.973,37.4717,42.2678,45.1634,47.1023,48.4918,49.5365,50.3507,51.0031
0.962036,29.3452,39.4079,44.5017,47.578,49.637,51.1117,52.2197,53.0828,53.7739
0.947953,29.6343,39.8648,45.0412,48.1648,50.2541,51.7498,52.8733,53.7481,54.4486
0.951958,30.1728,40.4557,45.6175,48.7186,50.7873,52.2655,53.3745,54.2371,54.9273
0.944301,30.5725,41.0524,46.3388,49.5269,51.6597,53.187,54.3346,55.2286,55.9446
0.932613,30.4275,40.691,45.8321,48.9194,50.9785,52.4498,53.5534,54.4119,55.0987
0.943274,31.2741,41.8859,47.2353,50.4618,52.6205,54.1664,55.3281,56.2331,56.958
0.946401,31.6439,42.2994,47.6531,50.8741,53.0248,54.5627,55.717,56.6152,57.3341
0.932648,31.8096,42.6723,48.1723,51.4963,53.7227,55.3183,56.5178,57.4526,58.2015
0.938576,32.5484,43.6595,49.2634,52.639,54.8942,56.5073,57.7181,58.6605,59.4147
0.940336,33.0682,44.3337,50.0095,53.4282,55.7129,57.3476,58.5752,59.5309,60.2961
0.938371,33.0029,44.0173,49.5238,52.8274,55.0298,56.6029,57.7827,58.7003,59.4344
0.940642,34.1517,45.9766,52.0064,55.6672,58.1269,59.8937,61.2243,62.2625,63.0953
0.96054,35.0051,46.8206,52.7353,56.2805,58.6409,60.3247,61.5861,62.5663,63.3498
0.960201,35.8755,48.2357,54.5021,58.2928,60.8339,62.6563,64.0274,65.0963,65.9532
0.947243,35.4535,47.3683,53.324,56.8939,59.2715,60.9683,62.24,63.2285,64.0188
0.944579,36.3411,48.895,55.2744,59.1396,61.7336,63.5952,64.9965,66.0895,66.9659
0.93304,36.0268,48.1922,54.2838,57.9377,60.372,62.1095,63.4118,64.4241,65.2335
0.9392,37.1405,49.9365,56.4241,60.349,62.9802,64.8671,66.2867,67.3935,68.2806
0.922137,36.6023,48.9579,55.1464,58.8599,61.335,63.1022,64.4272,65.4574,66.2813
0.94291,38.0687,51.0624,57.6271,61.5911,64.2452,66.147,67.5768,68.691,69.5837
0.959951,38.8572,51.9131,58.457,62.3875,65.0092,66.8822,68.2871,69.3799,70.2541
0.954738,39.2352,52.575,59.3171,63.3889,66.1154,68.069,69.5376,70.682,71.5989
0.936387,38.3994,51.2073,57.6195,61.4683,64.0342,65.8669,67.2412,68.3099,69.1648
0.949565,39.779,53.3932,60.3094,64.4986,67.309,69.3255,70.843,72.0264,72.9751
0.959174,40.605,54.4136,61.3682,65.5525,68.3455,70.3416,71.8391,73.0041,73.936
0.948342,42.0685,57.0811,64.7875,69.4767,72.6307,74.8975,76.6054,77.9384,79.0078
0.942252,41.7563,55.9551,63.014,67.224,70.0174,72.0053,73.4919,74.6455,75.5665
0.949478,42.9033,57.6555,65.0946,69.5855,72.5935,74.75,76.3722,77.6369,78.6508
0.948996,41.9529,55.6481,62.4178,66.4559,69.1381,71.0489,72.4792,73.5899,74.4774
0.946532,42.5386,56.9102,64.2092,68.6387,71.6158,73.7551,75.367,76.6253,77.6349
0.949236,43.0997,57.6979,65.0727,69.5188,72.4899,74.6149,76.2097,77.4507,78.4438
0.945145,44.1143,59.4421,67.2462,71.9718,75.1399,77.4114,79.1197,80.4513,81.5183
0.961167,44.6789,59.6735,67.1492,71.6197,74.5922,76.7111,78.2978,79.5303,80.5152
0.943889,44.9958,60.5351,68.4293,73.2127,76.4236,78.7287,80.4642,81.8182,82.9041
0.95301,45.0876,60.1261,67.62,72.1037,75.0862,77.2127,78.8052,80.0424,81.0311
0.939928,45.0838,60.3838,68.1215,72.7997,75.9355,78.1843,79.8762,81.1954,82.2528
0.959708,46.4514,62.228,70.191,74.9921,78.2018,80.4987,82.2234,83.566,84.6407
0.955177,46.6941,62.5643,70.5672,75.3896,78.6128,80.919,82.6509,83.9992,85.0786
0.942462,46.617,62.5007,70.513,75.3423,78.5708,80.8814,82.6167,83.9678,85.0497
0.953771,48.0941,64.6643,73.0508,78.1144,81.5033,83.9303,85.7541,87.1747,88.3124
0.969504,48.9146,65.4195,73.6816,78.6384,81.9421,84.3013,86.0702,87.4458,88.546
0.959905,49.0801,65.814,74.2665,79.3704,82.788,85.237,87.0783,88.5132,89.663
