1.94885,1.96008,1.96385,1.96574,1.96688,1.96764,1.96818,1.96859,1.9689,1.96916
1.50121,2.02608,2.29107,2.4509,2.5578,2.63432,2.69181,2.73658,2.77243,2.80178
1.32216,2.30001,2.80126,3.09073,3.27622,3.40435,3.49784,3.56892,3.62473,3.66968
1.23175,2.64465,3.34712,3.73152,3.96907,4.12935,4.24447,4.33105,4.39848,4.45248
1.63997,4.28043,5.57256,6.26224,6.68423,6.96796,7.17158,7.32476,7.44415,7.53982
1.1465,3.51731,4.62647,5.19993,5.54587,5.77671,5.94159,6.06521,6.16132,6.23818
1.11891,3.98214,5.28447,5.95125,6.35353,6.62243,6.81483,6.95931,7.0718,7.16186
1.1385,4.58039,6.07998,6.83616,7.28977,7.59197,7.80771,7.96943,8.09516,8.19571
1.17023,5.31748,7.10229,8.00732,8.55351,8.91901,9.18079,9.37753,9.53079,9.65356
1.35082,6.61525,8.72965,9.77415,10.3956,10.8075,11.1006,11.3197,11.4897,11.6254
1.09736,5.56041,7.2176,8.02542,8.50459,8.82206,9.04798,9.21699,9.3482,9.45304
1.01589,5.83747,7.8209,8.85714,9.49687,9.93172,10.2467,10.4854,10.6726,10.8234
1.02126,6.55448,8.8615,10.0468,10.7645,11.2444,11.5875,11.8448,12.0449,12.2048
1.07076,7.6269,10.3506,11.7333,12.5654,13.1205,13.517,13.8144,14.0457,14.2308
1.02032,7.89128,10.6582,12.0406,12.8673,13.417,13.809,14.1026,14.3308,14.5132
1.13405,9.29311,12.4366,13.9904,14.9171,15.5328,15.9718,16.3006,16.556,16.7603
1.19072,10.4896,14.0916,15.9019,16.9937,17.7245,18.2482,18.6419,18.9488,19.1946
1.24799,11.5087,15.3489,17.2555,18.3954,19.1534,19.6939,20.0987,20.4132,20.6645
1.03544,10.1587,13.6107,15.3499,16.3994,17.1019,17.6053,17.9837,18.2785,18.5148
1.01146,10.1548,13.4473,15.0721,16.0398,16.6818,17.1387,17.4805,17.7458,17.9576
1.13784,12.16,16.2812,18.3745,19.6442,20.4973,21.1102,21.5719,21.9322,22.2213
1.0209,11.4998,15.4137,17.3861,18.5728,19.3646,19.9303,20.3545,20.6844,20.9482
1.10637,12.7908,16.9989,19.0856,20.3309,21.158,21.7474,22.1886,22.5313,22.8051
1.14085,14.0162,18.8191,21.2584,22.7366,23.7289,24.4413,24.9778,25.3962,25.7319
1.08683,14.0185,18.8194,21.2343,22.6855,23.6531,24.3441,24.8622,25.2649,25.587
1.10837,14.8994,19.9616,22.4951,24.0148,25.0276,25.7509,26.2933,26.7152,27.0527
1.00003,13.9714,18.6967,21.0613,22.4811,23.4281,24.1049,24.6128,25.0079,25.3241
1.13205,16.4136,21.9565,24.7338,26.4026,27.5165,28.3127,28.9102,29.3752,29.7473
1.17811,17.5127,23.3317,26.2318,27.9694,29.1268,29.9531,30.5725,31.0541,31.4392
1.10789,17.2061,23.0541,26.0076,27.7911,28.9853,29.841,30.4842,30.9855,31.387
1.07952,16.647,21.9618,24.5711,26.1204,27.146,27.8749,28.4196,28.842,29.1791
1.02277,16.3792,21.8346,24.5991,26.2751,27.4009,28.2098,28.8192,29.2948,29.6765
1.04978,17.6034,23.6327,26.6974,28.5508,29.7916,30.6802,31.3476,31.8673,32.2834
1.00906,17.5985,23.6351,26.6752,28.5021,29.7203,30.5903,31.2426,31.7499,32.1556
1.061,18.7673,24.9949,28.0837,29.9271,31.1519,32.0247,32.6783,33.186,33.5918
1.05286,19.0782,25.4292,28.6099,30.523,31.8012,32.7159,33.403,33.9381,34.3666
1.06201,19.7065,26.2748,29.5694,31.5506,32.8733,33.819,34.5287,35.081,35.5229
1.05316,20.3936,27.3842,30.928,33.0702,34.505,35.5331,36.306,36.9081,37.3905
1.04289,20.9007,28.0609,31.6615,33.8249,35.2676,36.2979,37.0706,37.6714,38.1519
1.07071,22.0731,29.5752,33.3291,35.5807,37.0812,38.1529,38.9566,39.5816,40.0816
1.01733,19.116,24.605,27.1972,28.7073,29.6962,30.3939,30.9127,31.3136,31.6326
1.05578,21.608,29.1008,33.0685,35.5472,37.2476,38.4882,39.4337,40.1786,40.7806
1.08133,23.079,31.114,35.2072,37.6711,39.3111,40.479,41.352,42.0289,42.5688
1.08551,23.815,31.968,36.0485,38.4887,40.1109,41.2673,42.1334,42.8064,43.3444
1.05646,23.9448,32.1554,36.2741,38.7486,40.4002,41.5813,42.4679,43.1581,43.7107
1.04824,24.4796,32.8581,37.0584,39.5819,41.2659,42.4695,43.3727,44.0755,44.6379
1.03576,24.9559,33.5139,37.8093,40.3921,42.1163,43.3491,44.2744,44.9944,45.5707
1.02676,25.2039,33.7069,37.9459,40.4852,42.1762,43.3831,44.2878,44.9911,45.5536
1.02761,23.1701,29.9193,33.1275,35.0041,36.236,37.1069,37.7552,38.2567,38.6561
1.0398,25.4112,34.2519,38.9233,41.8358,43.8307,45.2841,46.3907,47.2618,47.9653
1.00835,25.9947,35.2494,39.9966,42.8653,44.7796,46.1454,47.1678,47.9613,48.5949
1.01219,26.9767,36.4061,41.1301,43.9534,45.8287,47.1646,48.1644,48.9409,49.5614
1.02723,26.7738,35.3922,39.5832,42.0593,43.695,44.8564,45.7238,46.3965,46.9334
1.02504,27.967,37.5834,42.4903,45.4809,47.498,48.9515,50.049,50.9073,51.5969
1.01742,28.2114,37.7376,42.5035,45.3589,47.2585,48.6125,49.626,50.413,51.0416
1.01822,29.1572,39.1708,44.2234,47.27,49.3076,50.7665,51.8627,52.7165,53.4005
1.03161,30.2891,40.6554,45.8567,48.9804,51.0635,52.5516,53.6676,54.5355,55.2298
1.04249,31.0534,41.5173,46.7354,49.8612,51.9429,53.4289,54.543,55.4092,56.1019
1.008,30.6924,41.0907,46.3092,49.4492,51.547,53.0478,54.1748,55.0523,55.7548
1.05362,32.6124,43.6083,49.1154,52.423,54.6293,56.2059,57.3885,58.3085,59.0446
1.04586,32.6144,43.4596,48.8694,52.112,54.2726,55.8153,56.9721,57.8717,58.5912
1.04964,33.5861,44.9861,50.7403,54.2135,56.5384,58.2038,59.4555,60.4308,61.212
1.05341,34.3954,46.0688,51.933,55.4576,57.8089,59.4887,60.7488,61.7288,62.5127
1.00415,32.7625,43.5722,48.9397,52.1471,54.2798,55.8004,56.9394,57.8245,58.532
1.02523,34.0633,45.4852,51.2339,54.7005,57.0201,58.6817,59.9306,60.9037,61.6833
1.06195,35.8106,47.8388,53.8818,57.5161,59.942,61.6759,62.9769,63.989,64.7988
1.00666,30.6848,39.5021,43.6895,46.1347,47.7376,48.8694,49.7112,50.3618,50.8797
1.04712,34.4815,46.4547,52.8053,56.7726,59.4936,61.4782,62.9904,64.1815,65.144
1.02495,35.4279,48.0339,54.5104,58.425,61.0372,62.9007,64.2955,65.378,66.2421
1.03267,36.1896,48.5791,54.7404,58.4066,60.8351,62.5617,63.8523,64.8535,65.6529
1.03689,37.498,50.4853,57.015,60.9457,63.5737,65.4556,66.87,67.9721,68.8551
1.01873,37.7619,50.7781,57.2994,61.2153,63.8272,65.6934,67.0931,68.1819,69.053
1.03043,38.9301,52.2271,58.8715,62.8574,65.5146,67.4126,68.8362,69.9434,70.8292
1.02936,39.492,52.8763,59.5634,63.5767,66.2531,68.1655,69.6002,70.7163,71.6094
1.03425,40.3389,54.0008,60.8451,64.9591,67.7054,69.6689,71.1427,72.2896,73.2075
1.02594,40.2985,53.7715,60.4944,64.5251,67.2111,69.1291,70.5673,71.6856,72.5801
1.02724,40.9699,54.7626,61.6895,65.8591,68.6451,70.6385,72.1354,73.3009,74.234
1.01629,41.0814,54.9133,61.8534,66.025,68.809,70.7987,72.2917,73.4532,74.3826
1.05151,43.2041,57.8129,65.1527,69.5677,72.5156,74.6235,76.2056,77.4369,78.4223
1.02135,42.3185,56.501,63.5945,67.8502,70.6869,72.7129,74.2322,75.4138,76.3589
1.02166,42.9582,57.4399,64.7156,69.094,72.019,74.1113,75.6824,76.9054,77.8845
1.05651,44.9154,60.0168,67.5884,72.1375,75.1726,77.3414,78.9686,80.2344,81.2472
1.04148,44.5022,59.3265,66.7355,71.1801,74.1429,76.259,77.8461,79.0805,80.0679
1.0277,44.6685,59.7489,67.3446,71.9225,74.9837,77.175,78.8211,80.103,81.1296
1.03609,45.031,59.9514,67.3902,71.8443,74.809,76.9241,78.5089,79.7406,80.7253
1.03897,44.628,59.0921,66.277,70.5766,73.4393,75.4826,77.0143,78.2054,79.1581
1.0297,45.3613,60.7088,68.5124,73.2449,76.4227,78.7043,80.4221,81.7621,82.8367
1.04071,45.9108,61.1658,68.791,73.357,76.3946,78.5602,80.1819,81.4414,82.4479
1.02766,46.2729,61.9598,69.8805,74.6587,77.8557,80.1453,81.8661,83.2067,84.2805
1.02506,46.541,62.1678,69.9901,74.6815,77.8072,80.0385,81.7111,83.0115,84.0513
1.00616,45.8722,61.1496,68.7869,73.3695,76.4252,78.6084,80.2462,81.5204,82.5399
1.01733,47.6576,63.9804,72.2471,77.244,80.5914,82.9905,84.7944,86.2001,87.3264
1.04085,49.5878,66.5002,74.99,80.0872,83.4848,85.9107,87.7294,89.1434,90.2741
1.00308,48.583,65.1278,73.4235,78.4063,81.7305,84.1062,85.8887,87.2756,88.3854
1.01008,49.041,65.4279,73.5896,78.4766,81.7307,84.0533,85.7943,87.1479,88.2304
1.0565,51.5653,68.7437,77.3348,82.4957,85.9404,88.4033,90.2518,91.6906,92.8422
1.00346,49.9701,66.9485,75.523,80.6991,84.1634,86.6446,88.5092,89.9616,91.1249
1.03608,52.2822,69.9996,78.8935,84.2362,87.7992,90.3441,92.2526,93.7368,94.924
1.00939,50.9142,67.8386,76.2688,81.3152,84.6746,87.0719,88.8686,90.2654,91.3823
0.999529,51.1841,68.4451,77.1344,82.3724,85.876,88.3848,90.27,91.7384,92.9146
