1.62812,1.72875,1.76511,1.78387,1.79532,1.80304,1.80859,1.81277,1.81604,1.81867
1.20703,1.69684,1.9421,2.08903,2.18686,2.25665,2.30895,2.3496,2.3821,2.40867
1.95827,3.56083,4.41041,4.91151,5.23731,5.46477,5.63208,5.76012,5.86116,5.94288
1.04059,2.36673,3.06479,3.45817,3.70542,3.87402,3.996,4.08823,4.16034,4.21826
1.00135,2.75452,3.65001,4.13648,4.43678,4.63976,4.78594,4.89618,4.98227,5.05135
1.27247,4.1276,5.53581,6.28318,6.74107,7.04977,7.27189,7.43934,7.57009,7.67502
0.961451,3.6145,4.88041,5.54223,5.94599,6.21774,6.41308,6.56025,6.67512,6.76726
0.920124,3.90293,5.27278,5.98245,6.41496,6.70613,6.91551,7.07334,7.19657,7.29546
0.92384,4.38288,5.9364,6.74157,7.23346,7.56517,7.804,7.98418,8.12494,8.23796
0.899201,4.74281,6.44169,7.32152,7.85885,8.22101,8.48163,8.67816,8.83164,8.95482
0.695449,1.95638,2.17264,2.25587,2.29988,2.32711,2.3456,2.35899,2.36913,2.37707
0.700086,2.93674,4.07846,4.87123,5.46743,5.93486,6.312,6.62301,6.88403,7.10627
0.705987,4.13853,6.3426,7.77828,8.7443,9.42255,9.91821,10.2931,10.585,10.8178
0.810513,5.99895,9.14715,10.8824,11.9223,12.6025,13.0789,13.4303,13.6999,13.9132
0.714968,6.18497,9.07862,10.5168,11.355,11.9032,12.2904,12.5789,12.8023,12.9806
0.844055,8.16082,11.6371,13.3414,14.3553,15.0312,15.5153,15.8795,16.1637,16.3917
0.714737,7.45772,10.3845,11.8209,12.682,13.258,13.6707,13.981,14.223,14.4169
0.728512,8.00876,10.9905,12.4779,13.3785,13.9839,14.419,14.7469,15.003,15.2085
0.801074,9.24501,12.6339,14.3596,15.4135,16.1248,16.6375,17.0245,17.327,17.57
0.812611,9.97547,13.6643,15.5628,16.7235,17.5063,18.07,18.4951,18.8272,19.0937
0.740366,9.58521,13.1094,14.9179,16.0189,16.7593,17.2912,17.6918,18.0044,18.2551
0.790072,10.563,14.3733,16.3259,17.5149,18.3152,18.8907,19.3246,19.6634,19.9353
0.738012,10.4067,14.2133,16.1778,17.3774,18.1861,18.7682,19.2073,19.5502,19.8254
0.83249,12.2173,16.6647,18.9543,20.35,21.2897,21.9655,22.4748,22.8725,23.1915
0.807517,12.3137,16.7646,19.0472,20.4354,21.3686,22.0391,22.544,22.938,23.2539
0.757672,12.0931,16.5037,18.7767,20.1631,21.0972,21.7693,22.2761,22.6719,22.9895
0.835808,13.7089,18.6372,21.1646,22.7022,23.7364,24.4796,25.0395,25.4765,25.827
0.762884,13.0022,17.7036,20.1232,21.5983,22.5918,23.3063,23.845,24.2656,24.6032
0.791384,13.8357,18.8058,21.3633,22.9228,23.9732,24.7289,25.2986,25.7435,26.1006
0.751777,12.7441,16.9317,19.0117,20.2553,21.0823,21.6721,22.1138,22.4571,22.7315
0.798132,14.3969,19.6549,22.4474,24.188,25.379,26.2459,26.9053,27.4239,27.8425
0.754162,14.4662,19.9228,22.7879,24.546,25.7322,26.5856,27.2286,27.7302,28.1325
0.781876,15.5777,21.3769,24.3692,26.189,27.4116,28.2892,28.9499,29.4652,29.8783
0.791846,16.2308,22.1472,25.17,27.0031,28.2335,29.1166,29.7813,30.2998,30.7156
0.847296,17.9725,24.5461,27.9299,29.9945,31.3864,32.3885,33.1446,33.7354,34.2097
0.807608,17.543,23.8697,27.1076,29.0754,30.3977,31.3474,32.0625,32.6203,33.0677
0.797952,17.8388,24.291,27.6098,29.6334,30.9967,31.9775,32.7172,33.2948,33.7584
0.804273,18.3155,24.8564,28.2041,30.2386,31.6058,32.5877,33.3271,33.9039,34.3664
0.811442,18.8223,25.52,28.9555,31.0471,32.4547,33.4668,34.2296,34.8251,35.3029
0.769338,18.3189,24.9036,28.3009,30.3752,31.7735,32.78,33.5391,34.132,34.608
0.783753,19.1142,26.0211,29.5904,31.7704,33.2401,34.298,35.0958,35.7189,36.2191
0.829362,20.4732,27.7445,31.4652,33.7242,35.2412,36.33,37.1494,37.7885,38.3008
0.801484,20.2142,27.4338,31.1479,33.4122,34.9373,36.0346,36.8619,37.5081,38.0267
0.814983,21.0694,28.6492,32.5573,34.9412,36.547,37.7022,38.573,39.253,39.7986
0.830783,22.075,30.065,34.184,36.6951,38.3857,39.6014,40.5176,41.2329,41.8067
0.824955,22.1871,30.0756,34.1055,36.5503,38.1913,39.369,40.2552,40.9462,41.5002
0.797142,20.3944,27.0192,30.306,32.272,33.5805,34.5145,35.2145,35.7588,36.1941
0.808215,21.957,29.9906,34.268,36.9379,38.766,40.0972,41.1101,41.9069,42.55
0.813182,22.9741,31.4884,35.9278,38.6404,40.4655,41.7758,42.7617,43.5299,44.1454
0.802361,23.3558,31.944,36.3618,39.0448,40.8459,42.1384,43.1111,43.8696,44.4777
0.812877,24.031,32.719,37.1659,39.8673,41.683,42.9875,43.9702,44.7372,45.3525
0.819519,24.7533,33.6926,38.2818,41.0767,42.9582,44.3113,45.3313,46.1277,46.7667
0.823156,25.4333,34.6379,39.3733,42.2599,44.2037,45.6018,46.6556,47.4784,48.1387
0.81699,25.1168,33.8783,38.3206,41.0064,42.8053,44.0945,45.0636,45.8187,46.4236
0.808915,25.5151,34.6816,39.4301,42.3403,44.3079,45.7275,46.8003,47.6395,48.3139
0.808225,25.9471,35.2603,40.0551,42.9754,44.9397,46.351,47.4138,48.2429,48.9078
0.795808,25.8248,35.0042,39.7057,42.5623,44.4815,45.8597,46.8975,47.707,48.3562
0.795213,26.3064,35.7836,40.6852,43.6829,45.7064,47.1644,48.2649,49.1252,49.8162
0.82208,27.1896,36.7325,41.5962,44.5425,46.5177,47.9339,48.9987,49.8286,50.4934
0.827848,25.6654,33.8247,37.8531,40.2565,41.8536,42.9923,43.8451,44.5079,45.0377
0.826834,27.1544,37.0046,42.2596,45.5447,47.7967,49.4378,50.6875,51.671,52.4652
0.820222,27.6364,37.7134,42.9553,46.1536,48.3034,49.8458,51.0055,51.9089,52.6322
0.831786,28.7884,39.331,44.7796,48.0988,50.3315,51.9362,53.1452,54.0888,54.8458
0.830165,29.4035,40.1398,45.6643,49.0266,51.2882,52.9137,54.1385,55.0944,55.8612
0.818984,29.6153,40.3767,45.9009,49.2617,51.5221,53.1465,54.3704,55.3255,56.0917
0.811013,29.6263,40.216,45.6221,48.9028,51.1059,52.6874,53.878,54.8067,55.5513
0.813946,30.2302,41.0881,46.6719,50.0774,52.3721,54.0236,55.2691,56.2421,57.0231
0.824588,30.5765,41.3091,46.779,50.0959,52.3217,53.9187,55.1204,56.0572,56.8082
0.805694,30.567,41.5853,47.2975,50.7976,53.1632,54.8693,56.1581,57.166,57.9759
0.808432,31.2439,42.5348,48.3589,51.9092,54.2985,56.0159,57.3096,58.3191,59.1287
0.828413,32.5402,44.2707,50.301,53.9712,56.4396,58.2134,59.5497,60.5925,61.4289
0.835369,33.1448,44.9951,51.0696,54.7635,57.247,59.0315,60.3757,61.4246,62.266
0.814585,32.936,44.8034,50.9153,54.6427,57.1536,58.9601,60.3222,61.3859,62.2396
0.831812,33.8798,45.9461,52.1248,55.8793,58.402,60.2136,61.5777,62.6417,63.4949
0.825248,34.2492,46.5679,52.9131,56.7833,59.3908,61.2669,62.6815,63.7864,64.6732
0.821324,34.3922,46.6556,52.9402,56.7602,59.3274,61.1712,62.5595,63.6425,64.5109
0.840683,35.6589,48.3987,54.9432,58.9289,61.6113,63.54,64.9936,66.1284,67.0389
0.816635,35.2023,47.8408,54.3437,58.3063,60.9737,62.8917,64.3372,65.4657,66.3711
0.795162,17.5845,20.2308,21.2991,21.8766,22.2385,22.4864,22.6669,22.8042,22.9121
0.807463,24.1457,33.8784,40.3633,45.1042,48.7443,51.634,53.9863,55.9395,57.5878
0.811473,29.41,43.3335,51.6168,56.9083,60.5083,63.0867,65.0109,66.4954,67.6717
0.79535,32.2901,46.8584,54.5034,59.0491,62.0329,64.1356,65.6963,66.9005,67.8581
0.79802,34.8943,49.6098,57.0076,61.4114,64.3368,66.4249,67.992,69.2122,70.1899
0.786947,35.4296,49.1381,55.9019,59.9401,62.6317,64.5566,66.0023,67.1283,68.0302
0.819982,37.8697,52.0283,59.1325,63.4346,66.3267,68.4062,69.974,71.1984,72.1812
0.798441,37.8683,51.903,59.0499,63.4042,66.3382,68.4498,70.0423,71.2861,72.2845
0.811571,39.395,53.8815,61.2859,65.7932,68.8259,71.0058,72.6481,73.9298,74.9579
0.822419,40.641,55.435,62.9944,67.5897,70.6785,72.8973,74.5683,75.8721,76.9177
0.799394,37.0964,49.1661,55.0997,58.6325,60.977,62.6464,63.8958,64.8659,65.641
0.811913,39.0709,53.071,60.4416,65.0199,68.1463,70.4189,72.146,73.5034,74.5985
0.804702,40.2088,55.096,62.8849,67.6614,70.8841,73.2028,74.95,76.3134,77.4067
0.803892,40.8667,55.7783,63.432,68.0736,71.1856,73.4165,75.0938,76.4009,77.4481
0.807825,41.3391,56.1694,63.7436,68.3389,71.425,73.6409,75.3096,76.6116,77.6558
0.813155,39.5996,52.6496,59.1273,63.0021,65.5815,67.4223,68.8021,69.8749,70.7328
0.813469,41.5788,56.7824,64.8292,69.8344,73.254,75.7399,77.6293,79.1141,80.3118
0.818736,43.1831,59.1733,67.4904,72.5692,75.9861,78.4395,80.2855,81.7243,82.8771
0.803226,42.9732,58.6084,66.6136,71.4656,74.7189,77.0517,78.8062,80.1738,81.2698
0.820438,44.6864,60.934,69.2735,74.3488,77.764,80.2197,82.0708,83.5161,84.676
0.799929,44.1239,60.082,68.2697,73.2531,76.606,79.0163,80.8325,82.2502,83.3875
0.792269,43.9184,59.6326,67.6813,72.5767,75.869,78.2349,80.0173,81.4084,82.5243
