1.87127,1.89757,1.9065,1.91099,1.9137,1.91551,1.91681,1.91778,1.91853,1.91914
1.43002,1.93911,2.19496,2.34886,2.45163,2.52511,2.58026,2.62319,2.65754,2.68566
1.29399,2.27538,2.78443,3.08054,3.27117,3.40329,3.49993,3.57356,3.63145,3.67814
1.20652,2.63957,3.36657,3.76794,4.01712,4.18567,4.30694,4.39824,4.46942,4.52644
1.16855,3.09923,4.05123,4.55915,4.8695,5.07792,5.22735,5.33967,5.42717,5.49725
1.12218,3.46297,4.55046,5.10996,5.44672,5.67118,5.8314,5.95148,6.04482,6.11946
1.10152,3.96119,5.27498,5.9534,6.36524,6.64174,6.84023,6.98964,7.1062,7.19966
1.0842,4.44088,5.93275,6.6923,7.15012,7.45593,7.6746,7.8387,7.96638,8.06854
1.68418,7.73977,10.3532,11.6757,12.4721,13.0042,13.3848,13.6706,13.8931,14.0712
1.0761,5.52207,7.41131,8.3685,8.94611,9.33255,9.60927,9.81718,9.97911,10.1088
1.05638,5.936,7.94785,8.95944,9.56753,9.97334,10.2634,10.481,10.6503,10.7858
1.04439,6.35099,8.48242,9.55163,10.1943,10.6234,10.9301,11.1604,11.3396,11.483
1.03372,6.81757,9.12818,10.2949,10.9992,11.4705,11.8081,12.0618,12.2595,12.4178
1.26287,9.03694,12.1427,13.7167,14.6677,15.3044,15.7605,16.1032,16.3702,16.584
1.03387,7.935,10.6474,12.0126,12.8339,13.382,13.7739,14.0679,14.2966,14.4796
1.0385,8.4902,11.3772,12.8281,13.701,14.2839,14.7008,15.0138,15.2574,15.4524
1.04622,9.04707,12.1038,13.6389,14.5624,15.1792,15.6204,15.9516,16.2094,16.4158
1.05678,9.66397,12.9377,14.5873,15.5817,16.2467,16.7227,17.0803,17.3588,17.5818
1.0113,9.76996,13.0922,14.7683,15.7789,16.4547,16.9384,17.3017,17.5845,17.811
1.00538,3.27059,3.48795,3.56696,3.60782,3.63277,3.6496,3.66171,3.67085,3.67798
0.820918,4.45808,6.39043,7.91658,9.17712,10.2407,11.1517,11.9412,12.6323,13.2425
0.829081,6.67588,10.8319,13.7796,15.8307,17.2831,18.3406,19.1329,19.7423,20.2219
0.903305,9.52792,15.2182,18.3693,20.199,21.3566,22.1451,22.7141,23.1432,23.4783
0.828453,10.4858,15.8814,18.4725,19.9317,20.8663,21.5184,22.0006,22.3725,22.6683
0.848697,12.1857,17.6479,20.1888,21.6573,22.6218,23.3067,23.8191,24.2172,24.5356
1.01759,15.603,21.7093,24.5477,26.2119,27.3125,28.0959,28.6823,29.1378,29.502
0.833659,13.6365,18.7274,21.191,22.6685,23.6571,24.3657,24.8988,25.3144,25.6476
0.8729,14.8938,20.211,22.8169,24.38,25.4231,26.1687,26.7282,27.1635,27.5118
0.916731,15.9039,21.2982,23.9435,25.5249,26.5774,27.3283,27.8912,28.3287,28.6786
0.842242,15.3137,20.6482,23.3444,24.9805,26.08,26.8699,27.4649,27.9293,28.3018
1.04642,19.5724,26.2862,29.651,31.6735,33.0226,33.9862,34.7088,35.2706,35.72
0.895333,17.2704,23.1898,26.1663,27.9592,29.1576,30.0151,30.6592,31.1607,31.5622
0.895666,17.7047,23.7285,26.7535,28.5736,29.7891,30.6585,31.3111,31.819,32.2256
0.999871,20.2174,27.0688,30.5128,32.5864,33.972,34.9634,35.7078,36.2874,36.7514
0.930931,19.5352,26.2787,29.6964,31.7627,33.1469,34.1388,34.8846,35.4658,35.9313
0.917667,19.479,26.0168,29.2797,31.2336,32.5342,33.462,34.1572,34.6974,35.1293
1.02173,22.0718,29.4715,33.1866,35.4233,36.9183,37.9883,38.7922,39.4182,39.9196
0.962404,21.2095,28.3454,31.9399,34.1065,35.5552,36.5921,37.3709,37.9774,38.463
0.982956,22.4719,30.2278,34.1712,36.5586,38.1591,39.3067,40.1697,40.8423,41.3813
0.982204,23.0716,31.0085,35.0105,37.4189,39.0267,40.1758,41.038,41.7088,42.2455
0.922977,21.7016,28.9023,32.4817,34.6218,36.0454,37.0608,37.8216,38.4129,38.8857
0.94543,22.9607,30.8175,34.8068,37.2248,38.8484,40.0142,40.892,41.5769,42.1262
0.956707,23.7778,31.8997,35.995,38.461,40.1077,41.2849,42.1682,42.8554,43.4052
0.979951,25.084,33.7297,38.0998,40.736,42.4994,43.7618,44.7102,45.4488,46.0403
0.985645,25.6644,34.3919,38.7683,41.3964,43.1491,44.4012,45.3404,46.071,46.6554
0.967348,25.1668,33.4806,37.6169,40.0934,41.7426,42.9199,43.8026,44.4889,45.038
0.985744,26.5537,35.6803,40.3302,43.1541,45.0521,46.4159,47.4432,48.245,48.8883
0.973741,26.3036,35.0782,39.4602,42.0838,43.8293,45.0739,46.0059,46.7298,47.3083
0.938672,25.6967,34.3149,38.6553,41.2724,43.0234,44.2776,45.2202,45.9547,46.5431
0.925337,25.6594,34.2694,38.6051,41.2168,42.9622,44.2109,45.1484,45.8783,46.4625
0.976577,27.5463,36.8473,41.5409,44.3709,46.2634,47.6179,48.6353,49.4276,50.0619
0.9546,27.9373,37.6555,42.6067,45.6064,47.6181,49.0608,50.1459,50.9918,51.6697
0.98211,28.8664,38.5729,43.4121,46.3055,48.229,49.5999,50.6263,51.4235,52.0606
0.901739,27.3142,36.7317,41.5081,44.3995,46.3391,47.731,48.7786,49.5957,50.2509
0.987429,30.5272,41.0056,46.2835,49.46,51.5809,53.0971,54.2347,55.1198,55.8279
0.970102,30.6809,41.2379,46.5608,49.7685,51.9127,53.4473,54.5999,55.4974,56.216
0.953247,30.6495,41.1122,46.3665,49.5258,51.6346,53.1422,54.2736,55.154,55.8585
1.0426,34.0062,45.5568,51.3589,54.8501,57.1822,58.8504,60.1029,61.0779,61.8585
0.972555,32.2113,43.1545,48.6631,51.9818,54.2002,55.7879,56.9803,57.9087,58.6521
0.957413,32.4592,43.6091,49.2468,52.6504,54.9281,56.5594,57.7851,58.7399,59.5045
0.961685,32.9603,44.142,49.7532,53.1247,55.3737,56.9808,58.1863,59.124,59.8742
0.931072,32.3445,43.3082,48.8226,52.1433,54.3625,55.9506,57.1432,58.0719,58.8155
0.957174,33.2888,44.395,49.9553,53.2951,55.5233,57.1158,58.3106,59.2402,59.9841
0.948814,33.3187,44.494,50.1241,53.5191,55.7903,57.4166,58.6385,59.5903,60.3526
0.949524,34.1254,45.8027,51.7269,55.3094,57.7093,59.4291,60.7219,61.7292,62.5362
0.960832,34.7772,46.4994,52.3781,55.9066,58.2585,59.9378,61.1969,62.1758,62.9587
0.945888,34.597,46.2706,52.1467,55.6867,58.0534,59.7475,61.0201,62.0112,62.805
0.969264,36.4191,48.9816,55.3591,59.2175,61.8031,63.6565,65.0502,66.1362,67.0064
0.99018,37.3609,49.959,56.2622,60.0408,62.5574,64.3533,65.6993,66.7455,67.582
0.948452,13.6479,15.0154,15.5349,15.8088,15.978,16.0929,16.1761,16.2391,16.2884
0.917759,19.7862,27.9779,33.9235,38.5409,42.2514,45.3048,47.8637,50.0403,51.9149
0.923889,26.5324,40.7805,49.9225,55.9498,60.098,63.0751,65.2912,66.9924,68.3328
0.932238,32.1895,48.6398,57.3714,62.4621,65.7311,67.9926,69.6464,70.9076,71.9013
0.945879,36.4111,52.7671,60.639,65.1563,68.0881,70.15,71.682,72.8667,73.811
0.948948,38.2127,53.1592,60.1597,64.2329,66.9128,68.8152,70.2373,71.3414,72.2235
0.976745,40.4767,55.2218,62.3023,66.5167,69.3254,71.3342,72.8431,74.0184,74.9598
0.90526,38.8878,52.8563,59.7674,63.9346,66.7269,68.7292,70.2354,71.4095,72.3505
0.883635,35.0248,45.7103,50.7522,53.702,55.6386,57.0072,58.0257,58.8131,59.44
0.997416,42.5118,57.6353,65.5736,70.5172,73.9012,76.3658,78.2419,79.7183,80.9107
0.917538,40.0757,54.1361,61.2539,65.534,68.3825,70.4114,71.9285,73.1051,74.0439
0.902872,40.4885,54.6811,61.8372,66.1428,69.0172,71.0726,72.6155,73.8165,74.7779
0.968497,44.466,59.9912,67.8012,72.5,75.6382,77.8827,79.5678,80.8794,81.9294
1.00297,47.1471,63.5836,71.8529,76.8312,80.1574,82.5371,84.3239,85.7149,86.8285
0.925282,44.0609,59.2106,66.7998,71.359,74.4012,76.5755,78.207,79.4764,80.4922
0.964362,46.7867,62.9216,71.046,75.9435,79.219,81.564,83.3259,84.6981,85.7971
0.967958,47.1564,63.1315,71.1249,75.9241,79.125,81.4118,83.1273,84.4617,85.5292
0.939347,46.193,61.8647,69.7518,74.5062,77.6862,79.963,81.6738,83.0063,84.0735
0.928392,46.409,62.2972,70.3241,75.1686,78.41,80.731,82.4748,83.8329,84.9205
1.01023,50.8066,68.0318,76.685,81.8881,85.3609,87.8433,89.706,91.1553,92.315
0.969534,48.4442,64.5286,72.5609,77.3789,80.5907,82.885,84.6059,85.9444,87.0154
0.973197,48.9234,65.3268,73.5999,78.5936,81.9367,84.332,86.1327,87.5357,88.6598
0.9071,46.8703,63.0977,71.3714,76.388,79.7538,82.1683,83.9848,85.4008,86.5357
0.959541,49.4579,66.1052,74.4298,79.4156,82.7335,85.0998,86.8723,88.2495,89.3503
0.887364,14.3652,15.5355,15.97,16.1969,16.3363,16.4307,16.4988,16.5503,16.5907
0.878717,22.2217,31.6564,38.8245,44.578,49.3224,53.3092,56.7092,59.6443,62.2044
0.889593,30.9644,48.7039,60.587,68.588,74.1483,78.154,81.1378,83.426,85.225
0.929292,39.978,61.9384,73.8271,80.7498,85.1693,88.2084,90.4195,92.0988,93.4175
0.930364,46.0983,68.5112,79.3682,85.5696,89.5798,92.394,94.4826,96.0967,97.3828
0.933577,50.1067,71.3993,81.371,87.1562,90.9584,93.6567,95.6738,97.24,98.4916
0.925495,52.0801,72.218,81.7749,87.4291,91.1857,93.8674,95.8792,97.4446,98.6975
