1.80418,1.84669,1.86131,1.86871,1.87318,1.87617,1.87831,1.87992,1.88117,1.88217
1.35516,1.86141,2.11753,2.27212,2.37555,2.44961,2.50526,2.5486,2.58331,2.61173
1.23185,2.14269,2.60167,2.86421,3.03148,3.1466,3.23038,3.29397,3.34382,3.38392
1.17826,2.59498,3.33011,3.74414,4.00497,4.18333,4.31271,4.41075,4.48757,4.54937
1.08031,2.87038,3.7578,4.23184,4.5212,4.71519,4.85403,4.95822,5.03927,5.1041
1.07645,3.4044,4.5309,5.12249,5.48265,5.72449,5.89802,6.02858,6.13039,6.212
0.696117,1.38201,1.52436,1.57974,1.60897,1.62701,1.63926,1.64811,1.65481,1.66005
0.726193,2.29236,3.22143,3.88739,4.39865,4.80585,5.13854,5.41573,5.65036,5.8516
0.966961,4.22505,6.35386,7.68033,8.54041,9.12692,9.54567,9.85649,10.0947,10.2823
0.761676,4.17984,6.19373,7.25675,7.87994,8.28304,8.56372,8.77011,8.92821,9.05322
0.749061,4.46806,6.17525,6.96479,7.41095,7.69797,7.89857,8.0469,8.16117,8.25195
0.777547,5.59767,7.95677,9.17178,9.92094,10.4327,10.8056,11.0899,11.3139,11.495
0.764536,6.18148,8.63431,9.8502,10.5761,11.0581,11.4011,11.6574,11.856,12.0145
0.801377,7.02001,9.62724,10.9048,11.666,12.1718,12.5325,12.8027,13.0128,13.1808
0.828056,3.54291,3.9509,4.10309,4.18309,4.23249,4.26605,4.29034,4.30874,4.32316
0.672511,4.16572,5.76981,6.86268,7.67697,8.31119,8.82028,9.23836,9.58803,9.88489
0.703097,5.72068,8.50567,10.2176,11.3296,12.092,12.64,13.0495,13.3653,13.6154
0.690088,7.11656,10.7693,12.7852,14.004,14.8085,15.3763,15.7978,16.1229,16.3814
0.690993,8.35496,12.2767,14.2293,15.3661,16.1079,16.6303,17.0185,17.3184,17.5573
0.89355,11.8983,16.8477,19.2115,20.5925,21.5018,22.1473,22.6297,23.0042,23.3034
0.787138,9.77205,12.8404,14.2123,14.9975,15.5084,15.868,16.1349,16.3409,16.5048
0.787285,11.1135,15.3153,17.5296,18.9254,19.891,20.6001,21.1433,21.573,21.9215
0.732461,11.1551,15.3478,17.4866,18.7807,19.6449,20.2615,20.723,21.081,21.3667
0.748282,12.0992,16.557,18.8008,20.1496,21.0492,21.6918,22.1738,22.5488,22.8489
0.869157,14.5379,19.6757,22.2308,23.7605,24.7794,25.5068,26.0523,26.4766,26.8161
0.778081,13.6218,18.4495,20.8836,22.3548,23.341,24.0484,24.5807,24.9958,25.3285
0.802435,14.2633,19.1263,21.5493,23.0023,23.9707,24.6623,25.1808,25.5841,25.9066
0.858194,15.9,21.4488,24.2693,25.9811,27.1314,27.9577,28.5801,29.0658,29.4555
0.803809,15.1047,20.2241,22.7876,24.3265,25.3523,26.0848,26.634,27.0609,27.4024
0.759271,14.2319,18.9022,21.2299,22.6263,23.5575,24.223,24.7224,25.111,25.422
0.779523,15.1485,20.3451,23.0082,24.6316,25.7255,26.5128,27.1067,27.5706,27.9431
0.79866,16.1132,21.7329,24.602,26.34,27.5046,28.339,28.966,29.4543,29.8453
0.806566,16.8365,22.7398,25.7426,27.5582,28.7739,29.6448,30.2993,30.8092,31.2176
0.890484,19.2359,25.9829,29.4008,31.4635,32.8433,33.8312,34.5733,35.1512,35.614
0.862925,19.1091,25.7347,29.073,31.0834,32.4268,33.3879,34.1096,34.6714,35.1212
0.877489,19.8798,26.7315,30.1862,32.2694,33.663,34.6609,35.4107,35.9948,36.4625
0.882026,18.9082,24.7487,27.5841,29.2602,30.3676,31.1537,31.7406,32.1956,32.5586
0.869722,19.3547,25.8975,29.282,31.3633,32.7752,33.7969,34.5708,35.1774,35.6658
0.888732,20.9085,28.3821,32.2643,34.6365,36.2336,37.3812,38.2451,38.9188,39.4587
0.888396,21.6338,29.2993,33.1896,35.5311,37.0928,38.208,39.044,39.6939,40.2136
0.828943,19.1938,25.2299,28.1528,29.8747,31.0098,31.8145,32.4149,32.88,33.2509
0.861004,20.9829,28.2661,32.0442,34.371,35.9516,37.0966,37.9646,38.6455,39.194
0.840827,21.5893,29.3602,33.3714,35.8129,37.4525,38.6284,39.5125,40.2011,40.7524
0.846618,22.3166,30.1735,34.1343,36.512,38.0959,39.2261,40.0731,40.7314,41.2577
0.861688,21.2988,27.8714,31.0352,32.8955,34.1208,34.9892,35.6368,36.1384,36.5384
0.85732,22.9947,31.2824,35.6684,38.4026,40.2749,41.6388,42.6771,43.4943,44.1542
0.856142,19.5552,24.8917,27.3648,28.7834,29.7008,30.3416,30.8141,31.1767,31.4637
0.878598,22.8554,31.3013,35.9713,38.9685,41.0635,42.6132,43.8073,44.756,45.5282
0.851516,23.4116,32.0652,36.5459,39.2527,41.0542,42.3355,43.2917,44.0318,44.6211
0.838027,24.2052,33.09,37.5973,40.3052,42.1099,43.3986,44.3651,45.117,45.7186
0.871212,26.2642,35.8092,40.6206,43.5146,45.4475,46.8304,47.869,48.6776,49.3252
0.870016,27.1618,36.9122,41.8168,44.7698,46.7436,48.1563,49.2174,50.0438,50.7055
0.845094,26.7657,36.076,40.723,43.5115,45.3714,46.7005,47.6977,48.4735,49.0944
0.856787,27.8342,37.5688,42.4882,45.4639,47.4593,48.8906,49.9676,50.8074,51.4807
0.84664,25.1986,32.7613,36.378,38.4994,39.8938,40.8802,41.6148,42.183,42.6356
0.840352,26.4452,35.601,40.4113,43.401,45.4445,46.9314,48.0624,48.9518,49.6699
0.90831,29.8278,40.4773,45.9801,49.3262,51.5699,53.1766,54.3829,55.3214,56.0722
0.849416,26.5204,34.9468,39.0484,41.4642,43.0545,44.1803,45.0191,45.6682,46.1854
0.875395,26.7567,35.2468,39.4928,42.053,43.7687,44.9999,45.9269,46.6503,47.2306
0.869911,29.1564,39.9775,45.7696,49.386,51.8596,53.6582,55.0248,56.0984,56.9639
0.847739,29.688,40.5667,46.122,49.4636,51.6867,53.2697,54.4532,55.371,56.1034
0.876933,31.386,42.511,48.0792,51.4107,53.6275,55.2091,56.3946,57.3163,58.0537
0.873126,32.0621,43.372,49.0679,52.5024,54.8013,56.4486,57.6873,58.6528,59.4265
0.869483,32.6196,44.0407,49.7945,53.264,55.5848,57.2464,58.4949,59.4671,60.2457
0.873429,33.4341,45.1071,51.0013,54.5597,56.9417,58.6479,59.9303,60.9294,61.7296
0.900824,34.5934,46.3763,52.2772,55.8225,58.1881,59.8788,61.1474,62.1344,62.9241
0.88042,34.8261,47.019,53.2337,57.0073,59.543,61.3646,62.7365,63.8072,64.6659
0.866073,34.8849,47.027,53.1657,56.8674,59.3416,61.1115,62.4402,63.4743,64.302
0.911775,36.4431,48.6646,54.7573,58.4066,60.8369,62.5716,63.8721,64.8832,65.692
0.870584,35.583,47.8615,54.1139,57.9105,60.4626,62.2966,63.6784,64.757,65.6223
0.884895,36.5708,49.1219,55.4659,59.2919,61.8494,63.6791,65.0528,66.1219,66.9775
0.90126,37.7872,50.7906,57.3704,61.3433,64.0023,65.9067,67.338,68.453,69.346
0.887658,37.6036,50.484,56.9848,60.9041,63.5247,65.4004,66.8092,67.9062,68.7845
0.913124,38.602,51.5944,58.1177,62.0414,64.6616,66.5355,67.9422,69.037,69.9134
0.893491,34.2518,44.3273,49.174,52.0269,53.9071,55.2399,56.234,57.0039,57.6179
0.910467,37.6882,51.0851,58.2544,62.7522,65.8444,68.1029,69.8257,71.1835,72.2813
0.886139,38.0275,51.6576,58.6719,62.9138,65.7452,67.7655,69.2778,70.4517,71.3888
0.897315,39.7612,53.987,61.2063,65.553,68.4547,70.5291,72.0859,73.2974,74.2672
0.960093,42.5284,57.1114,64.3772,68.7227,71.6145,73.678,75.2246,76.4271,77.3887
0.901889,40.8447,55.0602,62.2611,66.6208,69.5465,71.6467,73.228,74.4615,75.4508
0.88415,40.8474,55.0964,62.3098,66.6672,69.5839,71.6728,73.2423,74.4647,75.4435
0.916515,42.9405,57.8254,65.3372,69.866,72.8942,75.0614,76.6892,77.9566,78.9714
0.91042,43.3327,58.378,65.9913,70.5907,73.6707,75.8775,77.5365,78.8291,79.8647
0.889641,42.8283,57.6143,65.0792,69.5817,72.5932,74.749,76.3685,77.6296,78.6394
0.912423,44.055,59.0474,66.5831,71.1183,74.1478,76.3147,77.9416,79.2079,80.2217
0.888146,43.1106,57.7903,65.2091,69.6911,72.6931,74.8446,76.4623,77.723,78.7332
0.916615,44.7907,60.0592,67.784,72.4499,75.5736,77.8111,79.4927,80.8026,81.8518
0.928812,45.3324,60.6167,68.3137,72.9496,76.0474,78.2635,79.9275,81.2228,82.2597
0.909283,42.2663,55.5713,62.1221,66.0228,68.6115,70.4549,71.8345,72.9058,73.7618
0.927322,44.9235,60.5232,68.6442,73.6444,77.0371,79.4914,81.3499,82.8062,83.9783
0.88471,44.2283,59.9079,67.9589,72.8402,76.1098,78.4505,80.208,81.5757,82.6701
0.900908,44.6138,59.6845,67.1952,71.6793,74.6572,76.7783,78.3657,79.5984,80.5833
0.921227,46.5449,62.6376,70.8136,75.7692,79.0972,81.4875,83.288,84.6933,85.8206
0.919213,47.8073,64.6702,73.2697,78.4815,81.9769,84.4835,86.3686,87.8377,89.0148
0.939874,48.7471,65.3608,73.6731,78.6554,81.9734,84.3413,86.1159,87.4953,88.5983
0.992065,53.0402,71.7105,81.241,87.0311,90.924,93.7217,95.8298,97.4755,98.7959
0.93972,49.5205,66.1106,74.3626,79.2942,82.5719,84.9075,86.6559,88.0137,89.0985
0.912242,49.3548,66.5579,75.354,80.7083,84.3137,86.9078,88.8644,90.3928,91.62
0.902849,50.0725,67.7083,76.686,82.1176,85.7549,88.3599,90.3171,91.8411,93.0613
0.894581,50.0297,67.3518,76.0732,81.3191,84.8207,87.3238,89.2022,90.6637,91.8333
