3.44078,3.54026,3.57471,3.59219,3.60276,3.60985,3.61492,3.61874,3.62171,3.62409
1.35779,1.8599,2.11114,2.26185,2.3623,2.43404,2.48783,2.52967,2.56313,2.5905
1.2416,2.18735,2.67433,2.95664,3.1381,3.26376,3.35563,3.42561,3.48062,3.52498
1.16338,2.50741,3.17563,3.54218,3.76922,3.92267,4.03303,4.11612,4.18089,4.23279
1.08627,2.88952,3.80275,4.30131,4.61067,4.82063,4.97231,5.08697,5.17669,5.2488
1.26878,3.98276,5.29225,5.97793,6.39377,6.67197,6.87094,7.02023,7.13636,7.22925
1.34852,4.5648,5.91403,6.5775,6.96898,7.22704,7.40994,7.54635,7.652,7.73624
1.13026,4.53123,6.09354,6.92391,7.44047,7.79356,8.05041,8.24576,8.39938,8.52337
1.00897,4.60611,6.22265,7.05775,7.56421,7.90323,8.14573,8.32766,8.46913,8.58224
1.01644,5.16972,6.96902,7.88246,8.43255,8.79983,9.06241,9.25947,9.41282,9.53555
1.29791,6.94502,9.17962,10.2801,10.9344,11.3683,11.6771,11.9082,12.0876,12.2309
0.958396,5.87013,7.99179,9.10698,9.79731,10.2675,10.6085,10.8673,11.0704,11.2341
1.14687,7.781,10.6039,12.0505,12.9255,13.5105,13.9287,14.2423,14.4861,14.6811
1.00006,7.42337,10.0975,11.4528,12.2695,12.8152,13.2056,13.4987,13.7269,13.9096
0.952709,7.34552,9.81474,11.0356,11.7636,12.2474,12.5922,12.8504,13.051,13.2114
1.00783,8.07282,10.7297,12.0576,12.8573,13.3924,13.7759,14.0642,14.2889,14.469
0.975355,8.61816,11.7084,13.3201,14.3122,14.9847,15.4708,15.8384,16.1262,16.3576
0.966942,8.97483,12.0793,13.6427,14.5805,15.2046,15.6493,15.9822,16.2406,16.447
1.14554,11.1636,15.0006,16.9394,18.1097,18.8934,19.4551,19.8774,20.2067,20.4706
0.984145,10.3464,14.0431,15.9428,17.1002,17.8794,18.4397,18.862,19.1917,19.4563
0.985787,10.0342,13.1629,14.6783,15.571,16.159,16.5755,16.8859,17.1261,17.3175
1.01919,10.9968,14.7251,16.653,17.8387,18.6435,19.2261,19.6677,20.0141,20.293
0.959434,11.1211,15.0819,17.1377,18.394,19.2401,19.8481,20.306,20.6631,20.9493
0.990594,12.2169,16.5957,18.8341,20.1874,21.0927,21.7404,22.2268,22.6053,22.9083
1.08015,14.0385,19.0321,21.5616,23.0867,24.1062,24.8359,25.3839,25.8106,26.1523
1.01462,13.9565,18.9542,21.4944,23.0314,24.0619,24.8009,25.3567,25.7901,26.1374
0.915977,12.7312,17.0244,19.1544,20.4268,21.2728,21.876,22.3277,22.6787,22.9592
1.04373,15.3758,20.8156,23.6093,25.3155,26.4671,27.2971,27.924,28.4141,28.8079
1.06769,16.4807,22.3173,25.2861,27.081,28.2824,29.1424,29.7882,30.2909,30.6933
1.01828,16.3201,22.0412,24.9319,26.6745,27.8394,28.6731,29.2992,29.7867,30.177
1.00188,15.5223,20.4363,22.833,24.2529,25.1923,25.8599,26.3588,26.7458,27.0548
0.899752,14.4444,19.3083,21.8046,23.3323,24.3655,25.1115,25.6757,26.1173,26.4725
1.04817,16.8677,22.4079,25.197,26.875,27.9944,28.7939,29.3933,29.8592,30.2317
1.02665,17.8079,24.2325,27.5989,29.672,31.0773,32.0929,32.8612,33.4628,33.9466
0.972538,17.8151,24.2843,27.5999,29.6053,30.9464,31.9055,32.6251,33.1848,33.6325
0.993782,19.1778,26.1445,29.6856,31.8228,33.2522,34.2755,35.0443,35.643,36.1225
1.00337,20.1707,27.398,31.0436,33.2389,34.7059,35.7556,36.5438,37.1576,37.6489
1.01073,20.154,26.8797,30.1941,32.1688,33.4801,34.4143,35.1138,35.6572,36.0914
0.981187,19.4082,25.7336,28.8891,30.7885,32.0593,32.9698,33.6543,34.1879,34.6154
1.01287,21.257,28.8006,32.7315,35.151,36.7912,37.9765,38.8731,39.575,40.1394
1.00475,21.4767,28.8954,32.6421,34.8936,36.3933,37.463,38.264,38.886,39.3831
1.04793,23.3352,31.5801,35.7892,38.3421,40.0561,41.2867,42.2132,42.936,43.5158
1.01104,23.1249,31.2087,35.2948,37.7577,39.4036,40.5812,41.4652,42.1533,42.7041
1.00403,23.3166,31.3301,35.3641,37.7939,39.4181,40.5806,41.4539,42.1338,42.6784
0.928626,18.4215,23.4001,25.7192,27.0623,27.9389,28.5561,29.0143,29.3679,29.6491
0.944023,21.1293,28.8168,33.0656,35.7934,37.6998,39.1095,40.1949,41.0567,41.7578
0.984061,23.3139,31.905,36.3824,39.0989,40.912,42.2041,43.1698,43.9182,44.5147
0.977347,24.167,32.938,37.3862,40.0565,41.8347,43.1036,44.0547,44.7941,45.3856
0.996693,25.6612,34.9264,39.6149,42.4419,44.3335,45.6885,46.7071,47.5009,48.137
0.945998,24.8667,33.5856,37.9515,40.5729,42.3218,43.5719,44.5099,45.2398,45.8239
0.964203,25.4836,34.1841,38.5414,41.1639,42.917,44.172,45.115,45.8494,46.4377
0.980058,26.898,36.4085,41.2826,44.2535,46.255,47.6953,48.7815,49.6299,50.3109
0.968785,27.3564,37.0083,41.9099,44.8717,46.8535,48.2719,49.3372,50.1664,50.8302
0.992906,28.6276,38.6127,43.6516,46.6878,48.7172,50.1692,51.2597,52.1086,52.7884
0.941648,27.7902,37.4855,42.3925,45.3573,47.343,48.7661,49.8361,50.6699,51.338
0.957502,28.3591,37.9993,42.8345,45.7415,47.6821,49.0694,50.1107,50.9209,51.5694
0.955807,29.1461,39.3195,44.5125,47.6683,49.7901,51.315,52.4638,53.3605,54.0799
0.968735,30.2522,40.8339,46.2096,49.4598,51.6361,53.1947,54.3658,55.2778,56.0081
0.980306,31.1537,41.9823,47.462,50.7695,52.9825,54.5672,55.7578,56.6852,57.428
0.924649,26.6955,34.638,38.4438,40.6777,42.1471,43.1872,43.9622,44.562,45.04
0.92826,28.3312,38.1383,43.3155,46.5414,48.7501,50.3589,51.5838,52.5477,53.3262
0.909832,14.5005,16.6225,17.4822,17.9455,18.2345,18.4317,18.5746,18.683,18.768
0.915112,20.2456,28.4778,34.0049,38.0615,41.185,43.6702,45.697,47.3826,48.8069
0.946806,26.1625,38.8853,46.5005,51.365,54.6685,57.0292,58.787,60.1399,61.2098
0.95437,30.0024,43.6723,50.7382,54.8814,57.5726,59.4547,60.8435,61.9103,62.7555
0.923813,31.7472,45.1171,51.6995,55.5681,58.1186,59.9303,61.2855,62.3383,63.1803
0.951453,33.9799,46.9486,53.2088,56.9062,59.3557,61.1007,62.4077,63.4236,64.236
0.865171,14.1256,15.9523,16.6376,16.9997,17.2242,17.3773,17.4883,17.5726,17.6387
0.954281,21.196,29.3135,34.7044,38.6583,41.7025,44.1245,46.0993,47.7413,49.1285
0.880567,25.3788,38.1585,46.1144,51.346,54.9707,57.5982,59.5754,61.1097,62.331
0.879453,30.0397,44.7988,52.6791,57.3509,60.3934,62.5201,64.0871,65.2888,66.2392
0.908248,32.1432,45.0279,51.0783,54.5207,56.7414,58.2952,59.4449,60.3308,61.0348
0.869376,33.6297,47.1641,53.8967,57.9618,60.7004,62.6765,64.1717,65.3434,66.2867
0.89376,36.3491,50.2584,57.1301,61.2488,63.9963,65.9597,67.4324,68.5778,69.4938
0.870939,36.7175,50.2736,57.0039,61.0493,63.7524,65.6867,67.1397,68.2711,69.1772
0.936432,40.006,54.1508,61.1625,65.3697,68.1768,70.1834,71.6893,72.8612,73.7991
0.895903,39.0862,52.8558,59.786,63.9775,66.7883,68.8048,70.3221,71.5054,72.4539
0.91238,40.3893,54.4932,61.6069,65.904,68.7813,70.8424,72.3916,73.5983,74.5649
0.922801,40.2695,53.7598,60.4853,64.5197,67.2093,69.1304,70.5713,71.692,72.5886
0.88802,40.0646,54.1616,61.4078,65.833,68.8182,70.9685,72.5916,73.8602,74.8791
0.878715,37.5957,49.5575,55.4155,58.886,61.1793,62.8067,64.0211,64.9619,65.7121
0.94841,42.2196,56.9279,64.5655,69.2647,72.453,74.76,76.5076,77.8774,78.9803
0.890587,36.7322,48.0258,53.5254,56.7702,58.9076,60.4207,61.5475,62.419,63.113
0.903612,40.4589,55.2138,63.0993,68.0318,71.4151,73.8822,75.7618,77.242,78.438
0.894949,42.0479,57.5799,65.5998,70.4589,73.7072,76.0278,77.7669,79.1178,80.1971
0.870835,41.3063,55.8645,63.1442,67.4923,70.3806,72.4384,73.9789,75.1755,76.1319
0.886937,43.3035,58.7354,66.5641,71.304,74.4853,76.7697,78.49,79.8326,80.9095
0.893095,43.7578,58.8874,66.47,71.0261,74.0663,76.2391,77.8692,79.1374,80.152
0.954683,47.5933,64.2012,72.6264,77.7306,81.1562,83.6149,85.4657,86.9093,88.067
0.993175,50.4542,68.1631,77.1649,82.6159,86.2704,88.8907,90.8613,92.397,93.6275
0.928686,47.8075,64.4583,72.8742,77.9505,81.3451,83.7746,85.5993,87.02,88.1574
1.00157,51.875,69.7564,78.779,84.2212,87.8621,90.4692,92.4282,93.9541,95.1763
0.883482,45.6862,61.2138,69.0329,73.7461,76.898,79.1544,80.8495,82.1697,83.2269
0.932886,48.9748,65.8964,74.5067,79.727,83.2309,85.7457,87.6384,89.1145,90.298
1.02369,46.4943,59.5621,65.7264,69.3134,71.6594,73.3132,74.5417,75.4902,76.2447
0.950924,46.597,62.9968,71.8476,77.4418,81.3101,84.1482,86.3209,88.0383,89.4302
1.00854,52.2096,71.4751,81.5833,87.7594,91.9069,94.8775,97.107,98.8408,100.227
0.941239,39.2226,49.4837,54.1409,56.7821,58.4805,59.6639,60.5356,61.2044,61.7338
0.919187,44.3113,61.0583,70.507,76.6605,81.0087,84.2516,86.766,88.7737,90.4146
0.910852,47.654,66.3345,76.2246,82.2585,86.294,89.1714,91.3216,92.9869,94.3135
