1.58305,1.6781,1.71237,1.73004,1.74081,1.74807,1.75329,1.75723,1.7603,1.76277
1.21689,1.716,1.9676,2.11891,2.21989,2.29205,2.34619,2.3883,2.42199,2.44957
1.07779,1.95304,2.41208,2.68074,2.85447,2.97528,3.06387,3.13151,3.18479,3.22782
0.984836,2.21192,2.84924,3.207,3.43167,3.5849,3.69581,3.77972,3.84536,3.89811
0.930868,2.53611,3.35545,3.80238,4.07919,4.26673,4.40201,4.50416,4.584,4.64812
0.92424,2.98773,4.01677,4.56748,4.90643,5.13556,5.30073,5.4254,5.52284,5.60108
1.00153,3.74802,5.06495,5.75455,6.17525,6.45828,6.66165,6.81482,6.93433,7.03017
0.912783,3.90448,5.29957,6.02487,6.46733,6.76528,6.97958,7.14112,7.26725,7.36847
0.913922,4.35661,5.89893,6.69227,7.17446,7.4985,7.73124,7.9065,8.04324,8.1529
0.913174,4.82714,6.55293,7.44564,7.99114,8.35915,8.62421,8.82425,8.98058,9.10612
0.884315,5.12757,6.96287,7.91025,8.48823,8.87757,9.15765,9.36878,9.53364,9.66592
0.857214,5.43052,7.38265,8.38972,9.00388,9.41749,9.71498,9.93922,10.1143,10.2548
0.931812,6.37231,8.66008,9.84054,10.561,11.0465,11.396,11.6595,11.8653,12.0305
0.892622,6.63887,9.05546,10.3061,11.0702,11.5853,11.956,12.2357,12.4541,12.6294
0.846954,6.7732,9.23791,10.5099,11.2858,11.8083,12.1842,12.4675,12.6887,12.8662
0.842078,7.14618,9.70988,11.0241,11.823,12.36,12.7458,13.0363,13.2629,13.4447
0.862046,7.78125,10.5745,12.0096,12.8836,13.472,13.8951,14.2139,14.4629,14.6627
0.824594,7.8951,10.7503,12.2263,13.1286,13.7374,14.1759,14.5068,14.7654,14.9731
0.846038,8.53256,11.6136,13.2045,14.1759,14.8305,15.3017,15.6569,15.9344,16.1571
0.830124,8.82817,12.0176,13.6618,14.6644,15.3395,15.825,16.191,16.4767,16.7059
0.821371,9.20816,12.5492,14.2741,15.327,16.0365,16.5472,16.9322,17.233,17.4744
0.814871,9.258,12.4524,14.0694,15.046,15.6998,16.1682,16.5202,16.7944,17.0141
0.819697,9.94314,13.5681,15.4644,16.6332,17.4264,18.0002,18.4347,18.7751,19.049
0.807407,9.75803,13.0625,14.7251,15.7244,16.3908,16.8666,17.2233,17.5006,17.7224
0.793538,10.2759,14.0301,16.0059,17.2284,18.0604,18.6634,19.1208,19.4796,19.7686
0.792196,8.53635,10.7775,11.8105,12.4032,12.7871,13.0559,13.2545,13.4072,13.5282
0.793492,8.84582,11.6399,13.1224,14.0537,14.6958,15.1661,15.5259,15.8102,16.0405
0.765559,10.1005,14.238,16.6083,18.1395,19.2072,19.993,20.5949,21.0705,21.4555
0.777735,11.3812,16.0602,18.5444,20.056,21.0655,21.7853,22.3236,22.741,23.0739
0.777604,12.354,17.3278,19.8919,21.4423,22.4802,23.2237,23.7829,24.2187,24.5681
0.809948,13.5493,18.7312,21.3437,22.9151,23.9652,24.7169,25.2816,25.7216,26.074
0.798178,13.9596,19.1615,21.795,23.3905,24.4621,25.232,25.812,26.2647,26.628
0.761584,13.7794,18.8342,21.4138,22.9845,24.0424,24.8036,25.3776,25.826,26.1859
0.799554,14.8595,20.2526,23.0194,24.7074,25.8451,26.664,27.2817,27.7642,28.1515
0.791396,15.3437,20.9693,23.8705,25.642,26.8359,27.695,28.3428,28.8487,29.2547
0.79182,15.6624,21.3018,24.1929,25.9518,27.1348,27.9849,28.6253,29.125,29.5259
0.788487,16.0577,21.8373,24.8052,26.6126,27.829,28.7035,29.3626,29.8771,30.2899
0.79387,16.6191,22.5972,25.6691,27.5401,28.7993,29.7047,30.387,30.9196,31.3469
0.775481,16.6591,22.6363,25.7046,27.572,28.8281,29.7308,30.4109,30.9417,31.3675
0.794237,17.4186,23.6685,26.8891,28.8549,30.1801,31.1339,31.8535,32.4156,32.8668
0.774824,17.4559,23.7417,26.9805,28.9552,30.2849,31.2411,31.9617,32.5243,32.9757
0.788249,18.1379,24.6626,28.0256,30.0771,31.4592,32.4536,33.2033,33.7889,34.2588
0.794308,18.6365,25.2946,28.7114,30.7898,32.1873,33.1913,33.9474,34.5374,35.0106
0.79291,19.0086,25.8279,29.343,31.4882,32.9341,33.9747,34.7596,35.3727,35.8649
0.778416,19.4366,26.6109,30.3489,32.6423,34.1928,35.3109,36.1554,36.8157,37.3462
0.800367,20.7927,28.5171,32.5145,34.9531,36.5946,37.7746,38.6637,39.3574,39.9139
0.784677,21.0086,28.7535,32.7366,35.1604,36.7905,37.9619,38.8443,39.533,40.0854
0.787891,21.4427,29.2364,33.2396,35.6784,37.3208,38.5022,39.393,40.0887,40.6472
0.796207,22.2958,30.4344,34.6277,37.186,38.9096,40.1498,41.085,41.8153,42.4014
0.796404,22.7518,31.0438,35.3251,37.9407,39.7047,40.9748,41.933,42.6816,43.2827
0.790226,22.7947,30.9359,35.0998,37.6284,39.3268,40.546,41.4637,42.1795,42.7533
0.786193,23.2171,31.6239,35.9718,38.6319,40.4279,41.7222,42.6994,43.4634,44.0771
0.777448,23.312,31.6919,36.0013,38.6255,40.3909,41.6596,42.6153,43.361,43.9591
0.784505,24.1009,32.8419,37.3559,40.1121,41.9701,43.3074,44.316,45.104,45.7364
0.77343,24.1044,32.7536,37.1899,39.8871,41.7,43.002,43.9824,44.7473,45.3606
0.785579,25.0574,34.1374,38.8255,41.6889,43.6198,45.0101,46.059,46.8786,47.5366
0.783409,25.3666,34.5181,39.2314,42.1049,44.0398,45.4313,46.4801,47.299,47.956
0.785371,25.7866,35.0477,39.8101,42.7114,44.6642,46.0683,47.1265,47.9526,48.6154
0.791022,26.3116,35.7935,40.6951,43.6919,45.7143,47.1711,48.2706,49.13,49.8201
0.791494,26.4649,35.8825,40.7198,43.6643,45.6449,47.0682,48.1404,48.9771,49.6482
0.772208,26.4326,36.0261,41.0049,44.0546,46.1148,47.6,48.7214,49.5982,50.3025
0.779175,27.0147,36.7851,41.8334,44.915,46.9913,48.485,49.6111,50.4904,51.1961
0.80268,28.1799,38.2823,43.4682,46.6218,48.7416,50.2643,51.4109,52.3055,53.0229
0.77499,27.3056,37.0223,42.0204,45.0683,47.1218,48.5997,49.7144,50.5851,51.2841
0.783522,28.1424,38.288,43.5367,46.7456,48.9102,50.4691,51.6451,52.564,53.3017
0.77962,28.5195,38.8291,44.1484,47.3921,49.5762,51.1467,52.3303,53.2542,53.9954
0.798579,29.7254,40.485,46.033,49.4163,51.695,53.334,54.5696,55.5344,56.3087
0.79328,29.6921,40.3456,45.8324,49.1789,51.4336,53.0559,54.2793,55.2348,56.0018
0.808318,30.8784,42.0908,47.896,51.4463,53.8418,55.5671,56.869,57.8862,58.703
0.780126,30.3284,41.3491,47.0393,50.511,52.8495,54.5316,55.7995,56.7895,57.5838
0.78767,30.9342,42.0703,47.7938,51.2783,53.6226,55.3077,56.5773,57.5683,58.3633
0.781865,31.2824,42.6804,48.5893,52.2075,54.6515,56.4133,57.7436,58.7838,59.6194
0.788083,32.119,43.7882,49.7979,53.458,55.9201,57.6892,59.0217,60.0613,60.8951
0.794897,32.6928,44.4585,50.5023,54.1821,56.6583,58.4386,59.7803,60.8277,61.6681
0.781167,32.8371,44.8404,51.0658,54.8786,57.4543,59.3111,60.7132,61.8095,62.6901
0.782761,32.8662,44.6093,50.6324,54.2953,56.7576,58.5262,59.8581,60.8972,61.7304
0.791983,33.9211,46.2017,52.5479,56.4258,59.0414,60.925,62.3461,63.4566,64.3482
0.769458,33.2965,45.3018,51.4884,55.2608,57.8011,59.6281,61.0053,62.0804,62.9431
0.773727,33.9248,46.1683,52.4801,56.3303,58.9239,60.7898,62.1966,63.2952,64.1769
0.769354,34.3399,46.7779,53.1883,57.0967,59.7284,61.621,63.0474,64.1611,65.0547
0.774074,34.627,47.0001,53.3517,57.218,59.8193,61.6893,63.0985,64.1985,65.081
0.769259,34.8726,47.4332,53.9201,57.8834,60.5566,62.4816,63.9339,65.0687,65.9798
0.79315,36.2418,49.267,55.9847,60.0836,62.845,64.8317,66.3295,67.4991,68.4377
0.786957,36.1011,48.9708,55.5843,59.6113,62.3208,64.2685,65.736,66.8814,67.8003
0.777824,36.6668,50.0679,57.025,61.2851,64.1619,66.2352,67.8002,69.0235,70.0061
0.790189,37.593,51.1758,58.1605,62.411,65.269,67.322,68.8681,70.0743,71.0416
0.774581,36.9904,50.1854,56.9449,61.0542,63.8169,65.8018,67.2971,68.4639,69.3999
0.777092,37.5986,51.1474,58.1478,62.4274,65.3153,67.3957,68.9659,70.1931,71.1786
0.771185,37.6929,51.333,58.3946,62.7133,65.6273,67.7259,69.3094,70.5466,71.5399
0.787456,39.2821,53.608,61.0144,65.5352,68.5807,70.7714,72.4227,73.712,74.7466
0.771475,38.7202,52.6595,59.8171,64.1716,67.0997,69.2036,70.7884,72.0252,73.0172
0.792988,39.9868,54.2734,61.6065,66.0711,69.0756,71.2359,72.8641,74.1352,75.1552
0.772847,39.1797,53.1526,60.3384,64.7188,67.6689,69.7911,71.3909,72.6402,73.6428
0.767585,39.6566,54.0661,61.5421,66.1202,69.2121,71.4404,73.1226,74.4375,75.4936
0.774553,40.5771,55.3102,62.9138,67.5502,70.6714,72.9155,74.6064,75.9263,76.985
0.775095,41.3555,56.5278,64.3972,69.2135,72.4651,74.8081,76.5767,77.9592,79.0695
0.78053,41.7393,56.6767,64.3059,68.9307,72.0327,74.2573,75.9305,77.2346,78.2796
0.78127,42.1424,57.2726,65.0623,69.8162,73.0213,75.3291,77.0704,78.4311,79.5237
0.772472,42.1313,57.3461,65.2082,70.0128,73.2533,75.5865,77.3466,78.7217,79.8256
0.76488,41.683,56.5175,64.1278,68.7568,71.869,74.1047,75.7885,77.1023,78.1559
