1.86764,1.88979,1.89729,1.90107,1.90334,1.90485,1.90594,1.90675,1.90739,1.90789
1.36074,1.84906,2.09599,2.24503,2.34476,2.41617,2.46983,2.51163,2.5451,2.57251
3.10516,5.45044,6.66035,7.36114,7.81093,8.12195,8.34904,8.52182,8.65752,8.76684
1.20725,2.64052,3.36704,3.76813,4.01719,4.18574,4.30704,4.3984,4.46965,4.52674
1.85139,4.94324,6.48045,7.30362,7.80756,8.14636,8.38944,8.57226,8.71472,8.82885
1.78162,5.59855,7.40397,8.33785,8.90108,9.27685,9.54521,9.74641,9.90284,10.0279
1.41967,5.13145,6.81179,7.66732,8.182,8.52548,8.77099,8.95522,9.09858,9.21332
1.07931,4.38916,5.82631,6.55148,6.98729,7.27812,7.48601,7.64201,7.76341,7.86057
1.06541,4.79474,6.35754,7.14281,7.61467,7.92959,8.15471,8.32366,8.45513,8.56035
1.04556,5.26172,7.03556,7.93853,8.48547,8.85234,9.11551,9.31351,9.46788,9.59161
1.54432,8.4137,11.1824,12.5662,13.3948,13.946,14.3391,14.6335,14.8623,15.0451
1.04791,6.36579,8.56987,9.69795,10.3837,10.8449,11.1764,11.4261,11.6211,11.7775
1.05827,7.04327,9.48884,10.7257,11.4703,11.9674,12.3225,12.5888,12.7959,12.9616
1.18982,8.56147,11.5061,12.9838,13.8709,14.4623,14.8848,15.2017,15.4483,15.6455
1.19997,9.26502,12.4294,14.0155,14.9684,15.6045,16.0591,16.4004,16.666,16.8785
1.07795,8.28851,10.8294,12.0569,12.7807,13.2581,13.5966,13.8493,14.045,14.2011
0.828459,2.40726,2.57556,2.6385,2.67162,2.6921,2.70602,2.71611,2.72375,2.72974
0.831812,3.82425,5.32944,6.45509,7.34525,8.06993,8.67227,9.1812,9.61702,9.99451
0.868667,6.09318,9.88644,12.6371,14.6006,16.0254,17.086,17.8964,18.5306,19.0376
0.832615,7.74749,12.4301,15.0607,16.5984,17.5728,18.2358,18.713,19.0718,19.3511
0.788126,8.76962,13.2372,15.3656,16.5545,17.3111,17.8363,18.2234,18.521,18.7573
0.903732,10.909,15.4156,17.4416,18.5933,19.3428,19.8718,20.266,20.5714,20.8151
0.860881,11.9462,16.9572,19.4193,20.9124,21.9222,22.6525,23.2057,23.6396,23.9889
0.893572,13.518,18.8227,21.4,22.9363,23.9569,24.6837,25.2274,25.6492,25.986
0.982086,14.4254,19.1184,21.2928,22.557,23.3844,23.9684,24.4026,24.7382,25.0053
0.895512,11.9405,15.261,16.8125,17.7241,18.3262,18.7541,19.074,19.3224,19.5208
0.787286,12.1904,16.735,19.238,20.8438,21.9644,22.7915,23.4273,23.9313,24.3408
0.938111,15.8768,21.9046,25.0354,26.9302,28.1919,29.0894,29.7593,30.2777,30.6906
0.885819,15.6162,21.2002,23.9658,25.6038,26.6851,27.4521,28.0245,28.468,28.8219
0.854513,15.5408,20.9202,23.5815,25.1709,26.2289,26.9845,27.5513,27.9925,28.3456
0.887823,17.0569,23.1035,26.16,28.01,29.2513,30.1423,30.813,31.3362,31.7557
0.879998,17.4313,23.463,26.4725,28.2758,29.4765,30.3332,30.9751,31.4739,31.8727
0.850467,17.5645,23.6933,26.7792,28.64,29.8848,30.7763,31.4463,31.9682,32.3862
0.889912,18.9914,25.5655,28.863,30.8451,32.1678,33.1132,33.8225,34.3743,34.8159
0.925419,20.3514,27.3563,30.8694,32.9815,34.3916,35.3999,36.1567,36.7456,37.2171
0.904635,18.6791,24.3242,27.0302,28.6191,29.6645,30.4045,30.9559,31.3827,31.7228
0.807835,16.87,22.2726,25.0138,26.6836,27.8101,28.6221,29.2356,29.7155,30.1012
0.908051,8.54173,9.52148,9.90806,10.115,10.2438,10.3316,10.3953,10.4437,10.4816
0.794879,9.94794,13.4572,15.7709,17.4464,18.7229,19.7298,20.5452,21.2192,21.786
0.820812,13.539,20.1549,24.3192,27.0754,28.9958,30.3947,31.4519,32.2754,32.9329
0.832064,17.0766,25.8085,30.628,33.5281,35.4314,36.7676,37.7547,38.5128,39.1131
0.855924,19.2574,27.5696,31.538,33.7925,35.2411,36.2509,36.9958,37.5683,38.0223
0.809206,19.3973,26.9693,30.566,32.6735,34.0666,35.0591,35.8031,36.3821,36.8457
0.819532,20.7214,28.4251,32.1664,34.4003,35.8909,36.9575,37.7589,38.3832,38.8832
0.862892,23.4165,32.2042,36.6011,39.2615,41.0472,42.3289,43.2937,44.0462,44.6495
0.859319,23.214,31.0902,34.8932,37.1393,38.6217,39.673,40.4572,41.0645,41.5487
0.844456,24.3974,33.2411,37.7586,40.5199,42.3859,43.7324,44.7502,45.5469,46.1874
0.968233,29.0682,39.4311,44.6295,47.7505,49.8293,51.312,52.4224,53.2849,53.974
0.826718,25.0566,33.6056,37.8316,40.3526,42.0273,43.2208,44.1146,44.8089,45.3639
0.895263,26.7122,35.3834,39.6454,42.1866,43.8758,45.0804,45.9829,46.6845,47.2455
0.87953,27.6223,37.286,42.2557,45.2954,47.3487,48.8293,49.9477,50.8224,51.5252
0.798914,11.9832,13.5484,14.1613,14.4875,14.6897,14.8273,14.9268,15.0022,15.0613
0.848485,17.8808,25.0151,29.8546,33.4388,36.2178,38.4409,40.2619,41.7816,43.0696
0.85173,22.675,33.713,40.376,44.6475,47.551,49.6252,51.1682,52.3545,53.2915
0.832238,25.0784,36.3045,42.0426,45.3741,47.5215,49.0145,50.1112,50.9508,51.6143
0.815248,25.7543,35.7788,40.5457,43.2966,45.0906,46.3561,47.2981,48.0274,48.609
0.827251,28.343,39.3634,44.8222,48.1042,50.3059,51.8886,53.0824,54.0152,54.7645
0.836843,29.8663,40.86,46.2474,49.4592,51.594,53.1157,54.2552,55.1402,55.8473
0.828704,30.2983,41.0309,46.3211,49.4889,51.6009,53.1102,54.2427,55.1241,55.8295
0.839935,30.8942,41.3964,46.5685,49.6607,51.719,53.188,54.2892,55.1453,55.83
0.87975,31.7552,42.0494,47.1089,50.1298,52.1393,53.5727,54.647,55.4821,56.1498
0.860086,32.4404,43.7129,49.4974,53.0323,55.4183,57.1379,58.4362,59.4512,60.2665
0.849494,33.2172,44.9144,50.8571,54.4447,56.8422,58.5563,59.8422,60.8422,61.6421
0.933994,35.7778,47.4991,53.2501,56.6591,58.9135,60.5146,61.7105,62.6377,63.3777
0.840062,32.6764,43.6487,49.183,52.5308,54.7772,56.3902,57.6049,58.5529,59.3134
0.884916,35.8334,48.3953,54.8232,58.7292,61.3533,63.2371,64.655,65.7606,66.6469
0.901475,32.922,42.5756,47.1499,49.8118,51.5514,52.7768,53.6864,54.3883,54.9463
0.891567,34.5224,46.3651,52.579,56.4387,59.0768,60.9966,62.4574,63.6066,64.5345
0.869932,35.1586,47.6019,54.0026,57.8824,60.4781,62.3339,63.7254,64.8068,65.6712
0.873486,36.1023,48.6719,54.9892,58.772,61.2875,63.0806,64.4233,65.4664,66.3
0.98675,39.5212,52.2421,58.4529,62.1298,64.5614,66.2893,67.5806,68.5823,69.382
0.838848,35.6462,48.2886,54.835,58.8555,61.5803,63.5501,65.0411,66.2092,67.1491
0.880353,38.8239,52.6462,59.662,63.8895,66.7101,68.7239,70.233,71.4056,72.3427
0.899795,39.2947,52.443,58.9177,62.763,65.3091,67.1193,68.4724,69.5221,70.3603
0.864469,38.8615,52.2776,59.0687,63.1823,65.9445,67.9287,69.4233,70.59,71.526
0.868248,40.1467,54.1425,61.2186,65.4875,68.3419,70.3843,71.9177,73.1111,74.0664
0.845797,39.2594,52.5525,59.1733,63.1338,65.7685,67.6473,69.0547,70.1483,71.0226
0.895078,41.1271,54.6591,61.3759,65.3959,68.0733,69.9849,71.4185,72.5335,73.4255
0.88812,40.6509,54.0043,60.692,64.7173,67.4079,69.3336,70.7802,71.9068,72.809
0.91903,39.2625,51.0847,56.8431,60.2545,62.5112,64.1146,65.3125,66.2414,66.9827
0.872584,40.2699,54.6024,62.2105,66.9506,70.192,72.5499,74.3429,75.7524,76.8897
0.911543,40.4441,53.4527,59.8404,63.6079,66.0847,67.834,69.1341,70.1377,70.9357
0.943108,41.4942,54.935,61.6706,65.7258,68.4391,70.3838,71.8467,72.9875,73.9022
0.874423,41.6542,56.9005,64.9282,69.8869,73.2546,75.6911,77.5357,78.9806,80.1429
0.863029,42.1912,57.1612,64.6882,69.1847,72.166,74.2847,75.8668,77.0928,78.0704
0.865978,44.1931,60.0807,68.1114,72.9508,76.1868,78.504,80.2455,81.6023,82.6894
0.862473,45.0953,60.9812,68.9185,73.6738,76.8409,79.1016,80.7962,82.1136,83.1672
0.849665,42.8097,56.5908,63.2798,67.2343,69.8478,71.704,73.0905,74.1656,75.0237
0.876007,44.7655,59.7442,67.3174,71.9143,75.0069,77.2316,78.9092,80.2199,81.2721
1.03239,54.9893,74.3393,84.2713,90.3166,94.381,97.2997,99.4968,101.21,102.584
0.90315,48.9436,65.9137,74.4462,79.5646,82.9721,85.4024,87.2226,88.6367,89.7668
0.879365,48.1361,64.5729,72.7897,77.7163,80.9996,83.3448,85.1038,86.4721,87.567
0.879757,46.0843,60.6454,67.7514,71.9643,74.7534,76.7364,78.2188,79.3691,80.2875
0.898637,49.3082,66.4518,75.3196,80.7646,84.4536,87.1198,89.1373,90.7175,91.9888
0.959642,50.9262,67.3379,75.4167,80.2072,83.3717,85.6157,87.2889,88.5842,89.6163
0.95706,52.6584,70.8327,80.1588,85.848,89.6851,92.4497,94.5371,96.1693,97.4809
0.89109,50.3072,67.8372,76.7314,82.0954,85.6785,88.2399,90.1612,91.6555,92.8507
0.911696,49.3342,65.0575,72.722,77.2505,80.2396,82.3599,83.9422,85.1682,86.146
0.90763,49.2938,65.5202,73.7132,78.6766,82.0114,84.4082,86.2146,87.6253,88.7575
0.898549,47.2405,62.2045,69.6292,74.0665,77.0163,79.1185,80.6922,81.9143,82.8906
