1.92937,1.95197,1.95963,1.96348,1.96579,1.96734,1.96845,1.96928,1.96992,1.97044
1.4387,1.92446,2.16442,2.30746,2.40243,2.47007,2.5207,2.56002,2.59144,2.61711
1.27122,2.21995,2.71386,3.00269,3.18948,3.31939,3.41469,3.48746,3.54478,3.59108
1.22384,2.67384,3.41497,3.82583,4.08137,4.25438,4.37889,4.47265,4.54573,4.60428
1.19957,3.14504,4.09074,4.59059,4.89413,5.09712,5.24221,5.35103,5.43564,5.50332
1.15179,3.56802,4.70848,5.30143,5.66078,5.90146,6.07387,6.20345,6.30439,6.38525
1.12555,3.98027,5.25735,5.90565,6.29492,6.55429,6.73945,6.87824,6.98615,7.07243
1.082,4.39955,5.87859,6.63715,7.09721,7.40603,7.62768,7.79453,7.92467,8.02902
1.69482,7.24999,9.43708,10.5002,11.1264,11.5389,11.8309,12.0485,12.2169,12.3511
1.39475,6.72519,8.94807,10.0941,10.7964,11.2717,11.6152,11.875,12.0786,12.2423
1.39861,7.71608,10.4608,11.8894,12.7628,13.3511,13.774,14.0924,14.3407,14.5398
1.40058,8.58955,11.6338,13.1766,14.1033,14.7202,15.1602,15.4897,15.7456,15.9501
1.00296,5.86172,7.51361,8.28096,8.72314,9.01067,9.21264,9.36232,9.47769,9.56934
1.21999,8.24823,11.1512,12.7045,13.6829,14.3583,14.8534,15.2323,15.5317,15.7742
1.00965,7.62378,10.3977,11.834,12.7056,13.2883,13.7044,14.016,14.2579,14.4509
0.991594,8.12833,11.0247,12.4809,13.3517,13.9301,14.3421,14.6504,14.8898,15.0811
1.18404,10.4864,14.1971,16.0589,17.1768,17.9228,18.4561,18.8565,19.1682,19.4178
1.17685,10.8851,14.5604,16.3756,17.458,18.1771,18.6895,19.0733,19.3714,19.6096
0.986772,9.14135,12.0053,13.4003,14.2283,14.7771,15.1677,15.46,15.687,15.8683
0.984839,9.78132,13.0886,14.7859,15.8243,16.5262,17.0326,17.4153,17.7148,17.9555
1.06666,11.2564,15.1274,17.0966,18.2866,19.0824,19.6515,20.0786,20.4108,20.6765
1.00407,10.5791,13.9362,15.5804,16.5542,17.1977,17.6545,17.9956,18.26,18.4709
1.25786,14.5097,19.6387,22.3083,23.9515,25.0664,25.873,26.484,26.963,27.3485
0.957845,11.9073,16.1936,18.3846,19.7087,20.5934,21.2257,21.6999,22.0684,22.3631
1.15246,14.9846,20.2048,22.809,24.3641,25.3971,26.1329,26.6837,27.1114,27.4532
1.1178,15.2648,20.5692,23.2302,24.8307,25.9001,26.6654,27.2404,27.6883,28.0469
1.06599,15.1864,20.4174,23.0379,24.6128,25.664,26.4155,26.9794,27.4183,27.7695
0.953997,13.9376,18.6184,20.948,22.3434,23.2728,23.9363,24.4338,24.8207,25.1301
1.14403,17.0271,22.6535,25.4594,27.1437,28.2676,29.0709,29.6739,30.1431,30.5187
1.05752,16.4689,22.0947,24.9537,26.6871,27.8506,28.6858,29.3144,29.8047,30.1978
1.03884,16.8684,22.6779,25.6169,27.389,28.5733,29.4203,30.0561,30.5508,30.9467
1.10544,16.7331,21.6767,24.0328,25.4098,26.3128,26.9506,27.4249,27.7916,28.0835
1.00748,16.4254,22.0624,25.0174,26.8508,28.1027,29.0129,29.705,30.2492,30.6883
0.967957,16.8414,22.8579,25.9643,27.8513,29.1156,30.0205,30.6996,31.2277,31.6501
0.948956,17.2449,23.3209,26.3826,28.2175,29.4383,30.3087,30.9604,31.4668,31.8715
1.14211,21.3606,28.7072,32.3709,34.5632,36.0227,37.0645,37.8455,38.4529,38.9388
1.09895,21.3045,28.6494,32.3391,34.5609,36.0464,37.1099,37.909,38.5314,39.0299
0.946042,18.4752,24.6081,27.6482,29.4648,30.6728,31.5341,32.1793,32.6806,33.0813
1.15107,22.961,30.64,34.4995,36.8273,38.3854,39.5017,40.341,40.995,41.519
1.04122,21.4555,28.7688,32.4734,34.7131,36.2133,37.2882,38.0962,38.7256,39.2298
0.979527,20.999,28.2811,31.975,34.2062,35.6993,36.7683,37.5714,38.1967,38.6974
1.04572,21.5308,28.2632,31.531,33.4586,34.7296,35.6306,36.3025,36.8229,37.2378
1.03411,21.5507,28.5352,32.062,34.2002,35.6377,36.6713,37.4506,38.0594,38.5481
1.09175,24.2483,32.7976,37.2398,39.962,41.8002,43.1245,44.1236,44.9042,45.5308
1.06125,24.6887,33.445,37.8958,40.5759,42.363,43.6386,44.5944,45.337,45.9305
1.06491,25.6376,34.6162,39.1234,41.8261,43.6265,44.9119,45.8756,46.6251,47.2246
0.909457,8.8409,9.76252,10.1098,10.2921,10.4044,10.4806,10.5357,10.5773,10.61
0.918517,13.1947,18.5359,22.3374,25.2511,27.5694,29.462,31.0379,32.371,33.5139
1.08106,20.2449,30.5451,36.9737,41.1523,44.0063,46.0461,47.5612,48.723,49.638
0.960838,19.8731,28.5057,32.8126,35.2591,36.8105,37.8761,38.652,39.2419,39.7056
0.949864,23.0308,33.3765,38.6498,41.8141,43.9322,45.4547,46.6044,47.5044,48.2287
0.94731,24.8926,35.0159,39.9071,42.7763,44.6647,46.0024,46.9997,47.7717,48.387
1.00545,28.1149,38.8878,44.118,47.2271,49.2942,50.7698,51.8766,52.7378,53.4271
0.993378,28.3129,38.3297,43.1673,46.0386,47.9436,49.3005,50.3164,51.1055,51.7362
0.969421,28.7723,38.972,44.0528,47.1198,49.176,50.6511,51.7612,52.6271,53.3213
0.92406,24.6744,31.851,35.2041,37.1528,38.4266,39.3242,39.9908,40.5053,40.9144
0.955027,27.8087,37.6378,42.8538,46.1243,48.3739,50.0183,51.2736,52.2636,53.0646
0.94489,29.3333,40.0809,45.6402,49.0163,51.2754,52.89,54.0999,55.0397,55.7904
0.979523,31.7205,43.1514,48.9046,52.3481,54.6365,56.2668,57.4871,58.4347,59.1919
0.922998,30.142,40.4611,45.5508,48.5787,50.5873,52.0177,53.0883,53.9198,54.5843
0.99945,33.6961,45.4108,51.3088,54.8712,57.2589,58.9717,60.2607,61.2659,62.0719
0.981605,33.6757,45.2188,50.995,54.4638,56.7773,58.4299,59.6693,60.6332,61.4042
1.00723,35.2978,47.4131,53.5032,57.1712,59.6229,61.3775,62.6953,63.7215,64.5431
1.02324,35.9763,48.0359,54.0484,57.6517,60.0521,61.7658,63.0505,64.0495,64.8484
0.996693,35.5061,47.4767,53.4988,57.1295,59.5583,61.2976,62.6047,63.6229,64.4386
0.979684,35.2049,47.0236,52.9595,56.5307,58.9152,60.6202,61.8999,62.8956,63.6925
0.952616,34.6365,46.2963,52.1648,55.6994,58.0615,59.7515,61.0206,62.0087,62.7997
0.975861,36.1522,48.462,54.6834,58.4378,60.9498,62.7484,64.0998,65.1522,65.9951
1.07603,36.9502,48.0478,53.3875,56.525,58.5891,60.05,61.1383,61.9805,62.6515
0.937146,34.0371,45.7541,51.8809,55.672,58.2548,60.1295,61.5528,62.6706,63.5718
0.953845,35.8931,48.4717,54.9037,58.7904,61.3865,63.2408,64.6303,65.7099,66.5726
0.949524,36.1173,48.4383,54.5969,58.2777,60.7235,62.4663,63.771,64.7845,65.5944
0.952035,37.331,50.2987,56.8548,60.8128,63.4631,65.3627,66.7912,67.9046,68.797
0.960573,37.7203,50.4153,56.7355,60.5163,63.0318,64.8259,66.1699,67.2143,68.0491
1.01583,40.6262,54.4511,61.4143,65.6148,68.4261,70.4402,71.9543,73.1341,74.0793
1.04785,43.1675,58.1504,65.7453,70.3361,73.4105,75.613,77.2683,78.5578,79.5906
0.990103,41.1157,55.0678,62.0384,66.2137,68.9931,70.9758,72.4614,73.6159,74.5389
0.99823,42.2008,56.6076,63.8568,68.2247,71.1454,73.2364,74.8075,76.0312,77.0114
0.990535,42.1873,56.4184,63.5437,67.8222,70.6759,72.7147,74.2441,75.4337,76.3854
1.05202,44.889,59.887,67.3996,71.9155,74.9303,77.0862,78.7045,79.9641,80.9724
1.01254,39.4763,51.0796,56.6506,59.9257,62.0821,63.6095,64.748,65.6294,66.332
0.965623,39.6243,53.116,60.1921,64.5804,67.5746,69.7499,71.4026,72.7012,73.7486
0.990217,41.9912,56.6387,64.1533,68.701,71.7409,73.913,75.5411,76.8062,77.8173
0.989323,39.9216,52.484,58.5974,62.1984,64.5694,66.2481,67.4992,68.4676,69.2393
0.954921,40.5628,54.6838,61.9961,66.4862,69.5295,71.7304,73.3969,74.703,75.7543
1.00074,43.9365,59.388,67.2478,71.9891,75.1549,77.4165,79.1119,80.4296,81.483
1.00522,46.0818,62.5819,70.963,76.021,79.4035,81.8243,83.6426,85.0585,86.1922
0.985591,45.6499,61.3757,69.1865,73.8463,76.9406,79.1447,80.7943,82.0753,83.0988
0.996216,47.1521,63.4541,71.6405,76.5719,79.8705,82.2332,84.009,85.3928,86.5015
0.946686,45.8356,61.7275,69.7277,74.5483,77.7709,80.077,81.8088,83.1571,84.2365
0.970035,47.3603,63.4789,71.531,76.3601,79.5781,81.876,83.599,84.9388,86.0104
0.970359,43.4108,56.3169,62.4893,66.1113,68.4939,70.1806,71.4375,72.4104,73.1857
0.958147,45.8899,61.9788,70.4728,75.7636,79.3845,82.0209,84.0273,85.6059,86.8805
0.954943,47.7389,64.8271,73.6005,78.9072,82.4515,84.982,86.8775,88.3494,89.525
1.072,49.6246,64.8412,72.1071,76.3435,79.1153,81.0696,82.5215,83.6429,84.5349
0.979373,47.7138,64.2168,72.7834,78.0657,81.6591,84.2653,86.2434,87.7966,89.0489
0.94053,47.9161,65.0344,73.8228,79.1519,82.721,85.2754,87.1926,88.6839,89.8768
1.00322,52.1669,70.4224,79.5822,85.0663,88.7133,91.313,93.2596,94.7717,95.9802
0.994048,52.578,70.768,79.8738,85.3389,88.9843,91.59,93.5456,95.0676,96.2858
0.984859,53.2362,71.6961,80.9784,86.5685,90.3054,92.9799,94.9889,96.5532,97.8059
