1.79583,1.84261,1.85875,1.86692,1.87186,1.87517,1.87754,1.87932,1.88071,1.88182
1.43253,1.96231,2.22835,2.38826,2.49498,2.57125,2.62849,2.67302,2.70866,2.73782
1.20224,2.13677,2.62435,2.90884,3.09236,3.21973,3.31299,3.3841,3.44005,3.48519
1.14322,2.5327,3.24529,3.64098,3.88746,4.05458,4.175,4.26578,4.33661,4.3934
1.12681,3.00007,3.9204,4.41003,4.70864,4.90893,5.05239,5.16016,5.24406,5.31122
1.05984,3.31646,4.38559,4.94262,5.28059,5.50711,5.66944,5.79147,5.88656,5.96273
1.07668,3.93753,5.27317,5.96639,6.38788,6.671,6.87424,7.02723,7.14655,7.2422
1.06219,4.4092,5.90777,6.67146,7.1319,7.43953,7.65953,7.82466,7.95317,8.056
1.04113,4.79743,6.40952,7.22347,7.71335,8.0406,8.27469,8.45046,8.58729,8.69685
1.05499,5.3075,7.06692,7.95198,8.48469,8.84064,9.09533,9.2866,9.43552,9.55476
1.0076,5.65419,7.61325,8.61932,9.23221,9.64486,9.94166,10.1654,10.3401,10.4803
1.05438,6.42977,8.63851,9.75827,10.4339,10.8855,11.2086,11.4511,11.6398,11.7909
0.976749,6.37249,8.53504,9.62874,10.2891,10.7311,11.0478,11.2859,11.4714,11.62
0.99379,7.0062,9.4142,10.6387,11.3801,11.8773,12.2339,12.5021,12.7112,12.8788
0.998208,7.57785,10.2008,11.5335,12.3396,12.8795,13.2663,13.5571,13.7836,13.9651
0.963605,7.90917,10.6901,12.1076,12.9663,13.5421,13.955,14.2656,14.5077,14.7017
0.920703,5.37312,6.40594,6.84184,7.082,7.23404,7.33893,7.41565,7.4742,7.52036
0.913954,6.90387,9.50171,11.0827,12.1691,12.9666,13.5784,14.0631,14.4569,14.7833
0.92146,8.08918,11.3541,13.1446,14.2478,14.9858,15.5105,15.9008,16.2018,16.4405
0.882478,8.00851,10.819,12.1946,12.9956,13.5175,13.8841,14.1557,14.3651,14.5315
0.962704,10.0191,13.9394,15.9939,17.2605,18.1221,18.7473,19.2221,19.5952,19.8962
0.947847,10.6905,14.7189,16.7457,17.9591,18.7656,19.3399,19.7694,20.1027,20.3686
0.914212,10.8646,14.7582,16.6862,17.8369,18.602,19.1477,19.5566,19.8745,20.1288
0.940671,11.512,15.4625,17.4205,18.5942,19.3775,19.9376,20.3582,20.6857,20.9479
0.941777,12.0832,16.2726,18.3895,19.672,20.533,21.1512,21.6166,21.9797,22.2708
0.946902,12.7271,17.1649,19.415,20.7768,21.6893,22.3434,22.8351,23.2182,23.5251
0.937418,12.9433,17.3452,19.5519,20.8775,21.7618,22.3935,22.8673,23.2359,23.5308
0.976134,14.1461,19.0803,21.5958,23.1233,24.1498,24.8872,25.4427,25.8762,26.2239
0.932197,13.7395,18.3651,20.6783,22.065,22.9885,23.6475,24.1414,24.5252,24.8321
0.942197,14.7743,20.0237,22.727,24.3777,25.4911,26.293,26.8983,27.3714,27.7513
0.936814,14.9156,19.9933,22.5359,24.0594,25.0732,25.7961,26.3376,26.7581,27.0942
0.917406,15.1172,20.3235,22.9636,24.5617,25.6337,26.403,26.982,27.4337,27.7959
0.959431,16.4149,22.1207,25.02,26.7746,27.9505,28.7934,29.4272,29.921,30.3166
0.923499,14.9741,19.5869,21.8254,23.147,24.0193,24.638,25.0997,25.4574,25.7427
0.906826,15.6969,21.1496,24.001,25.7645,26.9654,27.8367,28.4979,29.017,29.4355
0.927525,16.9346,22.9831,26.1033,27.9996,29.2713,30.1823,30.8666,31.3992,31.8254
0.910773,17.1785,23.2014,26.2422,28.069,29.2866,30.1559,30.8076,31.3143,31.7195
0.915828,17.9033,24.1686,27.3326,29.24,30.5158,31.4294,32.1159,32.6507,33.0792
0.911574,18.5341,25.0603,28.3673,30.366,31.7048,32.6643,33.3857,33.9478,34.3982
0.9323,19.7831,26.8167,30.3912,32.5544,34.0042,35.0435,35.8251,36.4342,36.9222
0.930018,20.3303,27.4659,31.0645,33.2323,34.6809,35.7171,36.4951,37.1008,37.5855
0.949908,20.6678,27.5563,30.9727,33.0148,34.3734,35.3425,36.0687,36.6332,37.0845
0.941335,20.8469,27.8937,31.4611,33.6229,35.0747,36.1174,36.9028,37.5156,38.0072
0.928889,21.2811,28.6645,32.4363,34.7266,36.2647,37.3686,38.1993,38.8471,39.3663
0.905078,20.8942,27.9589,31.5075,33.639,35.0601,36.075,36.8359,37.4276,37.9008
0.911719,21.6762,29.164,32.9758,35.287,36.8385,37.9524,38.791,39.4452,39.9698
0.935471,23.0102,31.0721,35.1788,37.6655,39.3322,40.5268,41.425,42.1249,42.6855
0.914621,23.2894,31.5108,35.6911,38.219,39.912,41.1249,42.0366,42.7468,43.3157
0.930166,24.3064,32.8089,37.1016,39.6881,41.4166,42.6533,43.5819,44.3047,44.8834
0.936195,24.3373,32.471,36.5135,38.9318,40.5412,41.6896,42.5503,43.2195,43.7545
0.933062,22.7841,29.7254,33.108,35.116,36.4472,37.3947,38.1038,38.6543,39.0943
0.914401,23.9606,32.4324,36.9166,39.7087,41.6175,43.0059,44.0614,44.8912,45.5606
0.915542,24.8918,33.7432,38.2845,41.0308,42.8654,44.1756,45.1574,45.9201,46.5295
0.870203,24.9157,33.9807,38.6243,41.437,43.3221,44.6733,45.6895,46.4814,47.1161
0.873411,24.6161,32.8457,36.889,39.2861,40.8716,41.9979,42.8393,43.4916,44.0123
0.872801,25.4416,34.2823,38.7844,41.5232,43.368,44.6962,45.6986,46.4821,47.1114
0.878214,24.7087,32.6244,36.5134,38.8243,40.355,41.443,42.2559,42.8863,43.3894
0.89554,26.8875,36.5168,41.5595,44.6755,46.7949,48.3309,49.4957,50.4094,51.1455
0.875479,27.683,37.7952,42.9951,46.1475,48.2579,49.768,50.9013,51.7829,52.488
0.89947,28.6732,38.6156,43.565,46.5169,48.4759,49.8707,50.9142,51.7244,52.3717
0.880848,27.2717,36.1138,40.4595,43.0484,44.7687,45.9954,46.9146,47.6292,48.2007
0.893781,28.9891,39.1614,44.4211,47.6498,49.8366,51.4166,52.6119,53.5479,54.3007
0.892566,30.0472,40.7448,46.2146,49.5273,51.7453,53.3331,54.5252,55.4529,56.1952
0.873026,30.4374,41.311,46.8334,50.1669,52.3964,53.9922,55.1908,56.1241,56.8714
0.897287,31.0202,41.4837,46.6676,49.7597,51.8134,53.2766,54.3721,55.223,55.903
0.887084,31.7953,43.0951,48.922,52.4909,54.9048,56.6476,57.9653,58.9968,59.8263
0.875324,31.1613,41.6873,46.9365,50.0747,52.1597,53.6444,54.7551,55.617,56.3053
0.895262,33.1896,44.9429,50.9742,54.6503,57.1274,58.9106,60.256,61.3073,62.1515
0.881288,33.1583,44.6915,50.5084,54.0084,56.3438,58.0123,59.2636,60.2366,61.0148
0.875488,32.6363,43.6048,49.0891,52.3817,54.5784,56.1486,57.3271,58.2443,58.9784
0.875394,32.3914,43.1448,48.5467,51.8026,53.9809,55.541,56.7136,57.627,58.3588
0.908188,34.0761,45.7657,51.7642,55.4223,57.8873,59.6614,60.9995,62.0447,62.8838
0.895784,33.215,44.2442,49.777,53.0968,55.308,56.8858,58.0679,58.9865,59.7207
0.881838,34.2256,46.3702,52.6559,56.5018,59.0986,60.9704,62.3838,63.4889,64.3767
0.914909,33.8705,44.7386,50.071,53.2288,55.3144,56.7939,57.8975,58.7523,59.4338
0.876831,34.413,46.6915,53.1045,57.0601,59.7481,61.6953,63.1714,64.3293,65.2619
0.87573,28.9688,36.8426,40.4917,42.5882,43.9466,44.8973,45.5996,46.1394,46.5671
0.887394,32.5106,44.1479,50.5093,54.566,57.3898,59.4723,61.0729,62.3423,63.3739
0.874835,34.848,48.1946,55.2712,59.6109,62.5289,64.6196,66.1885,67.4082,68.3829
0.873572,36.5773,50.2962,57.2653,61.4405,64.214,66.1886,67.6658,68.8124,69.7282
0.901972,38.9289,53.0503,60.1081,64.3305,67.1415,69.1484,70.6535,71.8243,72.7612
0.895643,39.5031,53.5096,60.5106,64.7167,67.5259,69.5361,71.0459,72.2216,73.1632
0.906024,39.9732,53.6611,60.4774,64.5683,67.298,69.2495,70.7142,71.854,72.7664
0.895322,40.4563,54.5812,61.7516,66.102,69.0247,71.1239,72.7049,73.9385,74.928
0.899337,41.4796,55.98,63.3231,67.7589,70.7275,72.8531,74.4497,75.693,76.6884
0.896218,42.0211,56.6412,64.0235,68.4751,71.4518,73.5823,75.1826,76.4286,77.4263
0.899473,41.3912,55.1142,61.9285,66.0032,68.7144,70.6484,72.0976,73.224,74.1247
0.902149,41.8981,56.1118,63.3339,67.718,70.6652,72.7833,74.3794,75.6255,76.6254
0.870249,41.4448,55.9171,63.3298,67.8353,70.8623,73.0355,74.6712,75.9467,76.9692
0.901989,44.2566,59.9627,67.9859,72.8462,76.1036,78.438,80.1928,81.5599,82.655
0.873809,42.5584,56.9965,64.1955,68.5006,71.3634,73.4045,74.9332,76.1209,77.0703
0.90998,45.0439,60.5815,68.4628,73.2373,76.4425,78.7439,80.4769,81.8292,82.9138
0.880529,43.5179,58.2501,65.6539,70.1081,73.0819,75.2078,76.8031,78.0443,79.0374
0.888932,45.3124,61.2499,69.4172,74.3878,77.7325,80.1372,81.9495,83.3644,84.4997
0.900134,46.309,62.3532,70.4545,75.3325,78.5894,80.9173,82.6638,84.0223,85.1092
0.876973,45.1445,60.5086,68.2252,72.8661,75.9652,78.1816,79.8457,81.141,82.178
0.874664,45.2994,60.7482,68.5572,73.2755,76.4364,78.702,80.4058,81.7337,82.7978
0.891131,46.3219,62.0742,70.033,74.8369,78.0515,80.3535,82.0831,83.4301,84.5089
0.883442,44.2,58.3938,65.4217,69.618,72.4072,74.3954,75.8844,77.0412,77.9658
0.874858,45.1099,60.6763,68.7181,73.6449,76.9765,79.3807,81.1979,82.6199,83.7629
