1.35239,1.49358,1.54743,1.57584,1.59339,1.60531,1.61393,1.62046,1.62557,1.62969
1.00963,1.48678,1.7329,1.88232,1.98255,2.05442,2.10847,2.15058,2.18432,2.21195
1.72752,3.25199,4.06897,4.55152,4.86519,5.08406,5.24497,5.36804,5.46513,5.54362
0.842361,1.99191,2.61734,2.97683,3.20582,3.36348,3.47837,3.56571,3.63433,3.68963
0.804099,2.29751,3.08821,3.52645,3.80022,3.98671,4.12173,4.22395,4.30401,4.3684
0.782806,2.6353,3.58417,4.09812,4.41673,4.63316,4.7897,4.90818,5.00096,5.0756
0.77039,2.98668,4.08657,4.67584,5.04075,5.28879,5.46835,5.60435,5.71093,5.7967
0.766296,3.38013,4.65249,5.33354,5.75634,6.04432,6.25311,6.41142,6.53558,6.63557
0.741052,3.67438,5.08002,5.8324,6.30007,6.61888,6.85012,7.02552,7.16311,7.27394
0.732842,4.04574,5.60482,6.43557,6.95068,7.30118,7.55508,7.74745,7.89825,8.01962
0.730244,4.44842,6.16105,7.06716,7.62686,8.00679,8.28154,8.48947,8.65231,8.78329
0.720957,4.79745,6.64554,7.62384,8.22924,8.64088,8.93898,9.16483,9.34187,9.48438
0.718449,5.09882,7.01697,8.02369,8.64405,9.06471,9.36875,9.59878,9.77888,9.92372
0.716433,5.51303,7.63871,8.77286,9.47897,9.9611,10.3113,10.5772,10.786,10.9543
0.706526,5.83454,8.09225,9.29394,10.0397,10.5474,10.9153,11.1941,11.4127,11.5886
0.791183,6.96901,9.65452,11.0766,11.9563,12.554,12.9867,13.3142,13.5709,13.7774
0.760541,7.19848,9.98388,11.4536,12.3606,12.9758,13.4206,13.757,14.0205,14.2323
0.695443,6.98985,9.66781,11.0719,11.9358,12.5209,12.9434,13.2628,13.5128,13.7137
0.69551,7.30172,10.0726,11.5322,12.4348,13.0485,13.493,13.8299,14.0941,14.3068
0.6959,7.59573,10.4585,11.9693,12.9042,13.5399,14.0002,14.349,14.6224,14.8424
0.743479,8.51872,11.7661,13.4904,14.5601,15.2885,15.8165,16.2167,16.5306,16.7834
0.689069,8.4564,11.7528,13.5029,14.5858,15.3215,15.8536,16.2564,16.5718,16.8254
0.767762,9.77719,13.5159,15.4821,16.694,17.5158,18.1097,18.5591,18.9109,19.1939
0.743359,9.99248,13.8331,15.8527,17.0973,17.9412,18.551,19.0123,19.3734,19.6638
0.688377,9.72772,13.4656,15.4278,16.6361,17.455,18.0466,18.4939,18.8441,19.1256
0.649501,4.3314,4.89166,5.1112,5.22843,5.30138,5.35116,5.3873,5.41472,5.43625
0.672552,6.54941,9.34106,11.3172,12.8261,14.0235,14.999,15.81,16.4953,17.082
0.671665,8.47977,12.9696,15.8187,17.7017,19.0069,19.9517,20.6612,21.2105,21.6466
0.628037,9.36094,14.1253,16.7356,18.3114,19.3521,20.0878,20.6348,21.0574,21.3938
0.643574,10.6347,15.5738,18.1138,19.6388,20.6572,21.3871,21.9367,22.3658,22.7103
0.639813,11.2634,16.0696,18.509,19.9893,20.9872,21.7067,22.2505,22.6761,23.0184
0.637354,11.8682,16.7387,19.2471,20.7886,21.8348,22.592,23.1656,23.6152,23.9772
0.646054,12.4312,17.3612,19.9261,21.5099,22.5866,23.3665,23.9574,24.4207,24.7937
0.656686,13.0537,18.1673,20.8546,22.5191,23.652,24.4731,25.0955,25.5835,25.9765
0.666133,13.7418,19.0608,21.8424,23.5543,24.7136,25.5505,26.1829,26.6777,27.0753
0.633844,13.6644,18.9877,21.7875,23.5158,24.689,25.5376,26.1799,26.6831,27.0879
0.652982,14.352,19.871,22.7791,24.5777,25.8006,26.6862,27.3573,27.8834,28.3069
0.669774,14.9842,20.6088,23.5352,25.3291,26.541,27.4144,28.0736,28.5889,29.0027
0.682019,15.7591,21.7687,24.9386,26.8998,28.2335,29.1996,29.9318,30.5058,30.968
0.671868,16.0849,22.2577,25.5073,27.5113,28.8701,29.8518,30.5943,31.1753,31.6425
0.654792,16.0925,22.2542,25.4964,27.4966,28.8538,29.8351,30.5777,31.1593,31.6272
0.698863,17.5828,24.2645,27.7662,29.9214,31.3813,32.4357,33.2329,33.8568,34.3583
0.668702,17.0968,23.5553,26.9473,29.0398,30.46,31.4872,32.2648,32.874,33.364
0.676386,17.7429,24.4688,28.0032,30.182,31.6595,32.7272,33.5349,34.1671,34.6755
0.673462,17.94,24.7002,28.2498,30.4379,31.922,32.9947,33.8064,34.442,34.9532
0.684985,18.6588,25.7114,29.4184,31.7042,33.2545,34.3751,35.2229,35.8867,36.4205
0.688477,18.944,26.014,29.7123,31.9868,33.5269,34.6389,35.4796,36.1374,36.6662
0.66655,18.8709,26.0317,29.8081,32.1414,33.7263,34.8731,35.7414,36.4217,36.969
0.670137,19.2202,26.4092,30.1637,32.4687,34.0273,35.1514,36.0004,36.6642,37.1975
0.678253,19.7739,27.2046,31.112,33.5238,35.1614,36.3463,37.2435,37.9464,38.5121
0.661572,19.7803,27.3215,31.3105,33.7791,35.4572,36.6722,37.5924,38.3136,38.8939
0.674855,20.306,27.9549,31.9804,34.4642,36.1495,37.3681,38.2902,39.0124,39.5932
0.660729,20.502,28.3431,32.482,35.0382,36.7733,38.028,38.9776,39.7213,40.3194
0.658037,20.8303,28.784,32.9726,35.5566,37.3096,38.577,39.536,40.2869,40.8909
0.657071,21.112,29.1216,33.3297,35.9236,37.6827,38.9542,39.9162,40.6694,41.2752
0.69117,22.24,30.493,34.7951,37.4363,39.2229,40.5121,41.4861,42.248,42.8603
0.66152,21.8532,30.1681,34.5707,37.2995,39.1572,40.5037,41.5245,42.3252,42.97
0.660494,22.2183,30.6365,35.058,37.7801,39.6236,40.9544,41.9602,42.7469,43.3791
0.676842,23.1254,31.8939,36.5097,39.3586,41.2924,42.6911,43.75,44.5795,45.2469
0.682797,23.7421,32.7592,37.5067,40.4363,42.4244,43.8619,44.9498,45.8017,46.4869
0.672444,23.7283,32.7333,37.4749,40.4015,42.3879,43.8245,44.9118,45.7634,46.4485
0.683041,24.5614,33.9284,38.8702,41.9234,43.9969,45.4971,46.6328,47.5225,48.2383
0.67345,24.7134,34.1055,39.0303,42.0596,44.1105,45.5908,46.7095,47.5846,48.2879
0.680436,25.0966,34.4667,39.3526,42.3521,44.3814,45.8458,46.9525,47.8182,48.514
0.659178,24.927,34.4201,39.4326,42.5339,44.6427,46.17,47.3271,48.2342,48.9644
0.681547,25.8323,35.4893,40.5403,43.6455,45.7474,47.2644,48.4108,49.3075,50.0281
0.681331,25.991,35.7158,40.8303,43.9882,46.1326,47.6844,48.8593,49.78,50.5209
0.683086,26.5091,36.4802,41.7186,44.9459,47.1331,48.713,49.9076,50.8425,51.594
0.6838,26.7623,36.8893,42.2474,45.5659,47.824,49.4602,50.7004,51.6729,52.456
0.681631,27.2231,37.57,43.0183,46.3769,48.6533,50.2976,51.5408,52.5136,53.2956
0.672062,26.989,37.1774,42.5394,45.8486,48.0949,49.7197,50.9497,51.9133,52.6886
0.658232,27.0035,37.4053,42.9397,46.3773,48.7204,50.42,51.7092,52.7207,53.5355
0.661911,27.6077,38.2484,43.8839,47.37,49.7386,51.4525,52.75,53.7664,54.584
0.68081,28.8415,39.8578,45.6416,49.2012,51.6118,53.3522,54.6678,55.6971,56.5245
0.678047,29.222,40.3481,46.1828,49.7748,52.2089,53.9674,55.2974,56.3385,57.1757
0.679883,29.8671,41.2581,47.2405,50.9278,53.4284,55.2359,56.6033,57.674,58.5351
0.670496,29.8437,41.151,47.074,50.7191,53.1886,54.9721,56.3207,57.3761,58.2245
0.671331,29.8737,41.0381,46.8811,50.4788,52.9178,54.6804,56.0138,57.0578,57.8975
0.680643,30.3634,41.6392,47.5406,51.1733,53.635,55.4134,56.7582,57.8109,58.6573
0.686996,31.0903,42.797,48.9719,52.7889,55.3822,57.2591,58.6804,59.794,60.6902
0.675046,30.7309,42.3028,48.4047,52.1739,54.7332,56.5845,57.9859,59.0836,59.9666
0.686049,31.6658,43.6187,49.9043,53.7777,56.4031,58.2998,59.7341,60.8567,61.7592
0.669422,31.3229,43.2491,49.554,53.4547,56.1065,58.0267,59.4813,60.6215,61.5393
0.666571,31.7927,43.993,50.4432,54.4305,57.1388,59.0981,60.5814,61.7433,62.678
0.677908,32.4891,44.7726,51.2136,55.1774,57.8623,59.8013,61.2672,62.4143,63.3365
0.672005,32.9304,45.5645,52.2404,56.3695,59.1762,61.2081,62.7473,63.9537,64.9246
0.674761,33.024,45.4707,52.0023,56.0264,58.7546,60.726,62.2173,63.3847,64.3235
0.680413,34.0058,46.981,53.822,58.0469,60.9154,62.9903,64.5608,65.791,66.7807
0.675258,33.8844,46.6787,53.3968,57.5367,60.3437,62.3723,63.9068,65.1082,66.0743
0.688963,35.1424,48.4849,55.5027,59.8306,62.7664,64.8886,66.4943,67.7515,68.7626
0.670002,34.3187,47.2889,54.1164,58.3319,61.1941,63.2648,64.8325,66.0607,67.0489
0.678848,35.4406,48.9892,56.1455,60.5691,63.5739,65.748,67.3939,68.6833,69.7207
0.667208,35.2249,48.6184,55.6565,59.9925,62.9312,65.0542,66.6597,67.9162,68.9264
0.677748,35.9565,49.5315,56.6595,61.0533,64.0336,66.1881,67.8184,69.0952,70.1221
0.689285,36.8094,50.6429,57.8969,62.3643,65.3923,67.58,69.2345,70.5297,71.571
0.678294,36.5668,50.5132,57.9193,62.5182,65.6532,67.9277,69.6534,71.0076,72.0986
0.686895,37.3691,51.4559,58.8314,63.3614,66.4239,68.6318,70.2987,71.6016,72.6478
0.679579,37.5916,51.8526,59.3445,63.9616,67.0924,69.3555,71.0677,72.4085,73.4869
0.675921,37.8218,52.3103,59.988,64.7477,67.9886,70.3379,72.1193,73.5164,74.6417
0.669213,37.5749,51.8472,59.37,64.0147,67.1673,69.4469,71.1721,72.523,73.6096
