2.33203,2.46873,2.51793,2.54328,2.55873,2.56913,2.57662,2.58226,2.58667,2.5902
1.16829,1.68345,1.95204,2.11656,2.22763,2.30765,2.36803,2.41521,2.4531,2.48419
1.05186,1.9563,2.4398,2.72402,2.90787,3.03561,3.12918,3.20054,3.25668,3.30198
1.01223,2.25178,2.86753,3.20303,3.40986,3.54922,3.64923,3.72441,3.78296,3.82982
0.963123,2.63975,3.50474,3.98393,4.28467,4.49055,4.64027,4.75404,4.84343,4.91552
0.919209,3.01503,4.07534,4.64616,4.99804,5.23588,5.40718,5.53637,5.63723,5.71815
1.07391,3.98061,5.33665,6.03498,6.45672,6.73859,6.94021,7.09156,7.20935,7.30364
0.879288,3.65282,4.90101,5.54413,5.93555,6.19902,6.38856,6.53149,6.64313,6.73277
0.871199,4.16545,5.69491,6.50537,7.0071,7.34837,7.59557,7.78288,7.92972,8.04793
0.852506,4.62763,6.37311,7.2908,7.85433,8.23504,8.50932,8.71624,8.87788,9.00763
0.850621,5.03856,6.87951,7.82564,8.40012,8.78578,9.06254,9.27081,9.43322,9.56342
0.874477,5.65606,7.71321,8.77152,9.41637,9.85064,10.1631,10.3987,10.5827,10.7304
0.878376,6.19725,8.46816,9.64212,10.3596,10.8436,11.1922,11.4552,11.6607,11.8257
0.876606,6.75487,9.27478,10.5871,11.3923,11.9366,12.3292,12.6257,12.8576,13.0439
0.903394,7.50208,10.2795,11.713,12.5869,13.1751,13.5979,13.9165,14.1651,14.3646
0.908602,8.06612,11.032,12.5604,13.4925,14.1204,14.5722,14.9129,15.1789,15.3925
0.870868,7.82804,10.4947,11.8327,12.6375,13.175,13.5595,13.8482,14.0729,14.2528
1.01954,9.80008,13.3313,15.1805,16.3233,17.1006,17.664,18.0911,18.4262,18.6961
1.02435,10.4982,14.3463,16.3524,17.5818,18.4116,19.0089,19.4593,19.8111,20.0933
0.91324,9.93153,13.5758,15.46,16.6087,17.3817,17.9373,18.3559,18.6825,18.9445
1.04931,12.0819,16.5443,18.8576,20.2724,21.2271,21.9149,22.4339,22.8396,23.1655
0.973529,11.6932,15.9212,18.0851,19.3985,20.2803,20.9132,21.3894,21.7608,22.0584
0.903034,11.4291,15.6242,17.7994,19.1321,20.0329,20.6827,21.1736,21.5576,21.8662
1.03077,13.5729,18.5116,21.0591,22.6135,23.6606,24.4138,24.9816,25.425,25.7807
0.914479,12.395,16.8099,19.0675,20.4384,21.3592,22.0204,22.5181,22.9064,23.2177
0.909982,12.9012,17.5876,20.0189,21.5091,22.5166,23.2433,23.7924,24.2219,24.567
0.940274,13.7449,18.6972,21.2526,22.8119,23.8624,24.6179,25.1875,25.6322,25.989
0.929433,14.1345,19.2649,21.9193,23.5416,24.6358,25.4235,26.0178,26.4821,26.8549
0.990343,15.4515,20.9923,23.8437,25.5812,26.7508,27.5919,28.2257,28.7205,29.1176
0.904715,14.6773,20.0017,22.7573,24.4421,25.5788,26.3975,27.0153,27.498,27.8856
0.954094,15.9881,21.7901,24.79,26.6226,27.8581,28.7475,29.4182,29.9422,30.3627
0.869564,15.1266,20.6373,23.4839,25.2212,26.3917,27.2339,27.8688,28.3645,28.7624
0.937828,16.9172,23.0876,26.2709,28.2125,29.5202,30.4609,31.17,31.7237,32.168
0.901494,16.6551,22.646,25.7198,27.5898,28.8474,29.7511,30.4319,30.9633,31.3895
0.890339,16.9982,23.1596,26.3409,28.2844,29.5953,30.5393,31.2515,31.8081,32.2549
0.94561,18.2665,24.7112,27.9979,29.9906,31.3276,32.2868,33.0084,33.5709,34.0218
0.934698,17.7101,23.6357,26.6168,28.4139,29.6161,30.477,31.1239,31.6279,32.0316
0.919004,18.3737,25.0619,28.5944,30.7858,32.2795,33.3634,34.1859,34.8315,35.3517
0.942718,19.8305,27.2595,31.1586,33.5531,35.1705,36.3354,37.214,37.9001,38.4506
0.929455,19.9272,27.1481,30.8412,33.0767,34.5741,35.6468,36.453,37.081,37.584
0.926479,19.5796,26.2843,29.6607,31.6959,33.0576,34.033,34.7663,35.3377,35.7955
0.910301,20.1046,27.4408,31.2951,33.6797,35.3027,36.4792,37.3714,38.0713,38.6351
0.925637,21.4875,29.5438,33.7604,36.3478,38.095,39.3532,40.3022,41.0432,41.6379
0.927027,22.1534,30.3117,34.504,37.0495,38.7578,39.9834,40.9053,41.6241,42.2001
0.924343,22.4429,30.5269,34.6568,37.1637,38.8479,40.0576,40.9687,41.6797,42.25
0.922322,22.8768,31.1134,35.3475,37.9298,39.67,40.9226,41.8674,42.6054,43.198
0.905514,22.7595,30.866,35.0226,37.5523,39.2541,40.4772,41.3987,42.1179,42.6947
0.963975,24.6136,33.3956,37.92,40.6816,42.5431,43.8831,44.8937,45.6832,46.317
0.921675,23.7865,32.2238,36.5632,39.2077,40.988,42.2682,43.233,43.9863,44.5906
0.933322,25.1251,34.3986,39.2472,42.2283,44.2466,45.7037,46.8051,47.6668,48.3595
0.906899,25.1357,34.3856,39.1654,42.0783,44.0378,45.4456,46.5057,47.3328,47.996
0.917107,25.6381,34.8157,39.5002,42.3404,44.2463,45.6139,46.6431,47.4458,48.0892
0.934336,26.3673,35.7574,40.5819,43.5243,45.5075,46.9354,48.0126,48.8543,49.5302
0.918839,26.738,36.4832,41.5434,44.6441,46.7391,48.2492,49.3894,50.2807,50.9966
0.93757,27.817,37.8866,43.0705,46.2266,48.3491,49.8739,51.0222,51.9181,52.6365
0.872418,25.1169,33.5885,37.8331,40.3824,42.083,43.2985,44.2104,44.92,45.4878
0.925731,27.793,37.9427,43.2998,46.6245,48.8922,50.5389,51.7893,52.7714,53.5631
0.880717,27.2558,37.3095,42.5469,45.7511,47.9104,49.4629,50.6325,51.545,52.2766
0.887314,28.0748,38.3592,43.6648,46.8957,49.0688,50.6303,51.8066,52.7246,53.4609
0.930178,29.3619,39.7298,45.0001,48.1892,50.3268,51.8595,53.0124,53.9111,54.6313
0.895907,28.6551,38.8683,44.1323,47.3495,49.5212,51.0862,52.2679,53.1918,53.9339
0.892912,29.6408,40.5806,46.2935,49.8039,52.1792,53.8932,55.1881,56.2009,57.0147
0.895308,30.3325,41.4527,47.1971,50.6992,53.0559,54.7497,56.0256,57.0212,57.8197
0.904322,31.5296,43.1847,49.2207,52.9099,55.3982,57.19,58.5419,59.5983,60.4464
0.906129,32.147,43.8854,49.9194,53.592,56.0623,57.8374,59.1747,60.2183,61.0553
0.898581,31.9579,43.3487,49.1653,52.6969,55.0695,56.7734,58.0566,59.0577,59.8606
0.897932,32.765,44.6949,50.877,54.6641,57.2232,59.0686,60.4625,61.5525,62.4282
0.892304,32.8912,44.7389,50.8336,54.5457,57.0432,58.8381,60.1901,61.2452,62.0914
0.925689,34.6856,47.231,53.7063,57.6601,60.3255,62.2441,63.6913,64.8219,65.7295
0.920702,34.6876,47.0647,53.4141,57.2765,59.8737,61.7397,63.1452,64.2419,65.1216
0.950402,36.6302,49.9537,56.8649,61.0979,63.9576,66.0191,67.5759,68.7931,69.7709
0.921414,35.6115,48.3185,54.8351,58.7963,61.4579,63.3692,64.808,65.9302,66.83
0.895875,34.4997,46.5925,52.7708,56.5232,59.0446,60.8557,62.2197,63.284,64.1377
0.868249,20.3316,24.063,25.6432,26.5175,27.0727,27.4566,27.7379,27.9529,28.1225
0.864397,26.0162,36.3439,42.901,47.5306,50.994,53.6887,55.8475,57.6167,59.0937
0.898199,19.3292,23.7598,25.7532,26.8555,27.5448,28.0126,28.3493,28.6024,28.7991
0.91135,25.4269,36.3035,43.0906,47.7847,51.2434,53.9056,56.0215,57.7453,59.1777
0.897907,30.7598,45.972,54.826,60.4424,64.2687,67.0224,69.0899,70.6947,71.9742
0.864079,33.3384,48.8201,56.862,61.6466,64.7963,67.0221,68.6776,69.9569,70.9754
0.876095,36.3573,51.8644,59.5921,64.1883,67.2418,69.4213,71.0568,72.3302,73.3502
0.869136,35.7112,48.8731,55.206,58.9483,61.4276,63.1933,64.5156,65.5432,66.3647
0.901291,39.4674,54.7888,62.7077,67.6026,70.9397,73.3637,75.2051,76.6519,77.8187
0.852166,21.4852,25.2993,26.849,27.6911,28.2197,28.5823,28.8463,29.0471,29.2048
0.873439,28.7327,40.3059,47.7204,53.0108,57.0023,60.1289,62.6474,64.7208,66.4582
0.872445,34.2185,50.1216,59.4016,65.3013,69.3155,72.1962,74.3519,76.0196,77.3449
0.863417,37.7739,54.6879,63.5735,68.8922,72.4037,74.8893,76.7402,78.1719,79.3125
0.855585,38.673,54.0897,61.7001,66.1953,69.1662,71.2787,72.8593,74.0873,75.0691
0.867375,41.2774,57.4831,65.6893,70.6738,74.0345,76.4576,78.2886,79.7216,80.8737
0.909801,45.172,62.6698,71.6098,77.0606,80.7356,83.3814,85.3774,86.9366,88.1882
0.870016,41.0612,54.9833,61.781,65.8194,68.4959,70.4001,71.824,72.929,73.8114
0.863974,41.0293,55.4052,62.7992,67.3425,70.4248,72.6554,74.3454,75.6704,76.7373
0.902185,45.0541,62.0077,70.9836,76.5497,80.3371,83.0797,85.1569,86.7844,88.0938
0.872881,45.2243,62.3924,71.3465,76.8231,80.5123,83.1644,85.1621,86.7207,87.9704
0.851978,43.8186,59.5614,67.5416,72.3552,75.5738,77.8775,79.6079,80.9554,82.0345
0.845412,44.8495,61.4977,70.1622,75.4879,79.0969,81.7054,83.6794,85.2254,86.4693
0.855208,46.1783,63.1811,71.9454,77.2866,80.8806,83.4633,85.4085,86.9262,88.1432
0.887323,47.5687,64.4524,73.0351,78.2308,81.7141,84.2121,86.091,87.5557,88.7296
0.862624,47.3514,64.6531,73.6397,79.1555,82.8886,85.5838,87.6214,89.2161,90.4982
0.904865,50.353,68.6751,78.1212,83.8787,87.7532,90.5378,92.6354,94.272,95.5846
0.896343,50.4339,68.7336,78.1624,83.912,87.7845,90.5702,92.6705,94.3106,95.6269
