1.85452,1.8935,1.90686,1.91361,1.91769,1.92041,1.92237,1.92383,1.92497,1.92589
1.41005,1.93554,2.20199,2.36301,2.47084,2.5481,2.60616,2.6514,2.68764,2.71733
1.26167,2.23848,2.7457,3.04035,3.22979,3.36092,3.45674,3.52968,3.587,3.63319
1.17026,2.57848,3.29454,3.69042,3.93647,4.10308,4.22306,4.31345,4.38397,4.44049
1.12918,3.00804,3.93561,4.4312,4.73437,4.93815,5.08434,5.19428,5.27996,5.3486
1.0943,3.44236,4.56317,5.14852,5.50391,5.74211,5.9128,6.04109,6.14104,6.22109
1.06255,3.78923,5.00966,5.62887,6.00053,6.24813,6.42486,6.55733,6.66032,6.74268
1.03486,4.24167,5.68001,6.42147,6.87277,7.17647,7.39486,7.55948,7.68804,7.79121
1.28186,5.86031,7.83387,8.83342,9.43511,9.83672,10.1237,10.339,10.5064,10.6403
1.03475,5.32527,7.17833,8.12697,8.7028,9.08953,9.36721,9.57627,9.73937,9.87016
1.00825,5.67633,7.6204,8.60108,9.19107,9.58485,9.86629,10.0774,10.2417,10.3731
1.25498,7.71589,10.3687,11.7115,12.5225,13.0655,13.4546,13.7472,13.9751,14.1578
0.995789,6.69473,9.02593,10.21,10.9263,11.4063,11.7502,12.0089,12.2104,12.3719
0.985858,7.0771,9.49149,10.7048,11.4343,11.9211,12.2691,12.5302,12.7333,12.8959
0.992397,7.61936,10.2255,11.543,12.339,12.8721,13.2541,13.5414,13.7654,13.9448
0.983005,8.04409,10.802,12.1983,13.042,13.6069,14.0116,14.3158,14.5528,14.7426
0.973496,8.48742,11.416,12.9017,13.8001,14.402,14.8333,15.1575,15.4102,15.6126
0.976051,8.99922,12.0908,13.6531,14.5954,15.2256,15.6766,16.0154,16.2792,16.4904
0.971654,9.44592,12.6842,14.3199,15.3067,15.9668,16.4395,16.7946,17.0712,17.2927
0.967858,9.92072,13.3356,15.0649,16.1099,16.8097,17.3111,17.688,17.9817,18.217
1.0967,11.8132,15.8805,17.9387,19.1813,20.013,20.6086,21.0562,21.4047,21.6839
0.970108,11.027,14.8564,16.7993,17.974,18.7608,19.3246,19.7485,20.0788,20.3434
1.23281,14.5645,19.552,22.0644,23.5772,24.5879,25.3109,25.8536,26.2761,26.6143
1.10451,13.6656,18.3778,20.7642,22.2065,23.1727,23.8652,24.3859,24.7917,25.1168
0.968119,12.5255,16.8558,19.0479,20.3716,21.2576,21.892,22.3688,22.7401,23.0375
0.963328,12.8657,17.2537,19.4629,20.7932,21.682,22.3179,22.7953,23.167,23.4645
1.12642,15.3335,20.4508,23.0148,24.5561,25.585,26.3208,26.873,27.3029,27.647
1.13575,16.1836,21.7559,24.5994,26.327,27.4883,28.3226,28.9511,29.4416,29.835
1.07943,15.7427,21.0561,23.7278,25.3336,26.4047,27.1697,27.7434,28.1895,28.5463
1.04257,15.9683,21.5283,24.3677,26.0918,27.2502,28.0821,28.7087,29.1976,29.5897
1.03312,16.3909,22.0625,24.9304,26.659,27.8141,28.6402,29.2602,29.7428,30.1289
0.957174,15.522,20.784,23.4226,25.0075,26.065,26.8207,27.3877,27.8289,28.182
1.00356,16.7801,22.5212,25.4298,27.1896,28.3697,29.2162,29.8531,30.3497,30.7478
0.950099,16.438,22.1018,24.9736,26.7093,27.8716,28.7043,29.33,29.8174,30.2078
1.05769,18.9987,25.6075,28.964,30.9939,32.3537,33.3281,34.0606,34.6313,35.0886
1.01772,18.9266,25.5077,28.8372,30.8457,32.1889,33.1504,33.8725,34.4347,34.8849
1.01639,19.2406,25.7795,29.056,31.0234,32.3357,33.2733,33.9768,34.524,34.9619
0.942755,18.4099,24.7455,27.9563,29.8993,31.2023,32.137,32.8403,33.3887,33.8282
1.04524,20.8805,28.0275,31.6368,33.8139,35.2699,36.312,37.0947,37.7041,38.192
1.0029,20.5679,27.6322,31.2077,33.3676,34.8136,35.8495,36.6282,37.2348,37.7208
0.945825,19.6867,26.3487,29.6979,31.7128,33.0583,34.0204,34.7425,35.3044,35.7542
0.983276,20.7633,27.7533,31.2739,33.3961,34.8155,35.8317,36.5952,37.1898,37.6661
0.934149,20.1182,26.9403,30.3956,32.4848,33.8845,34.8877,35.6421,36.23,36.701
1.01664,22.724,30.6344,34.6738,37.1243,38.7691,39.9493,40.8374,41.5298,42.0848
1.03669,23.6198,31.7165,35.7946,38.2468,39.8828,41.0517,41.9285,42.6105,43.156
1.00014,23.4869,31.6288,35.7573,38.2536,39.9263,41.1255,42.0274,42.7303,43.2937
0.9848,23.7801,32.0375,36.2173,38.7407,40.4291,41.6381,42.5464,43.2538,43.8203
1.01848,24.7621,33.1235,37.3067,39.8165,41.4897,42.6848,43.581,44.2781,44.8358
1.03646,26.0655,35.126,39.7453,42.5505,44.4359,45.7906,46.8111,47.6076,48.2466
1.02182,26.233,35.2741,39.8386,42.5885,44.4254,45.739,46.7247,47.4917,48.1055
1.02315,26.7329,35.901,40.5276,43.3176,45.1837,46.5198,47.5237,48.3055,48.9318
0.992289,26.6096,35.8183,40.4866,43.309,45.1999,46.5551,47.574,48.368,49.0042
1.01763,27.7363,37.2593,42.0654,44.9627,46.8998,48.2861,49.3273,50.1378,50.7868
0.952055,12.483,14.1146,14.7572,15.1009,15.3149,15.461,15.5671,15.6477,15.7109
0.967942,17.8109,24.9163,29.7429,33.3202,36.0948,38.3148,40.1334,41.6512,42.9376
0.950785,21.6922,31.975,38.1143,42.0253,44.6736,46.5609,47.9626,49.039,49.8886
0.996739,26.1963,38.1487,44.3895,48.0688,50.4666,52.1471,53.3892,54.3446,55.1025
0.958974,27.3782,38.7278,44.2802,47.5249,49.6547,51.1627,52.2879,53.1603,53.8569
0.992861,29.697,41.0102,46.4844,49.722,51.8694,53.4006,54.5485,55.4414,56.1559
0.944883,29.452,40.2753,45.6083,48.809,50.9492,52.4824,53.6352,54.5337,55.2536
0.957405,30.7003,41.6618,47.1066,50.3814,52.5704,54.137,55.3138,56.23,56.9637
0.930557,30.6426,41.451,46.8646,50.129,52.3133,53.8776,55.0531,55.9688,56.7022
0.986232,32.7991,44.0664,49.6912,53.0711,55.3269,56.9394,58.1495,59.0911,59.8446
0.938294,31.8748,42.9156,48.4993,51.8786,54.1448,55.7705,56.9936,57.9474,58.7119
0.942066,32.6222,43.919,49.6308,53.0801,55.3885,57.0415,58.2834,59.2506,60.0252
0.964995,33.9626,45.6807,51.5976,55.1668,57.5541,59.2632,60.5471,61.5469,62.3475
0.961611,34.3425,46.1509,52.1108,55.7055,58.11,59.8314,61.1247,62.1319,62.9385
0.926524,33.1775,44.4065,50.0503,53.4475,55.7172,57.3409,58.56,59.5091,60.2688
0.952626,34.016,45.3677,51.0673,54.4982,56.7907,58.431,59.6629,60.6219,61.3898
0.947045,34.6631,46.6171,52.7243,56.4358,58.9309,60.7235,62.0738,63.1275,63.9727
0.945373,35.6695,48.2131,54.62,58.5028,61.106,62.9721,64.375,65.468,66.3436
0.949911,36.1945,48.6751,54.9588,58.7364,61.2567,63.0575,64.4085,65.4593,66.3001
0.94681,36.7002,49.385,55.7981,59.6701,62.2626,64.1202,65.5167,66.605,67.4769
0.957538,37.1631,49.7461,56.059,59.8542,62.3875,64.1985,65.5576,66.6151,67.4615
0.951834,36.9402,49.333,55.5636,59.3174,61.8274,63.6243,64.9742,66.0256,66.8676
0.965673,38.4383,51.7524,58.5556,62.69,65.4692,67.4657,68.9694,70.1428,71.0839
0.988516,39.3686,52.7025,59.4059,63.434,66.1202,68.0386,69.4771,70.5956,71.4902
0.932676,37.3631,50.0157,56.4037,60.259,62.8394,64.6881,66.0778,67.1606,68.0282
0.937417,38.6756,52.2047,59.1289,63.3374,66.1662,68.1982,69.7285,70.9224,71.88
0.943188,39.5532,53.2962,60.2499,64.4413,67.2416,69.2441,70.7471,71.9165,72.8524
0.948466,40.3571,54.3146,61.3613,65.6095,68.4501,70.4835,72.011,73.2006,74.1532
0.952564,40.6052,54.3993,61.3268,65.4942,68.2775,70.2682,71.7627,72.9259,73.8572
0.952758,41.1747,55.2837,62.4259,66.7442,69.638,71.7125,73.2727,74.4888,75.4633
0.932462,40.9887,55.1576,62.349,66.6989,69.6133,71.7019,73.2721,74.4956,75.4757
0.957735,42.2804,56.6773,63.9206,68.2783,71.1877,73.2676,74.8285,76.043,77.0149
0.955417,43.0471,57.966,65.5509,70.1459,73.2286,75.4405,77.105,78.403,79.4436
0.95438,43.67,58.7912,66.4444,71.0628,74.1519,76.363,78.0236,79.3166,80.3518
0.911086,15.0652,16.5169,17.0636,17.3503,17.5269,17.6466,17.7331,17.7985,17.8497
0.913397,22.6994,32.1226,39.0168,44.4025,48.7507,52.3422,55.3615,57.9365,60.1592
0.910922,30.0344,46.1906,56.6015,63.481,68.2213,71.6252,74.1596,76.1053,77.6382
0.912319,36.2969,55.1079,65.2009,71.1218,74.9387,77.5863,79.5263,81.0082,82.177
0.905262,40.618,59.4183,68.5877,73.8792,77.3236,79.7502,81.5554,82.9526,84.0669
0.9097,43.7742,61.8672,70.4836,75.5305,78.8634,81.235,83.011,84.3915,85.4957
0.928523,46.1777,63.6108,71.9736,76.9385,80.2409,82.5995,84.3691,85.7463,86.8486
0.937103,47.4204,64.4,72.6988,77.6742,80.9977,83.3765,85.1636,86.5555,87.6703
0.953514,49.1809,66.5465,75.2135,80.4503,83.961,86.4789,88.3731,89.8498,91.0333
0.902761,46.8576,63.0156,71.0856,75.943,79.188,81.5089,83.2512,84.6072,85.6925
0.904162,47.2378,63.415,71.5502,76.4599,79.7462,82.1002,83.8695,85.2479,86.3521
0.920951,48.5291,65.162,73.5658,78.644,82.0448,84.4816,86.3133,87.7405,88.8837
0.912324,49.1859,66.3853,75.1511,80.4676,84.0358,86.5961,88.5227,90.0249,91.2291
