1.845,1.89159,1.90764,1.91578,1.92069,1.92398,1.92633,1.9281,1.92948,1.93059
1.42435,1.95188,2.21719,2.37681,2.48338,2.55959,2.61679,2.66131,2.69693,2.72609
1.21872,2.14141,2.61443,2.88776,3.06303,3.18419,3.27265,3.33996,3.39283,3.43543
1.1428,2.48641,3.16376,3.53792,3.77062,3.92832,4.04195,4.12762,4.19448,4.24809
1.09574,2.903,3.80228,4.28653,4.58425,4.78502,4.92937,5.03811,5.12294,5.19097
1.07548,3.32834,4.38971,4.94017,5.27275,5.49488,5.65364,5.77271,5.86533,5.93941
1.07224,3.83948,5.10964,5.76435,6.16109,6.42708,6.61783,6.76131,6.87317,6.96282
1.0188,4.11947,5.48818,6.1847,6.60477,6.8856,7.08654,7.23743,7.3549,7.44893
1.03242,4.7097,6.31447,7.13505,7.63245,7.96619,8.20564,8.38583,8.52633,8.63897
0.992246,5.0127,6.71689,7.58007,8.10043,8.44822,8.69702,8.88381,9.02919,9.14556
0.986243,5.55254,7.49119,8.48217,9.08346,9.48719,9.777,9.99516,10.1653,10.3018
1.06899,6.61711,8.93392,10.1108,10.8217,11.2974,11.638,11.8939,12.0932,12.2527
0.981677,6.54487,8.79014,9.91844,10.5966,11.0491,11.3725,11.6152,11.8041,11.9552
1.00968,7.2035,9.65431,10.8881,11.6318,12.1291,12.4853,12.7529,12.9614,13.1284
0.964375,7.34795,9.84894,11.1121,11.8747,12.3852,12.7508,13.0257,13.2398,13.4113
1.02704,8.30932,11.1327,12.5589,13.4196,13.9955,14.4079,14.7178,14.9591,15.1524
0.99591,8.69609,11.7388,13.2941,14.2386,14.873,15.3285,15.6715,15.939,16.1535
0.993236,9.23287,12.4544,14.0872,15.0725,15.7314,16.2029,16.557,16.8326,17.0532
0.987293,9.60749,12.889,14.5366,15.5268,16.1877,16.6601,17.0146,17.2904,17.5112
1.00479,10.2845,13.8073,15.5877,16.6632,17.3835,17.8999,18.2881,18.5907,18.8332
0.981346,10.4944,14.0673,15.869,16.9553,17.6817,18.2016,18.5921,18.8961,19.1395
1.01768,11.3395,15.1907,17.135,18.3083,19.0933,19.6555,20.0779,20.4069,20.6705
0.979244,11.538,15.5543,17.6046,18.8491,19.6849,20.285,20.7368,21.0892,21.3717
0.980478,11.951,16.0258,18.0759,19.3085,20.1308,20.7183,21.159,21.5017,21.7759
1.00604,12.7298,17.0743,19.2707,20.5973,21.4857,22.1224,22.6011,22.9742,23.2732
0.970957,12.8079,17.2081,19.4382,20.7862,21.689,22.3359,22.8222,23.201,23.5045
0.940547,13.1207,17.742,20.1023,21.5341,22.4951,23.1846,23.7035,24.1081,24.4324
0.98616,13.7723,18.318,20.5687,21.9102,22.8005,23.4342,23.9084,24.2764,24.5704
0.959028,14.2069,19.1835,21.7438,23.3085,24.3649,25.1267,25.702,26.1521,26.5137
0.988673,14.8319,19.8056,22.2903,23.7773,24.7661,25.4706,25.9979,26.4073,26.7344
0.9465,14.9882,20.2484,22.9469,24.5911,25.6986,26.4957,27.0969,27.5666,27.9437
0.949544,15.4626,20.7862,23.4696,25.0834,26.1601,26.9292,27.506,27.9544,28.3131
0.953959,15.9777,21.4514,24.2129,25.8781,26.992,27.7896,28.389,28.856,29.23
0.945041,15.9959,21.3294,23.9962,25.5968,26.6643,27.4269,27.999,28.4441,28.8002
0.948491,16.2342,21.6141,24.321,25.9535,27.046,27.8287,28.417,28.8754,29.2426
0.942646,17.1099,23.1583,26.2879,28.2027,29.4953,30.4265,31.1293,31.6785,32.1196
0.926668,17.132,22.9911,25.9335,27.6968,28.8699,29.7061,30.332,30.8181,31.2064
0.933798,17.8118,23.9573,27.0706,28.9527,30.214,31.1184,31.7989,32.3294,32.7547
0.916933,18.2619,24.7024,27.9908,29.986,31.3255,32.2869,33.0105,33.5747,34.027
0.921424,18.8944,25.483,28.8104,30.8147,32.1536,33.111,33.8296,34.3887,34.8362
0.92798,11.9215,14.0552,14.9416,15.427,15.7334,15.9443,16.0985,16.216,16.3086
0.906761,14.8954,20.5205,24.0054,26.4302,28.2261,29.6132,30.718,31.6193,32.3688
0.893112,17.1753,24.4867,28.6073,31.1797,32.9128,34.1494,35.0716,35.7836,36.3486
0.908716,19.5733,27.7694,32.0135,34.5434,36.2115,37.3917,38.2704,38.95,39.4914
0.950161,21.6824,30.0406,34.1495,36.5695,38.1649,39.2968,40.1422,40.798,41.3216
0.941358,22.3241,30.4751,34.4787,36.8653,38.4543,39.5898,40.4421,41.1057,41.6371
0.928429,22.743,30.8334,34.8526,37.269,38.8847,40.0419,40.9115,41.5891,42.1319
0.932858,23.5715,31.8809,36.05,38.5662,40.2511,41.4584,42.366,43.0732,43.6397
0.914601,23.2549,31.1559,35.0876,37.4457,39.0176,40.1402,40.9821,41.6368,42.1606
0.909079,24.0536,32.5192,36.8418,39.4726,41.2435,42.5173,43.4775,44.2275,44.8293
0.909599,24.3282,32.6556,36.8329,39.3415,41.0136,42.2073,43.1021,43.7976,44.3538
0.947312,25.3143,33.7712,38.002,40.5443,42.2414,43.4551,44.3664,45.0757,45.6436
0.91305,25.098,33.7409,38.1477,40.8246,42.624,43.9168,44.8906,45.6506,46.2602
0.943488,26.8996,36.3709,41.2096,44.1436,46.1113,47.5223,48.5832,49.4099,50.0723
0.940753,26.7176,35.6898,40.1564,42.8251,44.5986,45.8623,46.8084,47.5432,48.1303
0.918114,26.6939,35.8547,40.5047,43.3229,45.2155,46.5746,47.5982,48.3971,49.0379
0.909298,26.9506,36.2178,40.9102,43.7438,45.6401,46.9977,48.0176,48.8118,49.4477
0.912072,27.0556,36.1367,40.6868,43.4191,45.2412,46.5431,47.5196,48.2793,48.887
0.905664,27.5411,37.0191,41.844,44.7707,46.7362,48.1475,49.2102,50.0392,50.7042
0.911137,28.7636,38.932,44.1357,47.2945,49.4149,50.9364,52.081,52.9734,53.6886
0.952427,30.393,40.8559,46.1099,49.2631,51.3643,52.8643,53.9886,54.8627,55.5617
0.906642,29.6304,40.0494,45.3797,48.6233,50.8068,52.3777,53.5623,54.4876,55.2304
0.942757,31.0633,41.6981,47.0354,50.2394,52.3744,53.8985,55.0407,55.9285,56.6383
0.914326,31.0346,41.8997,47.4325,50.788,53.0413,54.6592,55.8775,56.828,57.5904
0.902541,31.2682,42.1621,47.672,50.9955,53.2177,54.8078,56.0018,56.9313,57.6753
0.908731,32.0193,43.1014,48.6917,52.0612,54.314,55.9264,57.1375,58.0806,58.8357
0.946882,33.9678,45.7188,51.6564,55.2404,57.6391,59.3572,60.6484,61.6543,62.46
0.908741,32.121,42.7523,48.0392,51.2031,53.309,54.8116,55.9376,56.8129,57.5128
0.908387,32.484,43.4535,49.0164,52.3882,54.6522,56.2781,57.5024,58.4577,59.224
0.90342,33.0817,44.5174,50.3534,53.8936,56.2692,57.9733,59.2553,60.2546,61.0554
0.900941,33.2719,44.653,50.4018,53.8654,56.1791,57.8338,59.0758,60.0423,60.8159
0.900708,33.7964,45.4211,51.3102,54.8682,57.2509,58.9581,60.2416,61.2417,62.043
0.912997,34.5938,46.4156,52.381,55.9767,58.3805,60.1007,61.3926,62.3985,63.2038
0.934026,36.4804,49.2915,55.8367,59.811,62.4808,64.3981,65.8417,66.968,67.8711
0.904022,35.3281,47.3378,53.3507,56.9553,59.3556,61.0684,62.3518,63.3492,64.1466
0.914659,36.5163,49.158,55.5789,59.469,62.0797,63.9537,65.3645,66.4651,67.3477
0.907912,36.9259,49.7395,56.2319,60.1534,62.7779,64.6572,66.0691,67.1687,68.0491
0.906669,37.6111,50.6983,57.3262,61.3287,64.0075,65.926,67.3677,68.4907,69.3901
0.927825,29.1555,36.0141,39.0659,40.7914,41.9008,42.6741,43.244,43.6814,44.0276
0.93623,33.8853,46.104,53.0581,57.6228,60.8655,63.293,65.1802,66.6903,67.9265
0.898298,35.3703,48.9531,56.2209,60.6777,63.6654,65.7981,67.3928,68.6282,69.6124
0.937788,38.4757,52.7298,59.9418,64.2413,67.0869,69.1079,70.6171,71.7871,72.7208
0.928491,39.7688,54.3846,61.7563,66.1882,69.1491,71.2687,72.8616,74.1028,75.0974
0.927344,40.6337,55.1211,62.3569,66.6958,69.589,71.6565,73.2076,74.4145,75.3802
0.933647,41.163,55.3669,62.4379,66.6792,69.5086,71.5311,73.049,74.2303,75.1757
0.898153,40.6694,54.9423,62.1768,66.5621,69.5066,71.6207,73.2125,74.4543,75.4502
0.923164,42.0517,56.4882,63.7312,68.0858,70.9917,73.0683,74.6261,75.8378,76.8072
0.927564,43.193,58.2522,65.899,70.5315,73.6397,75.87,77.5486,78.8576,79.9072
0.93354,43.791,58.8264,66.3926,70.9461,73.9867,76.1605,77.7918,79.0611,80.0768
0.905305,43.3614,58.4485,66.1058,70.7403,73.8476,76.0761,77.7525,79.0595,80.107
0.911249,44.0217,59.1626,66.7929,71.3884,74.4587,76.6547,78.3032,79.5862,80.6131
0.939928,45.1465,60.3202,67.9205,72.4872,75.535,77.7139,79.3492,80.6219,81.6404
0.933391,45.1803,60.5132,68.2734,72.967,76.1133,78.3695,80.0668,81.39,82.4505
0.912424,44.6333,59.9153,67.6733,72.3673,75.5128,77.7674,79.4625,80.7834,81.8416
0.902799,45.2156,61.0191,69.0842,73.9743,77.255,79.6084,81.3788,82.759,83.8652
0.938083,47.8269,64.5114,72.9606,78.0566,81.4634,83.9009,85.7311,87.1558,88.2962
0.954527,49.2847,66.36,74.9759,80.1679,83.6387,86.1227,87.9883,89.4411,90.6043
0.914732,46.657,62.2547,70.0329,74.6946,77.8008,80.0189,81.6823,82.9759,84.0108
0.943251,49.2285,66.2804,74.9885,80.2847,83.8485,86.4111,88.3428,89.8512,91.0617
0.934028,49.0413,65.8524,74.3426,79.4587,82.8765,85.3203,87.1543,88.5811,89.7228
