1.60716,1.64551,1.65871,1.66539,1.66942,1.67212,1.67405,1.67551,1.67664,1.67754
1.3,1.81845,2.08788,2.25289,2.36432,2.44462,2.50523,2.55261,2.59066,2.62189
1.25953,2.27962,2.81546,3.12719,3.32741,3.46581,3.56679,3.64355,3.70379,3.75229
1.26961,2.81735,3.59385,4.01816,4.2799,4.45626,4.58281,4.67792,4.75198,4.81125
1.08276,2.92619,3.84424,4.33805,4.64181,4.84687,4.99449,5.1058,5.19274,5.26251
0.838619,1.92934,2.26196,2.40637,2.48613,2.53659,2.57136,2.59677,2.61615,2.63142
0.846324,2.7356,3.74384,4.37253,4.80869,5.13081,5.37901,5.57634,5.73709,5.87061
0.840147,3.42351,4.82987,5.61897,6.10919,6.43851,6.67311,6.84789,6.98274,7.08972
0.837978,4.10544,5.78478,6.6575,7.17904,7.52372,7.76806,7.95026,8.09135,8.20385
0.919162,5.24958,7.34234,8.39721,9.02647,9.44451,9.74262,9.96608,10.1399,10.2789
0.905153,5.5939,7.59425,8.56259,9.13311,9.50975,9.77718,9.97695,10.1319,10.2556
0.924188,6.31384,8.58563,9.72511,10.4148,10.8783,11.2117,11.463,11.6594,11.8171
0.880295,6.51808,8.82314,9.97928,10.6762,11.1422,11.4757,11.7262,11.9212,12.0773
0.909102,7.25315,9.80524,11.0924,11.8699,12.3907,12.7638,13.0444,13.263,13.4381
0.941787,8.07104,10.9053,12.3366,13.2008,13.7791,14.1933,14.5046,14.747,14.9411
0.88828,7.97659,10.6946,12.054,12.8703,13.4148,13.8039,14.0958,14.3229,14.5046
0.905237,8.75194,11.8355,13.4112,14.3695,15.0142,15.4777,15.827,16.0998,16.3186
0.900397,9.02942,12.0891,13.6178,14.5336,15.1431,15.5778,15.9034,16.1564,16.3586
0.91866,9.68245,12.9928,14.6672,15.6799,16.3588,16.8457,17.2121,17.4978,17.7269
0.89606,9.93831,13.3673,15.1082,16.1616,16.8677,17.3738,17.7544,18.051,18.2886
0.921837,10.7639,14.5063,16.4075,17.5575,18.328,18.8801,19.2951,19.6185,19.8776
0.895871,10.9413,14.7351,16.6562,17.8161,18.5922,19.148,19.5656,19.8909,20.1514
0.96105,12.1809,16.3593,18.4657,19.7349,20.5833,21.1904,21.6463,22.0013,22.2855
0.903547,11.6424,15.5141,17.4489,18.6103,19.3849,19.9384,20.3537,20.6768,20.9353
0.919949,12.5626,16.9544,19.2117,20.5892,21.5179,22.1866,22.6911,23.0853,23.4019
0.919902,13.215,17.8719,20.244,21.6783,22.6382,23.3253,23.8413,24.243,24.5645
0.913806,13.2485,17.6805,19.8842,21.2007,22.0758,22.6995,23.1667,23.5296,23.8197
0.915025,13.9246,18.7618,21.2331,22.7368,23.7491,24.4775,25.0268,25.4559,25.8004
0.915214,14.3626,19.3008,21.7954,23.2989,24.3033,25.0216,25.5606,25.98,26.3155
0.895103,13.7112,18.0619,20.1972,21.4658,22.3065,22.9045,23.3517,23.6988,23.9761
0.880892,14.0492,18.7971,21.2351,22.7257,23.7329,24.4594,25.0084,25.4379,25.7832
0.939883,15.5713,20.9462,23.6981,25.368,26.488,27.2909,27.8945,28.3646,28.7412
0.91011,15.8474,21.4553,24.3287,26.0716,27.2409,28.0794,28.71,29.2016,29.5955
0.948402,16.8233,22.5697,25.4455,27.1673,28.313,29.1301,29.7421,30.2177,30.5979
0.918152,16.876,22.7257,25.6941,27.4915,28.6976,29.5633,30.215,30.7235,31.1312
0.918617,17.6512,23.8907,27.0756,29.0076,30.3044,31.2349,31.935,32.4808,32.9183
0.912584,17.2014,22.8286,25.606,27.2596,28.3564,29.1369,29.7207,30.1738,30.5357
0.891612,17.3065,23.1708,26.1559,27.9705,29.1917,30.0703,30.7328,31.2504,31.666
0.897524,18.5736,25.2764,28.7559,30.8857,32.3228,33.3575,34.1379,34.7474,35.2366
0.887675,18.9071,25.5582,28.9134,30.9278,32.2693,33.2261,33.9428,34.4996,34.9446
0.888403,12.7641,15.2933,16.3656,16.9583,17.3344,17.5944,17.785,17.9306,18.0455
0.883145,16.0187,22.157,25.8939,28.4624,30.348,31.7946,32.9409,33.8721,34.6439
0.933535,19.5732,27.8149,32.3849,35.2169,37.1182,38.4727,39.4821,40.2611,40.8795
0.886557,20.0176,27.9299,31.9277,34.2881,35.8373,36.9305,37.7431,38.3708,38.8704
0.90987,21.4828,29.481,33.4325,35.7789,37.3356,38.4454,39.2773,39.9244,40.4423
0.908852,22.2023,30.1804,34.1371,36.5085,38.0916,39.2245,40.0756,40.7385,41.2695
0.937636,23.7071,32.1314,36.3527,38.8984,40.6027,41.8241,42.7423,43.4579,44.0312
0.907306,23.0035,30.8059,34.6739,36.9896,38.5318,39.6326,40.4577,41.0992,41.6123
0.908449,23.9372,32.3326,36.6103,39.2124,40.9635,42.223,43.1724,43.9139,44.509
0.90733,23.2779,30.8318,34.5489,36.7595,38.2241,39.2655,40.0437,40.6473,41.1291
0.900191,24.1074,32.5063,36.8403,39.4965,41.2937,42.5913,43.5726,44.3408,44.9587
0.910308,25.1974,34.0572,38.5755,41.3086,43.1376,44.4464,45.4289,46.1934,46.8052
0.88137,25.1289,33.9615,38.4371,41.1367,42.9416,44.2332,45.2032,45.9585,46.5632
0.911478,26.9141,36.454,41.297,44.2246,46.1855,47.5908,48.6474,49.4707,50.1303
0.924699,27.1225,36.2324,40.7511,43.4489,45.2417,46.5195,47.4762,48.2194,48.8134
0.922651,27.7017,37.2368,42.0826,45.0245,47.0025,48.4243,49.4959,50.3326,51.0041
0.917984,28.109,37.8024,42.713,45.6794,47.6646,49.086,50.1537,50.985,51.6506
0.919337,28.6953,38.5974,43.6081,46.6329,48.6568,50.106,51.1949,52.043,52.7222
0.938579,28.5134,37.7761,42.3609,45.0972,46.9156,48.2116,49.1821,49.936,50.5386
0.888728,28.0769,37.8378,42.873,45.9555,48.039,49.5421,50.678,51.5666,52.281
0.920977,29.8956,40.3656,45.7031,48.9311,51.0911,52.6368,53.7973,54.7004,55.4231
0.912089,30.4195,41.1281,46.5718,49.8621,52.065,53.6432,54.8293,55.7533,56.4935
0.8842,23.257,29.0064,31.5922,33.0608,34.0075,34.6685,35.1561,35.5307,35.8275
0.870542,26.3315,35.9172,41.3217,44.8453,47.3366,49.195,50.636,51.7865,52.7267
0.898781,21.0332,26.1322,28.4426,29.7429,30.5707,31.1416,31.5583,31.8752,32.1242
0.874684,24.9887,34.8019,40.5613,44.3965,47.1469,49.2207,50.8422,52.1459,53.2173
0.921609,29.5673,41.7533,48.3098,52.3166,54.9914,56.8933,58.3104,59.4051,60.2749
0.863487,22.9449,29.2802,32.0881,33.6491,34.6396,35.3237,35.8245,36.2071,36.5089
0.872606,27.3329,38.0113,43.9741,47.8436,50.576,52.6144,54.1959,55.4596,56.493
0.879811,29.7635,41.3727,47.3999,51.0438,53.4684,55.1912,56.4754,57.4682,58.2578
0.881442,32.2639,44.9114,51.3694,55.2605,57.8579,59.7147,61.1083,62.193,63.0615
0.903241,34.5571,47.525,53.992,57.856,60.4257,62.2584,63.6318,64.6993,65.553
0.885392,34.6973,47.1695,53.3526,57.0532,59.5193,61.2813,62.6034,63.6322,64.4557
0.886522,32.4635,42.6027,47.4451,50.2922,52.1687,53.4992,54.4918,55.2609,55.8743
0.875556,33.2714,44.6968,50.5959,54.231,56.7021,58.4929,59.8511,60.9168,61.7754
0.90015,35.2382,47.5985,53.93,57.7728,60.3488,62.1938,63.5796,64.6581,65.5212
0.898254,36.4763,49.499,56.1505,60.1774,62.8749,64.8075,66.2599,67.3914,68.2977
0.892706,37.5783,51.0935,57.9699,62.1262,64.9087,66.9019,68.3997,69.5665,70.5011
0.910774,38.2144,51.2731,57.761,61.6358,64.2112,66.0468,67.4215,68.4894,69.343
0.874944,37.5456,50.5972,57.2103,61.2167,63.9066,65.8384,67.2933,68.4287,69.3394
0.90403,39.5081,53.2462,60.1973,64.3953,67.2049,69.2168,70.7283,71.9054,72.8478
0.874579,38.9621,52.544,59.4217,63.5765,66.3581,68.3506,69.8481,71.0147,71.9492
0.895292,40.9667,55.4157,62.761,67.2071,70.1872,72.3239,73.9307,75.183,76.1865
0.869466,39.9246,53.61,60.4642,64.5769,67.318,69.2753,70.7428,71.884,72.7967
0.876761,40.4335,54.1823,61.0968,65.2641,68.0517,70.048,71.5483,72.7171,73.6534
0.929211,42.5902,56.8341,63.9824,68.2849,71.1596,73.2162,74.7605,75.9627,76.9251
0.900316,41.1455,54.9127,61.8669,66.0688,68.8835,70.9009,72.4178,73.6,74.5473
0.875557,40.9148,55.0532,62.2868,66.6827,69.6368,71.7584,73.3558,74.6019,75.6011
0.87025,41.9476,56.7875,64.3835,68.9909,72.0812,74.2973,75.9637,77.2624,78.3029
0.899864,44.1979,59.7463,67.6274,72.3814,75.5597,77.834,79.5418,80.8713,81.9356
0.884559,43.1033,57.6749,64.9414,69.2924,72.1896,74.2574,75.8075,77.0127,77.9766
0.887399,43.66,58.5843,66.1418,70.7174,73.7879,75.9918,77.6509,78.9452,79.9831
0.906245,45.0895,60.5576,68.3905,73.123,76.2913,78.5605,80.2656,81.5936,82.6571
0.920671,45.5811,61.1389,69.0437,73.8332,77.0469,79.353,81.0885,82.442,83.5271
0.909523,46.6417,63.1961,71.7083,76.891,80.3771,82.882,84.7688,86.2409,87.4216
0.884605,46.2567,62.5525,70.8112,75.7894,79.1149,81.4926,83.2769,84.6652,85.776
0.894739,47.4974,64.0963,72.4761,77.5265,80.9032,83.3201,85.1357,86.5496,87.6819
0.90738,48.5088,65.2172,73.6191,78.6768,82.0563,84.4741,86.2898,87.7034,88.8351
0.927963,48.4506,64.3983,72.3208,77.0631,80.2213,82.4758,84.166,85.4804,86.5316
0.919041,48.6737,65.2622,73.7233,78.8697,82.3334,84.8245,86.7026,88.1693,89.3464
