1.78504,1.83584,1.85342,1.86234,1.86773,1.87134,1.87393,1.87588,1.87739,1.87861
1.3132,1.80853,2.05841,2.20897,2.3096,2.3816,2.43566,2.47775,2.51145,2.53903
1.18676,2.07506,2.52429,2.78173,2.94595,3.05906,3.14143,3.20397,3.25302,3.2925
1.1043,2.4057,3.06535,3.43182,3.66076,3.81644,3.92892,4.01391,4.08034,4.13369
1.1388,3.05424,4.02506,4.55252,4.87826,5.09847,5.25704,5.37661,5.46996,5.54485
1.12554,3.5472,4.70605,5.30854,5.67248,5.9154,6.08888,6.21894,6.32003,6.40087
1.00115,3.64916,4.872,5.50065,5.88082,6.13537,6.31776,6.45487,6.56171,6.64732
1.02444,4.29158,5.77547,6.5383,7.00107,7.31165,7.53452,7.70222,7.83299,7.93782
1.01498,4.63506,6.15742,6.91655,7.36995,7.67122,7.88589,8.0466,8.17141,8.27115
1.0888,5.63026,7.59503,8.60824,9.22737,9.64531,9.94657,10.1741,10.352,10.4949
1.00567,5.69588,7.65228,8.64067,9.23534,9.63205,9.91538,10.1278,10.2929,10.4249
0.986354,6.0124,8.03765,9.05464,9.66609,10.0743,10.3663,10.5855,10.7561,10.8927
0.967846,6.49774,8.77407,9.94107,10.6516,11.1298,11.4738,11.7331,11.9356,12.0981
1.0294,7.47669,10.0861,11.4093,12.2079,12.7417,13.1237,13.4104,13.6335,13.8121
1.02283,7.82185,10.4579,11.7751,12.5646,13.0905,13.4661,13.7477,13.9666,14.1418
0.987692,7.34118,9.53056,10.5899,11.216,11.6299,11.924,12.1438,12.3143,12.4504
0.91966,7.66979,10.3762,11.8158,12.7156,13.3324,13.782,14.1244,14.3938,14.6115
0.968004,8.77698,11.9354,13.5673,14.5574,15.22,15.6938,16.049,16.325,16.5456
0.964688,9.50541,12.967,14.7366,15.8059,16.5213,17.0333,17.418,17.7175,17.9573
0.97132,9.9927,13.4591,15.1857,16.2169,16.9024,17.391,17.7569,18.0412,18.2685
0.95232,10.5174,14.2664,16.176,17.3356,18.1154,18.6759,19.0984,19.4284,19.6931
0.93044,10.8132,14.61,16.5239,17.6765,18.4465,18.9971,19.4103,19.7319,19.9891
0.995451,12.127,16.3614,18.5,19.791,20.6552,21.2744,21.7398,22.1024,22.393
0.965054,12.1752,16.3491,18.4461,19.7082,20.5513,21.1544,21.6072,21.9597,22.2418
0.945773,12.3586,16.5816,18.7131,20.0003,20.8622,21.4798,21.9441,22.3059,22.5958
1.00243,13.6781,18.4034,20.8024,22.2545,23.228,23.926,24.4509,24.86,25.1879
0.984366,13.7795,18.4552,20.8081,22.2244,23.1702,23.8466,24.3543,24.7494,25.0656
0.924812,13.6636,18.4639,20.9217,22.4165,23.4219,24.1444,24.6888,25.1138,25.4547
0.961359,14.4673,19.3675,21.8201,23.2899,24.2685,24.9665,25.4895,25.8958,26.2206
0.984257,15.2492,20.4344,23.0544,24.6375,25.6982,26.4587,27.0308,27.4768,27.8344
0.977456,15.1455,20.1013,22.572,24.0529,25.0395,25.7439,26.272,26.6826,27.011
0.93734,15.1671,20.3785,23.0537,24.6857,25.7858,26.5779,27.1756,27.6426,28.0176
0.939072,16.0257,21.71,24.632,26.4083,27.6012,28.4571,29.101,29.6028,30.0049
0.934318,16.3593,22.0145,24.8599,26.568,27.7061,28.5185,29.1275,29.6009,29.9794
0.985012,17.7258,23.8235,26.8997,28.755,29.9965,30.8858,31.5542,32.0751,32.4924
0.963935,17.9399,24.1592,27.313,29.2206,30.4992,31.4158,32.1051,32.6424,33.0729
0.978413,18.8084,25.3424,28.6532,30.6534,31.9925,32.9517,33.6725,34.234,34.6837
0.967893,19.0293,25.5588,28.8478,30.8285,32.1519,33.0986,33.8094,34.3627,34.8056
0.992691,20.3892,27.5725,31.2393,33.4654,34.9608,36.0347,36.8433,37.4741,37.98
0.924122,18.8703,25.1434,28.2565,30.1147,31.3489,32.2281,32.886,33.3969,33.8051
0.954912,19.8989,26.6173,30.0181,32.0776,33.46,34.4527,35.2002,35.7835,36.2514
0.974679,21.3181,28.8628,32.7514,35.1245,36.7232,37.8733,38.7403,39.4173,39.9604
0.923317,20.7856,28.0583,31.7393,33.956,35.4355,36.4926,37.2854,37.902,38.3951
0.927541,21.5072,29.0171,32.8138,35.104,36.636,37.7329,38.5572,39.1993,39.7137
0.942803,22.4913,30.3351,34.301,36.6948,38.2969,39.4443,40.3066,40.9783,41.5164
0.934913,22.8376,30.7578,34.7568,37.1692,38.783,39.9385,40.8066,41.4828,42.0243
0.913374,22.7833,30.6613,34.6452,37.0515,38.6627,39.8172,40.685,41.3612,41.9028
0.950319,24.015,32.2081,36.3325,38.8169,40.4772,41.6651,42.5571,43.2515,43.8075
0.949543,24.4146,32.7594,36.9796,39.5294,41.2371,42.461,43.3811,44.0982,44.6727
0.934626,22.7113,29.7307,33.1535,35.1807,36.5214,37.4737,38.185,38.7366,39.1768
0.909132,18.5118,23.2153,25.4262,26.7178,27.5663,28.1667,28.6142,28.9607,29.2369
0.932706,21.7831,29.7116,34.1852,37.0887,39.1311,40.6478,41.8191,42.7512,43.5107
0.964683,24.0111,32.9216,37.5963,40.4317,42.3209,43.6647,44.6672,45.4429,46.0604
0.928305,24.7452,34.0722,38.865,41.7562,43.6867,45.0668,46.1026,46.9088,47.5543
0.908065,25.4097,34.8017,39.5378,42.3798,44.2743,45.6276,46.6429,47.4327,48.0648
0.921434,26.6844,36.3002,41.1142,44.0038,45.932,47.3107,48.3456,49.1512,49.7961
0.947755,27.9157,37.6672,42.5317,45.4523,47.4016,48.7955,49.8419,50.6564,51.3084
0.953206,27.8735,37.1906,41.8108,44.5783,46.4227,47.7402,48.7284,49.4971,50.1122
0.937977,28.5491,38.5804,43.7262,46.8678,48.9872,50.514,51.6664,52.5672,53.2906
0.94146,29.3638,39.6386,44.8466,47.9896,50.0904,51.593,52.7206,53.5978,54.2998
0.917543,28.2013,37.5619,42.2095,44.9865,46.8331,48.1497,49.136,49.9024,50.5152
0.952162,30.2999,40.8533,46.2637,49.5632,51.7877,53.3897,54.5987,55.5436,56.3026
0.922235,29.5147,39.5633,44.6203,47.6605,49.688,51.1359,52.2213,53.0652,53.7399
0.908645,29.7051,39.9606,45.1695,48.3229,50.4376,51.9545,53.0959,53.9859,54.6994
0.918214,28.2686,37.0474,41.3235,43.8528,45.5237,46.7098,47.5952,48.2814,48.8288
0.941158,31.2443,42.5117,48.4847,52.2056,54.7509,56.6033,58.0123,59.1205,60.0149
0.930107,32.2455,43.9628,49.9843,53.6279,56.0628,57.8022,59.1058,60.1185,60.9278
0.943547,33.6073,45.5868,51.6293,55.2582,57.6773,59.405,60.7007,61.7085,62.5148
0.911517,32.5629,43.7219,49.2798,52.6071,54.8232,56.4057,57.5924,58.5155,59.254
0.929657,33.412,44.7512,50.4428,53.8731,56.1685,57.8129,59.0491,60.0124,60.7842
0.917243,33.3322,44.6909,50.4339,53.9062,56.2329,57.9008,59.155,60.1324,60.9156
0.961194,32.272,42.0775,46.8466,49.6695,51.5357,52.8611,53.8511,54.6187,55.2312
0.947431,34.4292,46.8271,53.4416,57.5783,60.4149,62.4827,64.0576,65.2973,66.2986
0.924411,34.7564,47.2364,53.633,57.4944,60.0698,61.9068,63.2817,64.3489,65.2009
0.911474,35.0445,47.418,53.659,57.4079,59.9075,61.6933,63.0329,64.0751,64.9091
0.900703,35.0218,47.1351,53.2108,56.8616,59.2988,61.0419,62.3506,63.3694,64.1851
0.955883,37.5758,50.4882,56.9919,60.915,63.5407,65.4217,66.8356,67.9372,68.8198
0.907072,36.0782,48.4717,54.7366,58.5216,61.0565,62.873,64.2385,65.3025,66.1548
0.960066,39.4345,53.3468,60.4551,64.7712,67.6701,69.7513,71.3179,72.5398,73.5194
0.911954,38.4326,51.998,58.8789,63.0329,65.8113,67.7997,69.293,70.4555,71.3861
0.948605,40.1064,53.8636,60.7561,64.8936,67.6527,69.624,71.1027,72.2531,73.1735
0.933192,38.958,51.9004,58.3542,62.2266,64.8098,66.6562,68.042,69.1203,69.9835
0.916052,38.4237,51.3572,57.9089,61.8776,64.5412,66.453,67.8922,69.0148,69.9149
0.91072,38.7692,52.0755,58.8633,62.9817,65.7462,67.7299,69.2225,70.3862,71.3189
0.910055,39.1122,52.4989,59.2764,63.3648,66.0982,68.0539,69.5224,70.6654,71.5804
0.953774,41.8622,56.4116,63.8162,68.2995,71.3055,73.4611,75.0826,76.3466,77.3597
0.944792,41.2263,55.1098,62.0591,66.2267,69.0035,70.9859,72.472,73.6274,74.5515
0.922247,42.2016,57.3687,65.2226,70.0329,73.2838,75.6286,77.4,78.7857,79.8993
0.93443,43.6358,59.0786,66.8981,71.6065,74.7483,76.9924,78.6749,79.9828,81.0287
0.915018,43.421,58.5947,66.2354,70.8336,73.905,76.1021,77.7519,79.0363,80.0647
0.890928,42.2853,56.6828,63.8844,68.2088,71.0941,73.1565,74.7043,75.9087,76.8727
0.944962,44.3764,59.148,66.5363,70.9785,73.9456,76.0682,77.6622,78.9033,79.8969
0.903174,43.4298,58.4529,66.1395,70.8187,73.9682,76.233,77.9402,79.2731,80.3427
0.928324,43.5991,57.9392,65.0783,69.3461,72.1828,74.204,75.7169,76.8916,77.8301
0.920489,45.2332,61.2855,69.6083,74.7119,78.1642,80.6561,82.5398,84.0141,85.1993
0.921689,46.0805,62.2305,70.4112,75.3364,78.622,80.9682,82.7268,84.0936,85.1862
0.893326,40.6043,52.8793,58.7836,62.2544,64.5399,66.159,67.3663,68.3014,69.047
0.899945,43.7084,59.2132,67.4277,72.5522,76.0629,78.6211,80.5691,82.1025,83.341
0.891176,44.7273,60.7617,69.009,74.0047,77.3451,79.7322,81.5216,82.9119,84.0229
0.882772,46.2676,63.139,71.7686,76.9896,80.4855,82.9897,84.8717,86.3379,87.5124
