1.71625,1.76636,1.78372,1.79253,1.79785,1.80142,1.80398,1.8059,1.8074,1.8086
1.29134,1.78081,2.02813,2.17727,2.27699,2.34837,2.40199,2.44373,2.47716,2.50452
1.15277,2.05326,2.52209,2.79509,2.97093,3.09284,3.18202,3.24998,3.30342,3.34652
1.09212,2.41288,3.08647,3.45973,3.69208,3.84958,3.96308,4.04864,4.1154,4.16893
1.05485,2.81535,3.68795,4.15561,4.44226,4.63518,4.77372,4.87797,4.95926,5.02441
1.01601,3.18034,4.20891,4.74551,5.07115,5.28934,5.44566,5.56314,5.65465,5.72793
1.15607,4.19192,5.59891,6.32743,6.76992,7.06698,7.28018,7.44063,7.56575,7.66606
0.977361,4.05258,5.44518,6.16149,6.59589,6.88727,7.09624,7.25343,7.37594,7.47412
1.02687,4.73185,6.33696,7.15057,7.64087,7.96852,8.20293,8.37893,8.51593,8.6256
0.959165,4.91289,6.60213,7.46317,7.98491,8.33499,8.58619,8.77525,8.92269,9.0409
0.950128,5.36548,7.22548,8.1733,8.74736,9.13226,9.40825,9.61582,9.77759,9.90722
0.949218,5.89781,7.96963,9.02762,9.66913,10.0996,10.4084,10.6407,10.8218,10.967
1.00058,6.68309,8.98512,10.147,10.8469,11.3145,11.649,11.9002,12.0957,12.2521
1.00149,7.16304,9.61846,10.8605,11.6109,12.1135,12.4737,12.7446,12.9557,13.1249
0.981612,7.47911,10.038,11.3348,12.119,12.6445,13.0212,13.3044,13.5252,13.7021
0.971968,7.91958,10.6586,12.0534,12.8988,13.466,13.8729,14.1791,14.4178,14.6091
0.913219,8.05774,10.9273,12.4015,13.2986,13.9019,14.3353,14.6618,14.9165,15.1208
0.954102,8.90282,12.0144,13.5877,14.5354,15.1684,15.621,15.9606,16.2249,16.4364
0.939578,9.30621,12.5694,14.2261,15.2285,15.9005,16.3825,16.745,17.0277,17.2543
0.91029,9.56139,12.9276,14.6388,15.6748,16.3692,16.8672,17.2417,17.5336,17.7675
0.954367,10.4001,13.9654,15.7573,16.8352,17.5549,18.0696,18.4558,18.7563,18.9969
0.92539,10.6053,14.2901,16.165,17.3023,18.0661,18.6145,19.0275,19.3497,19.6081
0.954239,11.3613,15.271,17.2496,18.4445,19.2441,19.8166,20.2468,20.5818,20.8501
0.920731,11.5147,15.5337,17.5824,18.8249,19.6589,20.2575,20.708,21.0593,21.341
0.911532,11.6296,15.5591,17.5326,18.719,19.5107,20.0766,20.5011,20.8314,21.0957
0.961819,12.835,17.2802,19.5511,20.9315,21.8599,22.5272,23.0301,23.4226,23.7376
0.942377,13.0288,17.524,19.8049,21.1832,22.1058,22.7664,23.2627,23.6491,23.9585
0.93175,13.5217,18.2768,20.7063,22.1808,23.1708,23.8814,24.4163,24.8335,25.168
0.957122,14.1459,18.9575,21.373,22.8238,23.7913,24.4825,25.0009,25.404,25.7265
0.954468,14.6579,19.7309,22.3138,23.881,24.9337,25.6898,26.2593,26.7036,27.0601
0.946895,15.114,20.3919,23.0819,24.7121,25.8055,26.5897,27.1795,27.6392,28.0075
0.941937,15.4099,20.7084,23.3839,24.9965,26.0744,26.8456,27.4247,27.8755,28.2363
0.928932,15.7748,21.274,24.0753,25.7739,26.9143,27.7328,28.349,28.8296,29.215
0.926128,16.0868,21.6177,24.4129,26.0989,27.2264,28.0334,28.6395,29.1114,29.4892
0.936029,16.4256,21.9555,24.7369,26.4122,27.532,28.3334,28.9353,29.404,29.7794
0.907504,16.433,22.0923,24.9819,26.7378,27.9183,28.7666,29.4056,29.9044,30.3045
0.931715,17.2849,23.2312,26.2523,28.0792,29.3028,30.1792,30.8379,31.3509,31.7618
0.93201,17.997,24.3253,27.5633,29.5296,30.8502,31.7984,32.5122,33.0689,33.5153
0.93419,18.3958,24.7384,27.9392,29.8665,31.1536,32.0739,32.7646,33.3021,33.7322
0.934656,18.9698,25.5674,28.9204,30.9509,32.313,33.2902,34.0255,34.599,35.0587
0.917707,19.2013,25.9104,29.3216,31.3865,32.7706,33.7629,34.5091,35.0907,35.5566
0.909077,19.6387,26.5289,30.0312,32.1503,33.5703,34.5881,35.3534,35.9497,36.4275
0.918933,20.1768,27.1217,30.621,32.7284,34.1366,35.1439,35.9003,36.489,36.9603
0.91127,20.3036,27.2382,30.74,32.8543,34.27,35.2844,36.0471,36.6414,37.1176
0.919265,20.9965,28.249,31.9384,34.1746,35.6751,36.7518,37.5621,38.1938,38.7003
0.913333,21.2149,28.5044,32.1986,34.4307,35.925,36.9954,37.7997,38.4263,38.9281
0.912612,21.9069,29.5948,33.5268,35.9152,37.52,38.6725,39.5403,40.2174,40.7603
0.912871,22.4538,30.2989,34.2808,36.6862,38.2959,39.4485,40.3144,40.9887,41.5287
0.909133,22.8758,30.8454,34.8853,37.3264,38.9612,40.1325,41.0131,41.6992,42.2489
0.901839,23.1387,31.1602,35.2216,37.6751,39.3179,40.4949,41.3797,42.069,42.6212
0.885369,23.2555,31.3494,35.4593,37.9466,39.6138,40.8093,41.7084,42.4093,42.9709
0.929783,25.026,33.7784,38.2305,40.9266,42.7345,44.031,45.0062,45.7664,46.3755
0.920795,25.3174,34.1409,38.6143,41.3172,43.1269,44.4232,45.3974,46.1563,46.7641
0.891894,24.9235,33.5451,37.9061,40.539,42.3014,43.5637,44.5123,45.2513,45.8433
0.914001,26.4933,35.8939,40.7051,43.6295,45.5953,47.0075,48.0712,48.9012,49.567
0.894407,26.2354,35.3314,39.9179,42.6789,44.5226,45.8407,46.8298,47.5993,48.2151
0.907777,26.9214,36.1713,40.842,43.6615,45.5492,46.9017,47.9185,48.7109,49.3457
0.917755,27.8027,37.4598,42.3735,45.3522,47.3512,48.7859,49.8655,50.7075,51.3824
0.908556,27.8121,37.3699,42.203,45.1198,47.071,48.4678,49.5171,50.3341,50.9883
0.904419,28.2672,38.0879,43.0869,46.1167,48.1497,49.6085,50.7063,51.5623,52.2486
0.899805,28.2142,37.8218,42.6632,45.579,47.5271,48.9205,49.9666,50.7808,51.4325
0.901793,28.6994,38.5633,43.5762,46.6133,48.6511,50.1134,51.2139,52.0722,52.7603
0.909559,29.5723,39.8611,45.1068,48.2871,50.4208,51.9514,53.1029,54.0005,54.72
0.90067,29.4358,39.4988,44.5763,47.6353,49.6793,51.1414,52.2391,53.0935,53.7774
0.909894,30.1479,40.5187,45.7855,48.9743,51.113,52.6473,53.8017,54.7019,55.4234
0.912283,30.7619,41.417,46.8369,50.1186,52.3189,53.8964,55.0829,56.0076,56.7485
0.923546,31.7511,42.814,48.4435,51.8518,54.1366,55.7747,57.0066,57.9667,58.736
0.907517,31.4039,42.19,47.6393,50.9256,53.1234,54.6965,55.8781,56.7982,57.535
0.916097,32.3387,43.5814,49.3044,52.7732,55.101,56.7715,58.0288,59.0092,59.7952
0.906884,31.6941,42.3306,47.6615,50.8632,52.9985,54.5241,55.6684,56.5584,57.2705
0.902104,32.3731,43.6519,49.4378,52.964,55.3395,57.0491,58.3386,59.3459,60.1546
0.885205,32.3983,43.7155,49.4771,52.9625,55.2965,56.968,58.2239,59.2018,59.9848
0.895848,33.5564,45.3511,51.3533,54.9855,57.4196,59.1644,60.4764,61.4989,62.3181
0.897688,33.7732,45.383,51.229,54.7476,57.0979,58.7788,60.0407,61.0229,61.8091
0.90984,35.0086,47.2488,53.4866,57.2718,59.8144,61.6404,63.0154,64.0882,64.9486
0.901252,35.7592,48.4802,54.9848,58.9328,61.5832,63.4851,64.9162,66.032,66.9263
0.893032,35.2706,47.3062,53.329,56.9397,59.3446,61.0611,62.3476,63.3477,64.1474
0.913298,36.7904,49.591,56.1116,60.0708,62.7323,64.6449,66.0862,67.2113,68.114
0.906622,36.638,49.1823,55.5142,59.3317,61.8838,63.7097,65.0808,66.1479,67.0022
0.90104,36.6932,49.2584,55.623,59.4711,62.0494,63.8976,65.2874,66.3707,67.2388
0.892697,37.4696,50.715,57.5147,61.6543,64.4396,66.4417,67.9503,69.1278,70.0724
0.902849,37.6136,50.3968,56.8085,60.6557,63.2189,65.0485,66.4197,67.4857,68.338
0.897622,37.8722,50.9064,57.5296,61.5439,64.2388,66.1736,67.6305,68.7672,69.6789
0.894703,38.4642,51.8705,58.7057,62.8498,65.6304,67.625,69.1255,70.2953,71.2328
0.901251,39.2972,52.9735,59.9163,64.1126,66.9222,68.9348,70.4472,71.6253,72.5689
0.899897,39.8339,53.7117,60.756,65.0157,67.8695,69.9148,71.4527,72.6511,73.6113
0.911576,40.661,54.6873,61.7758,66.0525,68.9136,70.962,72.5011,73.6997,74.6595
0.892111,40.0485,53.798,60.7525,64.9534,67.7664,69.782,71.2973,72.4779,73.4238
0.903346,41.0719,55.2908,62.5241,66.9073,69.8481,71.9581,73.5457,74.7836,75.7759
0.883032,40.8636,55.1349,62.4038,66.8074,69.7603,71.8778,73.4704,74.7116,75.7063
0.89575,42.2456,57.0735,64.6181,69.1845,72.2446,74.4381,76.0874,77.3727,78.4024
0.896903,42.9935,58.0587,65.7029,70.3231,73.417,75.6336,77.2997,78.5978,79.6376
0.902089,43.2888,58.1421,65.6178,70.1185,73.1255,75.2767,76.8919,78.1493,79.1558
0.91681,43.7383,58.5192,65.963,70.4524,73.4566,75.6084,77.2257,78.4858,79.4951
0.897441,43.1159,57.8482,65.3378,69.8779,72.9252,75.1123,76.7583,78.042,79.0712
0.897098,43.5948,58.647,66.3184,70.9686,74.0881,76.3256,78.0087,79.3208,80.3722
0.893071,43.6195,58.609,66.2107,70.8034,73.8777,76.0796,77.7342,79.023,80.0552
0.896918,44.3175,59.6417,67.4319,72.1472,75.3082,77.5748,79.2795,80.6083,81.6731
0.8906,45.1886,61.1749,69.3604,74.3332,77.674,80.0728,81.8788,83.2876,84.4171
0.881593,45.0035,60.608,68.4818,73.222,76.3871,78.65,80.348,81.6692,82.7265
