1.8214,1.85819,1.87078,1.87714,1.88098,1.88355,1.88539,1.88677,1.88784,1.88871
2.13698,2.92776,3.32806,3.56977,3.73153,3.84739,3.93445,4.00226,4.05657,4.10105
1.2593,2.226,2.72664,3.01723,3.20401,3.33329,3.42776,3.49968,3.55619,3.60174
1.14752,2.48167,3.14435,3.50664,3.73042,3.88138,3.98978,4.0713,4.1348,4.18563
1.15067,3.04497,3.98881,4.49879,4.81334,5.02601,5.17926,5.2949,5.38525,5.45779
1.11722,3.50416,4.65325,5.2557,5.62178,5.86709,6.04278,6.17476,6.27751,6.35977
1.06361,3.86428,5.16134,5.82864,6.23183,6.5015,6.69451,6.83946,6.95232,7.04269
1.03809,4.28531,5.73508,6.47327,6.91854,7.21628,7.42938,7.58946,7.71411,7.81392
1.02801,4.77913,6.41701,7.25043,7.75417,8.09155,8.33331,8.51506,8.65668,8.77014
1.36745,6.99331,9.35744,10.5485,11.265,11.7434,12.0854,12.3421,12.5419,12.7017
1.00767,5.61945,7.51222,8.46706,9.04286,9.42807,9.70393,9.91122,10.0727,10.202
1.0053,6.17051,8.30264,9.39033,10.0503,10.4934,10.8114,11.0509,11.2376,11.3873
1.16099,7.60108,10.1546,11.4352,12.2038,12.7161,13.0819,13.3561,13.5692,13.7397
0.98822,6.9338,9.27538,10.4591,11.1743,11.6533,11.9967,12.255,12.4563,12.6176
0.975198,7.4075,9.97383,11.2844,12.0799,12.6141,12.9976,13.2863,13.5114,13.6919
1.11729,9.12007,12.2954,13.9087,14.8835,15.5359,16.0031,16.354,16.6273,16.8461
0.970404,8.33533,11.1653,12.5836,13.4347,14.002,14.4072,14.711,14.9473,15.1363
0.973023,8.94846,12.0571,13.639,14.5982,15.2423,15.7048,16.0531,16.3248,16.5427
0.961141,9.34623,12.5769,14.2104,15.1956,15.8544,16.3258,16.6797,16.9553,17.1758
1.00411,10.0972,13.4819,15.1736,16.1883,16.8646,17.3476,17.7099,17.9917,18.2171
0.969389,10.3595,13.9485,15.7809,16.8948,17.644,18.1826,18.5884,18.9053,19.1595
1.01926,11.469,15.4478,17.466,18.6849,19.5003,20.084,20.5223,20.8635,21.1367
1.03446,12.198,16.4111,18.5388,19.8212,20.6784,21.2917,21.7523,22.111,22.3981
0.960126,11.8721,15.9864,18.0688,19.3266,20.1687,20.772,21.2255,21.5788,21.8619
0.953552,12.259,16.4777,18.6071,19.8913,20.7502,21.365,21.8268,22.1865,22.4745
0.851774,4.86763,5.39308,5.59407,5.70025,5.76591,5.81052,5.84282,5.86727,5.88644
1.00385,8.50957,11.9405,14.3676,16.2183,17.6847,18.878,19.8688,20.7051,21.4206
0.858996,9.73317,14.7989,18.0059,20.1125,21.563,22.6063,23.3852,23.985,24.459
0.857364,11.7518,17.6015,20.7088,22.5319,23.7098,24.5285,25.1294,25.5889,25.9517
0.863539,13.4004,19.3709,22.2809,23.9661,25.0658,25.8417,26.4194,26.8669,27.2239
0.857598,6.0337,6.77584,7.03569,7.16836,7.24926,7.30387,7.34325,7.37301,7.3963
0.893073,9.44095,13.4739,16.3038,18.4727,20.2019,21.6166,22.7968,23.7968,24.6554
0.794387,11.2656,17.3576,21.1895,23.7038,25.4327,26.6744,27.5998,28.3112,28.8725
0.79592,13.4544,20.1597,23.6484,25.6749,26.976,27.8765,28.5355,29.0384,29.4348
0.822142,15.7153,22.7673,26.1926,28.1812,29.4825,30.403,31.0897,31.6224,32.048
0.854275,17.4284,24.3548,27.6393,29.5633,30.8333,31.7362,32.4119,32.9366,33.3561
0.809364,17.5519,24.211,27.4587,29.4048,30.7064,31.6394,32.3413,32.8886,33.3275
0.809329,18.2301,24.8376,28.0888,30.0397,31.3424,32.274,32.9735,33.5179,33.9537
0.863609,20.0419,27.1247,30.6481,32.7697,34.1885,35.2044,35.9677,36.5622,37.0384
0.871417,20.911,28.2716,31.9713,34.206,35.7025,36.7749,37.5811,38.2093,38.7125
0.853525,21.062,28.4153,32.1146,34.3453,35.837,36.9046,37.7066,38.331,38.8309
0.874447,21.9067,29.4121,33.1752,35.439,36.9509,38.0322,38.8439,39.4757,39.9814
0.893307,22.9549,30.8779,34.8848,37.3072,38.9303,40.0939,40.9689,41.651,42.1975
0.868267,22.1361,29.4597,33.1034,35.2844,36.736,37.7717,38.5477,39.1508,39.633
0.841315,22.2364,29.9388,33.883,36.286,37.9046,39.0695,39.9481,40.6345,41.1855
0.889155,23.8903,32.083,36.2224,38.7162,40.3815,41.5719,42.465,43.1596,43.7153
0.870243,23.9104,32.1536,36.3287,38.8506,40.539,41.7487,42.658,43.3665,43.9341
0.851054,23.5576,31.5309,35.5355,37.9432,39.5503,40.6991,41.5612,42.2321,42.7689
0.856593,23.9561,32.0491,36.1306,38.5931,40.2411,41.4216,42.3088,43.0001,43.5538
0.85948,24.8107,33.4388,37.8457,40.5217,42.3192,43.61,44.5817,45.3397,45.9475
0.883162,25.9118,34.8237,39.3212,42.029,43.8369,45.1293,46.0989,46.8533,47.4568
0.910886,27.4587,37.0093,41.8547,44.7844,46.7472,48.1541,49.2121,50.0367,50.6975
0.886078,26.7246,35.7227,40.2181,42.9125,44.7071,45.9882,46.9484,47.695,48.292
0.884955,27.5116,37.0614,41.9292,44.8851,46.8719,48.2995,49.375,50.2144,50.8879
0.856445,27.201,36.6333,41.4092,44.2913,46.2186,47.5977,48.6332,49.4393,50.0845
0.88117,28.5192,38.381,43.3638,46.3691,48.3791,49.8179,50.8988,51.7406,52.4146
0.867389,28.3624,38.0342,42.8943,45.8179,47.7702,49.1662,50.2142,51.0297,51.6825
0.859344,28.6618,38.5324,43.533,46.5572,48.5842,50.0375,51.1306,51.9827,52.6655
0.863974,28.9329,38.7123,43.6219,46.5734,48.5431,49.9508,51.007,51.8287,52.4861
0.859657,29.194,39.1443,44.1811,47.2262,49.2667,50.7296,51.8299,52.6875,53.3749
0.884996,30.3339,40.6241,45.8151,48.9441,51.0358,52.5325,53.6564,54.5314,55.2318
0.888446,31.2545,42.1007,47.6277,50.9787,53.2275,54.8413,56.0558,57.0029,57.7621
0.888469,31.7162,42.6371,48.1514,51.4733,53.6924,55.2794,56.4705,57.3974,58.1392
0.89239,32.3668,43.516,49.1525,52.5544,54.8311,56.4617,57.6871,58.6418,59.4065
0.905977,33.378,44.8666,50.6717,54.1743,56.5176,58.1954,59.456,60.4378,61.224
0.874479,32.6507,43.8556,49.5123,52.924,55.206,56.8396,58.0669,59.0226,59.788
0.879685,33.0087,44.1918,49.8134,53.1966,55.4563,57.0726,58.2861,59.2306,59.9866
0.880293,33.6422,45.2041,51.0703,54.6207,57.0012,58.7085,59.9928,60.9941,61.7966
0.89761,35.0667,47.2433,53.4276,57.1677,59.6729,61.4679,62.8171,63.8681,64.71
0.893349,35.2657,47.3824,53.4928,57.1732,59.6322,61.3911,62.7116,63.7395,64.5622
0.910205,35.9316,48.0435,54.1168,57.7671,60.2036,61.9457,63.2531,64.2707,65.0851
0.889111,35.8138,48.1483,54.4207,58.2232,60.7758,62.6081,63.9874,65.0633,65.9259
0.945521,38.8066,52.2421,59.0559,63.1725,65.9275,67.9003,69.3823,70.5364,71.4605
0.906145,36.9917,49.4155,55.6289,59.355,61.8378,63.6106,64.9398,65.9733,66.8001
0.878948,36.3287,48.6969,54.9624,58.7537,61.2962,63.1203,64.4929,65.5632,66.4213
0.873545,36.449,48.8594,55.1329,58.9186,61.4509,63.2636,64.6251,65.6853,66.5341
0.875507,37.3558,50.3121,56.9063,60.9004,63.5789,65.4998,66.9448,68.0711,68.9739
0.896073,38.8284,52.2627,59.0596,63.159,65.8999,67.8612,69.3341,70.4807,71.3986
0.914672,40.3581,54.3552,61.4369,65.7112,68.5713,70.6195,72.1586,73.3574,74.3175
0.913574,40.6227,54.531,61.5275,65.7381,68.5503,70.5616,72.0715,73.2467,74.1873
0.888019,39.7415,53.2719,60.0881,64.1972,66.9456,68.9133,70.3917,71.5432,72.4654
0.885827,39.2155,52.2263,58.7318,62.6376,65.2428,67.1045,68.5011,69.5876,70.457
0.894583,40.6424,54.704,61.9047,66.2888,69.2401,71.3628,72.9631,74.2127,75.2157
0.909411,42.2014,56.9203,64.4085,68.9357,71.9658,74.1351,75.7644,77.033,78.0485
0.912932,41.7464,55.6573,62.5813,66.7204,69.4726,71.4348,72.9044,74.0463,74.9591
0.894878,41.8313,56.2548,63.611,68.0816,71.0887,73.2508,74.8805,76.1532,77.1745
0.91495,43.7853,59.0773,66.8597,71.5686,74.7226,76.9819,78.6796,80.0018,81.0606
0.921554,44.7693,60.3214,68.1826,72.9211,76.0881,78.354,80.0553,81.3798,82.4401
0.898895,44.3597,59.7571,67.5399,72.2359,75.378,77.628,79.3188,80.6358,81.6907
0.953727,47.646,64.0934,72.389,77.3895,80.7329,83.1258,84.9232,86.3228,87.4434
0.901777,45.3175,60.8084,68.606,73.3033,76.443,78.6898,80.3773,81.6911,82.7431
0.929024,46.8,62.6716,70.6625,75.4785,78.6988,81.004,82.7357,84.0842,85.1641
0.919518,46.1421,61.6255,69.4149,74.1079,77.2452,79.4906,81.1771,82.4903,83.5418
0.92567,47.1824,63.4381,71.7416,76.7875,80.1796,82.6168,84.4525,85.8851,87.0343
0.887475,46.1867,62.2815,70.4728,75.4273,78.7448,81.1207,82.9059,84.296,85.4092
0.898745,46.9187,62.9466,71.0004,75.8387,79.0656,81.371,83.1003,84.4454,85.5215
0.918643,48.4666,65.0815,73.4771,78.5462,81.9403,84.3724,86.201,87.6259,88.7677
0.913129,48.6797,65.3896,73.8391,78.9402,82.3542,84.7992,86.6365,88.0676,89.2137
0.886131,47.8456,64.3395,72.6925,77.7389,81.1175,83.5379,85.357,86.7742,87.9094
0.877815,47.8463,64.3074,72.6304,77.6533,81.0138,83.4201,85.2279,86.6359,87.7635
