1.90445,1.93689,1.94795,1.95352,1.95689,1.95913,1.96074,1.96195,1.96289,1.96365
1.41545,1.91144,2.15815,2.30574,2.40395,2.474,2.52649,2.56728,2.5999,2.62657
1.26874,2.20627,2.68666,2.96483,3.14358,3.26734,3.35783,3.42676,3.48095,3.52465
1.18071,2.56024,3.26025,3.64839,3.89023,4.05428,4.17255,4.26175,4.33137,4.3872
2.69315,7.09148,9.26791,10.4336,11.1473,11.6271,11.9714,12.2302,12.4319,12.5935
1.09352,3.39442,4.48765,5.05681,5.40152,5.63214,5.79718,5.9211,6.01756,6.09477
1.06793,3.81467,5.06546,5.7054,6.09126,6.34908,6.53349,6.67194,6.77971,6.86598
1.48345,6.04887,8.08357,9.12341,9.75237,10.1737,10.4757,10.7028,10.8797,11.0215
1.03953,4.72487,6.30478,7.10246,7.58221,7.9024,8.13125,8.30295,8.43654,8.54342
1.04067,5.27026,7.0626,7.97265,8.5228,8.89136,9.15554,9.35419,9.509,9.63306
1.18466,6.62089,8.8879,10.0363,10.7294,11.193,11.5248,11.7741,11.9682,12.1237
1.01692,6.22768,8.36882,9.4515,10.1044,10.541,10.8534,11.0881,11.2709,11.4172
1.00221,6.6142,8.86074,9.98992,10.669,11.1224,11.4465,11.6898,11.8792,12.0307
1.14529,8.09298,10.8257,12.2001,13.0277,13.5809,13.9767,14.274,14.5055,14.6908
1.2199,9.30549,12.5034,14.126,15.1079,15.766,16.2378,16.5927,16.8693,17.091
0.991404,8.1341,10.9497,12.3756,13.2362,13.8119,14.224,14.5336,14.7745,14.9675
1.2008,10.4029,13.9431,15.7204,16.7883,17.5008,18.01,18.392,18.6892,18.9271
1.10094,10.0106,13.3784,15.0677,16.0836,16.7621,17.2474,17.6117,17.8954,18.1225
0.970856,9.30537,12.4565,14.0474,15.0079,15.6508,16.1115,16.4577,16.7274,16.9435
1.19629,11.9749,16.0027,18.03,19.2509,20.0667,20.6502,21.0882,21.4292,21.7022
0.972327,10.2225,13.6872,15.4381,16.4948,17.202,17.7084,18.0889,18.3853,18.6228
0.964363,10.6152,14.2239,16.0476,17.1478,17.8837,18.4105,18.8063,19.1145,19.3613
0.963888,11.122,14.9236,16.8462,18.0065,18.7828,19.3386,19.7562,20.0814,20.3419
0.966504,11.7084,15.7408,17.7828,19.0159,19.8412,20.4323,20.8764,21.2223,21.4994
0.952619,12.0717,16.2309,18.3325,19.5997,20.4471,21.0535,21.509,21.8637,22.1476
0.959518,12.6238,16.9355,19.1047,20.4101,21.282,21.9055,22.3736,22.7379,23.0295
1.01702,13.9402,18.7241,21.1411,22.6001,23.5766,24.2762,24.8019,25.2115,25.5397
1.06075,15.123,20.3119,22.9298,24.5078,25.5627,26.3176,26.8845,27.3258,27.6792
1.07142,15.9034,21.3775,24.1417,25.8088,26.9238,27.722,28.3215,28.7885,29.1624
0.959493,14.7994,19.8952,22.4662,24.016,25.052,25.7935,26.3503,26.7839,27.1311
1.13378,17.9075,23.9697,27.0103,28.8379,30.0578,30.9298,31.5843,32.0935,32.5011
1.02882,16.6918,22.3326,25.172,26.8832,28.0277,28.847,29.4625,29.9419,30.3258
1.01865,17.1677,23.0652,26.0568,27.8666,29.0794,29.9488,30.6026,31.1121,31.5203
1.02176,17.5143,23.3947,26.3393,28.106,29.2833,30.124,30.7542,31.2442,31.6361
1.01308,17.9711,24.1141,27.2281,29.1123,30.3755,31.2816,31.9632,32.4947,32.9207
1.01572,18.4864,24.7749,27.9452,29.8547,31.1304,32.0427,32.7276,33.2605,33.687
1.0303,19.4047,26.0768,29.4547,31.4948,32.8606,33.8389,34.5742,35.1471,35.606
1.00727,19.5664,26.2971,29.6956,31.744,33.1133,34.0931,34.8289,35.4017,35.8602
1.00424,19.982,26.8027,30.2344,32.2999,33.6796,34.6664,35.4072,35.9839,36.4455
1.03525,20.9519,28.0173,31.5623,33.694,35.1173,36.1351,36.8991,37.4937,37.9696
0.99565,20.5642,27.507,31.0054,33.1149,34.5261,35.5366,36.2958,36.8872,37.3608
1.05729,22.5503,30.2976,34.2296,36.6084,38.2025,39.3452,40.2044,40.874,41.4105
1.04748,23.0332,30.9827,35.0051,37.4316,39.0542,40.2154,41.0874,41.7663,42.3098
1.00521,22.73,30.5679,34.5229,36.906,38.4986,39.6382,40.4939,41.16,41.6933
0.997558,22.9074,30.6745,34.5675,36.9059,38.4659,39.5808,40.4173,41.0681,41.5889
0.980536,22.8989,30.6401,34.5342,36.8805,38.4494,39.5725,40.4163,41.0735,41.5998
1.01564,24.3685,32.7171,36.9459,39.5024,41.2149,42.4422,43.365,44.084,44.66
0.96488,12.268,14.0514,14.7666,15.1519,15.3927,15.5575,15.6773,15.7683,15.8398
0.951317,16.5191,23.0007,27.2755,30.3789,32.7494,34.6236,36.1444,37.4039,38.4644
0.935654,19.8503,28.961,34.2945,37.6658,39.9428,41.565,42.7708,43.6981,44.431
0.934823,22.4812,32.335,37.4236,40.4202,42.3749,43.7464,44.7612,45.5424,46.1624
0.93086,23.2299,32.0624,36.2842,38.7287,40.3247,41.4506,42.2883,42.9363,43.4529
0.924014,24.6482,33.9609,38.5831,41.3644,43.2305,44.5719,45.5835,46.3741,47.009
0.942753,26.2462,35.8269,40.5743,43.4211,45.3203,46.6774,47.6956,48.4875,49.121
0.969955,27.8935,37.8277,42.7697,45.7386,47.7208,49.1385,50.2028,51.0312,51.6944
0.985368,29.16,39.4074,44.5321,47.6167,49.6782,51.1534,52.2614,53.1241,53.8148
0.967569,29.1588,39.2253,44.2589,47.2855,49.3065,50.7517,51.8366,52.6809,53.3568
0.975571,29.9824,40.3014,45.4912,48.6209,50.7147,52.214,53.3406,54.2182,54.9211
0.990512,30.9927,41.6262,46.9812,50.2096,52.3683,53.9135,55.0741,55.9778,56.7014
0.969293,30.7797,41.2842,46.5709,49.7556,51.8841,53.407,54.5507,55.441,56.1539
0.921932,13.622,15.3418,16.0155,16.3751,16.5987,16.7513,16.862,16.946,17.0119
0.890883,18.5897,26.0234,31.1114,34.9024,37.8544,40.2236,42.1692,43.7963,45.1777
0.925362,24.1898,35.8641,42.9039,47.4099,50.4681,52.6498,54.2709,55.5159,56.4984
0.935735,28.1339,41.031,47.7346,51.6649,54.2146,55.9952,57.3077,58.3151,59.1128
0.916016,30.038,42.5828,48.7076,52.2817,54.6264,56.2864,57.525,58.4856,59.2526
0.929319,32.1225,44.5025,50.4904,54.0308,56.379,58.0534,59.3087,60.2851,61.0664
0.933011,32.9929,44.8554,50.6134,54.0415,56.3222,57.9504,59.1715,60.1213,60.8812
0.944102,34.4461,46.6871,52.7744,56.4451,58.9043,60.6677,61.9941,63.0282,63.8571
0.923701,34.4859,46.5736,52.6196,56.2625,58.6983,60.4416,61.7509,62.7702,63.5862
0.9198,35.1093,47.344,53.4901,57.1954,59.6732,61.4468,62.7791,63.8165,64.6473
0.934306,35.7225,47.8075,53.8303,57.4419,59.8488,61.5677,62.8567,63.8591,64.661
0.94708,37.0148,49.7565,56.2061,60.1096,62.7277,64.6058,66.0191,67.1211,68.0046
0.949114,37.1677,49.6967,55.9721,59.7405,62.2533,64.048,65.3939,66.4404,67.2775
0.920131,36.6781,49.2286,55.5849,59.4292,62.0058,63.8534,65.2431,66.3264,67.1947
0.917246,36.892,49.4358,55.7563,59.563,62.1062,63.9251,65.2905,66.3531,67.2036
0.931014,37.8469,50.7142,57.2033,61.1153,63.7311,65.6036,67.0101,68.1054,68.9825
0.943924,39.0388,52.4246,59.1971,63.2864,66.0235,67.9839,69.4571,70.6046,71.5238
0.903522,37.9155,50.9172,57.4816,61.4389,64.0846,65.9779,67.3998,68.5067,69.393
0.917675,39.1325,52.5804,59.3712,63.4665,66.2053,68.1659,69.6386,70.7855,71.7039
0.918634,39.6645,53.2445,60.0878,64.2102,66.9652,68.9364,70.4167,71.569,72.4916
0.946929,40.5909,54.1171,60.8726,64.9244,67.6252,69.5544,71.0012,72.1266,73.0269
0.954206,41.8057,56.1563,63.4589,67.889,70.8646,73.0015,74.6106,75.8661,76.873
0.948142,41.7656,55.9217,63.0432,67.3254,70.1824,72.2237,73.7547,74.9453,75.8977
0.957582,43.1006,57.9774,65.5288,70.0973,73.1593,75.3548,77.0062,78.2934,79.325
0.956784,43.8274,58.9685,66.6211,71.2348,74.3189,76.5255,78.1824,79.4721,80.5045
0.945235,43.8475,58.9164,66.5098,71.083,74.1389,76.3252,77.9669,79.245,80.2681
0.929669,43.6736,58.6528,66.2028,70.7529,73.7952,75.9726,77.6082,78.8818,79.9017
0.945075,44.8355,60.1472,67.8587,72.5044,75.6097,77.8318,79.5006,80.7999,81.8402
0.91627,43.8509,58.7946,66.3272,70.8683,73.905,76.0787,77.7116,78.9833,80.0015
0.920375,44.6046,59.8624,67.5693,72.2197,75.331,77.5589,79.2328,80.5365,81.5805
0.915556,44.9384,60.3483,68.1352,72.8335,75.9766,78.2269,79.9175,81.2341,82.2884
0.933776,46.2208,61.9874,69.9306,74.7148,77.9117,80.1988,81.916,83.2528,84.3229
0.935188,46.1081,61.54,69.2667,73.907,77.0025,79.2147,80.8745,82.1658,83.1992
0.965266,48.0761,64.3746,72.6205,77.6054,80.9457,83.3404,85.1415,86.5453,87.6704
0.944045,47.4442,63.5817,71.7401,76.6632,79.9565,82.314,84.0849,85.4638,86.5678
0.934086,47.087,62.986,70.9885,75.8054,79.0226,81.3234,83.0505,84.3947,85.4707
0.937919,48.2454,64.8813,73.3361,78.4551,81.8876,84.3494,86.2012,87.645,88.8021
0.957468,50.164,67.5375,76.3323,81.6382,85.186,87.7249,89.6315,91.1157,92.3038
0.913218,48.4189,65.0899,73.4924,78.5521,81.9324,84.3504,86.1659,87.5791,88.7104
0.904511,48.3619,64.898,73.2183,78.2277,81.5749,83.9697,85.768,87.168,88.2889
