1.95728,1.9827,1.99132,1.99565,1.99826,2.00001,2.00126,2.00219,2.00292,2.00351
1.4662,1.98003,2.23704,2.39126,2.49407,2.56751,2.62259,2.66542,2.69969,2.72773
1.21407,2.00777,2.38479,2.59445,2.72592,2.81549,2.88022,2.92911,2.96729,2.99791
2.29257,4.90409,6.2665,7.04613,7.54387,7.88773,8.13912,8.3308,8.48173,8.60364
1.12013,2.97161,3.92192,4.43925,4.75771,4.97206,5.12577,5.24123,5.33107,5.40294
1.07966,3.40096,4.52502,5.10862,5.46009,5.69414,5.86101,5.98597,6.08303,6.16059
1.06128,3.88703,5.19723,5.8664,6.26912,6.53794,6.73013,6.87441,6.9867,7.07659
1.07346,4.4605,5.96058,6.71742,7.17187,7.47495,7.69151,7.85398,7.98037,8.0815
1.37179,6.38626,8.54028,9.62597,10.2794,10.7159,11.0282,11.2627,11.4453,11.5915
1.39033,7.1181,9.49482,10.6867,11.4027,11.8803,12.2217,12.4778,12.677,12.8365
1.0209,5.78779,7.7634,8.76471,9.37011,9.77574,10.0665,10.2852,10.4556,10.5921
1.01245,6.23942,8.35312,9.4158,10.0546,10.4809,10.7854,11.0139,11.1916,11.3337
1.004,6.68801,8.95121,10.0895,10.7745,11.2322,11.5596,11.8054,11.9967,12.1499
0.994809,7.04568,9.38771,10.5579,11.2597,11.7276,12.0617,12.3122,12.5071,12.663
0.995493,7.6029,10.189,11.4994,12.2921,12.8235,13.2046,13.4913,13.7148,13.8939
1.16557,9.51901,12.7645,14.4022,15.3888,16.0479,16.5193,16.8731,17.1484,17.3687
0.986238,8.5522,11.4557,12.9153,13.793,14.3789,14.7978,15.1121,15.3567,15.5525
0.981929,8.99697,12.0434,13.5751,14.4969,15.1127,15.5532,15.884,16.1414,16.3476
1.25713,12.1985,16.3573,18.4557,19.7212,20.5677,21.1736,21.6289,21.9834,22.2673
0.987632,10.0765,13.4956,15.2143,16.2481,16.9382,17.4315,17.8018,18.0899,18.3204
0.979204,10.4563,13.9887,15.7632,16.8306,17.5435,18.0533,18.436,18.7339,18.9724
0.988823,11.0362,14.7661,16.6436,17.7745,18.5305,19.0714,19.4777,19.7941,20.0474
1.06173,12.4383,16.6775,18.818,20.1091,20.9727,21.5909,22.0554,22.417,22.7066
0.975781,12.0054,16.1204,18.1969,19.4482,20.2845,20.8828,21.3321,21.6818,21.9617
1.12493,14.3767,19.2551,21.7031,23.174,24.1553,24.8567,25.3828,25.7922,26.1198
1.05718,14.076,18.8642,21.2743,22.726,23.6963,24.3907,24.9123,25.3184,25.6436
0.973526,13.4561,18.0241,20.3213,21.7038,22.6273,23.2878,23.7837,24.1696,24.4785
0.985867,14.1798,19.0141,21.45,22.9178,23.8989,24.601,25.1282,25.5388,25.8674
0.967995,14.3266,19.1531,21.5722,23.0253,23.9947,24.6874,25.2071,25.6113,25.9348
1.03989,15.9367,21.3392,24.0619,25.7034,26.8013,27.5874,28.178,28.638,29.0064
1.04535,16.4891,22.0514,24.8464,26.5277,27.6503,28.4529,29.0553,29.5241,29.8992
1.02962,16.5875,22.117,24.8857,26.5485,27.6577,28.4504,29.0452,29.5079,29.8781
1.07576,17.8079,23.7762,26.781,28.5919,29.8028,30.6697,31.3209,31.828,32.2341
1.04614,18.079,24.2931,27.4495,29.3595,30.6394,31.5569,32.2467,32.7843,33.215
0.966814,17.1639,22.9941,25.9219,27.68,28.8521,29.6891,30.3166,30.8046,31.1949
1.0807,19.827,26.5999,30.014,32.0715,33.4472,34.4319,35.1717,35.7479,36.2093
1.03077,19.4808,26.1214,29.4611,31.4706,32.8125,33.772,34.4922,35.0527,35.5013
0.955926,18.6239,24.983,28.1841,30.1117,31.3998,32.3213,33.0133,33.552,33.9833
0.995597,19.841,26.5533,29.9193,31.9418,33.2914,34.256,34.9798,35.5429,35.9935
1.023,20.6575,27.537,30.9747,33.0376,34.4134,35.3963,36.1337,36.7073,37.1663
1.01482,21.1051,28.263,31.8828,34.0704,35.536,36.5865,37.3765,37.9922,38.4855
1.0224,21.8139,29.2207,32.953,35.2002,36.7012,37.7744,38.5799,39.2066,39.7082
1.06252,22.9885,30.6804,34.5304,36.8408,38.3811,39.4814,40.3066,40.9484,41.4619
1.01875,22.7676,30.5486,34.4892,36.8715,38.4678,39.6121,40.4726,41.1433,41.6808
0.99586,22.7304,30.4466,34.3267,36.6598,38.2168,39.3296,40.1643,40.8137,41.3332
1.06221,25.0028,33.5865,37.9233,40.5398,42.2903,43.5437,44.4855,45.219,45.8065
1.00686,24.2872,32.5883,36.7618,39.2715,40.9467,42.1441,43.0425,43.7416,44.3009
1.02474,25.3967,34.1009,38.4836,41.1229,42.8867,44.1486,45.0962,45.834,46.4247
1.04102,25.8315,34.3898,38.6421,41.1847,42.8761,44.0824,44.9862,45.6885,46.25
1.04222,26.4932,35.4555,39.9862,42.7261,44.563,45.8805,46.8719,47.6448,48.2645
0.994261,25.8313,34.6076,39.0362,41.7055,43.4895,44.7658,45.7239,46.4696,47.0664
1.0482,27.4901,36.6919,41.3001,44.066,45.9101,47.2272,48.2151,48.9834,49.598
1.01237,27.1741,36.3935,41.0493,43.8593,45.7401,47.0874,48.1,48.889,49.521
1.02825,28.257,37.9035,42.7734,45.7092,47.6717,49.076,50.1306,50.9515,51.6086
1.02593,28.9253,38.85,43.8569,46.8735,48.8893,50.3315,51.4143,52.2573,52.932
1.0455,29.8556,39.9535,45.012,48.0488,50.0738,51.5205,52.6056,53.4497,54.125
1.03987,30.209,40.4299,45.5666,48.6587,50.725,52.2034,53.3137,54.1781,54.8703
0.994351,29.3271,39.241,44.228,47.231,49.2377,50.6734,51.7515,52.5907,53.2626
0.998865,29.8936,39.9797,45.0499,48.101,50.1388,51.5961,52.6901,53.5416,54.2231
0.998134,30.3402,40.5849,45.7384,48.841,50.9137,52.3964,53.5097,54.3762,55.0699
0.996749,30.4436,40.5865,45.6645,48.7137,50.7474,52.2006,53.2908,54.1389,54.8174
1.01794,31.4109,41.9086,47.1903,50.3725,52.5,54.0228,55.1667,56.0575,56.7709
0.998038,31.3878,42.0092,47.3766,50.6158,52.7829,54.3346,55.5003,56.4082,57.1352
1.01733,32.9151,44.2505,49.9969,53.4679,55.7909,57.4544,58.7043,59.6778,60.4573
0.980006,32.1365,43.0497,48.5208,51.8036,53.9913,55.5533,56.7243,57.6348,58.3631
1.0151,33.9217,45.4813,51.2998,54.8044,57.1471,58.8238,60.0833,61.0641,61.8496
0.986514,33.1027,44.1718,49.7016,53.0179,55.228,56.8063,57.9898,58.9101,59.6463
1.03858,35.4505,47.4562,53.5169,57.1763,59.6267,61.3825,62.7026,63.7312,64.5554
0.988311,34.0422,45.4875,51.2352,54.6908,56.9969,58.6451,59.8816,60.8436,61.6133
1.01349,35.7141,47.9939,54.2377,58.0209,60.5592,62.3805,63.7511,64.82,65.6769
0.980453,35.333,47.5043,53.65,57.3512,59.8229,61.59,62.916,63.9477,64.7731
0.99405,36.4248,48.8836,55.1412,58.9017,61.4108,63.204,64.5494,65.5963,66.434
0.994779,36.6298,48.9282,55.0693,58.7517,61.2061,62.9591,64.2739,65.2966,66.1147
1.02996,38.6201,51.7511,58.3772,62.3773,65.0556,66.9746,68.4172,69.5414,70.4421
1.00817,37.9036,50.573,56.9109,60.7137,63.2485,65.0585,66.4156,67.4709,68.3149
0.981256,37.6979,50.5521,57.0572,60.9888,63.6225,65.5103,66.9298,68.0361,68.9226
0.980236,38.2515,51.2797,57.8402,61.7882,64.4241,66.3085,67.7225,68.8226,69.7029
0.977391,38.6451,51.7757,58.3792,62.3527,65.0064,66.9044,68.3291,69.4381,70.3258
1.01552,40.5511,54.2578,61.1411,65.281,68.0452,70.0218,71.5055,72.6602,73.5844
0.989199,39.4778,52.6073,59.1701,63.1083,65.7344,67.6105,69.0178,70.1125,70.9884
1.01581,41.4974,55.6723,62.8627,67.215,70.1335,72.2268,73.8016,75.0294,76.0135
0.979559,40.7518,54.7031,61.7413,65.9796,68.8101,70.8337,72.3523,73.5338,74.4792
1.00534,42.3931,56.8436,64.1089,68.4783,71.3952,73.4807,75.0459,76.2639,77.2388
0.982984,42.0739,56.4158,63.6299,67.9721,70.873,72.9481,74.5062,75.719,76.69
1.00407,43.2625,57.8552,65.1689,69.5631,72.4951,74.5907,76.1632,77.3866,78.3656
0.987661,43.1786,57.8411,65.2288,69.6824,72.6608,74.793,76.3948,77.6423,78.6413
1.01741,44.828,59.949,67.5395,72.1028,75.1484,77.3254,78.9589,80.2298,81.2468
1.01631,45.4199,60.8512,68.6327,73.3245,76.4625,78.709,80.3967,81.7111,82.7637
0.975739,44.1635,59.1692,66.7231,71.2705,74.3079,76.4803,78.111,79.3801,80.3959
0.988635,45.3057,60.6928,68.4329,73.0912,76.2024,78.4276,80.0981,81.3983,82.439
0.988428,45.5878,60.9525,68.6602,73.293,76.385,78.5954,80.2541,81.5448,82.5777
0.989083,46.1159,61.7137,69.5658,74.2965,77.4589,79.7222,81.4221,82.7458,83.8057
0.987105,46.716,62.6334,70.6669,75.5114,78.7512,81.0702,82.8121,84.1684,85.2545
0.984661,47.0365,62.9747,70.9829,75.798,79.0117,81.3089,83.0325,84.3736,85.4468
1.00431,48.4731,64.8907,73.1458,78.1143,81.4334,83.8076,85.5901,86.9778,88.0887
0.988598,48.4105,64.8966,73.2057,78.2128,81.5601,83.9555,85.7545,87.1552,88.2767
0.999315,49.5457,66.4083,74.8935,80.0006,83.4116,85.851,87.6822,89.1073,90.248
1.00002,50.0529,67.0211,75.5454,80.6724,84.0957,86.5434,88.3807,89.8105,90.9549
0.990143,49.9629,66.8613,75.3548,80.4665,83.8813,86.3239,88.1579,89.5855,90.7283
0.980368,50.1289,67.1878,75.7899,80.9759,84.4438,86.9261,88.7908,90.2427,91.4054
