1.89319,1.90032,1.9027,1.9039,1.90461,1.90509,1.90543,1.90569,1.90589,1.90605
1.48902,2.02286,2.29587,2.46168,2.57306,2.65304,2.71326,2.76023,2.79789,2.82876
1.32255,2.30039,2.79816,3.08384,3.26604,3.39144,3.48269,3.55192,3.60617,3.6498
1.22159,2.64038,3.35105,3.74163,3.98373,4.14745,4.26525,4.35397,4.42316,4.47861
1.19931,3.15916,4.12348,4.63838,4.95324,5.1648,5.31653,5.43061,5.51949,5.59068
1.15103,3.56376,4.69358,5.27629,5.6272,5.86108,6.02799,6.15306,6.25026,6.32796
1.13204,4.0565,5.38131,6.05709,6.46403,6.73575,6.93005,7.07589,7.18939,7.28025
1.42806,5.8195,7.74453,8.71787,9.30288,9.69315,9.97204,10.1813,10.344,10.4742
1.07452,4.88513,6.49652,7.30482,7.78952,8.11248,8.34309,8.516,8.65047,8.75802
1.09542,5.74436,7.78475,8.83683,9.47824,9.91023,10.221,10.4553,10.6383,10.7851
1.06108,6.02477,8.04454,9.04177,9.63326,10.0242,10.3015,10.5085,10.6688,10.7965
1.16484,7.15021,9.52121,10.7,11.4061,11.8769,12.2133,12.4659,12.6625,12.8198
1.07716,7.11729,9.4757,10.6547,11.3631,11.836,12.1741,12.428,12.6255,12.7836
1.07083,7.59799,10.1271,11.3956,12.1585,12.6679,13.0321,13.3054,13.5181,13.6884
1.04011,7.85613,10.4598,11.7625,12.5445,13.0658,13.4382,13.7174,13.9346,14.1084
1.12979,9.19278,12.3097,13.8842,14.8343,15.4701,15.9253,16.2674,16.5338,16.7472
1.05794,9.18188,12.2923,13.8532,14.7904,15.4152,15.8613,16.1959,16.456,16.664
1.02796,9.34064,12.434,13.9713,14.8902,15.5014,15.9372,16.2637,16.5175,16.7203
1.14802,10.9933,14.6557,16.4909,17.5946,18.3318,18.8593,19.2554,19.5637,19.8106
1.03149,10.3852,13.8535,15.5927,16.6381,17.3358,17.8344,18.2086,18.4997,18.7326
1.03458,10.6954,14.1606,15.8777,16.903,17.5844,18.07,18.4336,18.7161,18.9419
1.13276,12.4179,16.6014,18.7221,20.0062,20.8677,21.4859,21.9512,22.314,22.6049
1.11989,12.9168,17.2911,19.4934,20.8177,21.7011,22.3321,22.8053,23.1732,23.4674
1.07179,12.7134,16.8993,18.9771,20.2175,21.0418,21.6291,22.0689,22.4105,22.6835
1.02426,12.8104,17.1501,19.3427,20.6672,21.5545,22.1906,22.669,23.0419,23.3408
1.0592,13.9386,18.705,21.1066,22.5519,23.5167,24.2064,24.7238,25.1263,25.4483
1.07048,14.9093,20.0827,22.6933,24.2656,25.316,26.0673,26.6313,27.0703,27.4217
1.06762,15.1265,20.1227,22.584,24.0473,25.017,25.7066,26.2222,26.6223,26.9417
1.07217,15.8215,21.1411,23.8128,25.4233,26.5013,27.2738,27.8546,28.3073,28.6701
1.06979,16.288,21.735,24.4599,26.0955,27.1858,27.9645,28.5484,29.0024,29.3656
1.00953,15.8449,21.1354,23.7834,25.3735,26.4341,27.192,27.7606,28.2029,28.5569
0.947279,7.0997,7.95214,8.28406,8.46075,8.57046,8.64522,8.69944,8.74055,8.7728
0.998435,10.7174,14.9273,17.8088,19.9551,21.6258,22.9662,24.0667,24.9868,25.7679
0.93258,12.8052,18.9645,22.6881,25.0734,26.6926,27.8474,28.7052,29.3638,29.8834
0.938673,15.6737,23.2789,27.3342,29.7398,31.3099,32.4106,33.2238,33.8491,34.3449
0.994305,18.8336,27.1316,31.1796,33.5227,35.0489,36.1233,36.9215,37.5384,38.0297
0.985208,19.3036,26.4947,29.8244,31.7443,32.9985,33.884,34.5433,35.0534,35.4601
0.962288,19.5242,26.3997,29.7016,31.6674,32.9782,33.9162,34.6213,35.1707,35.6111
0.963774,20.1309,27.0353,30.4231,32.4552,33.8119,34.7824,35.5109,36.078,36.5319
0.998386,21.2593,28.393,31.9189,34.0327,35.4417,36.4481,37.2028,37.7897,38.2591
0.995519,21.7762,29.1128,32.7814,34.9897,36.4653,37.521,38.3138,38.9309,39.425
0.979272,21.8531,29.1616,32.8113,35.0018,36.4621,37.5051,38.2872,38.8954,39.382
0.991146,22.6722,30.2896,34.109,36.4056,37.9389,39.0352,39.858,40.4983,41.0108
0.974908,22.9335,30.6928,34.5913,36.9365,38.5024,39.6219,40.4622,41.1161,41.6394
0.979852,23.7346,31.8039,35.8567,38.2931,39.9191,41.0812,41.9531,42.6315,43.1744
0.983426,24.2217,32.334,36.3779,38.7991,40.4109,41.561,42.4229,43.0929,43.6287
0.973068,24.4781,32.6909,36.8033,39.2744,40.9239,42.1032,42.9885,43.6774,44.2289
0.98958,25.41,33.9373,38.2091,40.7754,42.4876,43.7113,44.6293,45.3435,45.915
0.981938,25.6747,34.2685,38.5699,41.1523,42.8746,44.105,45.0281,45.7461,46.3205
0.982239,26.0021,34.6336,38.9439,41.5287,43.2515,44.4818,45.4045,46.122,46.6961
0.996892,26.6012,35.356,39.7245,42.3443,44.0906,45.3378,46.2733,47.0009,47.583
0.990862,26.9821,35.9901,40.5226,43.2533,45.0788,46.3853,47.3666,48.1307,48.7426
0.986188,27.5171,36.8054,41.4833,44.2994,46.1802,47.5252,48.5346,49.3201,49.9487
0.978055,27.8187,37.1812,41.8729,44.6886,46.5655,47.9059,48.911,49.6926,50.3178
0.966542,28.2922,37.9323,42.7841,45.7048,47.6559,49.0516,50.0996,50.9153,51.5684
0.976854,28.9964,38.7285,43.5827,46.4891,48.4238,49.8042,50.8385,51.6425,52.2853
0.963806,28.5845,37.9393,42.5771,45.3489,47.1927,48.508,49.4936,50.2596,50.8722
1.00022,30.1846,40.2316,45.2843,48.3308,50.3691,51.8291,52.9263,53.7811,54.4659
0.984116,30.3975,40.6569,45.8288,48.9449,51.027,52.5163,53.6343,54.5044,55.2008
0.976372,30.2167,40.1726,45.1239,48.0832,50.0506,51.453,52.5031,53.3189,53.971
1.00075,31.9071,42.741,48.2203,51.5313,53.7495,55.3395,56.5354,57.4675,58.2145
0.995163,32.0272,42.7147,48.047,51.2385,53.3618,54.8758,56.0097,56.8906,57.5946
0.996188,32.7493,43.7959,49.3469,52.6877,54.9198,56.5168,57.7161,58.6499,59.3976
0.988127,33.1807,44.4175,50.06,53.4519,55.7155,57.3333,58.5471,59.4915,60.2471
0.977928,33.0771,44.0846,49.5662,52.8466,55.0298,56.5873,57.7543,58.6614,59.3867
0.994851,34.1127,45.5006,51.204,54.6321,56.9208,58.5575,59.7862,60.7425,61.5081
0.985188,34.479,46.1111,51.961,55.4827,57.8353,59.518,60.7813,61.7646,62.5517
1.00759,35.776,47.7934,53.8098,57.4199,59.8263,61.5447,62.8332,63.8352,64.6367
0.978829,35.2227,47.0242,52.93,56.4751,58.8392,60.5284,61.7956,62.7814,63.5701
0.977866,35.415,47.1629,53.025,56.5392,58.8809,60.553,61.8068,62.7819,63.5619
0.982974,35.1512,46.4727,52.0774,55.4247,57.6502,59.2371,60.4258,61.3495,62.088
0.983009,36.4152,48.8155,55.1396,58.9824,61.5662,63.4231,64.8223,65.9144,66.7906
0.9937,37.7836,50.7359,57.2711,61.2016,63.823,65.6949,67.0981,68.1888,69.0609
0.987428,38.1371,51.0588,57.5154,61.3818,63.9553,65.7914,67.1674,68.237,69.0922
0.992812,38.516,51.3216,57.6876,61.4959,64.0307,65.8397,67.1956,68.2497,69.0928
0.995261,39.111,52.1836,58.7334,62.6725,65.3037,67.1859,68.5993,69.6996,70.5806
0.998018,39.9324,53.4004,60.1709,64.246,66.9679,68.9145,70.3757,71.5129,72.4231
0.989567,40.3128,53.9524,60.7998,64.915,67.6606,69.6227,71.0946,72.2397,73.1559
0.984994,40.5026,54.0645,60.8358,64.8937,67.5968,69.5264,70.973,72.0977,72.9972
1.00212,41.6384,55.5549,62.5161,66.6958,69.484,71.4767,72.9719,74.1352,75.0662
0.988314,41.5247,55.4113,62.3673,66.5464,69.335,71.3281,72.8236,73.9872,74.9184
0.985333,42.1307,56.3475,63.4939,67.7943,70.6665,72.7206,74.2625,75.4626,76.4232
0.991834,43.0191,57.523,64.7938,69.1601,72.072,74.1523,75.7127,76.9263,77.8972
1.00262,43.8922,58.5867,65.9305,70.3348,73.2701,75.3664,76.9385,78.161,79.1391
0.981168,43.3425,57.8155,65.0549,69.4011,72.3001,74.3716,75.9258,77.135,78.1026
0.996907,45.1451,60.5396,68.311,72.9994,76.136,78.3818,80.0692,81.3834,82.4359
0.990736,45.3607,60.6505,68.2922,72.871,75.9195,78.0947,79.7246,80.9913,82.0041
0.986915,45.5538,60.7914,68.399,72.9608,76.0013,78.1731,79.802,81.069,82.0827
1.00872,46.5094,61.842,69.4767,74.0504,77.0972,79.2725,80.9035,82.1719,83.1864
1.00576,46.5185,61.86,69.5351,74.1466,77.2246,79.4251,81.0767,82.362,83.3907
1.00138,46.9466,62.6519,70.559,75.3229,78.507,80.7854,82.4964,83.8284,84.8948
0.963375,23.4893,26.8914,28.2581,28.995,29.4557,29.771,30.0003,30.1746,30.3115
0.974214,31.9099,44.2047,52.242,58.04,62.4477,65.9199,68.7291,71.0499,73.0002
0.963736,38.1343,55.3216,65.307,71.5932,75.8289,78.8424,81.0804,82.8004,84.1595
0.987153,43.981,62.9937,72.7583,78.4915,82.2244,84.8403,86.7739,88.2612,89.4409
0.96925,46.3536,64.8032,73.7823,79.0276,82.47,84.9066,86.724,88.1327,89.257
0.972613,48.6174,66.7275,75.4882,80.6668,84.0985,86.5434,88.3749,89.7985,90.9371
0.981787,50.3251,68.1721,76.8615,82.0358,85.4769,87.9325,89.7733,91.2048,92.3498
0.987133,51.5701,69.4112,78.2011,83.4656,86.9759,89.4844,91.3666,92.8311,94.0031
0.977777,51.6777,69.2295,77.9246,83.1365,86.6108,89.0925,90.9538,92.4015,93.5597
