1.81851,1.84234,1.85042,1.85449,1.85694,1.85858,1.85975,1.86063,1.86131,1.86186
1.40364,1.90649,2.16016,2.31306,2.4153,2.48847,2.54342,2.58621,2.62047,2.64852
1.22655,2.15489,2.63507,2.91377,3.09292,3.21694,3.30757,3.37657,3.43079,3.4745
1.16564,2.54214,3.23738,3.6205,3.85814,4.01883,4.13441,4.22143,4.28926,4.3436
0.844453,1.5939,1.82479,1.92614,1.98216,2.01757,2.04194,2.05973,2.07328,2.08396
0.881893,2.4729,3.39897,4.00514,4.43793,4.76398,5.01898,5.22409,5.39273,5.53389
0.865462,3.19772,4.58395,5.3856,5.88791,6.22581,6.46617,6.6448,6.78222,6.89093
0.885815,3.93958,5.55013,6.37269,6.85523,7.16973,7.39042,7.55374,7.6795,7.77933
1.00491,5.12799,7.07842,8.03516,8.59792,8.96909,9.23272,9.42985,9.58292,9.70527
0.883292,5.03509,6.85824,7.7522,8.28439,8.63846,8.89133,9.08106,9.22872,9.34691
0.891639,5.60694,7.59349,8.57882,9.17043,9.56568,9.84856,10.0611,10.2266,10.3591
0.89376,6.06855,8.15569,9.19071,9.81116,10.2248,10.5203,10.742,10.9144,11.0523
0.992383,7.25714,9.73993,10.9827,11.7312,12.2317,12.5899,12.8591,13.0687,13.2366
0.954177,7.56216,10.1887,11.5167,12.3195,12.8573,13.2427,13.5324,13.7581,13.939
0.905291,7.62934,10.2365,11.5423,12.3262,12.8488,13.2221,13.5019,13.7195,13.8935
0.903026,8.06282,10.8036,12.179,13.0065,13.5593,13.9547,14.2516,14.4828,14.6678
0.983743,9.21947,12.3196,13.873,14.8066,15.4299,15.8755,16.2099,16.4701,16.6784
0.911982,9.02141,12.0791,13.6209,14.5509,15.1732,15.6188,15.9536,16.2144,16.4233
0.910271,9.45009,12.6487,14.2589,15.2284,15.8762,16.3394,16.6872,16.9579,17.1746
0.903345,9.6935,12.9133,14.5232,15.4893,16.1334,16.5935,16.9386,17.207,17.4218
0.99078,11.2176,15.0403,16.9804,18.155,18.9428,19.508,19.9332,20.2648,20.5306
0.911606,10.8121,14.5005,16.3616,17.4825,18.2312,18.7666,19.1683,19.4809,19.7311
0.924219,11.3435,15.1605,17.074,18.2231,18.9895,19.5371,19.9479,20.2675,20.5232
0.946389,12.1637,16.314,18.4121,19.6791,20.5274,21.1353,21.5922,21.9482,22.2335
0.927667,12.4695,16.7449,18.9031,20.2038,21.0732,21.6952,22.1622,22.5258,22.8167
0.959106,13.5682,18.2843,20.6728,22.115,23.0802,23.7715,24.2909,24.6954,25.0194
0.924843,13.6,18.2751,20.6221,22.0319,22.9721,23.6437,24.1475,24.5393,24.8527
0.96069,14.7384,19.8242,22.3868,23.9311,24.9637,25.7029,26.2582,26.6906,27.037
0.923747,14.3463,19.1028,21.462,22.8714,23.8084,24.4765,24.9768,25.3655,25.6762
0.925218,14.9235,19.9883,22.5505,24.1009,25.1409,25.8871,26.4488,26.8868,27.238
0.927458,15.4577,20.7172,23.3707,24.9699,26.0387,26.8031,27.377,27.8236,28.1811
0.965097,16.5976,22.2462,25.0915,26.8046,27.9491,28.7677,29.3823,29.8607,30.2436
0.925125,16.1704,21.5646,24.2601,25.8766,26.9539,27.7232,28.3002,28.7488,29.1077
0.939583,16.7877,22.3997,25.2217,26.9219,28.0588,28.8727,29.4842,29.9605,30.3419
0.956417,17.4984,23.3723,26.3329,28.1176,29.311,30.1651,30.8066,31.306,31.7059
0.926558,17.502,23.4562,26.4692,28.2882,29.5055,30.3773,31.0322,31.5424,31.9509
0.975063,18.9259,25.3633,28.6085,30.5625,31.8678,32.8013,33.502,34.0473,34.4838
0.952211,18.9978,25.4624,28.7178,30.6776,31.9868,32.9233,33.6263,34.1736,34.6117
0.951519,19.6933,26.4897,29.9291,32.0058,33.3958,34.3913,35.1394,35.7222,36.1889
0.960393,20.6001,27.7473,31.3581,33.5348,34.9898,36.0308,36.8126,37.4211,37.9083
0.937355,20.4761,27.4267,30.9,32.9819,34.3687,35.3587,36.1009,36.6779,37.1395
0.966299,21.6735,29.0642,32.7841,35.0263,36.526,37.5999,38.4068,39.0354,39.5389
0.942204,21.4694,28.6998,32.3222,34.4985,35.9505,36.9881,37.7666,38.3722,38.8567
0.960156,22.1611,29.5664,33.2785,35.5106,37.001,38.0668,38.8669,39.4897,39.9881
0.947887,22.5717,30.2911,34.2063,36.5753,38.1634,39.302,40.1583,40.8258,41.3607
0.949846,23.0032,30.7856,34.6948,37.0438,38.6105,39.7297,40.569,41.2217,41.7439
0.93077,23.1194,31.0044,34.9831,37.3822,38.9868,40.1356,40.9987,41.671,42.2094
0.942654,23.8442,31.9244,35.984,38.4251,40.0545,41.2193,42.0934,42.7735,43.3177
0.946995,24.2109,32.3201,36.3825,38.823,40.4515,41.6155,42.489,43.1687,43.7127
0.943409,24.6831,33.0647,37.3008,39.8592,41.5723,42.7998,43.7226,44.4416,45.0176
0.934419,24.8688,33.2892,37.5285,40.0804,41.7847,43.0034,43.9181,44.6299,45.1995
0.93952,25.4273,34.0251,38.3511,40.9552,42.6948,43.9391,44.8733,45.6005,46.1827
0.938558,25.811,34.5291,38.9155,41.5562,43.3206,44.5827,45.5303,46.268,46.8585
0.942808,26.499,35.5191,40.072,42.8177,44.6541,45.9688,46.9563,47.7254,48.3413
0.965967,27.5468,36.8657,41.5499,44.3675,46.2485,47.5933,48.6025,49.3878,50.0163
0.949459,27.7681,37.2842,42.097,45.0029,46.9481,48.3415,49.3887,50.2046,50.8581
0.954335,28.3562,37.9952,42.8389,45.751,47.6943,49.0832,50.1252,50.9358,51.5844
0.950269,29.1106,39.1821,44.284,47.3671,49.4319,50.9116,52.024,52.8908,53.5853
0.926385,28.8054,38.6302,43.5586,46.5182,48.4916,49.9012,50.9583,51.7804,52.438
0.954918,30.4143,40.8629,46.1322,49.3094,51.4346,52.9562,54.0995,54.9901,55.7033
0.941946,30.0318,40.0619,45.0604,48.0537,50.0467,51.4689,52.5348,53.3634,54.0259
0.949194,30.5753,40.8169,45.9647,49.0668,51.1416,52.6273,53.7438,54.6134,55.3101
0.93593,30.5445,40.8306,46.0171,49.1447,51.2365,52.7337,53.8584,54.7342,55.4354
0.937961,31.3544,42.0974,47.5439,50.8357,53.0401,54.6193,55.8063,56.731,57.4717
0.947462,32.034,42.8901,48.3432,51.6196,53.8048,55.3659,56.5368,57.4475,58.176
0.937242,32.1362,43.0268,48.5066,51.8061,54.011,55.5887,56.7736,57.6961,58.4348
0.948333,33.0579,44.3039,49.9736,53.391,55.6759,57.3112,58.5395,59.4959,60.2617
0.932013,32.8851,44.0174,49.6128,52.9787,55.2261,56.833,58.039,58.9775,59.7286
0.948343,33.7037,45.0262,50.7082,54.1248,56.4059,58.037,59.2613,60.2141,60.9768
0.938418,34.4504,46.3929,52.4709,56.1544,58.6259,60.3992,61.7336,62.774,63.6081
0.943677,35.126,47.1362,53.1682,56.7901,59.2044,60.9281,62.2204,63.225,64.0284
0.935492,35.0392,46.839,52.741,56.283,58.6451,60.333,61.5993,62.5846,63.373
0.934063,22.5983,26.8648,28.6719,29.6715,30.3063,30.7452,31.0668,31.3125,31.5065
0.940074,28.2376,38.7229,45.0906,49.4582,52.659,55.1111,57.0519,58.627,59.9314
0.946867,32.181,45.2475,52.44,56.8779,59.849,61.9616,63.5338,64.7461,65.7075
0.923655,34.0725,47.5759,54.4737,58.5722,61.2733,63.1848,64.6086,65.7103,66.5882
0.937876,36.3464,50.0039,56.7561,60.7551,63.4011,65.2831,66.6911,67.7846,68.6586
0.935784,37.4602,50.9711,57.6312,61.6038,64.2475,66.1353,67.5513,68.653,69.5347
0.936857,38.131,51.407,57.9638,61.8873,64.5019,66.3699,67.7712,68.8615,69.7339
0.93571,39.1134,52.7648,59.6106,63.7406,66.5057,68.4871,69.9767,71.1376,72.0676
0.938794,39.8072,53.4808,60.315,64.4204,67.1593,69.1163,70.5844,71.7263,72.6399
0.943083,40.0747,53.552,60.2712,64.3025,66.9905,68.911,70.3517,71.4725,72.3693
0.933065,40.2995,54.0194,60.9417,65.1229,67.9232,69.9301,71.439,72.615,73.5572
0.94269,40.8082,54.4967,61.3533,65.4713,68.2177,70.1796,71.651,72.7953,73.7108
0.946625,41.4897,55.5287,62.61,66.882,69.7404,71.7875,73.3258,74.5241,75.484
0.948875,42.3347,56.8154,64.1394,68.5603,71.5182,73.6361,75.2273,76.4664,77.4587
0.955757,43.1352,57.8207,65.2101,69.6554,72.623,74.7446,76.3366,77.5754,78.5667
0.931071,42.4498,56.8513,64.0907,68.4464,71.3555,73.4361,74.998,76.2138,77.187
0.932415,43.1564,57.8753,65.2958,69.7686,72.7594,74.9001,76.508,77.7601,78.7627
0.942004,44.4663,59.7645,67.4944,72.1576,75.2767,77.5096,79.187,80.4932,81.5391
0.935451,44.2353,59.1332,66.5795,71.0437,74.0178,76.1409,77.7325,78.97,79.9597
0.938829,44.9239,60.1532,67.8244,72.4499,75.5445,77.7606,79.4261,80.7236,81.7629
0.939883,45.5038,60.9701,68.7659,73.4641,76.6048,78.8522,80.54,81.8539,82.9058
0.942158,45.1554,60.0646,67.4907,71.9365,74.8961,77.0078,78.5903,79.8204,80.8041
0.93291,45.4934,60.9318,68.7622,73.5042,76.6857,78.9688,80.6872,82.0274,83.102
0.936463,46.7997,62.9901,71.2157,76.1892,79.5192,81.9042,83.6962,85.0918,86.2093
0.933492,47.3785,63.672,71.8734,76.8036,80.0925,82.4424,84.2049,85.5759,86.6726
0.912369,26.8606,31.3802,33.2372,34.2489,34.8857,35.3233,35.6427,35.886,36.0775
0.924997,35.0963,48.4531,56.8637,62.7805,67.1974,70.629,73.3751,75.6238,77.4996
0.916143,40.7203,58.3251,68.3083,74.5428,78.7367,81.723,83.9453,85.6574,87.0136
