1.76416,1.82074,1.84042,1.85042,1.85647,1.86052,1.86343,1.86562,1.86732,1.86869
1.29282,1.78707,2.03745,2.18864,2.28983,2.36229,2.41675,2.45916,2.49313,2.52094
1.21681,2.16014,2.64808,2.93113,3.11302,3.23891,3.33091,3.40095,3.45599,3.50035
1.06063,2.36876,3.04926,3.43097,3.67042,3.83359,3.95162,4.04085,4.11064,4.16669
1.05213,2.77788,3.61271,4.05276,4.31956,4.49775,4.62499,4.72033,4.79442,4.85364
1.03169,3.22376,4.27369,4.82724,5.16602,5.39449,5.55899,5.6831,5.78009,5.85797
1.04354,3.82069,5.1339,5.8205,6.23933,6.5211,6.72354,6.87597,6.99488,7.09022
1.02763,4.37512,5.94214,6.75701,7.25337,7.5871,7.82678,8.00724,8.14801,8.26087
0.934229,4.42689,5.96545,6.74379,7.21155,7.52348,7.74629,7.91338,8.04332,8.14727
0.927585,4.9853,6.78231,7.70695,8.27017,8.64945,8.92233,9.12812,9.28886,9.4179
0.923012,5.46789,7.40831,8.39133,8.98405,9.38018,9.66353,9.87623,10.0418,10.1742
0.915005,4.0739,4.87646,5.21646,5.40436,5.52361,5.60603,5.6664,5.71254,5.74895
0.851767,4.80669,6.52962,7.55226,8.24411,8.7464,9.12857,9.42946,9.67265,9.87335
0.908124,6.12219,8.60327,9.98526,10.8485,11.4325,11.8514,12.1653,12.4088,12.6029
1.03168,7.87311,10.9865,12.5917,13.5514,14.186,14.6361,14.9717,15.2315,15.4387
0.95308,7.92401,10.8919,12.3736,13.256,13.8419,14.2596,14.5726,14.816,15.0107
0.903707,8.42899,11.6898,13.3606,14.378,15.0638,15.5577,15.9306,16.2222,16.4564
0.900974,9.05222,12.4172,14.1047,15.1179,15.7935,16.276,16.6378,16.9191,17.144
0.956019,10.088,13.6739,15.46,16.5319,17.2472,17.7588,18.1428,18.4418,18.6812
0.927535,9.60948,12.6665,14.1499,15.0294,15.612,16.0265,16.3365,16.5771,16.7693
0.90581,10.4074,14.2189,16.2393,17.5005,18.3645,18.994,19.4731,19.8502,20.1546
0.916485,10.805,14.5312,16.4027,17.5226,18.266,18.7945,19.1893,19.4952,19.7392
0.911348,11.4978,15.6331,17.7628,19.0624,19.9386,20.5696,21.0459,21.4183,21.7175
0.867147,11.6851,15.9577,18.1527,19.4867,20.3826,21.0256,21.5095,21.8867,22.189
0.896857,12.5261,16.949,19.174,20.5109,21.4025,22.0394,22.5171,22.8887,23.1859
0.893603,13.1194,17.8031,20.1895,21.638,22.6114,23.3107,23.8376,24.2489,24.5788
0.934952,13.7862,18.4202,20.7238,22.1017,23.0184,23.6721,24.1619,24.5425,24.8467
0.850627,12.9889,17.457,19.7339,21.1188,22.051,22.7216,23.2274,23.6224,23.9396
0.91306,14.6634,19.8708,22.5515,24.1858,25.2859,26.0768,26.6726,27.1376,27.5106
0.898388,15.0962,20.4856,23.2391,24.9071,26.0249,26.8259,27.428,27.8971,28.2728
0.892388,15.3272,20.6411,23.3153,24.9235,25.9969,26.7642,27.3401,27.7882,28.1468
0.854055,15.3151,20.7458,23.5244,25.2148,26.3524,27.1704,27.7871,28.2686,28.6551
0.903275,16.6791,22.5404,25.5178,27.3185,28.5246,29.3887,30.0381,30.544,30.9492
0.917398,16.8332,22.4304,25.2148,26.8809,27.9897,28.7808,29.3736,29.8345,30.203
0.915321,16.8894,22.4947,25.3242,27.0359,28.1842,29.0083,29.6287,30.1127,30.5008
0.902356,16.9504,22.6652,25.578,27.3463,28.534,29.3867,30.0286,30.5292,30.9306
0.895127,18.0538,24.6603,28.1266,30.2608,31.7064,32.7503,33.5394,34.1568,34.653
0.885758,18.6475,25.4091,28.8623,30.9471,32.3398,33.3352,34.0817,34.6623,35.1266
0.891282,19.4121,26.36,29.8802,32.0037,33.4242,34.4415,35.2059,35.8014,36.2785
0.901738,19.4629,26.002,29.2455,31.1841,32.474,33.3942,34.0839,34.6201,35.0488
0.898397,20.2369,27.386,31.0672,33.3198,34.8423,35.9407,36.7708,37.4203,37.9423
0.892329,20.7132,28.0292,31.7594,34.0183,35.5316,36.6155,37.4299,38.0641,38.5718
0.890292,21.2778,28.8003,32.6303,34.9492,36.5038,37.6184,38.4567,39.1102,39.6338
0.876564,21.406,28.9076,32.7124,35.0122,36.5527,37.6566,38.4865,39.1331,39.6512
0.929232,23.263,31.4434,35.6097,38.1359,39.8315,41.0485,41.9645,42.6789,43.2517
0.912108,23.3571,31.5369,35.6902,38.2022,39.8852,41.0913,41.998,42.7045,43.2704
0.904513,23.2612,31.1973,35.19,37.5938,39.2,40.3491,41.2119,41.8836,42.4213
0.943399,24.7703,33.3452,37.7163,40.3706,42.1545,43.4362,44.4016,45.155,45.7594
0.912126,24.6199,33.2691,37.6933,40.3801,42.1845,43.4797,44.4545,45.2147,45.824
0.9102,23.7324,31.4222,35.2192,37.4799,38.9793,40.0463,40.8444,41.4638,41.9585
0.912039,24.6509,33.2289,37.6752,40.4069,42.2584,43.597,44.6102,45.4039,46.0427
0.921989,25.9108,35.1758,39.9574,42.8691,44.8258,46.2301,47.2866,48.11,48.7697
0.921583,26.0777,35.0937,39.6359,42.3645,44.1835,45.4824,46.4563,47.2136,47.8192
0.923112,25.6698,34.1659,38.406,40.95,42.6472,43.8604,44.7711,45.4799,46.0474
0.904671,25.5502,34.2463,38.6881,41.3914,43.2116,44.521,45.5084,46.2795,46.8986
0.886221,26.012,35.2588,40.044,42.9684,44.9398,46.3584,47.428,48.2632,48.9334
0.9435,28.5865,38.7919,44.0095,47.1682,49.2835,50.7985,51.9366,52.8229,53.5325
0.889954,27.7704,37.7015,42.7645,45.83,47.8851,49.3586,50.467,51.331,52.0234
0.924392,29.0517,39.1313,44.2016,47.2517,49.2884,50.7449,51.8382,52.6892,53.3702
0.897984,27.0478,35.7398,40.0257,42.5828,44.2827,45.495,46.4033,47.1093,47.6738
0.889189,28.5321,38.8269,44.249,47.6116,49.904,51.5679,52.8309,53.8225,54.6218
0.925272,30.5128,41.4356,47.0239,50.403,52.6616,54.2758,55.4863,56.4273,57.1796
0.902202,30.2951,41.0241,46.4761,49.771,51.9774,53.5584,54.747,55.6734,56.4157
0.955065,32.3379,43.5498,49.2027,52.609,54.8863,56.5163,57.7407,58.6942,59.4577
0.949321,31.318,41.6172,46.7409,49.8111,51.8572,53.3188,54.4152,55.268,55.9504
0.94979,33.2052,45.2214,51.5197,55.4102,58.0547,59.9699,61.4212,62.559,63.4751
0.904724,31.0279,41.4686,46.6711,49.7741,51.8312,53.2936,54.3859,55.2327,55.9082
0.909357,32.5187,44.1333,50.1432,53.825,56.3148,58.112,59.4708,60.5345,61.3898
0.885601,31.3394,41.9569,47.2671,50.4458,52.5597,54.0662,55.1938,56.0693,56.7687
0.935769,34.4544,46.7495,53.097,56.9795,59.6018,61.4926,62.921,64.0383,64.9362
0.948614,35.6506,48.2841,54.7169,58.6069,61.2106,63.0746,64.4747,65.5646,66.437
0.931669,34.3001,45.7808,51.499,54.9214,57.1996,58.8254,60.0439,60.9913,61.749
0.911695,32.1217,42.2998,47.3388,50.3549,52.3647,53.8006,54.8778,55.716,56.3868
0.914406,35.0271,47.9882,54.9226,59.2585,62.2293,64.3928,66.0389,67.3336,68.3786
0.916271,36.5213,49.9873,56.9205,61.1162,63.9194,65.9215,67.4218,68.5872,69.5184
0.909869,36.7155,49.7366,56.2801,60.2034,62.8165,64.682,66.0808,67.1686,68.0388
0.897458,37.1448,50.3672,57.0767,61.1388,63.8647,65.8215,67.2948,68.4442,69.3661
0.88122,35.1561,46.684,52.3628,55.7452,57.9904,59.5893,60.7858,61.7149,62.4571
0.889386,37.3079,50.6785,57.6468,61.9429,64.861,66.9739,68.5748,69.83,70.8407
0.911831,38.9651,52.7679,59.7963,64.0418,66.8794,68.9081,70.4297,71.6131,72.5594
0.908969,39.3109,53.0618,60.0194,64.2166,67.0242,69.0344,70.5448,71.7213,72.6636
0.892661,39.292,53.0897,60.1042,64.3527,67.2028,69.2477,70.7865,71.9864,72.9484
0.931669,41.7174,56.3837,63.8417,68.3576,71.3856,73.5568,75.1899,76.4627,77.4827
0.892112,40.2091,54.1697,61.2363,65.5045,68.3619,70.4087,71.9471,73.1455,74.1055
0.897537,39.0002,51.7165,58.0251,61.7975,64.3077,66.0987,67.4409,68.4843,69.3186
0.892844,40.6577,55.1745,62.7617,67.4422,70.6215,72.9232,74.667,76.0339,77.1344
0.904866,40.1064,53.4596,60.1147,64.0864,66.7208,68.5942,69.9941,71.0795,71.9456
0.949033,41.0348,54.4943,61.2759,65.3726,68.1188,70.0891,71.5723,72.7293,73.6572
0.891065,36.7558,48.3332,54.115,57.5879,59.9056,61.5624,62.8057,63.7731,64.5473
0.880053,39.5733,54.2748,62.1858,67.1406,70.5374,73.0118,74.8949,76.376,77.5715
0.884135,41.0643,56.0886,63.7949,68.4421,71.5392,73.7472,75.3994,76.6815,77.705
0.873697,22.3715,26.0118,27.4803,28.2717,28.7664,29.105,29.3514,29.5388,29.6861
0.871642,29.9876,42.0921,49.9881,55.6832,60.0148,63.4292,66.1932,68.4779,70.3988
0.886006,36.7698,53.8948,63.877,70.1865,74.4531,77.4977,79.7645,81.5102,82.8922
0.920986,41.3282,58.7207,67.5099,72.6406,75.9726,78.3046,80.0269,81.3509,82.4008
0.889723,43.8287,62.0492,71.2508,76.7681,80.4545,83.0974,85.0875,86.6414,87.889
0.888252,44.9242,61.9135,70.2128,75.1335,78.3953,80.7178,82.4559,83.8056,84.8841
0.899982,46.3981,63.1781,71.4699,76.4473,79.7747,82.1581,83.95,85.3466,86.4658
0.878125,42.9656,56.8761,63.6092,67.6046,70.2533,72.1386,73.5491,74.6441,75.5189
0.870072,45.7749,62.6598,71.5635,77.1091,80.9024,83.6627,85.762,87.4128,88.7449
