4.22529,4.28114,4.30008,4.30962,4.31536,4.3192,4.32194,4.324,4.32561,4.32689
1.45088,1.9653,2.22368,2.37908,2.48282,2.55699,2.61266,2.65598,2.69065,2.71902
1.66927,2.90386,3.53461,3.89857,4.13177,4.29289,4.41047,4.49991,4.57015,4.62673
1.76873,3.63799,4.51184,4.97641,5.25903,5.44786,5.58259,5.68343,5.76169,5.82417
1.3786,3.59283,4.72538,5.35514,5.75164,6.02369,6.22185,6.37263,6.49121,6.58691
1.06175,3.13903,4.07857,4.55428,4.83667,5.02275,5.15434,5.25221,5.32781,5.38794
1.56216,5.54528,7.43511,8.43318,9.04748,9.46391,9.76502,9.99297,10.1716,10.3154
1.06759,4.36352,5.86471,6.63199,7.0938,7.40159,7.62117,7.78561,7.91333,8.01537
1.21349,5.60274,7.52773,8.49966,9.08336,9.47258,9.75065,9.95924,10.1215,10.2514
1.00643,5.20419,7.00318,7.91121,8.458,8.82343,9.08492,9.28132,9.43425,9.5567
1.38671,7.88546,10.5832,11.9365,12.7492,13.2914,13.6788,13.9695,14.1956,14.3765
0.996684,6.19268,8.30897,9.37249,10.0125,10.4402,10.7461,10.9758,11.1546,11.2978
1.01252,6.87352,9.24829,10.4481,11.1722,11.6568,12.0038,12.2646,12.4677,12.6304
0.999568,7.34367,9.87731,11.1531,11.921,12.4338,12.8005,13.0758,13.29,13.4614
1.18085,9.30912,12.5041,14.1095,15.0751,15.7198,16.1808,16.5269,16.7962,17.0117
0.999503,8.36269,11.1981,12.6179,13.4707,14.0396,14.4462,14.7513,14.9887,15.1787
1.11675,9.57342,12.6573,14.1785,15.0855,15.6879,16.1172,16.4387,16.6884,16.8879
1.24221,11.5161,15.4735,17.5027,18.7408,19.5758,20.1772,20.6311,20.9859,21.2708
1.27737,10.6143,13.4631,14.7857,15.5476,16.0424,16.3894,16.6462,16.8438,17.0005
1.18004,11.2696,15.2572,17.4303,18.813,19.7737,20.4812,21.0244,21.4547,21.8042
1.14365,11.8949,16.192,18.4172,19.7637,20.6613,21.3007,21.7785,22.1487,22.4437
0.97385,10.9778,14.9669,16.9936,18.2115,19.0231,19.6024,20.0368,20.3745,20.6447
0.96522,11.5399,15.6341,17.6808,18.9051,19.7197,20.3009,20.7365,21.0751,21.3459
1.20328,15.0785,20.3114,22.9184,24.4803,25.5214,26.2652,26.8233,27.2574,27.6049
1.10241,13.8051,18.254,20.4259,21.7149,22.5689,23.1765,23.6309,23.9836,24.2653
0.975123,13.0285,17.532,19.841,21.2524,22.2058,22.8934,23.413,23.8194,24.1461
1.19605,16.4181,21.9387,24.7008,26.3555,27.456,28.2403,28.8272,29.2829,29.6469
1.0268,14.9447,20.1601,22.8178,24.4295,25.5115,26.2883,26.873,27.3292,27.6951
0.970898,14.7398,19.8454,22.4161,23.9614,24.992,25.7282,26.2802,26.7094,27.0528
0.947805,4.83255,5.20211,5.33722,5.40722,5.45005,5.47895,5.49977,5.51549,5.52777
0.886206,7.23749,10.3015,12.6449,14.5356,16.1011,17.4211,18.55,19.5269,20.3808
0.96592,11.03,17.3005,21.4959,24.316,26.2725,27.6795,28.726,29.5274,30.1566
0.918358,13.5524,21.2964,25.5946,28.1325,29.7664,30.8963,31.7217,32.3505,32.8454
0.916373,15.7624,23.4853,27.1927,29.2883,30.6324,31.5697,32.262,32.795,33.2184
0.996147,18.9159,26.9998,30.7685,32.9506,34.3843,35.4021,36.1633,36.7547,37.2276
0.90976,18.4443,25.6121,29.007,31.0152,32.3498,33.3027,34.0178,34.5742,35.0197
0.888815,19.0248,26.0714,29.4951,31.5456,32.915,33.895,34.6311,35.2043,35.6634
0.845936,16.9115,22.1078,24.5248,25.9337,26.8573,27.5096,27.9949,28.37,28.6686
0.885104,18.8391,25.3506,28.7076,30.7832,32.1981,33.2256,34.0062,34.6195,35.1142
0.929791,21.1232,28.7576,32.6896,35.084,36.6915,37.8438,38.7095,39.3834,39.9227
0.896272,21.2268,28.7784,32.5771,34.8542,36.369,37.4487,38.2571,38.885,39.3867
0.893296,21.8648,29.5203,33.3483,35.6434,37.1731,38.2657,39.0854,39.723,40.2333
0.951315,23.6701,31.734,35.7429,38.1431,39.7419,40.8834,41.7393,42.405,42.9376
0.916932,23.5132,31.6056,35.6804,38.1397,39.7863,40.9662,41.8533,42.5445,43.0984
0.9484,24.9451,33.509,37.8141,40.4054,42.1361,43.3737,44.3025,45.0253,45.6038
0.934781,25.0274,33.5298,37.7898,40.349,42.0566,43.2769,44.1926,44.905,45.475
0.929761,25.2032,33.6757,37.917,40.4652,42.1657,43.3814,44.2938,45.0037,45.572
0.924302,25.1626,33.5008,37.668,40.1701,41.8393,43.0322,43.9272,44.6236,45.1809
0.925655,25.9219,34.7654,39.2572,41.9785,43.8044,45.1145,46.1004,46.8692,47.4855
0.93023,26.7418,35.9275,40.5718,43.3715,45.2424,46.5804,47.5847,48.3662,48.9917
0.984314,29.0296,39.0275,44.0703,47.1071,49.1358,50.5868,51.6762,52.5241,53.2029
0.907775,27.3734,36.77,41.4957,44.3383,46.2363,47.5934,48.6121,49.4048,50.0393
0.900519,27.5133,36.8317,41.4959,44.2958,46.1632,47.4975,48.4985,49.2772,49.9003
0.955727,29.1461,38.7862,43.5895,46.4687,48.3878,49.7585,50.7865,51.5862,52.226
0.95486,29.7082,39.7427,44.8184,47.888,49.9455,51.4209,52.5307,53.3959,54.0893
0.966934,30.8289,41.3844,46.7295,49.9568,52.116,53.6616,54.8226,55.7265,56.4502
0.939624,30.3059,40.5515,45.6901,48.7748,50.8311,52.2997,53.4009,54.2573,54.9422
0.980654,31.7964,42.4092,47.7184,50.9055,53.0315,54.5509,55.6909,56.5779,57.2878
1.00101,32.814,43.8077,49.3383,52.6706,54.8987,56.4936,57.6918,58.6248,59.3721
0.958347,32.3491,43.4791,49.1348,52.5584,54.8534,56.4988,57.7361,58.7005,59.4732
0.922985,28.5994,37.0991,41.1662,43.5474,45.1101,46.2142,47.0356,47.6705,48.1759
0.943256,31.3031,42.2249,47.9832,51.5655,54.0154,55.7986,57.1554,58.2228,59.0846
0.928563,32.0768,43.4338,49.2495,52.7629,55.1081,56.7819,58.0354,59.0086,59.7859
0.947035,33.5013,45.1671,51.0254,54.5342,56.8687,58.5336,59.781,60.7503,61.5254
0.976766,35.4623,47.7903,53.9871,57.714,60.2032,61.984,63.3214,64.3627,65.1965
0.979462,36.1597,48.5724,54.7876,58.5199,61.01,62.7896,64.1249,65.1638,65.9952
0.977919,36.0066,47.988,53.9382,57.4982,59.8681,61.5594,62.8271,63.8126,64.6008
0.925405,34.9184,46.8622,52.9157,56.5826,59.0435,60.8099,62.1396,63.1767,64.0084
0.959872,36.8549,49.4576,55.8105,59.6363,62.1913,64.0181,65.3889,66.4553,67.3086
0.966329,37.7859,50.7216,57.2364,61.1587,63.7789,65.653,67.0601,68.1553,69.032
0.983412,38.6985,51.7398,58.2639,62.1785,64.7883,66.6524,68.0505,69.138,70.0079
0.986346,39.5263,52.9942,59.7885,63.8881,66.6318,68.597,70.074,71.2248,72.1466
0.962249,38.3704,51.0885,57.4255,61.2197,63.7453,65.5473,66.8976,67.9471,68.7862
0.997603,39.4851,52.4095,58.866,62.7437,65.3317,67.1822,68.5713,69.6525,70.5181
0.955829,38.1898,50.9219,57.3587,61.2489,63.855,65.7229,67.1273,68.2218,69.0988
0.978807,40.6332,54.812,62.0777,66.4928,69.4586,71.5876,73.1901,74.4398,75.4417
0.955985,40.4085,54.3497,61.3666,65.5789,68.3849,70.3874,71.8879,73.054,73.9862
0.98242,41.4112,55.2444,62.1197,66.229,68.9623,70.9119,72.3727,73.5081,74.4161
0.971741,42.2178,56.8141,64.2311,68.728,71.748,73.9167,75.5498,76.8241,77.8461
0.968445,42.2366,56.4957,63.6237,67.8949,70.7382,72.7665,74.286,75.4666,76.4103
0.985047,37.0703,47.2357,51.9915,54.7511,56.554,57.8246,58.7685,59.4973,60.0771
0.999359,41.4954,56.2252,64.2191,69.2911,72.8073,75.3919,77.3732,78.9408,80.2125
0.939626,40.2345,54.4398,61.7145,66.0926,69.0021,71.0703,72.6136,73.8083,74.7599
0.959641,41.1934,55.1602,62.1096,66.248,68.9917,70.9442,72.4048,73.5388,74.4448
0.955233,42.7539,57.8539,65.5501,70.2194,73.3571,75.6119,77.3109,78.6374,79.7018
1.03247,47.998,65.1001,73.7627,78.9863,82.4773,84.9742,86.8483,88.3066,89.4735
0.967146,46.1518,62.3934,70.5406,75.4302,78.6895,81.0173,82.7629,84.1204,85.2064
0.944581,45.2602,60.6592,68.3028,72.8723,75.9126,78.0817,79.7072,80.9709,81.9814
0.935601,45.0808,60.2753,67.8673,72.4309,75.4792,77.6601,79.298,80.5733,81.5945
0.957143,45.6765,60.7167,68.2061,72.6971,75.6908,77.8292,79.4329,80.6803,81.6783
0.978086,47.9783,64.4522,72.8489,77.9488,81.3764,83.8387,85.6933,87.1405,88.3013
0.977463,40.6782,51.6452,56.7359,59.6702,61.5772,62.9155,63.9062,64.6691,65.2746
0.919809,40.9624,54.8462,62.2729,66.949,70.1758,72.5405,74.3492,75.7782,76.9358
0.969913,43.0394,57.3572,64.6277,68.995,71.8971,73.961,75.502,76.6955,77.6468
1.04842,47.4123,63.5309,71.722,76.6648,79.9703,82.3366,84.1144,85.4993,86.6085
1.011,48.7643,66.5444,75.7571,81.3792,85.1661,87.8901,89.9435,91.5467,92.8333
1.01837,48.8782,65.491,73.6862,78.5425,81.7502,84.0254,85.7227,87.0371,88.085
0.956391,48.9592,66.8352,76.0373,81.6576,85.4519,88.1876,90.2544,91.8713,93.1709
0.983219,48.0456,63.5111,70.9743,75.3555,78.2333,80.2669,81.7797,82.9487,83.879
0.974106,50.4809,68.4294,77.7071,83.4079,87.2747,90.073,92.193,93.8552,95.1938
