1.80994,1.84967,1.86331,1.8702,1.87436,1.87715,1.87914,1.88064,1.8818,1.88274
1.3536,1.84977,2.0994,2.24962,2.34995,2.4217,2.47556,2.51748,2.55103,2.57849
1.20638,2.11939,2.58902,2.86093,3.03551,3.1563,3.24454,3.31171,3.36449,3.40702
1.58844,3.4767,4.43865,4.97268,5.30569,5.53174,5.69479,5.81782,5.91389,5.99095
1.08285,2.84816,3.71258,4.17299,4.45407,4.64271,4.77789,4.87945,4.95853,5.02184
1.04936,3.26316,4.31828,4.87046,5.20624,5.43158,5.59319,5.71475,5.8095,5.88543
1.0398,3.76824,5.03915,5.69737,6.09683,6.36477,6.5569,6.7014,6.81402,6.90427
1.00947,4.16615,5.58352,6.30689,6.7434,7.03524,7.24405,7.40086,7.52292,7.62063
1.00445,4.64856,6.23396,7.03823,7.52333,7.84776,8.08001,8.2545,8.39038,8.4992
0.993703,5.09008,6.82453,7.70198,8.23122,8.58524,8.83871,9.02914,9.17745,9.29623
0.97405,5.49005,7.37313,8.32811,8.90535,9.29201,9.56911,9.77744,9.93977,10.0698
0.963796,5.95308,8.01442,9.06193,9.69569,10.1204,10.4248,10.6537,10.832,10.9749
0.977507,6.49213,8.70604,9.82115,10.4924,10.9407,11.2612,11.5019,11.6891,11.839
0.963282,6.86052,9.19568,10.3746,11.0859,11.5619,11.9029,12.1592,12.3588,12.5187
0.960597,7.3314,9.84122,11.1126,11.8811,12.3958,12.7647,13.042,13.258,13.4311
0.944091,7.65006,10.2548,11.5698,12.3628,12.893,13.2725,13.5576,13.7795,13.9572
0.95047,8.26082,11.1288,12.5896,13.4749,14.069,14.4953,14.8161,15.0662,15.2667
0.950679,8.75554,11.7774,13.3051,14.2261,14.8418,15.2823,15.613,15.8704,16.0764
0.945316,9.36276,12.6764,14.3689,15.396,16.0857,16.5808,16.9535,17.2442,17.4773
0.979871,10.0906,13.5396,15.2668,16.3026,16.9926,17.485,17.8542,18.1411,18.3706
0.931704,10.0626,13.508,15.247,16.2971,17.0003,17.5044,17.8834,18.1788,18.4156
0.934451,10.6321,14.3156,16.1867,17.3198,18.0796,18.6245,19.0344,19.3539,19.61
0.957796,11.3112,15.1738,17.1198,18.2916,19.0744,19.6342,20.0544,20.3814,20.6432
0.93432,11.5469,15.5236,17.5394,18.7585,19.5754,20.1611,20.6015,20.9448,21.2199
0.977457,12.5604,16.874,19.0557,20.3725,21.2537,21.8846,22.3586,22.7278,23.0234
0.96274,12.9154,17.3746,19.6338,20.9988,21.9128,22.5676,23.0598,23.4432,23.7504
0.937151,13.0484,17.5354,19.802,21.1689,22.083,22.7373,23.2288,23.6115,23.9179
0.928937,13.3717,17.9502,20.2618,21.6562,22.589,23.257,23.7588,24.1497,24.4628
0.92992,13.8321,18.5677,20.9623,22.4083,23.3763,24.0697,24.5909,24.9969,25.3221
0.977476,15.0563,20.2348,22.8592,24.4455,25.508,26.2693,26.8416,27.2875,27.6447
0.953501,15.1982,20.4303,23.078,24.6764,25.746,26.5119,27.0873,27.5355,27.8944
0.964435,15.9418,21.4585,24.2545,25.944,27.0753,27.8858,28.495,28.9697,29.3499
0.919268,15.7044,21.1285,23.8706,25.5249,26.6314,27.4236,28.0187,28.4821,28.8531
0.922625,16.2123,21.7831,24.5954,26.2914,27.4258,28.238,28.8481,29.3233,29.7039
0.918843,16.5571,22.2229,25.0838,26.8101,27.9652,28.7924,29.414,29.8982,30.2861
0.91871,16.886,22.614,25.5003,27.24,28.4031,29.2356,29.8609,30.3477,30.7376
0.949748,17.8839,23.9741,27.0559,28.9181,30.1652,31.0589,31.7308,32.2544,32.6738
0.97246,18.7792,25.1937,28.441,30.4023,31.7152,32.6555,33.3622,33.9126,34.3535
0.948253,18.9416,25.5015,28.8362,30.8545,32.2072,33.1769,33.9061,34.4744,34.9298
0.950012,19.2446,25.7666,29.0418,31.0097,32.3224,33.2603,33.9639,34.5112,34.949
0.951867,19.981,26.9132,30.4434,32.5842,34.0217,35.0537,35.8307,36.4368,36.9229
0.937415,20.2137,27.2031,30.7387,32.8712,34.297,35.3171,36.0832,36.6794,37.1567
0.923002,20.1585,26.9941,30.4255,32.4882,33.865,34.8493,35.5881,36.1629,36.623
0.934553,21.076,28.3726,32.0844,34.3347,35.8452,36.9296,37.7458,38.3825,38.8931
0.921171,21.4067,28.8525,32.6296,34.9118,36.4393,37.5331,38.3549,38.9949,39.5074
0.954298,22.7644,30.6652,34.661,37.0716,38.684,39.8383,40.7054,41.3807,41.9214
0.934877,22.7343,30.5463,34.4817,36.8521,38.4363,39.5698,40.421,41.0837,41.6143
0.938767,23.4202,31.515,35.613,38.0896,39.7486,40.9375,41.8314,42.528,43.0862
0.93558,23.5986,31.6207,35.6541,38.0814,39.7025,40.8619,41.7321,42.4094,42.9514
0.930601,24.0116,32.2763,36.473,39.0148,40.7199,41.9433,42.8639,43.5817,44.1572
0.95728,25.1499,33.7853,38.155,40.7929,42.5578,43.8213,44.7706,45.5097,46.1016
0.951103,25.4482,34.1732,38.5833,41.2443,43.0244,44.299,45.2566,46.0023,46.5996
0.936038,25.6854,34.58,39.095,41.826,43.6561,44.968,45.9545,46.7233,47.3393
0.930961,26.0908,35.1109,39.6745,42.4285,44.2708,45.5897,46.5805,47.352,47.9698
0.940845,26.7567,35.9269,40.5505,43.3368,45.1995,46.5325,47.5337,48.3132,48.9374
0.93955,27.01,36.1869,40.8081,43.5926,45.4541,46.7865,47.7872,48.5665,49.1905
0.923776,27.0604,36.3329,41.0313,43.8726,45.7765,47.1414,48.1678,48.9677,49.6087
0.926637,27.6905,37.2244,42.0562,44.9757,46.9303,48.3305,49.3827,50.2023,50.8587
0.953813,29.0107,38.9947,44.0463,47.0954,49.1356,50.5965,51.694,52.5489,53.2335
0.922005,28.5371,38.3502,43.3107,46.3039,48.3065,49.7403,50.8176,51.6567,52.3286
0.927479,29.0188,38.912,43.8979,46.9023,48.9106,50.3478,51.4272,52.2677,52.9406
0.943043,30.1128,40.4849,45.7451,48.9271,51.0596,52.5884,53.7382,54.6344,55.3525
0.951773,30.8177,41.3916,46.7368,49.9618,52.1191,53.6634,54.8234,55.7267,56.45
0.927424,30.4027,40.7905,46.0341,49.1962,51.3111,52.8251,53.9624,54.8481,55.5574
0.917732,30.6101,41.1243,46.4481,49.6647,51.8186,53.362,54.5221,55.426,56.1501
0.923023,31.1088,41.7348,47.1013,50.3383,52.5034,54.0534,55.2178,56.1245,56.8505
0.91809,31.5933,42.5098,48.0525,51.4064,53.6543,55.2659,56.4779,57.4225,58.1795
0.921573,32.1447,43.1974,48.7843,52.1544,54.4081,56.0212,57.2328,58.1762,58.9315
0.91916,32.587,43.8098,49.4881,52.9167,55.2116,56.8554,58.0908,59.0532,59.8241
0.924044,33.0292,44.2989,49.9811,53.4057,55.6953,57.3338,58.5645,59.5228,60.29
0.949069,34.6816,46.6918,52.7942,56.4889,58.9665,60.7434,62.0801,63.1222,63.9574
0.926146,34.4292,46.3394,52.3677,56.0059,58.4397,60.182,61.4907,62.5097,63.3256
0.938318,34.8904,46.7295,52.6844,56.2691,58.6641,60.3775,61.6641,62.6657,63.4676
0.941244,35.5815,47.801,54.0001,57.7519,60.2674,62.0716,63.4288,64.4868,65.3349
0.920108,35.3389,47.5202,53.695,57.426,59.9239,61.7131,63.0576,64.1048,64.9436
0.921114,36.1199,48.6725,55.0451,58.8984,61.4794,63.329,64.7194,65.8028,66.6706
0.940729,37.0264,49.6363,55.9716,59.78,62.3216,64.1381,65.5011,66.5616,67.4102
0.928101,37.2746,50.1669,56.7138,60.6783,63.3376,65.2456,66.6813,67.801,68.6985
0.919047,37.433,50.342,56.8695,60.8077,63.4416,65.3269,66.7428,67.8452,68.7279
0.92336,38.0077,51.0419,57.6187,61.5838,64.2351,66.1329,67.5584,68.6685,69.5574
0.894335,23.6069,28.0964,29.9995,31.0519,31.72,32.1818,32.5201,32.7785,32.9825
0.910214,29.7434,40.8449,47.5999,52.239,55.642,58.2509,60.3169,61.9946,63.3844
0.912611,34.1664,48.4356,56.4013,61.3584,64.6961,67.0789,68.8575,70.2321,71.3243
0.899538,24.1336,29.705,32.0611,33.3336,34.1256,34.6651,35.0561,35.3525,35.585
0.91475,31.0066,43.6221,51.1555,56.2676,59.994,62.841,65.0908,66.9153,68.4254
0.919871,35.9963,51.6808,60.2522,65.531,69.0665,71.5829,73.4576,74.9045,76.0531
0.913317,38.8509,54.8291,62.8855,67.65,70.7834,72.9985,74.647,75.9218,76.9373
0.895275,39.6795,54.7605,62.1371,66.4975,69.3823,71.4346,72.9705,74.1637,75.1176
0.890826,25.3889,30.3895,32.4302,33.5444,34.248,34.7333,35.0883,35.3594,35.5732
0.88238,31.5408,43.6592,51.0057,56.0688,59.7963,62.6624,64.9377,66.7888,68.3248
0.905468,37.1505,52.9004,61.6439,67.0774,70.7316,73.3376,75.2809,76.7814,77.9727
0.885536,39.7288,56.0414,64.3933,69.3597,72.6322,74.9473,76.6708,78.0039,79.0659
0.887467,41.6632,57.592,65.4385,70.0783,73.1457,75.3265,76.9577,78.2243,79.2366
0.892755,43.0979,58.8022,66.5409,71.1631,74.2432,76.4449,78.098,79.3851,80.4157
0.882447,43.4172,58.8085,66.461,71.0618,74.1377,76.34,77.995,79.2841,80.3167
0.886635,44.7332,60.5749,68.5497,73.3702,76.6011,78.9177,80.66,82.0181,83.1064
0.907849,46.1548,62.1162,70.1064,74.911,78.1185,80.4116,82.1323,83.4712,84.5426
0.892727,46.0608,62.0173,70.0713,74.9377,78.1976,80.5341,82.291,83.6603,84.7576
0.889812,46.3189,62.2413,70.2641,75.1008,78.3348,80.6494,82.3877,83.7412,84.8248
0.881182,46.3649,62.2994,70.3464,75.2035,78.454,80.782,82.5314,83.8942,84.9857
