1.75097,1.80322,1.82134,1.83054,1.8361,1.83983,1.8425,1.84451,1.84608,1.84733
1.30288,1.79248,2.03881,2.187,2.28595,2.3567,2.40981,2.45113,2.4842,2.51127
1.15013,2.04499,2.51075,2.78213,2.95706,3.0784,3.16722,3.23493,3.28819,3.33116
1.08314,2.39884,3.07439,3.45031,3.6849,3.84418,3.95909,4.04579,4.11348,4.16778
1.06464,2.84173,3.72274,4.19451,4.48343,4.67772,4.81716,4.92204,5.00378,5.06927
1.03487,3.2488,4.30547,4.85775,5.19327,5.41825,5.57952,5.70077,5.79525,5.87094
1.01107,3.64329,4.84946,5.46997,5.84545,6.09691,6.27707,6.41248,6.51797,6.60248
0.983717,4.01358,5.36093,6.05014,6.46726,6.74679,6.94717,7.09785,7.21529,7.30939
0.976147,4.50876,6.06791,6.86924,7.35621,7.68341,7.91838,8.09531,8.23332,8.34399
0.969528,4.94485,6.63914,7.49873,8.01728,8.36397,8.61205,8.79833,8.94333,9.05941
0.94179,5.34368,7.22084,8.18265,8.76714,9.16,9.44223,9.65482,9.82071,9.95378
0.946804,5.89852,7.97435,9.03133,9.67073,10.099,10.4059,10.6365,10.8161,10.96
0.946711,6.34766,8.54129,9.64854,10.3158,10.7619,11.0811,11.3208,11.5075,11.657
0.945973,6.82648,9.18869,10.3865,11.1112,11.597,11.9454,12.2075,12.4118,12.5755
0.92384,7.13063,9.59149,10.8381,11.5914,12.0958,12.4573,12.7289,12.9406,13.1101
0.926551,7.63637,10.2855,11.6324,12.4482,12.9953,13.3878,13.683,13.9131,14.0976
0.930147,8.12226,10.9298,12.3542,13.2154,13.7922,14.2056,14.5164,14.7585,14.9525
0.93184,8.61302,11.5934,13.1063,14.0215,14.6348,15.0744,15.4049,15.6625,15.8689
0.948243,9.27612,12.5053,14.1489,15.1446,15.8125,16.2915,16.6519,16.9328,17.158
0.925598,9.45295,12.6941,14.3305,15.3171,15.9767,16.4488,16.8033,17.0793,17.3002
0.977944,10.4636,14.0637,15.8907,16.9965,17.738,18.2698,18.6699,18.9818,19.2318
0.95417,10.6019,14.2184,16.0477,17.1522,17.8915,18.4209,18.8188,19.1287,19.3769
0.902073,10.505,14.1354,15.9852,17.107,17.8599,18.4004,18.8071,19.1243,19.3786
0.918231,11.1732,15.0466,17.0168,18.2093,19.0084,19.5812,20.0118,20.3473,20.6162
0.934853,11.8903,16.0258,18.1276,19.3992,20.2512,20.8619,21.3211,21.6789,21.9655
0.94117,12.5096,16.8754,19.0943,20.4368,21.3365,21.9815,22.4664,22.8443,23.1472
0.952926,13.1102,17.6451,19.9405,21.3265,22.2541,22.9185,23.4178,23.8068,24.1183
0.905216,12.7987,17.1694,19.3746,20.7046,21.5942,22.2312,22.7098,23.0825,23.3811
0.921407,13.67,18.4691,20.9267,22.4218,23.4276,24.1506,24.6953,25.1205,25.4617
0.924381,14.2299,19.2067,21.7356,23.2644,24.2879,25.0208,25.5715,26.0004,26.3438
0.896808,14.4892,19.6335,22.2594,23.8517,24.9203,25.687,26.264,26.7139,27.0745
0.917296,15.2961,20.644,23.3468,24.9762,26.0655,26.845,27.4303,27.886,28.2508
0.928336,15.8387,21.2862,24.0308,25.6852,26.7916,27.5837,28.1789,28.6425,29.0138
0.919686,16.2145,21.8434,24.7046,26.4387,27.6026,28.4379,29.0665,29.5568,29.9499
0.918105,16.572,22.2758,25.1621,26.905,28.0714,28.9066,29.5342,30.023,30.4144
0.915352,16.9398,22.7655,25.7176,27.5021,28.6976,29.5544,30.1986,30.7005,31.1027
0.911148,17.3098,23.2768,26.3049,28.1367,29.3642,30.2441,30.9058,31.4214,31.8345
0.909205,17.8919,24.1525,27.347,29.2847,30.5853,31.5186,32.221,32.7687,33.2078
0.907254,18.2335,24.5333,27.7201,29.6425,30.9281,31.8483,32.5393,33.0774,33.5082
0.917068,18.9326,25.4964,28.8278,30.8434,32.1943,33.163,33.8915,34.4594,34.9146
0.923735,19.6126,26.441,29.9116,32.0123,33.4206,34.4302,35.1896,35.7814,36.2556
0.911658,19.7414,26.5471,29.9879,32.064,33.4529,34.4472,35.1942,35.7759,36.2417
0.91513,20.5161,27.7193,31.3954,33.6265,35.1249,36.2008,37.0107,37.6426,38.1492
0.905713,20.6186,27.7151,31.2929,33.4473,34.8863,35.9153,36.6876,37.2886,37.7696
0.919864,21.4582,28.9014,32.6842,34.9759,36.5136,37.617,38.4474,39.0951,39.6144
0.914477,21.7531,29.2671,33.0749,35.376,36.9167,38.0204,38.8499,39.4961,40.0136
0.908256,22.1802,29.9061,33.8368,36.2178,37.8146,38.96,39.8216,40.4934,41.0318
0.908514,22.727,30.6495,34.6734,37.1072,38.7377,39.9062,40.7845,41.469,42.0172
0.919148,23.1969,31.1183,35.1064,37.5076,39.1117,40.2592,41.1207,41.7914,42.3282
0.90077,23.0191,30.871,34.8451,37.248,38.8584,40.013,40.8815,41.5585,42.1011
0.909957,23.7795,31.9964,36.1819,38.7197,40.4229,41.645,42.5646,43.2817,43.8564
0.899865,19.029,23.854,26.0622,27.3278,28.1481,28.7229,29.148,29.4751,29.7346
0.907456,21.9407,29.9336,34.4304,37.3531,39.4138,40.9477,42.1349,43.0815,43.854
0.909433,23.9269,33.1239,38.0235,41.0255,43.0393,44.4783,45.5557,46.3913,47.0577
0.902236,24.9654,34.3116,39.065,41.9117,43.8022,45.1482,46.1551,46.9368,47.5613
0.920293,26.199,35.6377,40.3581,43.1833,45.0651,46.4091,47.4175,48.2022,48.8302
0.903959,26.5532,36.047,40.8331,43.723,45.6596,47.0485,48.0935,48.9084,49.5616
0.907513,27.0231,36.4336,41.1532,43.9937,45.8919,47.2499,48.2697,49.0636,49.6991
0.908315,27.4772,36.9913,41.7935,44.6957,46.6403,48.0344,49.0829,49.9002,50.5551
0.891643,27.8095,37.6258,42.6373,45.6819,47.728,49.1975,50.3041,51.1674,51.8597
0.902626,28.626,38.6092,43.6595,46.7066,48.7443,50.2025,51.2975,52.15,52.8324
0.893644,28.9536,39.0804,44.2211,47.3318,49.4171,50.9123,52.037,52.9138,53.6165
0.891418,21.9498,27.1346,29.4471,30.7565,31.5992,32.1869,32.6203,32.9529,33.2163
0.882502,25.1474,34.2918,39.5192,42.9594,45.4075,47.2423,48.6701,49.8134,50.7498
0.884438,27.9345,38.9879,44.9792,48.6794,51.1709,52.9548,54.2915,55.3287,56.1561
0.891988,29.6012,40.8262,46.5249,49.9225,52.1701,53.7653,54.9558,55.8783,56.6141
0.883362,30.614,41.973,47.6887,51.1194,53.4092,55.0475,56.2783,57.2372,58.0054
0.882821,31.1497,42.2359,47.7587,51.0688,53.2762,54.854,56.038,56.9595,57.6969
0.878813,31.8328,43.1335,48.8347,52.2825,54.5951,56.2544,57.5032,58.4772,59.2581
0.883084,32.5804,44.0326,49.8154,53.3092,55.649,57.3255,58.5857,59.5675,60.354
0.884543,33.3972,45.1721,51.147,54.7646,57.1904,58.9301,60.2388,61.2589,62.0765
0.877727,33.4755,45.0884,50.9457,54.4776,56.8393,58.5297,59.7993,60.7879,61.5794
0.885445,34.265,46.1574,52.1834,55.8285,58.2717,60.0235,61.3412,62.3683,63.1915
0.882577,34.4798,46.3673,52.3807,56.0129,58.4444,60.1862,61.4953,62.515,63.3318
0.884486,34.9408,46.9931,53.1046,56.8014,59.2787,61.0547,62.3903,63.4312,64.2652
0.897915,36.1007,48.6732,55.0758,58.9563,61.5598,63.4275,64.8327,65.9283,66.8064
0.892658,36.3435,48.9581,55.3576,59.2255,61.8153,63.6706,65.0649,66.1511,67.0211
0.875686,36.1804,48.7641,55.155,59.0218,61.6133,63.4711,64.8683,65.9572,66.8298
0.888116,36.7731,49.354,55.6996,59.5242,62.0812,63.9111,65.2854,66.3555,67.2123
0.897139,37.6363,50.6374,57.2489,61.2558,63.9447,65.8744,67.3268,68.4596,69.3677
0.873061,37.1975,50.1341,56.7197,60.7089,63.3838,65.302,66.7446,67.869,68.77
0.881154,38.1436,51.4452,58.2073,62.2987,65.0401,67.0049,68.4821,69.6332,70.5554
0.882634,38.7406,52.2411,59.0958,63.2414,66.0188,68.0094,69.506,70.6722,71.6066
0.882727,39.1985,52.8077,59.7052,63.8735,66.6647,68.6647,70.168,71.3393,72.2776
0.891468,40.3674,54.5159,61.7193,66.0843,69.0125,71.1133,72.6939,73.9263,74.9141
0.869716,39.8526,53.726,60.7542,64.9989,67.8398,69.8744,71.4031,72.5938,73.5474
0.880327,40.9151,55.1824,62.4264,66.8097,69.748,71.8547,73.4393,74.6745,75.6643
0.875382,41.0273,55.2548,62.4677,66.8285,69.7498,71.8433,73.4173,74.6437,75.6263
0.881896,42.0475,56.7453,64.2249,68.7561,71.7954,73.9755,75.6156,76.8942,77.919
0.880665,42.0809,56.5502,63.8553,68.2599,71.2049,73.3126,74.8956,76.1281,77.1149
0.891188,42.7227,57.348,64.7491,69.222,72.2184,74.3661,75.9811,77.2398,78.2484
0.894929,43.4239,58.4466,66.0963,70.7341,73.8467,76.0803,77.7611,79.0718,80.1225
0.86502,42.4371,57.1496,64.6293,69.1557,72.1888,74.3627,75.9972,77.2707,78.291
0.86852,29.1175,35.193,37.8269,39.2978,40.2367,40.888,41.3663,41.7324,42.0217
0.878303,35.498,48.7334,56.622,61.9607,65.8357,68.783,71.1026,72.9769,74.5234
0.858952,39.4033,55.7665,64.8444,70.4918,74.3004,77.0254,79.0641,80.6431,81.9002
0.873773,28.8308,35.5893,38.4707,40.0371,41.0165,41.6858,42.172,42.5412,42.8311
0.893374,36.361,50.8384,59.3843,65.1396,69.3113,72.4846,74.9838,77.0049,78.6739
0.854156,39.4776,56.2827,65.4421,71.0895,74.8792,77.582,79.5996,81.1596,82.3998
0.845993,42.2853,59.5184,68.2735,73.4817,76.9208,79.3586,81.1765,82.5845,83.7072
