1.97773,2.0045,2.01359,2.01816,2.02091,2.02275,2.02407,2.02506,2.02583,2.02644
2.24263,3.04262,3.44525,3.68765,3.84959,3.96542,4.05239,4.12008,4.17427,4.21863
2.13692,3.71704,4.52287,4.98723,5.28448,5.48969,5.63939,5.7532,5.84255,5.9145
1.16143,2.50788,3.18474,3.55817,3.79024,3.94744,4.06067,4.14601,4.21261,4.266
1.15654,3.03617,3.96355,4.46036,4.7648,4.96962,5.11665,5.22727,5.3135,5.38259
1.08852,3.27989,4.27793,4.78723,5.09229,5.29495,5.43926,5.54722,5.63102,5.69795
1.10386,3.93254,5.24915,5.93735,6.3584,6.6426,6.8474,7.00204,7.12294,7.22007
1.05939,4.15566,5.4714,6.12636,6.51572,6.77339,6.95638,7.093,7.19887,7.2833
1.03293,4.68342,6.29897,7.13583,7.64778,7.99362,8.24304,8.4315,8.57894,8.69745
1.53895,7.76372,10.4153,11.7544,12.5586,13.0942,13.4762,13.7624,13.9846,14.1621
1.22565,6.89612,9.29319,10.5091,11.2432,11.7346,12.0866,12.3511,12.5573,12.7224
1.02953,6.34714,8.53646,9.6375,10.2992,10.7407,11.0561,11.2928,11.4768,11.6241
1.01046,6.62562,8.82651,9.91882,10.5716,11.0057,11.3154,11.5474,11.7277,11.8719
0.994737,7.10152,9.53491,10.7701,11.5189,12.0217,12.3829,12.6548,12.867,13.0372
1.15869,8.91673,11.9828,13.5315,14.4651,15.0889,15.535,15.8699,16.1304,16.3389
0.981121,8.00777,10.7155,12.0709,12.8839,13.4258,13.8128,14.1029,14.3285,14.509
1.19058,10.2173,13.6297,15.3374,16.3634,17.0481,17.5377,17.9052,18.1912,18.4202
0.965889,7.67227,9.7938,10.7925,11.3739,11.7544,12.0228,12.2224,12.3765,12.4992
0.961275,8.76165,11.877,13.567,14.6383,15.3802,15.9252,16.3427,16.6729,16.9406
1.16971,11.6613,15.9001,18.0952,19.4243,20.3109,20.9429,21.4155,21.7819,22.0741
0.987939,10.6384,14.4856,16.4327,17.6006,18.378,18.9324,19.3479,19.6708,19.9291
1.14562,12.8515,17.2742,19.4616,20.7636,21.6275,22.2428,22.7033,23.0609,23.3467
0.978937,11.6615,15.7298,17.7794,19.0171,19.8466,20.4415,20.8892,21.2383,21.5182
1.1792,14.5806,19.5421,22.0164,23.4996,24.4877,25.193,25.7217,26.1327,26.4613
1.10278,14.0147,18.6873,21.0159,22.4128,23.3443,24.01,24.5095,24.8981,25.2091
0.98317,12.8499,17.1185,19.2592,20.5483,21.41,22.0267,22.49,22.8508,23.1396
1.06132,14.3895,19.23,21.676,23.1535,24.1426,24.8512,25.3838,25.7987,26.131
1.17525,16.7243,22.4815,25.4084,27.1795,28.3663,29.2168,29.8562,30.3544,30.7535
0.949273,13.1588,17.2676,19.2673,20.4481,21.2271,21.7795,22.1915,22.5106,22.765
1.02861,15.2664,20.5479,23.2873,24.972,26.1149,26.9418,27.5682,28.0591,28.4544
1.0421,16.3315,22.077,25.0102,26.7831,27.9683,28.8156,29.4511,29.9452,30.3403
1.0597,17.2752,23.2718,26.2857,28.0935,29.2976,30.157,30.8011,31.3019,31.7024
1.03685,17.333,23.2135,26.147,27.9042,29.075,29.911,30.5379,31.0256,31.4157
1.00384,17.0016,22.643,25.4547,27.1414,28.2664,29.0705,29.6739,30.1435,30.5193
1.17779,20.8939,28.0987,31.7688,33.997,35.4943,36.5697,37.3797,38.0116,38.5185
1.02165,18.5128,24.7661,27.8987,29.7772,31.0282,31.9207,32.5894,33.1091,33.5244
0.962439,18.2391,24.5716,27.789,29.7371,31.0436,31.9809,32.6861,33.2361,33.6769
0.932854,5.21857,5.57207,5.70007,5.76609,5.80634,5.83345,5.85294,5.86763,5.8791
0.91275,7.9991,11.2217,13.6645,15.6188,17.2253,18.5714,19.7166,20.703,21.5618
0.822575,10.6074,17.0776,21.6849,24.9249,27.2477,28.9597,30.2571,31.2655,32.0668
0.884181,15.0755,24.347,29.6358,32.7661,34.7692,36.143,37.1382,37.8907,38.479
0.885359,17.1549,25.5156,29.3998,31.5375,32.8845,33.813,34.4934,35.0144,35.4266
0.88357,19.5145,28.2812,32.4319,34.8643,36.4788,37.6343,38.5043,39.1838,39.7295
0.907678,20.4686,28.1025,31.5949,33.622,34.9527,35.8944,36.5963,37.1395,37.5725
0.909618,22.7446,31.6752,36.1547,38.8974,40.7578,42.1046,43.1253,43.9258,44.5704
0.903198,23.6745,32.4434,36.7502,39.322,41.0299,42.2453,43.1539,43.8586,44.421
0.914506,24.5815,33.242,37.4896,40.0252,41.7115,42.9144,43.816,44.5168,45.0774
0.876935,24.4432,33.0553,37.3636,39.9631,41.7041,42.952,43.8906,44.6222,45.2085
0.877707,24.9885,33.6148,37.9171,40.5007,42.2239,43.455,44.3784,45.0967,45.6712
0.901401,26.3091,35.3815,39.9369,42.6817,44.517,45.8307,46.8176,47.5862,48.2017
0.91964,27.3483,36.6982,41.3867,44.2065,46.0891,47.4352,48.4454,49.2316,49.8607
0.906719,26.0421,34.3004,38.341,40.7398,42.3287,43.4588,44.3037,44.9593,45.4828
0.871328,26.148,35.1469,39.7842,42.6251,44.5468,45.9341,46.9831,47.8041,48.4643
0.980584,30.4227,41.0382,46.4434,49.7092,51.8926,53.4539,54.6253,55.5364,56.2651
0.90749,28.6681,38.5164,43.4598,46.4251,48.4005,49.8105,50.8674,51.6892,52.3464
0.942061,30.7655,41.4992,46.9305,50.2101,52.4058,53.9792,55.162,56.0838,56.8223
0.919855,29.2611,38.7325,43.3759,46.1311,47.9548,49.251,50.2196,50.9708,51.5704
0.906764,29.6648,39.7414,44.8715,47.992,50.0932,51.6055,52.7463,53.6377,54.3535
1.00388,33.5261,44.982,50.7768,54.2717,56.6071,58.2773,59.5306,60.5056,61.2857
0.876786,30.2005,40.6999,46.0272,49.2456,51.3999,52.9428,54.1022,55.0053,55.7287
0.900727,31.7095,42.6649,48.1778,51.492,53.7033,55.2835,56.469,57.3912,58.129
0.951872,33.6193,44.9248,50.5578,53.9307,56.1766,57.7797,58.9815,59.9159,60.6632
0.924955,33.4617,44.9341,50.7366,54.2451,56.5969,58.2834,59.5522,60.5414,61.3343
0.904852,32.9979,44.1419,49.7261,53.0791,55.3147,56.9114,58.1087,59.0397,59.7843
0.87658,32.1604,42.9502,48.3638,51.6203,53.7954,55.3512,56.5194,57.4288,58.1569
0.914215,34.1097,45.6916,51.5438,55.0772,57.4425,59.1368,60.4102,61.4023,62.1969
0.928775,35.0755,46.9596,52.943,56.5447,58.9501,60.6702,61.9612,62.9658,63.7699
0.994604,38.2701,51.3487,57.9548,61.9397,64.6052,66.5135,67.9472,69.0638,69.958
0.94126,36.7671,49.3036,55.6137,59.411,61.9468,63.76,65.1209,66.18,67.0276
0.914764,35.3632,47.0064,52.791,56.2496,58.5504,60.1915,61.421,62.3766,63.1407
0.923826,36.3586,48.6494,54.8757,58.6453,61.1743,62.9893,64.3553,65.4208,66.2751
0.941092,37.4362,50.0813,56.4535,60.2902,62.8526,64.6846,66.0593,67.1288,67.9846
0.955553,38.8881,52.2448,59.0121,63.1,65.8367,67.797,69.2704,70.4182,71.3376
0.91027,37.6842,50.607,57.1192,61.0386,63.6557,65.5268,66.9311,68.0238,68.8982
0.885259,13.8627,15.2519,15.7774,16.0536,16.2238,16.3393,16.4228,16.4859,16.5354
0.877131,20.4582,28.8667,34.9442,39.6506,43.4246,46.525,49.1197,51.3242,53.221
0.935111,28.7878,43.9986,53.6841,60.0435,64.4101,67.5396,69.8673,71.6534,73.0602
0.886073,32.1015,47.8886,56.1507,60.9405,64.0083,66.1277,67.6765,68.857,69.7868
0.917754,37.4138,54.2038,62.3938,67.1424,70.2464,72.44,74.0759,75.3444,76.3575
0.839041,13.9821,15.6376,16.2109,16.5022,16.6793,16.7986,16.8845,16.9494,17.0001
0.84689,21.2509,30.4526,36.996,42.0607,46.1295,49.4789,52.2872,54.6771,56.7364
0.899912,29.9628,46.2865,56.5685,63.3029,67.9209,71.2271,73.6839,75.5674,77.0497
0.883884,35.011,52.7595,62.0154,67.3855,70.828,73.2079,74.9479,76.2748,77.3202
0.848812,36.9435,53.1674,60.8838,65.3057,68.1758,70.1946,71.6948,72.8551,73.78
0.863026,40.8049,57.5335,65.5786,70.3376,73.5013,75.7628,77.4619,78.786,79.8473
0.882875,43.8886,60.6609,68.7593,73.5748,76.777,79.0621,80.7751,82.1069,83.1721
0.922819,46.6498,63.2736,71.3244,76.1175,79.3035,81.5757,83.2783,84.6016,85.6597
0.8691,15.8941,17.4402,18.01,18.3086,18.4927,18.6176,18.708,18.7763,18.8299
0.879178,22.7319,31.3634,37.3829,41.9337,45.515,48.4127,50.8077,52.8212,54.5381
0.831793,29.4613,45.4722,56.0498,63.2173,68.2636,71.9537,74.7436,76.9137,78.6427
0.909313,39.7494,61.0729,72.7273,79.6093,84.0486,87.1224,89.3686,91.0791,92.4243
0.858096,42.6006,62.6996,72.4429,78.0129,81.611,84.1315,85.9989,87.4396,88.586
0.90341,46.909,65.659,74.3393,79.3462,82.6238,84.9433,86.6738,88.0154,89.0864
0.853359,47.0647,65.1673,73.9394,79.1931,82.7113,85.237,87.1398,88.6252,89.8172
0.913146,52.3435,71.6432,81.1014,86.7706,90.5537,93.2579,95.2871,96.8657,98.1288
0.848034,48.2978,64.8059,72.8212,77.5874,80.7497,83.0014,84.6863,85.9946,87.0399
0.853409,49.8798,67.2389,75.9581,81.2395,84.7865,87.3341,89.2531,90.7508,91.9524
0.913475,45.3973,57.7783,63.5001,66.8025,68.9515,70.4611,71.5794,72.4411,73.1254
0.861381,46.8416,63.3353,72.2542,77.9128,81.8368,84.7224,86.9353,88.6869,90.1083
0.85428,49.522,67.851,77.4389,83.2827,87.1978,89.9964,92.0932,93.7214,95.0213
