2.13186,2.16268,2.17316,2.17843,2.18161,2.18373,2.18525,2.18639,2.18728,2.18799
1.39985,1.88724,2.12992,2.27518,2.37187,2.44086,2.49257,2.53276,2.5649,2.59118
1.26581,2.20717,2.69214,2.9737,3.15489,3.28046,3.37233,3.44234,3.4974,3.54181
1.16443,2.5212,3.20562,3.58328,3.81779,3.97648,4.09067,4.17667,4.24373,4.29745
1.14882,3.01471,3.93207,4.42196,4.72153,4.92283,5.0672,5.17575,5.26032,5.32807
1.0949,3.40864,4.51258,5.08882,5.43839,5.6725,5.84016,5.96612,6.0642,6.14274
1.06789,3.85597,5.13852,5.79634,6.19322,6.45842,6.6481,6.79049,6.90131,6.99001
1.08114,4.45223,5.9538,6.71722,7.17729,7.48472,7.70467,7.86981,7.99838,8.1013
1.07851,4.97577,6.65391,7.50077,8.01012,8.35017,8.59328,8.77575,8.91773,9.03137
1.04241,5.32049,7.11317,8.01589,8.5591,8.92195,9.18148,9.37633,9.52801,9.64943
1.00853,5.60052,7.46533,8.40002,8.96144,9.33602,9.60372,9.80458,9.96086,10.0859
1.01375,6.17392,8.2723,9.33554,9.97845,10.4093,10.7181,10.9504,11.1314,11.2764
0.981066,6.49466,8.71203,9.83203,10.5071,10.9582,11.2809,11.5232,11.7118,11.8627
1.02441,7.43246,10.0322,11.3545,12.1547,12.691,13.0754,13.3644,13.5897,13.7702
0.981739,7.65308,10.2936,11.6194,12.4152,12.9456,13.3243,13.6082,13.8289,14.0055
0.977732,8.19093,11.0257,12.4538,13.3142,13.8894,14.3012,14.6105,14.8514,15.0444
1.02691,9.0922,12.1829,13.7287,14.6563,15.2747,15.7165,16.0478,16.3055,16.5117
0.992382,9.34014,12.538,14.1498,15.122,15.7725,16.2384,16.5886,16.8614,17.0799
0.970979,9.55765,12.7767,14.3883,15.3559,16.0013,16.4624,16.8082,17.0772,17.2924
1.00531,10.4043,13.9277,15.7029,16.7734,17.4896,18.0024,18.3878,18.6879,18.9283
0.963319,10.5326,14.1437,15.9708,17.0741,17.8126,18.3415,18.7389,19.0485,19.2964
0.98015,11.1954,15.0003,16.9123,18.0617,18.8287,19.3768,19.788,20.1079,20.3638
0.986586,11.6381,15.5286,17.4746,18.6427,19.4218,19.9785,20.3961,20.721,20.9811
0.962521,8.79619,10.751,11.6146,12.1019,12.4149,12.633,12.7937,12.917,13.0146
0.957401,10.4776,14.2241,16.3788,17.8026,18.8185,19.5815,20.1761,20.6528,21.0436
0.951255,11.7592,16.3054,18.7537,20.2573,21.2653,21.9845,22.5218,22.9378,23.2689
0.964684,12.9549,17.8469,20.3315,21.8121,22.7911,23.4858,24.0042,24.4059,24.7263
0.93636,13.2862,18.0852,20.4647,21.8795,22.8179,23.4863,23.9868,24.3758,24.6867
0.9523,14.19,19.209,21.7063,23.2032,24.202,24.9164,25.4528,25.8705,26.205
0.982012,15.0368,20.1667,22.7067,24.2262,25.2382,25.9607,26.5024,26.9236,27.2605
0.962461,15.3709,20.6672,23.3324,24.9419,26.0202,26.7932,27.3745,27.8277,28.1908
0.966301,16.068,21.6227,24.4228,26.1116,27.2408,28.049,28.656,29.1285,29.5068
0.9701,16.4409,21.9701,24.7262,26.3771,27.4764,28.2609,28.8488,29.3059,29.6714
0.989551,17.2733,23.119,26.0616,27.8363,29.0239,29.8746,30.514,31.0122,31.4113
0.967884,17.0986,22.7625,25.5911,27.2878,28.4186,29.2261,29.8317,30.3025,30.6791
0.961109,17.4794,23.3709,26.35,28.1507,29.3571,30.222,30.8724,31.3794,31.7856
0.973672,18.2954,24.5332,27.6899,29.5953,30.8699,31.7823,32.4676,33.0012,33.4284
0.976115,18.9825,25.5062,28.8048,30.7941,32.1241,33.076,33.7908,34.3473,34.7928
0.966334,19.0326,25.4018,28.5797,30.4827,31.7495,32.6534,33.3308,33.8574,34.2785
0.964741,19.6861,26.432,29.8512,31.9204,33.3081,34.3036,35.0527,35.6368,36.1051
0.97929,20.5728,27.6239,31.1803,33.3224,34.7533,35.7765,36.5445,37.1421,37.6203
0.965822,20.5134,27.3744,30.7986,32.8501,34.2165,35.1918,35.9229,36.4914,36.946
0.950533,20.8356,27.9465,31.5446,33.72,35.1779,36.2232,37.0095,37.6224,38.1137
0.944539,21.3919,28.7642,32.4938,34.7443,36.2494,37.3267,38.1358,38.7657,39.2699
0.95838,22.2078,29.7975,33.6124,35.9059,37.4364,38.5303,39.3511,39.9896,40.5006
0.94816,22.6657,30.4792,34.4242,36.8038,38.3957,39.5356,40.3921,41.0592,41.5936
0.968312,23.6789,31.7759,35.8426,38.2874,39.919,41.0851,41.9602,42.641,43.1857
0.983246,24.2329,32.3373,36.3815,38.8064,40.4225,41.5767,42.4424,43.1157,43.6543
0.963641,24.3823,32.6828,36.8797,39.4165,41.1164,42.3351,43.2516,43.966,44.5386
0.964903,24.4466,32.5435,36.5827,39.0022,40.6132,41.7626,42.6239,43.2933,43.8285
0.960845,24.8134,33.1561,37.369,39.9136,41.6179,42.8394,43.7579,44.4738,45.0474
0.983283,26.0698,34.9701,39.479,42.2027,44.0258,45.3313,46.3122,47.0762,47.6879
0.958711,26.0159,34.916,39.4072,42.1123,43.9195,45.2119,46.1821,46.9371,47.5414
0.96496,26.8571,36.0825,40.7368,43.5412,45.4155,46.7567,47.7638,48.5479,49.1757
0.978058,27.5624,36.8817,41.5478,44.3482,46.2154,47.5492,48.5495,49.3276,49.9501
0.94394,27.2712,36.606,41.3208,44.1672,46.0728,47.4381,48.4645,49.2642,49.9049
0.928701,27.6552,37.237,42.0874,45.0158,46.9753,48.3783,49.4324,50.2533,50.9106
0.962045,29.0093,38.864,43.7951,46.7522,48.7223,50.1288,51.1832,52.003,52.6586
0.954884,28.9825,38.686,43.537,46.4496,48.393,49.7821,50.8247,51.636,52.2854
0.944022,29.3848,39.4285,44.5145,47.5908,49.6526,51.1311,52.243,53.1098,53.8044
0.949995,29.8628,39.9404,44.9982,48.0371,50.064,51.512,52.598,53.4426,54.1182
0.967437,30.7297,41.0645,46.2575,49.3827,51.4705,52.9641,54.0857,54.9588,55.6578
0.961065,31.0713,41.6103,46.9301,50.1394,52.2864,53.8237,54.9787,55.8783,56.5988
0.941769,30.4726,40.6079,45.6767,48.7172,50.7437,52.1907,53.2757,54.1194,54.7942
0.949365,31.4467,42.1627,47.5973,50.8861,53.0913,54.6729,55.8627,56.7904,57.534
0.952328,32.4739,43.7181,49.423,52.8693,55.1756,56.8269,58.0673,59.0332,59.8066
0.937235,32.4241,43.4965,49.0521,52.3869,54.6098,56.1972,57.3875,58.313,59.0534
0.930373,32.5552,43.5793,49.107,52.4294,54.6474,56.2334,57.424,58.3507,59.0925
0.945612,33.6161,45.0422,50.7974,54.2665,56.5866,58.2475,59.4952,60.467,61.2452
0.950231,34.4864,46.3013,52.2678,55.8669,58.2743,59.9977,61.2922,62.3003,63.1075
0.959635,35.0875,46.9288,52.861,56.4223,58.7968,60.493,61.7651,62.7545,63.546
0.946934,35.0266,46.8622,52.8171,56.4046,58.8031,60.5199,61.8096,62.8139,63.6183
0.940779,35.6998,47.9923,54.2229,57.9893,60.512,62.3197,63.6786,64.7373,65.5855
0.936936,36.1078,48.4641,54.682,58.4218,60.9178,62.7017,64.0401,65.0813,65.9144
0.973335,37.3511,49.762,55.9399,59.6372,62.0984,63.8547,65.171,66.1943,67.0126
0.965213,37.5267,50.1705,56.55,60.403,62.9839,64.8339,66.2252,67.3097,68.1788
0.956311,37.5844,50.2736,56.6702,60.525,63.1014,64.9446,66.3285,67.4057,68.2679
0.960142,37.4481,49.7841,55.9388,59.6265,62.0826,63.8357,65.1499,66.1715,66.9886
0.962499,38.8169,52.2254,59.0802,63.2478,66.0507,68.0654,69.5835,70.7685,71.7193
0.944672,31.3057,39.4004,43.1078,45.2297,46.6029,47.5638,48.2736,48.8194,49.252
0.939912,34.6413,46.8397,53.5409,57.8324,60.8286,63.043,64.7479,66.1016,67.2029
0.928216,36.8596,50.6274,57.8862,62.3189,65.2894,67.4121,69.0017,70.2353,71.2196
0.923109,38.7299,53.1202,60.4387,64.8252,67.7401,69.8161,71.3695,72.5755,73.5391
0.934605,40.7737,55.5864,62.9987,67.4315,70.3808,72.4854,74.063,75.2898,76.2711
0.941766,41.7318,56.302,63.5138,67.8189,70.6821,72.7247,74.2555,75.4456,76.3973
0.965991,43.1417,57.8553,65.1665,69.5513,72.4767,74.5683,76.1383,77.3604,78.3386
0.956311,42.6361,56.8774,63.968,68.2243,71.0642,73.0943,74.6178,75.8033,76.7521
0.962915,43.1347,57.5662,64.8152,69.1851,72.1083,74.2013,75.7739,76.9988,77.9798
0.971796,44.0713,58.976,66.5047,71.0501,74.092,76.2704,77.9072,79.1821,80.203
0.953064,34.65,43.2948,47.2314,49.4823,50.9389,51.9585,52.712,53.2916,53.7512
0.957518,39.1518,53.0088,60.7137,65.6869,69.1774,71.7669,73.7661,75.357,76.6534
0.935971,41.3087,56.8305,65.0452,70.0637,73.4249,75.8246,77.6201,79.0122,80.1222
0.910576,43.0095,59.336,67.7002,72.728,76.0743,78.46,80.2465,81.6345,82.7439
0.932403,45.3113,61.678,69.794,74.6169,77.8122,80.0853,81.7854,83.1051,84.1593
0.952742,46.2388,62.015,69.7566,74.3627,77.4218,79.6026,81.2365,82.5064,83.522
0.95296,47.0321,63.1625,71.2475,76.1263,79.3953,81.7396,83.5034,84.8787,85.9812
0.949522,45.3942,59.9925,67.159,71.424,74.253,76.2665,77.7726,78.9414,79.8749
0.955934,46.7443,62.5812,70.6579,75.5761,78.8895,81.2744,83.0736,84.4794,85.6083
0.950292,47.7222,64.2668,72.6952,77.7968,81.2133,83.6599,85.4977,86.9286,88.074
0.941046,48.3642,65.1932,73.7033,78.8292,82.2524,84.6999,86.5366,87.9658,89.1094
