4.80326,4.89029,4.92001,4.935,4.94404,4.95009,4.95441,4.95766,4.9602,4.96222
2.95184,4.03711,4.58654,4.91833,5.1404,5.29946,5.41899,5.51209,5.58667,5.64774
1.24994,2.20574,2.7003,2.98722,3.17159,3.29917,3.39238,3.46333,3.51907,3.564
1.14695,2.49669,3.17517,3.54851,3.78001,3.93655,4.04916,4.13396,4.20007,4.25304
1.11295,2.96274,3.8871,4.38572,4.69265,4.89982,5.0489,5.16127,5.24899,5.31936
1.09344,3.40909,4.50397,5.07154,5.41421,5.64292,5.80628,5.92876,6.02398,6.10013
1.06059,3.84014,5.12237,5.78324,6.18357,6.45193,6.64434,6.78905,6.90186,6.99227
1.04886,4.35724,5.852,6.61865,7.08289,7.394,7.61699,7.78465,7.91529,8.01995
1.02961,4.7592,6.36455,7.17329,7.65885,7.98254,8.21371,8.38704,8.52183,8.62964
1.02341,5.29797,7.12867,8.06116,8.6261,9.00518,9.27722,9.48198,9.64167,9.76972
1.25115,7.11517,9.55923,10.7937,11.5374,12.0343,12.3897,12.6565,12.8641,13.0302
1.03966,6.41141,8.59556,9.69625,10.3594,10.8027,11.1199,11.3583,11.5438,11.6924
0.999692,6.56721,8.75586,9.85171,10.5099,10.9492,11.2631,11.4986,11.6819,11.8286
0.986468,7.03023,9.44203,10.6711,11.4173,11.9187,12.2788,12.55,12.7617,12.9314
1.00189,7.57226,10.1266,11.4117,12.1845,12.7002,13.0686,13.3449,13.5598,13.7318
1.00824,8.20154,11.0342,12.4772,13.3522,13.9395,14.3611,14.6784,14.926,15.1244
0.982363,8.48199,11.3919,12.8618,13.7475,14.3393,14.7626,15.0804,15.3277,15.5256
0.98635,8.56203,11.2762,12.6078,13.3985,13.9224,14.295,14.5735,14.7897,14.9623
1.01339,9.55655,12.8723,14.592,15.6491,16.3658,16.884,17.2763,17.5837,17.831
0.974383,9.96703,13.5398,15.3791,16.4962,17.2454,17.7823,18.1857,18.4997,18.7511
1.04889,11.3087,15.2673,17.2593,18.4544,19.2502,19.818,20.2436,20.5743,20.8387
1.07338,12.2773,16.5904,18.7696,20.0843,20.9641,21.5944,22.0682,22.4374,22.7332
0.985812,11.7197,15.7385,17.7503,18.9582,19.7638,20.3395,20.7714,21.1073,21.3761
1.12415,13.9694,18.7775,21.2057,22.6727,23.6556,24.3601,24.89,25.303,25.634
1.06271,13.7422,18.4496,20.8222,22.2524,23.2085,23.8926,24.4064,24.8064,25.1266
1.22642,16.3247,21.8422,24.6148,26.2836,27.3985,28.196,28.7948,29.2609,29.6341
1.06114,14.5332,19.4253,21.8896,23.3755,24.3693,25.081,25.6156,26.0321,26.3656
0.997591,14.1495,18.958,21.3942,22.8672,23.8541,24.5614,25.0932,25.5076,25.8397
1.02814,15.0719,20.2034,22.7993,24.3661,25.4142,26.1646,26.7284,27.1673,27.5188
1.0608,15.8789,21.204,23.8794,25.4884,26.5625,27.3304,27.9067,28.3551,28.714
0.96865,15.1884,20.4513,23.1398,24.7728,25.8703,26.6587,27.2524,27.7158,28.0874
0.961052,15.7761,21.3137,24.1343,25.8411,26.9842,27.8032,28.4186,28.8979,29.2818
0.959154,15.0522,19.7259,21.9877,23.3197,24.1971,24.8186,25.282,25.6407,25.9267
0.991293,16.788,22.7121,25.8171,27.7402,29.0513,30.0034,30.7264,31.2945,31.7525
0.954411,17.0694,23.1851,26.3228,28.2229,29.4939,30.4028,31.0845,31.6144,32.0381
0.98453,18.3432,24.843,28.1273,30.1024,31.42,32.3614,33.0677,33.6171,34.0567
1.03978,19.86,26.7128,30.1389,32.1929,33.5618,34.5396,35.273,35.8435,36.3
1.00488,19.9394,26.8954,30.4141,32.5417,33.9679,34.9908,35.7604,36.3604,36.8413
1.1191,22.592,30.2824,34.1313,36.4419,37.9826,39.0831,39.9085,40.5504,41.0638
0.970416,19.0313,25.0591,28.0161,29.775,30.9417,31.7725,32.3942,32.877,33.2627
1.02772,19.8062,26.0198,29.1219,30.9901,32.2402,33.1359,33.8094,34.3343,34.755
0.996203,19.2519,25.4425,28.585,30.4905,31.7696,32.6876,33.3786,33.9173,34.3492
1.02093,19.6747,25.9977,29.1902,31.1147,32.4007,33.3204,34.0108,34.5481,34.9781
1.01596,21.4087,29.2466,33.4052,35.9819,37.7349,39.0047,39.967,40.7214,41.3287
0.985587,22.0695,30.198,34.3655,36.8793,38.5557,39.7519,40.6477,41.3434,41.8991
0.957732,22.6397,30.9431,35.1471,37.6761,39.364,40.5706,41.4763,42.1811,42.7453
1.02285,24.6941,33.3351,37.6223,40.1808,41.8812,43.0935,44.0014,44.707,45.271
0.967301,24.0217,32.3815,36.5745,39.101,40.7917,42.0031,42.9139,43.6238,44.1926
0.984637,24.7712,33.2082,37.4269,39.9624,41.655,42.8652,43.7734,44.4802,45.0459
0.99371,25.9243,34.9812,39.5877,42.3822,44.2589,45.6064,46.6209,47.4123,48.047
1.00799,24.9079,32.6628,36.4229,38.6413,40.104,41.1408,41.9139,42.5125,42.9897
0.969959,25.3329,34.1454,38.7346,41.5662,43.4916,44.887,45.9453,46.7757,47.4447
0.998607,27.2854,37.0119,42.009,45.0401,47.0705,48.5241,49.6153,50.4643,51.1435
0.992195,27.7557,37.4509,42.3306,45.2585,47.2087,48.6004,49.6435,50.4543,51.1027
0.997977,28.2209,37.8462,42.6589,45.5462,47.4717,48.8478,49.8803,50.6839,51.327
1.01921,15.0072,17.1691,18.0345,18.5014,18.7937,18.994,19.1398,19.2507,19.3379
0.94756,19.0046,26.4589,31.3857,34.9685,37.7083,39.8766,41.637,43.0958,44.3246
0.965991,24.0553,35.4282,42.1951,46.5148,49.4506,51.5511,53.1172,54.3243,55.2801
0.929378,26.2876,38.0458,44.1294,47.7046,50.0307,51.6591,52.8614,53.7855,54.5179
0.943832,28.864,40.6662,46.4384,49.8176,52.039,53.6135,54.7893,55.7015,56.4302
0.958109,30.6554,42.2583,47.8869,51.2211,53.4343,55.013,56.1967,57.1176,57.8545
0.99212,32.4135,43.969,49.6105,52.9783,55.2221,56.8255,58.0288,58.9652,59.7147
0.961921,32.4712,44.0044,49.7714,53.2561,55.5931,57.2699,58.5317,59.5158,60.3047
1.06188,36.3334,48.9122,55.1908,58.9666,61.4878,63.2903,64.643,65.6955,66.5378
0.961052,31.4416,41.3911,46.2359,49.1096,51.0124,52.3653,53.3767,54.1615,54.7881
0.990523,33.5528,45.0492,50.976,54.6132,57.0768,58.8573,60.2045,61.2598,62.1087
0.919853,31.0797,41.4693,46.6948,49.8336,51.9245,53.416,54.533,55.4006,56.0937
0.961523,34.1055,46.2289,52.4891,56.3118,58.889,60.7444,62.1443,63.238,64.1163
0.948937,34.3857,46.4118,52.4805,56.1266,58.5563,60.2903,61.5895,62.5992,63.4063
0.952392,35.4927,47.9643,54.2732,58.0799,60.6272,62.4518,63.8231,64.8916,65.7476
0.973766,37.0922,50.0668,56.6161,60.5649,63.2057,65.0962,66.5163,67.6221,68.5077
0.976985,34.3038,44.6964,49.675,52.5962,54.5169,55.8761,56.8886,57.672,58.2963
0.965917,35.1994,47.1163,53.2974,57.1098,59.7029,61.5829,63.0092,64.1287,65.0309
0.990163,37.9827,51.6043,58.6825,63.007,65.9174,68.0076,69.5804,70.8064,71.7885
0.948158,34.3251,45.1505,50.399,53.4817,55.5064,56.9373,58.0018,58.8246,59.4796
0.923393,31.5276,41.0911,45.815,48.6468,50.5382,51.8926,52.9108,53.7045,54.3408
0.916693,34.1365,46.5075,53.1423,57.2965,60.1445,62.2191,63.7977,65.0392,66.0411
0.917343,36.0809,49.3811,56.2478,60.402,63.175,65.1536,66.6349,67.7848,68.703
0.930632,37.6643,51.1499,57.9191,61.9663,64.6558,66.5724,68.0075,69.1225,70.0136
0.931063,39.1087,53.1578,60.2509,64.5282,67.391,69.4424,70.9848,72.1871,73.1506
0.920936,39.8272,53.9989,61.1281,65.4195,68.2868,70.338,71.8781,73.0769,74.0365
0.959304,41.8417,56.3016,63.5199,67.8506,70.7386,72.802,74.35,75.5543,76.518
0.95035,41.7517,55.9968,63.1344,67.4305,70.3019,72.357,73.9008,75.103,76.0658
0.928678,41.5602,55.9354,63.2259,67.6417,70.6043,72.7298,74.3293,75.5765,76.5763
0.925621,38.8669,50.9189,56.7706,60.2267,62.5075,64.125,65.3318,66.2665,67.0119
0.918273,38.1281,50.3826,56.5928,60.3681,62.9109,64.7415,66.1231,67.2031,68.0707
0.936149,41.5137,56.4866,64.3923,69.2812,72.6018,75.0035,76.8209,78.2438,79.388
0.935165,43.2415,58.9436,66.9889,71.8455,75.0866,77.4005,79.1342,80.4812,81.5576
0.946497,44.1837,59.5699,67.2431,71.8233,74.8653,77.0326,78.6552,79.9156,80.923
0.938465,44.7959,60.4562,68.3523,73.1174,76.3088,78.5969,80.318,81.6599,82.7356
0.894901,17.974,20.0538,20.8527,21.2757,21.5377,21.7159,21.8449,21.9427,22.0193
0.937234,27.1556,38.2147,45.9737,51.8601,56.5072,60.2776,63.4012,66.0327,68.2806
0.918659,33.969,51.0608,61.6031,68.4213,73.0696,76.391,78.8592,80.7536,82.2471
0.928332,38.22,55.3057,63.9768,68.9672,72.1614,74.3706,75.9873,77.2213,78.1943
0.919029,42.0855,60.1164,69.065,74.3502,77.8499,80.3455,82.2186,83.678,84.8479
0.945876,46.7828,65.7321,75.0289,80.5549,84.2287,86.851,88.8179,90.3479,91.5722
0.92318,47.7546,65.9056,74.7676,80.0464,83.5576,86.0633,87.9418,89.4025,90.571
0.933284,49.5213,67.4722,76.2958,81.5792,85.1032,87.6225,89.5137,90.9857,92.1641
0.953881,51.8808,70.3842,79.6135,85.1775,88.9021,91.5708,93.5772,95.1407,96.3933
0.944687,50.9225,68.1728,76.6924,81.7881,85.1796,87.5994,89.4127,90.8221,91.9491
