1.93721,1.98071,1.99564,2.0032,2.00775,2.01081,2.01299,2.01463,2.01591,2.01693
1.37956,1.89497,2.15611,2.31386,2.41946,2.4951,2.55195,2.59623,2.6317,2.66075
0.612342,0.782764,0.838462,0.864794,0.879903,0.889639,0.896413,0.901389,0.905195,0.908197
0.649812,1.36816,1.87119,2.24229,2.52804,2.75516,2.94016,3.09381,3.2235,3.33444
0.667756,2.01875,2.98861,3.60758,4.01257,4.29023,4.48925,4.63745,4.75135,4.84123
0.697671,2.75057,4.06077,4.76989,5.1893,5.46171,5.65182,5.79181,5.89913,5.98404
0.724057,3.36677,4.7655,5.44446,5.83537,6.08935,6.26796,6.4006,6.50311,6.58475
0.714652,3.78623,5.23629,5.93769,6.35213,6.62729,6.82377,6.97128,7.08617,7.17821
0.723343,4.3353,5.96164,6.76853,7.25462,7.58055,7.81451,7.99067,8.12811,8.23834
0.746827,4.92188,6.70145,7.58467,8.11523,8.46949,8.72282,8.91295,9.0609,9.17931
0.889677,6.40463,8.69526,9.84477,10.5389,11.0038,11.3371,11.5876,11.783,11.9395
0.901269,6.9314,9.33579,10.5355,11.2561,11.737,12.0806,12.3384,12.539,12.6995
0.876721,7.19166,9.67453,10.9248,11.6799,12.1856,12.5482,12.8208,13.0333,13.2036
0.77769,6.86993,9.28456,10.5133,11.2585,11.7588,12.1178,12.3879,12.5986,12.7675
0.792161,7.28273,9.74595,10.9764,11.7139,12.205,12.5555,12.8182,13.0224,13.1856
0.928584,8.92186,11.9279,13.4417,14.3552,14.9669,15.4052,15.7347,15.9916,16.1974
0.879742,8.87769,11.8977,13.4294,14.3565,14.9781,15.4238,15.759,16.0203,16.2297
0.83004,8.98802,12.1621,13.7915,14.7829,15.4495,15.9284,16.289,16.5703,16.7959
0.798764,8.99789,12.0943,13.6526,14.5888,15.213,15.6587,15.9928,16.2527,16.4604
0.857045,9.88924,13.1961,14.8501,15.8433,16.506,16.9798,17.3355,17.6123,17.8339
0.82743,10.1486,13.6936,15.5112,16.6186,17.3645,17.9012,18.3059,18.622,18.8757
0.824874,9.86259,12.9583,14.4684,15.361,15.9502,16.368,16.6796,16.921,17.1133
0.830413,10.5744,14.2094,16.0934,17.2518,18.0377,18.6062,19.0369,19.3745,19.6463
0.862373,11.5278,15.5419,17.5948,18.8381,19.6704,20.2662,20.7134,21.0614,21.3399
0.8853,12.2163,16.3999,18.5091,19.7773,20.6235,21.2281,21.6817,22.0346,22.3169
0.822733,12.0989,16.4141,18.6286,19.9761,20.8827,21.5344,22.0256,22.4091,22.7168
0.868028,13.396,18.1505,20.5599,22.0126,22.9833,23.6775,24.1985,24.6039,24.9283
0.828051,13.3164,18.003,20.3682,21.7935,22.7464,23.4283,23.9406,24.3395,24.6589
0.903146,15.0779,20.3515,23.0127,24.6179,25.6919,26.461,27.0389,27.4891,27.8496
0.863804,14.9357,20.1333,22.7557,24.3375,25.3957,26.1534,26.7227,27.1661,27.5211
0.860774,15.0927,20.1958,22.7487,24.2818,25.3046,26.0356,26.5841,27.0109,27.3524
0.864893,15.7411,21.1865,23.9571,25.6381,26.7674,27.5784,28.1891,28.6657,29.0479
0.892495,16.8634,22.7547,25.7513,27.5649,28.7801,29.6509,30.3055,30.8154,31.2238
0.872841,16.8171,22.5771,25.4746,27.2173,28.3805,29.212,29.836,30.3215,30.71
0.902642,17.9029,24.0813,27.2131,29.1076,30.3776,31.2883,31.9735,32.5076,32.9358
0.856263,17.552,23.657,26.7563,28.6309,29.8867,30.7867,31.4633,31.9904,32.4126
0.881149,18.4377,24.772,27.9661,29.8903,31.1762,32.0961,32.7868,33.3245,33.755
0.867634,17.7993,23.5612,26.4115,28.113,29.244,30.0503,30.6543,31.1236,31.4987
0.877297,18.124,24.0942,27.1185,28.9525,30.1848,31.0702,31.7373,32.258,32.6759
0.878912,19.2263,26.0515,29.6051,31.7857,33.2597,34.3224,35.1248,35.7521,36.2558
0.884252,20.0421,27.1302,30.7384,32.9145,34.3674,35.4055,36.1839,36.7891,37.2731
0.917281,21.3921,28.88,32.6594,34.9343,36.4537,37.5404,38.3563,38.9914,39.4999
0.86887,20.3302,27.1865,30.6054,32.6538,34.0188,34.9935,35.7246,36.2932,36.7481
0.888772,20.9848,28.0326,31.5801,33.7212,35.1551,36.1829,36.9558,37.5582,38.041
0.911542,22.2762,30.0148,33.9751,36.3842,38.0045,39.1688,40.0459,40.7304,41.2795
0.912036,23.1362,31.311,35.4877,38.0192,39.7164,40.933,41.8475,42.5601,43.1309
0.870828,22.2565,29.8662,33.6824,35.9722,37.4981,38.5876,39.4045,40.0397,40.5477
0.872338,22.3622,29.8671,33.6307,35.8951,37.4082,38.4911,39.3045,39.938,40.4453
0.865478,22.9634,30.9533,35.0413,37.5285,39.202,40.4051,41.3117,42.0195,42.5873
0.888497,23.3321,31.0648,34.9167,37.2199,38.7511,39.8422,40.659,41.2934,41.8002
0.922988,25.3102,34.1933,38.7671,41.5609,43.4461,44.8045,45.83,46.6319,47.276
0.901958,25.011,33.5835,37.9012,40.4958,42.2255,43.4603,44.3857,45.1049,45.6799
0.901591,25.839,34.8991,39.5185,42.3201,44.2011,45.5515,46.5683,47.3615,47.9976
0.899742,26.3315,35.4828,40.1061,42.8921,44.7537,46.0853,47.0849,47.8629,48.4855
0.884101,26.066,34.9438,39.4008,42.081,43.8707,45.1505,46.1113,46.8591,47.4578
0.908821,26.5224,35.3016,39.6926,42.3317,44.0939,45.3543,46.3005,47.0371,47.6269
0.88993,27.0943,36.6082,41.5143,44.5132,46.5371,47.9952,49.0958,49.956,50.6469
0.882339,27.5545,37.2073,42.11,45.0686,47.0456,48.4593,49.5201,50.3452,51.0053
0.900804,27.6932,36.8646,41.4123,44.126,45.9287,47.2133,48.1751,48.9223,49.5195
0.865783,27.7113,37.4287,42.4258,45.4784,47.539,49.0243,50.146,51.0232,51.728
0.899435,29.4117,39.6716,44.8746,48.0138,50.1119,51.6123,52.7381,53.614,54.3147
0.899253,29.7029,39.8821,44.9993,48.0761,50.1297,51.5979,52.6997,53.5572,54.2435
0.877506,29.9185,40.424,45.7795,49.0291,51.2116,52.7789,53.9591,54.8798,55.6183
0.882685,30.3572,40.8038,46.0645,49.2304,51.3443,52.8555,53.9895,54.8718,55.5779
0.86642,30.768,41.6004,47.122,50.4713,52.7201,54.3345,55.5498,56.4979,57.2581
0.893299,31.0377,41.2808,46.3493,49.3707,51.376,52.8038,53.872,54.7012,55.3636
0.849391,29.7641,39.7634,44.8245,47.8908,49.9498,51.4287,52.5426,53.412,54.1095
0.862407,30.3844,40.6273,45.8168,48.9544,51.0558,52.5613,53.6928,54.5743,55.2802
0.89051,32.6656,44.2118,50.1584,53.7828,56.2225,57.9766,59.2984,60.3302,61.158
0.90015,34.3468,46.6811,52.9874,56.8052,59.3622,61.1935,62.5695,63.6409,64.4988
0.892034,34.6199,46.7683,52.8795,56.5501,58.9979,60.7464,62.0579,63.078,63.8941
0.892931,34.4525,46.067,51.8449,55.3039,57.6078,59.2529,60.4865,61.446,62.2137
0.899212,35.4421,47.6956,53.9304,57.7173,60.2638,62.0942,63.4736,64.5506,65.4147
0.887533,35.3765,47.5375,53.6864,57.3967,59.878,61.6536,62.9869,64.0248,64.8555
0.900716,35.3285,47.0102,52.8345,56.3241,58.6485,60.3079,61.5519,62.5192,63.2929
0.874554,35.4862,47.887,54.2708,58.1707,60.8023,62.6984,64.1298,65.2488,66.1476
0.880733,36.8497,49.8976,56.56,60.5933,63.2942,65.2282,66.681,67.812,68.7173
0.867832,36.7653,49.5356,55.9647,59.8288,62.4066,64.2484,65.6301,66.7049,67.5649
0.866762,36.0087,47.9029,53.7992,57.3224,59.666,61.3379,62.5908,63.5648,64.3436
0.898672,37.1407,49.4409,55.6362,59.3797,61.8893,63.6894,65.0439,66.1003,66.9472
0.872199,37.5874,50.8705,57.7488,61.9597,64.803,66.8518,68.398,69.6065,70.5768
0.878337,38.3903,51.7486,58.5063,62.5722,65.2836,67.2194,68.6703,69.7979,70.6995
0.891982,40.0297,54.1431,61.3232,65.6691,68.5827,70.6723,72.2444,73.4702,74.4528
0.888343,39.3366,52.5202,59.072,62.9866,65.5889,67.444,68.8331,69.9123,70.7748
0.879829,40.2243,54.3266,61.5522,65.9564,68.9248,71.0621,72.6749,73.9353,74.9474
0.884258,39.4792,52.5057,58.9673,62.8223,65.3811,67.2026,68.5649,69.6222,70.4664
0.87522,40.7165,55.0961,62.5236,67.0715,70.1457,72.3637,74.0401,75.3517,76.4062
0.873744,40.2098,53.759,60.5302,64.581,67.2733,69.1911,70.6261,71.7399,72.6295
0.873938,41.595,56.2393,63.7487,68.3221,71.402,73.6182,75.2897,76.5956,77.6441
0.891173,43.6507,59.1435,67.0318,71.8019,74.995,77.2814,78.9987,80.3358,81.4063
0.875463,43.567,58.8181,66.5064,71.1331,74.2225,76.4315,78.0895,79.3798,80.4126
0.893318,43.3835,57.6945,64.7674,68.9864,71.7896,73.7877,75.2841,76.4468,77.3762
0.872147,42.7142,57.1679,64.508,68.9655,71.9635,74.1192,75.7442,77.0131,78.0316
0.889109,43.6852,58.4773,65.9682,70.4941,73.5233,75.6923,77.3217,78.5903,79.606
0.927582,44.9007,59.7437,67.1872,71.6597,74.6437,76.7761,78.376,79.6207,80.6167
0.885037,44.8663,60.8288,69.1099,74.1846,77.6145,80.0881,81.9567,83.4181,84.5924
0.875839,45.6861,61.9706,70.2678,75.2775,78.6254,81.0191,82.8149,84.2117,85.329
0.886129,45.541,60.8774,68.4869,73.026,76.0405,78.1881,79.7959,81.0447,82.0428
0.916021,48.2526,65.0506,73.6124,78.8164,82.3182,84.8369,86.7361,88.2196,89.4104
0.906871,47.387,63.3967,71.4285,76.2542,79.4729,81.7721,83.4963,84.837,85.9093
