2.00503,2.02012,2.0252,2.02775,2.02928,2.03031,2.03104,2.03159,2.03202,2.03236
1.53515,2.03836,2.28567,2.43271,2.53017,2.59952,2.65138,2.69163,2.72377,2.75004
1.28666,2.23064,2.72048,3.00676,3.1919,3.32068,3.41516,3.48732,3.54418,3.5901
1.22224,2.61694,3.31376,3.69582,3.93196,4.09119,4.20546,4.29133,4.35816,4.41162
1.11653,2.783,3.54996,3.94695,4.18566,4.34442,4.45749,4.54208,4.60775,4.6602
1.12423,3.41067,4.51414,5.10371,5.46777,5.71477,5.89338,6.02855,6.13443,6.21962
1.41714,5.0667,6.78403,7.67496,8.21416,8.57453,8.83207,9.02518,9.1753,9.29531
1.41654,5.83595,7.8419,8.86308,9.4771,9.88652,10.1789,10.3982,10.5687,10.7051
1.04019,4.76148,6.34951,7.14065,7.61267,7.92618,8.14957,8.31682,8.44673,8.55056
1.05034,5.01031,6.52547,7.25836,7.69071,7.97614,8.17874,8.33003,8.44732,8.54092
1.03291,5.66855,7.63563,8.6652,9.30213,9.7359,10.0506,10.2894,10.4769,10.628
1.03978,6.24457,8.37702,9.45244,10.0971,10.5255,10.8304,11.0583,11.235,11.376
1.02181,6.80559,9.19391,10.4071,11.1398,11.6303,11.9816,12.2457,12.4515,12.6165
1.04892,7.61624,10.2731,11.6081,12.4094,12.9434,13.3248,13.6107,13.833,14.0108
0.99445,6.87917,8.84888,9.77135,10.3061,10.6553,10.9011,11.0837,11.2246,11.3366
1.01333,7.9582,10.7307,12.201,13.1214,13.754,14.2162,14.5689,14.847,15.072
1.06754,9.1426,12.376,14.0323,15.0325,15.6995,16.1751,16.5309,16.8069,17.0272
0.984571,9.20523,12.5054,14.1796,15.1873,15.8596,16.34,16.7004,16.9808,17.2052
1.16072,11.3339,15.1821,17.0794,18.2065,18.953,19.4839,19.8807,20.1887,20.4346
1.10439,11.5406,15.5396,17.5534,18.7691,19.5838,20.168,20.6076,20.9504,21.2253
0.9891,10.9282,14.6915,16.5777,17.7107,18.4665,19.0065,19.4115,19.7264,19.9783
0.978907,11.2316,15.0068,16.8842,18.0078,18.7558,19.2895,19.6895,20.0004,20.2491
0.993084,11.9896,16.0745,18.1313,19.3719,20.2022,20.797,21.2441,21.5924,21.8714
0.823711,3.72366,4.0336,4.14833,4.2081,4.24476,4.26954,4.28741,4.3009,4.31145
0.950182,6.79673,9.63853,11.7719,13.4695,14.8597,16.0214,17.0073,17.855,18.5918
0.910095,9.16888,14.3739,17.8461,20.1818,21.8056,22.9765,23.8498,24.5203,25.0481
0.917961,10.7937,15.9617,18.5722,20.0377,20.9533,21.574,22.0212,22.3583,22.6215
0.839937,11.7456,17.2156,19.9306,21.5248,22.5779,23.3289,23.893,24.3331,24.6864
0.844217,13.254,18.889,21.5944,23.1806,24.227,24.9702,25.5257,25.9567,26.3008
0.887324,15.0926,21.0075,23.8412,25.5166,26.6275,27.4188,28.0115,28.4721,28.8403
0.854377,15.0026,20.3421,22.8889,24.3942,25.3909,26.1,26.6304,27.0422,27.3711
0.952297,17.5732,23.7945,26.8725,28.7284,29.9721,30.8643,31.5357,32.0594,32.4793
1.08494,21.0717,28.5391,32.2751,34.5275,36.0337,37.1117,37.9212,38.5513,39.0557
0.910892,18.2374,24.5319,27.6579,29.5296,30.7755,31.6644,32.3305,32.8481,33.262
0.924035,18.6634,24.8622,27.9213,29.7479,30.9625,31.8287,32.4776,32.982,33.3853
0.918812,18.4361,24.3546,27.2763,29.023,30.1857,31.0157,31.6379,32.1217,32.5087
0.926258,19.6246,26.4052,29.8893,32.0176,33.4535,34.4879,35.2686,35.8788,36.3688
0.871646,18.9346,25.3821,28.6203,30.562,31.8539,32.7748,33.4641,33.9993,34.4268
0.941398,21.313,28.7057,32.4435,34.698,36.2061,37.2858,38.0972,38.7292,39.2354
0.992748,22.9145,30.6829,34.5564,36.8741,38.4162,39.5161,40.34,40.9802,41.492
0.969394,22.7807,30.4315,34.2522,36.5449,38.0742,39.1673,39.9875,40.6258,41.1366
0.942251,22.2888,29.6425,33.3056,35.5014,36.9648,38.01,38.7938,39.4035,39.8912
0.944755,23.125,31.0017,34.9952,37.4127,39.0339,40.1968,41.0716,41.7537,42.3005
0.943974,23.6319,31.6445,35.6696,38.0875,39.6996,40.8508,41.7139,42.3849,42.9215
0.94395,24.2069,32.427,36.5567,39.04,40.6978,41.8831,42.7728,43.4652,44.0193
0.943414,24.7423,33.1366,37.3506,39.8839,41.5749,42.7837,43.691,44.3969,44.9619
0.930868,24.2565,32.1658,36.0783,38.4124,39.9631,41.068,41.8953,42.5379,43.0514
0.968297,25.477,33.8599,38.0674,40.6029,42.2992,43.5142,44.4275,45.1391,45.7092
0.972815,26.3849,35.3435,39.8936,42.6479,44.4942,45.8178,46.8131,47.5886,48.21
0.950015,24.7214,32.4096,36.1572,38.3719,39.8335,40.8699,41.643,42.2417,42.7191
0.96937,26.2973,35.1949,39.7685,42.5655,44.4557,45.8196,46.8505,47.6573,48.306
0.992461,27.4185,36.6622,41.3233,44.1242,45.9905,47.322,48.3193,49.0939,49.7129
0.954114,26.6558,35.5521,40.0059,42.6764,44.4558,45.7263,46.6789,47.4198,48.0124
0.939692,27.2084,36.5748,41.329,44.2051,46.1329,47.5153,48.5551,49.3656,50.0152
0.950546,28.6269,38.6435,43.7182,46.7792,48.8254,50.2894,51.3884,52.2438,52.9285
0.978581,29.8577,39.9932,45.0343,48.045,50.0454,51.4709,52.538,53.3668,54.0291
0.988086,29.4475,38.8594,43.4686,46.207,48.0224,49.3147,50.2816,51.0324,51.6322
0.973136,30.1131,40.3697,45.609,48.8019,50.9541,52.5041,53.6737,54.5879,55.3221
1.00625,29.4042,38.3959,42.7549,45.323,47.0138,48.2106,49.1018,49.7912,50.3402
0.951488,14.5801,16.6177,17.4501,17.9045,18.1914,18.389,18.5336,18.6439,18.7309
1.00311,21.3064,29.7656,35.4352,39.5885,42.78,45.3143,47.3775,49.0907,50.5363
0.950155,24.0084,34.6328,40.7291,44.5222,47.0534,48.84,50.1582,51.166,51.9586
0.951356,28.2922,41.1884,48.0156,52.0984,54.7906,56.695,58.1129,59.2098,60.084
0.897055,29.0501,41.0403,46.8876,50.2896,52.5127,54.0804,55.246,56.147,56.8646
0.935673,30.5809,41.5232,46.6628,49.6522,51.6144,53.0036,54.0398,54.8427,55.4833
1.00814,34.6303,47.113,53.292,57.0216,59.5274,61.3294,62.6884,63.7502,64.6029
0.952514,34.9761,47.9305,54.4802,58.4518,61.118,63.0309,64.4699,65.5916,66.4903
0.958865,36.685,49.9388,56.5394,60.4907,63.1188,64.9922,66.3949,67.4843,68.3547
0.914227,32.8729,43.1065,47.9568,50.7906,52.6497,53.9635,54.9413,55.6975,56.2998
0.919911,34.829,46.8661,53.0614,56.8718,59.4595,61.3339,62.755,63.8698,64.768
0.914089,35.1652,47.1579,53.1861,56.8056,59.2152,60.9326,62.218,63.2156,64.0122
0.946308,37.6878,50.824,57.477,61.4939,64.182,66.1071,67.5538,68.6809,69.5837
0.928231,38.3097,51.7834,58.5863,62.683,65.4192,67.3757,68.8441,69.9868,70.9013
0.912721,38.2378,51.3614,57.8985,61.8083,64.409,66.2637,67.6532,68.7329,69.596
0.905141,36.0117,47.2093,52.62,55.8119,57.9186,59.4136,60.5297,61.3947,62.0849
0.860476,15.7585,17.6832,18.4478,18.8606,19.1195,19.2971,19.4267,19.5253,19.603
0.885843,23.2016,32.5761,39.0754,43.9554,47.7756,50.8538,53.3893,55.5152,57.3237
0.897276,29.9618,44.8561,53.9569,59.8109,63.7903,66.6295,68.7379,70.3558,71.6313
0.90416,35.3036,52.0673,60.8168,65.9324,69.2394,71.542,73.2351,74.5321,75.5576
0.904054,38.8502,55.4643,63.5048,68.1594,71.1971,73.3402,74.9356,76.1708,77.1559
0.905148,40.5376,55.9988,63.3213,67.604,70.4272,72.4327,73.9323,75.0964,76.0266
0.883379,40.6788,55.301,62.3616,66.5649,69.364,71.3642,72.8656,74.0343,74.9699
0.901169,42.7868,57.9281,65.4101,69.9098,72.9191,75.074,76.6933,77.9546,78.9649
0.915093,43.8944,58.9222,66.3416,70.7828,73.7401,75.8506,77.4322,78.6617,79.6447
0.934534,45.6312,61.2461,69.0519,73.7516,76.8932,79.1418,80.8308,82.1461,83.1995
0.918254,45.5094,61.028,68.802,73.4779,76.5998,78.832,80.5072,81.8108,82.8541
0.901203,45.5639,61.1889,69.0467,73.7792,76.9414,79.2038,80.9025,82.2248,83.2835
0.911264,46.7233,62.6538,70.639,75.436,78.636,80.9224,82.6377,83.972,85.0396
0.904135,46.9239,62.8528,70.8344,75.6301,78.8303,81.1179,82.8344,84.1702,85.2391
0.92041,48.1601,64.4016,72.5329,77.417,80.6757,83.0047,84.7522,86.1118,87.1999
0.949628,49.0829,65.1444,73.1125,77.8761,81.045,83.3054,84.999,86.3152,87.3676
0.901816,47.2246,63.068,71.0751,75.9168,79.1625,81.4902,83.2414,84.6067,85.7011
0.995052,52.6702,70.4189,79.3588,84.7403,88.3336,90.9024,92.8298,94.3292,95.5289
0.979858,51.7744,68.9607,77.5483,82.6959,86.1248,88.5727,90.4077,91.8345,92.9756
0.937415,49.5548,65.9716,74.1983,79.1435,82.445,84.8059,86.5782,87.9577,89.0619
0.956325,52.0165,69.9052,79.0103,84.5282,88.2302,90.8861,92.8844,94.4425,95.6913
0.914247,49.7562,66.442,74.7692,79.7501,83.0616,85.4218,87.1886,88.5608,89.6572
0.929497,51.2261,68.5424,77.25,82.4933,85.9982,88.507,90.3917,91.8596,93.0352
0.99073,55.1705,73.8164,83.1813,88.813,92.5726,95.2603,97.2773,98.8468,100.103
0.981951,55.5264,74.4234,83.9381,89.6679,93.4965,96.2355,98.2921,99.8931,101.175
