1.88718,1.91633,1.92625,1.93125,1.93426,1.93627,1.93771,1.9388,1.93964,1.94031
1.4417,1.95468,2.21192,2.36648,2.4696,2.54331,2.5986,2.64162,2.67605,2.70422
1.30715,2.26455,2.75024,3.02954,3.20815,3.33141,3.42129,3.48961,3.54325,3.58644
1.18756,2.56902,3.2688,3.65708,3.89929,4.06379,4.18251,4.27212,4.34211,4.39828
1.88371,4.90255,6.37393,7.15651,7.63381,7.95388,8.18309,8.35521,8.48918,8.59639
1.09915,3.40049,4.49964,5.0755,5.42581,5.66092,5.82954,5.95638,6.05525,6.13447
1.07752,3.86222,5.14329,5.80126,6.19845,6.4639,6.65376,6.79628,6.90718,6.99595
1.05903,4.26169,5.65804,6.3618,6.78388,7.06509,7.26585,7.41636,7.5334,7.62701
1.03455,4.69238,6.27226,7.07663,7.56351,7.89003,8.12426,8.30051,8.43794,8.54812
1.02237,5.15167,6.89664,7.78038,8.31333,8.66962,8.92455,9.11596,9.26495,9.38422
1.01542,5.64935,7.58046,8.55871,9.14919,9.54426,9.82715,10.0397,10.2053,10.3378
1.0163,6.18052,8.29438,9.36176,10.005,10.4348,10.7424,10.9734,11.1532,11.2971
1.02399,6.73194,9.02066,10.1725,10.8658,11.3288,11.66,11.9087,12.1022,12.2572
1.13934,8.02912,10.7407,12.1035,12.9236,13.4714,13.8633,14.1574,14.3864,14.5698
1.11335,8.46614,11.3696,12.8406,13.7298,14.3255,14.7524,15.0734,15.3236,15.524
0.984284,8.00353,10.7446,12.1271,12.9599,13.5163,13.9143,14.213,14.4455,14.6316
0.97423,8.28407,11.0436,12.4204,13.2454,13.7948,14.1871,14.4812,14.7098,14.8927
0.972701,8.76928,11.7357,13.2356,14.1423,14.7501,15.1859,15.5137,15.7692,15.9741
0.976421,9.33006,12.517,14.1307,15.1054,15.7577,16.2249,16.5758,16.8492,17.068
1.15547,11.607,15.5531,17.541,18.7377,19.5368,20.1083,20.5372,20.871,21.1381
1.11165,11.8569,15.9526,18.0285,19.283,20.1231,20.7251,21.1776,21.5302,21.8127
1.03843,11.5755,15.5205,17.5012,18.6912,19.485,20.0521,20.4774,20.8083,21.073
0.959146,11.1694,14.9681,16.8794,18.0304,18.7998,19.3504,19.7639,20.086,20.3438
1.03761,12.6674,17.0119,19.2087,20.5353,21.4235,22.0597,22.538,22.9105,23.2089
0.952055,12.1486,16.3175,18.4213,19.6894,20.537,21.1436,21.599,21.9536,22.2374
1.0292,13.6638,18.3361,20.6897,22.1072,23.0544,23.732,24.2409,24.637,24.9541
1.07582,14.6709,19.5926,22.0542,23.5314,24.5163,25.2199,25.7476,26.1581,26.4865
0.962456,13.7931,18.5519,20.9707,22.4364,23.4201,24.1261,24.6575,25.0719,25.4042
1.11037,16.2241,21.6573,24.3723,25.9992,27.0825,27.8553,28.4345,28.8845,29.2443
0.959103,14.4854,19.3804,21.8501,23.3407,24.3386,25.0537,25.5912,26.0102,26.3458
1.05274,16.3398,21.8453,24.6181,26.2884,27.4046,28.2031,28.8027,29.2694,29.643
1.0215,16.3967,21.9723,24.7921,26.4945,27.634,28.4501,29.0634,29.5411,29.9238
1.0117,16.9446,22.8,25.7709,27.5663,28.7684,29.6296,30.2767,30.7808,31.1846
1.0249,17.6927,23.7485,26.7946,28.626,29.848,30.7213,31.3765,31.8862,32.294
1.05683,18.8937,25.3906,28.669,30.6459,31.9681,32.9147,33.626,34.18,34.6237
0.955658,17.6286,23.6794,26.7281,28.5646,29.792,30.6701,31.3295,31.8428,32.2537
0.947441,17.9129,24.0184,27.0901,28.9396,30.1755,31.0597,31.7237,32.2406,32.6544
0.947151,18.3264,24.5431,27.6704,29.5536,30.8121,31.7126,32.3888,32.9152,33.3367
0.970425,19.2283,25.7577,29.0506,31.0365,32.365,33.3161,34.0306,34.5872,35.0328
1.01934,20.8734,28.0456,31.6764,33.8692,35.337,36.3883,37.1784,37.7937,38.2866
1.03546,21.68,29.0584,32.7675,34.9978,36.4863,37.5502,38.3485,38.9695,39.4664
0.991296,21.3925,28.7347,32.4438,34.682,36.1798,37.2525,38.0587,38.6866,39.1896
0.99798,21.8606,29.2329,32.9255,35.1423,36.6205,37.6765,38.4684,39.0844,39.5771
0.943478,21.0356,28.1274,31.6966,33.8477,35.2863,36.3164,37.0903,37.6931,38.1759
0.955382,10.3588,11.6957,12.2229,12.5051,12.6809,12.8009,12.8881,12.9542,13.0062
0.978992,15.0194,21.0183,25.1054,28.1399,30.4963,32.3835,33.9306,35.2226,36.3182
0.933993,18.0982,26.8537,32.1314,35.51,37.804,39.4413,40.6583,41.5935,42.3318
0.95965,21.4791,31.3116,36.4095,39.3942,41.3285,42.6786,43.6732,44.4362,45.0403
0.964049,23.4869,33.1756,37.8762,40.6106,42.4013,43.6676,44.6116,45.3433,45.9273
0.984996,25.4778,35.2628,40.0001,42.8049,44.6671,45.996,46.9929,47.7687,48.3898
0.959132,25.7781,35.1627,39.7445,42.4801,44.3031,45.6058,46.5835,47.3443,47.9533
0.940987,26.0805,35.3103,39.8735,42.6138,44.4441,45.7537,46.7372,47.5029,48.116
0.965739,27.3997,36.9155,41.6538,44.5034,46.4069,47.7687,48.7912,49.5871,50.2243
0.913818,12.7391,14.4504,15.1211,15.48,15.7036,15.8563,15.9671,16.0513,16.1174
0.89775,17.4041,24.2946,28.9254,32.3359,34.9688,37.0679,38.7823,40.2098,41.4172
0.936928,22.6118,33.3472,39.7518,43.8363,46.6059,48.5822,50.0517,51.1815,52.074
0.913877,25.0103,36.1394,41.8668,45.2166,47.3885,48.9052,50.0232,50.8813,51.5608
0.930906,27.513,38.6719,44.1037,47.2759,49.3588,50.8341,51.9355,52.7898,53.4721
0.918872,28.6393,39.5185,44.8047,47.9397,50.0225,51.5092,52.6244,53.4924,54.1871
0.891604,28.8213,39.3005,44.4438,47.5213,49.5743,51.0425,52.1448,53.003,53.69
0.896278,14.4589,16.4813,17.2635,17.6809,17.9408,18.1182,18.2471,18.3449,18.4216
0.89411,19.8752,27.7398,32.9667,36.7956,39.7407,42.0821,43.9901,45.576,46.9153
0.861612,23.7592,35.0164,41.7036,45.9671,48.8597,50.9255,52.463,53.646,54.5813
0.904054,28.3754,41.0991,47.6673,51.5207,54.0242,55.775,57.0668,58.059,58.8451
0.922177,31.1167,43.736,49.8647,53.4391,55.7833,57.4423,58.6798,59.6391,60.405
0.884176,31.5725,43.6633,49.5557,53.057,55.3863,57.0505,58.3,59.2728,60.052
0.882254,32.5414,44.3624,50.1453,53.5978,55.8975,57.5401,58.7723,59.7308,60.4978
0.887017,33.6058,45.5061,51.3992,54.9391,57.3039,58.996,60.2668,61.2564,62.0488
0.874797,33.5778,45.1627,50.9198,54.3775,56.6853,58.3353,59.5737,60.5373,61.3086
0.888062,34.5022,46.2878,52.1856,55.7371,58.1112,59.8104,61.0867,62.0805,62.8764
0.902031,35.5177,47.6335,53.7267,57.4007,59.858,61.6171,62.9385,63.9676,64.7917
0.905311,36.2674,48.6977,54.9706,58.7558,61.288,63.1011,64.4632,65.524,66.3735
0.907259,36.8284,49.4046,55.7364,59.5494,62.0968,63.9189,65.2869,66.3516,67.2039
0.891947,36.3356,48.5691,54.7005,58.3846,60.843,62.6002,63.9188,64.9447,65.7658
0.910178,37.8209,50.7761,57.3382,61.3063,63.9655,65.8719,67.3057,68.4232,69.3188
0.925109,39.0313,52.4022,59.15,63.2163,65.9337,67.8776,69.3369,70.4728,71.3819
0.908925,38.7068,51.869,58.4878,62.4702,65.1295,67.0313,68.4589,69.5699,70.4592
0.89726,38.6295,51.7611,58.3754,62.3609,65.0254,66.9325,68.3649,69.4804,70.3735
0.888531,38.7547,51.969,58.6367,62.6576,65.3468,67.2719,68.7181,69.8442,70.746
0.889426,38.8602,51.9234,58.4746,62.4113,65.038,66.9153,68.3238,69.4197,70.2965
0.875077,38.459,51.398,57.9132,61.84,64.4661,66.3461,67.7586,68.8586,69.7396
0.890754,39.4082,52.6817,59.3724,63.4053,66.1017,68.0315,69.481,70.6095,71.5131
0.905966,40.9618,55.0488,62.2038,66.5331,69.4344,71.5142,73.0781,74.2968,75.2733
0.919494,42.2863,56.843,64.1963,68.627,71.5873,73.7046,75.2939,76.5309,77.5208
0.896955,41.7972,56.1341,63.3571,67.7063,70.6121,72.6907,74.2515,75.4665,76.4392
0.933764,43.5982,58.2969,65.6557,70.0739,73.0207,75.1264,76.7061,77.935,78.9183
0.889168,42.0609,56.3727,63.5979,67.9599,70.8803,72.9727,74.5457,75.7713,76.7532
0.925793,43.8804,58.6407,66.0508,70.5062,73.48,75.6057,77.2007,78.4417,79.4347
0.896268,43.0284,57.6658,65.068,69.5391,72.5331,74.6783,76.291,77.5476,78.5543
0.906663,44.3501,59.6082,67.3366,72.0039,75.1274,77.364,79.0445,80.3533,81.4013
0.896563,44.4437,59.6868,67.3699,71.9954,75.0849,77.2943,78.9526,80.2433,81.2762
0.90541,45.1909,60.5441,68.2548,72.8913,75.9868,78.2001,79.8614,81.1543,82.1891
0.926436,46.9893,63.1019,71.2434,76.1584,79.4484,81.8052,83.5766,84.9566,86.0621
0.904239,46.3279,62.1514,70.1225,74.9231,78.1307,80.4252,82.1478,83.4886,84.5618
0.900458,46.1315,61.6514,69.4299,74.1033,77.2218,79.4507,81.1232,82.4246,83.466
0.899956,45.7759,60.9491,68.5443,73.1084,76.155,78.3333,79.9684,81.2409,82.2595
0.923254,48.1217,64.6844,73.1368,78.2707,81.7209,84.1992,86.0657,87.522,88.6901
0.904849,48.1239,64.7958,73.245,78.3421,81.7492,84.1862,86.0155,87.439,88.5782
0.902535,48.5325,65.2001,73.588,78.6325,81.9997,84.4067,86.2131,87.6187,88.7436
0.894119,48.6204,65.261,73.6343,78.6754,82.0438,84.4539,86.2638,87.673,88.8012
