2.09269,2.14411,2.16181,2.17077,2.17619,2.17981,2.18241,2.18436,2.18588,2.1871
1.29993,1.71243,1.90826,2.02257,2.0975,2.1504,2.18974,2.22014,2.24434,2.26406
1.75571,3.08286,3.79118,4.2141,4.49187,4.68731,4.83197,4.94321,5.03135,5.10288
1.03516,2.22695,2.82412,3.15111,3.35268,3.48822,3.58525,3.65799,3.7145,3.75962
1.11608,3.02642,4.02457,4.57618,4.92056,5.15521,5.32522,5.45403,5.55501,5.63628
1.01536,3.28425,4.40454,4.99102,5.34563,5.5822,5.751,5.87741,5.97558,6.05402
1.2633,4.76657,6.42208,7.27256,7.78572,8.12873,8.37419,8.55856,8.70213,8.81711
1.20887,5.21091,7.02667,7.94985,8.50635,8.8784,9.14469,9.34472,9.50049,9.62523
1.01867,4.91315,6.61157,7.46966,7.98659,8.33214,8.57945,8.76521,8.90986,9.02568
1.17146,6.14191,8.1967,9.22283,9.83801,10.248,10.5409,10.7605,10.9314,11.0681
0.958882,5.49081,7.34609,8.28486,8.85285,9.23377,9.50706,9.71272,9.8731,10.0017
1.1382,7.17826,9.67539,10.9528,11.7291,12.2506,12.6252,12.9071,13.1271,13.3034
1.0174,6.99005,9.43109,10.6713,11.4206,11.9219,12.2807,12.5503,12.7601,12.9281
1.02831,7.38366,9.83181,11.0485,11.7755,12.2589,12.6036,12.8618,13.0624,13.2228
1.02021,7.66417,10.178,11.4396,12.2,12.709,13.0737,13.348,13.5617,13.733
1.49624,11.759,15.6192,17.569,18.7473,19.5368,20.1026,20.528,20.8595,21.1251
1.16123,8.89099,11.5253,12.8098,13.5707,14.074,14.4315,14.6986,14.9057,15.0709
0.959994,8.23457,11.135,12.6831,13.651,14.3144,14.7979,15.1661,15.4558,15.6898
1.16482,11.1207,15.2701,17.448,18.7796,19.6749,20.317,20.7996,21.1753,21.476
1.08687,11.2802,15.4545,17.5799,18.8578,19.7091,20.3166,20.7717,21.1255,21.4082
1.1163,12.424,16.9425,19.2166,20.5823,21.4934,22.1446,22.6334,23.0139,23.3184
1.07166,12.5769,17.0352,19.2656,20.6049,21.4986,22.1377,22.6175,22.9909,23.2898
0.940103,11.4166,15.3359,17.2899,18.4629,19.2457,19.8054,20.2255,20.5525,20.8142
1.17558,14.7329,19.729,22.2366,23.7486,24.7604,25.4852,26.03,26.4544,26.7945
1.06165,14.1469,19.1357,21.6915,23.2479,24.2954,25.0486,25.6162,26.0593,26.4148
0.950884,13.3049,17.9886,20.3635,21.7967,22.7548,23.4401,23.9546,24.3549,24.6753
1.13161,15.2892,20.0867,22.4162,23.7919,24.7,25.3443,25.8253,26.1981,26.4954
1.06828,14.976,19.9652,22.5175,24.0772,25.1312,25.8919,26.4669,26.9171,27.279
1.00956,14.6267,19.5819,22.1109,23.6442,24.6722,25.4089,25.9626,26.3938,26.7391
0.938193,13.5488,17.9405,20.1307,21.4411,22.3126,22.934,23.3993,23.7609,24.0499
1.00672,15.6261,21.1818,24.0815,25.8655,27.0749,27.949,28.6104,29.1285,29.5453
1.00497,16.3843,22.2113,25.1822,26.975,28.1723,29.0277,29.6691,30.1676,30.5663
1.12347,18.1541,24.1259,27.0667,28.8135,29.9704,30.7933,31.4085,31.8859,32.2671
1.07684,18.3019,24.6702,27.9375,29.9327,31.2798,32.2511,32.9849,33.5589,34.0203
1.02718,17.9232,24.0774,27.1855,29.0577,30.3077,31.2009,31.8709,32.3919,32.8086
1.05279,19.6106,26.6984,30.3528,32.5818,34.0833,35.1635,35.9781,36.6142,37.1248
1.04471,19.4239,25.9405,29.1604,31.0744,32.3417,33.2423,33.915,34.4366,34.8528
1.02524,19.2824,25.7105,28.9344,30.8779,32.1791,33.112,33.8138,34.361,34.7997
0.993245,20.1866,27.5577,31.41,33.7819,35.3898,36.5515,37.4302,38.1181,38.6711
0.975067,20.269,27.3553,30.9106,33.0374,34.4498,35.455,36.2065,36.7895,37.2549
0.965832,20.9471,28.3721,32.1403,34.4202,35.949,37.0459,37.8715,38.5155,39.0319
1.01114,21.3883,28.3371,31.7431,33.7647,35.1034,36.0551,36.7664,37.3182,37.7587
0.99284,21.8258,29.3395,33.1928,35.5476,37.1385,38.286,39.1532,39.8318,40.3772
1.02077,23.1375,31.1761,35.2702,37.7481,39.4073,40.5954,41.4877,42.1824,42.7384
0.996815,22.6691,30.2761,34.0786,36.3566,37.8732,38.9553,39.7661,40.3964,40.9004
0.988861,23.6981,32.1266,36.4732,39.1292,40.9216,42.2132,43.1883,43.9506,44.563
0.93113,22.8194,30.763,34.7677,37.1744,38.7787,39.9239,40.7821,41.4491,41.9823
0.982381,24.1201,32.2515,36.3163,38.7556,40.3825,41.5453,42.4179,43.097,43.6405
1.00314,25.4036,34.2043,38.689,41.4125,43.2433,44.5588,45.5499,46.3234,46.9439
0.983171,24.7783,33.0368,37.1632,39.6366,41.2837,42.4591,43.3398,44.0243,44.5715
0.987747,26.4145,35.897,40.8153,43.8304,45.8692,47.3402,48.4518,49.3215,50.0205
0.983572,27.4366,37.3101,42.3407,45.3782,47.4083,48.8597,49.9485,50.7954,51.4728
1.00062,27.801,37.2144,41.8763,44.6544,46.4981,47.811,48.7935,49.5565,50.1661
0.989113,28.1207,37.7921,42.6853,45.6486,47.6381,49.0669,50.1431,50.9831,51.6569
0.989916,28.8884,38.9217,44.0137,47.0948,49.1594,50.6392,51.7516,52.6183,53.3125
0.964297,28.8963,38.99,44.112,47.2084,49.2819,50.7674,51.8838,52.7535,53.4502
0.95689,29.1488,39.2164,44.2922,47.3495,49.3924,50.8538,51.951,52.8052,53.4889
0.973733,29.5778,39.4812,44.4262,47.3922,49.3695,50.7819,51.8414,52.6655,53.3249
0.978282,30.2915,40.6445,45.9038,49.093,51.2347,52.7726,53.9307,54.8343,55.5589
0.960142,30.3844,40.9023,46.258,49.5026,51.6782,53.2381,54.4111,55.3253,56.0577
0.96328,30.0411,39.97,44.9152,47.8733,49.841,51.244,52.2949,53.1115,53.7641
0.952623,29.0779,38.4457,43.1209,45.9293,47.8045,49.146,50.1534,50.9378,51.5659
0.962894,30.6673,41.3587,46.9096,50.3169,52.6228,54.2873,55.5454,56.5298,57.3211
0.950509,29.8628,39.7531,44.6901,47.6387,49.5956,50.9879,52.0288,52.8361,53.4805
0.967261,32.2475,43.8625,49.9083,53.6204,56.1333,57.9483,59.3209,60.3956,61.2599
0.96269,29.0238,37.6749,41.7881,44.1818,45.7453,46.8459,47.6623,48.2918,48.7919
0.969792,31.6598,42.9629,48.9793,52.746,55.3342,57.2248,58.6674,59.8049,60.7251
0.936157,32.151,43.8868,49.9534,53.6354,56.0995,57.8611,59.1817,60.2079,61.0278
0.98445,35.5337,48.5975,55.2606,59.2813,61.9682,63.8901,65.3329,66.456,67.355
0.976313,35.3067,47.5122,53.5548,57.1532,59.5407,61.2407,62.5129,63.5007,64.29
0.968774,36.6063,49.7225,56.4103,60.4771,63.215,65.185,66.671,67.8319,68.7641
0.957906,36.9727,50.0035,56.5693,60.5226,63.1628,65.0502,66.4663,67.568,68.4493
0.948878,37.1595,50.0737,56.568,60.4792,63.0933,64.9641,66.3693,67.4635,68.3397
0.960166,38.1912,51.4221,58.0995,62.1307,64.8294,66.7628,68.2161,69.3485,70.2556
0.939728,15.1999,16.8727,17.5136,17.8527,18.0625,18.2051,18.3084,18.3866,18.4479
0.946651,21.8704,30.5355,36.5933,41.174,44.7805,47.7,50.1142,52.1448,53.8771
0.991852,29.8954,45.2664,54.9667,61.3396,65.7334,68.8991,71.2668,73.0933,74.5392
0.908442,32.4164,48.4323,56.9517,61.962,65.2049,67.4619,69.12,70.3888,71.391
0.929338,36.2968,52.0698,59.7036,64.1092,66.9775,68.9979,70.5005,71.6628,72.5895
0.946735,36.7304,50.0128,56.1617,59.7197,62.0515,63.7019,64.9329,65.8869,66.6482
0.924677,38.8046,53.6341,61.1324,65.7279,68.8488,71.1107,72.8265,74.1732,75.2585
0.941599,40.6763,55.5051,62.8677,67.284,70.2258,72.3241,73.8954,75.1155,76.0902
0.962684,43.4963,59.4393,67.4819,72.3486,75.6123,77.9535,79.7151,81.0888,82.1901
0.934977,42.9214,58.0968,65.6638,70.2037,73.2298,75.3909,77.0113,78.2715,79.2794
0.93905,43.7984,59.1082,66.795,71.43,74.5317,76.7536,78.4239,79.7253,80.768
0.929145,43.0716,57.6283,64.8874,69.2448,72.1514,74.2285,75.7869,76.9992,77.9693
1.06434,49.5242,66.3174,74.7991,79.9298,83.3702,85.8381,87.695,89.143,90.3037
0.969295,43.4152,57.9862,65.4706,70.0483,73.1412,75.3718,77.0572,78.3755,79.435
0.9427,44.6813,60.8769,69.3458,74.544,78.0554,80.5848,82.4929,83.9833,85.1793
0.939221,45.0924,60.9304,68.9179,73.7058,76.8899,79.1586,80.8564,82.1746,83.2275
0.97512,48.1759,65.2683,73.9427,79.1857,82.6988,85.2179,87.1129,88.5905,89.775
1.01403,50.1174,67.2741,75.8387,80.9696,84.3867,86.8257,88.6539,90.0751,91.2117
0.899321,15.5562,17.0053,17.5498,17.8357,18.0121,18.1319,18.2185,18.284,18.3354
0.88648,22.6943,31.8473,38.4844,43.6336,47.7672,51.1656,54.0113,56.4301,58.512
0.918712,32.3137,50.4624,62.5619,70.7529,76.4957,80.6732,83.8147,86.2455,88.1728
0.899512,38.5658,59.2255,70.384,76.907,81.0869,83.9687,86.0687,87.6651,88.9192
0.902443,41.7847,60.2066,68.8769,73.7759,76.9245,79.1247,80.7524,82.0072,83.005
0.889962,45.7228,65.2179,74.7451,80.4336,84.2434,86.9828,89.0508,90.6686,91.9692
0.88393,47.531,65.993,74.8878,80.1629,83.6637,86.1576,88.0246,89.4743,90.6326
0.876066,48.9072,67.1026,76.0347,81.3954,84.9784,87.5439,89.4721,90.9743,92.1779
