1.98958,2.01325,2.02127,2.0253,2.02773,2.02935,2.03051,2.03138,2.03206,2.0326
1.43649,1.94473,2.2003,2.35408,2.45679,2.53025,2.58539,2.6283,2.66265,2.69077
1.24648,2.15249,2.61048,2.87322,3.04096,3.15657,3.2408,3.30479,3.35499,3.39539
1.18657,2.57458,3.28213,3.67609,3.92237,4.08986,4.21087,4.30228,4.37372,4.43108
1.1182,2.75991,3.49751,3.87385,4.09804,4.24613,4.35108,4.4293,4.48982,4.53803
1.11238,3.25429,4.24273,4.76273,5.08174,5.29747,5.45315,5.57085,5.66296,5.73704
1.46061,5.17832,6.97632,7.93652,8.52904,8.93037,9.21994,9.43863,9.60959,9.74687
1.01566,4.13355,5.55658,6.28114,6.71521,7.00344,7.20852,7.3618,7.48068,7.57555
1.064,4.90258,6.59211,7.44498,7.95715,8.29879,8.54298,8.72625,8.86889,8.98308
1.39918,6.54657,8.47258,9.38892,9.92393,10.2747,10.5225,10.7069,10.8495,10.963
0.979107,5.30943,7.15639,8.13063,8.73733,9.15265,9.45518,9.6855,9.86677,10.0132
0.978845,5.90144,7.97334,9.0322,9.67123,10.0975,10.4016,10.6292,10.8059,10.947
0.969825,6.46688,8.75517,9.91447,10.6123,11.0781,11.4111,11.661,11.8554,12.011
1.02972,7.12166,9.43457,10.5633,11.2306,11.6714,11.9843,12.218,12.3991,12.5436
1.00422,7.37576,9.79984,11.0153,11.7489,12.2407,12.5935,12.8591,13.0664,13.2326
0.999841,7.72215,10.247,11.5134,12.2754,12.7844,13.1483,13.4215,13.6341,13.8041
0.999702,8.28152,11.0815,12.5064,13.37,13.9495,14.3652,14.678,14.9219,15.1174
1.17911,10.3346,13.8164,15.5703,16.6249,17.3285,17.8311,18.208,18.5011,18.7356
1.01863,9.8254,13.3496,15.1662,16.2734,17.019,17.5552,17.9594,18.2749,18.5282
0.95069,9.96463,13.5719,15.4045,16.509,17.2463,17.7732,18.1684,18.4756,18.7214
1.0939,11.5148,15.2601,17.074,18.1418,18.845,19.3431,19.7145,20.002,20.2312
0.940129,10.2776,13.6655,15.362,16.3862,17.0732,17.5665,17.938,18.228,18.4606
1.00386,11.5868,15.5274,17.5304,18.745,19.5602,20.145,20.585,20.928,21.2029
1.06571,13.3832,18.2042,20.6904,22.2052,23.2241,23.956,24.5072,24.9371,25.2819
1.08939,14.2869,19.2563,21.7387,23.2211,24.2051,24.9054,25.4291,25.8355,26.1601
0.9977,13.3931,17.8748,20.0926,21.4163,22.2965,22.9243,23.3948,23.7606,24.0532
0.948205,13.5307,18.2597,20.6692,22.1337,23.1188,23.8272,24.3612,24.7781,25.1127
1.07584,15.6367,21.1135,23.9383,25.6669,26.8345,27.6761,28.3118,28.8087,29.208
0.951269,14.4328,19.4378,21.9619,23.4781,24.488,25.2083,25.7478,26.1668,26.5016
0.949672,14.5432,19.3471,21.7219,23.1368,24.0759,24.7447,25.2453,25.6341,25.9448
1.07903,16.7981,22.3156,25.0736,26.7325,27.8412,28.6349,29.2314,29.696,30.0681
1.10972,18.5237,25.0775,28.4637,30.5348,31.9327,32.9397,33.6997,34.2936,34.7704
0.960221,16.3364,21.8716,24.6307,26.277,27.3691,28.1459,28.7264,29.1767,29.536
0.951354,14.2477,18.1363,19.9487,20.9982,21.6833,22.1659,22.5243,22.801,23.0211
0.909423,15.1819,20.5166,23.4028,25.2317,26.4989,27.43,28.1436,28.7081,29.166
1.01385,18.3447,25.1124,28.6513,30.807,32.2508,33.2827,34.0559,34.6562,35.1355
0.973975,18.8438,25.7928,29.3245,31.4444,32.855,33.8606,34.6137,35.1988,35.6664
1.05669,21.4669,29.1976,33.0611,35.3707,36.9069,38.0027,38.8239,39.4622,39.9727
1.0371,21.7519,29.3499,33.121,35.3756,36.8766,37.9481,38.7514,39.3762,39.876
1.02265,21.733,29.0645,32.6929,34.8632,36.3086,37.3405,38.1143,38.7162,39.1976
1.03888,20.2908,26.2102,29.028,30.6809,31.7685,32.5387,33.1127,33.5571,33.9114
1.01549,21.6015,29.1742,33.194,35.7079,37.433,38.6913,39.6503,40.4056,41.0159
1.00802,21.7837,29.1633,32.8777,35.0992,36.5717,37.6175,38.3978,39.0018,39.483
0.977203,22.5134,30.5867,34.7384,37.2636,38.9617,40.1821,41.1019,41.8201,42.3965
0.955175,22.7147,30.6702,34.6593,37.0472,38.635,39.7668,40.614,41.272,41.7977
1.00402,24.3197,32.6229,36.7569,39.2313,40.8791,42.0556,42.9378,43.6239,44.1729
0.980955,23.2947,30.7767,34.4471,36.6309,38.0802,39.1124,39.8851,40.4851,40.9647
0.992244,24.8242,33.4481,37.8876,40.6049,42.4415,43.7666,44.768,45.5514,46.1811
0.967222,24.9175,33.543,37.9025,40.5261,42.2757,43.5247,44.4607,45.1879,45.7693
0.992872,26.4219,35.6076,40.2434,43.0352,44.9004,46.2347,47.2365,48.0164,48.6409
1.01845,27.505,36.8553,41.5241,44.3215,46.1846,47.5146,48.5117,49.2869,49.9069
1.00546,27.7415,37.1886,41.9357,44.7946,46.7059,48.0741,49.102,49.9025,50.5436
0.998824,27.2847,36.1963,40.6099,43.2459,44.9983,46.2476,47.1832,47.9101,48.4911
0.997076,28.1455,37.7601,42.6606,45.639,47.6423,49.0825,50.168,51.0155,51.6956
0.960503,27.6237,37.026,41.7666,44.6194,46.5232,47.8835,48.9036,49.6968,50.3313
1.02116,29.8789,40.0188,45.118,48.1852,50.2329,51.6971,52.796,53.6513,54.3359
1.02188,30.6335,41.1314,46.4344,49.6338,51.7743,53.3071,54.4588,55.3559,56.0744
1.02635,29.2965,38.4038,42.8295,45.4437,47.1694,48.3936,49.3072,50.015,50.5795
0.977042,29.0053,38.8524,43.9271,47.0383,49.1446,50.6664,51.8178,52.7196,53.4451
0.981061,29.2266,38.9558,43.8444,46.7772,48.7292,50.1206,51.1622,51.9708,52.6167
1.06271,33.427,45.2842,51.3941,55.1186,57.6267,59.431,60.7913,61.8538,62.7066
1.01256,32.9834,44.6338,50.5221,54.0614,56.4206,58.1045,59.3664,60.347,61.131
1.00592,33.2201,44.6136,50.2896,53.6836,55.9414,57.552,58.7587,59.6968,60.4468
0.961767,31.1235,41.2189,46.1835,49.1403,51.1039,52.5032,53.5511,54.3652,55.016
0.949149,30.5748,40.5094,45.4823,48.4793,50.4851,51.9224,53.0031,53.8453,54.5202
0.951688,32.1529,43.3913,49.1977,52.7494,55.1463,56.8727,58.1755,59.1933,60.0106
0.979961,34.4309,46.6271,52.8389,56.5885,59.0935,60.884,62.227,63.2714,64.1067
0.946125,33.7329,45.3524,51.1573,54.6294,56.9384,58.5848,59.818,60.7762,61.5422
0.98567,35.4702,47.4828,53.4789,57.0757,59.4747,61.1894,62.4763,63.4778,64.2794
0.968472,35.1646,47.0017,52.9329,56.5008,58.8844,60.5898,61.8703,62.8673,63.6655
0.979134,34.5878,45.6453,51.0988,54.3503,56.5098,58.0484,59.2002,60.0948,60.8096
0.969993,36.0026,48.5641,55.0628,59.0476,61.7434,63.6893,65.1603,66.3115,67.237
0.954572,36.1248,48.5942,54.8887,58.6706,61.1897,62.9864,64.3318,65.3767,66.2115
0.994389,38.9323,52.5988,59.5279,63.7113,66.511,68.5164,70.0235,71.1977,72.1384
0.952153,38.0375,51.225,57.8448,61.8195,64.4698,66.3629,67.7827,68.887,69.7703
0.92984,37.5807,50.4076,56.8217,60.6712,63.2386,65.0733,66.4499,67.5209,68.378
0.955214,37.1718,48.9651,54.7322,58.1557,60.4237,62.037,63.2434,64.1796,64.9273
0.970948,39.2193,52.6594,59.5683,63.7952,66.652,68.7132,70.271,71.4898,72.4697
0.983525,39.4453,53.1804,60.3203,64.7038,67.6691,69.8086,71.4249,72.689,73.7046
0.966746,40.1968,54.3989,61.6467,66.0223,68.9447,71.0328,72.5984,73.8155,74.7886
0.931179,39.4808,53.1891,60.0661,64.1862,66.9286,68.8852,70.3514,71.4911,72.4024
1.05609,45.9755,62.0011,70.0713,74.9312,78.1799,80.5053,82.2523,83.6129,84.7027
0.971384,42.3727,56.6856,63.8045,68.0634,70.8977,72.9198,74.435,75.6127,76.5543
0.94344,41.9113,56.2354,63.4549,67.8133,70.732,72.8238,74.3967,75.6227,76.6051
0.982861,44.316,59.4602,67.0854,71.6783,74.7472,76.9425,78.5906,79.8733,80.8999
0.969376,44.2864,59.3896,66.9868,71.5599,74.6146,76.7994,78.4396,79.7163,80.7382
0.945001,43.5162,58.2402,65.6278,70.069,73.0334,75.1527,76.7432,77.9809,78.9714
0.992056,46.5889,62.5695,70.6487,75.5275,78.7938,81.1338,82.8927,84.263,85.3608
0.935647,44.393,59.5005,67.0908,71.6542,74.6994,76.8757,78.5085,79.7787,80.795
1.07232,51.545,69.0989,77.931,83.2487,86.8019,89.3441,91.253,92.7392,93.9291
0.936148,44.8294,59.7568,67.2046,71.6685,74.6425,76.7658,78.3577,79.5955,80.5856
0.966395,46.5832,62.1947,70.0517,74.7887,77.9577,80.2271,81.9325,83.261,84.3252
0.941551,45.9096,61.4313,69.2667,73.9931,77.1543,79.4171,81.1169,82.4404,83.5001
0.970847,46.9313,62.4268,70.162,74.7972,77.8841,80.0874,81.7388,83.0226,84.0492
0.958627,45.7905,60.7135,68.17,72.6474,75.635,77.7708,79.3738,80.6213,81.6198
0.963905,47.5129,63.8646,72.2465,77.35,80.785,83.2549,85.1166,86.57,87.7362
0.986467,50.1786,67.7781,76.7415,82.1583,85.7817,88.3745,90.3211,91.836,93.0484
1.01758,51.9604,69.6393,78.4622,83.7379,87.2456,89.746,91.6186,93.0733,94.236
0.971858,49.2322,65.5407,73.6478,78.5013,81.7344,84.0433,85.775,87.122,88.1998
0.962359,49.5372,66.3343,74.8337,79.9765,83.4255,85.8998,87.7616,89.2134,90.3772
