1.83724,1.87092,1.88242,1.88822,1.89172,1.89407,1.89574,1.897,1.89798,1.89876
1.37015,1.86977,2.12181,2.27371,2.37527,2.44794,2.50252,2.54502,2.57904,2.6069
1.09142,1.76043,2.06401,2.22885,2.33076,2.39954,2.44892,2.48603,2.51491,2.538
0.852304,1.506,1.77067,1.90598,1.98727,2.04137,2.07992,2.10877,2.13118,2.14908
0.876551,2.24772,3.07286,3.59877,3.96188,4.22756,4.43041,4.59037,4.71974,4.82655
0.882296,2.93936,4.14632,4.82784,5.24916,5.53095,5.7311,5.87994,5.99465,6.08559
0.873032,3.50345,4.88438,5.59137,6.00904,6.28318,6.47668,6.62055,6.73173,6.82024
0.881424,4.10559,5.65615,6.42851,6.8872,7.19146,7.40833,7.57086,7.69727,7.79842
0.883136,4.65752,6.36107,7.20739,7.71378,8.05144,8.29286,8.47411,8.61523,8.72821
0.906314,5.26657,7.12207,8.04141,8.59191,8.95889,9.22109,9.41781,9.57086,9.69333
0.889978,5.60834,7.53564,8.49484,9.07104,9.45582,9.73105,9.93772,10.0986,10.2274
0.870085,4.68224,5.79743,6.29479,6.57721,6.75937,6.88663,6.98056,7.05275,7.10995
0.871675,5.69013,7.72813,8.88014,9.63339,10.1669,10.5655,10.8747,11.1219,11.3239
0.858225,6.46539,8.96104,10.2991,11.1213,11.6733,12.0679,12.3632,12.5922,12.7748
0.898175,7.51271,10.3559,11.8035,12.669,13.2428,13.6507,13.9554,14.1918,14.3805
0.900909,8.19116,11.1966,12.6986,13.5958,14.1925,14.6183,14.9375,15.1857,15.3843
0.86016,8.29123,11.2107,12.6576,13.5224,14.0982,14.5093,14.8177,15.0575,15.2494
0.870083,8.73108,11.695,13.1637,14.0435,14.6301,15.0493,15.3639,15.6087,15.8046
0.896051,9.47755,12.7256,14.3637,15.3547,16.0194,16.4962,16.8551,17.1349,17.3592
0.904064,10.1521,13.6897,15.4862,16.574,17.3032,17.826,18.2191,18.5254,18.7708
0.903399,10.6908,14.4129,16.2943,17.4289,18.1873,18.73,19.1375,19.4547,19.7086
0.895557,11.0853,14.9144,16.8425,18.0034,18.7789,19.3337,19.7502,20.0745,20.334
0.877483,11.3094,15.1894,17.1417,18.3176,19.1035,19.6658,20.0882,20.417,20.6803
0.90042,12.011,16.0954,18.1486,19.3848,20.2109,20.8019,21.2457,21.5912,21.8678
0.919534,12.6595,16.943,19.0988,20.3979,21.2664,21.8881,22.3551,22.7187,23.0099
0.911484,12.8731,17.1893,19.3584,20.6643,21.5367,22.1608,22.6294,22.9942,23.2862
0.909789,13.4103,18.0147,20.3577,21.7779,22.7311,23.415,23.9298,24.3312,24.653
0.880829,13.465,18.0893,20.4283,21.8387,22.7815,23.456,23.9624,24.3565,24.672
0.900065,14.2642,19.1732,21.6552,23.1525,24.1541,24.8712,25.4099,25.8295,26.1655
0.910131,14.7672,19.7693,22.2804,23.7898,24.7972,25.5173,26.0577,26.4781,26.8146
0.8893,15.0287,20.2223,22.8604,24.458,25.5296,26.2983,26.8768,27.3279,27.6895
0.918699,15.9863,21.4696,24.2345,25.8997,27.0121,27.8076,28.4047,28.8693,29.2412
0.917467,16.4674,22.1171,24.968,26.6869,27.8364,28.6592,29.2774,29.7589,30.1444
0.91253,16.8911,22.6933,25.623,27.3901,28.5721,29.4184,30.0541,30.5492,30.9457
0.92611,17.5556,23.5381,26.5491,28.3621,29.5734,30.4399,31.0904,31.5969,32.0022
0.910986,17.6735,23.6773,26.7015,28.524,29.7425,30.6147,31.2698,31.7799,32.1884
0.900152,18.0126,24.2009,27.3365,29.2321,30.5019,31.4119,32.0961,32.6293,33.0565
0.902378,18.4708,24.776,27.9547,29.8694,31.1488,32.064,32.751,33.2858,33.7138
0.909167,18.9986,25.4514,28.7008,30.658,31.966,32.902,33.6049,34.1521,34.5903
0.881073,11.3301,13.3004,14.1213,14.5716,14.8562,15.0524,15.1958,15.3052,15.3914
0.902165,15.0863,20.8687,24.5017,27.0511,28.9504,30.4236,31.6009,32.564,33.3666
0.913966,17.8665,25.4751,29.7507,32.4078,34.1902,35.4573,36.3994,37.1247,37.699
0.921078,19.7317,27.719,31.7849,34.185,35.7583,36.8674,37.6909,38.3267,38.8326
0.921154,21.1547,29.3256,33.3792,35.7845,37.379,38.5151,39.3663,40.0283,40.5579
0.920812,21.6768,29.4264,33.2026,35.4415,36.926,37.9834,38.7751,39.3902,39.8819
0.932155,22.6582,30.6327,34.5978,36.9842,38.5817,39.7267,40.588,41.2595,41.7977
0.931481,23.3259,31.4814,35.573,38.0417,39.6942,40.8779,41.7675,42.4604,43.0154
0.925762,23.6434,31.7773,35.851,38.3016,39.9382,41.1084,41.9867,42.6702,43.2173
0.925978,23.9182,32.012,36.0634,38.4994,40.1261,41.2894,42.1627,42.8424,43.3865
0.929669,24.7735,33.3429,37.6939,40.3302,42.0992,43.3685,44.3237,45.0686,45.6657
0.932583,25.3593,34.0713,38.4629,41.1075,42.8738,44.1367,45.0845,45.822,46.4121
0.916541,25.6106,34.4815,38.9712,41.6828,43.4981,44.7986,45.776,46.5376,47.1477
0.922432,26.1644,35.1045,39.5962,42.297,44.0997,45.3883,46.3552,47.1075,47.7096
0.920042,26.348,35.2474,39.7139,42.4009,44.1956,45.4795,46.4434,47.1938,47.7946
0.949596,27.5613,36.8867,41.5893,44.4266,46.3253,47.6851,48.7071,49.5031,50.1407
0.933085,27.7922,37.3669,42.2311,45.1754,47.1492,48.5643,49.6285,50.458,51.1226
0.926603,28.1046,37.7488,42.6169,45.5498,47.5094,48.9109,49.9629,50.7817,51.437
0.941482,28.8284,38.5924,43.4953,46.4432,48.411,49.8178,50.8738,51.6955,52.3532
0.929981,29.2657,39.3861,44.528,47.642,49.7308,51.2294,52.357,53.2362,53.941
0.913554,29.0577,38.9516,43.9242,46.9132,48.9074,50.3323,51.4011,52.2325,52.8975
0.926371,30.0949,40.4389,45.6725,48.8341,50.9514,52.4687,53.6094,54.4984,55.2107
0.930922,30.6455,41.1107,46.3845,49.5614,51.6843,53.2031,54.3434,55.231,55.9415
0.914683,30.5852,41.0363,46.3101,49.4906,51.6179,53.1409,54.2851,55.1761,55.8898
0.916242,30.588,40.8029,45.9139,48.9818,51.0277,52.4893,53.5857,54.4385,55.1208
0.918102,31.2509,41.9115,47.3234,50.6017,52.8012,54.3797,55.5676,56.4941,57.2368
0.919547,32.2205,43.4342,49.1446,52.6022,54.9196,56.5805,57.8292,58.8021,59.5814
0.934996,32.5219,43.3723,48.7739,52.0023,54.1484,55.678,56.8232,57.7128,58.4238
0.933764,32.8829,43.9975,49.6152,53.0117,55.2887,56.9221,58.1512,59.1097,59.8782
0.9236,33.3591,44.8814,50.7452,54.2972,56.6791,58.387,59.6715,60.6725,61.4746
0.921522,34.2366,46.2062,52.2882,55.9642,58.425,60.1872,61.5112,62.5423,63.368
0.922877,34.7162,46.6486,52.6423,56.2425,58.6436,60.3589,61.6456,62.6463,63.447
0.891971,34.1875,45.9857,51.9447,55.5415,57.9493,59.6744,60.9712,61.9817,62.7913
0.895908,35.1548,47.3726,53.556,57.2901,59.7895,61.5796,62.9248,63.9726,64.8118
0.907704,36.1625,48.6348,54.9177,58.7011,61.2288,63.0368,64.3941,65.4507,66.2964
0.903467,36.4252,48.897,55.1715,58.9496,61.4743,63.2807,64.6372,65.6933,66.5388
0.898973,36.6809,49.2092,55.5207,59.3249,61.8687,63.6896,65.0574,66.1226,66.9756
0.890457,36.5564,48.9366,55.1617,58.9095,61.4135,63.2048,64.5498,65.5968,66.4349
0.907837,38.1443,51.3299,58.0297,62.087,64.8082,66.76,68.2283,69.3731,70.2906
0.925588,38.9147,52.0562,58.6417,62.5941,65.2285,67.1094,68.5197,69.6161,70.493
0.951746,39.78,52.9935,59.6094,63.5856,66.2403,68.1388,69.5641,70.6737,71.562
0.922725,38.9054,52.0103,58.6443,62.6567,65.3462,67.2746,68.7252,69.8559,70.762
0.933531,39.5729,52.8999,59.6283,63.6851,66.3973,68.338,69.7953,70.9297,71.8378
0.919747,39.7841,53.4643,60.4233,64.637,67.4622,69.4881,71.0118,72.1995,73.1514
0.9152,40.5921,54.7451,61.9406,66.2909,69.2039,71.2904,72.8583,74.0796,75.0576
0.909585,40.7274,54.6991,61.7202,65.9383,68.7517,70.7616,72.2692,73.4419,74.3801
0.922862,41.8732,56.2332,63.4714,67.8347,70.7532,72.8428,74.413,75.636,76.6156
0.932054,42.5283,56.9661,64.2224,68.5894,71.5066,73.5932,75.1598,76.3791,77.3551
0.930372,43.267,58.1853,65.7525,70.3315,73.4011,75.6022,77.2578,78.5484,79.5826
0.930148,43.7875,58.8202,66.4046,70.9743,74.0278,76.2119,77.8516,79.1278,80.1492
0.925923,43.4018,57.9488,65.223,69.5873,72.4969,74.5753,76.1341,77.3466,78.3167
0.928,43.9399,58.8404,66.3754,70.9303,73.9827,76.1713,77.8175,79.1008,80.1292
0.932334,44.7715,60.0975,67.8629,72.5552,75.6967,77.9469,79.6379,80.955,82.0099
0.923213,44.7065,59.9462,67.6332,72.2642,75.3586,77.5722,79.2342,80.5278,81.5633
0.933642,45.5849,61.0976,68.92,73.6345,76.7865,79.0424,80.7369,82.0564,83.113
0.929235,45.3726,60.6325,68.2969,72.9071,75.9855,78.1868,79.8392,81.1252,82.1545
0.917851,44.8811,59.94,67.5213,72.0901,75.145,77.3318,78.9745,80.2538,81.2782
0.917624,46.11,62.1217,70.3007,75.2671,78.6031,80.9985,82.8019,84.2086,85.3366
0.900968,46.3922,62.6319,70.8767,75.8549,79.1843,81.5669,83.356,84.7487,85.8635
0.906222,47.4496,63.9514,72.2733,77.2828,80.6287,83.0214,84.8176,86.2155,87.3345
0.897557,47.6281,64.0783,72.3576,77.342,80.6725,83.0554,84.8448,86.2379,87.3533
