0.333156,0.415552,0.452889,0.474191,0.487963,0.497597,0.504715,0.510188,0.514528,0.518053
0.199419,0.337367,0.417804,0.469641,0.505677,0.532138,0.552379,0.568356,0.581285,0.59196
0.154093,0.329561,0.433496,0.497767,0.540657,0.5711,0.593752,0.611234,0.62512,0.636409
0.142064,0.385758,0.539341,0.635758,0.700831,0.747495,0.782538,0.809803,0.831616,0.849459
0.113683,0.36444,0.513068,0.600741,0.657603,0.697299,0.726537,0.748955,0.766683,0.781051
0.0973553,0.367176,0.524934,0.617528,0.677876,0.720279,0.751705,0.775929,0.795173,0.810832
0.0894406,0.385639,0.55262,0.648822,0.710989,0.75443,0.786492,0.811125,0.830642,0.846487
0.0903957,0.45899,0.676674,0.806906,0.893334,0.954877,1.00093,1.0367,1.06527,1.08863
0.0855969,0.473824,0.684616,0.804218,0.880898,0.934178,0.973329,1.00331,1.02699,1.04617
0.083149,0.529614,0.783777,0.934275,1.03379,1.10452,1.1574,1.19843,1.23121,1.25799
0.0776037,0.5359,0.779987,0.918244,1.00689,1.06849,1.11376,1.14841,1.17579,1.19797
0.0780657,0.575309,0.82966,0.973159,1.06544,1.12983,1.17734,1.21385,1.24278,1.26628
0.235491,1.92843,2.84057,3.37856,3.73433,3.98725,4.17633,4.32306,4.44023,4.53596
0.0757773,0.672265,0.99054,1.17614,1.29747,1.3829,1.44628,1.49516,1.53399,1.56558
0.0736248,0.691418,1.00916,1.19101,1.30865,1.39096,1.45178,1.49855,1.53564,1.56577
0.0674091,0.675279,0.995114,1.18407,1.30922,1.39833,1.46504,1.51687,1.55831,1.5922
0.0715931,0.764057,1.1222,1.32955,1.46443,1.55907,1.62909,1.68298,1.72572,1.76045
0.0994897,1.12442,1.64453,1.94253,2.13542,2.27044,2.37024,2.44701,2.50789,2.55737
0.0712763,0.848891,1.24172,1.46822,1.61572,1.71948,1.79646,1.85584,1.90306,1.94149
0.0693678,0.8729,1.28146,1.51901,1.67444,1.78409,1.86558,1.92853,1.97862,2.01942
0.0689855,0.895347,1.30229,1.53498,1.68555,1.79093,1.86881,1.9287,1.9762,2.01478
0.0683063,0.923565,1.34436,1.5864,1.74378,1.85435,1.93629,1.99946,2.04964,2.09048
0.0661314,0.9383,1.37042,1.61994,1.7824,1.89658,1.9812,2.04643,2.09825,2.1404
0.0659877,0.996566,1.47222,1.75177,1.93574,2.06599,2.16304,2.23816,2.29803,2.34686
0.0650526,1.04054,1.53576,1.82215,2.00822,2.13867,2.23517,2.30941,2.3683,2.41614
0.0641305,1.05565,1.54477,1.82495,2.00655,2.13387,2.22811,2.30069,2.35831,2.40518
0.0640883,1.10359,1.62046,1.91964,2.11494,2.25252,2.35469,2.43357,2.4963,2.54739
0.0625304,1.10522,1.63362,1.94797,2.15718,2.30661,2.41873,2.50598,2.57581,2.63298
0.0627819,1.16186,1.71119,2.02886,2.23505,2.37941,2.48602,2.56794,2.63283,2.68549
0.0641143,1.18432,1.70924,2.00381,2.19229,2.32328,2.41963,2.49348,2.5519,2.59928
0.063084,1.25029,1.84519,2.19442,2.42456,2.58779,2.70962,2.80405,2.87939,2.9409
0.107448,2.17458,3.18104,3.75933,4.13431,4.397,4.59121,4.7406,4.85906,4.9553
0.0645381,1.27355,1.82741,2.13999,2.34123,2.48174,2.58545,2.66516,2.72835,2.77968
0.0607691,1.28782,1.89691,2.25594,2.49289,2.66099,2.78643,2.88362,2.96114,3.0244
0.0602882,1.30459,1.90944,2.25855,2.48533,2.64435,2.76199,2.85251,2.92432,2.98268
0.0603093,1.31921,1.91219,2.24873,2.46543,2.61663,2.72813,2.81376,2.88158,2.93663
0.060819,1.38787,2.02624,2.39322,2.63158,2.79888,2.92279,3.01825,3.09406,3.15572
0.174522,4.15043,6.11123,7.25605,8.00687,8.53731,8.932,9.23715,9.48013,9.67818
0.0619779,1.45541,2.1102,2.4844,2.72672,2.89646,3.02199,3.1186,3.19525,3.25754
0.0592144,1.38788,2.00237,2.35332,2.58069,2.74005,2.85797,2.94876,3.02082,3.07941
0.0584114,1.46157,2.16449,2.58292,2.86059,3.05829,3.2062,3.32102,3.41274,3.48769
0.0590923,1.51685,2.2317,2.64541,2.91416,3.10252,3.24178,3.3489,3.43383,3.50282
0.0596206,1.57869,2.32335,2.75461,3.03573,3.23352,3.38027,3.49351,3.58354,3.65683
0.05802,1.6187,2.40851,2.87383,3.1805,3.39785,3.55995,3.6855,3.7856,3.86728
0.057712,1.61019,2.34503,2.75964,3.02535,3.21004,3.34582,3.44983,3.53205,3.59867
0.0598913,1.71439,2.52134,2.99389,3.30548,3.52673,3.69209,3.8204,3.92288,4.00664
0.0588128,1.78561,2.66707,3.19139,3.5387,3.78548,3.96978,4.11262,4.22655,4.31952
0.0588675,1.83817,2.7172,3.2232,3.55082,3.77996,3.94914,4.07913,4.18213,4.26575
0.0570757,1.84437,2.72935,3.2428,3.57829,3.81481,3.99061,4.12643,4.23453,4.32263
0.0577915,1.87174,2.72427,3.20528,3.51408,3.7291,3.88741,4.00883,4.1049,4.18281
0.0566696,1.76562,2.51006,2.92066,3.18158,3.36223,3.49478,3.59619,3.67631,3.74119
0.0595101,1.94053,2.85049,3.39319,3.75573,4.01548,4.21084,4.36317,4.48528,4.58537
0.0593249,1.99532,2.92333,3.45766,3.80312,4.04415,4.22164,4.3577,4.46526,4.5524
0.0541417,1.83295,2.65911,3.12625,3.42612,3.6349,3.78865,3.90661,3.99999,4.07576
0.0554213,1.90246,2.78431,3.29959,3.63873,3.87922,4.05875,4.19794,4.30903,4.39976
0.0598449,2.07742,3.04485,3.60966,3.97991,4.24128,4.43558,4.58567,4.70508,4.80234
0.0565372,2.03195,2.99485,3.5562,3.92306,4.18138,4.37304,4.52088,4.63837,4.73399
0.100935,3.76098,5.55883,6.60386,7.28567,7.76538,8.1212,8.39562,8.6137,8.79119
0.0570891,2.01698,2.89803,3.39405,3.71286,3.93526,4.09932,4.22536,4.32524,4.40635
0.0586133,2.05076,2.9498,3.46418,3.79836,4.03315,4.2072,4.3414,4.44803,4.53481
0.0564447,2.05293,3.01491,3.5836,3.95948,4.22635,4.42558,4.57999,4.70315,4.80369
0.0564197,2.07515,3.02844,3.57623,3.93054,4.17813,4.36079,4.50105,4.61212,4.70225
0.0995637,3.70853,5.39616,6.35997,6.98273,7.41828,7.74004,7.98748,8.1837,8.34312
0.0579579,2.229,3.29461,3.92575,4.34403,4.64188,4.86484,5.03805,5.17651,5.28971
0.05704,2.26982,3.3646,4.00617,4.42652,4.7229,4.94296,5.11276,5.24773,5.35758
0.0561648,2.25904,3.3187,3.9281,4.32332,4.60033,4.80525,4.96299,5.08817,5.18993
0.0560568,2.31182,3.41151,4.05287,4.47351,4.77082,4.99218,5.16342,5.29984,5.41109
0.153471,6.42101,9.41322,11.1298,12.2419,13.0207,13.5964,14.0391,14.3902,14.6754
0.0567585,2.32895,3.36901,3.95917,4.34016,4.60663,4.80355,4.95503,5.07518,5.17282
0.0562279,2.39659,3.53704,4.2121,4.6595,4.978,5.21634,5.40143,5.54932,5.67021
0.0555584,2.36275,3.43494,4.04353,4.43445,4.70634,4.90625,5.05935,5.18033,5.27833
0.0831212,3.7591,5.60719,6.70884,7.44109,7.96341,8.35493,8.65938,8.90295,9.10225
0.0577257,2.5282,3.67376,4.32467,4.74393,5.03638,5.25195,5.4174,5.54838,5.65464
0.05698,2.59535,3.84236,4.58071,5.06997,5.41829,5.67902,5.88154,6.04342,6.17578
0.0561166,2.67379,3.98747,4.76196,5.2712,5.63108,5.89872,6.1055,6.27002,6.40401
0.0854822,4.27966,6.39387,7.62601,8.42978,8.99491,9.4138,9.73667,9.99312,10.2017
0.0561803,2.74622,4.01846,4.74571,5.21736,5.54842,5.79374,5.98287,6.13317,6.25549
0.0560899,2.76782,4.06542,4.82196,5.31909,5.67103,5.93338,6.1365,6.29842,6.43054
0.0558477,2.78847,4.09514,4.85447,5.35081,5.7005,5.96008,6.16038,6.31961,6.44922
0.0840829,4.36283,6.45026,7.66565,8.45958,9.01847,9.43313,9.75295,10.0071,10.214
0.0573483,2.96368,4.33974,5.13126,5.64558,6.00673,6.27431,6.48055,6.64437,6.77765
0.0581814,2.99999,4.36478,5.14456,5.64947,6.00316,6.26475,6.46607,6.62581,6.75564
0.0528053,2.86615,4.23955,5.04307,5.57027,5.94271,6.21977,6.43392,6.6044,6.74332
0.0563639,3.05768,4.44215,5.21871,5.71417,6.0574,6.3091,6.50154,6.65342,6.77633
0.0570367,3.08272,4.49541,5.31403,5.85079,6.23063,6.51383,6.73323,6.90825,7.05114
0.0557129,3.14873,4.67597,5.58271,6.18326,6.6101,6.92896,7.17615,7.37336,7.53433
0.0535963,3.09215,4.56806,5.42295,5.9787,6.36842,6.65669,6.87849,7.05441,7.19734
0.056028,3.13337,4.5083,5.27181,5.75712,6.09287,6.33902,6.52722,6.6758,6.79608
0.0564815,3.00174,4.29575,5.03585,5.51848,5.85896,6.1123,6.30826,6.46441,6.59177
0.0558528,3.1073,4.5803,5.46109,6.0476,6.46599,6.77936,7.02277,7.21726,7.37621
0.0790108,4.7197,7.08978,8.50486,9.43914,10.1003,10.5924,10.9725,11.275,11.5213
0.052215,2.99553,4.35918,5.13103,5.62664,5.97181,6.22606,6.42117,6.57565,6.701
0.0664925,4.20288,6.33436,7.60806,8.45447,9.0578,9.50966,9.86074,10.1414,10.3708
0.0373255,2.31611,3.39074,3.99781,4.38703,4.65764,4.85662,5.00907,5.12959,5.22725
0.060369,4.20059,6.31363,7.53756,8.33264,8.89002,9.30225,9.61942,9.87099,10.0754
0.0388663,2.70297,3.93371,4.6061,5.02869,5.31877,5.5302,5.69116,5.81779,5.92001
0.0369325,2.50786,3.56235,4.12885,4.48383,4.72754,4.90535,5.04086,5.14758,5.23383
0.0568812,4.44228,6.70151,8.05833,8.96743,9.61975,10.1108,10.4938,10.801,11.0527
0.037542,2.80059,4.05937,4.76101,5.20768,5.51663,5.74291,5.91572,6.05199,6.16218
0.0372487,2.89565,4.26206,5.05371,5.57165,5.93728,6.20932,6.41968,6.58723,6.72386
