1.09221,1.21628,1.26414,1.28951,1.30523,1.31593,1.32367,1.32954,1.33415,1.33785
0.826072,1.24904,1.47434,1.61348,1.70782,1.77596,1.82747,1.86778,1.90017,1.92678
0.723717,1.41308,1.79513,2.0239,2.17361,2.27846,2.35572,2.4149,2.46164,2.49945
1.2385,3.00632,3.97901,4.53875,4.89523,5.14061,5.31939,5.4553,5.56205,5.64809
0.647123,1.91145,2.59686,2.98087,3.2224,3.38771,3.50782,3.599,3.67056,3.72822
0.621533,2.14795,2.93777,3.36674,3.63306,3.81413,3.94518,4.04441,4.12214,4.18468
0.6118,2.44939,3.38016,3.88369,4.19736,4.41144,4.56686,4.68483,4.77744,4.85208
0.624356,2.81688,3.88163,4.44837,4.79883,5.03686,5.20906,5.33941,5.44151,5.52365
0.886441,4.48512,6.20889,7.13203,7.70663,8.09884,8.38366,8.59991,8.76969,8.90654
0.57067,3.2289,4.49428,5.17381,5.5973,5.88643,6.09638,6.25573,6.3808,6.48158
0.575958,3.59177,4.99841,5.74834,6.21359,6.53027,6.75971,6.93358,7.06989,7.17961
0.576995,3.93911,5.48403,6.30657,6.81698,7.16458,7.41657,7.60762,7.75746,7.87813
0.569693,3.99392,5.43543,6.17871,6.63235,6.93811,7.1582,7.32421,7.4539,7.55801
0.564726,4.23433,5.81023,6.64845,7.17071,7.52778,7.78747,7.98489,8.14006,8.26525
0.549342,4.53328,6.328,7.30385,7.91707,8.33792,8.64454,8.87783,9.06128,9.20929
0.53498,4.78106,6.69042,7.71574,8.35333,8.78758,9.10221,9.34061,9.52745,9.67782
0.768582,7.32976,10.2244,11.7621,12.714,13.3611,13.8295,14.1844,14.4625,14.6863
0.540134,5.3761,7.43772,8.52249,9.19188,9.64631,9.97506,10.224,10.419,10.5759
0.556575,5.90326,8.21144,9.44342,10.2106,10.7345,11.115,11.404,11.631,11.8139
0.538635,5.6713,7.68937,8.7221,9.34928,9.77047,10.0728,10.3003,10.4777,10.62
0.526933,5.98206,8.31955,9.59457,10.4013,10.9587,11.3672,11.6795,11.9261,12.1257
0.53464,6.48243,9.0773,10.4816,11.3593,11.9589,12.3941,12.7241,12.983,13.1915
0.534568,6.86135,9.59509,11.0524,11.955,12.5683,13.0121,13.3481,13.6113,13.8231
0.539962,7.29401,10.1902,11.731,12.6867,13.3375,13.8093,14.1671,14.4478,14.6738
0.529866,7.3938,10.2688,11.7893,12.7305,13.3707,13.8345,14.186,14.4615,14.6833
0.529351,7.58636,10.5022,12.0481,13.0075,13.6613,14.1356,14.4954,14.7777,15.0051
0.523482,7.83443,10.8927,12.5282,13.5472,14.2431,14.7485,15.1322,15.4334,15.6761
0.526403,8.23236,11.4814,13.2226,14.3075,15.0481,15.5858,15.9939,16.3142,16.5722
0.525326,8.53712,11.8927,13.6797,14.7886,15.5434,16.0904,16.505,16.83,17.0917
0.515518,8.7283,12.1714,14.0073,15.148,15.9256,16.4897,16.9176,17.2533,17.5238
0.532428,9.33835,13.0051,14.9547,16.1643,16.988,17.585,18.0376,18.3925,18.6784
0.521957,9.42678,13.0961,15.042,16.248,17.0687,17.6634,18.1142,18.4676,18.7521
0.521371,9.71248,13.5102,15.5367,16.798,17.6589,18.2841,18.7587,19.1313,19.4315
0.523144,10.031,13.9394,16.0185,17.3088,18.1874,18.8243,19.307,19.6856,19.9904
0.524312,10.3732,14.4236,16.58,17.9191,18.8315,19.4931,19.9948,20.3884,20.7054
0.525311,10.7098,14.9104,17.1539,18.55,19.5027,20.1942,20.7191,21.131,21.463
0.522478,11.0131,15.3492,17.6632,19.1014,20.0817,20.7927,21.332,21.755,22.0957
0.624319,13.5393,18.859,21.6936,23.4544,24.6543,25.5245,26.1845,26.7022,27.1193
0.52399,11.5991,16.1042,18.4935,19.9741,20.9817,21.7116,22.2648,22.6985,23.0477
0.529966,12.0111,16.669,19.1427,20.6773,21.7225,22.4803,23.0548,23.5054,23.8683
0.614989,14.3326,19.9401,22.9351,24.7992,26.0714,26.995,27.696,28.2463,28.6897
0.514023,12.3519,17.2218,19.826,21.4468,22.5525,23.355,23.9638,24.4416,24.8265
0.531636,12.8986,17.9003,20.5609,22.2127,23.3383,24.1546,24.7737,25.2594,25.6506
0.51484,12.8454,17.8823,20.5762,22.2537,23.3988,24.2302,24.8613,25.3568,25.756
0.518496,13.2967,18.5523,21.3695,23.1254,24.3245,25.1954,25.8566,26.3756,26.794
0.522064,13.1141,17.9718,20.4998,22.0491,23.0958,23.8502,24.4198,24.865,25.2226
0.519246,13.1626,18.0939,20.7067,22.3291,23.4357,24.2389,24.8487,25.3275,25.7134
0.518636,13.5694,18.8956,21.7868,23.6048,24.8537,25.7647,26.4585,27.0045,27.4454
0.517553,14.1646,19.8772,22.9676,24.8985,26.2177,27.1755,27.9024,28.4728,28.9322
0.595378,16.8142,23.5477,27.1413,29.3696,30.8854,31.9831,32.8147,33.4665,33.9911
0.51668,14.7628,20.538,23.5958,25.4886,26.7761,27.7088,28.4158,28.9701,29.4164
0.517608,15.1962,21.1913,24.3906,26.3819,27.7412,28.7282,29.4777,30.066,30.5402
0.516682,15.4197,21.4553,24.6669,26.6612,28.0201,29.0055,29.7528,30.3389,30.8109
0.514125,15.608,21.7414,25.0251,27.0729,28.4723,29.4894,30.2621,30.869,31.3583
0.518036,16.1034,22.4823,25.9048,28.0394,29.4977,30.557,31.3614,31.993,32.502
0.576306,18.3511,25.6082,29.4801,31.8848,33.5229,34.7103,35.6105,36.3165,36.8848
0.513167,16.7132,23.311,26.8262,29.0094,30.497,31.5759,32.3941,33.036,33.553
0.51853,16.9143,23.4182,26.8514,28.9739,30.4163,31.4604,32.2512,32.8709,33.3696
0.582874,19.5644,27.2838,31.4285,34.0182,35.7905,37.0798,38.06,38.8304,39.4519
0.513352,17.5611,24.4585,28.1338,30.4151,31.9683,33.0937,33.9466,34.6152,35.1533
0.527609,18.1083,25.1002,28.8082,31.1066,32.6712,33.8051,34.6647,35.3389,35.8818
0.518824,18.0439,25.0539,28.7973,31.1282,32.7197,33.8755,34.7531,35.4422,35.9976
0.515805,18.3548,25.5694,29.4316,31.8367,33.478,34.6694,35.5734,36.2829,36.8545
0.568453,20.4361,28.3763,32.5935,35.2071,36.9852,38.2732,39.2491,40.0141,40.6298
0.51313,18.7962,26.1633,30.1008,32.5523,34.2258,35.4412,36.3639,37.0884,37.6723
0.522837,19.4269,27.0412,31.109,33.6399,35.3665,36.6196,37.5704,38.3166,38.9178
0.517278,19.3793,26.9116,30.9204,33.4093,35.1049,36.3344,37.2667,37.998,38.5869
0.51002,19.3978,26.9582,30.9885,33.4933,35.201,36.4398,37.3796,38.117,38.711
0.55972,21.681,30.1689,34.6965,37.5106,39.429,40.8205,41.8759,42.704,43.3709
0.512635,20.2544,28.2193,32.4706,35.1135,36.9154,38.2227,39.2143,39.9923,40.619
0.516772,20.4398,28.309,32.471,35.0458,36.796,38.0631,39.0228,39.7749,40.3802
0.569005,22.8585,31.7453,36.485,39.4339,41.4463,42.9073,44.0164,44.8871,45.5888
0.508905,20.8231,28.9735,33.3245,36.0299,37.8746,39.2127,40.2277,41.024,41.6653
0.521029,22.1329,31.0636,35.8846,38.9006,40.965,42.4668,43.6084,44.5054,45.2289
0.567765,23.742,32.7342,37.4188,40.2875,42.2235,43.6178,44.6697,45.4915,46.1512
0.507027,21.4167,29.6636,34.0596,36.7996,38.6732,40.0361,41.0724,41.887,42.5443
0.516071,22.1901,30.906,35.5951,38.5265,40.5325,41.9913,43.0998,43.9707,44.6729
0.512817,22.463,31.3135,36.0467,38.9894,40.9946,42.4485,43.5507,44.4151,45.111
0.569445,25.4111,35.438,40.7895,44.1147,46.3808,48.0244,49.2709,50.2488,51.0364
0.516198,23.2995,32.4993,37.4265,40.4981,42.5968,44.122,45.2805,46.1904,46.924
0.521441,22.9763,31.5391,36.0017,38.7389,40.5888,41.9226,42.9297,43.717,44.3494
0.511424,23.4656,32.7905,37.8452,41.0239,43.2095,44.8051,46.0215,46.9795,47.7537
0.551816,25.7856,35.9831,41.4293,44.8098,47.1101,48.7757,50.0371,51.0252,51.8202
0.51503,24.5026,34.166,39.3088,42.4988,44.6705,46.2444,47.4376,48.3733,49.1268
0.511389,24.534,34.143,39.2585,42.4367,44.6036,46.1759,47.3689,48.3052,49.0595
0.511059,24.0243,32.99,37.6682,40.5414,42.4854,43.8882,44.9481,45.7772,46.4434
0.512595,24.8254,34.6134,39.9122,43.2435,45.5337,47.2055,48.4799,49.4836,50.2946
0.512555,25.2058,35.1144,40.407,43.6931,45.9296,47.5492,48.7759,49.7369,50.5102
0.519572,26.2508,36.7385,42.3676,45.8763,48.2725,50.0129,51.3344,52.3721,53.2085
0.548925,27.8326,38.6586,44.3753,47.905,50.3004,52.0325,53.3432,54.3695,55.195
0.511352,26.3624,36.7317,42.2716,45.7229,48.0807,49.7941,51.0958,52.1182,52.9427
0.51805,26.8513,37.2846,42.8213,46.2531,48.5883,50.2799,51.5617,52.5665,53.3752
0.560152,29.4889,41.0571,47.2375,51.0852,53.7117,55.6189,57.0668,58.2034,59.1195
0.508255,26.9073,37.3565,42.9052,46.345,48.6859,50.3818,51.6669,52.6744,53.4854
0.551986,29.4824,40.9451,47.0491,50.8417,53.4273,55.3031,56.7262,57.8428,58.7424
0.507406,27.4522,38.1671,43.8784,47.4272,49.846,51.6004,52.931,53.9748,54.8155
0.547916,28.902,39.6124,45.1918,48.6139,50.9271,52.5951,53.8548,54.8398,55.6311
0.501941,27.2843,38.0017,43.7991,47.4415,49.9445,51.7711,53.1632,54.2594,55.1452
0.55153,30.3817,42.3121,48.6924,52.6574,55.3577,57.3142,58.7965,59.9583,60.8932
0.546071,30.66,42.7699,49.2381,53.2575,55.9968,57.9834,59.4901,60.672,61.624
