0.398835,0.482232,0.518362,0.538537,0.551413,0.560345,0.566904,0.571925,0.575893,0.579106
0.290564,0.517725,0.664133,0.7649,0.838225,0.8939,0.937587,0.972769,1.0017,1.02592
0.227913,0.516443,0.697136,0.810968,0.88736,0.941627,0.981967,1.01305,1.03769,1.05768
0.220964,0.629271,0.890976,1.05465,1.16459,1.24314,1.30199,1.3477,1.38422,1.41406
0.205375,0.686983,0.974818,1.14437,1.25438,1.33125,1.38794,1.43146,1.46591,1.49385
0.212415,0.867413,1.28044,1.53415,1.70458,1.8269,1.91897,1.99079,2.04838,2.0956
0.188253,0.85266,1.23157,1.44964,1.59026,1.68831,1.76054,1.81595,1.85978,1.89533
0.428297,2.18554,3.16323,3.7262,4.0914,4.34756,4.53723,4.68334,4.79938,4.89376
0.171117,1.01445,1.50634,1.80044,1.99588,2.13519,2.2395,2.32054,2.38531,2.43827
0.169616,1.08615,1.58583,1.87328,2.05954,2.18993,2.28629,2.36039,2.41914,2.46685
0.193908,1.35543,1.98806,2.3588,2.60282,2.77576,2.9048,3.00479,3.08456,3.14968
0.158406,1.16112,1.67861,1.97518,2.1675,2.30232,2.40207,2.47885,2.53978,2.5893
0.15237,1.21867,1.79124,2.13136,2.35716,2.51808,2.6386,2.73225,2.80713,2.86836
0.170989,1.54904,2.34015,2.82374,3.14903,3.38253,3.55818,3.69507,3.80474,3.89455
0.189776,1.79566,2.64336,3.1309,3.44608,3.66626,3.82868,3.9534,4.05217,4.13233
0.143612,1.52482,2.2988,2.76349,3.07346,3.29508,3.4615,3.59107,3.69484,3.77982
0.152747,1.62367,2.35658,2.76965,3.03458,3.21892,3.35457,3.45857,3.54083,3.60752
0.264381,2.96302,4.32719,5.11873,5.63762,6.00455,6.2779,6.4895,6.65816,6.79578
0.139913,1.74818,2.62562,3.15417,3.50717,3.75944,3.94864,4.09575,4.2134,4.30962
0.140243,1.82097,2.68463,3.18135,3.50279,3.72752,3.89339,4.02081,4.12175,4.20368
0.141733,1.97665,2.95098,3.52944,3.91321,4.18671,4.3916,4.55088,4.67827,4.78249
0.136396,1.94719,2.85179,3.36875,3.70284,3.93636,4.10873,4.24116,4.34608,4.43125
0.148155,2.24183,3.32462,3.96518,4.38969,4.692,4.91836,5.09423,5.23484,5.34983
0.13503,2.17428,3.26627,3.92572,4.3674,4.68385,4.92169,5.10696,5.25534,5.37684
0.230771,3.66568,5.30301,6.21887,6.80197,7.20523,7.50056,7.7261,7.90394,8.04776
0.157166,2.67418,3.96238,4.72702,5.23526,5.59814,5.87044,6.0824,6.25213,6.39111
0.134682,2.2279,3.23042,3.8099,4.18832,4.45497,4.653,4.80589,4.92748,5.02649
0.134773,2.28675,3.32587,3.92895,4.32296,4.6005,4.80653,4.96552,5.09193,5.19483
0.135867,2.5371,3.82402,4.61078,5.141,5.52242,5.80992,6.03436,6.21444,6.36211
0.133597,2.59205,3.86296,4.6074,5.09368,5.4356,5.68893,5.88409,6.039,6.16495
0.140637,2.86748,4.30262,5.15934,5.72902,6.13557,6.44044,6.67761,6.86742,7.02278
0.144062,2.98611,4.40101,5.21479,5.74247,6.11216,6.3855,6.59576,6.76251,6.89798
0.139718,2.8499,4.14088,4.88302,5.36696,5.70802,5.96151,6.15741,6.31336,6.44048
0.153857,3.32566,4.94273,5.9119,6.55886,7.0215,7.36876,7.63901,7.85529,8.0323
0.131149,2.86344,4.19464,4.96185,5.45933,5.80759,6.06484,6.26257,6.41927,6.54648
0.136503,3.15784,4.73007,5.67988,6.31697,6.77435,7.11884,7.38772,7.60345,7.7804
0.129996,2.67789,3.74804,4.32503,4.68551,4.93195,5.11103,5.24702,5.35378,5.43983
0.130419,2.89743,4.25032,5.06165,5.60571,5.99673,6.2916,6.52201,6.70707,6.85899
0.134431,3.3233,5.04726,6.10439,6.81475,7.32349,7.70522,8.00199,8.23921,8.43309
0.118107,0.93941,1.03683,1.07325,1.09219,1.10378,1.1116,1.11723,1.12147,1.12479
0.116333,1.47825,2.2128,2.80639,3.30835,3.74104,4.11873,4.45161,4.74738,5.01199
0.116252,2.06735,3.49694,4.57412,5.36661,5.95493,6.40048,6.74545,7.01826,7.23818
0.114096,2.60784,4.47802,5.68962,6.48424,7.03394,7.43403,7.73759,7.97565,8.16736
0.115341,3.09496,5.13946,6.34657,7.12253,7.66362,8.06354,8.3718,8.617,8.81685
0.122208,3.39471,5.21455,6.19302,6.8049,7.22604,7.53441,7.77026,7.95657,8.10752
0.181133,5.59232,8.69749,10.5211,11.7402,12.6176,13.2807,13.7997,14.2173,14.5605
0.11422,3.55859,5.29463,6.25584,6.86985,7.29605,7.60902,7.84848,8.03755,8.1906
0.121406,3.87688,5.72665,6.779,7.46455,7.94763,8.3067,8.58419,8.80512,8.98522
0.122398,4.19024,6.3206,7.59411,8.4457,9.05558,9.5139,9.87089,10.1568,10.3909
0.11452,3.92192,5.77581,6.83317,7.516,7.99279,8.34438,8.61427,8.82793,9.00127
0.1205,4.37265,6.57646,7.89941,8.7848,9.41965,9.89738,10.27,10.5689,10.8139
0.114974,4.2605,6.31283,7.49447,8.26008,8.79565,9.19101,9.49471,9.73526,9.93046
0.114912,4.2314,6.18629,7.30359,8.02828,8.53691,8.91378,9.20431,9.43517,9.62306
0.118893,4.44805,6.60765,7.90793,8.78171,9.41033,9.8846,10.2553,10.553,10.7974
0.115659,4.23253,6.16821,7.28277,8.00598,8.5125,8.88674,9.17442,9.40238,9.58746
0.116911,4.6309,6.98721,8.42315,9.38981,10.085,10.609,11.0182,11.3466,11.616
0.117383,4.5492,6.62518,7.79099,8.53341,9.04664,9.42228,9.709,9.93496,10.1176
0.112773,4.42436,6.47054,7.65352,8.42711,8.97348,9.38028,9.69511,9.94606,10.1508
0.120944,4.83851,7.09633,8.40641,9.26244,9.86552,10.3133,10.6588,10.9334,11.157
0.126162,5.12907,7.5522,8.97151,9.90446,10.5646,11.0563,11.4368,11.7399,11.9872
0.122603,5.17243,7.7288,9.26324,10.2868,11.0183,11.5671,11.994,12.3356,12.6151
0.119548,5.10167,7.54833,8.97285,9.90222,10.5556,11.0399,11.413,11.7093,11.9502
0.114634,5.12368,7.62802,9.09213,10.0509,10.7272,11.2299,11.6182,11.9271,12.1788
0.169831,7.78487,11.5852,13.8126,15.2766,16.3127,17.0847,17.6822,18.1585,18.5469
0.115677,4.97591,7.16994,8.40951,9.20852,9.76696,10.1794,10.4966,10.7482,10.9525
0.120467,5.46525,8.16126,9.80403,10.9147,11.7167,12.3233,12.7982,13.1801,13.4939
0.120311,5.03927,7.20543,8.41885,9.193,9.72911,10.1221,10.4223,10.6592,10.8508
0.119227,5.16176,7.5516,8.95843,9.88744,10.5473,11.0405,11.4232,11.7287,11.9785
0.121583,5.82385,8.85902,10.7209,11.9747,12.8748,13.552,14.0797,14.5023,14.8483
0.1826,9.1147,13.7284,16.4329,18.197,19.4358,20.3527,21.0584,21.6184,22.0734
0.119972,5.85542,8.63027,10.2299,11.2727,12.0076,12.5539,12.9762,13.3125,13.5866
0.13441,6.44939,9.3996,11.0924,12.194,12.9687,13.5434,13.9868,14.3392,14.6261
0.129055,6.34642,9.37623,11.1696,12.3582,13.2043,13.8373,14.3287,14.7213,15.0422
0.116285,5.92934,8.88251,10.6607,11.8482,12.6969,13.3336,13.8287,14.2248,14.5488
0.111846,5.70637,8.37814,9.9022,10.8825,11.5648,12.0667,12.4512,12.7552,13.0015
0.192287,10.6005,16.0897,19.4349,21.691,23.3173,24.5461,25.5075,26.2805,26.9155
0.122164,5.90858,8.41367,9.80535,10.6928,11.3083,11.7605,12.1066,12.3802,12.6018
0.115389,5.66677,8.23966,9.74941,10.7468,11.4559,11.986,12.3975,12.7263,12.9949
0.114808,6.04283,9.1114,11.0009,12.2799,13.2023,13.8986,14.4427,14.8795,15.2378
0.112378,5.99085,8.90232,10.5998,11.7039,12.4775,13.0491,13.4885,13.8367,14.1193
0.187481,10.3664,15.5127,18.5583,20.5702,21.9993,23.0671,23.8957,24.5573,25.098
0.116689,6.24829,9.15186,10.8254,11.9156,12.6826,13.2518,13.691,14.0402,14.3245
0.112869,6.23848,9.29578,11.127,12.3496,13.2244,13.8815,14.3933,14.8031,15.1388
0.117837,6.0615,8.61744,10.0147,10.8927,11.4947,11.9329,12.2659,12.5276,12.7385
0.117415,6.20387,9.01436,10.6468,11.7186,12.4777,13.044,13.4829,13.8332,14.1192
0.178168,10.624,16.2861,19.816,22.2221,23.965,25.2848,26.3185,27.1498,27.8327
0.117331,6.69673,9.79728,11.5455,12.661,13.4329,13.9985,14.4305,14.7711,15.0466
0.121886,6.10384,8.45435,9.70357,10.4817,11.0141,11.4017,11.6966,11.9287,12.116
0.112982,6.31825,9.46396,11.4348,12.797,13.7973,14.5637,15.1699,15.6615,16.0682
0.113199,6.67799,10.0711,12.1122,13.4627,14.4179,15.1277,15.6751,16.1097,16.4631
0.162976,9.92888,14.9147,17.8547,19.7842,21.1467,22.1601,22.9434,23.5671,24.0755
0.121955,7.18226,10.5379,12.4688,13.7257,14.6101,15.2666,15.7736,16.1769,16.5054
0.112105,6.77441,10.043,11.9722,13.2481,14.1551,14.8331,15.3592,15.7793,16.1224
0.115864,7.36075,11.0327,13.2108,14.6494,15.6693,16.4297,17.0183,17.4873,17.8698
0.121981,7.82731,11.5442,13.6659,15.0336,15.9875,16.6907,17.2303,17.6576,18.0042
0.117312,7.18433,10.2987,12.0231,13.1209,13.8819,14.4409,14.869,15.2075,15.4818
0.115787,7.02394,10.166,11.9872,13.1835,14.0311,14.6635,15.1537,15.5448,15.8641
0.116008,7.1289,10.4381,12.3849,13.6679,14.5766,15.2536,15.7774,16.1947,16.5349
0.117848,7.77107,11.7546,14.1967,15.8435,17.028,17.9205,18.6171,19.1758,19.6338
0.116775,7.99892,12.0088,14.3588,15.8908,16.966,17.7612,18.373,18.8581,19.252
