0.56725,0.662747,0.70215,0.723662,0.737214,0.746534,0.753337,0.758521,0.762603,0.7659
0.358443,0.591825,0.728298,0.816898,0.878891,0.924654,0.959807,0.98765,1.01025,1.02895
0.282312,0.606944,0.80221,0.923332,1.00405,1.06119,1.10359,1.13622,1.16207,1.18304
0.238222,0.633612,0.866037,1.00349,1.09237,1.15418,1.19955,1.23423,1.2616,1.28373
0.214802,0.682442,0.947319,1.0989,1.19559,1.26245,1.3114,1.34877,1.37824,1.40208
0.190462,0.699505,0.974405,1.12789,1.22498,1.29185,1.34071,1.37797,1.40732,1.43104
0.176919,0.754021,1.06495,1.24001,1.35181,1.42936,1.48633,1.52994,1.5644,1.59232
0.167342,0.814358,1.15796,1.3505,1.47315,1.55806,1.6203,1.66789,1.70544,1.73583
0.16218,0.750912,0.990376,1.10872,1.17906,1.22567,1.25881,1.28359,1.30281,1.31815
0.159075,0.898944,1.28856,1.52135,1.67778,1.79056,1.87586,1.94268,1.99647,2.04071
0.143053,0.909434,1.3066,1.53093,1.67358,1.77179,1.84332,1.89767,1.94031,1.97465
0.167168,1.22343,1.7898,2.11305,2.3208,2.4654,2.57184,2.65347,2.71806,2.77046
0.13847,1.10327,1.59072,1.85821,2.02638,2.14179,2.22589,2.28988,2.34021,2.38083
0.136739,1.19411,1.72642,2.02294,2.21217,2.34358,2.44021,2.51428,2.57287,2.62039
0.143889,1.35543,1.95213,2.28269,2.49278,2.63812,2.74464,2.82606,2.89031,2.9423
0.156283,1.40687,1.93818,2.21841,2.39222,2.51071,2.59672,2.66201,2.71327,2.75459
0.174269,1.67207,2.359,2.74661,2.99722,3.17287,3.3029,3.40308,3.48263,3.54734
0.552064,4.85692,6.56947,7.47961,8.04553,8.43146,8.71144,8.9238,9.09038,9.22455
0.158035,1.31254,1.77254,2.0265,2.18874,2.30159,2.38469,2.44847,2.49897,2.53997
0.120429,1.13956,1.62943,1.9192,2.1102,2.24534,2.34589,2.42359,2.48541,2.53575
0.208732,2.38224,3.57738,4.29157,4.75914,5.08715,5.32937,5.51533,5.6625,5.78181
0.13293,1.77778,2.70962,3.25029,3.59768,3.83878,4.01567,4.15094,4.25771,4.34412
0.109976,1.62426,2.42392,2.86218,3.13627,3.32372,3.46,3.56357,3.64495,3.71058
0.111358,1.74743,2.55118,2.98426,3.25556,3.44187,3.57787,3.68157,3.76328,3.82934
0.110717,1.81777,2.63053,3.07636,3.36003,3.55688,3.70161,3.81253,3.90028,3.97142
0.126288,2.12705,3.04688,3.55234,3.87362,4.09607,4.25925,4.38406,4.48261,4.5624
0.128101,2.00759,2.76704,3.1694,3.41998,3.59125,3.71576,3.81038,3.88474,3.9447
0.107924,1.81736,2.5928,3.03549,3.32329,3.5256,3.67563,3.79135,3.88333,3.95819
0.227612,3.94473,5.59894,6.51231,7.089,7.4853,7.77407,7.99371,8.16633,8.30554
0.106091,1.96366,2.82954,3.31788,3.63099,3.84881,4.00912,4.13205,4.22933,4.30822
0.106271,2.09908,3.04177,3.57029,3.90726,4.1406,4.31168,4.44246,4.54566,4.62917
0.12827,2.67673,3.87777,4.54646,4.97161,5.26569,5.4812,5.64592,5.77592,5.88112
0.106316,2.28969,3.29264,3.84617,4.19711,4.43958,4.61717,4.75286,4.85993,4.94656
0.171003,3.85867,5.57274,6.53132,7.14456,7.57081,7.88436,8.1247,8.3148,8.46893
0.105103,2.44272,3.51101,4.10363,4.48048,4.74123,4.93235,5.07843,5.19372,5.28701
0.104914,2.49216,3.56411,4.15632,4.53225,4.79216,4.98259,5.12813,5.24298,5.33593
0.198335,4.91476,7.06528,8.26508,9.03091,9.56219,9.95239,10.2511,10.4871,10.6783
0.112478,2.58475,3.57476,4.10022,4.42667,4.64931,4.8109,4.93355,5.02983,5.10742
0.111551,2.6374,3.72492,4.33591,4.72934,5.00427,5.20734,5.36352,5.48739,5.58804
0.110773,2.70351,3.84675,4.48639,4.89422,5.17653,5.38337,5.54137,5.66596,5.76672
0.14471,3.71516,5.36285,6.29949,6.90256,7.32311,7.63308,7.87101,8.05939,8.21226
0.103771,2.81245,4.07999,4.79337,5.24889,5.56456,5.7961,5.97315,6.11289,6.22599
0.102615,2.82643,4.05643,4.73542,5.1653,5.46192,5.67896,5.84467,5.97534,6.08104
0.131333,3.58718,5.09208,5.91996,6.44513,6.80835,7.07467,7.27834,7.43917,7.56939
0.111154,3.1307,4.4755,5.22654,5.70661,6.04001,6.28505,6.47275,6.62111,6.74133
0.101853,2.95285,4.23821,4.95881,5.41972,5.7398,5.975,6.15511,6.29746,6.41279
0.156279,4.29437,6.00299,6.92861,7.5099,7.90905,8.20012,8.42181,8.5963,8.73721
0.105719,2.95303,4.18361,4.87468,5.31871,5.62837,5.85673,6.03213,6.17109,6.2839
0.115122,3.25357,4.61391,5.37078,5.85208,6.18481,6.42845,6.61449,6.76118,6.87979
0.177165,5.20207,7.43171,8.67392,9.46378,10.0099,10.4099,10.7156,10.9566,11.1517
0.101585,3.1335,4.536,5.33201,5.84452,6.20208,6.46576,6.66824,6.82862,6.9588
0.154345,5.10818,7.48493,8.83754,9.70735,10.313,10.7587,11.1004,11.3707,11.5897
0.101743,3.44857,5.00048,5.86436,6.41364,6.7936,7.07208,7.28495,7.45296,7.58894
0.101408,3.55332,5.14757,6.03826,6.60731,7.00252,7.29308,7.51572,7.69178,7.83449
0.101588,3.59266,5.14347,5.99486,6.5331,6.90416,7.17545,7.38243,7.54556,7.67742
0.135715,4.81969,6.87229,8.00748,8.73007,9.23089,9.5986,9.8801,10.1026,10.2828
0.241395,8.99998,13.0114,15.2793,16.7385,17.756,18.5059,19.0815,19.5371,19.9067
0.120133,4.459,6.3619,7.41109,8.07529,8.53334,8.86827,9.12381,9.32519,9.48798
0.103569,3.53461,4.89073,5.61823,6.07372,6.38615,6.61392,6.78739,6.92394,7.03423
0.100185,3.60295,5.14085,6.01601,6.58259,6.97957,7.27324,7.49929,7.67867,7.82448
0.0994651,3.75401,5.43447,6.39413,7.01274,7.44396,7.7615,8.00497,8.19752,8.35361
0.141084,5.57862,8.10952,9.53764,10.4505,11.0835,11.548,11.9033,12.1839,12.411
0.0998778,3.92547,5.60625,6.52684,7.10702,7.50618,7.79765,8.01987,8.19491,8.33636
0.170931,6.82595,9.76107,11.3907,12.4297,13.1506,13.6802,14.086,14.4068,14.6668
0.104943,4.2451,6.0814,7.10931,7.76736,8.22488,8.56143,8.8194,9.02341,9.1888
0.133795,5.50138,7.88497,9.2167,10.0668,10.6563,11.0891,11.4202,11.6818,11.8936
0.101492,4.21342,6.01921,7.02109,7.65787,8.09828,8.42102,8.66767,8.86231,9.01982
0.0997178,4.18184,5.98575,6.99594,7.64258,8.09221,8.42304,8.67667,8.87733,9.04004
0.130951,5.48018,7.78152,9.04807,9.84902,10.401,10.8044,11.1121,11.3545,11.5504
0.100022,4.14692,5.86106,6.80474,7.40292,7.81621,8.11894,8.35027,8.53282,8.68054
0.136416,6.04193,8.77154,10.3378,11.354,12.0665,12.5938,12.9997,13.3218,13.5836
0.0998166,4.44898,6.3973,7.4837,8.17455,8.6521,9.00177,9.26878,9.47933,9.6496
0.131772,5.58615,7.81143,9.00444,9.74842,10.2569,10.6266,10.9075,11.1281,11.3061
0.107917,4.50488,6.34156,7.36493,8.02097,8.47822,8.81543,9.07447,9.27975,9.44645
0.117456,5.16375,7.4258,8.71252,9.54161,10.1197,10.5454,10.8719,11.1302,11.3395
0.0989974,4.51272,6.54253,7.69715,8.43999,8.95749,9.33854,9.63078,9.862,10.0495
0.150578,7.27877,10.6299,12.5218,13.7314,14.5703,15.186,15.6569,16.0288,16.3299
0.0987477,4.39925,6.1427,7.06885,7.64378,8.03579,8.32034,8.53635,8.70595,8.84267
0.116772,5.5006,7.93197,9.32601,10.2348,10.8754,11.3515,11.7195,12.0124,12.2512
0.100401,4.23969,5.84454,6.69928,7.23034,7.59212,7.85433,8.05306,8.20884,8.33422
0.286587,13.0258,18.7455,22.0517,24.2124,25.7364,26.8695,27.7451,28.4422,29.0104
0.0973622,4.64567,6.73046,7.90794,8.65955,9.17951,9.5601,9.85053,10.0793,10.2642
0.113966,5.83423,8.56448,10.1162,11.1125,11.8058,12.3158,12.7069,13.0163,13.2671
0.0989401,5.27174,7.69814,9.05244,9.91391,10.5099,10.9467,11.2806,11.5441,11.7573
0.126581,6.88045,9.93326,11.6093,12.6682,13.3981,13.9318,14.3391,14.6601,14.9197
0.107298,5.93297,8.53196,9.96753,10.8803,11.5125,11.9764,12.3315,12.6119,12.8391
0.117918,6.44624,9.16742,10.6599,11.605,12.2577,12.7356,13.1006,13.3885,13.6214
0.0967092,5.39919,7.72823,9.02785,9.8587,10.4359,10.8602,11.1852,11.4423,11.6506
0.113013,6.43189,9.22565,10.7845,11.7788,12.4679,12.9735,13.3603,13.6657,13.913
0.0999277,5.61181,7.95179,9.23155,10.0383,10.5934,10.9986,11.3074,11.5506,11.7471
0.1129,6.53986,9.39165,10.9976,12.0295,12.7489,13.2793,13.6865,14.0091,14.2709
0.0968609,5.70532,8.19591,9.58884,10.4776,11.0937,11.5456,11.8913,12.1643,12.3852
0.112707,6.72807,9.64197,11.2596,12.2874,12.9981,13.5189,13.9168,14.2307,14.4848
0.0961435,5.90087,8.50484,9.9652,10.8997,11.5492,12.0269,12.3929,12.6824,12.9171
0.0977892,5.90729,8.38454,9.73796,10.5905,11.1767,11.6044,11.9304,12.1869,12.3941
0.0969021,5.85641,8.32606,9.69628,10.5698,11.1758,11.6211,11.9622,12.2318,12.4503
0.0972199,5.95678,8.5119,9.94083,10.8541,11.4882,11.954,12.3107,12.5926,12.8209
0.112392,6.99864,10.0341,11.7337,12.8195,13.5729,14.1262,14.5497,14.8842,15.1552
0.097529,5.98694,8.50424,9.89336,10.7737,11.3816,11.8265,12.1662,12.4342,12.6509
0.0965892,5.97004,8.47974,9.86451,10.7422,11.3482,11.7918,12.1306,12.3977,12.6138
