0.825338,0.91448,0.948632,0.966684,0.977848,0.985435,0.990927,0.995086,0.998345,1.00097
0.541981,0.854139,1.03207,1.14639,1.22593,1.28445,1.32928,1.36474,1.39347,1.41723
0.4772,1.02284,1.36019,1.57309,1.71643,1.81854,1.89461,1.95333,1.99995,2.03782
0.374327,1.02338,1.41662,1.64952,1.7993,1.90278,1.9783,2.03576,2.0809,2.11729
0.337901,1.12202,1.57266,1.82676,1.98667,2.09615,2.17573,2.23618,2.28366,2.32193
0.321026,1.24646,1.74866,2.02433,2.19681,2.31482,2.40065,2.46591,2.5172,2.55857
0.300763,1.34396,1.89147,2.19093,2.37906,2.50825,2.60247,2.67424,2.73073,2.77635
0.278942,1.38651,1.93604,2.23122,2.41508,2.5406,2.63174,2.70093,2.75525,2.79902
0.265476,1.45595,2.03053,2.34014,2.53386,2.66657,2.7632,2.83671,2.89451,2.94116
0.249349,1.49762,2.08714,2.4044,2.60263,2.73825,2.83687,2.91181,2.97068,3.01815
0.24081,1.57629,2.19973,2.5361,2.7466,2.89074,2.99564,3.0754,3.13809,3.18866
0.229828,1.63848,2.29535,2.65166,2.87526,3.02866,3.14042,3.22547,3.29236,3.34635
0.273981,2.14583,3.03167,3.51667,3.82246,4.03282,4.18638,4.30339,4.39552,4.46993
0.220687,1.86834,2.63831,3.05655,3.31881,3.49855,3.6294,3.7289,3.80712,3.87022
0.255691,2.35646,3.34286,3.88096,4.21947,4.45203,4.62166,4.75086,4.85254,4.93465
0.213446,2.02549,2.81344,3.22766,3.48276,3.65561,3.78046,3.87485,3.94872,4.00811
0.20809,2.12396,2.98749,3.4587,3.75651,3.96203,4.1125,4.22745,4.31816,4.39157
0.399952,4.3526,6.14735,7.12845,7.74682,8.17202,8.48225,8.71853,8.90447,9.05459
0.203996,2.34331,3.30532,3.82787,4.15578,4.38064,4.54441,4.66899,4.76696,4.846
0.203343,2.48324,3.50941,4.06676,4.41653,4.65643,4.8312,4.96419,5.06878,5.15318
0.368201,4.67385,6.56504,7.5831,8.21926,8.6545,8.97106,9.21165,9.40071,9.55318
0.315761,4.18014,5.87368,6.7915,7.36799,7.7639,8.05264,8.27255,8.44564,8.58543
0.196043,2.71381,3.81232,4.40603,4.77779,5.0324,5.21768,5.35854,5.46923,5.55851
0.204241,2.85878,3.9679,4.55761,4.92369,5.17311,5.35399,5.49116,5.59878,5.68545
0.192725,2.81604,3.9472,4.56524,4.95576,5.22509,5.42214,5.57258,5.69121,5.78717
0.186803,2.87688,4.05636,4.70032,5.10535,5.38339,5.58597,5.7401,5.86129,5.95907
0.187129,2.95838,4.15041,4.79451,5.19753,5.47343,5.67416,5.82676,5.94669,6.04343
0.185262,3.05265,4.29919,4.97805,5.40518,5.69876,5.91298,6.07619,6.20469,6.30848
0.18448,3.15246,4.44007,5.13948,5.57857,5.87981,6.09929,6.26631,6.39767,6.50368
0.586026,10.3891,14.6035,16.8748,18.2935,19.2634,19.9684,20.5039,20.9244,21.2634
0.207886,3.57354,4.90473,5.60138,6.03042,6.32136,6.53171,6.69089,6.81556,6.91586
0.21626,3.54014,4.78605,5.43849,5.84193,6.11648,6.31554,6.46651,6.58497,6.68041
0.297872,5.05444,7.00276,8.07892,8.76417,9.23913,9.58781,9.85467,10.0655,10.2363
0.176129,3.25114,4.63336,5.41338,5.91242,6.25847,6.51228,6.7063,6.85938,6.98323
0.172416,3.41558,4.89729,5.7155,6.2304,6.58343,6.84032,7.03556,7.18893,7.31258
0.270451,5.65551,8.07906,9.39315,10.2141,10.7753,11.1833,11.4932,11.7366,11.9329
0.17713,3.74765,5.27156,6.08324,6.58761,6.9317,7.18154,7.37124,7.5202,7.64027
0.171818,3.73415,5.25727,6.08197,6.60072,6.95755,7.21816,7.41688,7.57344,7.69997
0.267222,5.45085,7.38523,8.37134,8.96938,9.37065,9.65848,9.87499,10.0437,10.179
0.167679,3.70964,5.25016,6.12009,6.68296,7.07783,7.37043,7.59605,7.77537,7.92135
0.169769,4.01897,5.76259,6.73703,7.3561,7.78308,8.09492,8.33246,8.51935,8.67017
0.282025,6.94435,9.87556,11.459,12.4447,13.1163,13.6031,13.9721,14.2614,14.4943
0.16982,4.27531,6.04105,6.99246,7.58756,7.9953,8.29229,8.51833,8.69617,8.83975
0.167649,4.30407,6.06077,7.00916,7.60375,8.01165,8.30893,8.53522,8.71326,8.85699
0.165528,4.38263,6.18815,7.17032,7.78842,8.21331,8.52333,8.75953,8.94545,9.09562
0.165401,4.31264,6.00244,6.90503,7.46716,7.85096,8.12971,8.34134,8.50749,8.64141
0.176426,4.7862,6.74428,7.81697,8.49509,8.96269,9.30469,9.56571,9.77149,9.93788
0.157352,1.96294,2.24125,2.35234,2.41202,2.44925,2.47468,2.49315,2.50718,2.51819
0.157128,2.82184,4.0869,4.99503,5.69536,6.25547,6.71474,7.09859,7.42436,7.70442
0.15602,3.60159,5.62246,6.94086,7.82889,8.45289,8.90919,9.25451,9.5235,9.73816
0.155906,4.1084,6.26333,7.46364,8.19671,8.6849,9.03208,9.29139,9.49243,9.65289
0.155684,4.52744,6.74154,7.91536,8.63328,9.11853,9.4692,9.73485,9.94323,10.1112
0.224298,7.09186,10.4128,12.1696,13.2588,14.0026,14.5437,14.9552,15.2788,15.54
0.15499,5.07086,7.2872,8.45339,9.17767,9.67244,10.0321,10.3055,10.5204,10.6936
0.259103,8.78225,12.5136,14.4985,15.7389,16.5887,17.2076,17.6785,18.0488,18.3477
0.156296,5.38132,7.61442,8.81396,9.56694,10.0841,10.4614,10.7488,10.975,11.1577
0.153671,5.3869,7.6106,8.81573,9.57437,10.0961,10.4769,10.7671,10.9955,11.1801
0.212892,7.64538,10.7821,12.4746,13.534,14.2593,14.7869,15.1878,15.5028,15.7568
0.154677,5.58484,7.84682,9.07004,9.83778,10.3648,10.749,11.0415,11.2718,11.4577
0.18935,7.06549,9.98371,11.5737,12.5743,13.2618,13.7632,14.1451,14.4456,14.6882
0.15387,5.72054,8.02756,9.27558,10.0583,10.5951,10.9862,11.2838,11.518,11.707
0.195436,7.27511,10.1781,11.7464,12.7291,13.4029,13.8935,14.2669,14.5604,14.7974
0.241086,9.14759,12.8413,14.8458,16.1044,16.9679,17.5972,18.0761,18.4527,18.7567
0.152018,5.91476,8.34558,9.67329,10.5097,11.0848,11.5045,11.8243,12.076,12.2794
0.212469,8.38524,11.7884,13.6246,14.7719,15.5564,16.1265,16.5596,16.8996,17.1738
0.152277,6.07384,8.54383,9.88643,10.731,11.3116,11.7354,12.0583,12.3127,12.5182
0.151298,6.15718,8.67674,10.0468,10.9076,11.4986,11.9292,12.257,12.5149,12.723
0.15163,6.11907,8.54855,9.85362,10.6683,11.2254,11.6304,11.9381,12.1798,12.3747
0.147659,2.98881,3.46752,3.66395,3.77102,3.83843,3.88477,3.91859,3.94435,3.96464
0.203941,5.74041,8.29991,10.0894,11.4424,12.5079,13.3708,14.0846,14.6853,15.1979
0.16716,5.73413,8.7523,10.6473,11.8987,12.7689,13.4018,13.8794,14.2509,14.5474
0.199883,7.75961,11.7059,13.905,15.2587,16.1671,16.8172,17.3052,17.6849,17.989
0.148178,6.14868,9.04226,10.5785,11.5217,12.1607,12.623,12.9735,13.2485,13.4701
0.177914,7.78815,11.2711,13.1094,14.248,15.0247,15.5892,16.0181,16.3551,16.627
0.155564,6.95999,9.9254,11.4975,12.4777,13.1489,13.6377,14.0096,14.3021,14.5382
0.17473,7.30193,10.0239,11.4207,12.2764,12.8553,13.2732,13.589,13.8362,14.0349
0.146768,6.49344,9.20375,10.7159,11.6884,12.3678,12.8695,13.2553,13.5613,13.8098
0.172368,7.96575,11.3419,13.193,14.3579,15.1566,15.7375,16.1788,16.5251,16.8042
0.146979,6.96481,9.8908,11.4802,12.4766,13.1594,13.6566,14.0348,14.3321,14.5721
0.202268,8.62552,11.6013,13.0845,13.9719,14.5624,14.9836,15.2993,15.5446,15.7407
0.150153,6.43884,8.88051,10.2156,11.0661,11.6574,12.0929,12.4273,12.6922,12.9073
0.145705,6.71112,9.55788,11.1657,12.1971,12.9139,13.4402,13.843,14.1609,14.4182
0.145397,6.46586,8.92075,10.1973,10.9737,11.4943,11.8672,12.1472,12.3653,12.5398
0.145067,7.05582,10.1396,11.8849,13.0111,13.7994,14.3827,14.832,15.1889,15.4792
0.372137,19.1786,27.6083,32.2367,35.1425,37.1313,38.5761,39.6724,40.5323,41.2247
0.145333,7.50033,10.5973,12.2449,13.2657,13.9601,14.4633,14.8448,15.144,15.3849
0.144867,7.65368,10.8305,12.5493,13.6294,14.3719,14.914,15.3273,15.653,15.9161
0.15745,8.34495,11.7385,13.5667,14.7115,15.496,16.0671,16.5015,16.843,17.1186
0.144603,7.85672,11.1137,12.892,14.0138,14.7861,15.3503,15.7806,16.1195,16.3934
0.210816,11.6253,16.4144,19.0125,20.6424,21.7599,22.5737,23.1927,23.6794,24.072
0.144363,8.0476,11.3408,13.1242,14.2426,15.0096,15.5684,15.9936,16.328,16.5979
0.145878,8.10339,11.3501,13.0967,14.1884,14.9356,15.4792,15.8924,16.2171,16.479
0.143649,8.12367,11.4384,13.2437,14.3807,15.1626,15.7335,16.1685,16.5111,16.7879
0.182226,10.4885,14.7999,17.1482,18.6248,19.6388,20.378,20.9407,21.3834,21.7407
0.142916,8.24084,11.61,13.4465,14.603,15.3983,15.9789,16.4214,16.7699,17.0514
0.186053,10.8409,15.2481,17.6336,19.1276,20.1509,20.8955,21.4616,21.9065,22.2653
0.144157,8.45011,11.8575,13.6959,14.846,15.6336,16.2066,16.6424,16.9849,17.2612
0.166549,9.87675,13.8901,16.0699,17.44,18.3811,19.0674,19.5902,20.0017,20.3339
0.161695,9.75633,13.7554,15.9311,17.2985,18.2374,18.9218,19.4428,19.8526,20.1835
0.157621,4.92217,5.76392,6.11151,6.30126,6.42076,6.50293,6.5629,6.60859,6.64456
