0.54496,0.694106,0.763784,0.804146,0.830478,0.849013,0.862766,0.873377,0.881812,0.888679
0.316672,0.517511,0.626509,0.693665,0.738966,0.771527,0.796036,0.815143,0.830452,0.842991
0.223436,0.47243,0.620938,0.714163,0.777241,0.822527,0.856539,0.882989,0.904132,0.921412
0.639497,1.70066,2.3522,2.75364,3.02071,3.21008,3.35102,3.45989,3.54645,3.61691
0.149104,0.486556,0.692134,0.814936,0.895105,0.951301,0.992814,1.02471,1.04998,1.0705
0.129995,0.495546,0.707157,0.829159,0.907596,0.962166,1.00231,1.03308,1.05741,1.07714
0.121427,0.54725,0.796842,0.943121,1.03871,1.10605,1.15605,1.19466,1.22537,1.25038
0.113001,0.585069,0.855068,1.01114,1.11229,1.18311,1.23544,1.27568,1.30759,1.3335
0.101863,0.591466,0.863219,1.0192,1.1202,1.19093,1.24323,1.28347,1.3154,1.34136
0.127247,0.795988,1.14424,1.33956,1.46452,1.55136,1.61522,1.66415,1.70285,1.73423
0.105695,0.724565,1.04842,1.23404,1.35463,1.43935,1.50215,1.55057,1.58905,1.62036
0.102105,0.791175,1.17047,1.39467,1.5427,1.6477,1.72602,1.78669,1.83506,1.87452
0.0976948,0.870294,1.31899,1.5897,1.77008,1.89869,1.99497,2.06973,2.12945,2.17824
0.0935948,0.920943,1.38934,1.66472,1.84513,1.9723,2.06674,2.13962,2.19757,2.24475
0.255818,2.72052,4.07463,4.8643,5.38143,5.74655,6.0182,6.22824,6.39552,6.53191
0.0888042,1.00785,1.50018,1.78668,1.97441,2.10703,2.20573,2.28205,2.34284,2.39239
0.0885097,1.06487,1.58301,1.88707,2.08752,2.22971,2.33583,2.41808,2.4837,2.53727
0.0840418,1.06202,1.57246,1.87105,2.06724,2.20602,2.30936,2.38929,2.45297,2.50488
0.0828173,1.09042,1.6074,1.90888,2.10656,2.2462,2.3501,2.43042,2.49438,2.5465
0.0994989,1.34991,1.97927,2.34519,2.58476,2.75385,2.87959,2.97675,3.05409,3.11712
0.249572,3.27649,4.65359,5.41879,5.90637,6.24431,6.49234,6.68214,6.83207,6.95349
0.107052,1.36825,1.91399,2.21522,2.40687,2.53967,2.63716,2.71179,2.77076,2.81853
0.0930563,1.19478,1.68651,1.96685,2.14875,2.27644,2.37104,2.44396,2.50188,2.549
0.0977756,1.30163,1.86386,2.1891,2.40095,2.54978,2.66002,2.74494,2.81236,2.86716
0.0901184,1.25783,1.81633,2.13791,2.34615,2.4918,2.59933,2.68196,2.74742,2.80056
0.0871635,1.24686,1.79296,2.10292,2.30221,2.44106,2.54335,2.62183,2.68395,2.73435
0.0846928,1.32688,1.96474,2.34334,2.59385,2.77189,2.90493,3.00813,3.09052,3.15782
0.134704,2.25739,3.35323,3.99315,4.41066,4.70411,4.92149,5.08892,5.22182,5.32986
0.0934824,1.65193,2.43871,2.88919,3.1801,3.38337,3.53341,3.6487,3.74006,3.81425
0.0908656,1.58357,2.27806,2.66509,2.91237,3.08424,3.21069,3.30766,3.38439,3.44663
0.0845376,1.58376,2.34209,2.79161,3.09029,3.30341,3.46319,3.58746,3.68687,3.76822
0.0835247,1.67841,2.50937,3.00177,3.32655,3.55649,3.72771,3.86008,3.96546,4.05132
0.0819968,1.81655,2.76709,3.33867,3.71875,3.98946,4.19198,4.34919,4.47475,4.57734
0.0825051,1.85921,2.75203,3.25916,3.58502,3.81192,3.97897,4.10707,4.20843,4.29062
0.0790243,1.84884,2.75629,3.29272,3.64893,3.90324,4.09411,4.24271,4.36172,4.4592
0.0785261,1.91006,2.85981,3.42622,3.80295,4.07161,4.27283,4.42915,4.55407,4.65618
0.085763,2.16725,3.2423,3.87874,4.29909,4.59726,4.81969,4.99197,5.12932,5.24139
0.0772586,1.98428,2.94309,3.5042,3.87264,4.13314,4.32711,4.47714,4.59667,4.69413
0.070232,0.603171,0.668798,0.694005,0.707365,0.715645,0.721282,0.725367,0.728464,0.730892
0.0722546,0.970492,1.44534,1.82366,2.13961,2.40899,2.64188,2.84541,3.02489,3.1844
0.0766898,1.4034,2.33339,3.01732,3.51312,3.87794,4.15281,4.36501,4.53256,4.66753
0.0767901,1.64067,2.63491,3.22583,3.59594,3.84521,4.02354,4.15722,4.26114,4.34425
0.147771,3.58961,5.6117,6.73936,7.44532,7.92973,8.28371,8.55421,8.76789,8.94109
0.0755821,1.91455,2.88063,3.41058,3.74747,3.98187,4.15481,4.2878,4.39332,4.47909
0.0748137,2.01259,3.01142,3.57662,3.94392,4.2026,4.39479,4.54326,4.66141,4.75767
0.0735502,2.06808,3.06745,3.63406,4.00101,4.25819,4.44843,4.59484,4.71099,4.80538
0.130208,3.90767,5.81719,6.91221,7.62395,8.12364,8.49371,8.77879,9.00512,9.18918
0.0720611,2.15615,3.15065,3.71355,4.07715,4.33159,4.5197,4.66444,4.77928,4.87263
0.0716072,2.21541,3.25332,3.85204,4.24288,4.51823,4.72272,4.8806,5.00618,5.10845
0.0720055,2.25829,3.29577,3.88858,4.27241,4.54116,4.7398,4.89258,5.01374,5.11218
0.120906,4.05112,6.04008,7.21846,7.99839,8.55278,8.96712,9.28853,9.54513,9.75473
0.0721025,2.46552,3.65827,4.3564,4.81436,5.13777,5.3783,5.56416,5.71209,5.83262
0.0711458,2.60896,3.94937,4.75765,5.29787,5.68436,5.97456,6.20046,6.38131,6.52936
0.0707905,2.72423,4.11622,4.94091,5.48458,5.86954,6.1563,6.37814,6.55483,6.69888
0.115688,4.74287,7.20309,8.66435,9.63052,10.3166,10.8289,11.2261,11.5431,11.8019
0.0935404,3.74307,5.52443,6.54826,7.21455,7.68324,8.03105,8.29947,8.51293,8.68676
0.0697966,2.7707,4.0836,4.85639,5.36841,5.73323,6.00651,6.21894,6.38883,6.52781
0.0686634,2.85387,4.27461,5.12834,5.69809,6.10507,6.41018,6.64735,6.83696,6.992
0.069755,2.89092,4.23901,5.00802,5.50316,5.84809,6.10201,6.29667,6.45063,6.57543
0.0706659,2.76153,3.95329,4.62403,5.05593,5.35782,5.58092,5.7526,5.88884,5.9996
0.0738765,2.94748,4.30559,5.10722,5.63832,6.01641,6.29937,6.51911,6.6947,6.83822
0.115079,4.46008,6.36964,7.43367,8.10937,8.57564,8.91645,9.17631,9.38094,9.54622
0.0738982,2.81554,4.03257,4.72795,5.17939,5.49657,5.73181,5.9133,6.05762,6.17514
0.072532,2.79801,4.05426,4.78469,5.26254,5.59944,5.84971,6.04293,6.1966,6.32172
0.101012,4.1242,6.0854,7.23678,7.99112,8.5228,8.91746,9.22192,9.46388,9.66078
0.0788047,3.11507,4.50039,5.28603,5.79158,6.14418,6.40416,6.6038,6.76193,6.8903
0.0705778,2.96332,4.38403,5.22131,5.77332,6.1647,6.45669,6.68289,6.86329,7.01053
0.0700688,3.08472,4.56756,5.42331,5.97762,6.36526,6.65135,6.87109,7.04512,7.18634
0.109567,4.99657,7.35369,8.69092,9.55015,10.1486,10.5894,10.9275,11.1951,11.4123
0.0713788,3.11659,4.48265,5.24861,5.7409,6.0846,6.33839,6.53355,6.68833,6.81411
0.0707378,3.24096,4.77355,5.67567,6.27188,6.6955,7.01203,7.25753,7.45349,7.61353
0.119622,5.7279,8.48257,10.0868,11.1331,11.8682,12.4125,12.8316,13.1641,13.4344
0.0711483,3.51318,5.25748,6.30012,6.99446,7.49042,7.86256,8.15219,8.38404,8.57386
0.0720939,3.76115,5.68821,6.84405,7.61243,8.15966,8.56899,8.88664,9.14026,9.34741
0.0877379,4.85359,7.36412,8.85432,9.83723,10.5334,11.0522,11.4536,11.7735,12.0343
0.0703399,3.76946,5.48612,6.43633,7.03863,7.4545,7.75891,7.99139,8.17474,8.32307
0.0695905,3.79686,5.63514,6.73382,7.47099,8.00154,8.4022,8.71568,8.96773,9.17485
0.0685083,3.93541,5.91555,7.10092,7.88836,8.44845,8.86679,9.19094,9.44938,9.6602
0.104289,6.22989,9.33029,11.1427,12.3264,13.159,13.7762,14.2519,14.6297,14.937
0.0706677,3.98645,5.82152,6.88127,7.5747,8.06478,8.4299,8.7126,8.93802,9.12202
0.0728676,4.03749,5.87933,6.94944,7.65098,8.14668,8.51558,8.80082,9.02794,9.21306
0.0792727,4.09361,5.77423,6.69823,7.2824,7.68484,7.97884,8.20299,8.37952,8.52214
0.0726085,3.58337,5.02328,5.82091,6.32932,6.68206,6.94127,7.13985,7.29687,7.42416
0.0721462,3.59557,5.17793,6.10778,6.7221,7.1586,7.48484,7.73794,7.94004,8.10514
0.0714296,3.7531,5.5311,6.5856,7.28014,7.77104,8.13602,8.41785,8.64195,8.82438
0.19314,10.5202,15.4492,18.2651,20.0723,21.3275,22.2493,22.9547,23.5118,23.9629
0.0710132,3.75432,5.43606,6.39319,7.01239,7.44653,7.76808,8.01595,8.21293,8.37325
0.073067,3.92843,5.7602,6.83517,7.54391,8.04673,8.42209,8.71301,8.94511,9.1346
0.0930286,4.82603,6.95098,8.15717,8.93413,9.4761,9.87556,10.1821,10.4248,10.6217
0.0714019,3.64095,5.26205,6.20114,6.81559,7.24935,7.57206,7.82158,8.02031,8.18233
0.0702133,3.7898,5.63786,6.74954,7.491,8.02041,8.41719,8.72557,8.97209,9.17364
0.0921527,5.27905,7.94354,9.53172,10.5797,11.3214,11.8736,12.3004,12.6401,12.9169
0.0704591,4.15983,6.29567,7.58586,8.44932,9.06808,9.53345,9.89628,10.1872,10.4256
0.0692882,4.3446,6.6307,8.00885,8.92714,9.58216,10.0727,10.4537,10.7581,11.0068
0.0719277,4.77188,7.28088,8.77354,9.75987,10.4596,10.9816,11.386,11.7084,11.9715
0.0790254,4.88924,7.07002,8.27198,9.03411,9.56092,9.947,10.2422,10.4752,10.6638
0.0722252,4.60665,6.85238,8.20477,9.11656,9.77481,10.2729,10.6633,10.9774,11.2358
0.0812991,5.51235,8.34352,10.0566,11.2011,12.0181,12.6298,13.1046,13.4837,13.7932
0.0740981,4.58719,6.58173,7.68866,8.39193,8.87819,9.23449,9.50681,9.72174,9.89569
0.0732834,4.47115,6.5144,7.7233,8.5283,9.10434,9.53744,9.87512,10.1459,10.3678
