0.457257,0.585484,0.645856,0.680964,0.703923,0.720109,0.732134,0.741419,0.748806,0.754822
0.268829,0.447763,0.547185,0.609213,0.651381,0.681848,0.704869,0.722868,0.737322,0.749182
0.192297,0.416051,0.552167,0.638326,0.696872,0.739011,0.770711,0.795391,0.815135,0.831283
0.323902,0.879728,1.22535,1.43924,1.58186,1.68314,1.75861,1.81695,1.86337,1.90118
0.128196,0.425244,0.607266,0.71621,0.787443,0.837437,0.874406,0.902838,0.925377,0.943681
0.111652,0.432887,0.621991,0.732458,0.804152,0.854372,0.891502,0.920071,0.942736,0.961155
0.101804,0.46197,0.674773,0.800541,0.883193,0.941645,0.985172,1.01885,1.04567,1.06755
0.094695,0.489939,0.717993,0.851346,0.938468,0.999808,1.04532,1.08043,1.10834,1.13105
0.0884858,0.507459,0.739308,0.872773,0.959327,1.02,1.06489,1.09944,1.12686,1.14916
0.0976742,0.615459,0.893975,1.05352,1.15687,1.22927,1.28282,1.32404,1.35675,1.38334
0.180142,1.22007,1.75893,2.06486,2.26214,2.39996,2.50169,2.57987,2.64183,2.69215
0.103977,0.748382,1.07371,1.25832,1.37745,1.46074,1.52225,1.56955,1.60705,1.63752
0.0997199,0.767611,1.10491,1.29814,1.42351,1.51145,1.57654,1.62668,1.66647,1.69883
0.0955616,0.803459,1.1733,1.38961,1.53152,1.63177,1.70634,1.76398,1.80986,1.84725
0.105977,0.990521,1.47141,1.75644,1.94448,2.07769,2.17696,2.25378,2.31499,2.36489
0.207009,2.0787,3.067,3.63783,4.00814,4.26754,4.45931,4.60681,4.72379,4.81882
0.0825266,0.878944,1.2912,1.52891,1.6836,1.79237,1.87305,1.93529,1.98477,2.02505
0.0810221,0.916278,1.34935,1.60181,1.76741,1.88446,1.9716,2.039,2.09269,2.13647
0.0783913,0.951878,1.40848,1.67531,1.85017,1.97358,2.0653,2.13615,2.19251,2.23842
0.0830963,1.02085,1.47699,1.7344,1.89972,2.01487,2.09968,2.16476,2.21626,2.25805
0.0893593,1.15413,1.68706,1.99785,2.20213,2.34681,2.45471,2.53828,2.60494,2.65935
0.0872718,1.15744,1.67592,1.97141,2.16211,2.29528,2.39349,2.46889,2.5286,2.57704
0.168233,2.32833,3.38101,3.98526,4.37746,4.6526,4.85632,5.01324,5.13784,5.23916
0.0833642,1.21186,1.77392,2.10137,2.31584,2.46723,2.5798,2.66679,2.73603,2.79245
0.110189,1.69797,2.50433,2.97623,3.28556,3.50387,3.66614,3.79147,3.89118,3.97239
0.151855,2.32336,3.34807,3.92564,4.29614,4.55399,4.74379,4.88935,5.00453,5.09793
0.0832084,1.32268,1.93246,2.29031,2.52649,2.69425,2.81964,2.91693,2.99464,3.05813
0.0838471,1.40715,2.08131,2.48128,2.7458,2.93356,3.07367,3.1822,3.26874,3.33934
0.0737386,1.22332,1.75625,2.05305,2.2415,2.37161,2.46679,2.53943,2.59668,2.64296
0.0755943,1.37614,2.04269,2.43851,2.70115,2.88832,3.02855,3.13756,3.22474,3.29607
0.0763121,0.697117,0.817835,0.867805,0.895086,0.91226,0.924062,0.93267,0.939225,0.944382
0.074844,0.95743,1.40958,1.73371,1.9834,2.18296,2.34652,2.48317,2.59912,2.69879
0.0743026,1.20483,1.91536,2.39478,2.72784,2.96807,3.14761,3.28597,3.39542,3.48391
0.0722752,1.39467,2.22744,2.73425,3.06275,3.29052,3.45718,3.5843,3.68444,3.76536
0.078218,1.60262,2.42353,2.8703,3.14712,3.33548,3.47213,3.57588,3.6574,3.72316
0.105464,2.34391,3.54512,4.23125,4.67862,4.99502,5.23115,5.41432,5.56064,5.68024
0.0688416,1.66473,2.52611,3.02705,3.35613,3.58909,3.76267,3.89698,4.00399,4.09123
0.153082,3.76364,5.54137,6.53168,7.16407,7.6029,7.92519,8.17189,8.36681,8.52468
0.0666319,1.69643,2.5004,2.96219,3.26389,3.47684,3.6353,3.75786,3.8555,3.93513
0.0682887,1.75584,2.58351,3.06683,3.38535,3.61129,3.77995,3.91066,4.01495,4.10009
0.0723322,1.93917,2.87183,3.4192,3.77914,4.03366,4.22307,4.36948,4.48603,4.581
0.112222,3.00142,4.36401,5.13609,5.63249,5.97831,6.23298,6.42833,6.58292,6.7083
0.0794322,2.17712,3.18398,3.76713,4.14844,4.41749,4.61758,4.77226,4.89543,4.99583
0.0707958,2.00965,2.95985,3.51511,3.87929,4.13648,4.32776,4.47557,4.5932,4.68904
0.0991037,2.94017,4.35967,5.19207,5.73834,6.12416,6.4111,6.63283,6.80929,6.95307
0.0692244,2.08466,3.06058,3.621,3.98418,4.23858,4.42669,4.57143,4.68624,4.77955
0.0678046,2.11559,3.12828,3.72078,4.11018,4.3858,4.5912,4.75023,4.877,4.98042
0.095085,3.13685,4.68643,5.601,6.20368,6.63051,6.94857,7.19469,7.39078,7.55067
0.0668009,2.18527,3.20135,3.78282,4.1593,4.42296,4.61792,4.76795,4.88697,4.9837
0.0676207,2.0562,2.93778,3.43785,3.76195,3.98952,4.15825,4.2884,4.39188,4.47612
0.0993795,3.26738,4.85879,5.82094,6.46626,6.92901,7.27696,7.54807,7.76523,7.94307
0.0706581,2.28238,3.31278,3.8981,4.27369,4.53463,4.72629,4.87297,4.98881,5.08259
0.0707686,2.36715,3.47347,4.11694,4.53792,4.835,5.05595,5.22675,5.36277,5.47365
0.256348,8.59461,12.4864,14.702,16.1308,17.1284,17.8643,18.4294,18.877,19.2402
0.0746573,2.60112,3.84113,4.5729,5.05666,5.40049,5.65752,5.85697,6.01626,6.14642
0.0676471,2.44532,3.61829,4.3021,4.74865,5.06279,5.29567,5.47515,5.61767,5.73358
0.0742649,2.84955,4.26247,5.09408,5.64069,6.0272,6.31492,6.53743,6.71465,6.85912
0.0666366,2.49942,3.62092,4.24493,4.64168,4.91613,5.11725,5.27098,5.39228,5.49045
0.0656857,2.54081,3.74276,4.44895,4.91621,5.24892,5.49811,5.69182,5.84675,5.97351
0.101494,4.07723,6.0233,7.15413,7.89165,8.40993,8.79378,9.08936,9.32391,9.51453
0.0689456,2.7194,3.97934,4.71131,5.19093,5.52987,5.78223,5.97749,6.1331,6.26002
0.0684768,2.68565,3.88265,4.5595,4.99423,5.29683,5.51952,5.69021,5.8252,5.93462
0.0691062,2.66686,3.81467,4.45662,4.86713,5.15235,5.3621,5.52286,5.65,5.75308
0.0684562,2.70927,3.96015,4.69786,5.18637,5.53413,5.79446,5.99668,6.15832,6.2905
0.0670004,2.81864,4.19481,5.01096,5.54895,5.92955,6.21273,6.43154,6.60563,6.74741
0.0721394,2.96172,4.27229,4.99985,5.46056,5.77811,6.01016,6.18712,6.32653,6.43918
0.0667824,2.78105,4.06467,4.81397,5.30763,5.65819,5.92028,6.12376,6.28635,6.41929
0.0653215,2.91677,4.36564,5.23161,5.80641,6.21528,6.52078,6.75761,6.94653,7.10072
0.0957287,4.4965,6.71857,8.01034,8.84991,9.4382,9.873,10.2073,10.4723,10.6875
0.0672497,3.09566,4.53347,5.3552,5.88798,6.26192,6.53904,6.75274,6.92259,7.06085
0.0915996,4.36528,6.44674,7.65914,8.45403,9.01564,9.43357,9.7567,10.014,10.2237
0.0686737,2.84666,3.97406,4.58732,4.97445,5.24139,5.43668,5.58579,5.70338,5.7985
0.0675215,2.90258,4.22213,5.01122,5.53963,5.91886,6.20446,6.42734,6.60616,6.75281
0.06684,3.00127,4.44567,5.30959,5.88177,6.28762,6.59009,6.82404,7.0103,7.16208
0.0675869,3.03853,4.45096,5.26553,5.79293,6.16178,6.43411,6.6434,6.80926,6.94394
0.0659014,3.06186,4.53619,5.40551,5.97876,6.38543,6.68904,6.92441,7.11225,7.26565
0.0685782,3.17873,4.64485,5.4827,6.02377,6.4018,6.68075,6.89502,7.06475,7.20252
0.0651722,3.14285,4.67177,5.57959,6.18204,6.61139,6.93301,7.183,7.3829,7.54642
0.0849541,4.29706,6.43534,7.70075,8.53477,9.12516,9.56482,9.90481,10.1755,10.3962
0.0660488,3.25641,4.76663,5.63153,6.19199,6.58482,6.87553,7.09938,7.27708,7.42157
0.0684964,3.44529,5.06998,6.01601,6.63622,7.07449,7.40071,7.65301,7.85398,8.01784
0.0991371,4.9478,7.17365,8.43061,9.23726,9.79849,10.2114,10.5278,10.778,10.9808
0.0718924,3.6944,5.44076,6.46691,7.14414,7.62508,7.98444,8.26323,8.48585,8.66773
0.0861223,4.63892,6.89396,8.21648,9.0833,9.69452,10.1484,10.4985,10.7769,11.0034
0.0663677,3.51903,5.15964,6.10716,6.72461,7.15909,7.48154,7.73039,7.92829,8.08944
0.0652045,3.57932,5.30067,6.31082,6.97518,7.44537,7.79566,8.06672,8.28269,8.45882
0.0702601,3.78638,5.48628,6.44196,7.05327,7.47767,7.78941,8.02807,8.21663,8.36936
0.0648639,3.67183,5.45719,6.52021,7.22777,7.73326,8.11266,8.40802,8.64451,8.83816
0.0918885,5.4418,8.1241,9.69957,10.7322,11.46,12.0003,12.4169,12.7479,13.0172
0.0748705,4.37114,6.4079,7.57345,8.32815,8.85684,9.24794,9.54902,9.78798,9.98227
0.0767963,4.49087,6.56446,7.75763,8.5345,9.08102,9.48653,9.79944,10.0482,10.2508
0.0778097,4.34806,6.27641,7.3839,8.10555,8.61365,8.99094,9.28222,9.51392,9.70264
0.0645778,3.87856,5.76158,6.87854,7.61647,8.13969,8.52976,8.83167,9.07222,9.26836
0.0662858,4.00026,5.83116,6.86037,7.51615,7.96969,8.30179,8.55539,8.75534,8.91702
0.065141,4.0849,6.0432,7.18902,7.94295,8.47746,8.87648,9.18587,9.43286,9.63462
0.0657708,4.02763,5.81376,6.81012,7.44475,7.88409,8.20612,8.45223,8.64641,8.80351
0.064492,4.16436,6.16983,7.35505,8.1403,8.69949,9.11819,9.44354,9.70366,9.91642
0.120048,7.56012,10.9396,12.8398,14.0551,14.8983,15.5172,15.9908,16.3647,16.6673
0.0644037,3.99461,5.79746,6.84144,7.52551,8.00925,8.36971,8.64881,8.87136,9.05299
0.0637153,3.92571,5.7362,6.80211,7.50587,8.00534,8.3782,8.66714,8.89763,9.08576
