2.06165,2.09181,2.10207,2.10723,2.11034,2.11242,2.11391,2.11503,2.1159,2.11659
1.47825,1.98262,2.23176,2.38026,2.47884,2.54906,2.60162,2.64243,2.67504,2.70169
1.29619,2.25552,2.75081,3.03913,3.22507,3.35415,3.44871,3.52085,3.57763,3.62347
1.2841,2.83749,3.64849,4.10425,4.39021,4.58499,4.7258,4.83218,4.91532,4.98207
0.764589,1.26759,1.39805,1.45195,1.48083,1.49875,1.51092,1.51973,1.5264,1.53161
0.777904,2.07671,2.9081,3.50427,3.95933,4.31989,4.61324,4.8568,5.06237,5.23826
0.870847,3.27056,4.90988,5.93274,6.59522,7.04675,7.36914,7.6085,7.79205,7.93661
1.03038,4.90756,7.24714,8.47675,9.19483,9.65815,9.98021,10.2167,10.3977,10.5407
0.827557,4.63588,6.60501,7.55859,8.11,8.46973,8.72352,8.91249,9.05881,9.17554
0.947961,5.81583,7.96391,8.97401,9.56278,9.95024,10.2252,10.4306,10.59,10.7173
0.845253,5.48113,7.32647,8.20826,8.73127,9.07892,9.32711,9.51327,9.65812,9.77404
0.938359,6.5105,8.68729,9.76616,10.4173,10.854,11.1674,11.4032,11.5872,11.7346
0.937452,7.26328,9.87922,11.231,12.0606,12.6217,13.0265,13.3322,13.5712,13.7633
0.921326,7.73826,10.4904,11.8788,12.7132,13.269,13.6653,13.9621,14.1926,14.3767
1.02644,9.15468,12.3189,13.8957,14.8392,15.4671,15.9152,16.2509,16.512,16.7208
0.930587,9.05024,12.2914,13.9421,14.944,15.6172,16.1008,16.4651,16.7494,16.9775
1.02727,9.77144,12.8052,14.2585,15.1098,15.6687,16.0636,16.3574,16.5845,16.7652
0.963128,9.67591,12.8803,14.5124,15.5088,16.1821,16.668,17.0355,17.3232,17.5547
1.01802,11.0508,14.9345,16.9413,18.1667,18.9919,19.5851,20.0318,20.3804,20.6598
0.918347,10.3266,13.8187,15.5628,16.6042,17.2952,17.7868,18.1544,18.4396,18.6673
1.00064,11.5892,15.4359,17.3552,18.506,19.2734,19.8218,20.2333,20.5536,20.8101
1.00728,11.8705,15.7393,17.6727,18.8345,19.6102,20.1651,20.5817,20.906,21.1657
1.01128,12.5385,16.8197,19.0151,20.3532,21.2546,21.9032,22.3923,22.7743,23.0809
0.981411,12.7789,17.1896,19.4315,20.7855,21.6908,22.3384,22.8245,23.2028,23.5054
0.937453,12.9654,17.5398,19.8694,21.2783,22.2218,22.8978,23.4059,23.8017,24.1188
0.950939,13.5283,18.1282,20.4184,21.7863,22.6952,23.3428,23.8276,24.2042,24.5051
0.965837,14.4962,19.5529,22.1167,23.6686,24.7098,25.457,26.0194,26.4581,26.8099
0.949431,14.6106,19.5601,22.0296,23.5085,24.4928,25.195,25.7211,26.1299,26.4567
0.982464,16.4652,22.4905,25.6099,27.5195,28.8095,29.7395,30.442,30.9912,31.4326
0.957319,17.1224,23.4003,26.5893,28.511,29.7936,30.7096,31.3964,31.9303,32.3571
0.949071,17.4136,23.4719,26.4705,28.2564,29.4412,30.2847,30.9158,31.4059,31.7974
0.971738,17.0704,22.3655,24.9114,26.4115,27.4016,28.1044,28.6291,29.036,29.3607
1.00484,18.3852,24.5496,27.7069,29.6405,30.9493,31.8948,32.6101,33.1704,33.6211
1.00072,18.7819,25.1339,28.3601,30.3103,31.615,32.5483,33.2489,33.7939,34.2298
1.01762,20.4553,27.8253,31.6389,33.9665,35.5341,36.6615,37.5113,38.1747,38.707
0.961504,19.0915,25.3767,28.4584,30.2801,31.4816,32.3332,32.968,33.4594,33.851
0.969014,19.3765,25.7238,28.8924,30.7982,32.0728,32.9859,33.6725,34.2078,34.6369
1.00231,21.07,28.3885,32.1469,34.439,35.9834,37.0947,37.9327,38.5871,39.1123
0.989167,22.0032,29.9017,33.9544,36.4137,38.0631,39.2453,40.1339,40.8262,41.3806
0.990469,22.8581,30.9321,34.9937,37.4301,39.0525,40.2101,41.0774,41.7515,42.2904
0.974233,23.1207,31.1521,35.171,37.5823,39.1903,40.3393,41.2015,41.8724,42.4093
0.954775,22.9842,30.7805,34.6664,36.9964,38.5499,39.6599,40.4925,41.1403,41.6587
0.958456,23.47,31.401,35.3798,37.776,39.378,40.5247,41.3863,42.0572,42.5945
0.950708,23.4148,31.2041,35.1021,37.4445,39.0079,40.1254,40.9641,41.6166,42.1388
0.998979,26.1211,35.4342,40.2437,43.1837,45.1674,46.5962,47.6745,48.5171,49.1937
1.01142,27.3931,37.0716,41.9627,44.9031,46.8629,48.2615,49.3095,50.1238,50.7746
1.00906,27.0574,36.0196,40.4302,43.0513,44.7884,46.0243,46.9486,47.6661,48.2392
0.988081,24.5671,31.8469,35.3516,37.4201,38.7869,39.758,40.4836,41.0465,41.496
0.989856,25.9384,34.748,39.358,42.214,44.1611,45.5747,46.648,47.4909,48.1705
1.00641,26.2066,34.7973,39.1073,41.6861,43.3979,44.6153,45.5248,46.2297,46.792
0.990594,26.732,35.9098,40.6073,43.4604,45.3776,46.7549,47.7924,48.6022,49.2519
0.98575,28.4248,38.7827,44.1447,47.4141,49.614,51.1949,52.3856,53.3145,54.0595
0.950125,13.9865,16.0106,16.8125,17.2411,17.5077,17.6894,17.8213,17.9213,17.9997
0.957391,18.6527,25.6519,30.1699,33.4055,35.853,37.774,39.3236,40.601,41.6724
0.948102,23.047,33.7947,40.2023,44.3134,47.1224,49.1421,50.6544,51.8243,52.7537
0.912413,13.5842,16.1998,17.2317,17.7648,18.0868,18.3017,18.4551,18.57,18.6594
0.956789,19.9646,28.8738,34.6886,38.8928,42.1054,44.6509,46.7215,48.4406,49.8917
0.952201,24.8086,37.2201,44.3771,48.86,51.8706,54.0068,55.5895,56.8035,57.7608
0.962494,27.5972,39.5836,45.4692,48.8475,51.019,52.5285,53.6381,54.4882,55.1604
0.967159,30.4825,43.0656,49.2229,52.8655,55.2825,57.0083,58.3044,59.3144,60.1241
0.940268,31.47,43.6213,49.525,53.0299,55.3576,57.0175,58.2614,59.2283,60.0015
0.889918,13.5838,15.3418,16.0009,16.3491,16.565,16.712,16.8186,16.8994,16.9629
0.920146,19.6259,27.3874,32.6126,36.4818,39.4824,41.8832,43.8498,45.4911,46.8821
0.893843,23.9804,35.5489,42.5099,46.9761,50.0149,52.1873,53.8044,55.0483,56.0313
0.905528,29.2757,43.6457,51.3541,55.9565,58.9744,61.0969,62.6688,63.8795,64.8408
0.906546,32.9527,47.697,54.9433,59.1573,61.9091,63.8493,65.2922,66.408,67.2971
0.902885,31.0614,41.6024,46.3112,48.979,50.7033,51.9118,52.8068,53.4966,54.0447
0.874875,32.7372,44.9629,51.1688,54.996,57.6093,59.5118,60.9604,62.1009,63.0223
0.86353,11.2692,12.3262,12.7142,12.9165,13.0406,13.1245,13.1848,13.2304,13.2659
0.844494,16.9402,24.1156,29.428,33.6236,37.0403,39.8824,42.2858,44.3459,46.1318
0.832219,18.0984,25.2468,29.1649,31.5066,33.0163,34.051,34.7956,35.3526,35.7824
0.84281,23.8199,35.8967,42.8975,47.3393,50.3926,52.6209,54.3206,55.6616,56.7474
0.843252,29.7214,45.419,53.8511,58.9359,62.3093,64.7045,66.4908,67.8732,68.9744
0.8216,32.769,48.0015,55.3514,59.5907,62.3443,64.2774,65.7096,66.8135,67.6907
0.851178,32.9479,44.6849,49.9015,52.8601,54.7752,56.1192,57.1157,57.8844,58.4957
0.836646,29.38,38.0881,42.0631,44.3872,45.9223,47.0144,47.832,48.4674,48.9755
0.837668,31.9569,43.3326,49.3166,53.0758,55.6657,57.5603,59.0069,60.1479,61.0708
0.853456,34.4784,47.0955,53.5874,57.5299,60.1679,62.0528,63.465,64.5617,65.4375
0.857747,38.5179,53.7752,61.756,66.6417,69.9348,72.3039,74.0898,75.4843,76.6034
0.840836,35.7742,47.4728,52.9937,56.1848,58.2596,59.7155,60.7932,61.6229,62.2814
0.865878,40.3017,55.3265,63.1572,68.0051,71.3141,73.7209,75.5518,76.9922,78.1553
0.859737,42.2877,58.0354,66.0338,70.855,74.0709,76.3657,78.0841,79.4184,80.4839
0.846728,41.5241,55.7996,62.7815,66.913,69.6424,71.5798,73.0263,74.1476,75.0423
0.838154,41.4927,55.6077,62.6321,66.8537,69.6759,71.6971,73.2167,74.4009,75.35
0.854321,43.0576,57.8335,65.2746,69.7683,72.7777,74.9341,76.5552,77.8182,78.83
0.849166,44.3955,60.0769,68.0603,72.8992,76.1451,78.473,80.2239,81.5887,82.6824
0.841055,39.4807,51.0891,56.5758,59.7678,61.8544,63.3245,64.4161,65.2586,65.9285
0.862904,39.4265,51.5486,57.6504,61.3576,63.8564,65.6572,67.0175,68.0818,68.9374
0.863476,42.3291,57.3871,65.386,70.3546,73.7391,76.1918,78.0502,79.5069,80.679
0.856978,44.2997,60.4809,68.8261,73.8746,77.246,79.6531,81.4565,82.8573,83.9765
0.849024,45.0927,61.1513,69.2061,74.0193,77.2165,79.4942,81.1991,82.5233,83.5815
0.847868,45.6401,61.4529,69.3198,74.0245,77.1565,79.3923,81.0689,82.373,83.4163
0.871629,49.1306,66.7966,75.7963,81.2608,84.9343,87.5742,89.5633,91.1158,92.3614
0.864308,47.9461,63.9857,71.8656,76.5428,79.6379,81.8366,83.4787,84.7517,85.7673
0.859393,49.3046,66.5305,75.2951,80.6226,84.2083,86.788,88.7337,90.2538,91.4743
0.862959,51.47,69.8612,79.2306,84.904,88.7053,91.4287,93.4753,95.0691,96.3454
0.860077,39.3876,48.8912,53.0994,55.4689,56.9876,58.0438,58.8208,59.4162,59.8871
0.869652,36.3752,46.0529,50.9315,53.9212,55.9517,57.4242,58.542,59.4201,60.1283
0.873476,31.7566,39.8896,43.9278,46.3474,47.9576,49.1054,49.9645,50.6314,51.1639
0.861065,31.1364,40.5103,45.4583,48.5219,50.6056,52.1149,53.2586,54.1553,54.8771
