0.414889,0.533276,0.589331,0.622022,0.643438,0.658553,0.669792,0.678477,0.685388,0.69102
0.372928,0.612314,0.742526,0.82279,0.876936,0.915851,0.94514,0.967971,0.986262,1.00124
0.166445,0.356925,0.472899,0.546654,0.596995,0.63336,0.660798,0.682211,0.699377,0.713439
0.303484,0.812452,1.12626,1.31977,1.4485,1.53976,1.60765,1.66008,1.70175,1.73566
0.113575,0.373368,0.53438,0.63198,0.696383,0.741888,0.775707,0.801817,0.82258,0.839485
0.107997,0.416228,0.598748,0.705514,0.774742,0.823166,0.858918,0.886393,0.908164,0.925841
0.0903615,0.402577,0.583881,0.689775,0.75884,0.807435,0.843492,0.871313,0.893433,0.911441
0.0826723,0.424815,0.623388,0.74012,0.816689,0.870761,0.910977,0.942056,0.966793,0.986949
0.272555,1.57697,2.31591,2.74601,3.02657,3.22393,3.37028,3.48314,3.57281,3.64578
0.0830242,0.526616,0.767461,0.905464,0.994786,1.05732,1.10355,1.13912,1.16733,1.19025
0.0966373,0.664945,0.966,1.13867,1.25075,1.32942,1.38769,1.43259,1.46826,1.49727
0.127168,0.928542,1.3345,1.56362,1.71084,1.81343,1.889,1.94698,1.99288,2.03011
0.102682,0.773828,1.10126,1.2863,1.40564,1.48909,1.55075,1.59818,1.6358,1.66637
0.0892753,0.721779,1.03807,1.22028,1.33889,1.42226,1.48405,1.53169,1.56952,1.6003
0.0875179,0.773273,1.13403,1.34767,1.48888,1.58912,1.66395,1.72194,1.7682,1.80596
0.0771544,0.745738,1.10097,1.30881,1.44456,1.54002,1.61076,1.66526,1.70852,1.7437
0.173805,1.87584,2.81128,3.36433,3.72824,3.98568,4.17737,4.32563,4.44373,4.54001
0.0715169,0.826786,1.23001,1.46405,1.61658,1.72384,1.80338,1.86471,1.91345,1.95312
0.0684016,0.788827,1.14172,1.34136,1.47018,1.56032,1.62696,1.67826,1.71897,1.75206
0.0851089,1.04973,1.53706,1.81996,2.00516,2.13588,2.23309,2.3082,2.36799,2.4167
0.0783105,1.0098,1.47085,1.73434,1.90466,2.02372,2.1116,2.17912,2.23261,2.27603
0.0911783,1.2081,1.74946,2.05828,2.25815,2.39816,2.50172,2.58144,2.64471,2.69615
0.0753013,1.06363,1.56039,1.85006,2.03992,2.17398,2.27369,2.35074,2.41208,2.46206
0.0735952,1.10373,1.62559,1.92857,2.12607,2.2649,2.36778,2.44706,2.51001,2.56121
0.0717493,1.11042,1.61952,1.90958,2.09671,2.22743,2.3239,2.39802,2.45676,2.50445
0.0700497,1.11899,1.63429,1.93229,2.12698,2.26428,2.36635,2.44523,2.50802,2.55919
0.0685139,1.12889,1.66282,1.97962,2.18996,2.3399,2.45222,2.5395,2.60928,2.66635
0.0664671,1.17349,1.7507,2.09422,2.32138,2.48251,2.60265,2.69565,2.76975,2.83017
0.0745741,1.34717,1.97455,2.33227,2.56256,2.72304,2.84124,2.93191,3.00366,3.06186
0.0683048,1.26808,1.85871,2.20078,2.42448,2.58238,2.69988,2.79076,2.86315,2.92219
0.0721023,1.4148,2.09138,2.48687,2.74621,2.92933,3.06548,3.17067,3.25437,3.32255
0.142145,2.66424,3.7933,4.41656,4.81179,5.08482,5.28475,5.43746,5.55793,5.65539
0.0739301,1.34449,1.91449,2.24171,2.45564,2.60679,2.71938,2.80655,2.87604,2.93275
0.0689838,1.38955,2.06889,2.48164,2.75859,2.95703,3.10607,3.22207,3.31488,3.39081
0.0678136,1.43681,2.1253,2.52339,2.78054,2.95976,3.09164,3.19269,3.27256,3.33725
0.0863345,1.87566,2.75639,3.26331,3.59256,3.8238,3.99523,4.12746,4.23257,4.31815
0.0653545,1.51965,2.26909,2.71233,3.00529,3.21338,3.36884,3.4894,3.58562,3.6642
0.117471,2.90705,4.34604,5.18515,5.73291,6.11814,6.40367,6.6237,6.79843,6.94051
0.0696942,1.69776,2.48171,2.92975,3.22042,3.4245,3.57577,3.69241,3.78512,3.86058
0.0649279,1.6118,2.35726,2.78825,3.06985,3.2684,3.41595,3.52992,3.62061,3.69449
0.0681277,1.74326,2.55962,3.03436,3.34495,3.56394,3.72662,3.85222,3.95212,4.03346
0.0887625,2.29006,3.32956,3.92199,4.30438,4.5715,4.76861,4.92003,5.03999,5.13738
0.0679055,1.75237,2.53167,2.97486,3.26122,3.4616,3.60971,3.72367,3.81406,3.88752
0.066322,1.75067,2.55814,3.03092,3.34217,3.56275,3.72728,3.85474,3.9564,4.03936
0.0744969,2.07273,3.07447,3.66805,4.05993,4.3377,4.54478,4.70504,4.83275,4.93688
0.14021,2.71347,3.48152,3.84746,4.06165,4.20232,4.30181,4.37589,4.4332,4.47887
0.0823045,1.63545,2.28511,2.68135,2.95304,3.15198,3.30426,3.4247,3.52239,3.60325
0.064418,1.44258,2.17423,2.65089,2.98365,3.22796,3.41445,3.56123,3.67966,3.77716
0.0889617,2.35225,3.68205,4.51421,5.06977,5.4633,5.7555,5.9806,6.15915,6.30414
0.0670838,1.96541,3.04335,3.67516,4.08316,4.36752,4.57695,4.73763,4.86484,4.96806
0.0652212,2.06681,3.17402,3.81868,4.23962,4.53666,4.75775,4.92884,5.06521,5.17649
0.0644273,1.94309,2.79296,3.24296,3.52194,3.71205,3.84997,3.95462,4.03675,4.10291
0.1024,3.12474,4.54008,5.35217,5.88585,6.26489,6.54846,6.76877,6.94493,7.08904
0.0684555,2.15444,3.1441,3.71294,4.08288,4.34246,4.53448,4.68221,4.79935,4.89448
0.0621618,2.09142,3.10042,3.68912,4.07417,4.34538,4.54664,4.7019,4.82529,4.92571
0.0615646,2.1572,3.20785,3.82208,4.22466,4.50884,4.72016,4.88346,5.01345,5.11937
0.0604605,2.24486,3.36164,4.01687,4.44689,4.75063,4.97656,5.15116,5.29014,5.40337
0.0648805,2.45089,3.60851,4.26509,4.68722,4.98132,5.19794,5.36413,5.49565,5.60233
0.0771594,2.9595,4.359,5.17052,5.70245,6.07868,6.35904,6.57612,6.7492,6.89046
0.0614463,2.39796,3.52587,4.17888,4.60522,4.90544,5.12825,5.30015,5.43679,5.548
0.0631742,2.50434,3.66115,4.32205,4.74935,5.04816,5.26882,5.43843,5.57286,5.68202
0.0626974,2.41955,3.48559,4.08844,4.47709,4.74872,4.94935,5.10363,5.22598,5.32539
0.0916562,3.75253,5.54355,6.60017,7.29798,7.79325,8.16298,8.44951,8.67809,8.86467
0.0642913,2.62873,3.85707,4.57127,5.03801,5.36679,5.61086,5.7992,5.94894,6.07084
0.0778951,2.45526,3.60085,4.36582,4.92383,5.35133,5.6901,5.96547,6.19385,6.38639
0.0603106,2.15787,3.30552,4.03573,4.53072,4.88448,5.14834,5.35197,5.51355,5.64468
0.0619912,2.53295,3.95203,4.8165,5.38559,5.78612,6.08275,6.31112,6.49234,6.63964
0.0717094,3.24237,5.01778,6.05014,6.71641,7.1813,7.52414,7.78749,7.99615,8.16558
0.069847,2.80404,4.05336,4.74671,5.19214,5.50404,5.73516,5.91348,6.05534,6.17093
0.061564,2.57921,3.79302,4.49936,4.96434,5.29401,5.53996,5.73049,5.8824,6.00636
0.0814261,3.5593,5.23645,6.19617,6.81615,7.24889,7.56778,7.8124,8.00593,8.16283
0.0635246,2.69444,3.89272,4.56992,5.00647,5.31162,5.53708,5.71051,5.84809,5.95992
0.0727912,3.2043,4.71702,5.60722,6.19524,6.61288,6.92489,7.16686,7.36,7.51774
0.090799,4.01351,5.85934,6.91836,7.60388,8.08336,8.43736,8.70935,8.92484,9.09976
0.0609367,2.64243,3.85244,4.55895,5.02375,5.35322,5.59911,5.78971,5.94183,6.06605
0.058605,2.72023,4.06587,4.87112,5.40577,5.78611,6.07035,6.29074,6.46657,6.6101
0.0797727,3.97974,6.01538,7.22423,8.02007,8.58258,9.00093,9.32413,9.58128,9.79073
0.0600833,2.90576,4.26609,5.0438,5.54742,5.90046,6.16182,6.36317,6.52309,6.65318
0.057393,2.94502,4.40466,5.26866,5.84055,6.24725,6.55134,6.78733,6.97578,7.12975
0.080118,4.2853,6.39422,7.61977,8.4185,8.97966,9.39529,9.71539,9.96947,10.176
0.0699505,3.67952,5.38599,6.35881,6.98847,7.42974,7.75631,8.00783,8.20754,8.36997
0.0599387,3.11792,4.51842,5.31241,5.82502,6.18356,6.44848,6.65224,6.81382,6.9451
0.0756666,4.11369,6.06845,7.21381,7.96742,8.50101,8.89868,9.2065,9.45182,9.65192
0.0591896,3.2748,4.82659,5.72837,6.31715,6.73154,7.03893,7.27599,7.46435,7.61762
0.0587758,3.36491,4.97936,5.91793,6.53067,6.96197,7.28198,7.52884,7.72506,7.88476
0.0698586,3.79079,5.46915,6.41995,7.03359,7.46285,7.78014,8.02428,8.21798,8.37542
0.0587572,3.29341,4.8552,5.78162,6.39665,6.83501,7.16335,7.4185,7.62247,7.78927
0.0738795,4.3837,6.55375,7.84046,8.68834,9.28805,9.73423,10.079,10.3532,10.5766
0.0626778,3.717,5.4829,6.50293,7.16598,7.63143,7.97618,8.24181,8.45276,8.62436
0.0582283,3.51618,5.17843,6.13803,6.76278,7.20204,7.5278,7.77904,7.97871,8.14123
0.0628669,3.96105,5.88851,7.01686,7.7576,8.28117,8.67086,8.97219,9.21215,9.40775
0.0596473,3.6132,5.22767,6.13603,6.71875,7.12441,7.42309,7.65221,7.83352,7.98059
0.0887235,5.44485,7.92499,9.34991,10.2772,10.9294,11.4132,11.7864,12.0832,12.3247
0.0664683,4.03563,5.87343,6.93882,7.63582,8.12758,8.49318,8.77567,9.00049,9.18368
0.0588927,3.45588,4.9803,5.85335,6.41966,6.81677,7.11065,7.33692,7.51649,7.66248
0.0616125,3.72402,5.43083,6.41829,7.06102,7.51239,7.84667,8.10415,8.30855,8.47474
0.0576949,3.72075,5.5666,6.67068,7.40394,7.92609,8.31676,8.62004,8.8623,9.06026
0.0719883,4.95812,7.46611,8.93985,9.90332,10.581,11.0832,11.4701,11.7772,12.0268
0.0604775,4.12806,6.09257,7.21815,7.94767,8.45933,8.83823,9.13022,9.36216,9.55088
0.0598745,3.96316,5.7425,6.74868,7.39782,7.85189,8.1875,8.44571,8.65056,8.81704
