0.411708,0.533313,0.591555,0.625722,0.648184,0.664077,0.675915,0.685074,0.692371,0.698322
0.239642,0.401337,0.491482,0.547781,0.58607,0.61374,0.63465,0.650998,0.664126,0.674898
0.543457,1.17642,1.56158,1.80563,1.97164,2.09124,2.18128,2.25143,2.30758,2.35353
0.111463,0.232016,0.282035,0.307043,0.321768,0.331413,0.338204,0.343238,0.347118,0.350197
0.100883,0.304325,0.439871,0.532879,0.600867,0.652872,0.693995,0.727356,0.754976,0.778227
0.0876675,0.337319,0.504818,0.609877,0.679802,0.729085,0.765462,0.793317,0.815282,0.833021
0.0927074,0.436246,0.660374,0.794948,0.88289,0.944608,0.990274,1.02543,1.05333,1.07602
0.0798016,0.417092,0.613413,0.725208,0.796984,0.847014,0.883914,0.912268,0.934744,0.953003
0.0729887,0.440404,0.654188,0.778593,0.859989,0.917461,0.960227,0.993297,1.01964,1.04111
0.0960369,0.653991,0.973048,1.15884,1.28038,1.3661,1.42979,1.47897,1.51809,1.54995
0.116736,0.835248,1.2031,1.40626,1.53502,1.62392,1.68898,1.73866,1.77783,1.80951
0.188496,1.32863,1.83969,2.11195,2.28194,2.39836,2.48316,2.5477,2.59849,2.63949
0.0920331,0.755115,1.11303,1.33042,1.47753,1.5839,1.66446,1.72759,1.77842,1.82021
0.0885845,0.812358,1.21107,1.4477,1.60325,1.71291,1.79422,1.85685,1.90654,1.94692
0.0847349,0.845318,1.25683,1.49658,1.65282,1.76261,1.84397,1.90668,1.9565,1.99703
0.080212,0.857417,1.26624,1.5014,1.65395,1.76093,1.84013,1.90113,1.94956,1.98894
0.0780493,0.900371,1.33638,1.591,1.75814,1.87636,1.96442,2.03257,2.08687,2.13117
0.0759855,0.931488,1.37995,1.6413,1.81251,1.93335,2.02321,2.09264,2.14789,2.19291
0.0741296,0.966537,1.43388,1.70732,1.88688,2.01384,2.10836,2.18147,2.2397,2.28718
0.100672,1.36863,2.01256,2.38355,2.62473,2.79407,2.91949,3.01611,3.09284,3.15524
0.149549,2.03153,2.91949,3.41621,3.734,3.95488,4.11737,4.24191,4.34043,4.42031
0.0867049,1.12822,1.5774,1.82275,1.97797,2.08516,2.16366,2.22364,2.27097,2.30928
0.084687,1.21213,1.77939,2.12112,2.35064,2.51561,2.63997,2.73707,2.81501,2.87895
0.0820289,1.25056,1.84811,2.20016,2.43085,2.59325,2.71362,2.80632,2.87989,2.93968
0.0775187,0.833279,1.05304,1.15382,1.21143,1.2487,1.27477,1.29403,1.30884,1.32059
0.0761075,1.03824,1.53652,1.86652,2.10567,2.28804,2.43205,2.54879,2.64539,2.7267
0.0819933,1.33618,2.07891,2.55371,2.87639,3.10743,3.27996,3.41325,3.51908,3.60502
0.0735305,1.2945,1.96664,2.35649,2.60631,2.77924,2.90588,3.0026,3.07888,3.14059
0.072106,1.35693,2.05007,2.45376,2.71774,2.90425,3.04323,3.15089,3.23678,3.30693
0.078593,1.56795,2.34887,2.79915,3.09226,3.2984,3.45133,3.56928,3.66303,3.73932
0.140755,2.83889,4.13429,4.85196,5.30841,5.62442,5.85619,6.03344,6.17339,6.28669
0.0890872,1.6245,2.25881,2.60003,2.81502,2.96329,3.07186,3.15483,3.22032,3.27334
0.0787345,1.56816,2.3058,2.75354,3.0566,3.27573,3.44162,3.57161,3.67622,3.76222
0.130754,2.70488,3.95605,4.67708,5.14247,5.46643,5.70447,5.88657,6.03028,6.14654
0.0761128,1.67366,2.49286,2.98064,3.30406,3.5343,3.70664,3.84053,3.94757,4.03512
0.0751096,1.77189,2.66219,3.1897,3.53717,3.78303,3.96605,4.10755,4.22021,4.31201
0.0833725,2.07742,3.11342,3.71877,4.11459,4.39346,4.60052,4.76034,4.88743,4.99091
0.142469,0.780582,0.830737,0.848782,0.8581,0.863796,0.86764,0.870411,0.872503,0.874138
0.0736832,0.690059,1.02524,1.31068,1.56165,1.78503,1.98544,2.16637,2.33059,2.48034
0.0840812,1.00398,1.55911,1.92595,2.16879,2.33479,2.45258,2.53915,2.60474,2.65575
0.0912316,1.58727,2.78993,3.63501,4.2254,4.65435,4.97889,5.23293,5.43735,5.60554
0.0659533,1.43881,2.4401,3.02205,3.38182,3.62345,3.79644,3.92631,4.02735,4.10821
0.0647516,1.72876,2.88275,3.53806,3.95527,4.24575,4.46042,4.62588,4.75748,4.86471
0.0646225,1.95268,3.11373,3.748,4.14987,4.42875,4.634,4.79149,4.91619,5.01739
0.0831686,2.76793,4.31507,5.18016,5.74133,6.13675,6.43084,6.65828,6.83948,6.98725
0.0639539,2.19454,3.29489,3.90008,4.28796,4.55839,4.7578,4.91095,5.03226,5.13073
0.0701862,2.52509,3.78775,4.51425,4.9923,5.33154,5.58494,5.78149,5.93841,6.06661
0.0646446,2.37747,3.53544,4.20444,4.64298,4.95276,5.18321,5.36132,5.5031,5.61863
0.0920894,3.57097,5.33051,6.35316,7.02255,7.49447,7.84495,8.11548,8.3306,8.50573
0.0658421,2.55336,3.76191,4.45816,4.91215,5.23178,5.46907,5.65225,5.79795,5.91661
0.0701126,2.68276,3.87902,4.55,4.97988,5.27882,5.49873,5.66729,5.80059,5.90865
0.067171,2.39414,3.35087,3.86838,4.19368,4.41728,4.58049,4.70488,4.80285,4.882
0.066465,2.53437,3.72516,4.44236,4.92478,5.27212,5.53432,5.73934,5.90407,6.03935
0.0882078,3.58393,5.33627,6.37148,7.05011,7.52768,7.88139,8.15363,8.36952,8.54485
0.0656189,2.72998,4.0454,4.81034,5.30895,5.65954,5.91953,6.12005,6.27942,6.40915
0.105018,4.54047,6.74614,8.03122,8.87157,9.46406,9.9043,10.2443,10.5149,10.7352
0.0650348,2.81816,4.15832,4.93824,5.44943,5.81067,6.07959,6.28761,6.45333,6.58847
0.0706437,3.1256,4.62014,5.49388,6.06751,6.47303,6.77489,7.00831,7.1942,7.34572
0.0917534,4.17703,6.18501,7.3567,8.12387,8.66495,9.06697,9.37741,9.62434,9.82545
0.0672178,3.02761,4.42851,5.23438,5.75839,6.12654,6.39942,6.60979,6.77695,6.91296
0.0799209,3.5963,5.21749,6.13818,6.73182,7.14639,7.45227,7.68726,7.87342,8.02455
0.0687909,2.8803,4.0627,4.71485,5.12936,5.41638,5.62699,5.78814,5.91545,6.01856
0.0669475,3.02293,4.46226,5.32668,5.90519,6.31983,6.63166,6.87474,7.06955,7.22917
0.0667441,3.05725,4.47972,5.29965,5.83,6.20025,6.47308,6.68233,6.84784,6.98201
0.0657473,3.13287,4.63634,5.51576,6.09212,6.49909,6.80185,7.03593,7.22234,7.37432
0.0821386,4.02314,5.92947,7.025,7.73436,8.23082,8.5976,8.87961,9.10316,9.28473
0.0685607,3.36456,4.95367,5.88095,6.4904,6.9221,7.24412,7.49363,7.69268,7.8552
0.0854379,4.27734,6.33366,7.54642,8.34709,8.91523,9.33924,9.66778,9.92981,10.1437
0.0707381,3.49843,5.13159,6.08129,6.70255,7.14061,7.46609,7.71745,7.91741,8.08027
0.0710104,3.37325,4.88509,5.7573,6.32637,6.72726,7.02503,7.25497,7.43792,7.58694
0.0749499,3.37231,4.81394,5.63388,6.16409,6.53524,6.8096,7.02069,7.18812,7.32417
0.0684696,3.05282,4.36816,5.1174,5.60128,5.93946,6.1891,6.38092,6.53291,6.65632
0.0846809,4.06228,6.04462,7.24276,8.04472,8.61898,9.05043,9.38643,9.6555,9.87583
0.0667299,3.28529,4.8847,5.82756,6.44609,6.88231,7.20622,7.45615,7.65481,7.81648
0.0663162,3.47154,5.21685,6.24817,6.92634,7.40584,7.76272,8.03867,8.25842,8.43755
0.0704146,3.20406,4.46395,5.12878,5.53967,5.81896,6.02122,6.1745,6.29467,6.39143
0.0658329,3.33663,4.98251,5.99484,6.68639,7.19023,7.57411,7.87649,8.12091,8.32261
0.0660568,3.43499,5.08221,6.03812,6.65775,7.09036,7.40887,7.65288,7.84567,8.00175
0.0653217,3.564,5.3345,6.38187,7.07306,7.56348,7.92963,8.21353,8.44014,8.62524
0.0844839,4.78932,7.16197,8.54982,9.45843,10.0991,10.5751,10.9425,11.2348,11.4727
0.0873517,4.7399,6.85013,8.02609,8.77625,9.2967,9.67905,9.97187,10.2033,10.3909
0.0797092,4.07414,5.74619,6.6618,7.24207,7.64329,7.93743,8.16237,8.33998,8.4838
0.0727481,3.8049,5.5188,6.5255,7.1918,7.66611,8.02114,8.29692,8.51736,8.6976
0.0764679,4.24583,6.31434,7.55195,8.3729,8.95617,9.39149,9.72863,9.99734,10.2165
0.066811,3.93902,5.91272,7.07937,7.84491,8.38474,8.78554,9.09478,9.34059,9.54065
0.0753884,4.71512,7.10458,8.50575,9.42258,10.0687,10.5486,10.919,11.2136,11.4535
0.0659374,4.24685,6.34013,7.54828,8.33378,8.88554,9.29446,9.60969,9.86013,10.0639
0.0731295,4.85451,7.2321,8.61078,9.51212,10.1479,10.6206,10.9859,11.2767,11.5136
0.0656643,4.37625,6.46375,7.67,8.45769,9.01286,9.42532,9.74387,9.9973,10.2037
0.0667245,4.55247,6.72945,7.9918,8.81665,9.39787,9.82948,10.1626,10.4276,10.6433
0.150885,9.6875,13.8339,16.1232,17.5765,18.5812,19.3175,19.8802,20.3242,20.6836
0.0680416,3.96742,5.53741,6.4026,6.95433,7.33763,7.61965,7.83595,8.00715,8.14603
0.0774608,4.73199,6.9256,8.25397,9.14915,9.79391,10.2805,10.6609,10.9664,11.2171
0.0682134,4.24239,6.25721,7.45471,8.2441,8.80217,9.21705,9.53738,9.79206,9.99935
0.0676243,4.22593,6.20009,7.34476,8.08859,8.61018,8.99609,9.29313,9.52885,9.72045
0.0665323,4.35101,6.50017,7.78308,8.63491,9.24187,9.6964,10.0496,10.3319,10.5628
0.0815263,5.57243,8.35599,9.99795,11.0767,11.8388,12.4054,12.843,13.1912,13.4748
0.0663582,4.62731,6.90136,8.23008,9.10061,9.71518,10.1723,10.5256,10.8069,11.0362
0.0694263,4.65873,6.75568,7.93508,8.69187,9.219,9.60732,9.90533,10.1413,10.3327
0.0687808,4.72156,6.96487,8.29009,9.16922,9.79599,10.2657,10.6309,10.9231,11.1621
