0.6577,0.75252,0.790509,0.810978,0.823777,0.832537,0.838908,0.843752,0.847557,0.850627
0.40875,0.690354,0.865044,0.98302,1.06788,1.1318,1.18166,1.22164,1.2544,1.28175
0.305644,0.696382,0.951308,1.11618,1.2286,1.30927,1.36965,1.41639,1.45358,1.48383
0.242871,0.69357,0.976063,1.14655,1.2576,1.33508,1.39204,1.43563,1.47004,1.4979
0.212131,0.746929,1.07965,1.27775,1.40702,1.49777,1.56496,1.61671,1.6578,1.69121
0.182064,0.728393,1.03502,1.20682,1.31556,1.39048,1.44523,1.48698,1.51986,1.54644
0.163535,0.761471,1.10122,1.29786,1.42595,1.51612,1.58308,1.6348,1.67594,1.70947
0.148844,0.80177,1.17367,1.3896,1.53018,1.62889,1.70199,1.75828,1.80295,1.83927
0.139049,0.831787,1.20704,1.41923,1.5552,1.64969,1.71916,1.77238,1.81445,1.84854
0.162955,1.05694,1.51967,1.77898,1.9449,2.06027,2.14516,2.21025,2.26175,2.30352
0.167624,1.11944,1.57493,1.8252,1.9839,2.09364,2.17407,2.23557,2.28412,2.32342
0.155348,1.03989,1.43004,1.63986,1.77134,1.86152,1.92724,1.97727,2.01662,2.0484
0.148569,1.12558,1.61892,1.90828,2.09922,2.23478,2.33603,2.41455,2.47722,2.5284
0.139896,1.18405,1.73282,2.0531,2.26174,2.40807,2.51622,2.59936,2.66524,2.71871
0.132899,1.24813,1.84256,2.18725,2.411,2.56775,2.68363,2.77277,2.84346,2.9009
0.125089,1.27577,1.8743,2.21445,2.43296,2.5851,2.69711,2.78302,2.85099,2.90611
0.12292,1.35007,1.97795,2.33394,2.56313,2.72309,2.84112,2.9318,3.00365,3.062
0.117614,1.39007,2.04923,2.43072,2.68002,2.85584,2.98655,3.08754,3.16793,3.23344
0.113242,1.40986,2.06172,2.43263,2.67191,2.839,2.96226,3.05692,3.13189,3.19274
0.127908,1.61247,2.3095,2.69553,2.94099,3.1109,3.23551,3.33082,3.40608,3.46701
0.131356,1.60519,2.24398,2.59209,2.81214,2.96404,3.07526,3.16024,3.2273,3.28157
0.126002,1.52476,2.1201,2.44736,2.65522,2.79906,2.90455,2.98523,3.04893,3.10051
0.123929,1.65592,2.40235,2.84182,3.13174,3.33731,3.49066,3.60942,3.70411,3.78137
0.109149,1.59017,2.35012,2.79812,3.09187,3.29886,3.45243,3.57083,3.66487,3.74137
0.153199,2.42422,3.60714,4.29625,4.74461,5.05914,5.29186,5.47099,5.61312,5.72863
0.113023,1.83665,2.67378,3.14118,3.43859,3.64442,3.79534,3.91074,4.00185,4.07561
0.112653,1.9284,2.82139,3.33188,3.66317,3.89587,4.06839,4.20144,4.30721,4.39331
0.149821,2.74318,4.04622,4.79823,5.28767,5.63151,5.88626,6.08253,6.23837,6.3651
0.108232,2.04434,2.99604,3.54122,3.89469,4.14249,4.32587,4.46705,4.57911,4.67022
0.113789,2.214,3.23517,3.82054,4.2005,4.46711,4.66455,4.81666,4.93743,5.03566
0.117438,2.16149,3.03022,3.49739,3.78927,3.98892,4.13409,4.24439,4.33104,4.40091
0.115494,2.05796,2.85833,3.2946,3.57072,3.76155,3.90143,4.0084,4.09286,4.16127
0.141771,2.74073,3.9834,4.72038,5.20993,5.55896,5.8204,6.02356,6.18597,6.31876
0.110729,2.27531,3.34223,3.9645,4.36959,4.6535,4.86325,5.02442,5.15209,5.2557
0.108112,2.37623,3.51796,4.18041,4.61081,4.91255,5.13577,5.30758,5.4439,5.5547
0.131592,3.0517,4.50809,5.34191,5.88032,6.25652,6.53422,6.74762,6.91674,7.05407
0.105524,2.44992,3.54714,4.16,4.55154,4.82352,5.02353,5.17683,5.29808,5.39639
0.103609,2.55798,3.76968,4.47449,4.93677,5.26365,5.50709,5.69547,5.84557,5.96799
0.102009,2.54833,3.69757,4.34356,4.75686,5.04375,5.25444,5.41568,5.54303,5.64616
0.110996,2.83902,4.13504,4.87914,5.36336,5.70398,5.95677,6.15186,6.30703,6.43339
0.112062,2.77622,3.93607,4.57205,4.9736,5.25005,5.45194,5.60581,5.72697,5.82484
0.110522,2.54872,3.51326,4.02875,4.3507,4.57113,4.73161,4.8537,4.94972,5.02723
0.108618,2.69254,3.90055,4.61753,5.09509,5.43653,5.69294,5.89263,6.05255,6.18353
0.130962,3.48244,5.13369,6.10281,6.73567,7.17993,7.50842,7.76095,7.96102,8.1234
0.0977073,2.72683,4.02401,4.77251,5.25701,5.59581,5.84597,6.03825,6.19066,6.31443
0.104256,3.04797,4.49637,5.32658,5.86344,6.23906,6.51662,6.7301,6.89942,7.03699
0.10202,3.06104,4.46432,5.25134,5.75429,6.10343,6.35997,6.55644,6.71171,6.83753
0.102078,3.18741,4.68692,5.55249,6.11772,6.51633,6.81268,7.04173,7.22408,7.37271
0.100783,3.22445,4.71672,5.56743,6.11697,6.50104,6.78453,7.00232,7.17487,7.31493
0.106264,3.32967,4.76308,5.55488,6.05739,6.40475,6.65922,6.85368,7.00713,7.1313
0.10889,3.36098,4.78234,5.57621,6.08505,6.43946,6.70062,6.90111,7.05989,7.18877
0.125402,3.59638,4.98475,5.73622,6.20852,6.53298,6.76965,6.94992,7.09179,7.20636
0.105365,3.09949,4.44914,5.24312,5.7691,6.14378,6.42441,6.64253,6.81696,6.95965
0.103524,3.33426,4.94894,5.91407,6.55174,7.00302,7.33868,7.59789,7.80399,7.97172
0.100782,2.38334,3.07241,3.39473,3.58011,3.70027,3.78441,3.8466,3.89444,3.93237
0.100996,2.98361,4.44779,5.40038,6.08089,6.59432,6.99645,7.32035,7.587,7.81044
0.0988453,3.22002,4.84613,5.81441,6.44452,6.88303,7.20409,7.44856,7.64056,7.79514
0.0998783,3.517,5.30212,6.33998,7.01167,7.4811,7.82767,8.0941,8.30538,8.47707
0.154491,5.67184,8.38389,9.89407,10.8516,11.5128,11.9969,12.3667,12.6585,12.8945
0.100979,3.77782,5.51536,6.48418,7.10418,7.53587,7.85403,8.09835,8.29191,8.44906
0.114112,4.148,5.91663,6.88618,7.50131,7.92689,8.23897,8.47764,8.6661,8.81868
0.10196,3.52499,4.92602,5.68453,6.16236,6.49134,6.73173,6.91508,7.05956,7.17635
0.109605,4.09774,6.00066,7.13145,7.88445,8.42242,8.8261,9.14024,9.39168,9.59749
0.0957005,3.76537,5.54674,6.57851,7.24719,7.71435,8.05864,8.32269,8.53153,8.70079
0.107672,4.48195,6.64784,7.90106,8.71488,9.2855,9.70774,10.0328,10.2909,10.5007
0.0979992,4.18922,6.16294,7.28568,8.00896,8.51376,8.88612,9.17213,9.39872,9.58266
0.0973087,4.3125,6.34889,7.51357,8.26801,8.79677,9.18802,9.48927,9.72838,9.92279
0.096385,4.30213,6.2662,7.37515,8.08828,8.58557,8.95217,9.23362,9.45651,9.63739
0.0957666,4.39393,6.43038,7.59862,8.35782,8.89109,9.28631,9.59096,9.833,10.0299
0.114434,5.37298,7.84686,9.25531,10.1642,10.799,11.2673,11.627,11.9119,12.1432
0.103456,4.53602,6.37735,7.37034,7.99208,8.41811,8.72832,8.96433,9.14992,9.29969
0.116519,4.71583,6.50247,7.46587,8.07214,8.48961,8.79484,9.02783,9.21154,9.36013
0.100454,4.39565,6.39495,7.58696,8.38194,8.95038,9.37711,9.70927,9.97517,10.1928
0.0997986,4.64662,6.85562,8.14591,8.98498,9.57215,10.0053,10.3377,10.6007,10.8138
0.0986323,4.74748,6.98533,8.26687,9.09297,9.66926,10.0941,10.4203,10.6787,10.8883
0.111528,5.44821,7.92824,9.31874,10.2067,10.8229,11.2757,11.6224,11.8965,12.1186
0.0970557,4.74057,6.85609,8.04794,8.8147,9.35003,9.74518,10.0489,10.2897,10.4853
0.102882,5.28359,7.77939,9.23186,10.1835,10.8554,11.3551,11.7412,12.0486,12.2991
0.096276,5.03158,7.38191,8.7324,9.60809,10.2215,10.6751,11.0239,11.3006,11.5254
0.107081,5.76267,8.4593,10.004,11.0039,11.7038,12.221,12.6189,12.9344,13.1908
0.0992635,5.04773,7.14296,8.27742,8.98865,9.47632,9.83155,10.1019,10.3144,10.486
0.156066,7.78778,10.9341,12.643,13.7196,14.4609,15.0027,15.4161,15.7419,16.0053
0.0983578,4.95652,7.11741,8.36779,9.18797,9.76838,10.201,10.5361,10.8032,11.0212
0.107342,5.52387,8.00573,9.43735,10.3667,11.0176,11.4985,11.8681,12.1609,12.3986
0.0976483,5.04371,7.33671,8.66495,9.53078,10.1398,10.5915,10.9399,11.2169,11.4423
0.104486,5.47636,7.95117,9.36039,10.2674,10.8995,11.3651,11.7221,12.0046,12.2337
0.0963081,5.22371,7.66893,9.08759,10.0137,10.6659,11.1502,11.5241,11.8215,12.0637
0.0951134,5.3757,7.93643,9.41813,10.3817,11.0579,11.5584,11.9438,12.2496,12.4982
0.093544,3.79714,4.89792,5.41695,5.71892,5.91648,6.05582,6.15938,6.23939,6.30305
0.0968913,4.67551,6.85965,8.25137,9.2324,9.96501,10.5342,10.9895,11.3623,11.6733
0.0978715,4.89959,7.14065,8.42761,9.24919,9.81429,10.2249,10.5358,10.7791,10.9744
0.0991004,4.91228,7.00702,8.1506,8.86588,9.35502,9.71068,9.98105,10.1936,10.3651
0.0973802,5.17711,7.58091,8.96353,9.86256,10.4948,10.9641,11.3263,11.6144,11.8491
0.103594,5.89349,8.76732,10.4424,11.5369,12.3074,12.8791,13.3199,13.6701,13.9551
0.0965524,5.67055,8.384,9.93608,10.9384,11.6388,12.1557,12.5528,12.8674,13.1228
0.101092,6.04537,8.8396,10.4093,11.4141,12.1125,12.6261,13.0198,13.3312,13.5836
0.0944398,5.71929,8.35498,9.85803,10.8327,11.5167,12.0236,12.4143,12.7248,12.9774
0.0980111,6.40252,9.54565,11.3821,12.5853,13.4339,14.0644,14.551,14.938,15.2531
0.0952241,6.2113,9.10042,10.7381,11.7918,12.5265,13.068,13.4836,13.8126,14.0796
0.0943969,6.46556,9.5381,11.297,12.4358,13.2334,13.8231,14.2768,14.6367,14.9292
