0.35652,0.448415,0.490564,0.514756,0.530452,0.541458,0.549604,0.555876,0.560854,0.564901
0.223182,0.378653,0.468838,0.526687,0.566761,0.59611,0.618512,0.636166,0.650432,0.662199
0.162031,0.353921,0.471995,0.546974,0.597943,0.634609,0.662169,0.683608,0.700745,0.714749
0.143125,0.393097,0.550392,0.648259,0.713733,0.760339,0.795128,0.822062,0.84352,0.861014
0.134084,0.441934,0.628287,0.739119,0.811358,0.861971,0.899357,0.928087,0.950851,0.96933
0.111559,0.429808,0.618194,0.729445,0.802279,0.85363,0.891783,0.921251,0.944699,0.963803
0.108172,0.498512,0.73814,0.883252,0.979979,1.04901,1.10073,1.14093,1.17307,1.19935
0.104887,0.552116,0.816824,0.972988,1.07535,1.14753,1.20114,1.24251,1.27541,1.30219
0.105657,0.632587,0.937977,1.11669,1.23356,1.31591,1.37708,1.42429,1.46185,1.49243
0.0970132,0.647004,0.958077,1.13954,1.25831,1.34211,1.40441,1.45256,1.49088,1.52211
0.0984876,0.716,1.05633,1.25483,1.38501,1.477,1.54548,1.59844,1.64063,1.67502
0.163047,1.2945,1.90955,2.26774,2.50216,2.66749,2.79035,2.88523,2.96071,3.02218
0.0895584,0.72049,1.03417,1.21119,1.32514,1.4047,1.46342,1.50854,1.54431,1.57335
0.0887763,0.790921,1.16933,1.39635,1.54818,1.65696,1.73876,1.80252,1.85361,1.89547
0.110822,1.04822,1.53875,1.8241,2.01011,2.14075,2.23746,2.31191,2.37098,2.41897
0.0875192,0.898345,1.32902,1.58168,1.74754,1.86476,1.952,2.01946,2.07318,2.11698
0.0864967,0.93321,1.36787,1.61808,1.7805,1.89442,1.97873,2.04365,2.09518,2.13707
0.0813518,0.936353,1.37344,1.62512,1.78866,1.90346,1.98849,2.054,2.10602,2.14833
0.263659,3.16734,4.6101,5.43175,5.9624,6.33343,6.60747,6.81816,6.98519,7.12086
0.0852347,1.00728,1.43796,1.68109,1.83795,1.9477,2.02885,2.0913,2.14086,2.18115
0.144753,1.81222,2.64186,3.13115,3.45482,3.68492,3.85692,3.99035,4.09689,4.18391
0.0801338,0.640105,0.782225,0.845355,0.880927,0.903719,0.919559,0.931203,0.94012,0.947168
0.0758315,0.808901,1.19364,1.45736,1.65327,1.80544,1.92734,2.0273,2.11081,2.18164
0.0733464,0.964717,1.50912,1.86227,2.10283,2.27471,2.40261,2.50103,2.57888,2.64187
0.0776081,1.09048,1.64912,1.97199,2.17803,2.32026,2.42425,2.50359,2.56613,2.61671
0.0745057,1.11517,1.65726,1.9626,2.15772,2.29338,2.39331,2.47002,2.5308,2.58016
0.0734119,1.18131,1.76645,2.10725,2.33129,2.49018,2.60884,2.70088,2.77436,2.83439
0.0717784,1.22664,1.82763,2.17561,2.40276,2.5627,2.68138,2.77292,2.84568,2.90488
0.0727336,1.34082,2.01464,2.4114,2.67307,2.85865,2.99711,3.10439,3.18994,3.25977
0.0714703,1.41626,2.12618,2.53926,2.80891,2.99861,3.13927,3.24771,3.33385,3.40392
0.197572,4.16733,6.24509,7.45233,8.24127,8.79732,9.2104,9.5294,9.78319,9.98992
0.100913,2.10459,3.08155,3.64011,4.00318,4.25849,4.44793,4.59412,4.71039,4.80507
0.0723342,1.53882,2.25257,2.66609,2.93688,3.12811,3.27037,3.38035,3.46792,3.5393
0.0750586,1.62169,2.35931,2.78164,3.05531,3.24698,3.38868,3.49767,3.58411,3.65432
0.0713854,1.61898,2.38257,2.82828,3.12049,3.32685,3.48036,3.599,3.69346,3.77044
0.0687613,1.63296,2.41119,2.8635,3.1586,3.36617,3.52007,3.63871,3.73295,3.80962
0.0694026,1.58709,2.26644,2.64151,2.87928,3.0435,3.16375,3.2556,3.32806,3.38669
0.0704895,1.59733,2.304,2.71616,2.98821,3.1817,3.32652,3.43905,3.52902,3.60262
0.0699107,1.72226,2.56462,3.07134,3.40882,3.6493,3.82915,3.96866,4.07998,4.17086
0.0694696,1.8133,2.70807,3.23409,3.57813,3.82016,3.99955,4.13778,4.24753,4.33677
0.0703053,1.80712,2.60858,3.051,3.33054,3.52308,3.66377,3.77109,3.85564,3.92399
0.0708677,1.81502,2.63809,3.11767,3.43415,3.65932,3.82796,3.95906,4.06394,4.14977
0.0679503,1.79467,2.63979,3.1395,3.46985,3.70433,3.8793,4.01481,4.12283,4.21095
0.0806746,2.23652,3.32581,3.97203,4.39864,4.70096,4.92628,5.10066,5.2396,5.35289
0.0684865,2.01475,3.01921,3.61318,4.00406,4.2805,4.48626,4.64536,4.77204,4.87529
0.0679638,2.0729,3.07662,3.65429,4.02841,4.29027,4.48378,4.63259,4.75058,4.84643
0.0628772,0.501328,0.543246,0.558924,0.567172,0.572271,0.57574,0.578253,0.580159,0.581654
0.0703921,0.913567,1.35576,1.71978,2.03137,2.30245,2.54084,2.75228,2.94118,3.111
0.0624955,1.18567,2.04496,2.72251,3.23539,3.62296,3.91978,4.15123,4.33507,4.48365
0.0603439,1.54058,2.73387,3.52919,4.05156,4.41047,4.6695,4.86446,5.01629,5.13784
0.139216,4.19939,6.98247,8.53625,9.48626,10.1254,10.5858,10.9342,11.2073,11.4274
0.0629674,2.03683,3.19459,3.82566,4.22601,4.50539,4.7124,4.87229,4.99965,5.10356
0.0622546,2.21688,3.44616,4.14722,4.60747,4.93452,5.17925,5.36933,5.52125,5.64545
0.0623422,2.30488,3.47404,4.1272,4.54826,4.84266,5.06009,5.22721,5.35966,5.46721
0.1219,4.72828,7.06094,8.38001,9.23498,9.83484,10.2791,10.6214,10.8932,11.1143
0.0634243,2.32318,3.34815,3.91821,4.28471,4.54069,4.72973,4.87511,4.99041,5.0841
0.0615017,2.22786,3.22378,3.79915,4.17696,4.44444,4.64385,4.79827,4.9214,5.02187
0.0623309,2.36848,3.51479,4.20335,4.66335,4.99217,5.23882,5.43063,5.58403,5.7095
0.112982,4.54135,6.79738,8.13368,9.01244,9.63282,10.0937,10.4494,10.7321,10.9623
0.0630489,2.39182,3.47083,4.08769,4.48762,4.76825,4.97619,5.13649,5.26389,5.36758
0.0812957,3.21878,4.77333,5.70088,6.31837,6.75927,7.08992,7.34708,7.55282,7.72116
0.0617167,2.54473,3.77987,4.50215,4.97397,5.30575,5.55156,5.74089,5.89116,6.01331
0.0600688,2.64815,3.98675,4.77983,5.303,5.67384,5.9504,6.16459,6.33538,6.47475
0.0534548,0.308229,0.319999,0.324121,0.326227,0.327507,0.328368,0.328987,0.329454,0.329818
0.0517283,0.542862,0.812377,1.05743,1.28439,1.49584,1.69352,1.87881,2.05288,2.21675
0.0517471,0.927254,1.79158,2.6416,3.39959,4.04395,4.58028,5.02369,5.3906,5.6957
0.0557772,1.54975,3.25278,4.61502,5.56443,6.21862,6.68216,7.02261,7.28131,7.48381
0.0545892,2.00832,3.81714,4.84537,5.4381,5.81626,6.07866,6.27212,6.42113,6.53974
0.0521921,2.27162,3.91472,4.77006,5.2911,5.64819,5.91078,6.11297,6.27385,6.40507
0.0586562,2.89913,4.71269,5.66939,6.27635,6.70099,7.01593,7.25909,7.45258,7.61022
0.0894194,4.88264,7.65624,9.15382,10.1156,10.7892,11.2877,11.6716,11.9763,12.224
0.0540534,2.91015,4.37538,5.19246,5.72752,6.10691,6.39034,6.61025,6.78591,6.92948
0.0526448,2.89818,4.30536,5.10323,5.62384,5.99055,6.26274,6.47274,6.63965,6.77548
0.0541424,3.177,4.76583,5.68971,6.29679,6.72592,7.04524,7.29206,7.48854,7.64864
0.0514578,3.0528,4.49821,5.31565,5.84188,6.20879,6.47915,6.68662,6.85085,6.98408
0.055105,3.20935,4.62512,5.40738,5.90493,6.24948,6.50228,6.6957,6.84849,6.97224
0.0531663,3.17349,4.66268,5.53768,6.11742,6.53058,6.84016,7.08088,7.27344,7.431
0.0528915,3.29681,4.90936,5.86562,6.49776,6.94612,7.28043,7.53918,7.74534,7.91343
0.0559136,3.6819,5.51745,6.59507,7.30059,7.79754,8.16627,8.45064,8.67661,8.86046
0.0554683,3.46161,4.96153,5.77931,6.29312,6.64584,6.90299,7.09879,7.25287,7.37729
0.0520814,3.28322,4.81843,5.73025,6.33988,6.7776,7.10761,7.36548,7.57262,7.74269
0.0527954,3.41728,5.04049,5.99123,6.61399,7.05264,7.37791,7.62857,7.82754,7.98928
0.11558,7.59613,11.1166,13.1218,14.4118,15.3101,15.9714,16.4784,16.8795,17.2048
0.0548624,3.47906,5.06172,5.98141,6.58565,7.01389,7.33359,7.58149,7.77942,7.94112
0.0536557,3.45253,5.0708,6.02237,6.64911,7.09292,7.42358,7.67941,7.8832,8.04934
0.0532802,3.63074,5.40697,6.45173,7.13656,7.61927,7.97756,8.25394,8.47357,8.65227
0.0608368,4.08226,5.92409,6.95171,7.60494,8.05653,8.3873,8.64,8.83936,9.00066
0.0537242,3.73016,5.52506,6.58705,7.29226,7.79566,8.17339,8.46744,8.7029,8.89574
0.0553045,3.95646,5.87062,6.98933,7.72148,8.23726,8.61995,8.91505,9.14948,9.34017
0.0533866,3.95645,5.87742,6.99296,7.7202,8.23152,8.61058,8.90281,9.13498,9.32387
0.0553747,3.82471,5.43302,6.30512,6.85228,7.22766,7.50124,7.7095,7.87335,8.00562
0.054151,3.6827,5.31331,6.26213,6.88841,7.33403,7.66774,7.92714,8.13463,8.30442
0.0588561,4.24004,6.30309,7.54391,8.37141,8.96177,9.40375,9.74686,10.0208,10.2446
0.054313,4.05145,6.01832,7.16562,7.91232,8.43578,8.82271,9.12023,9.35607,9.54757
0.0566976,3.90266,5.5229,6.39794,6.94489,7.31922,7.59159,7.7987,7.96153,8.09292
0.0575157,3.89505,5.63062,6.6519,7.33116,7.81722,8.18278,8.4679,8.6966,8.88414
0.0549685,4.00067,5.98429,7.18735,7.99238,8.56762,8.99862,9.33333,9.60065,9.81899
0.056087,4.2448,6.33609,7.5594,8.35598,8.91449,9.32734,9.64481,9.89646,10.1008
0.118301,8.5067,12.1776,14.1779,15.433,16.294,16.9214,17.3991,17.775,18.0784
0.117019,7.64924,10.8184,12.6184,13.7917,14.6202,15.2375,15.7156,16.097,16.4084
