1.88502,1.90917,1.91736,1.92148,1.92396,1.92562,1.92681,1.9277,1.92839,1.92895
1.43864,1.94127,2.19244,2.34308,2.44348,2.51518,2.56894,2.61075,2.6442,2.67156
1.63286,2.84728,3.47237,3.83486,4.06791,4.2293,4.34729,4.43717,4.50782,4.56479
1.21002,2.60883,3.30948,3.69463,3.93327,4.09455,4.2105,4.29777,4.36578,4.42026
1.16389,3.02925,3.93789,4.42156,4.71695,4.91531,5.05752,5.16443,5.24772,5.31442
1.26942,3.84858,5.04211,5.65771,6.02894,6.27668,6.45367,6.5864,6.68963,6.77219
1.1044,3.88277,5.14636,5.79708,6.19137,6.45571,6.64525,6.78782,6.89895,6.98802
1.24608,4.99945,6.66347,7.51235,8.02466,8.36719,8.61228,8.79631,8.93955,9.05421
1.28668,5.81585,7.78315,8.78421,9.38885,9.79351,10.0833,10.3011,10.4707,10.6066
1.18676,5.97561,8.00807,9.03637,9.65589,10.0698,10.3659,10.5882,10.7612,10.8997
1.05492,5.82954,7.8066,8.80369,9.40418,9.80545,10.0925,10.3081,10.476,10.6104
1.05667,6.35621,8.50101,9.57868,10.2266,10.6591,10.9683,11.2003,11.3809,11.5254
1.03366,6.791,9.1175,10.2948,11.0058,11.4818,11.8228,12.0792,12.2789,12.4389
1.03559,7.4728,10.0952,11.4294,12.2367,12.7777,13.1654,13.4568,13.6839,13.8659
1.13841,9.05106,12.32,13.9941,15.0103,15.6926,16.1822,16.5507,16.838,17.0683
1.08951,9.31154,12.6101,14.2705,15.2681,15.9332,16.4082,16.7644,17.0413,17.2628
1.03075,9.42121,12.7166,14.3688,15.3612,16.0235,16.4969,16.8522,17.1287,17.35
1.11115,10.3645,13.7426,15.3966,16.3786,17.0293,17.4921,17.8382,18.1068,18.3213
1.06611,10.0304,13.1926,14.7581,15.6971,16.3239,16.7723,17.1091,17.3714,17.5815
1.10768,10.7776,14.2496,16.0035,17.0653,17.7777,18.2887,18.6733,18.9731,19.2134
1.06239,10.6821,14.1608,15.9219,16.9859,17.698,18.208,18.5911,18.8895,19.1284
1.05523,10.8689,14.3754,16.1364,17.1946,17.9004,18.4046,18.7829,19.077,19.3124
1.03773,11.0832,14.7312,16.5826,17.7028,18.4538,18.9923,19.3974,19.7132,19.9663
1.07213,11.9864,16.006,18.0466,19.2794,20.1044,20.6951,21.1388,21.4843,21.761
1.04223,12.1877,16.3104,18.3967,19.6545,20.4953,21.0968,21.5484,21.9,22.1814
1.03471,12.5971,16.8484,18.988,20.2746,21.1334,21.7472,22.2078,22.5662,22.853
1.02679,13.0262,17.4352,19.6556,20.9925,21.8857,22.5248,23.0046,23.3782,23.6773
1.0587,14.0767,18.8968,21.3328,22.8023,23.7853,24.4891,25.0178,25.4295,25.7593
1.0363,14.303,19.188,21.651,23.1349,24.1267,24.8364,25.3692,25.7841,26.1162
1.02143,14.6754,19.6847,22.2045,23.7204,24.7325,25.4562,25.9994,26.4221,26.7604
1.04827,15.9704,21.5847,24.4413,26.1712,27.3313,28.1633,28.7892,29.2771,29.6681
1.04482,16.5115,22.2077,25.0613,26.7721,27.9114,28.7243,29.3335,29.8069,30.1854
1.04328,16.8056,22.4556,25.2724,26.961,28.0867,28.891,29.4943,29.9638,30.3394
1.02166,17.2604,23.2382,26.2739,28.1136,29.3485,30.2348,30.9019,31.4223,31.8395
1.00345,17.0752,22.7219,25.5204,27.1897,28.2979,29.0869,29.6771,30.1353,30.5012
1.01022,13.0399,15.9503,17.2436,17.9766,18.4491,18.7791,19.0228,19.2101,19.3585
1.02667,15.5006,20.9516,24.0638,26.1102,27.5653,28.6551,29.5025,30.1807,30.7359
1.01589,16.8628,23.1796,26.5493,28.6098,29.9879,30.9698,31.7029,32.2701,32.7216
0.988012,17.2619,23.4911,26.6258,28.488,29.7176,30.5894,31.2398,31.7435,32.1452
0.921767,16.9413,22.9876,26.016,27.8297,29.0383,29.9022,30.5506,31.0554,31.4596
0.906666,17.6075,23.9089,27.076,28.9814,30.2547,31.1659,31.8502,32.3831,32.8098
0.950807,18.9178,25.4362,28.6682,30.5994,31.8837,32.7996,33.4857,34.0188,34.4451
0.973611,19.6217,26.1867,29.4398,31.3869,32.684,33.6103,34.3051,34.8455,35.2779
0.893935,18.6586,25.0488,28.2807,30.2375,31.5504,32.4925,33.2016,33.7546,34.198
0.928744,19.5434,26.0292,29.2549,31.184,32.4668,33.3811,34.0657,34.5974,35.0223
0.902391,20.4322,27.7956,31.6071,33.9411,35.518,36.6552,37.5141,38.1859,38.7257
0.985898,19.6684,25.2106,27.7823,29.2606,30.219,30.8902,31.3862,31.7676,32.0699
0.897924,16.3538,20.7978,22.9644,24.2611,25.1275,25.7484,26.2157,26.5802,26.8726
0.939481,20.0337,27.61,31.8805,34.6382,36.5679,37.9939,39.0908,39.9605,40.6671
0.956518,23.0335,32.3402,37.3056,40.3387,42.3678,43.815,44.897,45.7355,46.4038
0.91169,22.0819,29.8496,33.6021,35.7826,37.2032,38.2016,38.9415,39.5119,39.965
0.910275,21.3231,28.1003,31.3483,33.2615,34.5265,35.4265,36.1001,36.6236,37.0421
0.826335,19.6044,26.0154,29.2329,31.1829,32.4944,33.4377,34.1491,34.7048,35.1509
0.779162,15.0606,18.7698,20.4675,21.4427,22.0754,22.5189,22.847,23.0995,23.2997
0.930821,21.4361,29.5065,34.1309,37.1678,39.3232,40.9348,42.1864,43.1869,44.0052
0.923782,23.0882,31.9022,36.5216,39.3131,41.1657,42.4785,43.4549,44.2081,44.8063
0.924806,24.7787,34.1349,38.8694,41.6969,43.5724,44.9072,45.9058,46.6812,47.3009
0.964907,27.3081,37.3876,42.4173,45.4216,47.4198,48.8456,49.9144,50.7455,51.4104
0.982105,18.5695,22.304,23.8591,24.7128,25.253,25.6258,25.8987,26.107,26.2713
0.967415,22.738,31.2921,36.4077,39.8933,42.4379,44.3822,45.9181,47.1628,48.1922
0.969255,25.6941,36.1322,41.838,45.3573,47.7158,49.395,50.6462,51.612,52.3789
0.965053,27.9122,38.9811,44.6194,47.9703,50.1795,51.7433,52.9082,53.8095,54.5278
0.959587,18.9269,22.9208,24.565,25.4571,26.0175,26.4026,26.6838,26.8981,27.0669
0.951582,24.0203,33.5834,39.3539,43.3134,46.2214,48.4543,50.2252,51.665,52.8592
0.957295,28.4193,40.8789,47.7681,52.0345,54.8972,56.9353,58.4531,59.6238,60.5524
0.950385,31.1746,44.1516,50.7047,54.5686,57.101,58.8861,60.2115,61.2346,62.0484
0.944624,20.8788,25.3107,27.0998,28.063,28.6659,29.0794,29.3809,29.6106,29.7915
0.944837,27.1748,38.311,45.0861,49.7727,53.2365,55.9094,58.0375,59.7733,61.2166
0.93626,31.3499,45.0744,52.586,57.207,60.2916,62.4786,64.1017,65.3501,66.3379
0.931678,33.4847,46.8784,53.5115,57.389,59.9189,61.6972,63.0155,64.0318,64.8396
0.931247,34.546,47.2229,53.3508,56.9566,59.3372,61.0292,62.2948,63.2778,64.0636
0.932754,35.7249,48.4613,54.7287,58.4809,60.9859,62.7789,64.1262,65.176,66.0169
0.919926,34.6186,46.0378,51.5806,54.8705,57.0511,58.6029,59.7635,60.6644,61.3839
0.932842,36.7141,49.5644,56.1133,60.1088,62.8046,64.7473,66.2141,67.361,68.2824
0.939108,37.4298,50.2333,56.6368,60.4761,63.0315,64.8536,66.2178,67.2773,68.1237
0.941922,37.944,50.793,57.2203,61.0802,63.6555,65.4962,66.8776,67.9526,68.8131
0.94347,38.7542,51.9962,58.6687,62.6927,65.3846,67.3122,68.7605,69.8886,70.7921
0.951128,39.6527,53.1587,59.9448,64.0265,66.7514,68.6994,70.1611,71.2985,72.2086
0.93799,38.9693,51.9064,58.3478,62.2045,64.7722,66.6048,67.9783,69.0461,69.9001
0.938271,39.4986,52.9275,59.7517,63.8918,66.6735,68.6718,70.177,71.3517,72.2941
0.941798,40.5646,54.5157,61.5797,65.8416,68.6908,70.7289,72.2588,73.4494,74.4022
0.945544,41.8402,56.3596,63.6952,68.1146,71.0672,73.179,74.7644,75.9983,76.9859
0.947733,43.2236,58.3609,66.0097,70.62,73.7019,75.9073,77.5635,78.853,79.8854
0.948746,44.0885,59.3429,66.9884,71.5773,74.6367,76.8218,78.4606,79.7351,80.7547
0.947897,43.9973,58.7498,66.0739,70.4534,73.3675,75.4466,77.0047,78.2159,79.1845
0.950767,44.6805,59.7829,67.3752,71.9533,75.0171,77.2119,78.8617,80.1472,81.1771
0.952005,44.7714,59.8672,67.4842,72.0831,75.1618,77.3673,79.0249,80.3162,81.3506
0.9454,45.4784,61.1022,69.0217,73.807,77.0103,79.3046,81.0285,82.3712,83.4464
0.946638,46.0388,61.7026,69.5652,74.2863,77.4337,79.6814,81.3667,82.6773,83.7255
0.94468,46.7941,62.8128,70.8793,75.7371,78.9836,81.3066,83.0512,84.4096,85.4973
0.944126,47.9036,64.4876,72.8663,77.9203,81.3008,83.7209,85.5388,86.9545,88.0881
0.938838,48.764,65.6966,74.2309,79.3692,82.8013,85.2558,87.0981,88.5319,89.6795
0.946461,49.2144,65.8205,74.0863,79.0314,82.3221,84.6694,86.4283,87.7954,88.8884
0.948412,49.2868,65.7161,73.9186,78.8436,82.1304,84.4805,86.2445,87.6176,88.7167
0.953065,50.3981,67.5449,76.2177,81.4612,84.9746,87.4933,89.3873,90.8634,92.0462
0.940405,50.7089,68.1423,76.9583,82.2768,85.8332,88.3782,90.2893,91.777,92.968
0.943138,51.7394,69.5357,78.5005,83.8956,87.498,90.0736,92.0066,93.5108,94.7146
0.948692,53.2328,71.686,80.9992,86.6127,90.3657,93.0516,95.069,96.6398,97.8975
0.9484,54.2435,73.0179,82.4654,88.1498,91.9456,94.6598,96.697,98.2823,99.5511
0.940539,55.816,75.6132,85.6706,91.7562,95.8349,98.759,100.958,102.672,104.045
