0.481262,0.617625,0.682042,0.719567,0.744131,0.761461,0.774342,0.784293,0.792211,0.798661
0.274225,0.450774,0.546988,0.60636,0.64644,0.67526,0.69696,0.713879,0.727437,0.738542
0.202373,0.431051,0.568841,0.65592,0.715112,0.757751,0.789856,0.814872,0.8349,0.85129
0.152767,0.404854,0.558144,0.65195,0.714067,0.757966,0.790557,0.815682,0.835629,0.851845
0.127673,0.418629,0.599618,0.70985,0.782853,0.834572,0.873086,0.902868,0.92658,0.945906
0.141052,0.547938,0.792336,0.936257,1.02987,1.09545,1.14392,1.18119,1.21073,1.23472
0.103352,0.451997,0.648171,0.760455,0.832771,0.883226,0.920438,0.94902,0.971665,0.99005
0.094806,0.486647,0.715765,0.851631,0.941363,1.00506,1.05263,1.08951,1.11893,1.14296
0.092638,0.542433,0.799741,0.949352,1.04665,1.11488,1.16535,1.20418,1.23497,1.25998
0.119703,0.779897,1.14377,1.35204,1.48657,1.5806,1.65004,1.70342,1.74574,1.78011
0.20544,1.39654,1.98829,2.31271,2.5176,2.65881,2.76206,2.84085,2.90296,2.95319
0.120703,0.839609,1.17194,1.35238,1.46617,1.54461,1.60198,1.64578,1.68033,1.70827
0.113078,0.868977,1.25217,1.47599,1.62353,1.72825,1.80646,1.86711,1.91552,1.95506
0.142874,1.23987,1.83443,2.18826,2.42207,2.58774,2.71113,2.80655,2.88251,2.9444
0.102625,0.916601,1.32064,1.5475,1.69216,1.79233,1.86577,1.92191,1.96622,2.00208
0.0970871,0.946409,1.38153,1.63229,1.79543,1.91011,1.99517,2.06079,2.11296,2.15542
0.111737,1.18634,1.75074,2.08053,2.29668,2.44927,2.56273,2.65039,2.72015,2.77698
0.0990518,1.0989,1.60141,1.88738,2.07169,2.20031,2.29515,2.36797,2.42563,2.47243
0.184865,2.18831,3.20025,3.78127,4.15844,4.42312,4.61914,4.77016,4.89009,4.98764
0.11117,1.36612,1.98637,2.34101,2.57083,2.73193,2.85113,2.9429,3.01574,3.07496
0.121378,1.54252,2.22054,2.60063,2.84363,3.01232,3.13624,3.23111,3.30607,3.3668
0.211238,2.68462,3.78149,4.37706,4.75116,5.008,5.19526,5.33784,5.45004,5.54063
0.118795,1.59884,2.30924,2.72183,2.99296,3.18508,3.32845,3.43958,3.52827,3.60069
0.101514,1.47031,2.15808,2.56065,2.82427,3.01001,3.14782,3.25408,3.33848,3.40713
0.105216,1.66503,2.48211,2.96366,3.27976,3.50289,3.66872,3.79679,3.89867,3.98164
0.0984174,1.54698,2.22767,2.60404,2.84219,3.00636,3.12639,3.21797,3.29013,3.34847
0.102805,1.68584,2.46262,2.91519,3.21312,3.42456,3.58257,3.70519,3.80314,3.88319
0.0917723,1.59006,2.3483,2.79493,3.08924,3.29767,3.45294,3.57306,3.66872,3.7467
0.0936657,1.64468,2.38676,2.80647,3.07562,3.26271,3.40024,3.50558,3.58884,3.6563
0.0998838,1.7987,2.61904,3.09289,3.40233,3.62054,3.78278,3.90818,4.00803,4.08942
0.102949,1.83287,2.61247,3.04499,3.31976,3.50967,3.64872,3.7549,3.83864,3.90635
0.104787,1.73463,2.38987,2.73995,2.9584,3.10786,3.21661,3.29931,3.36432,3.41678
0.105177,1.90435,2.77649,3.30151,3.6545,3.90856,4.10031,4.25021,4.37064,4.46952
0.0963168,1.93115,2.89161,3.4678,3.84863,4.11801,4.31822,4.4727,4.59543,4.69526
0.0947287,1.94849,2.85348,3.36369,3.68866,3.91334,4.07786,4.20352,4.30262,4.38278
0.0928039,1.98621,2.92642,3.47249,3.83027,4.08332,4.27193,4.41803,4.53456,4.6297
0.090934,2.04854,3.03888,3.61896,4.00001,4.26941,4.46994,4.62498,4.74842,4.84902
0.0955665,2.20199,3.24483,3.84921,4.24362,4.52128,4.72734,4.88633,5.01273,5.11562
0.0878159,1.60999,2.35014,2.83391,3.18176,3.44547,3.65275,3.82015,3.95825,4.07417
0.141339,3.06196,4.72372,5.78444,6.50566,7.02239,7.40855,7.70706,7.94423,8.13692
0.103014,2.27232,3.3571,3.96638,4.34964,4.61172,4.802,4.94639,5.05969,5.15098
0.0942893,2.06862,2.9683,3.4576,3.76493,3.97634,4.13088,4.24888,4.34197,4.41732
0.117865,2.83051,4.19209,4.98856,5.51376,5.88688,6.16584,6.38236,6.55531,6.69666
0.0906108,2.27297,3.36034,3.9885,4.39719,4.68407,4.89642,5.05988,5.18956,5.29494
0.131365,3.55604,5.31559,6.34164,7.01241,7.48488,7.83559,8.1062,8.32134,8.49647
0.0879501,2.43483,3.59978,4.27003,4.7057,5.01172,5.23852,5.41335,5.55226,5.66529
0.0944168,2.76003,4.11015,4.89834,5.41539,5.78076,6.05268,6.26295,6.4304,6.5669
0.0903189,1.13899,1.31337,1.38397,1.42231,1.44641,1.46297,1.47505,1.48426,1.4915
0.084705,1.51212,2.2238,2.74631,3.15627,3.48859,3.76406,3.99636,4.19502,4.36691
0.127187,3.04558,4.9854,6.35633,7.3329,8.04704,8.58482,9.001,9.33089,9.59786
0.0887139,2.43901,3.87315,4.71782,5.24944,5.60983,5.8691,6.06431,6.21655,6.33861
0.12333,3.45742,5.12044,5.99148,6.52089,6.87748,7.13463,7.32917,7.48164,7.60443
0.107908,3.36357,5.09726,6.09729,6.75532,7.22398,7.57562,7.8495,8.06897,8.24884
0.117603,3.95428,5.98044,7.14762,7.90865,8.4441,8.84111,9.14708,9.39002,9.58754
0.0822592,2.86222,4.2765,5.08778,5.61598,5.98755,6.26324,6.47595,6.64507,6.78276
0.0818573,2.99108,4.47025,5.32721,5.88794,6.28357,6.5777,6.80495,6.98581,7.13317
0.0824736,3.20611,4.792,5.70436,6.29652,6.71155,7.01847,7.25461,7.44188,7.59404
0.080159,3.14453,4.65161,5.52089,6.0887,6.48923,6.78709,7.01736,7.20073,7.35022
0.0785315,3.11184,4.59991,5.47106,6.04541,6.45294,6.7572,6.99307,7.18128,7.33496
0.119953,5.0525,7.54609,9.00872,9.96803,10.6448,11.1474,11.5353,11.8437,12.0946
0.0876068,3.49143,4.99941,5.82754,6.35077,6.71133,6.97489,7.17598,7.33446,7.4626
0.113054,4.28232,6.0108,6.95265,7.54809,7.9592,8.26033,8.49048,8.67214,8.81919
0.0892674,3.45486,4.99283,5.89614,6.49434,6.9204,7.23946,7.4874,7.68565,7.84778
0.0935884,3.34794,4.71815,5.48689,5.97893,6.3206,6.57158,6.76367,6.91541,7.03828
0.107553,3.91716,5.66597,6.69842,7.38117,7.86642,8.22912,8.51055,8.73529,8.91892
0.0807513,3.26485,4.92848,5.94745,6.63139,7.12098,7.48835,7.77399,8.00239,8.18912
0.0951347,4.10984,6.20933,7.4476,8.25615,8.82394,9.24411,9.56745,9.82391,10.0323
0.0813213,3.7311,5.63951,6.75744,7.48899,8.00495,8.3885,8.68488,8.92081,9.1131
0.100232,3.60887,5.29503,6.37507,7.14206,7.71868,8.16917,8.53129,8.82893,9.07798
0.0838259,3.36039,5.1159,6.21197,6.95138,7.47972,7.87435,8.17952,8.42217,8.61951
0.102849,4.36325,6.54657,7.80524,8.61102,9.16842,9.57631,9.88756,10.1328,10.3311
0.0947336,3.7352,5.31366,6.16333,6.69426,7.05818,7.32353,7.52574,7.68503,7.81378
0.0861935,3.7552,5.59712,6.69452,7.42721,7.95229,8.34739,8.65557,8.90272,9.10535
0.0801693,3.52512,5.13291,6.02935,6.598,6.98986,7.27589,7.49369,7.66499,7.80321
0.0797665,3.83149,5.77627,6.94212,7.72101,8.27896,8.69862,9.02589,9.28832,9.5035
0.100641,5.16877,7.80033,9.33886,10.3428,11.048,11.57,11.9717,12.2904,12.5492
0.0802774,4.2132,6.27323,7.45676,8.22485,8.76385,9.1631,9.4708,9.71523,9.91412
0.0961168,5.10886,7.55104,8.95752,9.87459,10.5205,11.0004,11.3709,11.6658,11.9059
0.0774795,4.15074,6.12353,7.2716,8.02524,8.55836,8.95549,9.26282,9.50772,9.70746
0.0938592,5.27016,7.83388,9.32987,10.3089,10.9989,11.5111,11.9063,12.2204,12.476
0.0810434,4.33187,6.25345,7.33434,8.02839,8.51207,8.86855,9.14224,9.35901,9.53495
0.0929409,4.78532,6.76456,7.84581,8.52791,8.99753,9.34058,9.60215,9.80819,9.97469
0.0814252,4.01532,5.75827,6.78223,7.46249,7.94865,8.31387,8.59845,8.82653,9.01345
0.0794664,4.35518,6.54523,7.8845,8.78336,9.42642,9.90846,10.2829,10.5819,10.8262
0.0796608,4.43716,6.50321,7.66168,8.39426,8.8974,9.26373,9.5422,9.76094,9.93729
0.0783246,4.60452,6.83792,8.13384,8.98063,9.57824,10.023,10.3671,10.6414,10.8652
0.189301,11.9039,17.8608,21.34,23.6165,25.2213,26.4131,27.3329,28.0641,28.6594
0.0843349,4.93173,7.09824,8.30491,9.0765,9.61312,10.0082,10.3112,10.5511,10.7458
0.0922535,5.36595,7.81104,9.24087,10.1854,10.8572,11.3598,11.7502,12.0621,12.3172
0.091036,5.20367,7.54233,8.89359,9.77404,10.3928,10.8512,11.2043,11.4846,11.7125
0.0968287,5.55169,8.05682,9.49819,10.4335,11.0892,11.5741,11.9474,12.2435,12.4841
0.0800287,4.30858,6.06525,7.02393,7.62691,8.04102,8.34296,8.57285,8.75373,8.89977
0.0917396,5.40508,8.01884,9.59598,10.6547,11.4154,11.9888,12.4366,12.7961,13.0911
0.0793896,4.87915,7.26027,8.65708,9.56951,10.2106,10.685,11.0501,11.3396,11.5747
0.0893979,5.73797,8.56327,10.2123,11.2893,12.0476,12.6104,13.0447,13.39,13.6712
0.0902178,6.06368,9.05578,10.7912,11.9217,12.7163,13.3053,13.7594,14.1202,14.4137
0.0874395,6.06692,9.01333,10.7071,11.8063,12.5774,13.1483,13.588,13.9371,14.2209
0.0879186,6.21179,9.20114,10.931,12.0614,12.8587,13.4514,13.9094,14.274,14.5711
0.0902141,6.45486,9.49053,11.2273,12.3526,13.1408,13.7238,14.1723,14.528,14.8171
0.0894408,6.53551,9.62353,11.4056,12.5672,13.3847,13.9913,14.4593,14.8315,15.1345
