0.398956,0.51522,0.570654,0.603098,0.624398,0.639454,0.65066,0.659327,0.666228,0.671854
0.213044,0.353322,0.430569,0.478494,0.510954,0.534346,0.551986,0.565757,0.576803,0.585857
0.207002,0.458671,0.618765,0.723221,0.795691,0.848637,0.888916,0.920548,0.946032,0.96699
0.161162,0.420079,0.568477,0.655292,0.711034,0.749575,0.77773,0.799168,0.816023,0.829618
0.192417,0.624607,0.891324,1.05505,1.16462,1.24298,1.3018,1.3476,1.38426,1.41428
0.158976,0.610847,0.881113,1.04076,1.14479,1.21771,1.2716,1.31302,1.34583,1.37247
0.140526,0.604613,0.860279,1.0046,1.0966,1.16032,1.20705,1.24279,1.27101,1.29386
0.138851,0.704078,1.03357,1.2295,1.35928,1.45165,1.52077,1.57446,1.61737,1.65245
0.125854,0.69943,1.00851,1.18296,1.29443,1.37169,1.42835,1.47166,1.50583,1.53348
0.132986,0.860232,1.27968,1.53012,1.69663,1.81544,1.90453,1.97382,2.02926,2.07463
0.131089,0.898375,1.2963,1.51811,1.65892,1.7561,1.82717,1.88137,1.92407,1.95857
0.12511,0.920619,1.3236,1.55038,1.69612,1.79781,1.87284,1.93051,1.97622,2.01336
0.13555,1.1372,1.69192,2.0241,2.24574,2.40424,2.52323,2.61585,2.68999,2.75068
0.122128,1.04782,1.50208,1.75291,1.91126,2.02012,2.09948,2.15987,2.20735,2.24566
0.122991,1.18624,1.75854,2.09874,2.32502,2.48664,2.60796,2.70242,2.77807,2.84004
0.116326,0.801197,1.0637,1.208,1.30067,1.36552,1.41352,1.45052,1.47992,1.50386
0.14553,1.26899,1.88975,2.29031,2.56983,2.77552,2.93299,3.05733,3.15793,3.24098
0.112637,1.21323,1.90494,2.34531,2.64331,2.85643,3.01575,3.1391,3.23731,3.3173
0.140451,1.66544,2.52133,3.00357,3.30662,3.51369,3.66394,3.7779,3.86729,3.93929
0.1126,1.46416,2.21337,2.64663,2.92959,3.12961,3.2788,3.39448,3.48686,3.56236
0.113362,1.54059,2.27331,2.68455,2.94839,3.13223,3.26769,3.37164,3.45393,3.52068
0.10923,1.52659,2.21424,2.59716,2.84227,3.01285,3.13845,3.23481,3.31109,3.37298
0.112052,1.71164,2.54956,3.04658,3.37733,3.61357,3.79083,3.92876,4.03915,4.12952
0.134589,1.96044,2.7681,3.20235,3.47297,3.65753,3.79133,3.89275,3.97225,4.03623
0.110235,1.77626,2.63164,3.14625,3.49231,3.74157,3.92988,4.07723,4.19573,4.29311
0.153367,2.59488,3.82383,4.53511,4.99659,5.31936,5.55745,5.74019,5.88479,6.00204
0.1178,1.96363,2.81157,3.28101,3.57888,3.78473,3.93554,4.05079,4.14176,4.21539
0.11034,2.02175,3.00518,3.59266,3.98456,4.26497,4.47566,4.63981,4.77132,4.87906
0.132,2.45087,3.56883,4.20213,4.60827,4.89041,5.09763,5.25621,5.38143,5.4828
0.10922,2.1651,3.20527,3.81534,4.2168,4.50124,4.7134,4.87778,5.0089,5.11595
0.131996,2.70342,3.97332,4.70334,5.17664,5.50819,5.75329,5.94183,6.09133,6.21277
0.106769,2.17667,3.13906,3.67879,4.02441,4.26478,4.44166,4.57729,4.6846,4.77163
0.108936,2.34655,3.45737,4.11235,4.54582,4.85423,5.085,5.26419,5.40739,5.52445
0.106276,2.24039,3.20432,3.73821,4.07645,4.30962,4.47997,4.60984,4.71208,4.79466
0.126072,2.9042,4.32142,5.1718,5.7405,6.1481,6.45477,6.69394,6.88574,7.04299
0.109392,2.57887,3.78801,4.48242,4.93113,5.24436,5.4752,5.65228,5.79239,5.90598
0.24413,5.71423,8.21588,9.60587,10.4898,11.1015,11.5502,11.8933,12.1642,12.3836
0.106706,2.61046,3.83695,4.56045,5.04008,5.38198,5.63822,5.83749,5.99692,6.12739
0.105888,2.52851,3.63834,4.26628,4.66991,4.95099,5.15787,5.31646,5.44188,5.54353
0.123238,3.11455,4.60877,5.50275,6.09899,6.52532,6.84542,7.09465,7.29423,7.45766
0.107032,2.66106,3.83991,4.50376,4.92791,5.22185,5.43738,5.60212,5.73209,5.83723
0.105968,2.61592,3.75654,4.40344,4.82108,5.11332,5.3294,5.49572,5.62773,5.73506
0.106213,2.63017,3.7799,4.43584,4.86046,5.15786,5.37779,5.54702,5.68127,5.79037
0.103575,1.87554,2.39944,2.6499,2.79674,2.89323,2.96148,3.0123,3.05161,3.08292
0.119455,2.75297,4.13905,5.07297,5.75506,6.27745,6.69111,7.02708,7.30551,7.54008
0.105025,2.74639,4.22009,5.13207,5.73766,6.16417,6.47891,6.71987,6.90987,7.0633
0.119985,3.28377,4.89672,5.80517,6.37865,6.77223,7.05893,7.27708,7.44869,7.58724
0.118424,3.50281,5.28324,6.32374,7.00685,7.49095,7.8525,8.13303,8.35715,8.54036
0.102612,3.0215,4.40015,5.16044,5.64195,5.97429,6.21747,6.40308,6.54939,6.66768
0.11593,3.7231,5.59589,6.71119,7.45546,7.98849,8.38936,8.70194,8.95254,9.15798
0.104081,3.38777,5.00664,5.93677,6.5401,6.96273,7.27508,7.51525,7.70563,7.86022
0.102339,3.26174,4.70306,5.5058,6.0181,6.37361,6.63482,6.83489,6.99306,7.12124
0.116541,4.09936,6.1784,7.44049,8.29117,8.90406,9.36683,9.72869,10.0194,10.2582
0.196429,6.84008,9.95172,11.6845,12.7821,13.5377,14.089,14.5086,14.8385,15.1047
0.102104,3.60895,5.29592,6.27986,6.92804,7.3884,7.73265,7.99998,8.21367,8.38843
0.117518,4.17554,6.11467,7.24224,7.9804,8.50111,8.88802,9.18677,9.42437,9.61785
0.151455,4.90896,6.90285,7.99796,8.69129,9.16982,9.52003,9.78744,9.99833,10.1689
0.130238,4.4392,6.5098,7.75668,8.59425,9.19659,9.65088,10.0058,10.2909,10.5249
0.129197,4.12161,5.84716,6.81172,7.42562,7.84988,8.16032,8.39719,8.58381,8.7346
0.101389,3.60161,5.39767,6.49693,7.23905,7.77392,8.17782,8.49368,8.74748,8.95589
0.112513,4.22296,6.33249,7.57576,8.38854,8.95972,9.3825,9.70783,9.96583,10.1754
0.0992261,3.70536,5.40821,6.36238,6.97051,7.39185,7.70106,7.93769,8.12462,8.27604
0.100257,3.52548,4.95113,5.713,6.18804,6.51296,6.74935,6.92911,7.07043,7.18446
0.0995197,3.70269,5.38134,6.35847,7.0022,7.45925,7.80084,8.0659,8.27761,8.45062
0.110193,4.5672,6.92269,8.36116,9.32832,10.022,10.5432,10.9491,11.2739,11.5396
0.102461,4.42346,6.62341,7.89935,8.72599,9.30362,9.72958,10.0565,10.3153,10.5252
0.111759,4.76519,6.90802,8.08675,8.83098,9.34366,9.71844,10.0044,10.2299,10.4122
0.101755,4.67065,6.96722,8.32184,9.21975,9.85988,10.3397,10.7129,11.0116,11.256
0.189729,8.2832,11.8178,13.7363,14.9386,15.7616,16.36,16.8145,17.1713,17.4588
0.103225,4.56937,6.67364,7.91526,8.74173,9.3332,9.77802,10.125,10.4032,10.6314
0.100746,4.41635,6.41494,7.57029,8.3226,8.8508,9.24173,9.54261,9.78125,9.97513
0.100414,4.33021,6.23965,7.327,8.02869,8.51884,8.88055,9.15847,9.37868,9.55749
0.101293,4.6859,7.00732,8.41573,9.36198,10.0417,10.5537,10.9533,11.2738,11.5367
0.104639,4.66774,6.73632,7.89153,8.62482,9.13061,9.5002,9.78193,10.0037,10.1829
0.120569,5.62273,8.32744,9.93708,11.0085,11.7745,12.3497,12.7979,13.157,13.4512
0.114723,5.27559,7.70274,9.10068,10.0082,10.6445,11.115,11.4769,11.764,11.9971
0.099386,4.6024,6.67138,7.84137,8.59239,9.11504,9.49969,9.79458,10.0279,10.217
0.107454,5.46053,8.23296,9.90911,11.0325,11.8383,12.4445,12.9173,13.2963,13.607
0.117012,5.96049,8.74665,10.3164,11.3177,12.0104,12.5177,12.905,13.2102,13.457
0.100353,5.4515,8.15319,9.74188,10.7895,11.5331,12.0887,12.5197,12.8639,13.1452
0.103923,5.7066,8.38203,9.89421,10.8642,11.5388,12.0349,12.4149,12.7153,12.9587
0.168154,9.07491,13.097,15.34,16.7742,17.7714,18.5053,19.0681,19.5136,19.875
0.102352,5.4328,7.93763,9.42201,10.4124,11.122,11.656,12.0725,12.4066,12.6806
0.100247,3.70364,4.75146,5.25629,5.55338,5.7489,5.88724,5.99024,6.06989,6.13331
0.109946,4.88716,7.24074,8.79419,9.91253,10.7598,11.4251,11.9619,12.4043,12.7754
0.0996735,4.84977,7.35683,8.9073,9.94114,10.6729,11.2153,11.6324,11.9624,12.2298
0.0990296,4.65363,6.72936,7.87238,8.58664,9.07389,9.42732,9.6954,9.90575,10.0752
0.100991,5.31045,8.07262,9.75625,10.8923,11.7127,12.3337,12.8205,13.2126,13.5353
0.106134,5.71526,8.51397,10.1195,11.1548,11.8763,12.4073,12.8143,13.1359,13.3965
0.0987256,5.69733,8.60833,10.3275,11.4626,12.2687,12.871,13.3383,13.7115,14.0164
0.0983941,5.75607,8.52433,10.0978,11.1113,11.8182,12.3394,12.7394,13.0561,13.313
0.119505,6.88099,9.97433,11.6979,12.7996,13.5653,14.1287,14.5606,14.9025,15.1797
0.0992614,6.09027,9.08993,10.8757,12.0659,12.9171,13.5563,14.0541,14.4527,14.7792
0.0955837,5.84731,8.52035,10.0179,10.9718,11.6312,12.1138,12.4821,12.7722,13.0067
0.0964062,6.31598,9.43477,11.2752,12.4918,13.3568,14.0036,14.5058,14.907,15.2351
0.174535,11.6779,17.2836,20.5068,22.5958,24.0584,25.1392,25.9701,26.6288,27.1636
0.107026,6.23916,8.71538,10.0509,10.8906,11.4683,11.8905,12.2127,12.4667,12.6721
0.108952,6.58099,9.62385,11.4616,12.7026,13.599,14.2774,14.809,15.2367,15.5885
0.108213,5.41216,7.34521,8.36004,8.98345,9.40437,9.70732,9.93564,10.1138,10.2567
0.107122,6.03333,8.94391,10.7685,12.0276,12.951,13.6579,14.2168,14.6699,15.0448
