0.328217,0.423015,0.468079,0.494415,0.511689,0.523891,0.532969,0.539987,0.545575,0.550129
0.244087,0.411344,0.506026,0.565749,0.606639,0.636331,0.65885,0.676505,0.690716,0.702397
0.208893,0.391977,0.481502,0.531632,0.563217,0.584825,0.600499,0.612373,0.621673,0.62915
0.15943,0.404756,0.558419,0.657684,0.726537,0.777014,0.815589,0.846025,0.870652,0.890988
0.217264,0.62567,0.84672,0.970984,1.04892,1.10197,1.14028,1.16921,1.19179,1.2099
0.128739,0.476684,0.695099,0.830565,0.922072,0.988005,1.03779,1.07673,1.10802,1.13373
0.1838,0.812685,1.19298,1.41571,1.55963,1.65981,1.73341,1.78972,1.83416,1.87011
0.113302,0.608726,0.919183,1.10548,1.2287,1.31619,1.38154,1.4322,1.47265,1.50569
0.130354,0.733324,1.05238,1.22771,1.33821,1.41425,1.46977,1.5121,1.54545,1.57239
0.118136,0.775777,1.15382,1.3791,1.52931,1.63684,1.71769,1.78072,1.83124,1.87266
0.106463,0.771786,1.13559,1.3436,1.47766,1.57107,1.63981,1.69248,1.73411,1.76783
0.101632,0.80337,1.17743,1.39122,1.52962,1.62659,1.69834,1.75358,1.79743,1.8331
0.117322,1.05169,1.57509,1.8853,2.09065,2.23665,2.34579,2.43046,2.49806,2.55329
0.100166,0.915029,1.31735,1.53918,1.67941,1.77601,1.84657,1.90035,1.94271,1.97692
0.150129,1.53107,2.27689,2.72185,3.019,3.23193,3.39214,3.51712,3.61736,3.69956
0.105697,1.09649,1.58924,1.86888,2.04892,2.17442,2.26685,2.33773,2.39381,2.43927
0.166155,1.77761,2.55236,2.9885,3.26855,3.46366,3.60742,3.71777,3.80513,3.87604
0.109159,1.24076,1.80843,2.14006,2.35816,2.51264,2.62784,2.71706,2.78821,2.84628
0.260399,3.13394,4.56673,5.38948,5.92184,6.29397,6.56855,6.77942,6.9464,7.08189
0.0991594,1.27027,1.87502,2.23229,2.46845,2.63625,2.76168,2.85901,2.93673,3.00025
0.0997229,1.34447,1.97111,2.33073,2.56317,2.72553,2.84528,2.93721,3.00999,3.06904
0.101237,1.40882,2.04557,2.4064,2.63867,2.80074,2.9203,3.01215,3.08493,3.14402
0.106507,1.63026,2.4356,2.91662,3.2369,3.46561,3.63715,3.7706,3.87737,3.96475
0.121187,1.82142,2.60952,3.04232,3.31492,3.50211,3.63849,3.74224,3.8238,3.8896
0.0994616,1.64557,2.45029,2.93264,3.25556,3.48733,3.66193,3.79827,3.90771,3.99751
0.150483,2.62006,3.87414,4.59876,5.06864,5.39734,5.63989,5.82613,5.97356,6.09315
0.118902,2.01158,2.87191,3.34522,3.6448,3.85158,4.00295,4.11859,4.20982,4.28365
0.100351,1.79962,2.63244,3.12035,3.44249,3.67147,3.84271,3.97566,4.08189,4.16872
0.123172,2.22782,3.21102,3.76535,4.12042,4.36696,4.548,4.68653,4.79591,4.88446
0.115399,2.27769,3.39142,4.05736,4.50086,4.81759,5.05517,5.24002,5.38795,5.50904
0.124585,2.54459,3.74338,4.43046,4.87372,5.18282,5.41047,5.58505,5.72313,5.83506
0.132012,2.44533,3.4041,3.91623,4.23557,4.45401,4.61296,4.73386,4.82894,4.90567
0.126036,2.58713,3.82301,4.57416,5.08271,5.45066,5.7295,5.94817,6.12431,6.26922
0.0977343,2.0125,2.91051,3.41832,3.74273,3.96715,4.13136,4.2566,4.35523,4.43487
0.104129,2.37474,3.55256,4.25412,4.71894,5.04957,5.29684,5.48879,5.64215,5.76751
0.215562,4.85368,7.02848,8.24191,9.01343,9.54678,9.93736,10.2357,10.4709,10.6612
0.109222,2.27538,3.186,3.68336,3.99851,4.21656,4.37657,4.49905,4.59586,4.6743
0.104754,2.30886,3.35083,3.9653,4.37264,4.66281,4.88007,5.04886,5.18378,5.29409
0.114413,2.57256,3.74451,4.42685,4.87225,5.18537,5.41733,5.59599,5.73778,5.85303
0.0991352,2.43878,3.66019,4.39651,4.88713,5.2371,5.49922,5.70285,5.86561,5.99867
0.104156,2.65748,3.93461,4.66799,5.14077,5.47025,5.71284,5.89883,6.04594,6.16518
0.115015,2.90231,4.1829,4.89079,5.33975,5.65008,5.87752,6.05141,6.1887,6.29985
0.1003,2.7885,4.19062,5.0373,5.60659,6.01633,6.32556,6.5673,6.7615,6.92095
0.110409,3.03551,4.4021,5.16139,5.64221,5.97325,6.21478,6.39866,6.54327,6.65994
0.104181,3.06286,4.55603,5.4392,6.02495,6.44258,6.75567,6.99923,7.19417,7.35376
0.101128,3.0058,4.38968,5.17184,5.67326,6.02161,6.27753,6.4734,6.62811,6.75336
0.101134,2.91663,4.17101,4.86852,5.31391,5.62332,5.85093,6.02544,6.16353,6.27553
0.102639,3.15771,4.66341,5.55822,6.15346,6.57841,6.89711,7.14502,7.34338,7.50569
0.109682,3.3855,4.90782,5.76478,6.31186,6.69059,6.96804,7.17991,7.34694,7.48198
0.101423,3.3634,5.01033,5.98796,6.63617,7.09783,7.44354,7.71218,7.92699,8.1027
0.125689,4.20661,6.14955,7.24883,7.95331,8.44262,8.80204,9.07713,9.29441,9.47034
0.202384,6.36116,8.94712,10.3393,11.2105,11.8077,12.2427,12.5739,12.8344,13.0448
0.110803,3.72687,5.50659,6.58494,7.31424,7.84171,8.24137,8.55482,8.80729,9.01504
0.105072,3.12623,4.33845,4.98801,5.39149,5.66585,5.86429,6.01438,6.13182,6.22619
0.10037,3.25147,4.79859,5.74506,6.3878,6.85384,7.20763,7.48553,7.70968,7.89433
0.260949,8.40505,12.1775,14.3267,15.7045,16.6596,17.3595,17.8938,18.3149,18.6552
0.112811,3.77684,5.51863,6.52094,7.17078,7.62625,7.9633,8.22286,8.42893,8.59652
0.0993569,3.59637,5.39946,6.47972,7.19848,7.7112,8.0954,8.39401,8.63278,8.82806
0.108453,4.00863,5.90477,6.98051,7.66971,8.14812,8.49935,8.76805,8.98019,9.15191
0.118651,4.64908,6.94046,8.28329,9.16671,9.79275,10.2599,10.6219,10.9108,11.1467
0.101866,4.06069,6.0009,7.11817,7.84443,8.35434,8.732,9.02293,9.25392,9.44175
0.10524,4.15435,6.02062,7.06634,7.7356,8.2008,8.54295,8.80518,9.01257,9.18071
0.100748,4.15449,6.14753,7.32506,8.10595,8.66247,9.07941,9.40352,9.66274,9.8748
0.105164,4.2955,6.22068,7.30121,7.991,8.46882,8.81907,9.08671,9.29782,9.46858
0.105501,4.59359,6.84762,8.19243,9.08819,9.72835,10.2089,10.5831,10.8828,11.1282
0.100233,4.50724,6.6831,7.94355,8.76259,9.33657,9.76081,10.087,10.3455,10.5554
0.215489,9.41616,13.579,15.8933,17.3662,18.3864,19.1349,19.7077,20.1601,20.5266
0.10931,4.64499,6.73429,7.95635,8.76495,9.34114,9.77305,10.109,10.3779,10.598
0.0984524,4.2014,6.10989,7.21912,7.94378,8.45372,8.83178,9.12312,9.35445,9.54253
0.110731,5.00099,7.45166,8.92031,9.89692,10.5928,11.1136,11.5181,11.8412,12.1053
0.0999207,4.51026,6.60771,7.80794,8.5817,9.12125,9.51874,9.82366,10.0649,10.2606
0.107711,4.75284,6.84933,8.02792,8.78378,9.31018,9.69802,9.99573,10.2315,10.4229
0.116052,5.36342,7.94765,9.49258,10.524,11.2624,11.8173,12.2497,12.5962,12.8801
0.119018,4.87407,6.83958,7.91481,8.59299,9.0596,9.40019,9.65969,9.86395,10.0289
0.119196,5.06418,7.3993,8.80252,9.74439,10.4216,10.9323,11.3314,11.6519,11.9151
0.099386,4.48784,6.68759,8.00356,8.87371,9.48993,9.94852,10.3028,10.5846,10.814
0.0970755,4.08331,5.74256,6.62109,7.16047,7.52446,7.78642,7.98391,8.1381,8.26182
0.108578,5.22137,7.88641,9.52666,10.6448,11.4584,12.0778,12.5656,12.9598,13.2852
0.106537,5.34038,7.96477,9.4789,10.4559,11.136,11.6357,12.0179,12.3196,12.5636
0.0969021,5.07548,7.57763,9.02939,9.9766,10.6437,11.1393,11.522,11.8266,12.0749
0.0991794,5.16464,7.53632,8.86515,9.71503,10.3055,10.7397,11.0724,11.3354,11.5486
0.170206,9.07142,13.2809,15.6899,17.2553,18.3555,19.1715,19.8009,20.3012,20.7085
0.0985142,5.23636,7.67014,9.08666,10.0171,10.6757,11.1665,11.5465,11.8494,12.0965
0.104852,5.32105,7.62304,8.91733,9.7475,10.3251,10.7501,11.0759,11.3335,11.5424
0.105908,5.55737,8.15483,9.69066,10.708,11.4321,11.9738,12.3945,12.7307,13.0055
0.0980874,5.31269,7.84823,9.33541,10.3097,10.9964,11.5061,11.8992,12.2116,12.4657
0.110047,5.7919,8.34046,9.76225,10.6667,11.2923,11.7507,12.1011,12.3775,12.6012
0.108406,6.12878,9.13587,10.9328,12.1305,12.987,13.6302,14.1312,14.5324,14.8611
0.109472,6.22897,9.13917,10.7989,11.8671,12.6109,13.1581,13.5774,13.9089,14.1774
0.101999,5.88814,8.64831,10.2426,11.2825,12.0151,12.5592,12.9796,13.3141,13.5867
0.0985113,5.87379,8.66061,10.2723,11.322,12.0598,12.6065,13.0279,13.3625,13.6347
0.108015,6.40352,9.29568,10.9225,11.9645,12.6887,13.2214,13.6295,13.9522,14.2138
0.120301,7.64913,11.4727,13.7707,15.3087,16.4114,17.2411,17.8881,18.407,18.8323
0.104102,6.42914,9.30641,10.9044,11.9167,12.6141,13.1232,13.5111,13.8164,14.0628
0.166231,10.9178,16.2691,19.4479,21.5616,23.0712,24.2043,25.0865,25.7931,26.3718
0.10079,5.96422,8.46416,9.84585,10.7239,11.3314,11.7767,12.117,12.3856,12.603
0.12415,7.01672,9.95788,11.6301,12.7152,13.4775,14.0428,14.4789,14.8256,15.1078
0.101911,5.84401,8.46738,10.0078,11.0221,11.7402,12.2753,12.6893,13.019,13.2879
0.100507,5.79771,8.42217,9.94089,10.9275,11.6189,12.1299,12.523,12.8346,13.0877
0.0995383,6.17607,9.24274,11.0823,12.3047,13.1752,13.8266,14.3323,14.7363,15.0664
