0.446529,0.574691,0.63549,0.670983,0.694248,0.710676,0.722894,0.732337,0.739853,0.745979
0.250108,0.411568,0.499575,0.553874,0.590524,0.616872,0.636709,0.652174,0.664565,0.674715
0.306579,0.646622,0.84792,0.973732,1.05864,1.11949,1.16514,1.20061,1.22895,1.25209
0.153911,0.321418,0.392661,0.428838,0.450336,0.464503,0.47452,0.481968,0.487721,0.492297
0.158183,0.441046,0.606871,0.71121,0.783011,0.835547,0.875702,0.907414,0.933102,0.954341
0.162184,0.611887,0.920428,1.12115,1.25911,1.35894,1.43421,1.49285,1.53977,1.57812
0.141347,0.62342,0.91351,1.07827,1.18174,1.25224,1.30322,1.34176,1.3719,1.39612
0.146885,0.806732,1.23136,1.48749,1.65773,1.77921,1.87039,1.9414,1.99829,2.04492
0.135249,0.809377,1.17917,1.38083,1.50682,1.59289,1.65538,1.7028,1.74,1.76996
0.162594,1.11058,1.64368,1.9519,2.1539,2.29694,2.40369,2.48646,2.55255,2.60655
0.261098,1.93447,2.83344,3.34673,3.67935,3.91246,4.08488,4.21755,4.32279,4.4083
0.147359,1.09003,1.53075,1.76837,1.9173,2.01943,2.09384,2.15046,2.195,2.23095
0.226576,2.00378,3.01965,3.64901,4.07972,4.39354,4.63254,4.82068,4.97267,5.09802
0.13138,1.18084,1.69369,1.97423,2.14958,2.26908,2.35557,2.421,2.47219,2.51331
0.129122,1.29598,1.91465,2.27852,2.519,2.69011,2.81823,2.91783,2.9975,3.06271
0.151179,1.64313,2.42408,2.87425,3.16616,3.3705,3.52143,3.63742,3.72931,3.80389
0.127663,1.41354,2.04061,2.39253,2.61801,2.77492,2.89045,2.97907,3.04923,3.10615
0.177535,2.17487,3.22123,3.83718,4.24368,4.5322,4.74763,4.91464,5.04791,5.15672
0.126285,1.44747,2.00849,2.3024,2.48276,2.60456,2.69229,2.75847,2.81017,2.85165
0.125865,1.64284,2.43099,2.90951,3.23369,3.46855,3.64678,3.78676,3.89965,3.99265
0.225374,2.21099,2.83355,3.12527,3.29342,3.40243,3.47868,3.53497,3.57819,3.61241
0.121262,1.40781,2.02503,2.40962,2.67665,2.87396,3.02606,3.14704,3.24563,3.32755
0.179209,2.42981,3.68222,4.46596,4.99563,5.37488,5.65873,5.87866,6.05383,6.19652
0.11766,1.67377,2.46782,2.91788,3.20325,3.39948,3.54247,3.65125,3.73677,3.80576
0.12166,1.94022,2.93055,3.51665,3.90328,4.17782,4.38304,4.54236,4.66967,4.77377
0.132974,2.15552,3.14239,3.68786,4.03283,4.27055,4.44427,4.57673,4.68106,4.76535
0.121395,1.9071,2.71012,3.15297,3.43557,3.63212,3.7769,3.88806,3.97611,4.04761
0.12185,2.13616,3.16863,3.78411,4.19421,4.48717,4.70691,4.8778,5.0145,5.12632
0.118523,2.10869,3.0588,3.59248,3.93277,4.16815,4.34049,4.47204,4.57572,4.65953
0.1615,3.21603,4.83318,5.79806,6.4391,6.89611,7.23851,7.50467,7.71754,7.89169
0.117319,2.45608,3.65831,4.35372,4.80532,5.12183,5.35584,5.53583,5.67855,5.79448
0.195522,4.13697,6.02189,7.07489,7.74683,8.213,8.55545,8.8177,9.02498,9.19296
0.13196,2.98384,4.45932,5.34326,5.93538,6.36056,6.68096,6.93116,7.13201,7.29681
0.158528,3.38407,4.79808,5.56326,6.04146,6.36808,6.6051,6.78485,6.9258,7.03927
0.137224,2.91669,4.17982,4.90701,5.38358,5.72102,5.97283,6.16807,6.32394,6.4513
0.119235,2.63442,3.83839,4.54448,5.00863,5.33673,5.58078,5.76935,5.91938,6.04157
0.11799,2.65617,3.83953,4.50986,4.93934,5.23747,5.45633,5.62378,5.756,5.86303
0.150158,3.75522,5.65018,6.79518,7.56133,8.11011,8.52265,8.84413,9.10175,9.31282
0.115345,2.81622,4.07258,4.77069,5.21288,5.51762,5.74023,5.90991,6.0435,6.1514
0.181541,4.92248,7.38579,8.85262,9.82728,10.5226,11.044,11.4495,11.774,12.0396
0.118199,3.24439,4.76112,5.61996,6.17098,6.55409,6.83573,7.05142,7.22187,7.35994
0.129016,3.39097,4.79294,5.54707,6.01853,6.34137,6.57639,6.75516,6.89574,7.0092
0.114151,2.41012,3.15511,3.52394,3.74558,3.8938,4.00001,4.07988,4.14214,4.19205
0.119322,2.7768,3.97323,4.70416,5.2037,5.56802,5.84585,6.06486,6.24199,6.38824
0.131917,3.48494,5.2678,6.38508,7.14314,7.68821,8.09778,8.41628,8.67077,8.87866
0.119393,3.38131,5.0938,6.10211,6.75661,7.2136,7.55021,7.80829,8.0124,8.17784
0.130231,3.71085,5.4241,6.37691,6.98043,7.39702,7.70202,7.93507,8.11898,8.26785
0.131224,4.02488,6.02034,7.19789,7.97786,8.53373,8.95037,9.27443,9.53374,9.74597
0.138936,4.05336,5.77573,6.70742,7.29032,7.68906,7.97884,8.19888,8.37161,8.51078
0.114792,3.69098,5.50609,6.59317,7.32129,7.84412,8.23813,8.54584,8.79289,8.99564
0.129253,2.70256,3.38696,3.69605,3.87168,3.98475,4.06358,4.12163,4.16616,4.20139
0.126225,3.15984,4.57561,5.49017,6.14287,6.63506,7.02043,7.33072,7.58609,7.80002
0.113987,3.49624,5.50355,6.83605,7.76724,8.44775,8.96393,9.36757,9.69121,9.95612
0.139466,4.4427,6.65127,7.88719,8.65655,9.17728,9.55201,9.83427,10.0544,10.2309
0.11486,3.95734,5.96457,7.12218,7.87467,8.4046,8.79881,9.10389,9.34718,9.54582
0.11478,2.54578,3.19075,3.47636,3.63796,3.74207,3.81478,3.86844,3.90967,3.94235
0.110609,3.13772,4.64449,5.64001,6.36332,6.91624,7.3537,7.70886,8.00312,8.25099
0.11369,3.79061,5.9159,7.28371,8.21943,8.89253,9.39694,9.78763,10.0985,10.3513
0.112349,3.89571,5.81487,6.88313,7.54869,8.00015,8.32579,8.5716,8.76369,8.91792
0.114172,4.40773,6.71285,8.05937,8.94156,9.56591,10.0319,10.3933,10.6821,10.9181
0.137136,5.63246,8.45278,10.0441,11.0631,11.7712,12.2918,12.6904,13.0055,13.2607
0.119581,4.43968,6.25717,7.22026,7.82084,8.23226,8.53208,8.76041,8.94016,9.08537
0.131463,5.04466,7.36844,8.74735,9.6716,10.3364,10.8382,11.2306,11.5459,11.8049
0.142922,5.63544,8.24485,9.75465,10.7357,11.4224,11.9292,12.3183,12.6262,12.8758
0.12377,5.16949,7.709,9.21736,10.2151,10.9236,11.4528,11.8631,12.1906,12.4581
0.11265,4.86917,7.22287,8.5843,9.46791,10.0869,10.5444,10.8963,11.1753,11.4018
0.114537,4.81724,6.93282,8.10009,8.83932,9.34959,9.7231,10.0084,10.2334,10.4154
0.138182,4.64695,6.13775,6.87635,7.31939,7.61519,7.82686,7.98587,8.10973,8.20894
0.128208,4.82764,6.97811,8.29062,9.18666,9.83972,10.3375,10.7298,11.0471,11.309
0.107841,4.73592,7.26667,8.85537,9.93268,10.7065,11.2874,11.7387,12.099,12.393
0.111632,5.39202,8.24338,9.91154,10.9869,11.7337,12.2813,12.6999,13.03,13.2969
0.1223,5.98373,8.81852,10.3745,11.3526,12.0247,12.5153,12.8894,13.1842,13.4226
0.12289,6.66685,10.1393,12.1983,13.5678,14.5471,15.283,15.8566,16.3163,16.6931
0.110952,5.69346,8.16317,9.48551,10.3084,10.8693,11.276,11.5842,11.8258,12.0202
0.149551,7.98375,11.6459,13.7388,15.1037,16.0667,16.7834,17.3378,17.7797,18.1401
0.211917,11.5049,16.7593,19.7507,21.6843,23.0363,24.0343,24.801,25.4085,25.9015
0.125125,6.35153,9.03923,10.5451,11.5124,12.187,12.6845,13.0668,13.3697,13.6156
0.115261,5.98823,8.76175,10.415,11.5175,12.3059,12.8979,13.3588,13.7279,14.03
0.114351,5.72844,8.19942,9.58795,10.4738,11.0868,11.5358,11.8786,12.1488,12.3673
0.127483,6.77578,10.0473,12.0122,13.3249,14.2646,14.9709,15.5213,15.9624,16.3238
0.140022,7.42895,10.833,12.7703,14.0138,14.8778,15.5124,15.998,16.3814,16.6918
0.123913,6.14276,8.72668,10.1653,11.0845,11.7235,12.1938,12.5547,12.8404,13.0723
0.132916,6.77399,9.8022,11.5499,12.6899,13.4925,14.0883,14.5481,14.9136,15.2112
0.125851,6.19536,8.80883,10.2628,11.1873,11.8266,12.2948,12.6524,12.9344,13.1625
0.116476,6.29222,9.37895,11.2399,12.4854,13.3779,14.0489,14.5718,14.991,15.3344
0.113068,6.21049,9.1303,10.7989,11.8714,12.617,13.1648,13.5839,13.9149,14.1829
0.115868,6.36842,9.22271,10.8146,11.8284,12.5308,13.0462,13.4407,13.7525,14.005
0.116718,6.86261,10.1795,12.1192,13.394,14.2967,14.9697,15.4909,15.9065,16.2456
0.134639,7.75479,11.1779,13.0677,14.2631,15.0866,15.6881,16.1465,16.5075,16.799
0.119149,7.0219,10.3024,12.2232,13.4919,14.3943,15.0698,15.5946,16.0143,16.3575
0.123294,6.54027,9.09723,10.4587,11.3031,11.8773,12.2929,12.6075,12.8538,13.0519
0.119879,6.06913,8.51853,9.90316,10.8009,11.4319,11.9003,12.262,12.5498,12.7843
0.135575,7.49114,11.1415,13.3944,14.9247,16.0312,16.8681,17.5231,18.0494,18.4817
0.137698,7.51051,10.8784,12.7742,13.9772,14.8049,15.4082,15.867,16.2274,16.518
0.128226,7.35908,10.8678,12.9191,14.2641,15.2149,15.9232,16.4715,16.9087,17.2655
0.114952,6.85535,10.1772,12.1171,13.3862,14.2808,14.9451,15.4578,15.8655,16.1974
0.114196,6.56118,9.45755,11.0706,12.0979,12.8095,13.3315,13.7309,14.0463,14.3017
0.109987,7.01765,10.5847,12.7374,14.1803,15.2154,15.9945,16.6022,17.0894,17.4889
0.128283,8.09189,11.7834,13.8296,15.1218,16.0098,16.6568,17.149,17.5358,17.8477
0.127201,8.79747,13.2682,15.9343,17.7095,18.9784,19.9314,20.6738,21.2685,21.7559
