0.702285,0.807211,0.849519,0.872381,0.886698,0.896507,0.903648,0.909078,0.913347,0.916791
0.440052,0.722985,0.889645,0.998515,1.07505,1.13174,1.17541,1.21007,1.23825,1.26161
0.382393,0.842988,1.13472,1.32167,1.44888,1.54022,1.60868,1.66178,1.7041,1.73859
0.435633,1.15953,1.57704,1.81835,1.97156,2.07663,2.15293,2.21078,2.25611,2.29258
0.291306,0.965307,1.37063,1.61127,1.76862,1.87938,1.96157,2.02499,2.07543,2.11651
0.285531,1.12755,1.61847,1.90097,2.08224,2.2081,2.3005,2.37118,2.42699,2.47216
0.24943,1.0632,1.47405,1.69373,1.82959,1.92186,1.98862,2.03917,2.07877,2.11064
0.249147,1.27315,1.84825,2.18551,2.40781,2.56568,2.68369,2.77529,2.84847,2.90829
0.281722,1.53446,2.15565,2.49084,2.69927,2.84108,2.94367,3.02129,3.08203,3.13085
0.227857,1.46887,2.15717,2.5621,2.8294,3.01931,3.16131,3.27154,3.35961,3.43162
0.223082,1.59604,2.32442,2.73424,2.9953,3.17572,3.30771,3.40838,3.48768,3.55173
0.281299,2.05037,2.87206,3.30829,3.57854,3.76248,3.89581,3.99692,4.07624,4.14014
0.215201,1.79877,2.63881,3.13548,3.46588,3.70212,3.87961,4.01792,4.12876,4.21959
0.260187,2.17655,3.04526,3.50644,3.79072,3.98292,4.12134,4.22569,4.30712,4.37241
0.206537,1.89177,2.72136,3.19738,3.50797,3.72712,3.89024,4.01646,4.11707,4.19917
0.237335,2.36687,3.43416,4.04354,4.43657,4.71068,4.91257,5.06738,5.18982,5.28905
0.193534,2.00796,2.86688,3.33979,3.63829,3.84367,3.99359,4.10783,4.19777,4.27042
0.193269,2.22932,3.25948,3.85129,4.23566,4.50554,4.70552,4.85967,4.98214,5.0818
0.185964,2.1118,2.95992,3.4105,3.68924,3.87853,4.01541,4.11898,4.20006,4.26526
0.229373,2.98961,4.42444,5.27866,5.84844,6.25643,6.56326,6.80252,6.99438,7.15168
0.191959,2.50363,3.57235,4.15609,4.52203,4.7723,4.95402,5.09187,5.19997,5.28699
0.167021,2.11514,2.93585,3.37376,3.64686,3.83372,3.96974,4.07322,4.15462,4.22034
0.188819,2.67828,3.88425,4.58342,5.04142,5.36498,5.60579,5.79202,5.94035,6.06128
0.199252,2.74661,3.85886,4.4648,4.84532,5.10619,5.29606,5.4404,5.5538,5.64525
0.179828,2.73173,3.98581,4.71938,5.2018,5.54349,5.79829,5.99567,6.15309,6.28159
0.180979,2.8567,4.11618,4.81724,5.26117,5.56677,5.78974,5.95949,6.093,6.20072
0.197567,3.11012,4.39132,5.08652,5.52295,5.82263,6.04122,6.20777,6.33891,6.44486
0.17769,3.04115,4.43085,5.23687,5.76502,6.13836,6.4164,6.63156,6.80303,6.94289
0.173488,2.92934,4.12289,4.76177,5.15776,5.42665,5.62096,5.76785,5.88274,5.97505
0.177163,3.27134,4.7739,5.64702,6.22018,6.62608,6.9289,7.16362,7.35094,7.50394
0.17605,3.40659,4.94297,5.80557,6.35536,6.73559,7.01392,7.22633,7.39371,7.52897
0.186113,3.62383,5.16048,5.9986,6.52581,6.8881,7.15244,7.35386,7.51246,7.64059
0.174614,3.80021,5.64738,6.74147,7.46726,7.98457,8.37214,8.67342,8.91438,9.11149
0.185429,3.80783,5.3256,6.11901,6.60373,6.92975,7.16374,7.33973,7.47686,7.58668
0.156585,3.44822,5.01629,5.93233,6.53833,6.97039,7.29453,7.54691,7.74908,7.91473
0.19005,4.45337,6.49566,7.65255,8.39298,8.90596,9.28171,9.56851,9.79447,9.97702
0.169627,3.84242,5.42446,6.27822,6.81214,7.17769,7.44376,7.64613,7.80527,7.93371
0.174926,4.20785,6.08378,7.15543,7.85146,8.34063,8.70346,8.98339,9.20595,9.38716
0.168586,3.97447,5.61386,6.50705,7.06819,7.45304,7.73325,7.94632,8.11376,8.24879
0.173439,4.40267,6.4106,7.57226,8.33128,8.86654,9.26445,9.57194,9.81674,10.0162
0.171736,4.41663,6.34857,7.42388,8.10652,8.57768,8.9222,9.18498,9.39198,9.55923
0.171424,4.16212,5.76561,6.61059,7.1322,7.48636,7.74261,7.93665,8.0887,8.21107
0.181826,4.6793,6.77381,8.00869,8.82991,9.41714,9.85843,10.2024,10.4781,10.7041
0.157441,3.89615,5.49485,6.3763,6.93269,7.31496,7.59343,7.80516,7.97151,8.10561
0.17136,4.53015,6.58314,7.77578,8.5555,9.1053,9.51395,9.82968,10.081,10.2858
0.1712,4.72794,6.90589,8.15678,8.96535,9.53016,9.94673,10.2665,10.5197,10.7251
0.168418,4.44511,6.24824,7.21403,7.81404,8.22274,8.51901,8.74363,8.91978,9.06163
0.180718,5.07984,7.38813,8.73212,9.61654,10.2441,10.713,11.0768,11.3674,11.6049
0.179747,4.92239,6.95119,8.05134,8.7388,9.20811,9.54851,9.80653,10.0088,10.1715
0.170497,5.09778,7.48892,8.89208,9.81723,10.4739,10.9646,11.3452,11.6492,11.8976
0.167264,5.11979,7.42064,8.70623,9.52256,10.0857,10.4971,10.8107,11.0575,11.2568
0.15485,4.66827,6.62747,7.6936,8.36403,8.82487,9.16126,9.41768,9.61967,9.78291
0.169603,5.72081,8.52265,10.1914,11.3022,12.0957,12.6912,13.1546,13.5255,13.8292
0.164744,5.14305,7.19254,8.26644,8.92355,9.36598,9.68378,9.92294,10.1094,10.2587
0.175983,5.7869,8.34735,9.81566,10.7748,11.4526,11.9577,12.3489,12.661,12.9159
0.166244,5.66814,8.23258,9.69825,10.6453,11.3069,11.7946,12.169,12.4652,12.7055
0.164918,5.49271,7.78264,9.02877,9.81034,10.3459,10.7356,11.0319,11.2648,11.4527
0.239902,8.6802,12.767,15.1634,16.743,17.864,18.7012,19.3506,19.8691,20.2927
0.166462,5.55602,7.79102,8.99382,9.74399,10.2561,10.6278,10.9097,11.1309,11.309
0.180723,6.32251,9.17176,10.8387,11.939,12.7213,13.3065,13.761,14.1244,14.4215
0.179034,6.15731,8.77571,10.2312,11.1542,11.7906,12.2553,12.6094,12.8881,13.1131
0.168989,5.64228,7.9444,9.21024,10.0117,10.5651,10.9702,11.2798,11.5241,11.7218
0.166425,6.02745,8.85591,10.5339,11.647,12.4398,13.0333,13.4944,13.8629,14.1642
0.176153,6.23646,8.88341,10.3305,11.2366,11.8557,12.305,12.6456,12.9126,13.1275
0.175199,6.66227,9.78662,11.6086,12.8045,13.651,14.2822,14.7712,15.1612,15.4797
0.166879,6.40005,9.24261,10.8224,11.8236,12.5138,13.0181,13.4024,13.7049,13.9492
0.163145,5.9828,8.39776,9.69429,10.5042,11.0587,11.4622,11.7692,12.0107,12.2055
0.16539,6.52423,9.52229,11.2743,12.4293,13.2493,13.862,14.3374,14.717,15.0271
0.171018,6.5712,9.30694,10.7901,11.7161,12.3477,12.8054,13.1522,13.4238,13.6424
0.163422,6.78273,9.97846,11.8573,13.0985,13.981,14.6412,15.154,15.5639,15.8991
0.162735,7.09298,10.3988,12.2673,13.4605,14.2861,14.8904,15.3516,15.715,16.0086
0.163012,6.74268,9.46237,10.8952,11.7781,12.3766,12.8092,13.1366,13.393,13.5992
0.229678,10.8363,16.2063,19.4349,21.6036,23.1646,24.3432,25.265,26.0059,26.6146
0.162915,6.74811,9.37174,10.752,11.6013,12.1757,12.5897,12.9021,13.1461,13.3419
0.172799,7.43266,10.7098,12.6191,13.8794,14.7761,15.4475,15.9695,16.3871,16.7288
0.173408,7.64596,11.099,13.0897,14.3809,15.2844,15.9512,16.4633,16.8687,17.1975
0.163631,7.06687,10.074,11.7382,12.7916,13.5175,14.048,14.4526,14.7713,15.0289
0.161363,7.52281,11.1041,13.215,14.6082,15.5974,16.3364,16.9095,17.3671,17.7409
0.167545,7.22577,10.1305,11.6788,12.6369,13.2873,13.7574,14.1128,14.391,14.6145
0.168244,8.10332,12.0083,14.3358,15.8878,16.9986,17.8337,18.4848,19.0067,19.4346
0.16168,7.69437,11.1158,13.0223,14.2316,15.0651,15.6738,16.1376,16.5024,16.7969
0.154553,7.12875,10.0554,11.6337,12.6208,13.2969,13.7891,14.1635,14.458,14.6957
0.162904,8.19462,12.0664,14.3457,15.8538,16.9271,17.7304,18.3545,18.8533,19.2611
0.15979,7.87838,11.2445,13.0763,14.2216,15.0035,15.5705,16.0002,16.337,16.6079
0.158345,8.45464,12.4352,14.736,16.2377,17.2962,18.083,18.691,19.1752,19.5698
0.156996,8.63245,12.5594,14.7442,16.1297,17.0851,17.7833,18.3155,18.7345,19.073
0.155681,8.12474,11.3669,13.0711,14.1217,14.8345,15.35,15.7404,16.0461,16.2922
0.233765,13.2111,19.2829,22.8114,25.134,26.7826,28.0148,28.971,29.7349,30.3592
0.160804,8.17355,11.3685,13.082,14.1509,14.8808,15.4106,15.8126,16.128,16.382
0.161651,8.48769,12.2741,14.5099,15.9959,17.0573,17.8541,18.4745,18.9715,19.3786
0.159733,8.65032,12.59,14.8604,16.3284,17.3525,18.1064,18.6842,19.1407,19.5106
0.157553,8.1916,11.5647,13.3893,14.5275,15.3044,15.8684,16.2963,16.6322,16.9029
0.146658,8.37335,12.4212,14.8409,16.4561,17.613,18.4831,19.1617,19.7059,20.152
0.168964,9.28325,13.1932,15.2982,16.6037,17.4899,18.1298,18.6132,18.9909,19.2943
0.165121,9.58474,13.948,16.442,18.0614,19.1999,20.0449,20.6972,21.2163,21.6392
0.16066,9.49444,13.7822,16.2056,17.7619,18.8454,19.6427,20.2539,20.7372,21.129
0.155073,9.18766,13.1886,15.4007,16.8029,17.7707,18.4789,19.0196,19.4459,19.7906
0.15644,8.74632,12.155,13.9545,15.0673,15.8237,16.3715,16.7865,17.1118,17.3736
0.160999,9.09714,12.8223,14.8856,16.2035,17.1198,17.7942,18.3115,18.7211,19.0533
0.159609,10.1259,15.0697,18.0373,20.0163,21.4293,22.4882,23.3111,23.9689,24.5067
