0.514965,0.636298,0.690531,0.721268,0.74106,0.75487,0.765053,0.772872,0.779065,0.784092
0.321056,0.529587,0.647131,0.72143,0.77244,0.809572,0.837792,0.859957,0.877823,0.892528
0.276517,0.594839,0.789242,0.912371,0.995961,1.05604,1.10117,1.13626,1.1643,1.1872
0.243305,0.579552,0.748998,0.841452,0.898464,0.936881,0.964451,0.985174,1.00131,1.01422
0.22607,0.698773,0.986729,1.16582,1.28735,1.37526,1.44185,1.49407,1.53612,1.57073
0.220938,0.841941,1.22674,1.45905,1.6119,1.71951,1.79917,1.86045,1.909,1.9484
0.210711,0.942397,1.37499,1.62533,1.78643,1.89851,1.98092,2.04406,2.09397,2.13443
0.209176,1.06067,1.53526,1.80283,1.97363,2.09211,2.17914,2.24579,2.29847,2.34117
0.205142,1.17173,1.70104,2.00253,2.19726,2.33353,2.43428,2.51181,2.57333,2.62333
0.202995,1.28967,1.87433,2.20769,2.4231,2.57375,2.68504,2.77059,2.83842,2.89351
0.200724,1.3772,1.98035,2.3178,2.53331,2.68284,2.79266,2.87674,2.94316,2.99697
0.198038,1.4952,2.17542,2.56769,2.82352,3.00369,3.13751,3.24083,3.32303,3.38999
0.194885,1.58645,2.30361,2.71335,2.97823,3.16343,3.30016,3.40523,3.48848,3.55607
0.193167,1.69362,2.45775,2.89252,3.17289,3.36865,3.51308,3.62402,3.71191,3.78326
0.321448,3.04313,4.42683,5.21551,5.72474,6.08066,6.34344,6.54541,6.70548,6.83548
0.192901,1.92224,2.78258,3.2712,3.58645,3.80677,3.96945,4.09451,4.19365,4.27417
0.190186,2.04463,2.98569,3.52763,3.88001,4.12747,4.3108,4.45206,4.56424,4.65549
0.190994,2.11052,3.02466,3.5321,3.85436,4.07704,4.24008,4.36459,4.46278,4.54219
0.188487,2.18435,3.15313,3.70724,4.06725,4.32028,4.50797,4.65278,4.76792,4.86167
0.18678,2.27088,3.29334,3.88212,4.26508,4.53404,4.73327,4.88676,5.00863,5.10772
0.185663,2.40481,3.50869,4.14397,4.55596,4.84455,5.05788,5.22196,5.35207,5.45777
0.281432,3.91895,5.75441,6.81056,7.49504,7.97435,8.32863,8.60114,8.81725,8.99281
0.18641,2.61341,3.76989,4.4217,4.84042,5.13231,5.34749,5.51273,5.64361,5.74985
0.182671,2.74712,4.02316,4.76196,5.2442,5.58384,5.83599,6.0306,6.18535,6.31135
0.187852,2.8461,4.0645,4.73285,5.15377,5.44288,5.65359,5.81394,5.94004,6.04179
0.187651,2.90244,4.18129,4.91644,5.39673,5.7359,5.98845,6.18391,6.33972,6.46687
0.183313,2.95977,4.28478,5.04338,5.53421,5.87741,6.1307,6.32525,6.47932,6.60434
0.183637,2.93829,4.16582,4.84195,5.26941,5.56394,5.77917,5.94331,6.07262,6.17713
0.182574,3.12962,4.56771,5.41059,5.96613,6.36034,6.65474,6.88306,7.06533,7.21422
0.1791,3.35479,4.98798,5.94906,6.57908,7.02306,7.35247,7.60645,7.80817,7.97223
0.18239,3.41516,4.94962,5.81054,6.36015,6.74131,7.02115,7.23536,7.4046,7.5417
0.179736,3.51565,5.13713,6.0711,6.67972,7.10828,7.42655,7.67234,7.86789,8.0272
0.169783,3.50926,5.1684,6.13081,6.75878,7.20064,7.52835,7.78105,7.98181,8.14515
0.320671,7.05993,10.4094,12.3232,13.5568,14.417,15.0507,15.5368,15.9214,16.2333
0.183816,3.95732,5.68212,6.64011,7.25087,7.6747,7.9862,8.2249,8.41367,8.56672
0.177325,3.85844,5.56438,6.54055,7.1759,7.62307,7.95507,8.21139,8.41529,8.58136
0.217833,4.84965,7.02029,8.26613,9.07471,9.64161,10.0609,10.3836,10.6396,10.8476
0.179559,4.06422,5.88597,6.93078,7.60817,8.08286,8.43396,8.70418,8.91857,9.09282
0.178581,4.00718,5.76692,6.77222,7.42336,7.87966,8.21724,8.47714,8.68342,8.85112
0.208616,4.91403,7.17004,8.47723,9.32904,9.92776,10.3715,10.7134,10.985,11.2059
0.175935,4.24548,6.18717,7.30239,8.02498,8.53101,8.90509,9.19287,9.4211,9.60654
0.174487,4.42573,6.50242,7.70295,8.4839,9.03231,9.43854,9.75152,10,10.2022
0.174739,4.40287,6.32499,7.38985,8.06509,8.53128,8.87243,9.13287,9.33822,9.50428
0.173279,4.57579,6.69515,7.92658,8.73428,9.30567,9.7315,10.0612,10.3241,10.5387
0.172303,4.53976,6.52895,7.64003,8.34794,8.83793,9.19698,9.4713,9.68768,9.86269
0.176247,4.77295,6.88243,8.07093,8.83395,9.36546,9.75705,10.0576,10.2955,10.4886
0.172827,4.81082,6.99694,8.25634,9.07681,9.65411,10.0825,10.4131,10.6759,10.8898
0.168659,5.08393,7.59301,9.08806,10.0791,10.7838,11.3103,11.7186,12.0444,12.3104
0.171246,2.79004,3.34736,3.58371,3.71404,3.79655,3.85347,3.89509,3.92686,3.95189
0.165223,3.6877,5.47165,6.72396,7.67369,8.4237,9.0326,9.53741,9.96301,10.3268
0.167244,4.407,6.76452,8.23328,9.2027,9.87823,10.371,10.744,11.0351,11.2679
0.158895,4.69836,7.22709,8.7156,9.67479,10.3412,10.8308,11.2057,11.5023,11.7427
0.193735,6.35049,9.71578,11.6418,12.8772,13.7371,14.3705,14.8566,15.2417,15.5543
0.168756,5.62134,8.32941,9.83279,10.7914,11.4577,11.9482,12.3247,12.6227,12.8647
0.181491,6.46979,9.64178,11.4527,12.6294,13.4566,14.0703,14.5437,14.9201,15.2264
0.168848,5.88245,8.53191,10.0106,10.9589,11.6196,12.1064,12.4802,12.7761,13.0163
0.16642,6.12522,8.99665,10.6437,11.7147,12.4671,13.0246,13.4542,13.7955,14.073
0.190555,7.34573,10.7901,12.7465,14.0058,14.8834,15.5297,16.0253,16.4174,16.7354
0.168693,6.4261,9.28803,10.8925,11.9214,12.6378,13.1657,13.5709,13.8917,14.1521
0.168581,6.26644,8.87658,10.3001,11.1974,11.8149,12.2658,12.6095,12.8802,13.0989
0.166327,6.46791,9.45241,11.2102,12.3755,13.2061,13.8285,14.3125,14.6997,15.0165
0.173931,6.59703,9.38224,10.9097,11.8696,12.5271,13.0051,13.368,13.6527,13.882
0.167054,6.21152,8.92269,10.4927,11.5236,12.2543,12.7999,13.2231,13.5611,13.8374
0.168222,6.16705,8.82,10.327,11.2974,11.9738,12.4719,12.8538,13.1559,13.4007
0.167532,6.36288,9.28771,11.0033,12.1309,12.9285,13.5224,13.982,14.3481,14.6466
0.190944,7.61261,11.2367,13.3557,14.7397,15.7131,16.4345,16.9904,17.4318,17.7907
0.168395,6.58719,9.55057,11.2325,12.3151,13.0704,13.6274,14.0552,14.3941,14.6692
0.166425,6.76448,9.92333,11.7547,12.9504,13.7928,14.4184,14.9014,15.2856,15.5984
0.167501,6.22339,8.71317,10.0544,10.8928,11.4665,11.8837,12.2008,12.4499,12.6508
0.164472,5.81412,8.08418,9.32828,10.118,10.6649,11.0664,11.3737,11.6166,11.8134
0.183848,7.46462,11.171,13.457,15.0101,16.134,16.9848,17.6511,18.1871,18.6274
0.164731,6.80503,10.0717,11.9777,13.2168,14.0842,14.7244,15.2161,15.6053,15.9211
0.179428,7.85936,11.6725,13.869,15.2892,16.2816,17.0141,17.577,18.023,18.3852
0.163633,7.21284,10.5824,12.5021,13.7426,14.6112,15.2536,15.7482,16.1408,16.46
0.152689,6.95351,10.1648,11.9766,13.1391,13.9482,14.5437,15.0002,15.3614,15.6541
0.16483,7.8482,11.4834,13.5314,14.8445,15.7578,16.4298,16.945,17.3525,17.6828
0.173959,8.84035,13.1245,15.6034,17.2205,18.3591,19.2043,19.8567,20.3755,20.7979
0.162429,8.41639,12.3672,14.6099,16.0546,17.0628,17.8061,18.3768,18.8288,19.1956
0.175186,9.22024,13.421,15.7758,17.2828,18.3301,19.1003,19.6906,20.1574,20.5359
0.163445,8.49252,12.2265,14.3163,15.6564,16.5899,17.2778,17.8058,18.224,18.5634
0.169713,9.31935,13.6661,16.1732,17.8061,18.9541,19.8052,20.4612,20.9824,21.4064
0.161534,9.04139,13.2296,15.625,17.1745,18.2585,19.0591,19.6745,20.1624,20.5585
0.172354,9.90794,14.4453,17.005,18.6454,19.7857,20.6241,21.2665,21.7744,22.1859
0.163086,9.33046,13.499,15.8499,17.3623,18.4179,19.1969,19.7955,20.27,20.6554
0.252185,14.9288,21.7872,25.7113,28.2539,30.0353,31.3528,32.3666,33.1709,33.8244
0.164841,8.95188,12.7521,14.9054,16.2997,17.2779,18.0027,18.5613,19.0053,19.3666
0.181204,9.6101,13.7829,16.1984,17.7785,18.8933,19.7219,20.362,20.8713,21.2862
0.164731,8.32329,11.8812,13.9295,15.2622,16.1984,16.892,17.4266,17.8511,18.1964
0.168542,8.83101,12.8968,15.2932,16.8695,17.984,18.8134,19.4546,19.965,20.3809
0.163362,8.69859,12.7391,15.09,16.6216,17.6973,18.4939,19.1075,19.5945,19.9905
0.173665,9.82841,14.6345,17.4632,19.3192,20.6295,21.6036,22.3561,22.9549,23.4427
0.161581,9.0649,13.2437,15.6156,17.1409,18.204,18.9873,19.5885,20.0645,20.4507
0.17235,9.91347,14.5243,17.1673,18.882,20.085,20.976,21.6624,22.2076,22.651
0.16296,9.60634,14.0725,16.6259,18.278,19.4342,20.2886,20.9457,21.4667,21.8898
0.21326,13.0677,19.2356,22.7777,25.0746,26.6846,27.8755,28.7921,29.5194,30.1105
0.161039,9.26326,13.0982,15.168,16.4634,17.3504,17.9961,18.487,18.8729,19.1842
0.162283,9.87332,14.3876,17.0009,18.7131,19.9237,20.8255,21.5236,22.0802,22.5342
0.168332,10.5954,15.5449,18.4028,20.2603,21.5628,22.5261,23.2672,23.8548,24.3321
0.161675,10.3198,15.0909,17.8198,19.5841,20.8182,21.7297,22.4305,22.9861,23.4374
0.160261,10.8075,15.9568,18.9171,20.835,22.1777,23.17,23.9331,24.5382,25.0297
