1.67316,1.6808,1.68336,1.68464,1.68541,1.68592,1.68629,1.68657,1.68678,1.68695
1.35213,1.93535,2.25808,2.46296,2.60459,2.70833,2.7876,2.85014,2.90075,2.94253
1.30249,2.55357,3.27995,3.72135,4.01092,4.21333,4.36197,4.47539,4.56461,4.63654
1.16522,2.94497,3.94048,4.49853,4.84419,5.07679,5.24326,5.36804,5.46496,5.54236
1.16149,3.62144,4.91543,5.59918,6.01185,6.28655,6.48232,6.62886,6.74266,6.83359
1.13962,4.15831,5.6102,6.34329,6.77967,7.06882,7.27451,7.42835,7.54776,7.64314
1.07924,4.55977,6.16866,6.9827,7.47271,7.80039,8.0351,8.21154,8.34904,8.45923
1.04897,4.94666,6.6334,7.47145,7.97173,8.30423,8.54124,8.71872,8.85658,8.96676
1.02384,5.25897,6.993,7.85084,8.36339,8.70447,8.94789,9.13035,9.27223,9.38572
1.35405,8.10588,11.0968,12.6607,13.6249,14.2792,14.7526,15.111,15.3917,15.6177
1.04297,6.99162,9.57309,10.8899,11.6846,12.2152,12.5942,12.8782,13.099,13.2755
1.0274,7.66429,10.4971,11.9319,12.7963,13.3738,13.7869,14.0971,14.3386,14.5319
1.042,8.4607,11.5108,13.0356,13.9494,14.558,14.9925,15.3183,15.5716,15.7743
1.00232,8.14917,10.7387,11.9819,12.7132,13.195,13.5365,13.7913,13.9887,14.1461
0.997663,9.05886,12.2996,13.9854,15.0267,15.7354,16.2494,16.6395,16.9457,17.1924
0.996893,9.73123,13.1855,14.9344,15.9869,16.6882,17.1885,17.5629,17.8537,18.0859
1.00111,10.4961,14.2446,16.1437,17.2899,18.0568,18.606,19.0187,19.3402,19.5978
1.1452,12.631,17.0569,19.2826,20.6219,21.5165,22.1564,22.6368,23.0108,23.3101
1.15125,13.3686,18.0232,20.366,21.7776,22.7215,23.3971,23.9047,24.2999,24.6164
1.11153,13.4906,18.1436,20.4836,21.8929,22.8349,23.509,24.0152,24.4094,24.7249
0.978672,12.505,16.8648,19.0745,20.4113,21.3074,21.9498,22.433,22.8096,23.1114
0.977112,13.0718,17.5891,19.8583,21.222,22.1315,22.7812,23.2685,23.6474,23.9505
0.986856,13.924,18.8019,21.2722,22.7652,23.7652,24.482,25.021,25.441,25.7776
0.967998,14.3443,19.3709,21.9076,23.4361,24.4576,25.1883,25.7369,26.1639,26.5057
0.996083,15.0797,20.2133,22.7827,24.3258,25.3554,26.0914,26.6437,27.0735,27.4175
1.066,16.8151,22.6224,25.5641,27.344,28.5375,29.3936,30.0376,30.5397,30.9422
1.07918,17.0281,22.6208,25.3951,27.0526,28.1544,28.9398,29.5278,29.9846,30.3497
0.963412,15.5217,20.6983,23.3193,24.9073,25.9736,26.7392,27.3159,27.7659,28.1268
1.1043,18.9124,25.5955,29.0451,31.1506,32.569,33.5892,34.3581,34.9584,35.4399
1.05958,17.6027,23.2075,25.9472,27.5661,28.6339,29.3906,29.9548,30.3916,30.7398
1.11353,19.556,26.3571,29.8841,32.0526,33.5235,34.5879,35.3941,36.0262,36.5351
0.95862,16.4565,21.7248,24.3222,25.8641,26.8836,27.6071,28.1468,28.5648,28.898
1.05763,19.6829,26.764,30.4781,32.7722,34.3319,35.462,36.3188,36.9908,37.5322
1.06798,20.8741,28.3921,32.2344,34.5551,36.1053,37.213,38.0434,38.6889,39.2049
0.954945,19.2124,25.9223,29.2798,31.2889,32.6254,33.5785,34.2925,34.8475,35.2912
1.05042,21.814,29.4134,33.2417,35.5504,37.0958,38.2031,39.0356,39.6845,40.2045
1.03693,21.923,29.4064,33.155,35.4079,36.9118,37.9869,38.7937,39.4215,39.9239
0.963162,20.9918,28.2573,31.9432,34.1758,35.6738,36.7489,37.5579,38.1889,38.6948
1.02377,23.3902,31.6495,35.8467,38.3845,40.0837,41.3007,42.215,42.927,43.4972
1.0195,23.6949,31.8505,35.9399,38.395,40.032,41.2012,42.0782,42.7602,43.3059
1.02674,24.0687,32.1944,36.2659,38.7146,40.3504,41.5207,42.3996,43.084,43.632
1.0064,24.0511,32.2382,36.3815,38.8878,40.568,41.773,42.6794,43.386,43.9523
1.00717,23.88,31.7647,35.7139,38.0869,39.6704,40.8021,41.6512,42.3118,42.8404
1.07625,26.5223,35.76,40.5211,43.4301,45.3928,46.8067,47.8738,48.7079,49.3778
0.939784,23.201,31.048,35.0015,37.3784,38.9636,40.0955,40.9441,41.6038,42.1314
0.999353,26.2578,35.6892,40.5485,43.5098,45.5034,46.937,48.0177,48.8615,49.5386
1.03007,27.7806,37.6025,42.5738,45.5683,47.5679,48.9973,50.0697,50.904,51.5715
1.07013,29.3937,39.5851,44.7033,47.7798,49.8332,51.3015,52.4035,53.2612,53.9478
0.945533,25.937,34.6248,38.9522,41.5459,43.2747,44.5095,45.4358,46.1563,46.7329
0.992982,28.515,38.5159,43.6242,46.7301,48.8191,50.3206,51.4521,52.3352,53.0438
1.00741,29.4411,39.6187,44.75,47.8387,49.9005,51.3742,52.4796,53.3395,54.0274
1.02347,30.226,40.5366,45.7216,48.8431,50.9289,52.4214,53.5423,54.415,55.1139
1.05968,31.809,42.6979,48.2044,51.5317,53.7604,55.3577,56.5587,57.4947,58.2446
1.01053,31.1489,41.9619,47.4558,50.7809,53.0094,54.6069,55.8082,56.7443,57.4943
0.985868,30.3047,40.4503,45.5114,48.5414,50.558,51.9964,53.0741,53.9117,54.5812
1.02011,31.686,42.3754,47.7751,51.0387,53.2261,54.7948,55.9749,56.8951,57.6328
1.04013,33.2592,44.7604,50.6177,54.1672,56.548,58.2555,59.5397,60.5407,61.3429
0.956918,31.3705,42.2568,47.769,51.0937,53.3161,54.9062,56.1,57.0291,57.7729
0.973107,29.6023,38.5498,42.8388,45.3528,47.0044,48.1723,49.0418,49.7143,50.25
1.01137,30.1643,39.6276,44.4141,47.3261,49.2899,50.7053,51.7746,52.6111,53.2836
0.992458,32.2133,43.9648,50.2475,54.1623,56.8342,58.7732,60.244,61.3977,62.3267
0.996651,34.0107,46.4867,52.8986,56.7682,59.348,61.1878,62.5649,63.6339,64.4875
0.986951,35.0775,47.7732,54.1726,58.0095,60.5644,62.3878,63.7547,64.8175,65.6676
0.987997,35.9148,48.5256,54.805,58.5602,61.0594,62.8431,64.1802,65.22,66.0516
0.996178,36.428,48.873,55.0728,58.7935,61.2768,63.0527,64.3861,65.4241,66.2552
0.957957,34.2857,45.4442,50.9562,54.2504,56.4426,58.0068,59.1791,60.0905,60.8193
1.00055,37.0097,49.843,56.4544,60.5027,63.2394,65.2139,66.706,67.8733,68.8116
1.05355,39.5252,53.1566,60.0696,64.2405,67.0273,69.0195,70.5139,71.6763,72.606
0.972752,35.0504,46.217,51.6969,54.9488,57.1015,58.6316,59.7752,60.6624,61.3706
0.970146,36.4792,49.1445,55.699,59.7218,62.4465,64.4154,65.9053,67.0721,68.0109
0.989329,38.7217,52.5074,59.5765,63.862,66.7329,68.7886,70.3325,71.5342,72.4958
0.997748,40.5768,55.0736,62.4181,66.8399,69.7912,71.9003,73.4825,74.7134,75.6981
0.935659,15.6253,17.387,18.0585,18.4125,18.6313,18.7798,18.8874,18.9688,19.0326
0.948222,22.92,32.2443,38.8139,43.8141,47.7715,50.989,53.6589,55.9114,57.8378
0.958911,30.3314,46.0898,55.987,62.455,66.8926,70.0759,72.4477,74.2712,75.7105
0.983569,35.9164,53.0446,61.9282,67.0794,70.3856,72.6746,74.3501,75.629,76.6373
0.9278,35.1812,49.1096,55.6296,59.3455,61.7504,63.4387,64.6914,65.6591,66.4296
0.942651,36.1214,49.0103,55.1224,58.7236,61.1127,62.8182,64.0983,65.0952,65.8938
0.964509,40.0372,55.2539,63.0075,67.7643,70.9912,73.3261,75.0946,76.4805,77.5959
0.949762,41.7939,57.5779,65.5476,70.3599,73.577,75.8771,77.6023,78.9438,80.0166
0.922125,42.1701,57.6068,65.2969,69.9022,72.9676,75.1545,76.7932,78.0669,79.0853
0.935234,43.5565,58.8908,66.4786,71.015,74.0343,76.1892,77.8047,79.0609,80.0657
0.949769,43.4275,57.8316,64.9054,69.1248,71.9304,73.9316,75.4312,76.5969,77.5291
0.938157,44.1764,59.4989,67.3104,72.0701,75.2781,77.5879,79.3307,80.6927,81.7864
0.937949,45.711,61.863,70.0823,75.056,78.3862,80.7706,82.5615,83.9557,85.0716
0.949316,46.5272,62.4568,70.4077,75.1656,78.3304,80.5869,82.277,83.5902,84.6398
0.983743,48.1384,64.2702,72.3107,77.1322,80.3471,82.6446,84.3685,85.71,86.7837
0.943259,46.7891,62.6958,70.7318,75.5895,78.8449,81.179,82.9347,84.3033,85.4001
0.975103,49.356,66.3817,75.0158,80.2357,83.7313,86.2356,88.1176,89.5837,90.7579
0.971424,49.9622,67.2393,75.9807,81.2553,84.7832,87.3085,89.2053,90.6823,91.8649
0.934838,48.4817,65.098,73.4659,78.5038,81.8694,84.2768,86.0842,87.4911,88.6174
0.973083,51.0036,68.4578,77.2551,82.5573,86.1025,88.6402,90.5464,92.0308,93.2195
0.959752,51.089,68.6224,77.4632,82.7911,86.3526,88.9012,90.8152,92.3053,93.4982
0.937231,50.3263,67.5386,76.2148,81.4442,84.9407,87.4433,89.323,90.7868,91.9589
1.00079,54.643,73.4318,82.9154,88.6338,92.4576,95.1946,97.2503,98.851,100.133
0.983053,54.5013,73.2759,82.7502,88.4616,92.2802,95.0131,97.0657,98.6639,99.9435
0.943693,52.7694,70.7705,79.8081,85.2408,88.8665,91.458,93.4027,94.9157,96.1266
0.958399,53.1597,70.8444,79.6633,84.9499,88.4731,90.9893,92.8764,94.3442,95.5184
0.971485,54.6838,73.296,82.7315,88.4448,92.2777,95.0279,97.0977,98.7118,100.006
0.962607,54.2012,72.5076,81.7361,87.2963,91.0117,93.6693,95.6644,97.2171,98.4598
