0.530421,0.650616,0.703776,0.733752,0.752995,0.766395,0.776262,0.783831,0.78982,0.794678
0.388583,0.638832,0.779855,0.869046,0.930316,0.974939,1.00887,1.03552,1.05701,1.07471
0.305632,0.642257,0.841623,0.965678,1.04896,1.10836,1.15273,1.18709,1.21445,1.23674
0.280063,0.738219,1.01786,1.18974,1.30401,1.38504,1.44538,1.492,1.5291,1.5593
0.269598,0.805175,1.09353,1.2546,1.35571,1.4248,1.47493,1.51293,1.54274,1.56673
0.258491,0.956181,1.3734,1.62559,1.79367,1.91376,2.00388,2.07404,2.13022,2.17623
0.242374,1.05856,1.53843,1.81944,2.0019,2.12949,2.22361,2.29583,2.35298,2.39932
0.229751,1.12789,1.62424,1.90533,2.0851,2.20987,2.30153,2.37172,2.42719,2.47214
0.254753,1.42876,2.08529,2.46602,2.71441,2.88936,3.0193,3.11964,3.19948,3.26451
0.232914,1.42966,2.06644,2.427,2.6586,2.81985,2.93855,3.02956,3.10156,3.15994
0.219324,1.45068,2.08287,2.43926,2.6682,2.82779,2.94541,3.03572,3.10724,3.16529
0.224814,1.65819,2.41655,2.8546,3.13999,3.3407,3.48954,3.60432,3.69553,3.76975
0.227242,1.7866,2.57186,3.0121,3.29314,3.48795,3.63089,3.74022,3.82654,3.89642
0.210715,1.76081,2.5345,2.97358,3.25712,3.45553,3.60221,3.71508,3.80465,3.87745
0.212865,1.91922,2.78703,3.28728,3.61294,3.84185,4.01153,4.14233,4.24625,4.33078
0.210712,2.06667,3.02125,3.5709,3.92736,4.17704,4.36158,4.5035,4.61603,4.70743
0.227487,2.44515,3.60222,4.26977,4.70305,5.00677,5.23144,5.40434,5.54152,5.653
0.236458,2.74375,4.04047,4.78347,5.2641,5.60039,5.84885,6.03991,6.1914,6.31447
0.212388,2.5964,3.77565,4.43529,4.85619,5.14805,5.36231,5.52628,5.65582,5.76073
0.236706,3.08706,4.50874,5.31866,5.8429,6.2103,6.48219,6.69158,6.85782,6.99302
0.191532,1.28544,1.50037,1.58914,1.63776,1.66847,1.68964,1.70511,1.71691,1.72621
0.195701,1.83184,2.67107,3.26835,3.72601,4.09017,4.38752,4.63516,4.84473,5.02443
0.193507,2.28078,3.56786,4.42157,5.0083,5.42846,5.74087,5.98077,6.17,6.32267
0.192423,2.6489,4.11621,4.9805,5.53025,5.90684,6.1801,6.38722,6.54961,6.68035
0.191838,2.94992,4.50961,5.39293,5.95518,6.34493,6.63148,6.85127,7.02533,7.16664
0.191229,3.19044,4.78469,5.6703,6.23391,6.625,6.91259,7.13305,7.30747,7.44892
0.196363,3.46895,5.13943,6.07538,6.67766,7.09873,7.40994,7.6494,7.8394,7.99384
0.192367,3.52472,5.15801,6.07298,6.66125,7.07177,7.3746,7.60722,7.79152,7.94114
0.1949,3.8076,5.61336,6.64893,7.32288,7.79671,8.14806,8.41898,8.63426,8.80945
0.189336,3.90373,5.73873,6.78092,7.45258,7.92115,8.26652,8.53159,8.74141,8.91162
0.210798,4.41007,6.40192,7.5227,8.24282,8.74488,9.11503,9.39928,9.62445,9.80723
0.200107,4.2515,6.14703,7.22051,7.91351,8.39825,8.75645,9.03197,9.2505,9.42806
0.188602,4.14083,6.01607,7.08996,7.78669,8.27529,8.6369,8.91531,9.13628,9.31591
0.191168,3.79999,5.20936,5.94149,6.38935,6.69137,6.90875,7.07267,7.20067,7.3034
0.20669,4.56169,6.63409,7.86106,8.67827,9.26309,9.7028,10.0456,10.3205,10.5459
0.195912,4.59579,6.76772,8.0388,8.86899,9.4522,9.88375,10.2157,10.4789,10.6926
0.273524,6.63606,9.65761,11.3527,12.4309,13.1757,13.7208,14.1369,14.4649,14.7301
0.206322,4.98698,7.19325,8.43967,9.24321,9.80532,10.221,10.541,10.7951,11.0017
0.191797,4.70026,6.81921,8.04378,8.84422,9.40887,9.82865,10.153,10.4111,10.6215
0.192666,5.00185,7.38466,8.78731,9.71024,10.3631,10.849,11.2246,11.5237,11.7674
0.194601,5.06332,7.35289,8.64996,9.48253,10.0617,10.4877,10.8142,11.0723,11.2816
0.206462,5.5525,8.10835,9.57792,10.533,11.204,11.7013,12.0848,12.3896,12.6376
0.195106,5.42635,7.93889,9.38179,10.3175,10.9733,11.4584,11.8317,12.1279,12.3685
0.191709,5.50988,8.0492,9.49613,10.4295,11.0814,11.5623,11.9316,12.2243,12.4618
0.202861,6.18767,9.181,10.9351,12.088,12.904,13.5119,13.9824,14.3574,14.6633
0.190368,5.83222,8.49598,9.99887,10.9622,11.6319,12.1243,12.5015,12.7997,13.0413
0.193266,5.03189,6.80036,7.70088,8.24777,8.61551,8.87986,9.0791,9.23467,9.35953
0.191393,5.49758,7.96874,9.45,10.4474,11.167,11.7115,12.138,12.4812,12.7635
0.193999,5.91823,8.70585,10.3416,11.4094,12.1584,12.7115,13.1363,13.4726,13.7451
0.202814,6.59422,9.77487,11.6188,12.8143,13.6507,14.2683,14.7431,15.1194,15.4249
0.262302,8.92425,13.1752,15.5983,17.1581,18.2458,19.0476,19.6631,20.1505,20.5461
0.192007,6.11563,8.74038,10.2041,11.1424,11.7967,12.2795,12.6505,12.9447,13.1837
0.201943,6.5877,9.56878,11.3017,12.4395,13.2446,13.8444,14.3086,14.6785,14.9802
0.192019,6.32421,9.18843,10.8402,11.9139,12.6672,13.2246,13.6536,13.9939,14.2705
0.18888,6.3191,9.17206,10.8024,11.8555,12.5913,13.1344,13.5516,13.8823,14.1507
0.198982,6.88887,10.0912,11.9474,13.1583,14.0107,14.6433,15.1314,15.5195,15.8354
0.190434,6.76439,9.90239,11.705,12.8731,13.6911,14.2957,14.7608,15.1296,15.4292
0.18899,6.94205,10.1936,12.0659,13.2821,14.1354,14.7673,15.254,15.6404,15.9547
0.192542,7.30183,10.7234,12.6868,13.9593,14.8507,15.51,16.0173,16.4197,16.7468
0.188503,7.37137,10.8036,12.7603,14.0234,14.9061,15.5576,16.0583,16.4551,16.7773
0.190693,7.77015,11.4152,13.4966,14.8421,15.7832,16.4784,17.0129,17.4367,17.781
0.190156,8.12283,11.9736,14.1765,15.6017,16.5989,17.3358,17.9025,18.3518,18.7167
0.191365,8.29747,12.0793,14.1969,15.5499,16.489,17.179,17.7073,18.1248,18.4631
0.190138,8.27852,11.988,14.08,15.4274,16.3686,17.0637,17.5981,18.0219,18.3662
0.262746,10.2283,14.1079,16.1601,17.4335,18.3014,18.931,19.4086,19.7833,20.0851
0.135595,5.45425,7.85232,9.26912,10.2129,10.8883,11.3961,11.792,12.1093,12.3695
0.131539,6.02642,9.10521,10.9801,12.2314,13.1223,13.7873,14.3022,14.7124,15.0466
0.158961,7.95653,12.0122,14.3529,15.8554,16.8969,17.6603,18.2433,18.7029,19.0746
0.18974,8.87562,12.7539,14.8737,16.2127,17.1375,17.8155,18.3343,18.7442,19.0764
0.19167,8.88228,12.7911,15.0125,16.4561,17.4721,18.2267,18.8095,19.2733,19.6511
0.189091,8.71951,12.5457,14.7215,16.128,17.1117,17.8381,18.3964,18.8387,19.1979
0.192808,9.09174,13.218,15.6009,17.1529,18.2437,19.0522,19.6754,20.1705,20.5732
0.195266,9.36027,13.6192,16.0586,17.6361,18.7392,19.5536,20.1795,20.6754,21.0781
0.190453,9.27851,13.4734,15.8542,17.3859,18.4536,19.2404,19.8442,20.3222,20.71
0.195153,9.5899,13.8677,16.2799,17.8279,18.9058,19.6994,20.3083,20.7901,21.181
0.190811,9.6363,14.029,16.5396,18.1653,19.3042,20.1464,20.7947,21.309,21.7271
0.193803,9.29062,13.0894,15.1418,16.4258,17.3044,17.9434,18.429,18.8104,19.118
0.199778,9.53199,13.7056,16.1329,17.7329,18.8699,19.7206,20.3814,20.9096,21.3417
0.185475,8.74097,12.6003,14.8341,16.2905,17.3142,18.0725,18.6566,19.1202,19.4971
0.172031,8.39228,12.3061,14.6078,16.1198,17.188,17.9825,18.5964,19.085,19.4831
0.183466,9.2992,13.656,16.1587,17.7735,18.8995,19.7288,20.3649,20.8681,21.2761
0.183387,9.4643,13.8886,16.4349,18.0886,19.2497,20.1101,20.7734,21.3005,21.7294
0.184969,9.84514,14.4972,17.1837,18.9322,20.1608,21.0715,21.7735,22.3311,22.7847
0.184564,10.1973,14.9874,17.7127,19.4669,20.6894,21.5898,22.2805,22.827,23.2702
0.185383,10.6038,15.5566,18.3622,20.1665,21.4245,22.3517,23.0635,23.6272,24.0846
0.183062,10.7684,15.771,18.6079,20.4363,21.7133,22.6558,23.3801,23.9541,24.4203
0.181888,10.7919,15.6511,18.3701,20.1086,21.3161,22.2037,22.8837,23.4212,23.8569
0.18997,11.8352,17.4062,20.6153,22.7051,24.1751,25.2655,26.1067,26.7753,27.3196
0.257737,15.8385,22.9322,26.9236,29.4841,31.2662,32.5779,33.5838,34.3795,35.0248
0.165624,9.37074,13.2426,15.4002,16.7834,17.7475,18.4585,19.0046,19.4374,19.7888
0.147223,9.33747,13.9784,16.8041,18.7065,20.0739,21.1039,21.9074,22.5516,23.0796
0.185514,12.9635,19.8281,23.9756,26.7271,28.6789,30.1331,31.2577,32.1528,32.882
0.188543,11.9181,17.0405,19.8228,21.567,22.7631,23.6348,24.2986,24.8209,25.2428
0.195862,11.8656,16.838,19.6119,21.3946,22.6401,23.5607,24.2691,24.8314,25.2886
0.19867,12.2194,17.6651,20.8258,22.8976,24.3611,25.4499,26.2915,26.9614,27.5072
0.195204,12.1424,17.6075,20.7452,22.7761,24.1959,25.2437,26.0485,26.6858,27.203
0.197793,12.3833,17.9236,21.0716,23.0973,24.5095,25.55,26.3485,26.9806,27.4935
0.189261,12.3135,18.0144,21.2925,23.4185,24.9086,26.0111,26.8596,27.533,28.0804
0.249619,16.6309,24.2966,28.658,31.4669,33.4259,34.8699,35.9781,36.8555,37.5674
0.246687,14.8825,21.118,24.6246,26.8864,28.4698,29.6416,30.5443,31.2612,31.8444
