1.11035,1.23329,1.28055,1.30556,1.32105,1.33158,1.3392,1.34497,1.3495,1.35314
0.772532,1.12244,1.29815,1.40324,1.47306,1.52279,1.56,1.58889,1.61197,1.63083
0.669727,1.26154,1.58209,1.77329,1.89851,1.98638,2.05127,2.10108,2.14049,2.17242
0.668285,1.55031,2.0187,2.28434,2.4521,2.5669,2.65019,2.7133,2.76272,2.80247
0.57975,1.61299,2.14782,2.44232,2.6259,2.75086,2.84131,2.90979,2.96343,3.00658
0.545657,1.83,2.50316,2.87471,3.10776,3.26731,3.38333,3.47148,3.54074,3.59658
0.676648,2.62525,3.60253,4.12581,4.44874,4.66749,4.82538,4.94467,5.03796,5.11291
0.53603,2.35969,3.24245,3.71054,3.99933,4.19523,4.33686,4.44405,4.528,4.59553
0.561349,2.71614,3.7012,4.2137,4.52721,4.73878,4.89117,5.00618,5.09605,5.16821
0.506435,2.76099,3.81066,4.37076,4.71931,4.95727,5.13011,5.26137,5.36444,5.44754
0.516246,3.54906,5.25443,6.26229,6.92697,7.39801,7.74917,8.021,8.23764,8.41433
0.554706,4.68287,7.10884,8.50637,9.40068,10.0185,10.4698,10.8133,11.0834,11.3012
0.553249,5.2311,7.69403,8.99853,9.79641,10.3335,10.7196,11.0104,11.2374,11.4195
0.507307,3.95415,5.10551,5.62162,5.91564,6.10611,6.23976,6.33879,6.41515,6.47584
0.526281,5.0509,7.26028,8.57987,9.47725,10.1314,10.6306,11.0246,11.3436,11.6073
0.811071,8.96088,13.1115,15.469,16.9705,18.0023,18.7518,19.3194,19.7633,20.1198
0.701059,8.43974,12.1907,14.2165,15.4725,16.3253,16.9418,17.4082,17.7735,18.0673
0.492193,6.32291,9.02688,10.4685,11.3636,11.9741,12.4174,12.7541,13.0186,13.2319
0.606,8.15709,11.5281,13.3219,14.4387,15.2018,15.7567,16.1783,16.5096,16.7768
0.617917,8.35311,11.5911,13.2952,14.351,15.0701,15.5916,15.9873,16.2977,16.5478
0.489547,6.44804,8.76528,9.96743,10.7064,11.2072,11.5691,11.8428,12.0571,12.2295
0.479005,6.64737,9.24298,10.6673,11.5718,12.1979,12.6571,13.0084,13.2859,13.5106
0.463018,6.9704,9.90979,11.5527,12.5994,13.3235,13.8539,14.2589,14.5782,14.8364
0.510755,8.37433,12.0367,14.0665,15.3486,16.2301,16.8729,17.3622,17.7471,18.0577
0.486824,7.76722,10.7111,12.2231,13.1398,13.7545,14.1954,14.527,14.7854,14.9926
0.532812,8.74427,12.1322,13.9446,15.0795,15.859,16.428,16.8619,17.2038,17.4802
0.479562,8.49628,12.0752,14.0679,15.3399,16.2222,16.8701,17.3659,17.7575,18.0746
0.49349,9.00912,12.7346,14.7634,16.0363,16.9084,17.5429,18.025,18.4038,18.7092
0.468664,8.9754,12.7154,14.7497,16.0265,16.9023,17.5404,18.0259,18.4078,18.7161
0.501557,9.72819,13.621,15.7,16.993,17.875,18.515,19.0007,19.3819,19.6891
0.520069,10.2016,14.1881,16.3107,17.6308,18.5318,19.186,19.6827,20.0727,20.387
0.515793,10.6705,15.1014,17.5518,19.111,20.1911,20.9838,21.5904,22.0695,22.4576
0.498878,9.82792,13.4124,15.2594,16.3827,17.1371,17.6782,18.0853,18.4024,18.6566
0.478972,9.6647,13.3948,15.4213,16.7012,17.5846,18.2318,18.7265,19.117,19.4333
0.48388,10.262,14.4469,16.755,18.2165,19.224,19.9603,20.5217,20.9638,21.321
0.707955,16.265,23.2879,27.182,29.6456,31.3419,32.5802,33.5236,34.2661,34.8657
0.494379,11.6066,16.3919,18.9553,20.5465,21.6295,22.4142,23.0088,23.4749,23.8501
0.487773,12.0253,17.0898,19.85,21.5887,22.7853,23.6596,24.3265,24.8521,25.2769
0.494123,12.6167,17.8649,20.6969,22.4677,23.6793,24.5604,25.2298,25.7556,26.1795
0.493448,12.5096,17.4294,20.0352,21.6505,22.7505,23.548,24.1527,24.6271,25.0092
0.470775,12.468,17.603,20.4152,22.1953,23.4243,24.3243,25.0118,25.5542,25.9931
0.492735,13.308,18.7282,21.663,23.5018,24.7611,25.6772,26.3735,26.9205,27.3615
0.502519,13.1813,18.1711,20.7932,22.4101,23.507,24.3,24.9,25.37,25.748
0.535379,14.5904,20.4617,23.6792,25.7171,27.1251,28.1566,28.945,29.5672,30.0709
0.487204,13.5925,19.0866,22.0706,23.9417,25.2234,26.1558,26.8645,27.4211,27.8698
0.491669,12.92,17.6389,20.1009,21.6132,22.6365,23.3753,23.9337,24.3706,24.7218
0.482329,13.6149,19.277,22.4578,24.5027,25.9297,26.9827,27.7918,28.4331,28.9539
0.531452,15.2412,21.3834,24.6881,26.7413,28.1374,29.147,29.9107,30.5083,30.9886
0.462468,13.8613,19.6451,22.8148,24.8149,26.1924,27.1993,27.9676,28.5732,29.0629
0.465233,14.6743,20.9398,24.3789,26.5476,28.0393,29.128,29.9573,30.6101,31.1372
0.566958,18.5459,26.3646,30.5931,33.2363,35.044,36.3579,37.3561,38.14,38.7719
0.471267,15.4518,21.6612,24.9598,27.0062,28.4003,29.4114,30.1783,30.78,31.2648
0.472269,15.6741,21.9361,25.2955,27.3962,28.8354,29.8835,30.6809,31.3081,31.8142
0.463217,15.6637,21.9882,25.4169,27.572,29.0524,30.1321,30.9544,31.6016,32.1241
0.46483,15.4413,21.3543,24.4767,26.4062,27.7162,28.6636,29.3806,29.9421,30.3937
0.473634,16.0859,22.5333,26.0624,28.2961,29.8387,30.9686,31.832,32.5134,33.065
0.478407,16.9118,23.9323,27.7931,30.2312,31.9091,33.1337,34.0666,34.8008,35.3936
0.489668,17.1849,23.9354,27.5137,29.7238,31.2231,32.3066,33.1261,33.7676,34.2834
0.490413,17.4215,24.3755,28.1432,30.5122,32.1414,33.3313,34.2387,34.9537,35.5317
0.490729,18.2092,25.8187,30.0151,32.6737,34.5084,35.8506,36.8749,37.6823,38.335
0.594055,22.741,32.2332,37.3964,40.6329,42.8492,44.4613,45.6864,46.6487,47.4247
0.478844,18.5561,26.2161,30.3779,32.9931,34.7895,36.0998,37.0981,37.884,38.5188
0.479159,18.8264,26.503,30.648,33.2425,35.0193,36.3124,37.2956,38.0683,38.6916
0.62466,25.4117,35.9749,41.7287,45.3487,47.8362,49.6508,51.033,52.1209,52.9995
0.463303,18.6271,26.0531,30.0332,32.5155,34.212,35.4448,36.3813,37.1168,37.7099
0.499206,19.8126,27.5229,31.6471,34.2198,35.9789,37.258,38.23,38.9938,39.6098
0.473455,19.3272,27.1736,31.4715,34.188,36.0608,37.4302,38.4752,39.2988,39.9647
0.461656,17.2449,23.3131,26.422,28.3099,29.5772,30.4865,31.1706,31.7039,32.1313
0.466308,18.7214,26.4822,30.8763,33.7202,35.7152,37.1933,38.333,39.2387,39.9759
0.624517,26.3265,37.5126,43.6911,47.5839,50.2532,52.1944,53.6685,54.8252,55.7569
0.509224,20.6775,28.8209,33.1713,35.8751,37.7187,39.0568,40.0724,40.8698,41.5125
0.488592,19.7158,27.452,31.6249,34.2411,36.0364,37.3453,38.3422,39.1267,39.7603
0.471882,20.3232,28.9893,33.8233,36.9056,39.0416,40.6087,41.8073,42.7537,43.5198
0.467683,20.29,28.5271,32.924,35.6453,37.4925,38.8273,39.8367,40.6266,41.2614
0.501436,22.3751,31.6288,36.6608,39.8273,42.0055,43.5966,44.8102,45.7665,46.5397
0.547605,22.3186,30.1824,34.171,36.5822,38.1971,39.354,40.2236,40.901,41.4435
0.474048,20.5439,29.0812,33.9363,37.0957,39.3218,40.9769,42.2565,43.2757,44.1068
0.480323,20.4079,28.3827,32.6493,35.292,37.0844,38.3778,39.3543,40.1173,40.7296
0.582809,26.365,37.5232,43.7137,47.6464,50.3663,52.3599,53.8843,55.0878,56.0623
0.480541,21.7316,30.6686,35.527,38.5749,40.6644,42.186,43.3434,44.2532,44.9873
0.456007,21.1857,29.9087,34.6247,37.5742,39.5924,41.0601,42.1754,43.0517,43.7583
0.466244,22.4801,31.8736,36.9748,40.1758,42.3717,43.9716,45.1891,46.1468,46.9198
0.495584,24.6545,35.0333,40.687,44.2432,46.6866,48.469,49.8266,50.8952,51.7581
0.503205,24.7462,34.5714,39.7745,42.9944,45.1831,46.7676,47.9677,48.9081,49.6649
0.467383,23.5114,33.0159,38.1449,41.3616,43.5692,45.1788,46.4046,47.3694,48.1485
0.470769,24.4151,34.5935,40.1808,43.7156,46.1538,47.9371,49.2981,50.3709,51.2383
0.584746,30.3163,42.6104,49.2414,53.3861,56.2207,58.2812,59.8464,61.0756,62.0665
0.489472,25.4398,35.8146,41.4852,45.0672,47.5369,49.3435,50.7227,51.8102,52.6899
0.485567,25.7117,36.2882,42.0584,45.6891,48.1828,50.0009,51.3848,52.4735,53.3522
0.584932,30.8144,43.0629,49.6103,53.6803,56.4542,58.4659,59.9914,61.188,62.1516
0.466061,25.4024,36.0988,42.0456,45.8411,48.4765,50.4141,51.8991,53.0736,54.0258
0.505755,28.7128,41.0063,47.7718,52.0392,54.9722,57.1105,58.7379,60.0176,61.0502
0.532961,29.0115,40.2473,46.1375,49.7585,52.2092,53.9782,55.3152,56.3613,57.2021
0.471765,26.4139,37.2705,43.2524,47.0582,49.6971,51.636,53.1214,54.296,55.2483
0.510295,30.0906,43.0551,50.2567,54.8303,57.9887,60.2992,62.062,63.451,64.5734
0.465102,26.2837,36.8027,42.4693,46.0127,48.4383,50.2033,51.5455,52.6005,53.4517
0.510421,28.9701,40.6162,46.9344,50.9046,53.6316,55.6205,57.1355,58.3279,59.2909
0.456839,26.235,36.737,42.3857,45.9096,48.3165,50.0643,51.391,52.4323,53.2713
0.510305,30.0563,42.4905,49.3156,53.6326,56.6106,58.7896,60.4532,61.7651,62.8262
0.5055,30.5544,43.3018,50.2612,54.6374,57.6414,59.8303,61.496,62.8059,63.8629
