0.56816,0.673877,0.718436,0.743001,0.758563,0.769305,0.777167,0.783169,0.787901,0.791729
0.359648,0.583949,0.710531,0.790885,0.846261,0.886696,0.917502,0.941746,0.961321,0.977454
0.311334,0.64965,0.847109,0.968285,1.04873,1.10561,1.14781,1.1803,1.20605,1.22695
0.242756,0.614352,0.823452,0.945177,1.02331,1.07741,1.117,1.1472,1.17099,1.19021
0.301328,0.944624,1.32227,1.54579,1.69162,1.79401,1.8698,1.92816,1.97448,2.01213
0.210522,0.789084,1.12046,1.31025,1.43152,1.51543,1.57687,1.62377,1.66074,1.69062
0.198235,0.852186,1.20721,1.40487,1.52981,1.61585,1.67871,1.72664,1.76439,1.79491
0.189398,0.931861,1.3305,1.5543,1.69726,1.79652,1.86948,1.92538,1.96958,2.0054
0.182673,1.017,1.45923,1.70746,1.86605,1.97609,2.05692,2.11879,2.16767,2.20726
0.177951,1.09419,1.56314,1.82291,1.98764,2.10139,2.18464,2.24821,2.29834,2.33888
0.173581,1.14602,1.62238,1.88391,2.04931,2.16342,2.2469,2.31065,2.36092,2.40158
0.168094,1.20782,1.71688,1.99965,2.1798,2.30466,2.39632,2.46646,2.52186,2.56674
0.167512,1.30538,1.86183,2.17199,2.36972,2.50675,2.60729,2.68421,2.74494,2.79412
0.162207,1.34091,1.90162,2.21074,2.40648,2.54153,2.64032,2.71573,2.77517,2.82323
0.163641,1.46191,2.09042,2.44265,2.66808,2.82479,2.94006,3.02841,3.0983,3.15495
0.159051,1.51748,2.16923,2.53202,2.76287,2.9226,3.03967,3.12914,3.19974,3.25686
0.157036,1.60077,2.29157,2.6761,2.9209,3.09041,3.21473,3.3098,3.38486,3.44564
0.336813,3.65978,5.24081,6.11857,6.67648,7.06235,7.34511,7.56121,7.73174,7.86973
0.154219,1.73317,2.46245,2.86473,3.11992,3.29632,3.42556,3.52433,3.60229,3.66537
0.142844,1.713,2.44012,2.84019,3.09306,3.26725,3.39451,3.49153,3.56795,3.62969
0.146359,1.80557,2.5559,2.96816,3.22921,3.40947,3.54145,3.64228,3.72182,3.78619
0.150286,1.95046,2.78304,3.24921,3.54772,3.75531,3.90806,4.02516,4.1178,4.19291
0.150273,1.9766,2.7924,3.24183,3.52648,3.7229,3.8666,3.97628,4.06275,4.13266
0.149785,2.09421,3.00196,3.51498,3.84495,4.07505,4.24468,4.37491,4.47804,4.56173
0.14783,2.19356,3.15374,3.69019,4.03157,4.26761,4.44046,4.57245,4.67653,4.76069
0.145682,2.2578,3.2355,3.77695,4.12036,4.35756,4.53123,4.66388,4.76852,4.85317
0.237191,3.88958,5.58999,6.53398,7.13401,7.54908,7.85331,8.08586,8.2694,8.41794
0.144929,2.42261,3.45069,4.01697,4.37593,4.62394,4.80559,4.94439,5.05391,5.14254
0.1434,2.49721,3.57721,4.18177,4.56887,4.8381,5.03621,5.1881,5.30826,5.4057
0.14297,2.5824,3.70021,4.32386,4.72155,4.99714,5.19935,5.35401,5.47612,5.57499
0.257361,4.83302,6.90885,8.05474,8.78008,9.28023,9.64588,9.92483,10.1446,10.3223
0.143416,2.63046,3.69223,4.27018,4.6346,4.88563,5.06917,5.20925,5.31969,5.409
0.143815,2.71312,3.84873,4.48458,4.89226,5.1761,5.38515,5.54553,5.67247,5.77545
0.140445,2.81485,4.05618,4.76074,5.21402,5.52979,5.76228,5.94054,6.08154,6.19584
0.140323,2.89412,4.12823,4.80436,5.2292,5.52047,5.73246,5.89364,6.02029,6.12242
0.142084,3.03726,4.36509,5.11202,5.59188,5.92661,6.17356,6.36333,6.51376,6.63595
0.140793,3.03133,4.3185,5.03174,5.485,5.79848,6.02816,6.20367,6.34214,6.45416
0.140702,3.08727,4.38635,5.10331,5.55784,5.87172,6.10149,6.27696,6.41535,6.52729
0.137039,3.04827,4.34951,5.08172,5.5524,5.88072,6.12288,6.3089,6.45628,6.57594
0.137314,3.28743,4.77969,5.63164,6.18117,6.56455,6.84706,7.06381,7.23534,7.37443
0.241767,6.00955,8.6714,10.1463,11.0791,11.7215,12.1906,12.5481,12.8296,13.0569
0.136522,3.43873,4.90348,5.70349,6.20755,6.55444,6.80785,7.00111,7.1534,7.2765
0.136866,3.63667,5.2547,6.16597,6.7518,7.16045,7.46185,7.69334,7.87674,8.02564
0.136366,3.78849,5.48229,6.43016,7.03505,7.45428,7.76184,7.99705,8.18272,8.333
0.135703,3.77273,5.35663,6.21387,6.7506,7.11816,7.38563,7.58898,7.74881,7.87773
0.135278,3.85976,5.53281,6.47314,7.07833,7.50116,7.81349,8.05372,8.24427,8.39913
0.12394,3.63489,5.2231,6.11425,6.68454,7.08058,7.37154,7.59428,7.77026,7.91278
0.136333,4.18831,6.06756,7.12943,7.81106,8.28545,8.63457,8.90223,9.11396,9.28563
0.136351,4.15886,5.91749,6.8795,7.48549,7.90212,8.20612,8.43772,8.62004,8.76728
0.13569,4.20194,6.00358,7.01079,7.65599,8.10514,8.43598,8.68988,8.89092,9.05407
0.134953,4.29927,6.17986,7.23918,7.91894,8.39203,8.74018,9.00709,9.2182,9.38934
0.136915,4.40772,6.28029,7.31019,7.96037,8.40776,8.73433,8.98316,9.17902,9.33721
0.136681,4.45122,6.35156,7.41044,8.08667,8.55633,8.90167,9.16636,9.37571,9.54547
0.171438,5.75586,8.27379,9.69163,10.6012,11.2342,11.7001,12.0573,12.3398,12.5689
0.135102,4.57075,6.54832,7.65486,8.36184,8.85252,9.21298,9.48898,9.70709,9.8838
0.134651,4.63107,6.64696,7.77962,8.50536,9.01013,9.38152,9.66624,9.89147,10.0741
0.170894,6.05047,8.68767,10.1562,11.0901,11.7359,12.209,12.5704,12.8554,13.086
0.135838,4.82828,6.90926,8.07069,8.81266,9.32797,9.70684,9.99718,10.2268,10.413
0.134869,4.90872,7.05811,8.2678,9.04383,9.58397,9.98157,10.2865,10.5277,10.7233
0.168566,6.29172,9.04823,10.5888,11.5712,12.2519,12.7512,13.133,13.4345,13.6785
0.137195,5.13113,7.34544,8.58124,9.37047,9.9184,10.3211,10.6297,10.8736,11.0713
0.134947,5.10828,7.30772,8.53448,9.31717,9.85997,10.2585,10.5635,10.8045,10.9997
0.16585,6.49289,9.34544,10.9454,11.9686,12.6789,13.2009,13.6005,13.9164,14.1722
0.13536,5.33921,7.67122,8.98088,9.8202,10.4042,10.834,11.1636,11.4244,11.636
0.134161,5.35191,7.6796,8.98329,9.81686,10.3957,10.8211,11.1469,11.4044,11.6131
0.132303,5.49045,7.93951,9.32034,10.2057,10.8214,11.2744,11.6215,11.896,12.1185
0.134374,5.40505,7.64955,8.87512,9.64729,10.1785,10.5663,10.8619,11.0947,11.2828
0.134559,5.5407,7.94441,9.30369,10.1804,10.7935,11.2464,11.5948,11.8712,12.0958
0.16499,6.99587,10.0533,11.7625,12.8514,13.6049,14.1568,14.5784,14.9109,15.1798
0.134217,5.6676,8.10973,9.47614,10.3502,10.9578,11.4048,11.7475,12.0187,12.2386
0.120763,5.21013,7.49403,8.78135,9.60759,10.1828,10.6063,10.9311,11.188,11.3964
0.163627,7.26672,10.4789,12.2813,13.4328,14.2317,14.8181,15.2669,15.6214,15.9084
0.134684,5.95344,8.52723,9.96414,10.8819,11.5191,11.9875,12.3463,12.63,12.86
0.132249,5.96565,8.58713,10.065,11.0142,11.6755,12.1626,12.5363,12.8321,13.0721
0.132683,6.06389,8.64975,10.0664,10.9578,11.5698,12.0157,12.3549,12.6216,12.8368
0.13158,6.15225,8.85117,10.3715,11.3494,12.0319,12.5356,12.9228,13.2297,13.4791
0.134195,6.33053,9.07172,10.5986,11.5712,12.2446,12.7384,13.1159,13.4139,13.655
0.129809,2.75904,3.18027,3.35182,3.44509,3.50374,3.54404,3.57344,3.59583,3.61347
0.128715,3.85825,5.6368,6.92221,7.91804,8.71721,9.37426,9.92461,10.3925,10.7954
0.154229,5.864,9.26437,11.5323,13.0868,14.194,15.0125,15.6373,16.1275,16.5211
0.129735,5.65026,8.81783,10.6653,11.8285,12.6193,13.1899,13.6208,13.9576,14.2281
0.131083,6.19853,9.39667,11.1474,12.2372,12.9817,13.5236,13.9362,14.261,14.5235
0.153671,7.53003,11.0842,12.9914,14.1849,15.0051,15.6045,16.062,16.4229,16.7148
0.129811,6.57677,9.58521,11.23,12.2755,13.0009,13.534,13.9426,14.2657,14.5277
0.145661,7.6097,11.0449,12.945,14.1579,15.0001,15.619,16.0931,16.4679,16.7715
0.130502,6.93071,10.0135,11.7284,12.8247,13.5863,14.1463,14.5754,14.9147,15.1897
0.128437,7.00155,10.111,11.8438,12.9499,13.7172,14.2806,14.7118,15.0524,15.3283
0.151151,8.37167,12.0406,14.0761,15.3712,16.2678,16.9252,17.4279,17.8247,18.146
0.129471,7.20028,10.3279,12.0721,13.1868,13.9613,14.5307,14.9671,15.3123,15.5921
0.143358,8.13109,11.6786,13.6578,14.9204,15.7959,16.4384,16.93,17.3182,17.6326
0.130018,7.43154,10.6511,12.4449,13.5888,14.3819,14.9642,15.4099,15.762,16.0472
0.144322,8.27047,11.7877,13.7281,14.9576,15.8063,16.4273,16.9015,17.2753,17.5776
0.127926,7.25007,10.299,11.9905,13.0683,13.8157,14.3646,14.785,15.1172,15.3863
0.124023,7.26983,10.4455,12.232,13.3768,14.1727,14.7581,15.2065,15.5611,15.8484
0.152779,9.01112,12.8916,15.0467,16.416,17.3626,18.0558,18.5855,19.0033,19.3412
0.129896,7.82436,11.2606,13.1936,14.4332,15.2961,15.9315,16.4189,16.8047,17.1176
0.152879,9.5257,13.7706,16.1533,17.676,18.7323,19.5078,20.1013,20.5701,20.9496
0.129144,7.99623,11.4316,13.3282,14.5304,15.3606,15.9685,16.4329,16.7992,17.0955
0.141994,8.8734,12.6897,14.8109,16.1628,17.1002,17.7886,18.3155,18.7319,19.0692
0.140465,8.3538,11.739,13.591,14.7622,15.5702,16.1616,16.6131,16.9692,17.2572
