0.913085,1.03152,1.07813,1.10305,1.11857,1.12916,1.13684,1.14268,1.14725,1.15094
0.404396,0.672635,0.836268,0.945691,1.02388,1.0825,1.12806,1.16449,1.19428,1.21909
0.32258,0.703018,0.935622,1.08013,1.17613,1.24381,1.29381,1.33214,1.36241,1.38689
0.264419,0.719974,0.991454,1.15173,1.25503,1.32667,1.37915,1.4192,1.45078,1.47629
0.215782,0.708151,0.991239,1.15317,1.25636,1.32765,1.37983,1.41966,1.45106,1.47646
0.196873,0.750872,1.05331,1.2217,1.328,1.40113,1.45451,1.49519,1.52722,1.55309
0.182269,0.791785,1.11289,1.29058,1.40298,1.48049,1.53719,1.58047,1.61459,1.64218
0.530285,2.62571,3.72801,4.34531,4.73938,5.01281,5.21365,5.36743,5.48896,5.58741
0.187232,1.0442,1.49013,1.73936,1.89814,2.00808,2.0887,2.15034,2.19898,2.23836
0.135361,0.830265,1.1803,1.37354,1.49584,1.58018,1.64184,1.6889,1.72599,1.75597
0.125919,0.843363,1.19705,1.39182,1.51509,1.60014,1.66236,1.70986,1.74732,1.7776
0.120358,0.878444,1.24904,1.45387,1.58382,1.67363,1.73941,1.78966,1.82931,1.86139
0.117413,0.930092,1.32452,1.54261,1.68094,1.7765,1.84646,1.89989,1.94203,1.97611
0.109665,0.929483,1.32017,1.53518,1.67122,1.76506,1.83368,1.88606,1.92735,1.96073
0.105771,0.960913,1.3673,1.59197,1.73459,1.83318,1.9054,1.96059,2.00414,2.03938
0.112457,1.08098,1.53248,1.78027,1.9368,2.04462,2.12341,2.1835,2.23084,2.26909
0.122754,1.21116,1.69437,1.95499,2.11813,2.22989,2.31125,2.37314,2.42179,2.46105
0.0996114,1.06252,1.51423,1.76774,1.93042,2.04375,2.12725,2.19135,2.2421,2.28328
0.100421,1.1496,1.64987,1.93052,2.1098,2.2341,2.32531,2.39507,2.45015,2.49472
0.273455,3.29613,4.70228,5.47542,5.96313,6.29859,6.5434,6.72991,6.87672,6.99529
0.1701,2.1106,2.98214,3.45663,3.7552,3.9605,4.11038,4.22462,4.3146,4.38731
0.101554,1.13497,1.51526,1.707,1.82281,1.9004,1.95601,1.99784,2.03044,2.05657
0.0997816,1.26185,1.8019,2.11864,2.32877,2.47879,2.59138,2.67905,2.74926,2.80677
0.0973093,1.3199,1.89355,2.21587,2.42055,2.56143,2.66409,2.74213,2.8034,2.85276
0.0970217,1.42822,2.07128,2.43365,2.66507,2.82551,2.94328,3.03342,3.10463,3.16232
0.0923242,1.42955,2.06113,2.41106,2.6328,2.78585,2.89785,2.98337,3.0508,3.10533
0.0907774,1.48898,2.14707,2.51183,2.74352,2.90376,3.0212,3.11099,3.18185,3.23921
0.105469,1.8142,2.61199,3.05451,3.33601,3.53091,3.67387,3.78321,3.86955,3.93945
0.090048,1.58103,2.25446,2.62463,2.85906,3.02091,3.13939,3.22987,3.30124,3.35898
0.0964805,1.76279,2.52515,2.9507,3.22279,3.41186,3.5509,3.65745,3.74171,3.81002
0.0881171,1.71932,2.49823,2.94186,3.22835,3.42857,3.57636,3.68992,3.77991,3.85296
0.0838276,1.6862,2.42854,2.84118,3.10326,3.28432,3.41684,3.51803,3.59782,3.66233
0.0930574,1.84511,2.59702,3.00212,3.25551,3.42905,3.55537,3.65145,3.72699,3.78796
0.0795124,1.25264,1.61625,1.79125,1.89456,1.96284,2.01134,2.04759,2.0757,2.09815
0.0786355,1.39305,1.96421,2.30441,2.53333,2.69854,2.82359,2.92161,3.00053,3.06546
0.0844814,1.58375,2.25719,2.6387,2.8816,3.04881,3.17056,3.263,3.3355,3.39384
0.0778295,1.67003,2.48517,2.96664,3.28197,3.50407,3.66891,3.79609,3.89722,3.97955
0.076749,1.76948,2.61189,3.08515,3.38519,3.59188,3.74278,3.85776,3.94824,4.0213
0.0765611,1.91081,2.83066,3.35021,3.68333,3.91526,4.08611,4.21726,4.32111,4.40541
0.0773831,2.02811,2.96994,3.49166,3.82285,4.05181,4.21957,4.34778,4.44894,4.5308
0.0772974,2.06304,2.97636,3.4777,3.79543,4.01506,4.17603,4.2991,4.39625,4.4749
0.0760742,2.07011,2.97302,3.47325,3.79236,4.01387,4.17667,4.3014,4.40001,4.47994
0.150505,4.20058,6.03751,7.06397,7.72093,8.1776,8.51348,8.77088,8.97443,9.13942
0.0991937,2.80588,4.01638,4.68993,5.11934,5.41697,5.6354,5.80253,5.93452,6.04141
0.0844096,2.39712,3.41654,3.98325,4.34452,4.59499,4.77889,4.91965,5.03087,5.12096
0.0827379,2.39192,3.41628,3.9885,4.35404,4.60774,4.79413,4.93685,5.04963,5.14101
0.0751342,2.21052,3.16031,3.69108,4.02997,4.26507,4.43771,4.56987,4.67428,4.75885
0.0747648,2.24391,3.21439,3.75807,4.1057,4.34711,4.52454,4.66043,4.76786,4.85491
0.075206,2.28062,3.25543,3.79743,4.14234,4.38108,4.55614,4.68998,4.79564,4.88116
0.0736773,2.24644,3.20253,3.73591,4.0765,4.31294,4.48668,4.61977,4.72498,4.81024
0.0733382,2.26789,3.2313,3.76664,4.10721,4.34288,4.51563,4.64766,4.75186,4.83619
0.0735271,2.30755,3.28965,3.83597,4.18388,4.42486,4.60164,4.73687,4.84365,4.93012
0.09096,2.86262,4.05474,4.70957,5.1233,5.40834,5.61663,5.77549,5.90064,6.00178
0.152297,4.82031,6.81549,7.91263,8.60715,9.08646,9.43722,9.70506,9.91628,10.0871
0.0913079,2.93153,4.16789,4.85768,5.29834,5.6043,5.82918,6.00144,6.13762,6.24799
0.0922085,3.02005,4.3076,5.02578,5.48349,5.80055,6.03309,6.21091,6.35128,6.4649
0.106826,3.51807,4.99724,5.81464,6.33279,6.69053,6.95234,7.15225,7.30989,7.43738
0.0916593,3.00903,4.24542,4.92192,5.34862,5.64233,5.85687,6.02044,6.14928,6.2534
0.0899593,3.02305,4.29714,5.00521,5.45626,5.76883,5.99824,6.17379,6.31246,6.42476
0.0938961,3.21329,4.59215,5.36561,5.86079,6.20499,6.45812,6.65209,6.80548,6.92981
0.0940907,3.20926,4.53936,5.26731,5.72574,6.04073,6.27044,6.44534,6.58294,6.69402
0.0922515,3.22688,4.59292,5.35053,5.83235,6.16589,6.41052,6.59763,6.74539,6.86503
0.0921558,3.31755,4.74341,5.53662,6.04141,6.3908,6.64693,6.84274,6.99727,7.12234
0.0989628,3.62828,5.17154,6.02126,6.55847,6.92866,7.1992,7.40554,7.5681,7.69948
0.13967,5.256,7.51786,8.77363,9.57273,10.1261,10.532,10.8426,11.0878,11.2864
0.104808,3.94689,5.59751,6.50118,7.07132,7.46379,7.75044,7.96897,8.14108,8.28014
0.0947386,2.97791,3.93105,4.40187,4.6829,4.86973,5.00295,5.10276,5.18032,5.24233
0.0749567,2.62307,3.75157,4.42317,4.87385,5.19837,5.44356,5.63547,5.78983,5.91671
0.0733945,2.75497,4.00483,4.72323,5.18485,5.50478,5.7389,5.91737,6.05778,6.17106
0.0965576,3.84855,5.60373,6.58474,7.20559,7.6329,7.94477,8.18238,8.36944,8.52054
0.087344,3.68913,5.36909,6.29778,6.88459,7.28887,7.58437,7.80982,7.98751,8.13118
0.0895382,3.91229,5.65007,6.60151,7.20165,7.61498,7.91706,8.14753,8.32916,8.476
0.084946,3.83325,5.51939,6.44557,7.03205,7.43706,7.73361,7.96015,8.13888,8.28348
0.0873175,4.06773,5.86005,6.8522,7.4834,7.92051,8.24116,8.48644,8.68013,8.83696
0.0855694,4.06558,5.84794,6.83841,7.46989,7.90775,8.22925,8.47533,8.66975,8.82724
0.165911,7.97532,11.4273,13.34,14.5565,15.3985,16.0158,16.4878,16.8604,17.162
0.0865559,4.22401,6.06587,7.09713,7.75748,8.21673,8.55464,8.81373,9.01869,9.1849
0.0849718,4.24671,6.12802,7.18917,7.87071,8.34538,8.69492,8.96304,9.17521,9.34728
0.0843617,4.31711,6.23923,7.32109,8.01422,8.49604,8.85034,9.1218,9.33644,9.51039
0.0970277,5.05147,7.30325,8.57277,9.38769,9.95517,10.3731,10.6937,10.9475,11.1533
0.0828771,4.24603,6.07214,7.08939,7.73844,8.18873,8.51949,8.77276,8.97292,9.1351
0.0878548,4.6724,6.78202,7.98932,8.77197,9.32064,9.72663,10.0392,10.2873,10.4889
0.0876052,4.70874,6.80738,7.99096,8.74966,9.27708,9.66487,9.96195,10.1968,10.3871
0.0816882,4.47997,6.47959,7.6058,8.32773,8.82988,9.19936,9.48263,9.7067,9.88839
0.0834613,4.66334,6.75565,7.93916,8.70051,9.2315,9.62297,9.92354,10.1616,10.3548
0.0860545,4.73316,6.75948,7.88001,8.59112,9.08253,9.44243,9.71737,9.93426,10.1097
0.068447,3.89701,5.65557,6.66329,7.31785,7.77757,8.11828,8.38094,8.58963,8.75945
0.0686622,3.96172,5.7437,6.7555,7.40695,7.86116,8.19581,8.45256,8.65576,8.82056
0.0675847,3.16852,4.19585,4.69998,4.99893,5.19667,5.33714,5.44205,5.52339,5.5883
0.0684048,3.64876,5.30649,6.31775,7.00784,7.51092,7.89463,8.19722,8.44207,8.64433
0.0669571,3.84677,5.68402,6.75946,7.45739,7.944,8.30151,8.57477,8.79018,8.96423
0.0699762,4.18924,6.14676,7.24899,7.94987,8.43387,8.78802,9.05839,9.27157,9.44399
0.0712963,4.3558,6.33022,7.42786,8.12574,8.60896,8.96357,9.23496,9.4494,9.62314
0.0679164,3.8065,5.26928,6.03008,6.49713,6.8133,7.04162,7.21425,7.34938,7.45802
0.067472,4.0914,5.94905,7.03507,7.75353,8.26538,8.64893,8.9472,9.18585,9.38117
0.077812,5.01972,7.38416,8.74492,9.62422,10.2373,10.6884,11.0339,11.3069,11.5279
0.122358,8.11504,11.8383,13.9231,15.2501,16.168,16.8406,17.3546,17.7601,18.0883
0.080686,5.3863,7.79525,9.14046,10.0001,10.5976,11.0371,11.3741,11.6408,11.8571
0.0820537,5.51914,7.9641,9.33464,10.2132,10.8247,11.275,11.6204,11.8938,12.1155
0.0813004,5.47662,7.88164,9.23227,10.0987,10.7018,11.146,11.4867,11.7563,11.9749
