0.80911,0.89406,0.926485,0.943595,0.954168,0.96135,0.966546,0.97048,0.973562,0.976042
0.487727,0.823636,1.03815,1.18619,1.29437,1.37684,1.44178,1.49423,1.53749,1.57376
0.673504,1.54333,2.11102,2.47456,2.71962,2.89365,3.02272,3.12186,3.2002,3.26357
0.482526,1.43955,2.06118,2.43907,2.68532,2.85694,2.98297,3.07934,3.15538,3.21689
0.38177,1.43716,2.1194,2.52641,2.79126,2.97671,3.11372,3.21908,3.30262,3.37049
0.301163,1.33878,1.96106,2.31505,2.54064,2.69676,2.81121,2.89871,2.96777,3.02367
0.324515,1.69018,2.49026,2.94822,3.2439,3.45076,3.60368,3.72136,3.81473,3.89064
0.351988,2.00032,2.87352,3.3532,3.65617,3.86495,4.01759,4.13404,4.22581,4.29999
0.433411,2.54084,3.5261,4.04717,4.37051,4.591,4.75106,4.87256,4.96796,5.04485
0.430072,2.15345,2.74589,3.03057,3.19899,3.3105,3.38984,3.4492,3.49529,3.53211
0.339666,1.61667,2.06377,2.29585,2.43986,2.5383,2.60993,2.66444,2.70731,2.74193
0.568328,3.35155,4.74285,5.59578,6.17401,6.59169,6.9074,7.15433,7.35272,7.51558
0.348171,2.4226,3.53972,4.19773,4.62338,4.91895,5.13535,5.30032,5.43009,5.53477
0.434642,3.78421,5.82432,7.05984,7.87443,8.44956,8.87682,9.20665,9.46894,9.68251
0.306112,1.96809,2.47656,2.69332,2.81164,2.88594,2.93688,2.97398,3.00219,3.02436
0.338204,3.00829,4.53189,5.54736,6.29166,6.86562,7.32332,7.69748,8.00932,8.27337
0.287177,3.20678,5.04728,6.19739,6.9642,7.50438,7.90229,8.20613,8.44498,8.63728
0.352183,4.51918,6.95693,8.33431,9.19977,9.7905,10.2187,10.5433,10.7979,11.0029
0.307975,4.06499,5.89629,6.84628,7.42582,7.81705,8.09937,8.3129,8.48015,8.61474
0.339211,3.31947,4.19571,4.58736,4.81184,4.95801,5.06095,5.13743,5.19652,5.24355
0.359942,3.42589,4.48521,5.05375,5.41655,5.66963,5.85662,6.00055,6.1148,6.20774
0.342169,3.9047,5.63163,6.6967,7.42052,7.94339,8.33822,8.64664,8.89408,9.09693
0.331428,4.51511,6.80328,8.18064,9.08186,9.71192,10.1753,10.5297,10.8092,11.0351
0.293174,4.6073,7.00881,8.39852,9.28865,9.90504,10.3567,10.7018,10.974,11.1943
0.287955,5.15353,7.85644,9.39599,10.3818,11.0668,11.5707,11.957,12.2627,12.5106
0.289946,5.45057,8.04293,9.45195,10.3365,10.9442,11.3877,11.7257,11.992,12.2071
0.307728,6.23665,9.20306,10.857,11.9175,12.657,13.2026,13.6219,13.9542,14.2241
0.410101,8.53205,12.3661,14.4732,15.8112,16.7369,17.4155,17.9343,18.3439,18.6753
0.3788,7.2467,9.94997,11.3405,12.1913,12.7662,13.1807,13.4938,13.7387,13.9354
0.349103,5.48308,7.09636,7.89163,8.36985,8.68995,8.91947,9.09219,9.2269,9.33492
0.35862,5.21352,6.82384,7.67669,8.21063,8.57729,8.84488,9.04885,9.20951,9.33935
0.311806,5.44659,7.8984,9.41509,10.447,11.1937,11.7588,12.2011,12.5566,12.8486
0.318762,6.53912,9.90217,11.9414,13.2831,14.2254,14.9209,15.4544,15.8761,16.2176
0.32011,7.3353,11.1115,13.2878,14.6798,15.6433,16.349,16.8882,17.3134,17.6575
0.292471,7.48244,11.3539,13.5602,14.9757,15.961,16.6867,17.2436,17.6846,18.0426
0.339038,9.37885,14.0781,16.7133,18.3972,19.5672,20.4278,21.0875,21.6094,22.0325
0.313138,9.00934,13.2352,15.552,17.0182,18.0307,18.7723,19.3389,19.786,20.1478
0.25267,7.55364,11.054,13.0132,14.2733,15.1535,15.8035,16.3034,16.6998,17.022
0.331675,9.3574,13.1173,15.1091,16.347,17.1913,17.8041,18.269,18.6339,18.9278
0.356176,7.65236,9.79337,10.8156,11.4186,11.8173,12.1006,12.3123,12.4767,12.6079
0.34987,6.14386,7.78772,8.63122,9.15227,9.50752,9.76564,9.96182,10.116,10.2405
0.569814,11.6985,16.55,19.5464,21.5908,23.0747,24.2005,25.0837,25.7949,26.3799
0.302511,7.58274,11.5483,14.0361,15.7063,16.8941,17.7781,18.46,19.0013,19.441
0.378052,10.6105,16.0846,19.2284,21.2192,22.5837,23.5752,24.3275,24.9176,25.3929
0.338892,9.72062,14.181,16.5781,18.0646,19.0775,19.8129,20.3715,20.8105,21.1647
0.47185,14.2979,20.8895,24.5468,26.8845,28.5126,29.7131,30.6356,31.3668,31.9607
0.307867,9.74597,14.2139,16.7104,18.3095,19.4221,20.241,20.8688,21.3655,21.7682
0.324418,10.8864,15.8962,18.6905,20.4726,21.7075,22.6134,23.3062,23.8532,24.2959
0.353292,11.9034,17.0695,19.8901,21.6694,22.8948,23.7903,24.4734,25.0117,25.4468
0.357865,8.47409,10.6683,11.6693,12.2444,12.6181,12.8805,13.075,13.2249,13.344
0.32805,7.10567,9.22252,10.3542,11.0717,11.57,11.9368,12.2185,12.4417,12.6229
0.326891,8.40533,12.1403,14.4713,16.0663,17.2243,18.1022,18.7901,19.3434,19.798
0.334499,10.0914,15.2496,18.3753,20.4249,21.8591,22.9143,23.7213,24.3576,24.8719
0.308601,10.5436,16.0144,19.1535,21.1488,22.5224,23.5244,24.2875,24.8879,25.3727
0.307553,11.4893,17.2938,20.5362,22.5908,24.0097,25.0493,25.8441,26.4716,26.9798
0.288794,11.8254,17.8235,21.209,23.3843,24.9023,26.0227,26.8838,27.5664,28.1209
0.293135,12.4636,18.4006,21.6743,23.7527,25.1909,26.2453,27.0517,27.6883,28.2037
0.31368,13.4849,19.5612,22.8962,25.015,26.4826,27.5599,28.3845,29.0361,29.5641
0.277231,11.3228,15.8905,18.3224,19.8408,20.8803,21.6368,22.2121,22.6645,23.0294
0.276478,7.64296,9.50731,10.3617,10.8553,11.1774,11.4043,11.5728,11.7028,11.8063
0.32663,8.54046,11.1865,12.6492,13.5938,14.2573,14.7498,15.1302,15.433,15.6797
0.352938,10.1486,14.2263,16.6352,18.2194,19.3367,20.1652,20.8034,21.3096,21.7209
0.336452,12.048,18.4725,22.534,25.2853,27.2596,28.7413,29.8927,30.8127,31.5643
0.316072,13.2705,20.7016,25.1233,27.9808,29.9642,31.4173,32.5263,33.4,34.1059
0.333658,15.2989,23.3279,27.8112,30.6365,32.5785,33.996,35.0768,35.9283,36.6168
0.330637,15.4903,22.7895,26.7215,29.1843,30.8765,32.1125,33.0556,33.7991,34.4004
0.33418,16.0896,23.4122,27.4223,29.9726,31.7424,33.0436,34.0409,34.8299,35.4697
0.284173,14.0445,20.385,23.9154,26.1785,27.7546,28.9156,29.8064,30.5115,31.0835
0.297355,14.2806,20.2198,23.4265,25.4394,26.8207,27.8272,28.5933,29.1959,29.6822
0.295006,10.4887,13.4058,14.7866,15.5959,16.1284,16.5055,16.7867,17.0045,17.1781
0.294475,8.48387,10.74,11.8905,12.5989,13.0811,13.431,13.6967,13.9055,14.0739
0.314432,10.0293,13.9957,16.4073,18.039,19.2171,20.1077,20.8044,21.3643,21.8241
0.453353,17.1044,25.5149,30.679,34.1061,36.5257,38.3177,39.6951,40.7855,41.6693
0.316808,14.7966,23.4215,28.7852,32.3543,34.8826,36.7628,38.2144,39.3685,40.3079
0.296145,15.2975,23.561,28.2015,31.1125,33.1011,34.5444,35.6394,36.4986,37.1906
0.301952,16.752,25.2573,29.931,32.8812,34.9181,36.4114,37.5541,38.4571,39.1889
0.352109,20.0772,29.5364,34.6816,37.9356,40.1854,41.8354,43.0978,44.095,44.9027
0.324687,18.5128,26.6707,31.0904,33.8831,35.8112,37.2232,38.302,39.1533,39.8421
0.324497,16.944,23.361,26.691,28.743,30.1361,31.1441,31.9074,32.5055,32.9868
0.298994,10.2174,12.5854,13.6734,14.3047,14.718,15.0099,15.2271,15.3951,15.5289
0.326077,10.7844,14.1722,16.077,17.3184,18.1952,18.8485,19.3544,19.758,20.0875
0.320747,13.075,19.3427,23.3772,26.1728,28.2149,29.7681,30.9875,31.9693,32.7764
0.299489,14.1103,21.4816,25.9121,28.7864,30.7805,32.238,33.3473,34.2186,34.9206
0.318271,16.7085,25.3943,30.3471,33.4888,35.6524,37.2326,38.4375,39.3869,40.1544
0.294472,17.1348,26.0615,31.1193,34.3563,36.6079,38.266,39.5386,40.5464,41.3644
0.306783,18.5335,27.4719,32.3721,35.4676,37.6033,39.1667,40.3609,41.3029,42.0651
0.326269,20.7718,30.7023,36.2441,39.7981,42.2756,44.1028,45.5063,46.6185,47.5215
0.309485,20.3681,29.9117,35.2544,38.683,41.0718,42.8317,44.1823,45.2515,46.1189
0.270941,17.7753,25.5891,29.8616,32.5619,34.4235,35.7847,36.8233,37.6418,38.3035
0.513386,25.1032,32.3991,35.86,37.8908,39.2281,40.1758,40.8827,41.4303,41.8672
0.304405,13.0371,16.9567,19.0125,20.2987,21.1832,21.8299,22.3237,22.7134,23.0287
0.306514,13.9241,19.3599,22.5452,24.6464,26.1359,27.2464,28.1059,28.7906,29.3489
0.315108,17.1179,25.8516,31.3333,35.048,37.7171,39.7225,41.2824,42.5294,43.5487
0.284155,16.9901,25.6045,30.5655,33.7189,35.8848,37.46,38.6555,39.5933,40.3484
0.328372,20.5239,30.291,35.6591,39.0264,41.336,43.0198,44.3027,45.3129,46.1294
0.292057,20.1162,30.2516,36.071,39.8531,42.5138,44.4893,46.0147,47.2285,48.2175
0.294125,21.5353,32.1932,38.2202,42.092,44.7885,46.7738,48.2961,49.5003,50.4766
0.468782,34.3696,49.9551,58.4507,63.805,67.4906,70.1831,72.2366,73.8545,75.1622
0.299336,20.5334,28.6843,32.965,35.6171,37.4246,38.7363,39.732,40.5137,41.1438
0.294948,14.5294,18.3976,20.2236,21.2964,22.0041,22.5063,22.8815,23.1723,23.4045
