0.507195,0.607992,0.651125,0.675071,0.690304,0.700846,0.708576,0.714486,0.719152,0.722928
0.27882,0.487098,0.617896,0.70648,0.770233,0.818252,0.8557,0.885713,0.910301,0.930811
0.204061,0.462313,0.625689,0.729497,0.799597,0.849623,0.886939,0.915768,0.938672,0.95729
0.173287,0.4908,0.691253,0.814768,0.896765,0.954834,0.998033,1.0314,1.05794,1.07956
0.155865,0.531625,0.762178,0.899997,0.990257,1.05376,1.10083,1.13711,1.16592,1.18936
0.134809,0.527379,0.7534,0.883848,0.968011,1.02675,1.07007,1.10333,1.12968,1.15107
0.123643,0.582044,0.861311,1.02993,1.14234,1.22263,1.28286,1.3297,1.36719,1.39786
0.137477,0.730149,1.07342,1.27379,1.40436,1.49608,1.564,1.6163,1.65781,1.69155
0.10672,0.620313,0.904188,1.06829,1.17518,1.25039,1.3062,1.34928,1.38353,1.41143
0.101492,0.648756,0.946302,1.1187,1.2312,1.31042,1.36923,1.41462,1.4507,1.48008
0.0941103,0.649778,0.940327,1.10566,1.21225,1.28665,1.34152,1.38366,1.41703,1.44411
0.0904545,0.712131,1.06012,1.26777,1.40577,1.50415,1.57785,1.63513,1.68092,1.71836
0.0857695,0.742854,1.1044,1.31566,1.45367,1.55075,1.62271,1.67817,1.72222,1.75803
0.082029,0.770095,1.13959,1.35318,1.49213,1.58975,1.66208,1.71784,1.76214,1.79818
0.0776208,0.779622,1.14856,1.36137,1.49995,1.59741,1.66972,1.7255,1.76984,1.80593
0.093211,0.998713,1.47075,1.74437,1.92319,2.04926,2.14293,2.21527,2.27282,2.3197
0.0721982,0.742937,1.0551,1.2297,1.34175,1.41986,1.47746,1.52169,1.55674,1.5852
0.0703692,0.800193,1.18191,1.41191,1.56617,1.67687,1.7602,1.82519,1.8773,1.92001
0.0685053,0.849144,1.26829,1.51814,1.68315,1.79998,1.88695,1.95416,2.00764,2.0512
0.0793717,1.05702,1.5782,1.8841,2.0844,2.2256,2.33047,2.41142,2.47581,2.52824
0.0632795,0.842892,1.22873,1.44941,1.59252,1.69296,1.76737,1.82474,1.87033,1.90742
0.0630715,0.908932,1.35084,1.61291,1.78661,1.91025,2.00276,2.07457,2.13193,2.17881
0.0605483,0.926081,1.37913,1.64597,1.82151,1.94566,2.03807,2.10951,2.16639,2.21274
0.0606627,0.954178,1.40331,1.66217,1.83041,1.94851,2.03598,2.10337,2.15689,2.20042
0.0873403,1.44893,2.14541,2.55384,2.82264,3.01305,3.15504,3.26501,3.3527,3.42426
0.157175,1.9312,2.48539,2.74629,2.89787,2.99688,3.06662,3.11839,3.15834,3.19009
0.0813701,1.20208,1.76211,2.12201,2.37732,2.56889,2.71827,2.83815,2.93653,3.01875
0.121847,1.98838,2.97517,3.57444,3.97096,4.25047,4.45719,4.61587,4.74131,4.84286
0.0919253,1.59714,2.39104,2.86075,3.16839,3.38511,3.54598,3.67014,3.76889,3.84933
0.0825103,1.56588,2.36462,2.83622,3.14581,3.36452,3.52724,3.65304,3.7532,3.83484
0.0818134,1.51473,2.18142,2.54525,2.77391,2.93095,3.04548,3.13271,3.20137,3.25682
0.0796016,1.58089,2.33823,2.78431,3.08028,3.29154,3.45008,3.57351,3.67236,3.75332
0.078144,1.65276,2.46568,2.94519,3.26113,3.48473,3.65119,3.77988,3.8823,3.96575
0.0777875,1.69231,2.49172,2.94918,3.24475,3.45128,3.6037,3.7208,3.81358,3.8889
0.0756216,1.59454,2.29151,2.68301,2.93465,3.11027,3.23989,3.33953,3.41853,3.48271
0.0732545,1.63386,2.40343,2.8574,3.15784,3.37152,3.53131,3.65532,3.75436,3.83529
0.0988442,2.36881,3.54736,4.25135,4.71811,5.04981,5.29747,5.48939,5.64243,5.76731
0.0739786,1.8525,2.7637,3.29693,3.64568,3.89131,4.0736,4.21423,4.32601,4.41699
0.182792,4.75513,7.0733,8.42415,9.30803,9.93154,10.3951,10.7532,11.0383,11.2706
0.0715481,1.88548,2.77556,3.28883,3.62315,3.85835,4.03285,4.16748,4.27451,4.36164
0.120935,3.21979,4.7076,5.56251,6.1185,6.5092,6.79883,7.02213,7.19955,7.34392
0.0698831,1.79768,2.59106,3.04535,3.34089,3.54876,3.703,3.82203,3.91667,3.99373
0.125945,3.48015,5.17634,6.19566,6.87622,7.36266,7.72757,8.01141,8.23845,8.42419
0.0682433,1.85095,2.70095,3.19189,3.51104,3.73496,3.90069,4.02829,4.12954,4.21184
0.137954,3.82229,5.60333,6.64247,7.32351,7.80448,8.16231,8.43896,8.65925,8.83882
0.07,1.87399,2.68728,3.1455,3.43951,3.64418,3.79485,3.9104,4.00182,4.07597
0.113429,3.26224,4.83799,5.78102,6.40961,6.85879,7.19585,7.45814,7.66806,7.83989
0.0769267,2.2364,3.2868,3.89668,4.29392,4.57287,4.7794,4.93842,5.0646,5.16716
0.0676876,2.11494,3.16826,3.79393,4.20752,4.5011,4.72027,4.89013,5.02564,5.13627
0.0672194,1.88002,2.6526,3.07386,3.33938,3.5222,3.65579,3.7577,3.83802,3.90294
0.0669095,2.02638,2.98943,3.56576,3.95122,4.22757,4.43553,4.59774,4.72781,4.83444
0.0652474,2.15011,3.25988,3.93712,4.39158,4.71699,4.96121,5.15116,5.30306,5.42727
0.0740899,2.53243,3.78063,4.50172,4.96783,5.29313,5.53284,5.71675,5.86228,5.9803
0.0672462,2.38769,3.57073,4.26478,4.72162,5.04554,5.28738,5.47491,5.62463,5.74693
0.0741847,2.5598,3.71344,4.36068,4.77533,5.06376,5.276,5.43872,5.56744,5.6718
0.0649691,2.35619,3.50685,4.19538,4.65594,4.98619,5.23475,5.42865,5.58416,5.71167
0.06276,2.2751,3.33189,3.93816,4.33041,4.60457,4.80682,4.9621,5.08504,5.18477
0.0804372,3.06644,4.57962,5.48354,6.08539,6.5152,6.83764,7.08853,7.28934,7.45372
0.0634842,2.47175,3.67811,4.3882,4.85525,5.18558,5.43147,5.62159,5.77296,5.89633
0.076555,3.12098,4.67361,5.59126,6.19637,6.62521,6.94497,7.19256,7.38993,7.55096
0.0599982,2.39728,3.51158,4.15006,4.56407,4.8544,5.06931,5.23483,5.36624,5.47311
0.0588515,2.37275,3.4814,4.12638,4.54941,4.8485,5.07124,5.24358,5.38091,5.49292
0.0586693,2.38219,3.49741,4.14874,4.57628,4.87847,5.10339,5.2773,5.41579,5.52867
0.0733194,3.10464,4.62667,5.53435,6.13695,6.56602,6.88703,7.13622,7.33526,7.4979
0.0593497,2.57325,3.82515,4.56016,5.0424,5.38283,5.6359,5.83137,5.98689,6.11355
0.0869755,3.69208,5.35879,6.29825,6.90049,7.31941,7.62765,7.86398,8.05093,8.20251
0.0589171,2.52356,3.69196,4.37333,4.82152,5.13924,5.37639,5.56023,5.70695,5.82677
0.0890378,4.03229,6.01311,7.19251,7.97411,8.52964,8.94459,9.26622,9.52278,9.73217
0.0580804,2.61949,3.86095,4.58334,5.05537,5.38784,5.63466,5.82514,5.9766,6.09991
0.0603285,2.81879,4.18848,4.99509,5.52642,5.90284,6.1835,6.40082,6.57407,6.71543
0.0741428,3.18325,4.51549,5.24597,5.70737,6.0253,6.25768,6.43496,6.57465,6.68757
0.0594216,2.59042,3.75799,4.44166,4.89334,5.21462,5.45505,5.64182,5.79112,5.91322
0.071732,3.35589,5.02173,6.02939,6.70305,7.18445,7.54531,7.82572,8.04982,8.233
0.0589066,2.85023,4.2526,5.07608,5.61461,5.99354,6.27446,6.49095,6.66288,6.80271
0.0714937,3.57802,5.33472,6.36101,7.03262,7.50634,7.85845,8.13049,8.34701,8.52345
0.0580844,2.98887,4.44387,5.28999,5.84303,6.23288,6.52251,6.74618,6.92412,7.06906
0.0821058,4.34963,6.46087,7.68828,8.49093,9.05689,9.47743,9.80221,10.0606,10.2711
0.0641511,2.20748,2.78208,3.04479,3.19562,3.29356,3.3623,3.41321,3.45243,3.48358
0.0652532,2.75236,4.05622,4.91813,5.54264,6.01868,6.39441,6.69884,6.95066,7.16248
0.0901904,4.26952,6.52464,7.94045,8.89346,9.5717,10.0762,10.4649,10.7729,11.0226
0.0572201,2.82071,4.22639,5.03727,5.55636,5.91564,6.17877,6.37974,6.53827,6.66653
0.0682557,3.51344,5.26649,6.28791,6.95577,7.42738,7.7786,8.05049,8.2673,8.44427
0.0598759,3.11812,4.6269,5.49989,6.06997,6.47193,6.7707,7.00153,7.18522,7.33489
0.0775748,4.19962,6.27587,7.4988,8.30621,8.87941,9.30743,9.63925,9.90402,10.1202
0.0734313,3.48543,4.89951,5.66795,6.15242,6.48609,6.72999,6.91607,7.06273,7.18131
0.0772616,3.42336,4.79275,5.56114,6.0569,6.40404,6.66089,6.85871,7.01579,7.14355
0.0573395,2.26342,3.15867,3.67587,4.01525,4.25545,4.4345,4.57313,4.68367,4.77386
0.0556061,2.60129,3.97429,4.8597,5.4746,5.92515,6.26894,6.53968,6.7583,6.93848
0.0657291,3.45496,5.36921,6.54267,7.32041,7.87,8.27782,8.59202,8.84132,9.04387
0.0561144,3.01155,4.53892,5.41595,5.9806,6.3744,6.66482,6.88795,7.06481,7.20846
0.0806388,4.4494,6.59879,7.81106,8.58939,9.13214,9.53249,9.8401,10.0839,10.2819
0.0595993,3.59566,5.48102,6.61133,7.36737,7.90946,8.31739,8.63554,8.89065,9.09978
0.0725449,4.57081,6.88834,8.23172,9.10616,9.71987,10.174,10.5235,10.8006,11.0258
0.0542462,3.57304,5.38391,6.44326,7.13958,7.63256,8.00006,8.28466,8.51161,8.69683
0.0542021,3.72726,5.60216,6.69454,7.40992,7.91474,8.29,8.57989,8.81056,8.99847
0.0781844,5.42699,8.05486,9.56872,10.5549,11.2488,11.7638,12.1611,12.477,12.7342
0.0592782,4.09723,6.05069,7.18958,7.93887,8.46996,8.86625,9.17336,9.41837,9.61841
0.062782,4.45858,6.62673,7.90377,8.74619,9.34346,9.78889,10.1338,10.4088,10.633
0.0528204,3.81361,5.66181,6.74517,7.45673,7.95968,8.33397,8.62335,8.85376,9.04156
0.0523742,3.88753,5.771,6.86759,7.58412,8.08875,8.46328,8.75227,8.982,9.16901
