0.449,0.557932,0.607023,0.634957,0.652986,0.665585,0.674887,0.682035,0.687701,0.692301
0.708996,1.21308,1.51263,1.70795,1.8448,1.94587,2.0235,2.08498,2.13486,2.17614
0.583371,1.09162,1.33495,1.46842,1.55117,1.60709,1.64726,1.67747,1.70097,1.71977
0.221518,0.563588,0.778246,0.917387,1.01428,1.08558,1.14025,1.18351,1.21859,1.24763
0.34166,1.08865,1.55513,1.83847,2.0243,2.15444,2.25029,2.32367,2.38158,2.42841
0.330951,1.08495,1.44221,1.62539,1.73496,1.80762,1.85929,1.89791,1.92788,1.9518
0.336595,1.11137,1.43292,1.59664,1.69626,1.76349,1.812,1.84869,1.87743,1.90055
0.416165,1.87345,2.76855,3.35038,3.76129,4.0675,4.30461,4.4937,4.648,4.77633
0.249015,1.41187,2.16492,2.62951,2.93728,3.15394,3.31392,3.43653,3.53333,3.61161
0.27252,1.84884,2.83202,3.40443,3.77199,4.02691,4.21392,4.35693,4.46986,4.56129
0.441534,3.25047,4.7656,5.5837,6.09291,6.44067,6.69348,6.88566,7.03673,7.15863
0.429745,1.70548,1.96386,2.06509,2.11944,2.15345,2.17677,2.19377,2.20671,2.21689
0.388609,2.08875,2.90655,3.44881,3.84545,4.15024,4.39235,4.58953,4.75331,4.89157
0.332087,2.42567,3.78056,4.69914,5.34467,5.81568,6.17135,6.44795,6.66846,6.84798
0.321069,3.01882,4.86535,6.01526,6.76708,7.28932,7.67106,7.9616,8.1899,8.37394
0.448311,5.09679,8.11998,9.86321,10.9683,11.729,12.2847,12.7086,13.043,13.3134
0.35419,2.0763,2.42587,2.55449,2.62104,2.66183,2.68944,2.70939,2.72448,2.7363
0.406758,3.10273,4.31811,5.09678,5.65776,6.085,6.42229,6.69571,6.92199,7.11243
0.39736,3.99293,6.16382,7.5947,8.58752,9.3068,9.84753,10.2668,10.6004,10.8715
0.399816,5.01431,7.95671,9.74942,10.9128,11.7183,12.3061,12.7531,13.1041,13.3869
0.321435,4.83637,7.6713,9.31523,10.3657,11.093,11.6266,12.0349,12.3576,12.6192
0.432352,7.25075,11.1162,13.2329,14.5608,15.4731,16.1393,16.6475,17.0481,17.372
0.428625,3.10125,3.52898,3.686,3.76806,3.81867,3.85304,3.87794,3.8968,3.91159
0.410586,4.28098,6.17568,7.52454,8.56719,9.4035,10.091,10.6668,11.1563,11.5778
0.412341,5.49404,8.57556,10.6213,12.0272,13.0318,13.7765,14.3463,14.7942,15.1544
0.368097,5.60848,8.51905,10.1483,11.1472,11.8132,12.2868,12.6404,12.9142,13.1326
0.718936,13.5591,21.5002,26.2218,29.3167,31.5062,33.1407,34.4093,35.4236,36.2535
0.532221,10.6707,16.0679,18.9833,20.7972,22.0352,22.9342,23.6166,24.1523,24.5839
0.422016,3.62873,4.12754,4.31304,4.4105,4.47077,4.51179,4.54153,4.56409,4.58179
0.414945,5.21502,7.58628,9.30168,10.6417,11.7254,12.6221,13.3771,14.0221,14.5795
0.368343,6.28272,10.1746,12.8806,14.7893,16.1745,17.2112,18.0092,18.639,19.1468
0.357631,7.6835,12.6579,15.7335,17.72,19.0864,20.0784,20.8298,21.4184,21.8919
0.446788,9.25879,13.3456,15.3077,16.4322,17.16,17.6701,18.048,18.3395,18.5712
0.392379,4.22841,4.93334,5.20858,5.35772,5.4521,5.51746,5.56548,5.60229,5.63142
0.411477,6.05496,8.68072,10.4627,11.7922,12.8296,13.6635,14.3492,14.9233,15.411
0.44386,8.59078,13.6177,17.0003,19.3578,21.0638,22.3422,23.3298,24.1126,24.7465
0.410949,9.80088,15.773,19.3851,21.7042,23.2965,24.4515,25.3258,26.0102,26.5604
0.402642,11.4502,18.3453,22.313,24.836,26.579,27.8566,28.8341,29.6066,30.2329
0.429771,13.2803,20.3451,24.1572,26.5344,28.1631,29.3505,30.2553,30.968,31.544
0.683308,8.23202,9.30429,9.69336,9.89628,10.0214,10.1064,10.1679,10.2145,10.2511
0.396283,6.58554,9.32558,11.2354,12.689,13.8406,14.7778,15.5562,16.2133,16.7757
0.407496,9.13102,14.5819,18.38,21.08,23.0567,24.5484,25.7057,26.6253,27.3712
0.383473,10.4571,16.7325,20.4847,22.856,24.4615,25.6129,26.4766,27.1478,27.6841
0.438111,14.2938,22.8701,27.7965,30.9216,33.0787,34.6598,35.8702,36.8275,37.6041
0.70104,25.3214,39.1043,46.6064,51.3014,54.5252,56.8793,58.6752,60.0909,61.2358
0.429905,5.92568,6.69152,6.96703,7.11007,7.19801,7.25764,7.30076,7.33341,7.35899
0.412608,8.11103,11.6727,14.2269,16.2129,17.8131,19.1332,20.242,21.1871,22.0024
0.388113,10.2514,16.507,20.8702,23.9617,26.214,27.9053,29.211,30.244,31.0784
0.398619,13.3939,22.2092,27.7442,31.3489,33.8392,35.6513,37.0259,38.1034,38.9705
0.413687,16.3892,26.4797,32.2071,35.791,38.238,40.0163,41.3687,42.4325,43.2917
0.444921,18.6434,28.3722,33.513,36.6885,38.8553,40.4321,41.6327,42.5779,43.3418
0.463164,8.99407,10.4596,11.0128,11.3069,11.4904,11.6159,11.7073,11.7768,11.8315
0.433251,8.59435,11.1663,12.6656,13.6798,14.417,14.9785,15.4208,15.7785,16.0739
0.403004,10.7201,16.29,20.1095,22.8638,24.927,26.5228,27.7903,28.8195,29.671
0.400519,13.6352,22.0092,27.392,30.983,33.504,35.3561,36.7685,37.8787,38.7731
0.408619,16.8753,27.3478,33.541,37.4911,40.2094,42.1914,43.7006,44.8883,45.8476
0.626326,27.9925,43.0156,51.0834,56.06,59.4421,61.8943,63.7558,65.218,66.3973
0.419342,8.56364,9.94428,10.4593,10.7305,10.8987,11.0134,11.0968,11.1601,11.2099
0.48785,10.8382,14.2966,16.353,17.7623,18.7965,19.5899,20.2186,20.7293,21.1527
0.41143,11.9445,18.1022,22.2454,25.1879,27.3656,29.0335,30.3478,31.408,32.2801
0.408871,15.3824,25.0077,31.2506,35.4505,38.4205,40.616,42.299,43.6277,44.7022
0.644618,30.1021,49.623,61.3831,68.9579,74.1999,78.0354,80.9624,83.2695,85.1351
0.414611,20.9344,32.4786,38.7027,42.5462,45.1595,47.055,48.4943,49.6252,50.5375
0.400478,9.34781,10.8991,11.4757,11.779,11.9669,12.0951,12.1882,12.2589,12.3145
0.449396,12.6416,17.388,20.3913,22.5362,24.1579,25.4306,26.4572,27.3034,28.0131
0.417134,15.6591,24.6145,30.7644,35.1584,38.4107,40.8961,42.848,44.4171,45.7033
0.388538,17.9384,28.9228,35.7103,40.1242,43.1745,45.3937,47.0755,48.3922,49.4501
0.449218,23.9315,37.8697,45.7828,50.7569,54.1621,56.6404,58.5265,60.0108,61.21
0.432793,24.0224,36.006,42.3323,46.232,48.8853,50.8113,52.2745,53.4244,54.3522
0.439297,11.5124,13.4312,14.1715,14.5682,14.8166,14.9871,15.1115,15.2062,15.2808
0.415168,12.9763,17.7648,20.7791,22.917,24.5238,25.7788,26.7873,27.6158,28.3088
0.448034,17.5223,26.5638,32.447,36.4995,39.424,41.6183,43.3182,44.6703,45.7695
0.403152,19.3117,30.5011,37.3786,41.8711,44.9963,47.2848,49.0293,50.4018,51.5092
0.423582,24.285,38.872,47.4904,53.0437,56.9048,59.7438,61.9198,63.6413,65.0375
0.385763,23.9546,36.822,43.8662,48.2717,51.2904,53.4903,55.1659,56.485,57.5508
0.680105,43.594,64.7896,76.2254,83.4312,88.408,92.0577,94.8509,97.0584,98.8473
0.432513,11.1894,12.7524,13.3488,13.6668,13.8649,14.0004,14.0988,14.1737,14.2325
0.40468,13.9494,19.7097,23.6808,26.6699,29.0166,30.9124,32.4775,33.7921,34.9123
0.444608,20.0895,31.7639,39.7779,45.424,49.5365,52.6316,55.0292,56.9331,58.4771
0.5908,33.6981,55.4022,69.1201,78.1335,84.4071,88.9983,92.4957,95.2461,97.4648
0.396146,25.4165,40.143,48.3856,53.5133,57.0009,59.5283,61.4458,62.9512,64.1652
0.425886,30.0396,46.3067,55.2524,60.9066,64.8206,67.6976,69.904,71.651,73.0691
0.440095,10.3401,11.5217,11.9413,12.1578,12.2903,12.38,12.4446,12.4935,12.5317
0.490686,16.7353,24.1074,29.5249,33.807,37.3008,40.2125,42.6789,44.7959,46.6335
0.611494,28.305,46.0489,58.7209,67.8134,74.4847,79.5139,83.4051,86.4867,88.9773
0.420611,24.7517,41.3682,51.8714,58.703,63.409,66.8236,69.4073,71.4286,73.0526
0.411682,27.7819,44.4478,53.6994,59.4037,63.262,66.0489,68.159,69.8136,71.1467
0.419921,31.0946,48.0411,57.1975,62.9316,66.8819,69.7771,71.9934,73.7457,75.1666
0.417639,12.4789,14.2814,14.943,15.2903,15.5054,15.6518,15.758,15.8386,15.9019
0.43238,16.7882,23.5616,28.125,31.5203,34.1646,36.2878,38.0319,39.491,40.73
0.411195,20.4618,31.771,39.3006,44.5158,48.2733,51.0801,53.243,54.9537,56.3369
0.404675,24.9519,40.3153,49.9172,56.2262,60.6288,63.8601,66.3283,68.2739,69.8466
0.417813,30.7565,49.7815,60.9752,68.1527,73.1271,76.7775,79.5715,81.7798,83.5695
0.398107,26.654,37.7547,43.0254,46.0769,48.07,49.4758,50.5212,51.3295,51.9732
0.427253,13.9006,16.1605,17.0597,17.5528,17.8668,18.0849,18.2454,18.3687,18.4663
0.403136,17.5337,25.0866,30.2466,34.1058,37.1203,39.545,41.5394,43.2094,44.6286
0.40314,22.7922,36.0999,45.0713,51.3188,55.8339,59.2132,61.8207,63.8852,65.5558
0.695374,48.0182,77.4414,95.3195,106.818,114.72,120.457,124.802,128.205,130.941
0.442907,35.6634,56.8967,69.0385,76.7263,82.023,85.8977,88.8583,91.1958,93.0891
0.439776,36.8611,55.6192,65.5824,71.751,75.9604,79.0216,81.3502,83.1819,84.6609
