0.409074,0.492245,0.528031,0.547949,0.560637,0.569428,0.575877,0.580811,0.584708,0.587863
0.221659,0.372675,0.46162,0.519455,0.559936,0.589815,0.612762,0.630934,0.645677,0.657877
0.422406,0.918249,1.22079,1.41075,1.53855,1.62971,1.69774,1.75036,1.79221,1.82627
0.122895,0.332498,0.459784,0.53684,0.587449,0.623018,0.649326,0.669555,0.685586,0.698601
0.101373,0.330381,0.466446,0.546676,0.598789,0.635248,0.662163,0.682843,0.699226,0.712527
0.0865371,0.336235,0.483978,0.570768,0.627315,0.667024,0.696433,0.719087,0.737074,0.7517
0.201421,0.902675,1.30176,1.53075,1.67819,1.78093,1.85661,1.91465,1.96058,1.99783
0.0685294,0.346571,0.498963,0.585384,0.640862,0.679488,0.70793,0.729749,0.747018,0.761025
0.0623551,0.351959,0.5067,0.594208,0.650411,0.689564,0.718407,0.740538,0.758057,0.772269
0.149054,0.912848,1.30331,1.52126,1.66032,1.75676,1.82758,1.88179,1.92463,1.95932
0.056127,0.381979,0.552769,0.65083,0.714552,0.75931,0.79248,0.818049,0.838362,0.85489
0.0533178,0.399031,0.579959,0.683573,0.750592,0.797459,0.832062,0.858653,0.879723,0.896828
0.0495498,0.404294,0.588522,0.693742,0.761708,0.809215,0.844288,0.871244,0.892608,0.909956
0.108446,0.950158,1.37797,1.62035,1.77627,1.88499,1.96511,2.02662,2.07532,2.11484
0.0482621,0.448026,0.645642,0.756654,0.827769,0.877227,0.913618,0.941516,0.963585,0.981479
0.0431044,0.426851,0.616777,0.724484,0.79394,0.842467,0.878293,0.905828,0.927654,0.945379
0.0411843,0.432583,0.625592,0.735212,0.805903,0.855273,0.891703,0.919689,0.941862,0.959862
0.0443827,0.490997,0.708569,0.831536,0.910562,0.96562,1.00618,1.03729,1.06192,1.0819
0.0383021,0.44943,0.649738,0.763052,0.835901,0.88667,0.924074,0.952777,0.975498,0.99393
0.0366773,0.454825,0.659996,0.777078,0.852814,0.90583,0.945021,0.975173,0.99909,1.01853
0.0321582,0.435578,0.632163,0.741109,0.809892,0.857152,0.891587,0.917779,0.938364,0.954966
0.033988,0.480056,0.695659,0.817308,0.895664,0.950442,0.990929,1.02209,1.04682,1.06693
0.0335919,0.487619,0.701807,0.822089,0.89926,0.952996,0.992569,1.02292,1.04695,1.06643
0.0358199,0.538798,0.777532,0.913253,1.00098,1.06238,1.10776,1.14266,1.17035,1.19285
0.0368203,0.549408,0.775538,0.89906,0.976839,1.03029,1.06926,1.09894,1.12229,1.14114
0.0312846,0.472,0.66986,0.781492,0.853512,0.903905,0.941168,0.969853,0.99262,1.01113
0.0304787,0.492657,0.716112,0.846258,0.93142,0.991447,1.03602,1.07041,1.09776,1.12001
0.0299409,0.510795,0.746105,0.881605,0.969328,1.03066,1.07593,1.11071,1.13825,1.16061
0.0292007,0.518728,0.754563,0.888238,0.974074,1.03382,1.07781,1.11153,1.13822,1.15986
0.0307129,0.563111,0.81562,0.958097,1.04959,1.11333,1.16029,1.19634,1.22488,1.24804
0.029282,0.555143,0.803767,0.944503,1.03513,1.09838,1.14504,1.18089,1.20929,1.23234
0.0277531,0.546976,0.79276,0.931933,1.02149,1.08394,1.12996,1.16529,1.19327,1.21596
0.027329,0.552577,0.798867,0.938148,1.02776,1.09027,1.13635,1.17174,1.19976,1.22251
0.0264477,0.556587,0.809083,0.953349,1.04673,1.11213,1.16047,1.19767,1.22718,1.25116
0.0260382,0.562655,0.81516,0.95818,1.05018,1.11431,1.16156,1.19781,1.22652,1.2498
0.0279141,0.623206,0.904337,1.06418,1.16732,1.23939,1.29259,1.33348,1.36589,1.39221
0.0254475,0.587511,0.853706,1.00522,1.10301,1.17134,1.22178,1.26054,1.29125,1.31619
0.0254497,0.605556,0.880945,1.03815,1.13982,1.21098,1.26357,1.30402,1.3361,1.36216
0.025166,0.606614,0.876065,1.02802,1.12557,1.19348,1.24349,1.28184,1.31219,1.33681
0.0263933,0.636255,0.91016,1.06298,1.16055,1.22827,1.27803,1.31614,1.34626,1.37066
0.0269,0.652544,0.932915,1.09062,1.19191,1.26251,1.31455,1.35449,1.38613,1.4118
0.0271039,0.701532,1.02993,1.22288,1.34996,1.43998,1.50709,1.55904,1.60045,1.63423
0.0261927,0.68149,0.982593,1.1508,1.2577,1.33151,1.38549,1.42668,1.45912,1.48534
0.0262474,0.702875,1.01793,1.19681,1.31223,1.39294,1.45258,1.49846,1.53486,1.56445
0.0252546,0.693516,1.00344,1.17861,1.29118,1.3696,1.42735,1.47165,1.50671,1.53514
0.024838,0.708775,1.03184,1.21623,1.33545,1.41886,1.48049,1.52788,1.56547,1.596
0.0246114,0.715888,1.03931,1.22307,1.34155,1.4243,1.48536,1.53227,1.56944,1.59961
0.0269378,0.800763,1.16359,1.37064,1.50458,1.59835,1.66766,1.72099,1.76329,1.79767
0.0247854,0.751396,1.08749,1.27715,1.39884,1.48353,1.54584,1.59361,1.63139,1.66202
0.0245236,0.759903,1.10152,1.29566,1.42097,1.50857,1.57326,1.62301,1.66245,1.69449
0.0253773,0.788958,1.13547,1.33032,1.45524,1.54215,1.6061,1.65513,1.69392,1.72536
0.0256387,0.790702,1.12943,1.31884,1.44,1.52419,1.58611,1.63357,1.6711,1.70153
0.0250809,0.80988,1.17831,1.39107,1.52975,1.62731,1.69969,1.75552,1.7999,1.83602
0.0269092,0.900175,1.31346,1.54991,1.70258,1.8092,1.88782,1.94817,1.99596,2.03473
0.0248437,0.849678,1.2348,1.45269,1.59263,1.69007,1.76182,1.81685,1.86041,1.89574
0.0256606,0.891384,1.29301,1.52082,1.6677,1.77033,1.8461,1.90435,1.95053,1.98804
0.0246207,0.867559,1.2559,1.47585,1.6175,1.71635,1.78926,1.84525,1.8896,1.92559
0.0241677,0.863217,1.24799,1.46584,1.6061,1.70395,1.77612,1.83153,1.87542,1.91104
0.0240115,0.876632,1.27252,1.4986,1.64491,1.74735,1.82309,1.88135,1.92758,1.96513
0.0259721,0.954319,1.37834,1.61806,1.77213,1.87948,1.95855,2.01921,2.06723,2.10617
0.0255085,0.940322,1.35238,1.58431,1.73309,1.83666,1.91291,1.9714,2.01769,2.05523
0.0259782,0.984132,1.4289,1.68405,1.84969,1.96593,2.05201,2.11832,2.17097,2.21379
0.0261011,0.95052,1.34918,1.56951,1.70927,1.8058,1.87646,1.93043,1.97298,2.0074
0.0243474,0.889609,1.27613,1.49733,1.6411,1.74218,1.81715,1.875,1.92099,1.95844
0.0244101,0.943473,1.38125,1.63615,1.80259,1.91965,2.00641,2.07327,2.12636,2.16952
0.023833,0.945394,1.37817,1.62398,1.78176,1.89146,1.97213,2.03392,2.08276,2.12233
0.0239391,0.979513,1.43034,1.68703,1.85261,1.96831,2.05373,2.1194,2.17146,2.21375
0.0237159,0.98365,1.42946,1.68187,1.84433,1.95768,2.04128,2.10548,2.15634,2.19762
0.0235026,1.00533,1.4691,1.73487,1.90727,2.02817,2.11767,2.18659,2.2413,2.28579
0.0236661,1.02134,1.4796,1.73746,1.90263,2.01745,2.10186,2.16654,2.21767,2.25911
0.0250119,1.09798,1.59477,1.87787,2.06104,2.18934,2.28424,2.3573,2.41528,2.46241
0.0245916,1.07095,1.53924,1.80167,1.96957,2.08622,2.17196,2.23764,2.28955,2.33163
0.0244812,1.07553,1.54754,1.81389,1.98515,2.10457,2.1926,2.26018,2.31371,2.35715
0.0241432,1.09985,1.60323,1.89322,2.08183,2.21431,2.31246,2.38809,2.44816,2.49702
0.0241463,1.12665,1.64486,1.9418,2.13394,2.26836,2.36764,2.44397,2.50447,2.5536
0.0244678,1.15904,1.68332,1.97957,2.1697,2.30201,2.39939,2.47406,2.53313,2.58102
0.0237074,1.14774,1.67182,1.97086,2.16434,2.29984,2.40004,2.47716,2.53835,2.5881
0.0232958,1.13786,1.65166,1.94342,2.13155,2.26294,2.35989,2.43437,2.49339,2.5413
0.0236238,1.17494,1.71151,2.01902,2.2185,2.3584,2.46197,2.54172,2.60504,2.65652
0.0240762,1.21241,1.76028,2.07114,2.27128,2.41084,2.5137,2.59265,2.65515,2.70585
0.0243153,1.16802,1.65136,1.9152,2.08147,2.19586,2.27939,2.34307,2.39322,2.43375
0.0241583,1.12571,1.58867,1.84669,2.01198,2.12709,2.21193,2.27706,2.32864,2.37052
0.0244672,1.21029,1.76611,2.09253,2.30747,2.45967,2.57308,2.66084,2.73075,2.78776
0.0222456,1.08031,1.55177,1.81686,1.98611,2.10336,2.18933,2.25503,2.30688,2.34882
0.0238632,1.19783,1.7353,2.04044,2.23682,2.37377,2.47474,2.55225,2.61365,2.66347
0.0224566,1.09682,1.56846,1.83256,2.00158,2.1191,2.20558,2.27189,2.32435,2.36689
0.0231077,1.13395,1.63384,1.91989,2.10554,2.23585,2.33237,2.40675,2.46583,2.51388
0.0246935,1.23852,1.79414,2.11137,2.31616,2.45917,2.56464,2.64561,2.70973,2.76175
0.0244999,1.20104,1.71849,2.0084,2.19375,2.32247,2.41709,2.48958,2.54689,2.59334
0.0236309,1.14674,1.64037,1.91917,2.09863,2.22388,2.3163,2.38731,2.44357,2.48926
0.0235782,1.19823,1.74696,2.06439,2.27112,2.4164,2.52404,2.60699,2.67285,2.72642
0.0234122,1.2486,1.83718,2.17691,2.39723,2.5515,2.66548,2.75312,2.82258,2.879
0.0235486,1.26197,1.82611,2.13956,2.33837,2.47561,2.57603,2.65268,2.71312,2.76198
0.0232711,1.3021,1.90262,2.24425,2.46497,2.61945,2.73366,2.82156,2.89131,2.94801
0.0230087,1.35089,1.99601,2.36961,2.61337,2.78496,2.9123,3.01054,3.08863,3.1522
0.0228053,1.35575,1.97977,2.33173,2.55733,2.71416,2.82947,2.91782,2.98766,3.04426
0.0230746,1.40277,2.05016,2.41881,2.65718,2.82407,2.94749,3.04249,3.11787,3.17914
0.0230347,1.407,2.03992,2.39619,2.62477,2.78389,2.90103,2.99086,3.06193,3.11957
0.0228419,1.42497,2.07394,2.44361,2.68268,2.85003,2.97374,3.06893,3.14443,3.20579
0.0226179,1.42781,2.07392,2.44054,2.67681,2.84173,2.96336,3.05678,3.13076,3.19081
