1.15252,1.18834,1.20078,1.2071,1.21092,1.21349,1.21532,1.2167,1.21778,1.21864
0.853342,1.60897,2.2479,2.79482,3.2682,3.68191,4.04655,4.37037,4.65985,4.92018
1.0503,3.03582,4.78342,6.0765,7.00229,7.67218,8.16825,8.54497,8.83792,9.07065
0.704766,2.86095,4.65352,5.79068,6.51922,7.01373,7.36844,7.63455,7.84144,8.0069
0.883471,4.43214,6.86084,8.17644,8.96878,9.49638,9.8735,10.157,10.378,10.5554
0.68995,4.01722,5.98843,7.02681,7.66706,8.10419,8.42273,8.66558,8.85702,9.01189
0.562477,3.75421,5.54253,6.51482,7.13228,7.56119,7.87695,8.11924,8.31109,8.46676
0.69895,5.44537,8.13554,9.65466,10.6371,11.3255,11.8345,12.2263,12.537,12.7895
0.486817,4.27716,6.35229,7.51245,8.2544,8.76945,9.14771,9.43722,9.6659,9.85109
0.579141,5.51271,8.04817,9.44001,10.3215,10.93,11.3755,11.7158,11.9842,12.2013
0.440458,4.46888,6.46721,7.57285,8.27831,8.76826,9.12857,9.40476,9.62324,9.80041
0.421298,4.65921,6.80945,8.03331,8.82634,9.38234,9.79382,10.1107,10.3622,10.5666
0.541396,6.24097,8.98583,10.5073,11.4742,12.1428,12.6324,13.0065,13.3015,13.5401
0.438629,5.23995,7.52905,8.81807,9.64815,10.2281,10.6563,10.9857,11.2468,11.459
0.39534,4.93865,7.09205,8.30261,9.07881,9.61872,10.0159,10.3203,10.561,10.7561
0.366735,4.81115,6.91819,8.10295,8.86204,9.3898,9.77795,10.0754,10.3106,10.5013
0.401352,5.52996,7.99137,9.39063,10.2938,10.9251,11.3913,11.7497,12.0338,12.2646
0.476243,6.56885,9.29849,10.7934,11.736,12.3844,12.8576,13.2181,13.5019,13.7311
0.352861,5.11211,7.35299,8.63414,9.46625,10.0509,10.4845,10.819,11.0849,11.3013
0.321987,5.00385,7.27679,8.57595,9.4142,9.99902,10.4299,10.7605,11.022,11.234
0.368243,5.52441,7.76844,8.9864,9.75073,10.2751,10.6573,10.9482,11.1771,11.362
0.418408,6.44707,9.14761,10.6629,11.6365,12.3158,12.817,13.2021,13.5074,13.7553
0.709994,12.1763,17.9678,21.4006,23.6702,25.2813,26.4835,27.4148,28.1573,28.7632
0.366213,6.83621,10.1459,12.0568,13.2911,14.1517,14.7851,15.2706,15.6544,15.9653
0.28134,5.61857,8.31643,9.85147,10.8382,11.5257,12.032,12.4206,12.7282,12.9779
0.265262,2.72349,3.20036,3.39416,3.49929,3.56533,3.61067,3.64374,3.66893,3.68876
0.257674,3.74016,5.52543,6.80164,7.78514,8.57179,9.21702,9.75645,10.2144,10.6082
0.33614,6.21694,9.9067,12.3798,14.0893,15.317,16.2313,16.9337,17.4878,17.9348
0.252644,5.35856,8.38242,10.1508,11.2699,12.034,12.5871,13.0057,13.3335,13.5972
0.247358,5.81448,8.91796,10.6608,11.7655,12.5295,13.0903,13.52,13.8601,14.1361
0.236731,2.82968,3.34149,3.54228,3.64991,3.71723,3.76338,3.79701,3.82262,3.84278
0.269776,4.52856,6.69946,8.2337,9.41223,10.3534,11.1245,11.7686,12.315,12.7846
0.233902,4.98971,7.94462,9.90735,11.2591,12.2276,12.9476,13.5001,13.9354,14.2863
0.227572,5.51542,8.56809,10.3228,11.4227,12.1688,12.7064,13.1118,13.4285,13.6826
0.241062,3.03172,3.59321,3.81078,3.92562,3.99677,4.04528,4.08053,4.10732,4.12838
0.238308,3.88788,5.54437,6.63503,7.43255,8.0465,8.53528,8.93418,9.26614,9.54682
0.271105,5.30829,8.0173,9.70746,10.8351,11.6294,12.2142,12.6604,13.011,13.2931
0.234782,5.19243,7.85295,9.38734,10.3611,11.029,11.5145,11.8831,12.1725,12.4057
0.21079,5.03835,7.50515,8.87314,9.73492,10.3277,10.7609,11.0915,11.3522,11.5631
0.219605,6.05464,9.2557,11.1114,12.3212,13.1736,13.807,14.2963,14.6858,15.0031
0.270868,6.87744,9.66128,11.0775,11.935,12.5101,12.9226,13.2329,13.4748,13.6687
0.273712,8.0255,12.0142,14.3859,15.977,17.1228,17.9887,18.6666,19.212,19.6604
0.222797,6.97699,10.3876,12.335,13.5887,14.4606,15.1009,15.5906,15.9769,16.2894
0.263486,8.35121,12.0994,14.143,15.427,16.3082,16.9506,17.4396,17.8245,18.1353
0.215024,7.12661,10.3963,12.2416,13.4324,14.266,14.8828,15.3577,15.7348,16.0414
0.196795,6.74092,9.78157,11.4773,12.559,13.3087,13.8588,14.2795,14.6115,14.8803
0.195687,7.09812,10.46,12.4024,13.6706,14.5644,15.2284,15.7413,16.1495,16.482
0.192815,7.08078,10.2924,12.0941,13.2459,14.045,14.6318,15.0808,15.4354,15.7226
0.222671,8.48282,12.423,14.6833,16.1522,17.1842,17.9493,18.5393,19.0081,19.3898
0.231871,8.88078,12.9234,15.2279,16.7187,17.7622,18.5335,19.1268,19.5974,19.9797
0.186775,7.05853,10.1424,11.872,12.9798,13.7502,14.317,14.7514,15.0951,15.3737
0.188656,7.22529,10.4015,12.195,13.3484,14.1527,14.7456,15.2007,15.5612,15.8536
0.183538,7.29177,10.6167,12.5261,13.7654,14.6345,15.2776,15.7728,16.1659,16.4853
0.185629,7.36516,10.5771,12.3631,13.4977,14.2816,14.8554,15.2936,15.6391,15.9185
0.184502,7.39194,10.6482,12.4915,13.6801,14.5111,15.1251,15.5973,15.972,16.2764
0.182877,7.43525,10.7327,12.603,13.808,14.649,15.2692,15.7454,16.1225,16.4285
0.180927,7.71076,11.2915,13.3603,14.7067,15.6525,16.3533,16.8933,17.3221,17.6708
0.181703,7.6734,11.0191,12.8717,14.0452,14.8544,15.4459,15.8972,16.2527,16.54
0.201464,8.72271,12.6239,14.8382,16.2682,17.269,18.009,18.5785,19.0305,19.3979
0.180642,7.81292,11.2998,13.2918,14.5831,15.4885,16.1586,16.6747,17.0843,17.4173
0.204849,8.79571,12.5997,14.7267,16.0841,17.0251,17.7156,18.2437,18.6607,18.9983
0.177104,7.69867,11.1444,13.1293,14.4232,15.3342,16.0106,16.5329,16.9484,17.2869
0.231408,10.2535,14.8406,17.4432,19.1157,20.2797,21.136,21.7921,22.3108,22.7311
0.17326,7.78189,11.2784,13.2695,14.5548,15.4533,16.1169,16.6271,17.0316,17.3602
0.194176,9.12586,13.3351,15.7381,17.2886,18.3711,19.1695,19.7825,20.268,20.6619
0.205968,9.88368,14.4297,17.0222,18.697,19.8683,20.7336,21.3989,21.9265,22.3551
0.464172,23.3436,34.2038,40.3665,44.328,47.087,49.1181,50.6755,51.9076,52.9065
0.17169,7.89759,11.0521,12.7394,13.7921,14.5123,15.0363,15.4347,15.748,16.0008
0.195975,9.48362,13.73,16.1934,17.8117,18.9582,19.8137,20.4766,21.0055,21.4373
0.216594,9.9887,14.1448,16.4497,17.9137,18.9248,19.6646,20.2292,20.6741,21.0337
0.187422,9.11334,13.2491,15.6448,17.2082,18.309,19.126,19.7566,20.258,20.6663
0.166412,8.23845,11.9304,14.0155,15.35,16.2759,16.9555,17.4755,17.886,18.2183
0.164968,8.47184,12.3551,14.5682,15.9961,16.9939,17.7305,18.2966,18.7454,19.1099
0.184739,9.74001,14.1722,16.6721,18.2745,19.3887,20.2082,20.8362,21.3328,21.7353
0.168121,9.01673,13.1003,15.4096,16.8956,17.9325,18.6973,19.2848,19.7503,20.1282
0.18474,10.0641,14.5674,17.0963,18.7156,19.8412,20.669,21.3033,21.8049,22.2114
0.202925,11.2602,16.296,19.1309,20.95,22.2166,23.1492,23.8647,24.4309,24.8902
0.16536,8.54419,11.971,13.8232,14.9857,15.7839,16.3659,16.8092,17.1581,17.4399
0.1593,8.56406,12.3335,14.5008,15.9142,16.91,17.6498,18.2211,18.6758,19.0462
0.172644,8.86029,12.4702,14.4457,15.6895,16.5435,17.1658,17.6392,18.0113,18.3115
0.176768,9.21475,13.1438,15.361,16.7873,17.7826,18.5168,19.0809,19.5279,19.8909
0.159084,8.36581,11.9997,14.0592,15.3845,16.3086,16.9894,17.5119,17.9255,18.2609
0.178341,9.83823,14.3151,16.876,18.5293,19.6837,20.5351,21.1888,21.7065,22.1266
0.160386,9.04877,13.128,15.4249,16.8938,17.9132,18.662,19.2352,19.6881,20.055
0.18531,6.40474,9.32213,11.4092,13.0159,14.2995,15.3512,16.2298,16.9751,17.6157
0.178735,7.70517,12.056,14.9196,16.8693,18.253,19.2738,20.0521,20.6623,21.152
0.325938,15.8636,24.3569,29.1903,32.1896,34.2092,35.6566,36.7437,37.59,38.2677
0.196262,10.7114,16.3796,19.5543,21.5618,22.9483,23.9654,24.7445,25.3608,25.8608
0.150913,8.18077,11.9199,13.9046,15.1382,15.9818,16.596,17.0635,17.4313,17.7283
0.170543,9.92184,14.6423,17.2935,19.006,20.207,21.0967,21.7825,22.3274,22.7709
0.18589,11.5161,17.0748,20.2285,22.2654,23.6892,24.7401,25.5474,26.1869,26.7059
0.161831,10.0578,14.5552,17.0112,18.5591,19.6237,20.4007,20.9926,21.4586,21.8349
0.182534,11.3962,16.3827,19.1383,20.8948,22.1141,23.0104,23.6974,24.2408,24.6814
0.15033,9.39231,13.49,15.7867,17.262,18.2906,19.0489,19.6311,20.0921,20.4663
0.149903,9.64703,13.9722,16.4255,18.0069,19.1106,19.9245,20.5494,21.0442,21.4458
0.168126,11.2134,16.3233,19.2193,21.0807,22.377,23.3312,24.0628,24.6416,25.1109
0.177564,11.9544,17.3563,20.4161,22.3865,23.7618,24.7764,25.5558,26.1734,26.6749
0.169392,11.7313,17.0776,20.1072,22.0563,23.4151,24.4164,25.1848,25.7931,26.2865
0.148096,10.32,14.8958,17.4482,19.0752,20.2026,21.0298,21.6627,22.1625,22.5673
0.146823,10.3943,15.0293,17.6404,19.3179,20.4873,21.3493,22.0111,22.5352,22.9606
