0.374511,0.430644,0.453291,0.465532,0.473199,0.478453,0.482277,0.485185,0.487472,0.489317
0.204928,0.340168,0.42158,0.475512,0.513792,0.542349,0.564462,0.582089,0.596466,0.608417
0.147444,0.331755,0.452304,0.53104,0.585259,0.624499,0.654077,0.677112,0.695529,0.710577
0.125044,0.346177,0.481902,0.563285,0.616138,0.652933,0.679942,0.700584,0.716863,0.730025
0.127831,0.43158,0.618088,0.729804,0.803181,0.854965,0.893458,0.923201,0.946875,0.966169
0.116949,0.460441,0.660459,0.775976,0.850404,0.902264,0.940449,0.969731,0.992896,1.01168
0.154671,0.698746,1.0064,1.18315,1.29737,1.37726,1.43627,1.48166,1.51765,1.5469
0.0814834,0.232042,0.269346,0.284795,0.293226,0.298536,0.302187,0.304852,0.306883,0.308481
0.0838985,0.358581,0.523929,0.642794,0.734409,0.807639,0.867656,0.917795,0.960335,0.996893
0.0819366,0.471198,0.743304,0.925312,1.05065,1.14038,1.20702,1.25812,1.29837,1.33079
0.0641286,0.267469,0.329601,0.355159,0.368588,0.376777,0.382273,0.386213,0.389175,0.391484
0.066689,0.41614,0.638721,0.795633,0.915309,1.01057,1.08853,1.15365,1.20893,1.25646
0.0795934,0.656326,1.06722,1.33681,1.52097,1.65244,1.75001,1.82483,1.88379,1.93132
0.0611279,0.544977,0.814842,0.957704,1.04359,1.10048,1.14086,1.171,1.19435,1.21298
0.066965,0.712817,1.10115,1.32861,1.47886,1.58613,1.6668,1.72979,1.78039,1.82194
0.268216,3.13265,4.71033,5.58865,6.14785,6.535,6.81878,7.0356,7.20659,7.34486
0.0758319,0.911487,1.3237,1.54738,1.68868,1.78623,1.85769,1.91231,1.95544,1.99036
0.053217,0.696902,1.02538,1.21294,1.3352,1.42136,1.4854,1.53487,1.57425,1.60634
0.0655225,0.931308,1.37668,1.63193,1.79751,1.91352,1.99928,2.06524,2.11753,2.15999
0.0604198,0.857257,1.2337,1.4429,1.57639,1.66902,1.73709,1.78923,1.83045,1.86385
0.0629895,0.925417,1.33678,1.57103,1.72293,1.82954,1.90852,1.9694,2.01776,2.0571
0.0834992,1.31177,1.93053,2.29432,2.53414,2.70412,2.83087,2.92901,3.00725,3.07107
0.0681072,1.1254,1.64547,1.94103,2.13074,2.26257,2.35941,2.43352,2.49206,2.53946
0.061605,1.09682,1.62452,1.93138,2.13196,2.27338,2.37848,2.45968,2.52431,2.57697
0.133704,2.40055,3.47029,4.06516,4.44333,4.70488,4.8965,5.04292,5.15843,5.25189
0.0764075,1.40571,2.0275,2.37766,2.60297,2.76029,2.87642,2.9657,3.03649,3.09399
0.0591975,0.548782,0.639779,0.677405,0.698007,0.711013,0.71997,0.726514,0.731505,0.735436
0.0527726,0.685846,1.00279,1.22901,1.40264,1.54098,1.65405,1.74831,1.82813,1.89662
0.0646165,1.0713,1.69924,2.12311,2.41749,2.62972,2.78824,2.91035,3.0069,3.08492
0.0593547,0.911821,1.277,1.45859,1.56337,1.63085,1.67777,1.71227,1.73868,1.75956
0.0566185,1.0534,1.60156,1.93418,2.15937,2.32308,2.44792,2.54647,2.62633,2.6924
0.0580751,1.19739,1.81456,2.17099,2.40116,2.56154,2.67944,2.76965,2.84084,2.89841
0.134028,3.00279,4.51742,5.37765,5.93057,6.31587,6.59979,6.81773,6.99033,7.13042
0.134959,0.904871,0.985958,1.01504,1.03002,1.03916,1.04532,1.04976,1.05311,1.05572
0.148713,1.46558,2.06434,2.50616,2.8542,3.13707,3.37197,3.57033,3.74013,3.88717
0.145557,1.9468,3.07108,3.85397,4.40395,4.80111,5.09691,5.32365,5.50188,5.64506
0.144638,2.42492,3.87952,4.75553,5.30792,5.68084,5.94769,6.14757,6.30275,6.42668
0.142027,2.87384,4.57734,5.54557,6.15295,6.56892,6.87214,7.10332,7.28559,7.4331
0.136903,3.16199,4.8853,5.81167,6.38508,6.77589,7.05977,7.27548,7.44501,7.58177
0.135162,3.35953,4.99241,5.84234,6.36611,6.72257,6.98121,7.17756,7.33176,7.45607
0.145034,3.77239,5.50854,6.43931,7.02764,7.43487,7.73389,7.96292,8.14401,8.29082
0.157664,4.31872,6.3,7.39555,8.09771,8.5869,8.94737,9.22402,9.44305,9.62075
0.124027,3.51391,5.08752,5.9564,6.50969,6.8929,7.17396,7.38887,7.55851,7.69582
0.136452,4.07012,5.94368,7.00574,7.69214,8.17248,8.52751,8.80063,9.01726,9.19331
0.136541,4.0866,5.85539,6.82436,7.43582,7.85654,8.16363,8.3976,8.58177,8.73051
0.184664,5.6405,8.09623,9.46737,10.3454,10.9565,11.4065,11.7518,12.0252,12.2471
0.120839,3.8547,5.56804,6.52994,7.14568,7.57342,7.88776,8.12848,8.3187,8.47279
0.133068,4.36104,6.29475,7.37811,8.07076,8.55172,8.90515,9.17584,9.38981,9.56319
0.133062,4.29366,6.07914,7.04981,7.65975,8.07855,8.38388,8.61635,8.79927,8.94696
0.136599,4.52085,6.46588,7.55691,8.25738,8.7457,9.10574,9.38225,9.60131,9.77915
0.24162,8.32589,12.0245,14.1177,15.4634,16.4009,17.0911,17.6203,18.0391,18.3785
0.168997,6.00554,8.67793,10.1786,11.1377,11.8032,12.2918,12.6658,12.9612,13.2004
0.115915,4.19357,6.04668,7.08584,7.75075,8.21286,8.55272,8.8132,9.01923,9.18626
0.124109,4.6825,6.8071,8.01292,8.78986,9.33218,9.73221,10.0394,10.2828,10.4804
0.179477,6.88417,9.92944,11.6259,12.7057,13.4529,14.0007,14.4194,14.7498,15.0172
0.124869,4.86093,7.00027,8.19836,8.9654,9.49889,9.89153,10.1926,10.4309,10.6242
0.161668,6.37607,9.15614,10.7078,11.6983,12.3856,12.8903,13.2767,13.582,13.8293
0.130329,5.24558,7.57516,8.89624,9.74853,10.3442,10.7841,11.1223,11.3904,11.6082
0.178858,7.36923,10.659,12.5187,13.7133,14.545,15.1573,15.6268,15.9981,16.2992
0.123043,5.343,7.84498,9.29017,10.2308,10.8918,11.3816,11.7592,12.0591,12.3032
0.124075,5.30333,7.59053,8.84391,9.6329,10.1747,10.5697,10.8703,11.1067,11.2975
0.121642,5.26728,7.59975,8.9256,9.78458,10.3874,10.8343,11.1788,11.4527,11.6757
0.132662,2.812,3.28253,3.47596,3.58127,3.64745,3.69286,3.72594,3.75112,3.77091
0.144296,2.53522,3.11293,3.42263,3.62008,3.7578,3.85956,3.93791,4.00014,4.05077
0.11004,2.83562,4.37269,5.52523,6.41995,7.13255,7.71242,8.19297,8.5974,8.94233
0.127475,4.3249,7.15752,9.07365,10.3801,11.304,11.9832,12.4995,12.9035,13.2272
0.129294,2.60308,3.19205,3.41828,3.53267,3.60094,3.64618,3.67835,3.70241,3.72108
0.124823,3.62767,5.55773,6.9016,7.92538,8.74132,9.41023,9.96986,10.4455,10.8551
0.0948867,3.64216,6.03524,7.63382,8.73952,9.53487,10.1278,10.5836,10.9433,11.2335
0.104874,2.36474,2.90243,3.10967,3.21575,3.27953,3.32196,3.3522,3.37482,3.3924
0.105432,2.21035,2.83555,3.16283,3.37081,3.51624,3.62414,3.70755,3.77403,3.8283
0.0999433,2.83435,4.29024,5.27209,5.98204,6.51829,6.93691,7.27237,7.54699,7.77581
0.0990886,3.74406,6.18252,7.80608,8.92143,9.72114,10.3175,10.7772,11.1414,11.4366
0.0910932,4.19474,6.87707,8.45943,9.46205,10.1468,10.6425,11.0176,11.3113,11.5475
0.120194,6.09597,9.47995,11.295,12.4125,13.1711,13.7209,14.1383,14.4661,14.7306
0.110041,5.95802,8.97934,10.5966,11.6127,12.3141,12.8286,13.2225,13.5339,13.7864
0.0968095,5.58754,8.38976,9.95939,10.9766,11.692,12.2232,12.6334,12.9597,13.2256
0.100033,5.9118,8.68071,10.2003,11.1662,11.8347,12.3246,12.699,12.9944,13.2334
0.110883,6.64005,9.67046,11.3606,12.4466,13.2043,13.7635,14.1932,14.5338,14.8104
0.119888,7.12234,10.2436,11.9748,13.0804,13.8479,14.4118,14.8438,15.1852,15.4618
0.10082,5.96686,8.54708,9.98643,10.9077,11.5482,12.0195,12.3807,12.6665,12.8982
0.109635,6.96216,10.2887,12.2464,13.538,14.454,15.1376,15.6671,16.0894,16.4341
0.0867442,5.91596,8.81041,10.4802,11.5595,12.3123,12.8668,13.2918,13.6278,13.9001
0.114131,6.11555,8.1237,9.09859,9.67402,10.0539,10.3236,10.525,10.6812,10.8058
0.104998,6.15777,8.8603,10.4794,11.5748,12.3691,12.9727,13.4474,13.8307,14.1468
0.0950823,5.97975,8.853,10.5712,11.7068,12.5098,13.1061,13.5657,13.9306,14.227
0.0933158,6.07741,8.94732,10.5887,11.6416,12.3722,12.9083,13.3184,13.6421,13.9041
0.0874294,5.76468,8.40231,9.88543,10.8339,11.4929,11.9777,12.3493,12.6434,12.8819
0.134307,9.17709,13.4923,15.9759,17.5925,18.7298,19.5738,20.2251,20.743,21.1648
0.0974497,6.63418,9.60347,11.2625,12.3209,13.0545,13.5929,14.0047,14.3298,14.5931
0.0986416,6.83071,9.92704,11.6881,12.827,13.6246,14.2146,14.6688,15.0293,15.3223
0.0907059,6.25763,9.03259,10.5959,11.5997,12.2987,12.8135,13.2083,13.5207,13.7741
0.0891978,6.00055,8.55621,9.97651,10.8817,11.5091,11.9697,12.3222,12.6007,12.8263
0.0947223,6.64175,9.69349,11.4684,12.6316,13.4533,14.0648,14.5376,14.9141,15.2211
0.0958494,6.57259,9.42553,11.0177,12.031,12.7319,13.2452,13.6372,13.9463,14.1963
0.0956033,6.77047,9.84219,11.6024,12.7439,13.5445,14.1372,14.5938,14.9564,15.2513
0.110108,7.91652,11.5013,13.5383,14.8501,15.7649,16.4391,16.9565,17.366,17.6983
0.107908,8.1922,12.1276,14.429,15.9384,17.0047,17.798,18.4112,18.8995,19.2976
0.0926947,6.79098,9.74456,11.3717,12.3996,13.1073,13.624,14.0178,14.3279,14.5783
0.0919714,7.09528,10.4523,12.4182,13.714,14.6338,15.321,15.8541,16.2799,16.6278
