0.325056,0.413869,0.455338,0.479354,0.495019,0.506044,0.514224,0.520535,0.525552,0.529636
0.230783,0.404322,0.508349,0.576225,0.62374,0.658787,0.685676,0.706948,0.724191,0.738448
0.155727,0.358529,0.489034,0.573527,0.631544,0.673528,0.705207,0.729916,0.749704,0.765899
0.12576,0.363173,0.516141,0.611656,0.675564,0.721037,0.754965,0.781223,0.802136,0.819182
0.108169,0.372409,0.535652,0.633729,0.698171,0.743613,0.777352,0.803389,0.82409,0.840941
0.0899511,0.355034,0.515847,0.613439,0.678708,0.725458,0.760613,0.788019,0.809989,0.827997
0.0833011,0.392534,0.584407,0.701145,0.779005,0.834516,0.876053,0.908284,0.934014,0.955026
0.0777996,0.421896,0.62919,0.752393,0.833456,0.890757,0.933389,0.966339,0.992568,1.01394
0.126005,0.773449,1.15348,1.37752,1.52479,1.62897,1.70657,1.76661,1.81445,1.85347
0.0700962,0.45001,0.650594,0.763969,0.836912,0.887818,0.925379,0.954238,0.977108,0.99568
0.0713195,0.510818,0.755353,0.901532,0.999172,1.06911,1.12169,1.16268,1.19553,1.22245
0.0678821,0.545555,0.81638,0.978097,1.08522,1.16128,1.21802,1.26196,1.29697,1.32552
0.0646615,0.580765,0.876129,1.05246,1.16924,1.2522,1.31416,1.36218,1.4005,1.43179
0.0618514,0.599262,0.897113,1.0723,1.18751,1.26905,1.32979,1.37681,1.41427,1.44483
0.0515051,0.53863,0.805867,0.963549,1.06765,1.14154,1.19673,1.23951,1.27365,1.30153
0.0562418,0.632731,0.947374,1.13361,1.2568,1.34432,1.40972,1.46044,1.50092,1.53399
0.0503602,0.590144,0.874957,1.04204,1.15205,1.22999,1.28813,1.33315,1.36905,1.39835
0.0610078,0.723388,1.05913,1.25523,1.38425,1.47567,1.54386,1.59669,1.63883,1.67322
0.0584579,0.741801,1.10548,1.32485,1.4718,1.57711,1.6563,1.71799,1.76742,1.8079
0.0534203,0.713636,1.07041,1.28699,1.43236,1.53664,1.61507,1.67621,1.7252,1.76533
0.0777958,1.10013,1.64927,1.97731,2.19468,2.34914,2.46448,2.55387,2.62518,2.68338
0.0613501,0.892374,1.31855,1.56627,1.72796,1.84179,1.92628,1.99147,2.04331,2.08551
0.0519042,0.755611,1.10734,1.31395,1.4505,1.54762,1.62029,1.67674,1.72185,1.75874
0.0494012,0.735912,1.07885,1.28075,1.41393,1.50838,1.57884,1.6334,1.6769,1.7124
0.0587328,0.919669,1.3636,1.62875,1.80492,1.93042,2.02435,2.09728,2.15554,2.20315
0.0494555,0.730827,1.03367,1.19989,1.30469,1.37675,1.42932,1.46937,1.50088,1.52633
0.0607627,0.878544,1.23973,1.44382,1.57577,1.66828,1.73681,1.78964,1.83162,1.86579
0.0642257,0.904948,1.28386,1.50424,1.64907,1.75163,1.82808,1.88728,1.93448,1.97298
0.0534081,0.803661,1.1828,1.4143,1.57019,1.6822,1.76652,1.83228,1.88498,1.92816
0.0515126,0.846446,1.27615,1.53926,1.71556,1.84158,1.93604,2.00943,2.06808,2.11601
0.0551532,0.988015,1.49654,1.79937,1.99841,2.13888,2.24321,2.32374,2.38777,2.4399
0.0497083,0.898386,1.32108,1.56068,1.71458,1.82182,1.90087,1.96157,2.00965,2.04868
0.0636,1.24799,1.88069,2.26073,2.51517,2.69774,2.83523,2.94254,3.02864,3.09925
0.0453144,0.898437,1.32239,1.56515,1.72218,1.83198,1.91303,1.9753,2.02463,2.06466
0.0490046,1.05523,1.59131,1.91358,2.12908,2.28345,2.39952,2.48997,2.56247,2.62188
0.042283,0.948267,1.41502,1.68675,1.86404,1.98868,2.08103,2.15219,2.20867,2.2546
0.0423673,1.01785,1.5391,1.85108,2.05894,2.20742,2.31883,2.40553,2.47493,2.53174
0.0394045,0.928069,1.35957,1.60562,1.76472,1.87604,1.95831,2.02158,2.07175,2.11251
0.0403693,1.01909,1.53236,1.84228,2.05043,2.20003,2.31278,2.40083,2.4715,2.52948
0.0424852,1.10281,1.65515,1.98592,2.20607,2.36307,2.48064,2.57195,2.64491,2.70455
0.0472068,1.13119,1.62201,1.89806,2.07531,2.19884,2.28988,2.35976,2.41511,2.46003
0.0513174,1.20516,1.74999,2.07488,2.2923,2.44836,2.56595,2.65776,2.73145,2.79192
0.0405841,1.0359,1.56484,1.89406,2.11812,2.28016,2.40267,2.4985,2.57546,2.63863
0.0394845,1.10591,1.69588,2.05556,2.29523,2.46574,2.59307,2.6917,2.77032,2.83445
0.0520658,1.39752,2.03358,2.38719,2.61138,2.76616,2.87948,2.96605,3.03435,3.08962
0.03972,1.168,1.76699,2.13097,2.37676,2.5543,2.68869,2.794,2.87878,2.94852
0.0372949,1.18098,1.80792,2.18903,2.44443,2.62723,2.76441,2.8711,2.95642,3.02619
0.0411983,1.31095,1.97236,2.36513,2.62539,2.81058,2.94912,3.0567,3.14265,3.21291
0.0374418,1.25703,1.89625,2.27483,2.52484,2.70218,2.83448,2.93695,3.01866,3.08532
0.0352036,1.23213,1.85965,2.2327,2.48006,2.65614,2.78789,2.8902,2.97194,3.03875
0.0362439,1.29973,1.94123,2.3154,2.56042,2.73328,2.86176,2.96101,3.03997,3.10429
0.0349457,1.29332,1.93641,2.31701,2.56914,2.74858,2.88287,2.98715,3.07049,3.13862
0.0349896,1.30664,1.94242,2.31617,2.56256,2.73725,2.86756,2.96851,3.049,3.11469
0.0397722,1.43637,2.08762,2.45969,2.70083,2.86987,2.99497,3.0913,3.16775,3.22992
0.0365994,1.3937,2.08342,2.50077,2.7813,2.98297,3.13499,3.25369,3.34896,3.42711
0.0454604,1.74555,2.58833,3.08428,3.41012,3.64028,3.81139,3.94355,4.04867,4.13428
0.0460637,1.6354,2.35556,2.76906,3.03841,3.22808,3.36897,3.4778,3.56441,3.63499
0.0369332,1.38937,2.07566,2.49588,2.78018,2.98538,3.14047,3.2618,3.3593,3.43937
0.0367909,1.43382,2.15696,2.59461,2.88667,3.09506,3.25109,3.37223,3.46899,3.54804
0.0354788,1.38797,2.0548,2.44244,2.69484,2.8721,3.00339,3.10453,3.18484,3.25015
0.0367319,1.49085,2.22712,2.66419,2.9538,3.15996,3.31427,3.43412,3.52992,3.60824
0.0350729,1.47096,2.20197,2.63524,2.92163,3.12495,3.27673,3.39435,3.48818,3.56476
0.033719,1.46671,2.20565,2.64647,2.93919,3.14771,3.30379,3.42501,3.52187,3.60105
0.0341572,1.54295,2.3353,2.81333,3.13316,3.36219,3.53429,3.66835,3.77572,3.86365
0.0325584,1.51682,2.28265,2.73558,3.03417,3.24565,3.40323,3.52517,3.62231,3.70153
0.0324527,1.53424,2.30095,2.75656,3.059,3.27457,3.43607,3.56161,3.662,3.74412
0.0347035,1.663,2.49228,2.98769,3.31762,3.55322,3.72991,3.86733,3.97726,4.0672
0.0346925,1.5218,2.1915,2.57229,2.81872,2.99138,3.11912,3.21747,3.29554,3.35901
0.0332265,1.41998,2.06948,2.45747,2.71706,2.90328,3.04346,3.15285,3.24059,3.31255
0.0320941,1.46443,2.2086,2.66897,2.98101,3.20605,3.37588,3.5085,3.61492,3.70218
0.034012,1.608,2.42912,2.92461,3.25399,3.48831,3.66339,3.79912,3.90741,3.99582
0.0349029,1.71373,2.5888,3.11109,3.45687,3.70255,3.88611,4.02846,4.14209,4.2349
0.0353739,1.77388,2.66109,3.18426,3.52896,3.77327,3.95551,4.09667,4.20924,4.30112
0.034779,1.59657,2.27281,2.6426,2.87606,3.03694,3.15457,3.24434,3.3151,3.37231
0.0681243,3.26099,4.84752,5.82004,6.48319,6.9657,7.33296,7.62201,7.85551,8.04809
0.0434903,2.10637,3.14954,3.78312,4.2079,4.51197,4.74014,4.91757,5.05943,5.17542
0.0360477,1.60461,2.30203,2.69622,2.9492,3.12524,3.25478,3.35409,3.43266,3.49637
0.0336907,1.64402,2.49614,3.03132,3.39965,3.66892,3.87446,4.03655,4.16768,4.27594
0.0336961,1.68762,2.56341,3.09933,3.45924,3.71709,3.91069,4.06132,4.18182,4.28038
0.0393095,2.02502,3.05692,3.67185,4.07818,4.36634,4.58128,4.74774,4.88046,4.98875
0.0334544,1.79972,2.71946,3.26535,3.62605,3.88209,4.07328,4.22148,4.33974,4.43631
0.0340468,1.87077,2.81764,3.38088,3.75479,4.02129,4.22092,4.37607,4.50013,4.6016
0.032733,1.84048,2.76033,3.3034,3.66185,3.91614,4.1059,4.25291,4.37015,4.46583
0.0319269,1.76343,2.61008,3.10639,3.43349,3.66552,3.83875,3.97305,4.08022,4.16773
0.0318086,1.81872,2.72552,3.26918,3.63186,3.89106,4.08552,4.23679,4.35782,4.45686
0.0310751,1.83792,2.77436,3.33917,3.71659,3.98647,4.18898,4.34654,4.4726,4.57576
0.0321159,1.91967,2.87898,3.44943,3.82722,4.09579,4.29651,4.45219,4.57647,4.67798
0.037936,2.05052,2.9453,3.45189,3.77907,4.00812,4.17753,4.30796,4.41149,4.49567
0.0322218,1.85914,2.78118,3.34416,3.72474,3.99938,4.20693,4.36931,4.49982,4.60701
0.0308405,1.90155,2.89402,3.49863,3.90323,4.19225,4.40878,4.57694,4.71127,4.82101
0.0324349,2.10402,3.20951,3.87423,4.3158,4.6301,4.86516,5.04757,5.19324,5.31226
0.0328183,2.05938,3.02232,3.56552,3.91375,4.15604,4.33438,4.47116,4.5794,4.66718
0.0407843,2.31514,3.33524,3.92953,4.32305,4.60391,4.81478,4.97906,5.11071,5.21859
0.0306219,1.63434,2.33788,2.74582,3.01302,3.20159,3.34174,3.44996,3.53604,3.60612
0.0303321,1.7473,2.62975,3.18119,3.55821,3.83205,4.03988,4.20297,4.33436,4.44246
0.0308257,1.89489,2.89226,3.50298,3.91151,4.20299,4.4211,4.59032,4.72538,4.83564
0.0311134,1.99747,3.04089,3.66564,4.0791,4.37266,4.59185,4.76175,4.89733,5.00802
0.0311924,2.0244,3.03871,3.63356,4.02424,4.30062,4.50655,4.66595,4.79301,4.89667
0.0302119,1.99247,2.98853,3.57983,3.97247,4.25249,4.46235,4.62553,4.75606,4.86284
0.0299071,1.97423,2.94227,3.51435,3.8928,4.16179,4.36281,4.51874,4.64321,4.74487
