0.386278,0.474035,0.512874,0.534782,0.548849,0.558645,0.56586,0.571394,0.575774,0.579326
0.276802,0.497154,0.638808,0.735919,0.806344,0.859668,0.901416,0.934975,0.962532,0.985563
1.1174,2.60951,3.57728,4.19978,4.62318,4.92677,5.15399,5.32996,5.47005,5.58409
0.191012,0.552003,0.78195,0.924134,1.01875,1.08586,1.13587,1.17453,1.20532,1.23041
0.0821703,0.284794,0.410089,0.485402,0.534939,0.569906,0.595891,0.615956,0.631917,0.644915
0.105935,0.425132,0.614777,0.726639,0.799847,0.851445,0.889769,0.919358,0.942894,0.962063
0.115096,0.523463,0.756969,0.892883,0.981438,1.0437,1.08986,1.12545,1.15373,1.17674
0.105026,0.538073,0.781771,0.923881,1.01679,1.08227,1.13091,1.16847,1.19834,1.22268
0.0840402,0.441188,0.616177,0.711719,0.771837,0.813148,0.843282,0.866234,0.884298,0.898886
0.0993867,0.589605,0.851312,1.00551,1.10762,1.18033,1.23478,1.2771,1.31095,1.33863
0.0786282,0.52652,0.772506,0.917404,1.01249,1.07954,1.1293,1.16769,1.19818,1.22298
0.076798,0.603398,0.920416,1.11654,1.24936,1.34517,1.41755,1.47414,1.5196,1.55693
0.0688636,0.58067,0.864559,1.02919,1.13598,1.21073,1.26593,1.30835,1.34197,1.36926
0.0571736,0.502849,0.737515,0.873141,0.961764,1.02432,1.07088,1.1069,1.13561,1.15902
0.0577509,0.569664,0.859397,1.03569,1.15449,1.24001,1.30453,1.35494,1.3954,1.4286
0.0528371,0.536545,0.787137,0.930879,1.02385,1.08883,1.13679,1.17361,1.20278,1.22645
0.158724,1.80676,2.73799,3.30741,3.69236,3.97024,4.18038,4.34489,4.47722,4.58597
0.0519925,0.571224,0.866642,1.05934,1.19652,1.29951,1.3798,1.44418,1.49698,1.54108
0.0573036,0.686783,1.03975,1.25354,1.3951,1.49512,1.56929,1.62639,1.67165,1.70838
0.0566187,0.717409,1.06383,1.26191,1.38908,1.47749,1.5425,1.59232,1.63172,1.66366
0.0713648,0.99866,1.51264,1.82135,2.02764,2.17548,2.28673,2.37352,2.44315,2.50024
0.050384,0.732225,1.08821,1.29411,1.42814,1.52229,1.59204,1.64577,1.68842,1.72311
0.0562036,0.836325,1.22815,1.45375,1.6008,1.70435,1.78125,1.84064,1.88789,1.92638
0.0452352,0.743024,1.12984,1.36814,1.53017,1.64759,1.73661,1.80642,1.86265,1.9089
0.0508594,0.890848,1.35513,1.63588,1.82332,1.95711,2.05732,2.13515,2.19733,2.24814
0.0590398,1.11034,1.69454,2.04692,2.28205,2.45002,2.57601,2.67399,2.75238,2.81653
0.0483436,0.933186,1.40356,1.68218,1.86656,1.99767,2.09571,2.1718,2.23258,2.28225
0.0520467,1.0444,1.5695,1.88282,2.09138,2.24029,2.35197,2.43884,2.50834,2.56522
0.0459627,0.896062,1.30455,1.53763,1.68854,1.79425,1.87244,1.93261,1.98034,2.01914
0.0392574,0.804338,1.19786,1.43531,1.59486,1.70959,1.79609,1.86366,1.91792,1.96244
0.0481185,0.975094,1.41963,1.67459,1.83956,1.95489,2.04,2.10536,2.15713,2.19913
0.0485022,1.01216,1.4878,1.76802,1.95309,2.08455,2.18279,2.259,2.31986,2.36959
0.047449,1.06331,1.60608,1.93914,2.1643,2.32665,2.44923,2.54505,2.622,2.68516
0.0418054,0.939936,1.40839,1.69182,1.88171,2.0178,2.12011,2.19983,2.26369,2.31601
0.043569,0.981735,1.44356,1.7109,1.8847,2.00663,2.09684,2.16628,2.22136,2.26613
0.0474812,1.12768,1.68788,2.02481,2.25008,2.41146,2.53279,2.62738,2.70318,2.76531
0.175218,4.40897,6.66952,8.03727,8.95205,9.60638,10.0974,10.4794,10.785,11.0351
0.0408126,1.00339,1.46934,1.73565,1.90771,2.028,2.11682,2.18508,2.2392,2.28314
0.0559377,1.39643,2.04892,2.42936,2.67935,2.85638,2.9884,3.09068,3.17225,3.23885
0.0380491,1.01657,1.53343,1.84926,2.06252,2.2162,2.3322,2.42285,2.49565,2.5554
0.0420167,1.14233,1.69975,2.02665,2.24068,2.39147,2.50335,2.58963,2.65818,2.71396
0.0408422,1.1662,1.76478,2.12985,2.37618,2.55378,2.68797,2.79296,2.87737,2.94672
0.0414998,1.13978,1.65828,1.95179,2.14023,2.27134,2.36778,2.44167,2.50009,2.54743
0.0352368,0.898189,1.27946,1.49643,1.63746,1.73673,1.81049,1.86747,1.91285,1.94983
0.0372131,1.02836,1.53898,1.85524,2.07092,2.22743,2.34617,2.43933,2.51436,2.57607
0.0408533,1.05262,1.49854,1.74539,1.90115,2.00808,2.08594,2.14513,2.19162,2.2291
0.0472941,1.32256,1.97659,2.37754,2.64952,2.84651,2.99591,3.11318,3.20771,3.28554
0.0356246,1.04559,1.56838,1.88064,2.08697,2.23309,2.34187,2.42594,2.49282,2.54729
0.084237,2.55822,3.82382,4.569,5.05849,5.40448,5.66199,5.86114,6.01976,6.14908
0.0364569,1.18575,1.80734,2.18629,2.44151,2.62519,2.76374,2.872,2.95892,3.03026
0.038685,1.28625,1.92939,2.30646,2.55356,2.72784,2.8573,2.95723,3.03669,3.10138
0.0469485,1.62869,2.46724,2.97421,3.31468,3.5594,3.74389,3.888,4.0037,4.09864
0.060216,2.06254,3.06673,3.6581,4.04831,4.32512,4.5317,4.69176,4.81942,4.9236
0.0428756,1.48953,2.2209,2.65787,2.94907,3.15715,3.31329,3.43479,3.53203,3.61162
0.064096,2.28413,3.43346,4.13037,4.59844,4.9345,5.18747,5.38477,5.54294,5.67258
0.0332929,1.25468,1.90673,2.30273,2.56788,2.75759,2.89998,3.01075,3.09936,3.17186
0.0349072,1.36283,2.06647,2.48912,2.77045,2.97111,3.12142,3.23822,3.3316,3.40797
0.0416755,1.63594,2.43523,2.89985,3.20323,3.41689,3.57549,3.6979,3.79523,3.87447
0.0731173,3.07886,4.71275,5.72046,6.40601,6.90317,7.2804,7.57651,7.81515,8.0116
0.0409281,1.60556,2.35321,2.78561,3.06788,3.26669,3.41429,3.52821,3.61879,3.69254
0.0494156,1.87074,2.69945,3.17232,3.47883,3.69377,3.85288,3.97544,4.07273,4.15186
0.0364823,1.35916,1.96209,2.31034,2.53778,2.69808,2.81717,2.90914,2.98231,3.04191
0.033518,1.24842,1.80889,2.13383,2.34594,2.49525,2.60604,2.69149,2.7594,2.81467
0.033544,1.40592,2.16532,2.64912,2.98406,3.22959,3.41728,3.56541,3.68528,3.78428
0.038026,1.61879,2.44163,2.92982,3.25033,3.47622,3.64379,3.77297,3.87554,3.95895
0.0319323,1.36062,2.01986,2.40293,2.65313,2.82949,2.96057,3.06187,3.14251,3.20824
0.0714796,2.96434,4.31389,5.08314,5.58134,5.93066,6.18927,6.38848,6.54666,6.67531
0.0378799,1.55999,2.28117,2.7046,2.98447,3.18349,3.33234,3.44791,3.54024,3.6157
0.0661117,2.64292,3.80863,4.47351,4.90314,5.2034,5.42499,5.5952,5.73002,5.83944
0.0354739,1.56214,2.37777,2.88976,3.24164,3.49849,3.69427,3.84846,3.97307,4.07586
0.0331725,1.25249,1.74568,2.0076,2.16912,2.27844,2.35725,2.41674,2.46322,2.50052
0.0344091,1.43356,2.14297,2.5839,2.88693,3.10871,3.27829,3.41228,3.52086,3.61066
0.0357675,1.49262,2.19654,2.60599,2.8719,3.05786,3.19495,3.30011,3.38326,3.45063
0.0547269,2.47277,3.74433,4.51506,5.03095,5.4004,5.67807,5.89442,6.06777,6.20979
0.0382866,1.8651,2.87054,3.48638,3.90067,4.19816,4.42206,4.59662,4.73654,4.85117
0.0309319,1.58926,2.45121,2.977,3.33032,3.58399,3.77496,3.9239,4.04333,4.14122
0.0495399,2.46367,3.65507,4.34013,4.7851,5.09752,5.32897,5.50736,5.64905,5.76432
0.0375547,1.89271,2.81712,3.36367,3.72643,3.98519,4.17919,4.33009,4.45084,4.54967
0.0396419,1.55508,2.08175,2.34797,2.50903,2.61698,2.69438,2.75259,2.79795,2.8343
0.0714799,3.1275,4.59228,5.50751,6.14147,6.60824,6.96679,7.25104,7.48202,7.67346
0.0456989,2.22155,3.40142,4.14353,4.64818,5.01166,5.28516,5.49807,5.66834,5.80753
0.035101,1.46909,2.0723,2.40051,2.6058,2.7462,2.84827,2.92584,2.98679,3.03596
0.0313246,1.47338,2.25578,2.76131,3.11734,3.38243,3.58775,3.75158,3.8854,3.99678
0.0904363,4.61718,7.10396,8.61646,9.6195,10.3292,10.8562,11.2623,11.5845,11.8463
0.0390898,2.14279,3.33798,4.07753,4.57854,4.94048,5.21435,5.42892,5.60161,5.74364
0.0411132,2.2473,3.35991,3.99309,4.3998,4.68283,4.89106,5.05064,5.17683,5.2791
0.0338035,1.72828,2.49702,2.92866,3.20712,3.40223,3.54675,3.65818,3.74674,3.81885
0.0402536,1.96577,2.85419,3.38027,3.7316,3.98349,4.1731,4.32103,4.43969,4.53699
0.0378038,2.11353,3.29299,4.0603,4.59823,4.99545,5.30043,5.5418,5.73749,5.89932
0.0372409,2.25177,3.52241,4.31138,4.84228,5.22221,5.50702,5.72824,5.90495,6.04931
0.0828212,5.08816,7.73138,9.2777,10.287,10.9973,11.5244,11.9312,12.2548,12.5183
0.0376329,2.02312,2.85003,3.29011,3.5644,3.75214,3.88886,3.99291,4.07478,4.14089
0.037944,2.09822,3.0643,3.63822,4.02272,4.29919,4.50781,4.67092,4.80198,4.90961
0.0317081,1.87905,2.83755,3.42729,3.82612,4.11328,4.32966,4.49844,4.63372,4.74453
0.0372067,2.38309,3.67704,4.47913,5.02161,5.41208,5.70632,5.93591,6.12001,6.27091
0.0298324,1.70766,2.42953,2.8162,3.0559,3.21885,3.33679,3.4261,3.49608,3.55239
0.0725355,4.35926,6.47104,7.74859,8.61317,9.23955,9.71504,10.0886,10.3901,10.6385
0.0559556,3.45866,5.14868,6.14961,6.8093,7.27578,7.62261,7.89038,8.10324,8.27646
0.0331494,2.14475,3.26618,3.95941,4.43066,4.77199,5.03069,5.23357,5.39698,5.53141
0.0328351,2.25135,3.48165,4.24877,4.77109,5.14921,5.43544,5.65958,5.83984,5.98792
