0.68228,0.787855,0.830703,0.853923,0.868489,0.878479,0.885756,0.891294,0.895649,0.899164
0.485418,0.834426,1.05447,1.20444,1.31295,1.39504,1.45929,1.51093,1.55333,1.58878
0.376187,0.833419,1.11512,1.29059,1.40734,1.48971,1.55061,1.59732,1.63421,1.66406
0.332873,0.97898,1.41333,1.6909,1.87934,2.01483,2.11673,2.19611,2.25966,2.3117
0.297477,1.06688,1.55594,1.8483,2.03859,2.17162,2.26968,2.34491,2.40443,2.45269
0.284566,1.22123,1.79795,2.13647,2.35656,2.51094,2.62522,2.71324,2.78313,2.83998
0.31656,1.59657,2.36771,2.81849,3.11251,3.3194,3.47291,3.59135,3.6855,3.76214
0.290186,1.49649,2.09244,2.40918,2.60532,2.73876,2.83544,2.90871,2.96617,3.01243
0.407382,2.46987,3.63062,4.32567,4.79202,5.12757,5.38087,5.57898,5.73822,5.86903
0.265259,1.83393,2.72908,3.25936,3.60841,3.85493,4.03806,4.17934,4.29158,4.38289
0.242715,1.78116,2.58316,3.03324,3.32025,3.51903,3.66481,3.77629,3.8643,3.93554
0.257513,2.09294,3.08456,3.66548,4.04818,4.31972,4.52255,4.67987,4.80549,4.90812
0.231598,2.04949,3.02157,3.58597,3.95417,4.21313,4.40511,4.55307,4.67058,4.76615
0.254271,2.42575,3.56843,4.22766,4.65629,4.95724,5.18017,5.35193,5.48833,5.59926
0.241715,2.24947,3.15912,3.64833,3.95396,4.16305,4.31513,4.43072,4.52156,4.59482
0.261878,2.64861,3.83228,4.52117,4.97479,5.29677,5.53737,5.72406,5.87317,5.99503
0.242636,2.54641,3.65156,4.27499,4.67441,4.95174,5.15536,5.31112,5.43409,5.53362
0.226854,2.53707,3.67398,4.32645,4.74969,5.04649,5.26618,5.43537,5.56969,5.67892
0.221717,2.74441,4.08263,4.88018,5.40912,5.78547,6.0669,6.28527,6.45965,6.60209
0.229359,3.01391,4.46503,5.31034,5.86166,6.24918,6.53632,6.75755,6.93321,7.07606
0.236179,3.33866,4.96601,5.91547,6.53649,6.9743,7.29955,7.55072,7.75055,7.91331
0.229995,2.96305,4.11521,4.72267,5.09815,5.35335,5.53815,5.67816,5.78792,5.87627
0.221033,3.15345,4.61386,5.48488,6.06824,6.48737,6.80341,7.05035,7.24869,7.41152
0.246024,3.86191,5.77309,6.91543,7.67133,8.207,8.60584,8.91407,9.15929,9.35895
0.218013,3.63964,5.41982,6.45593,7.13011,7.60307,7.95304,8.22243,8.4362,8.60994
0.214901,3.68067,5.40413,6.38898,7.02608,7.47224,7.80225,8.05631,8.25796,8.42192
0.20942,3.69727,5.41761,6.40994,7.05733,7.51346,7.85232,8.11403,8.32227,8.49191
0.217715,3.98391,5.84494,6.92379,7.62875,8.12554,8.49449,8.77931,9.00582,9.19026
0.216159,3.87811,5.55751,6.49802,7.09977,7.51788,7.8253,8.06084,8.24707,8.39801
0.212759,3.68393,5.18651,6.01825,6.54818,6.91573,7.18573,7.39251,7.55597,7.68845
0.212302,3.82177,5.50449,6.48291,7.1248,7.57864,7.91659,8.17803,8.38632,8.55617
0.217701,4.16695,6.10942,7.24957,7.99701,8.52399,8.9152,9.217,9.45685,9.652
0.211245,4.46013,6.71771,8.07462,8.97589,9.61714,10.0965,10.4683,10.7651,11.0075
0.265955,6.05183,9.10969,10.8969,12.061,12.878,13.4825,13.9477,14.3168,14.6167
0.21594,5.01788,7.41469,8.78173,9.66495,10.2831,10.7401,11.0919,11.371,11.598
0.20831,4.37105,6.06808,6.95925,7.51001,7.88456,8.15593,8.36165,8.52297,8.65289
0.204717,4.66861,6.86923,8.20451,9.11066,9.76801,10.2673,10.6596,10.9761,11.2369
0.209682,4.98429,7.33423,8.7044,9.59626,10.2208,10.6817,11.0353,11.3151,11.5419
0.201134,5.09886,7.5997,9.07398,10.043,10.728,11.2379,11.6323,11.9464,12.2026
0.204488,5.44886,8.1219,9.68162,10.7007,11.4184,11.951,12.362,12.6887,12.9546
0.258325,7.08797,10.5066,12.4898,13.7847,14.6971,15.3749,15.8982,16.3146,16.6537
0.212648,5.87435,8.61123,10.1826,11.2037,11.9211,12.4527,12.8626,13.1882,13.4531
0.208336,5.23329,7.28389,8.37692,9.05725,9.52167,9.85894,10.115,10.316,10.478
0.208349,5.75122,8.49915,10.1701,11.302,12.1214,12.7426,13.2299,13.6226,13.9458
0.208329,6.11979,9.13039,10.9152,12.0879,12.9144,13.5271,13.9991,14.3735,14.6777
0.205084,6.2731,9.32995,11.1093,12.2684,13.0828,13.6862,14.1513,14.5208,14.8214
0.205963,6.42177,9.47611,11.2383,12.3851,13.1913,13.7893,14.2506,14.6174,14.9159
0.269587,8.33434,12.1082,14.2489,15.6302,16.5959,17.3092,17.8577,18.2926,18.6459
0.206653,5.95013,8.36858,9.69282,10.5313,11.1104,11.5346,11.8587,12.1144,12.3214
0.212323,6.5187,9.56466,11.3876,12.607,13.4812,14.139,14.6519,15.0631,15.4001
0.203515,5.99598,8.52934,9.93391,10.8224,11.4337,11.8795,12.2187,12.4855,12.7006
0.201034,6.43665,9.56593,11.4532,12.7181,13.626,14.3097,14.8434,15.2717,15.6231
0.20265,6.60848,9.74879,11.5776,12.7693,13.606,14.2251,14.7016,15.0795,15.3865
0.198221,6.84862,10.2142,12.1928,13.4918,14.4097,15.0926,15.6207,16.0412,16.3839
0.199541,6.98995,10.3228,12.2499,13.5048,14.387,15.0413,15.5458,15.9467,16.273
0.198051,7.17776,10.6142,12.6068,13.9076,14.8238,15.5039,16.0289,16.4464,16.7863
0.19773,7.38494,10.9344,13.0015,14.3552,15.3106,16.021,16.5699,17.0068,17.3629
0.199603,6.82187,9.56023,11.0195,11.9257,12.543,12.9905,13.3297,13.5958,13.81
0.199772,7.46344,11.0485,13.212,14.6704,15.7228,16.5188,17.1424,17.6442,18.0568
0.199807,7.95701,11.9167,14.2674,15.8151,16.9078,17.7192,18.3449,18.8419,19.2461
0.196042,8.16589,12.1725,14.4905,15.9936,17.0459,17.8235,18.4215,18.8956,19.2808
0.194489,7.95489,11.5272,13.5115,14.7739,15.6481,16.2897,16.7806,17.1685,17.4827
0.192473,7.26962,10.2158,11.8265,12.8484,13.5561,14.0757,14.4735,14.788,15.0429
0.197301,7.93573,11.6748,13.9272,15.4417,16.5313,17.3532,17.9953,18.5108,18.9339
0.196011,7.47785,10.6023,12.3199,13.3998,14.1395,14.677,15.0849,15.405,15.6627
0.200555,8.36347,12.442,14.9028,16.553,17.738,18.631,19.3283,19.8881,20.3476
0.193514,8.49563,12.7166,15.2151,16.8574,18.0166,18.8775,19.5419,20.0698,20.4994
0.193565,8.49773,12.4238,14.6328,16.0431,17.0208,17.7383,18.2873,18.7209,19.072
0.197433,8.71698,12.7576,15.091,16.617,17.6949,18.4976,19.1189,19.6141,20.0182
0.205426,8.74603,12.6105,14.8134,16.241,17.2419,17.9827,18.5531,19.0058,19.3739
0.201334,9.14509,13.5908,16.2484,18.0168,19.2781,20.2229,20.957,21.5437,22.0234
0.194599,8.02885,11.2486,12.968,14.0329,14.7562,15.2791,15.6745,15.9841,16.2329
0.192927,8.28235,11.9501,14.0674,15.4536,16.4339,17.1646,17.7306,18.1821,18.5507
0.193731,8.62015,12.5946,14.9027,16.4082,17.4665,18.2505,18.8543,19.3336,19.7232
0.191794,8.91241,13.2299,15.7891,17.4802,18.6804,19.5763,20.2705,20.8244,21.2765
0.191199,9.17931,13.6468,16.2665,17.9832,19.1939,20.0933,20.7878,21.34,21.7897
0.189204,9.49539,14.1811,16.9287,18.7306,20.0029,20.9491,21.6803,22.2624,22.7366
0.194261,10.0687,14.9613,17.7879,19.6255,20.9154,21.8706,22.6064,23.1906,23.6657
0.262983,12.8276,18.2017,21.091,22.8945,24.1275,25.0239,25.705,26.2401,26.6716
0.192354,9.50456,13.7925,16.2934,17.9467,19.1243,20.0069,20.6934,21.2429,21.6926
0.190391,9.52917,13.9156,16.4735,18.1484,19.329,20.2053,20.8812,21.4182,21.855
0.191411,10.0059,14.8249,17.6687,19.5407,20.865,21.8509,22.6134,23.2206,23.7156
0.186454,10.1107,15.0337,17.9177,19.8059,21.1369,22.1255,22.8885,23.4952,23.9893
0.189232,10.712,15.9544,19.0028,20.9904,22.3881,23.4243,24.2233,24.8581,25.3746
0.233979,13.6591,20.2864,24.1195,26.6161,28.3715,29.6734,30.6775,31.4755,32.1249
0.19023,9.33213,12.8635,14.7268,15.8836,16.6731,17.2467,17.6824,18.0247,18.3008
0.190571,10.1477,14.939,17.8674,19.8606,21.3087,22.4093,23.2744,23.9726,24.5479
0.187445,10.5836,15.8343,18.9838,21.0674,22.542,23.6384,24.4845,25.1569,25.7037
0.209976,12.4621,18.6542,22.2741,24.6313,26.285,27.5087,28.4505,29.1978,29.8053
0.227846,13.2544,19.3904,22.8741,25.1196,26.6889,27.8482,28.7399,29.4472,30.0221
0.194638,11.1,16.117,18.9902,20.8596,22.1751,23.1517,23.9056,24.5054,24.9939
0.187492,10.9052,16.0342,19.0516,21.0432,22.4567,23.5118,24.3295,24.9817,25.5141
0.18556,10.177,14.45,16.7979,18.2789,19.2971,20.0397,20.6051,21.0498,21.4088
0.186227,11.2094,16.7214,20.0473,22.2786,23.8812,25.0886,26.0313,26.7879,27.4086
0.22513,14.3078,21.4446,25.6458,28.3958,30.3308,31.7645,32.8686,33.7446,34.4565
0.187834,11.4615,16.6641,19.6006,21.4868,22.8015,23.7708,24.5152,25.105,25.5839
0.18881,11.7118,17.1949,20.3934,22.4966,23.9868,25.0986,25.9601,26.6473,27.2083
0.186651,11.8593,17.4988,20.7932,22.9521,24.4754,25.6072,26.4811,27.1762,27.7421
0.185068,12.2879,18.2896,21.8102,24.1196,25.7499,26.9619,27.8981,28.643,29.2499
0.183327,12.2644,17.9909,21.242,23.332,24.7877,25.8597,26.6819,27.3325,27.8602
