0.809633,0.958874,1.02165,1.05622,1.07811,1.09322,1.10427,1.1127,1.11935,1.12473
0.827441,1.33923,1.62685,1.809,1.93435,2.02577,2.09538,2.15012,2.1943,2.2307
0.486513,0.997485,1.28865,1.465,1.58116,1.66286,1.72324,1.76961,1.80629,1.83601
0.438414,1.14661,1.57363,1.83392,2.00608,2.12778,2.2182,2.28797,2.34342,2.38854
0.412939,1.28404,1.80286,2.11447,2.31979,2.46493,2.5729,2.65633,2.72274,2.77685
0.447072,1.63426,2.33779,2.75795,3.03473,3.23052,3.37626,3.48896,3.57869,3.65182
0.389626,1.69013,2.43835,2.86645,3.13986,3.32889,3.46716,3.57263,3.65569,3.72278
0.777009,3.53324,4.84093,5.51463,5.92202,6.19465,6.38985,6.53652,6.65076,6.74226
0.368722,1.91288,2.69207,3.12732,3.40694,3.60236,3.74686,3.85813,3.94648,4.01836
0.353359,2.14481,3.11086,3.66788,4.02956,4.283,4.47033,4.61435,4.72849,4.82114
0.364974,2.48749,3.61282,4.2481,4.65398,4.93521,5.14142,5.29904,5.42341,5.52404
0.600694,4.40303,6.28276,7.3059,7.94734,8.38692,8.70697,8.95042,9.14183,9.29629
0.365161,2.94304,4.22918,4.94574,5.40341,5.72139,5.9553,6.13463,6.27652,6.39159
0.368199,3.22469,4.63246,5.41357,5.9101,6.2535,6.5051,6.69733,6.84899,6.97167
0.535705,5.0703,7.26778,8.47833,9.24422,9.77228,10.1583,10.4529,10.685,10.8727
0.35678,3.63322,5.2114,6.08439,6.6388,7.02221,7.30321,7.51801,7.68755,7.82477
0.353575,3.75462,5.33879,6.20864,6.75918,7.13914,7.41721,7.62954,7.79699,7.93244
0.534897,6.07687,8.7062,10.1749,11.1137,11.7659,12.2453,12.6127,12.9031,13.1385
0.377358,4.40987,6.25652,7.27353,7.91778,8.36245,8.68783,8.93624,9.13211,9.29049
0.358018,4.28093,6.02955,6.98699,7.59188,8.00881,8.31365,8.54626,8.72961,8.87785
0.35998,4.60784,6.59509,7.71536,8.43519,8.93685,9.3065,9.59019,9.81478,9.99701
0.499503,6.77299,9.71536,11.3576,12.4027,13.1255,13.6548,14.0592,14.3781,14.636
0.344655,5.00508,7.22891,8.47628,9.27314,9.82603,10.2321,10.543,10.7886,10.9876
0.378183,5.75417,8.26829,9.65983,10.5421,11.1513,11.5971,11.9376,12.206,12.4231
0.350893,5.54751,7.94165,9.26543,10.1061,10.6876,11.1138,11.4397,11.697,11.9053
0.366487,6.04653,8.66061,10.112,11.036,11.676,12.1456,12.5049,12.7886,13.0183
0.505252,8.38538,11.8389,13.718,14.9003,15.7128,16.3055,16.757,17.1124,17.3995
0.391981,6.84332,9.7945,11.4533,12.5187,13.2614,13.8088,14.2292,14.5621,14.8324
0.377806,6.80648,9.71625,11.331,12.3565,13.065,13.5837,13.9796,14.2917,14.5441
0.484699,8.87262,12.568,14.5934,15.8717,16.7519,17.3949,17.8853,18.2716,18.5838
0.374281,6.80405,9.51288,10.976,11.893,12.5219,12.9801,13.3288,13.6031,13.8245
0.356616,6.51031,9.1013,10.5184,11.4145,12.0328,12.4853,12.8309,13.1034,13.3239
0.338475,6.62723,9.52776,11.1878,12.2639,13.0181,13.5759,14.0053,14.3459,14.6228
0.346911,7.03583,10.0826,11.7792,12.8554,13.5975,14.1398,14.5532,14.8788,15.1417
0.346148,7.38969,10.6604,12.4953,13.6679,14.4819,15.0801,15.5383,15.9005,16.1941
0.342256,7.35422,10.4436,12.1277,13.1864,13.9133,14.4433,14.8469,15.1644,15.4207
0.42755,9.63134,13.8173,16.1566,17.6528,18.6929,19.4581,20.0449,20.509,20.8855
0.343104,8.07427,11.6359,13.632,14.9082,15.794,16.4447,16.9429,17.3365,17.6553
0.347486,8.52852,12.2923,14.3881,15.7215,16.644,17.3201,17.8367,18.2444,18.5743
0.446095,10.6516,14.9507,17.2563,18.6946,19.6778,20.3926,20.9357,21.3624,21.7065
0.361293,8.21682,11.2897,12.914,13.9225,14.6104,15.1099,15.4892,15.7871,16.0272
0.437066,10.7604,15.4336,18.1282,19.8894,21.1321,22.0563,22.7706,23.3393,23.8028
0.337136,8.56042,12.2368,14.2791,15.5712,16.4598,17.1075,17.6002,17.9875,18.2998
0.343641,7.93182,10.8105,12.3007,13.2112,13.8255,14.2679,14.602,14.8631,15.0729
0.345342,8.58029,12.2514,14.368,15.7544,16.7353,17.4666,18.0331,18.485,18.8539
0.340796,9.21636,13.4989,15.9876,17.6057,18.7389,19.5755,20.218,20.7266,21.1391
0.456979,12.802,18.565,21.7781,23.8131,25.2148,26.2384,27.0185,27.6327,28.1288
0.333756,9.76638,14.1443,16.5777,18.1243,19.1944,19.9792,20.5794,21.0534,21.4372
0.402757,11.8551,16.91,19.6643,21.3983,22.5909,23.4616,24.1253,24.648,25.0704
0.358172,10.8684,15.5723,18.1862,19.8544,21.0126,21.864,22.5163,23.0321,23.4503
0.342972,10.8247,15.6737,18.4279,20.2066,21.4505,22.3692,23.0756,23.6356,24.0904
0.356712,11.0201,15.5745,18.0423,19.5876,20.6454,21.4146,21.999,22.458,22.828
0.340033,11.0008,15.8092,18.5177,20.2594,21.4747,22.3713,23.0603,23.6064,24.0498
0.407351,13.2166,18.8075,21.8859,23.8327,25.1741,26.1541,26.9013,27.4898,27.9652
0.360918,12.3253,17.816,20.9245,22.9257,24.3222,25.3523,26.1435,26.7703,27.2791
0.342845,10.5965,14.5657,16.6419,17.9185,18.7826,19.4063,19.8777,20.2465,20.5428
0.349189,11.8214,17.0999,20.1758,22.2012,23.6385,24.7123,25.5452,26.2104,26.754
0.40209,14.2048,20.6177,24.2572,26.5894,28.2071,29.3933,30.2996,31.0144,31.5923
0.348878,12.7723,18.4626,21.625,23.6291,25.0114,26.0222,26.7935,27.4013,27.8928
0.345833,12.6514,18.0331,20.9737,22.8272,24.1033,25.0358,25.7471,26.3077,26.7609
0.416535,15.6441,22.5055,26.3716,28.8611,30.6001,31.8843,32.8717,33.6546,34.2906
0.348804,13.5345,19.5131,22.8608,24.9981,26.4796,27.5665,28.3977,29.0538,29.5847
0.405555,16.0442,23.0236,26.888,29.3396,31.0328,32.2724,33.2191,33.9657,34.5697
0.363493,14.2939,20.2705,23.5329,25.5893,27.0046,28.0384,28.8267,29.4477,29.9496
0.389971,15.3308,21.7814,25.3712,27.6659,29.2611,30.4349,31.3349,32.047,32.6246
0.342848,13.2557,19.0596,22.4393,24.6641,26.2421,27.4201,28.3334,29.0623,29.6576
0.40995,14.8499,20.4815,23.4394,25.2497,26.4676,27.3416,27.9987,28.5104,28.9201
0.344679,13.6808,19.879,23.5125,25.9107,27.6156,28.8914,29.8825,30.675,31.3233
0.402003,16.8961,24.6512,29.0433,31.8474,33.7866,35.205,36.2867,37.1384,37.826
0.332717,14.0804,20.221,23.5922,25.7162,27.1768,28.243,29.0557,29.6957,30.213
0.361496,15.3506,21.8159,25.3327,27.5454,29.0672,30.1784,31.0255,31.6929,32.2322
0.340466,14.6022,20.7198,24.0726,26.1943,27.6588,28.7308,29.5496,30.1954,30.7179
0.333991,14.5879,20.8473,24.349,26.5918,28.1521,29.3005,30.1811,30.8778,31.4428
0.343825,15.6002,22.5001,26.3883,28.8809,30.6137,31.8878,32.8638,33.6353,34.2604
0.353792,16.6287,24.041,28.1929,30.8416,32.677,34.0235,35.0533,35.8663,36.5245
0.355759,16.3454,23.171,26.888,29.2261,30.8331,32.0058,32.8993,33.6029,34.1712
0.354483,16.7,23.8706,27.8663,30.4189,32.192,33.4958,34.495,35.2852,35.9258
0.389651,18.8356,27.0061,31.5565,34.4544,36.4607,37.9316,39.0559,39.9432,40.6613
0.361497,17.9817,25.8643,30.2625,33.0662,35.0089,36.4344,37.525,38.3862,39.0835
0.386271,19.3164,27.585,32.1426,35.0285,37.0198,38.4767,39.5889,40.4658,41.1749
0.34122,17.353,24.826,28.9775,31.6219,33.4545,34.7997,35.8291,36.6423,37.301
0.385884,19.997,28.6486,33.4624,36.5286,38.6525,40.2105,41.4022,42.3431,43.1048
0.346049,17.429,24.496,28.3105,30.6975,32.3319,33.5212,34.4253,35.1359,35.7091
0.367008,18.9271,26.9752,31.4813,34.3707,36.3832,37.8661,39.0045,39.9059,40.6375
0.339528,14.3681,18.9826,21.2762,22.648,23.5603,24.2108,24.6978,25.0762,25.3786
0.394696,18.6779,26.8087,31.6734,34.9448,37.3034,39.0868,40.4837,41.6078,42.5321
0.348777,17.8029,26.0724,30.8765,33.9819,36.1427,37.7285,38.9399,39.8947,40.6659
0.385165,20.66,30.1702,35.4988,38.8748,41.1998,42.8974,44.1913,45.2102,46.0333
0.337493,18.7577,27.2552,31.9669,34.9544,37.0186,38.5308,39.6868,40.5992,41.3378
0.371616,20.0606,28.3364,32.757,35.5097,37.3902,38.7567,39.7949,40.6104,41.268
0.389024,20.4982,28.6975,33.1243,35.9097,37.8271,39.2286,40.298,41.141,41.8227
0.347255,18.4245,26.0052,30.1993,32.871,34.7229,36.0823,37.1226,37.9444,38.6099
0.39219,21.6761,31.1629,36.5459,40.0143,42.434,44.2178,45.5869,46.6709,47.5503
0.34794,17.4478,23.8434,27.14,29.1431,30.4872,31.4509,32.1756,32.7402,33.1924
0.399695,21.9799,31.7766,37.4935,41.2647,43.9458,45.9523,47.5112,48.7578,49.7776
0.335977,18.7331,26.788,31.2306,34.0257,35.94,37.3308,38.3859,39.2133,39.8793
0.395606,21.9197,30.9689,35.8665,38.9319,41.0316,42.5604,43.7235,44.6383,45.3768
0.346978,20.2525,29.2875,34.4284,37.7549,40.0863,41.8118,43.1408,44.1961,45.0543
0.382659,23.1025,33.3936,39.1373,42.7894,45.3127,47.159,48.568,49.6783,50.5756
0.378814,22.8148,32.5449,37.8634,41.2135,43.5175,45.1995,46.4816,47.4913,48.3072
