1.47315,1.55227,1.58057,1.59511,1.60396,1.60991,1.6142,1.61742,1.61994,1.62196
1.13841,1.60646,1.84424,1.9879,2.08404,2.15289,2.20462,2.24491,2.27717,2.30359
1.00543,1.83721,2.27817,2.53731,2.70518,2.82201,2.90773,2.97318,3.02474,3.06637
0.953465,2.17985,2.82595,3.18977,3.41835,3.57422,3.687,3.77229,3.83899,3.89258
0.909693,2.51253,3.3286,3.77045,4.04264,4.22636,4.35854,4.45815,4.5359,4.59825
0.883254,2.88801,3.87965,4.40635,4.72924,4.94704,5.1038,5.22203,5.31437,5.38848
0.870646,3.28372,4.42955,5.02673,5.39044,5.63496,5.8106,5.94286,6.04604,6.12878
0.856779,3.68374,4.99275,5.67269,6.08763,6.36719,6.56834,6.72001,6.83847,6.93355
0.846278,4.06438,5.50648,6.24993,6.70244,7.0068,7.22552,7.39028,7.51886,7.622
0.831781,4.41218,5.97591,6.78012,7.26963,7.59895,7.83566,8.01402,8.15324,8.26493
0.824152,4.81308,6.53744,7.42831,7.97231,8.33906,8.60307,8.80221,8.95777,9.08265
0.828575,5.29759,7.21012,8.1982,8.80122,9.20749,9.49977,9.72011,9.89216,10.0302
0.818364,5.63702,7.65036,8.68349,9.31168,9.73394,10.0372,10.2657,10.4439,10.5868
0.812667,6.02864,8.19122,9.30534,9.98493,10.4428,10.7723,11.0208,11.2149,11.3707
0.81284,6.44815,8.75849,9.94766,10.6724,11.1604,11.5112,11.7757,11.9822,12.1478
0.91115,7.66347,10.3856,11.7811,12.6296,13.2001,13.6098,13.9185,14.1593,14.3524
0.798289,7.129,9.67564,10.9875,11.7879,12.3272,12.7153,13.008,13.2366,13.4201
0.795694,7.54409,10.2565,11.6559,12.5097,13.0849,13.4987,13.8107,14.0543,14.2498
0.795197,8.02464,10.9396,12.4462,13.3659,13.9857,14.4316,14.7679,15.0305,15.2413
0.797772,8.48182,11.5441,13.118,14.0759,14.72,15.1829,15.5315,15.8035,16.0217
0.798197,8.8916,12.0846,13.7247,14.7233,15.3954,15.8786,16.2427,16.527,16.7551
0.786669,9.1612,12.442,14.1279,15.1549,15.8461,16.3431,16.7178,17.0102,17.2449
0.78728,9.75928,13.3564,15.2286,16.377,17.1534,17.7134,18.1364,18.4671,18.7329
0.785685,10.0408,13.6231,15.4502,16.5565,17.2979,17.8293,18.2287,18.5399,18.7891
0.779156,10.2714,13.9017,15.7586,16.8878,17.6473,18.1934,18.6049,18.9263,19.1841
0.788189,10.8357,14.7221,16.7305,17.9585,18.7873,19.3844,19.835,20.1872,20.47
0.782138,11.1193,15.0955,17.1434,18.3918,19.2322,19.8364,20.2918,20.6472,20.9323
0.822778,12.1065,16.435,18.6628,20.0203,20.934,21.5911,22.0862,22.4728,22.783
0.780573,11.9858,16.322,18.5622,19.93,20.8519,21.5153,22.0156,22.4064,22.7201
0.786642,12.5274,17.0589,19.3945,20.8183,21.7769,22.4662,22.9857,23.3913,23.7167
0.83875,13.7316,18.6508,21.1767,22.7139,23.7481,24.4913,25.0513,25.4884,25.8391
0.769833,12.9894,17.6336,20.0191,21.4716,22.449,23.1517,23.6813,24.0947,24.4263
0.777823,13.5484,18.421,20.9347,22.4694,23.5039,24.2486,24.8103,25.2491,25.6013
0.782902,14.3597,19.6785,22.4493,24.1486,25.297,26.125,26.7501,27.2389,27.6315
0.743206,7.70356,8.95423,9.46267,9.73795,9.91044,10.0286,10.1147,10.1801,10.2315
0.742235,10.3272,14.4516,17.1421,19.0814,20.5552,21.7161,22.6553,23.4313,24.0833
0.742137,12.4299,18.1364,21.475,23.5942,25.0329,26.0631,26.8323,27.4263,27.8975
0.745747,14.1211,20.4014,23.7095,25.6901,26.9977,27.9233,28.6127,29.1461,29.571
0.788587,16.5838,23.7093,27.3432,29.5229,30.9768,32.0169,32.7986,33.4079,33.8963
0.738195,16.0753,22.3022,25.3699,27.1965,28.4111,29.278,29.9282,30.434,30.8387
0.746032,16.7234,22.9232,26.0255,27.9019,29.1626,30.069,30.7522,31.2859,31.7143
0.780493,17.8432,24.2886,27.5508,29.5332,30.8672,31.8265,32.5495,33.114,33.5669
0.780108,18.3281,24.9602,28.3609,30.4374,31.8376,32.8458,33.6064,34.2005,34.6776
0.773832,18.6562,25.3951,28.8555,30.9644,32.3839,33.4045,34.1735,34.7738,35.2553
0.748547,18.5375,25.2465,28.6982,30.8025,32.2194,33.2384,34.0065,34.6061,35.0873
0.743805,18.7405,25.4486,28.8854,30.975,32.3797,33.3888,34.1488,34.7418,35.2173
0.745005,19.1605,26.0323,29.5675,31.723,33.1751,34.2197,35.0075,35.6227,36.1165
0.771824,20.2963,27.592,31.3477,33.6369,35.1783,36.2868,37.1222,37.7744,38.2977
0.766591,20.6316,28.0695,31.9003,34.2356,35.808,36.9389,37.7912,38.4567,38.9907
0.723016,19.8995,27.0731,30.7633,33.0111,34.5237,35.6112,36.4306,37.0702,37.5833
0.785503,25.4965,36.6014,42.7564,46.6609,49.3569,51.3299,52.836,54.0234,54.9836
0.753188,22.8076,30.6173,34.3557,36.5241,37.9345,38.9234,39.6547,40.2171,40.663
0.75549,22.444,30.0238,33.8419,36.1639,37.7318,38.864,39.7209,40.3925,40.9332
0.751202,22.2546,29.8781,33.8001,36.2017,37.8248,38.9953,39.8791,40.5701,41.125
0.784211,23.1901,31.1857,35.31,37.8291,39.5269,40.7485,41.6693,42.3883,42.9652
0.760371,22.8294,30.8649,35.0273,37.5715,39.2868,40.5214,41.4524,42.1795,42.7631
0.77135,23.6383,32.1024,36.4924,39.1757,40.985,42.2872,43.2692,44.0362,44.6519
0.779113,24.3232,33.0643,37.5773,40.3282,42.1798,43.5109,44.5139,45.2967,45.9248
0.765282,24.3021,33.0105,37.4854,40.2073,42.0373,43.352,44.3422,45.1148,45.7345
0.781987,25.1616,34.1395,38.7481,41.5525,43.4391,44.7951,45.8168,46.6143,47.2542
0.788204,25.5573,34.5808,39.1963,42,43.8838,45.2368,46.2555,47.0502,47.6875
0.774744,25.5385,34.6454,39.3382,42.2022,44.1327,45.5222,46.5702,47.3889,48.0462
0.787983,26.6317,36.2979,41.3094,44.3758,46.4452,47.9358,49.0605,49.9394,50.645
0.788932,26.7936,36.2772,41.1127,44.0405,46.0025,47.4086,48.4657,49.2893,49.949
0.783708,27.187,36.9436,41.9707,45.0388,47.1071,48.5962,49.7196,50.5975,51.3023
0.787816,27.7325,37.6754,42.7904,45.9066,48.0039,49.5117,50.6478,51.5346,52.246
0.791865,28.4711,38.7479,44.0433,47.2719,49.446,51.0095,52.1881,53.1082,53.8466
0.782633,28.3666,38.4504,43.6046,46.7325,48.8324,50.3395,51.4738,52.3583,53.0674
0.79221,29.3391,39.9085,45.3587,48.686,50.9291,52.544,53.7622,54.7139,55.478
0.759874,28.6317,38.9385,44.2375,47.4636,49.6337,51.1932,52.3679,53.2845,54.0197
0.744606,28.7277,39.274,44.7616,48.1286,50.406,52.0493,53.2909,54.2623,55.043
0.763132,29.4244,39.8505,45.1557,48.3637,50.5116,52.0498,53.2055,54.1054,54.826
0.757449,29.5574,40.0944,45.512,48.8164,51.0438,52.6473,53.8572,54.8026,55.5618
0.765569,30.2875,41.1437,46.7411,50.1571,52.459,54.1153,55.3642,56.3395,57.1222
0.792899,31.9793,43.5146,49.4602,53.0848,55.5249,57.2794,58.6015,59.6336,60.4616
0.788974,32.223,43.7907,49.7325,53.3481,55.7797,57.527,58.8433,59.8704,60.6944
0.782576,32.1853,43.6369,49.5041,53.0715,55.47,57.1933,58.4914,59.5044,60.3169
0.782854,32.6972,44.432,50.481,54.1729,56.6612,58.4522,59.803,60.8581,61.7051
0.777512,32.6939,44.3133,50.2668,53.8851,56.3165,58.0624,59.3769,60.4023,61.2244
0.785158,33.5062,45.5072,51.6884,55.4584,57.9983,59.8258,61.2038,62.2801,63.1439
0.775656,32.7441,44.0538,49.7778,53.2326,55.5437,57.1982,58.4411,59.4089,60.1838
0.77868,33.8913,46.1622,52.5541,56.4832,59.145,61.0681,62.5228,63.6618,64.5779
0.780635,34.6441,47.2082,53.6904,57.6392,60.2947,62.2021,63.6381,64.758,65.6559
0.782261,35.1653,47.8337,54.3373,58.2919,60.9503,62.86,64.2983,65.4206,66.3208
0.806738,36.656,49.7785,56.503,60.5915,63.3402,65.3152,66.8028,67.9638,68.895
0.789483,36.2625,49.2454,55.9168,59.9816,62.7183,64.6866,66.1704,67.3289,68.2586
0.804087,37.2113,50.4527,57.2399,61.3676,64.1427,66.1365,67.6381,68.8098,69.7495
0.736594,34.6277,47.0779,53.4992,57.419,60.0611,61.9628,63.397,64.5174,65.4167
0.782949,37.227,50.5707,57.426,61.5979,64.4034,66.4191,67.9373,69.1219,70.0719
0.786759,37.7838,51.2996,58.2412,62.4669,65.31,67.3536,68.8936,70.0956,71.0599
0.77917,37.801,51.3338,58.2944,62.5361,65.3919,67.4458,68.9939,70.2026,71.1726
0.791534,39.1222,53.2605,60.5521,65.0001,67.9963,70.1515,71.7763,73.045,74.0631
0.779351,23.0766,27.2968,29.0654,30.0374,30.652,31.0758,31.3856,31.622,31.8082
0.766733,28.918,40.263,47.4181,52.4525,56.2108,59.1307,61.4672,63.3806,64.9767
0.768986,33.7473,48.7795,57.4251,62.8839,66.5876,69.243,71.2301,72.7681,73.9911
0.771618,36.6936,52.2125,60.2661,65.07,68.2384,70.4807,72.1503,73.4417,74.4706
0.766194,38.4031,53.8117,61.591,66.252,69.3608,71.5852,73.2571,74.5604,75.6052
0.769546,39.8559,55.1192,62.7842,67.4027,70.4964,72.7154,74.3854,75.6879,76.7322
0.780929,41.5165,57.026,64.8717,69.6291,72.8265,75.1242,76.8553,78.2066,79.2907
0.773307,41.6819,56.9186,64.6607,69.364,72.5265,74.7993,76.5116,77.8481,78.9201
