1.54605,1.63019,1.66031,1.6758,1.68522,1.69157,1.69613,1.69957,1.70225,1.7044
1.80607,2.58185,2.9838,3.22924,3.39462,3.51361,3.60331,3.67336,3.72957,3.77568
1.0559,1.94557,2.4171,2.69312,2.87125,2.99482,3.08524,3.15414,3.20832,3.25201
1.22083,2.77074,3.56883,4.01218,4.28856,4.47612,4.61141,4.71347,4.79318,4.85712
0.954802,2.5885,3.40004,3.83623,4.10437,4.28528,4.41544,4.51354,4.59013,4.65157
0.934153,3.04831,4.10867,4.68005,5.03366,5.27367,5.44719,5.57847,5.68126,5.76392
0.909488,3.38363,4.54544,5.14699,5.51139,5.75535,5.92999,6.06115,6.16325,6.24498
1.10154,4.52451,6.02865,6.79261,7.25337,7.56158,7.7823,7.94818,8.07742,8.18095
0.891031,4.19307,5.69533,6.48646,6.97517,7.30731,7.54784,7.73008,7.87296,7.98799
0.875527,4.38605,5.84469,6.57723,7.01613,7.30807,7.51614,7.67189,7.79282,7.88942
0.884107,4.96351,6.73403,7.66167,8.23396,8.62274,8.90425,9.11759,9.28487,9.41958
1.04483,6.87863,9.62075,11.1008,12.0242,12.6545,13.1118,13.4585,13.7305,13.9494
0.86761,6.27947,8.68176,9.91481,10.6591,11.156,11.5108,11.7767,11.9834,12.1486
1.05198,8.1915,11.2049,12.731,13.6519,14.2685,14.7104,15.0428,15.302,15.5097
0.880743,7.25507,9.84592,11.1594,11.9554,12.49,12.8741,13.1633,13.3891,13.5702
0.884593,7.52861,10.1074,11.408,12.1941,12.721,13.0989,13.3831,13.6047,13.7822
1.0051,8.88941,11.9296,13.484,14.4312,15.0694,15.5287,15.8752,16.1458,16.3631
0.940549,9.18008,12.6244,14.458,15.5981,16.3756,16.9397,17.3676,17.7033,17.9738
0.889792,8.95573,12.1105,13.7081,14.6683,15.3079,15.764,16.1055,16.3707,16.5826
0.97268,9.84024,13.108,14.7424,15.7243,16.3801,16.8493,17.2018,17.4764,17.6963
0.901652,9.51507,12.786,14.4737,15.5077,16.207,16.7118,17.0934,17.392,17.6321
0.86661,9.64796,13.0725,14.8535,15.945,16.6821,17.213,17.6136,17.9266,18.1778
0.946217,10.9151,14.8173,16.8499,18.0964,18.9389,19.5463,20.005,20.3637,20.6518
0.88112,10.6614,14.475,16.4379,17.631,18.4321,19.007,19.4396,19.7768,20.047
0.881333,11.023,14.9016,16.8803,18.0792,18.8833,19.4601,19.8941,20.2325,20.5037
0.88672,11.3735,15.3147,17.3211,18.5374,19.3538,19.9397,20.3808,20.7249,21.0008
0.870134,11.0621,14.6948,16.5156,17.6106,18.342,18.8651,19.2579,19.5636,19.8084
0.811456,10.5912,14.177,16.022,17.1499,17.9114,18.4603,18.8749,19.199,19.4595
0.81682,5.35023,6.03981,6.3155,6.46388,6.55653,6.61988,6.66592,6.70088,6.72833
0.810965,7.69335,10.8614,13.0637,14.7199,16.0184,17.0661,17.9301,18.6552,19.2727
0.773622,9.79757,15.0353,18.3729,20.5825,22.116,23.227,24.0619,24.7086,25.2223
0.744144,11.2966,17.0233,20.0893,21.9019,23.0797,23.9019,24.5072,24.9712,25.3381
0.729307,6.81021,8.12875,8.62025,8.8724,9.02594,9.12949,9.20417,9.26064,9.30487
0.826814,10.8999,15.79,18.9617,21.2669,23.0372,24.4449,25.5931,26.5483,27.3558
0.766526,12.6277,19.0135,22.7371,25.1012,26.7052,27.852,28.7067,29.3653,29.8867
0.764208,14.6928,21.7807,25.4836,27.6902,29.1419,30.167,30.929,31.5176,31.9862
0.815716,17.2635,24.7961,28.5127,30.706,32.155,33.1852,33.9561,34.555,35.034
0.818675,18.0913,25.2005,28.664,30.7261,32.0996,33.0818,33.8197,34.3945,34.855
0.773117,17.4565,23.8951,27.0829,29.0061,30.2967,31.2237,31.922,32.4671,32.9045
0.749713,17.2723,23.4862,26.6194,28.5234,29.8047,30.7263,31.421,31.9634,32.3986
0.771259,18.8702,25.9977,29.7149,32.0073,33.563,34.688,35.5394,36.2061,36.7423
0.761139,18.0358,24.1376,27.1555,28.9537,30.1461,30.9941,31.628,32.1196,32.512
0.777518,20.0614,27.7694,31.8958,34.4806,36.2551,37.5498,38.5366,39.3139,39.9421
0.760868,13.1407,15.8763,17.0414,17.6835,18.0893,18.3686,18.5723,18.7275,18.8496
0.772162,16.7564,23.3763,27.4294,30.2249,32.2827,33.865,35.121,36.1431,36.9913
0.765319,18.4341,26.0345,30.2047,32.7774,34.5012,35.728,36.642,37.3473,37.9072
0.734785,19.002,26.6342,30.5853,32.9623,34.5437,35.671,36.5153,37.1715,37.6963
0.776416,21.5358,30.1551,34.5994,37.2999,39.1164,40.423,41.4086,42.1787,42.7971
0.75084,15.8959,19.8763,21.6121,22.5834,23.2044,23.6358,23.9529,24.1959,24.388
0.731572,18.5779,25.9091,30.1756,33.0264,35.0789,36.6313,37.8478,38.8276,39.6338
0.750047,20.4199,28.4608,32.7249,35.3255,37.0615,38.2963,39.2169,39.9283,40.4938
0.732945,22.2364,31.5407,36.4922,39.5398,41.6009,43.0876,44.211,45.0899,45.7965
0.73977,23.74,33.2184,38.0526,40.9637,42.9067,44.2952,45.3369,46.1472,46.7956
0.769341,25.1045,34.4203,39.0619,41.8421,43.6958,45.0208,46.0154,46.7896,47.4095
0.7576,25.5976,35.1765,40.0949,43.1059,45.1432,46.6145,47.7274,48.5988,49.2996
0.771945,25.8331,34.9314,39.5062,42.2648,44.1095,45.4297,46.4211,47.1928,47.8106
0.730655,24.3493,32.8071,37.1115,39.7292,41.4912,42.7586,43.7142,44.4606,45.0597
0.724829,24.8745,34.1545,39.1139,42.2151,44.3401,45.8877,47.0654,47.9917,48.7394
0.725993,25.4028,34.6486,39.3984,42.2746,44.1981,45.5733,46.6046,47.4063,48.0473
0.740867,25.5964,34.449,38.9062,41.5876,43.3785,44.6596,45.6216,46.3708,46.9707
0.738574,27.6257,38.2911,43.9832,47.5321,49.9591,51.7246,53.0668,54.1218,54.9729
0.746732,28.9789,39.9657,45.6337,49.0743,51.3798,53.0307,54.2703,55.2349,56.0068
0.738388,28.8044,39.2129,44.4742,47.6455,49.7661,51.2843,52.425,53.3136,54.0255
0.761382,31.1686,42.9038,49.0095,52.7617,55.3038,57.1409,58.5308,59.6192,60.4947
0.743091,29.6593,39.901,45.0075,48.063,50.0951,51.5437,52.6282,53.4705,54.1435
0.749526,29.4198,39.4108,44.4729,47.5454,49.6119,51.0981,52.2187,53.0941,53.7969
0.745271,28.4048,37.7992,42.5524,45.43,47.36,48.7444,49.7859,50.5979,51.2486
0.741077,29.1847,39.5904,45.0583,48.4368,50.7322,52.3938,53.6522,54.6383,55.4319
0.718147,27.6404,37.0027,41.7378,44.5866,46.4861,47.8421,48.8582,49.6479,50.2791
0.721488,28.7815,39.1769,44.6209,47.9752,50.2509,51.897,53.1434,54.12,54.9061
0.761776,31.8627,43.8223,50.0881,53.9328,56.5294,58.3997,59.8106,60.9127,61.7972
0.758573,31.2971,42.2504,47.7516,51.048,53.2417,54.8062,55.978,56.8885,57.6163
0.734419,32.5874,45.1309,51.7809,55.9111,58.7293,60.7763,62.3312,63.5526,64.5376
0.722739,31.2778,42.1638,47.5842,50.8151,52.9565,54.4786,55.6155,56.4968,57.1998
0.733051,35.0317,49.1047,56.7248,61.523,64.8281,67.2455,69.0914,70.5476,71.7258
0.74724,35.5822,48.5961,55.1415,59.0544,61.6493,63.4935,64.8703,65.937,66.7874
0.74332,33.9008,45.2687,50.8942,54.2592,56.5016,58.1043,59.3075,60.2443,60.9946
0.768495,35.0164,47.0894,53.2991,57.1057,59.6829,61.5448,62.9534,64.0565,64.9437
0.733939,34.0791,46.2355,52.561,56.4426,59.0661,60.9572,62.3847,63.5003,64.396
0.72001,19.7824,23.3194,24.8033,25.6181,26.1326,26.487,26.7458,26.9431,27.0985
0.736664,25.5816,35.4367,41.6386,45.9935,49.2393,51.758,53.7717,55.4194,56.7931
0.729555,27.8639,39.1784,45.4457,49.317,51.9071,53.7466,55.1137,56.1663,57
0.738123,31.4275,44.7429,51.8465,56.1772,59.0802,61.16,62.7232,63.9414,64.9178
0.7102,14.6633,16.8083,17.6226,18.047,18.3072,18.4831,18.61,18.7059,18.7808
0.735774,21.2046,30.0205,35.9628,40.3646,43.7837,46.5241,48.7728,50.6525,52.2477
0.731478,17.8783,23.0095,25.4644,26.8515,27.7247,28.3177,28.7433,29.0621,29.309
0.705855,22.813,33.5723,40.1858,44.6706,47.9233,50.3968,52.3446,53.9201,55.2217
0.69947,27.968,42.4623,50.6795,55.8007,59.2536,61.7232,63.5704,65.0007,66.1393
0.714608,31.744,46.4294,53.8028,58.1254,60.9517,62.9419,64.4191,65.5592,66.466
0.696141,33.7256,48.3442,55.6066,59.9465,62.8433,64.9189,66.481,67.7001,68.6784
0.709072,35.442,49.3232,56.0983,60.1371,62.8265,64.7478,66.1895,67.3114,68.2093
0.706567,37.379,52.0118,59.425,63.9482,67.0037,69.208,70.8739,72.1774,73.2252
0.704027,39.0307,54.1429,61.847,66.5389,69.697,71.9675,73.6781,75.0132,76.0839
0.697307,40.3135,55.7782,63.6822,68.4925,71.7283,74.0539,75.8059,77.1733,78.2701
0.703755,42.1688,58.1842,66.3763,71.3602,74.7123,77.1214,78.9365,80.353,81.4894
0.731481,42.016,56.3195,63.3586,67.5526,70.337,72.3204,73.805,74.958,75.8793
0.718179,40.4044,54.0345,60.9309,65.1231,67.9467,69.9796,71.5137,72.713,73.6763
0.728329,40.6204,54.4868,61.6015,65.9442,68.8717,70.9788,72.5679,73.809,74.805
0.719424,43.1527,59.7134,68.6163,74.1782,77.9814,80.7456,82.8451,84.494,85.8231
0.712278,40.1259,53.4369,59.9766,63.8369,66.3777,68.1747,69.5119,70.5455,71.3681
