0.887422,1.05344,1.1235,1.16214,1.18663,1.20354,1.21592,1.22537,1.23282,1.23885
0.527264,0.845135,1.0205,1.13031,1.20532,1.25974,1.30101,1.33337,1.35942,1.38084
0.455521,0.893115,1.1269,1.26371,1.35201,1.4133,1.45818,1.49241,1.51935,1.54108
0.426941,1.11503,1.54237,1.81037,1.99142,2.1214,2.21911,2.29519,2.35611,2.40597
0.466361,1.50273,2.12956,2.49982,2.73889,2.90489,3.02655,3.11942,3.19259,3.2517
0.435081,1.67453,2.39731,2.81141,3.07599,3.25923,3.39358,3.4963,3.57739,3.64303
0.406509,1.74993,2.45687,2.84088,3.08023,3.24361,3.36223,3.45227,3.52296,3.57993
0.422168,2.1247,3.05149,3.57723,3.91598,4.15275,4.32766,4.46221,4.56894,4.65567
0.375488,2.04108,2.87319,3.32565,3.60936,3.80377,3.94525,4.05281,4.13732,4.20548
0.377105,1.99889,2.68067,3.03017,3.24327,3.38695,3.49044,3.56855,3.62961,3.67866
0.369529,2.33081,3.34224,3.93834,4.33421,4.61683,4.82889,4.99396,5.12611,5.23432
0.670901,4.83879,7.03555,8.29162,9.09682,9.65445,10.0626,10.3738,10.6187,10.8165
0.448697,3.52911,5.08689,5.95057,6.49638,6.87213,7.14655,7.35577,7.52059,7.65379
0.37875,3.07179,4.31529,4.9811,5.39586,5.67925,5.88526,6.04181,6.16482,6.26404
0.37322,3.33074,4.7722,5.58326,6.10529,6.46996,6.73926,6.94633,7.11053,7.24393
0.34727,3.38103,4.87275,5.70879,6.24249,6.61233,6.88355,7.09089,7.25449,7.38686
0.374582,3.93652,5.68289,6.65932,7.2821,7.71375,8.03052,8.27288,8.46431,8.61933
0.362169,3.85547,5.42345,6.26499,6.78973,7.14823,7.40871,7.60653,7.76189,7.88713
0.336374,3.80055,5.41063,6.31012,6.88687,7.28878,7.58508,7.81264,7.99293,8.13931
0.356866,4.40781,6.38675,7.51334,8.23998,8.74713,9.12101,9.40795,9.63509,9.81932
0.34175,3.93286,5.40985,6.18625,6.66495,6.98963,7.22434,7.40193,7.541,7.65286
0.334147,4.37665,6.36863,7.54101,8.31723,8.87001,9.28398,9.60572,9.86301,10.0735
0.371964,5.26875,7.67461,9.03453,9.90174,10.5008,10.9386,11.2723,11.5348,11.7468
0.347601,5.2356,7.58757,8.8932,9.72042,10.2912,10.7087,11.0275,11.2789,11.4823
0.359,5.66754,8.14337,9.49991,10.3556,10.9448,11.3753,11.7037,11.9625,12.1717
0.339625,5.55547,7.9552,9.28121,10.1247,10.7092,11.1383,11.4667,11.7263,11.9365
0.329463,5.50638,7.90405,9.2606,10.1372,10.751,11.2051,11.5546,11.8319,12.0575
0.340866,5.95562,8.53717,9.97179,10.8827,11.5114,11.9712,12.3219,12.5982,12.8214
0.336863,5.90326,8.35697,9.70223,10.5524,11.1385,11.5672,11.8945,12.1526,12.3613
0.346616,5.62596,7.63388,8.66885,9.30064,9.72653,10.0331,10.2643,10.445,10.59
0.339986,6.15248,8.89409,10.5188,11.6023,12.3783,12.9622,13.4175,13.7828,14.0822
0.480379,8.93848,12.8165,14.9921,16.3744,17.3271,18.022,18.5509,18.9666,19.3018
0.342907,6.84024,9.92334,11.6653,12.7805,13.5551,14.1245,14.5607,14.9056,15.1851
0.358383,7.59896,11.0326,12.9485,14.1661,15.0077,15.6241,16.0949,16.4662,16.7665
0.389577,8.58085,12.3895,14.5002,15.841,16.7685,17.4485,17.9684,18.3789,18.7113
0.354961,7.60753,10.6792,12.3231,13.3489,14.0504,14.5607,14.9485,15.2533,15.4992
0.326753,7.37689,10.5616,12.3545,13.5095,14.3166,14.9128,15.3713,15.7349,16.0304
0.337302,7.95597,11.4675,13.4472,14.7166,15.5991,16.2478,16.7446,17.1372,17.4552
0.364067,8.65914,12.3423,14.3721,15.6561,16.5411,17.188,17.6814,18.0703,18.3846
0.33126,8.19031,11.76,13.7596,15.0393,15.9288,16.5832,17.0849,17.4818,17.8036
0.351938,8.49467,11.9498,13.8262,15.0051,15.8144,16.4044,16.8536,17.2071,17.4924
0.349673,8.13053,11.6428,13.7225,15.1124,16.1103,16.8625,17.4503,17.9224,18.3101
0.333585,8.31163,12.0571,14.2006,15.576,16.5288,17.2261,17.7577,18.1761,18.5137
0.429726,11.3821,16.5788,19.5059,21.3708,22.6609,23.6061,24.3285,24.8985,25.3598
0.325991,9.03582,13.0948,15.3425,16.7652,17.7466,18.4644,19.0123,19.4443,19.7936
0.345439,10.0524,14.5778,17.0938,18.6954,19.805,20.6194,21.2427,21.7351,22.1339
0.384203,11.305,16.1927,18.8744,20.5707,21.7412,22.5977,23.2516,23.7673,24.1843
0.377057,11.5248,16.6069,19.4489,21.2686,22.5343,23.4658,24.1801,24.7453,25.2037
0.337357,10.3159,14.6742,17.0609,18.5676,19.605,20.3627,20.9403,21.3952,21.7628
0.35225,11.0505,15.7988,18.4432,20.1317,21.304,22.1656,22.8257,23.3476,23.7706
0.330054,9.97575,13.9729,16.1387,17.4988,18.4324,19.1131,19.6313,20.039,20.3682
0.351075,10.5222,14.7877,17.1504,18.6568,19.7021,20.4703,21.0587,21.524,21.9011
0.340932,10.8131,15.5662,18.2827,20.0396,21.2683,22.1755,22.8726,23.425,23.8734
0.340015,11.3738,16.5051,19.4081,21.2659,22.5547,23.5003,24.2235,24.7944,25.2565
0.419861,14.3821,20.6959,24.1853,26.3918,27.9122,29.0234,29.8709,30.5388,31.0786
0.340943,11.9508,17.1398,20.005,21.8224,23.0786,23.999,24.7026,25.258,25.7075
0.32785,11.6446,16.6553,19.432,21.1994,22.4239,23.3226,24.0103,24.5536,24.9936
0.369069,13.3694,19.1772,22.4279,24.5087,25.9552,27.0193,27.8349,28.4799,29.0028
0.326832,12.0119,17.166,20.0207,21.8329,23.0849,24.0015,24.7014,25.2533,25.6997
0.43225,13.238,17.6935,19.9641,21.3456,22.2759,22.9455,23.4506,23.8453,24.1623
0.33846,11.245,15.9591,18.6983,20.503,21.7846,22.7425,23.4859,24.0798,24.5651
0.383565,13.6489,19.8132,23.3733,25.6753,27.2801,28.4607,29.3646,30.0786,30.6564
0.334793,11.9949,17.1145,19.9142,21.6664,22.8639,23.7336,24.3937,24.9118,25.3292
0.404123,15.4026,22.3772,26.3283,28.8718,30.6478,31.959,32.9672,33.7666,34.4161
0.339296,13.6635,19.8898,23.3684,25.581,27.1106,28.2305,29.0857,29.7598,30.3049
0.403932,16.5383,23.7801,27.7491,30.2529,31.9768,33.2364,34.197,34.9539,35.5657
0.368709,15.0296,21.3113,24.7139,26.8519,28.321,29.3931,30.2101,30.8534,31.3732
0.341384,14.2981,20.5015,23.9831,26.2211,27.7828,28.935,29.8202,30.5218,31.0915
0.358573,14.0319,19.5315,22.4911,24.3432,25.6115,26.5345,27.2361,27.7875,28.2323
0.342006,14.4158,20.83,24.525,26.9333,28.6281,29.8859,30.8565,31.6283,32.2566
0.397162,17.4823,25.3676,29.8229,32.6718,34.6461,36.0935,37.1996,38.072,38.7776
0.331715,13.9001,19.9771,23.4653,25.7401,27.3444,28.5379,29.4609,30.1964,30.7964
0.334845,14.6819,21.2906,25.0453,27.4566,29.1328,30.3642,31.3065,32.0506,32.6529
0.35259,16.0358,23.1879,27.164,29.6835,31.4208,32.6906,33.6592,34.4222,35.039
0.333229,15.2008,21.7361,25.3234,27.5905,29.1538,30.2975,31.1707,31.8594,32.4165
0.337335,15.8232,22.7634,26.6454,29.1306,30.8594,32.1317,33.1075,33.8797,34.5059
0.368673,17.3165,24.6555,28.6781,31.2166,32.9638,34.2394,35.2116,35.977,36.5952
0.330266,15.1697,21.2996,24.6122,26.6899,28.1155,29.1545,29.9456,30.5681,31.0707
0.39686,19.3078,27.8738,32.7665,35.9403,38.1674,39.817,41.088,42.0975,42.9187
0.324135,14.6074,20.3757,23.4891,25.4373,26.7709,27.7408,28.4779,29.0569,29.5238
0.381021,17.2164,24.1684,27.9918,30.415,32.0891,33.3153,34.2522,34.9915,35.5898
0.330483,15.386,21.8979,25.5432,27.8724,29.4885,30.6755,31.584,32.3017,32.883
0.403062,19.4964,28.0331,32.8333,35.902,38.0311,39.5943,40.7905,41.7354,42.5005
0.33432,16.3189,23.2708,27.088,29.4937,31.1475,32.3541,33.273,33.9963,34.5803
0.387104,18.7889,26.6749,31.0242,33.7851,35.6953,37.0961,38.1677,39.014,39.6993
0.354616,18.1441,26.1917,30.7308,33.6441,35.6718,37.1642,38.3083,39.2134,39.9471
0.367732,18.7658,26.7296,31.0907,33.8374,35.7249,37.1014,38.1496,38.9743,39.6401
0.329912,16.0455,22.4957,26.0138,28.2374,29.7722,30.8961,31.755,32.4329,32.9815
0.394996,21.0102,30.6678,36.2797,39.9509,42.5394,44.4622,45.9467,47.1274,48.0887
0.353172,19.3478,27.9917,32.7919,35.8253,37.9103,39.4297,40.5855,41.494,42.2267
0.408171,21.6448,31.3161,36.9137,40.5891,43.195,45.1418,46.6525,47.8595,48.8463
0.333184,17.9833,25.7702,30.0675,32.7763,34.6349,35.9872,37.0144,37.8208,38.4703
0.385505,19.5903,27.1005,31.0277,33.4396,35.0716,36.2497,37.1403,37.8373,38.3977
0.332765,15.612,21.1594,24.0549,25.8433,27.0603,27.9427,28.6123,29.1377,29.5612
0.395692,20.2103,28.9784,34.092,37.4607,39.8506,41.6348,43.018,44.1217,45.0229
0.345876,19.4224,28.613,33.9507,37.4072,39.8182,41.5921,42.9505,44.0234,44.8919
0.378759,22.4593,32.9148,38.7499,42.4392,44.9766,46.8274,48.2369,49.3459,50.2413
0.331972,20.091,29.0049,33.8625,36.9131,39.0081,40.5364,41.7009,42.6179,43.3588
0.344619,19.5574,27.7429,32.2942,35.2184,37.2627,38.7743,39.9382,40.8624,41.6142
0.340846,18.8958,26.4662,30.5653,33.1365,34.8983,36.18,37.154,37.9189,38.5354
