0.769026,0.899739,0.953777,0.983306,1.00192,1.01472,1.02407,1.03119,1.03681,1.04134
0.520596,0.79345,0.934374,1.01954,1.07642,1.11707,1.14754,1.17124,1.19019,1.20569
0.467577,0.978412,1.29439,1.4981,1.63838,1.74031,1.81754,1.87799,1.92656,1.96642
0.4458,1.19593,1.65852,1.93877,2.12173,2.24936,2.34307,2.41465,2.47105,2.5166
0.540218,1.57757,2.09313,2.36416,2.52803,2.63732,2.71532,2.77377,2.81919,2.85551
0.391375,1.37465,1.90848,2.2158,2.4156,2.55624,2.66077,2.74157,2.80594,2.85843
0.384484,1.67316,2.42518,2.86684,3.15458,3.35627,3.50526,3.61971,3.71032,3.78382
0.400847,2.03251,2.94552,3.45864,3.78357,4.00712,4.17016,4.29426,4.39187,4.47065
0.393184,2.27883,3.29848,3.86442,4.22265,4.46977,4.65058,4.78865,4.89754,4.98563
0.431181,2.70259,3.82999,4.43581,4.81368,5.07201,5.25983,5.40256,5.51471,5.60515
0.369405,2.54842,3.63579,4.23914,4.62448,4.89235,5.08949,5.2407,5.36037,5.45746
0.381136,2.81902,3.99683,4.64402,5.05359,5.33607,5.54261,5.70019,5.82436,5.92471
0.366311,2.9119,4.11638,4.77404,5.18827,5.47306,5.68085,5.83915,5.96375,6.06437
0.365701,3.20341,4.59494,5.37525,5.87494,6.22241,6.47805,6.67403,6.82907,6.95478
0.387273,3.50115,4.92058,5.6855,6.16304,6.48933,6.72634,6.90627,7.04751,7.16131
0.365424,3.59791,5.14707,6.01756,6.57669,6.96659,7.25413,7.47501,7.65002,7.79213
0.373222,3.74944,5.25664,6.0692,6.57659,6.92325,7.175,7.36607,7.51602,7.63682
0.361921,3.98734,5.71964,6.6968,7.32529,7.76379,8.08726,8.33577,8.53269,8.69259
0.521037,5.90736,8.30685,9.59387,10.3934,10.9374,11.3313,11.6295,11.8631,12.0509
0.384879,4.72772,6.78292,7.9399,8.684,9.20348,9.58696,9.8818,10.1156,10.3055
0.365359,4.62565,6.54166,7.58173,8.23318,8.67904,9.00317,9.24935,9.44264,9.59841
0.39824,5.45521,7.84506,9.18663,10.0465,10.645,11.0858,11.424,11.6916,11.9088
0.554939,7.37137,10.248,11.7787,12.7291,13.3765,13.8458,14.2017,14.4807,14.7054
0.360812,5.22679,7.50213,8.79778,9.63749,10.2266,10.6631,10.9994,11.2666,11.484
0.350866,4.61116,6.39373,7.37989,8.00932,8.44655,8.76813,9.01465,9.20965,9.36778
0.360187,5.40646,7.88552,9.34303,10.3,10.9753,11.4769,11.864,12.1718,12.4222
0.37248,6.06016,8.83905,10.4008,11.3908,12.0719,12.5685,12.9462,13.2431,13.4826
0.352525,6.11563,8.88861,10.427,11.4014,12.0738,12.566,12.942,13.2386,13.4785
0.355279,5.41968,7.28299,8.20559,8.75656,9.12311,9.38465,9.58071,9.73315,9.85508
0.50142,8.70374,12.5436,14.7948,16.292,17.3637,18.1699,18.799,19.3037,19.7176
0.358217,6.53065,9.38454,10.9794,11.9909,12.6869,13.194,13.5794,13.882,14.1257
0.352555,6.93848,10.0726,11.8306,12.9511,13.727,14.2959,14.7311,15.0746,15.3528
0.316105,2.28442,2.53101,2.6236,2.67201,2.70177,2.72191,2.73645,2.74743,2.75603
0.337451,3.81009,5.59021,6.96139,8.07793,9.01056,9.80305,10.4855,11.0796,11.6017
0.415315,6.56115,10.8101,13.8625,16.0372,17.6166,18.7947,19.697,20.4049,20.9721
0.319359,6.18419,9.99933,12.2407,13.6253,14.5466,15.1993,15.6848,16.0598,16.3581
0.340233,7.58575,11.8149,14.0869,15.472,16.4057,17.0797,17.5901,17.9907,18.3136
0.330703,8.01871,12.0194,14.11,15.3982,16.2765,16.9153,17.4014,17.784,18.0929
0.316523,8.17525,12.0203,14.0681,15.3553,16.2431,16.8933,17.3904,17.7827,18.1004
0.428815,11.3038,16.387,19.1672,20.9431,22.1792,23.0899,23.789,24.3425,24.7918
0.327069,9.06912,13.136,15.3789,16.8069,17.7957,18.5206,19.0748,19.512,19.8658
0.413875,11.2411,15.8384,18.2901,19.8185,20.8626,21.6212,22.1973,22.6498,23.0145
0.332151,9.46373,13.5416,15.8142,17.27,18.2834,19.0299,19.6027,20.0563,20.4243
0.340305,9.79917,13.9695,16.282,17.7536,18.7721,19.5188,20.0895,20.5399,20.9044
0.436252,12.6462,17.8874,20.7481,22.549,23.7865,24.689,25.3763,25.9171,26.3538
0.330903,9.45672,13.2429,15.2945,16.5834,17.4688,18.1146,18.6067,18.994,19.3069
0.350374,10.5596,15.1275,17.7108,19.3751,20.5373,21.3949,22.0538,22.576,22.9999
0.32249,9.62063,13.5565,15.6938,17.0324,17.9483,18.614,19.1197,19.5166,19.8366
0.339575,9.54367,13.2242,15.2191,16.4758,17.3416,17.9749,18.4584,18.8398,19.1483
0.347034,10.2663,14.5683,16.9839,18.5315,19.6075,20.3987,21.0048,21.484,21.8723
0.351548,10.9557,15.7911,18.5342,20.2965,21.5228,22.425,23.1163,23.6629,24.1059
0.32215,9.64074,13.4249,15.4242,16.6551,17.488,18.0889,18.5427,18.8976,19.1826
0.390249,12.5165,18.0282,21.175,23.2188,24.6559,25.7226,26.5461,27.2013,27.735
0.340043,11.784,17.2205,20.3073,22.2867,23.6607,24.6691,25.4401,26.0485,26.5407
0.429976,15.4151,22.2379,25.9669,28.3053,29.9068,31.0719,31.9573,32.6531,33.2142
0.330706,11.7726,16.6442,19.2507,20.8757,21.9868,22.7951,23.4096,23.8928,24.2826
0.334461,12.0358,17.0302,19.7617,21.4921,22.6883,23.5651,24.2356,24.7649,25.1935
0.338233,12.6396,18.1268,21.2107,23.1908,24.5702,25.5861,26.3655,26.9823,27.4825
0.324594,12.5131,17.9736,21.0154,22.9504,24.2883,25.2681,26.0164,26.6064,27.0836
0.34141,13.3488,19.0614,22.2054,24.1931,25.5631,26.5645,27.3286,27.9307,28.4175
0.369123,14.8339,21.2222,24.7543,26.996,28.5455,29.6807,30.5482,31.2328,31.7867
0.342782,14.1301,20.2261,23.5978,25.7377,27.2165,28.2996,29.127,29.7798,30.3079
0.347505,14.0444,19.7809,22.8864,24.8348,26.1715,27.1457,27.8872,28.4706,28.9415
0.338711,13.9897,19.8818,23.1525,25.2381,26.685,27.7479,28.5619,29.2053,29.7267
0.338618,14.3459,20.5179,23.9664,26.1677,27.6942,28.8147,29.6721,30.3492,30.8975
0.331245,12.3385,16.6586,18.8593,20.192,21.0852,21.7255,22.207,22.5823,22.8829
0.334296,12.8709,18.0511,20.9779,22.8749,24.208,25.1974,25.9613,26.5691,27.0643
0.350021,13.882,19.8454,23.26,25.4684,27.0114,28.1493,29.0226,29.7138,30.2743
0.379574,15.1738,21.4744,24.9156,27.0685,28.5388,29.6055,30.4144,31.0488,31.5595
0.365542,15.2368,21.7988,25.4455,27.7635,29.3676,30.5441,31.4441,32.1549,32.7306
0.389337,16.5214,23.529,27.3683,29.7875,31.4509,32.6648,33.5895,34.3173,34.9051
0.347909,15.4794,22.2903,26.0928,28.5195,30.2031,31.4398,32.3868,33.1352,33.7416
0.392702,16.3751,22.8161,26.2553,28.3973,29.8603,30.9232,31.7305,32.3645,32.8757
0.354375,15.9933,23.1558,27.2764,29.9624,31.8538,33.2583,34.3426,35.2052,35.9078
0.335921,15.6975,22.6409,26.4987,28.9401,30.6201,31.8453,32.7778,33.511,34.1026
0.411485,19.2233,27.3058,31.6818,34.4208,36.2968,37.6623,38.7009,39.5176,40.1767
0.338826,15.7811,22.2952,25.8435,28.082,29.6248,30.7532,31.6146,32.2939,32.8433
0.34212,16.7948,24.2073,28.3951,31.0911,32.9724,34.3599,35.4255,36.2695,36.9545
0.394845,19.0642,26.9135,31.1491,33.7928,35.5979,36.9082,37.9022,38.682,39.31
0.33314,16.8203,24.138,28.2342,30.8573,32.6824,34.0263,35.0573,35.8735,36.5357
0.346728,16.2861,22.5129,25.7905,27.8121,29.1831,30.1739,30.9232,31.5097,31.9813
0.347254,16.7803,23.8191,27.7982,30.3717,32.1761,33.5126,34.5427,35.3612,36.0272
0.386482,18.937,26.9289,31.3742,34.1972,36.1457,37.5703,38.6566,39.512,40.203
0.356643,18.8053,27.3595,32.2291,35.3626,37.546,39.154,40.3875,41.3636,42.1553
0.39709,20.3748,28.7559,33.2375,36.0162,37.9057,39.2735,40.3093,41.1209,41.7738
0.343553,18.3977,26.3992,30.8726,33.7388,35.7352,37.2068,38.337,39.2323,39.9593
0.3874,21.0795,30.1029,35.0648,38.1995,40.3578,41.9337,43.1345,44.0798,44.8432
0.345801,18.9687,26.9767,31.366,34.1385,36.0492,37.4459,38.5117,39.3517,40.0308
0.382837,20.5907,28.8652,33.3125,36.0908,37.9916,39.374,40.4246,41.2501,41.9159
0.338024,18.8542,26.8267,31.2494,34.0669,36.02,37.4539,38.5515,39.4188,40.1213
0.335,19.2879,27.6339,32.2822,35.2415,37.2895,38.7906,39.9378,40.843,41.5754
0.336753,20.0649,28.859,33.7486,36.8559,39.0038,40.577,41.7788,42.7268,43.4937
0.358781,21.0715,29.8796,34.6819,37.7051,39.784,41.3015,42.4581,43.3689,44.1047
0.362722,21.4744,30.5249,35.5279,38.7093,40.9122,42.5285,43.7651,44.7418,45.5328
0.34533,20.2031,28.4898,33.0131,35.8633,37.8236,39.2544,40.3445,41.2027,41.8958
0.349638,19.0641,26.1381,29.8503,32.139,33.6916,34.8141,35.6636,36.3288,36.8639
0.381707,22.3609,32.0445,37.6075,41.2351,43.7913,45.6907,47.1582,48.3261,49.2779
0.344575,20.238,28.8451,33.6306,36.6646,38.7557,40.2827,41.4461,42.3616,43.1006
0.338042,20.7943,30.0067,35.1858,38.496,40.7931,42.4804,43.7722,44.7931,45.6202
0.334868,20.9225,29.9134,34.829,37.9173,40.0358,41.5788,42.7527,43.6755,44.4202
