0.869621,0.980614,1.02419,1.04746,1.06194,1.07181,1.07898,1.08442,1.08869,1.09213
0.754791,1.20974,1.47149,1.64032,1.75806,1.84478,1.91131,1.96395,2.00663,2.04194
0.594198,1.25027,1.64157,1.88352,2.04445,2.15821,2.24251,2.30733,2.35865,2.40025
0.595727,1.53762,2.06897,2.37408,2.56741,2.6999,2.79611,2.86904,2.92621,2.97221
0.529921,1.66755,2.30588,2.66875,2.89939,3.05853,3.17491,3.26371,3.33371,3.3903
1.22846,4.61031,6.47368,7.51683,8.17636,8.63018,8.9614,9.21372,9.41233,9.57271
0.603213,2.49856,3.44588,3.9531,4.26734,4.48103,4.63579,4.75304,4.84496,4.91895
0.547054,2.61855,3.68041,4.26789,4.64069,4.89849,5.08748,5.23198,5.34606,5.43842
0.505914,2.7327,3.85707,4.47414,4.86283,5.12987,5.32457,5.47277,5.58933,5.6834
0.482653,2.60369,3.50856,3.97009,4.24968,4.4372,4.5717,4.6729,4.7518,4.81504
0.53539,3.36095,4.75569,5.54888,6.06391,6.4261,6.69495,6.90253,7.06769,7.20224
0.474823,3.34736,4.76764,5.55238,6.04666,6.38544,6.6317,6.81861,6.96523,7.08328
0.48182,3.59409,5.02297,5.78102,6.249,6.56645,6.79593,6.96956,7.10553,7.21491
0.80494,6.59796,9.32487,10.8141,11.754,12.402,12.876,13.2379,13.5234,13.7543
0.483917,4.27767,6.03834,6.9919,7.58923,7.99834,8.29599,8.52224,8.69999,8.84333
0.52969,5.07403,7.189,8.33984,9.06314,9.5598,9.92192,10.1976,10.4146,10.5898
0.536989,5.35465,7.48195,8.61258,9.31363,9.79079,10.1365,10.3986,10.604,10.7694
0.527323,5.56708,7.80898,9.02278,9.7857,10.3101,10.6929,10.9846,11.2144,11.4001
0.488064,5.41594,7.59559,8.77534,9.51524,10.0226,10.392,10.6731,10.8941,11.0724
0.505273,5.51901,7.56246,8.63611,9.2988,9.74874,10.0743,10.3207,10.5138,10.6692
0.839774,9.82208,13.7458,15.9045,17.2745,18.2222,18.9169,19.4481,19.8675,20.2071
0.467862,5.44405,7.49317,8.58377,9.26027,9.72057,10.0539,10.3064,10.5042,10.6634
0.488241,5.7066,7.85382,9.01474,9.74416,10.2455,10.6114,10.8903,11.1101,11.2876
0.502107,6.48057,9.19586,10.7176,11.6893,12.3629,12.857,13.2349,13.5332,13.7746
0.659849,8.13377,11.0187,12.4833,13.3637,13.95,14.3681,14.6811,14.9243,15.1186
0.593486,8.04005,11.32,13.1458,14.3153,15.1305,15.7319,16.1943,16.5609,16.8588
0.450845,5.4331,7.15048,7.98985,8.48508,8.81109,9.04167,9.21325,9.34585,9.45136
0.451969,6.25025,8.83608,10.325,11.302,11.9948,12.5124,12.9141,13.2352,13.4977
0.461993,6.85666,9.71897,11.2867,12.2665,12.9337,13.4162,13.7808,14.0658,14.2945
0.462476,7.58812,10.9326,12.7818,13.9487,14.7514,15.3372,15.7838,16.1354,16.4195
0.466222,8.15329,11.6521,13.5298,14.6952,15.4882,16.0626,16.4977,16.8388,17.1133
0.48168,8.75678,12.3643,14.2733,15.4548,16.2586,16.8412,17.2829,17.6294,17.9084
0.496594,9.43816,13.3152,15.3913,16.6885,17.5768,18.2236,18.7156,19.1025,19.4147
0.461107,9.04498,12.7082,14.669,15.8926,16.7292,17.3374,17.7995,18.1624,18.455
0.50447,10.0398,13.9955,16.0997,17.408,18.3004,18.948,19.4395,19.8252,20.1359
0.465614,9.59003,13.4945,15.6319,16.9849,17.9191,18.6032,19.1258,19.5381,19.8718
0.473387,10.0604,14.1343,16.3345,17.7095,18.6494,19.3321,19.8503,20.257,20.5847
0.492668,10.6907,14.9553,17.2413,18.6655,19.638,20.3443,20.8805,21.3015,21.6409
0.592759,11.6344,15.5658,17.5531,18.7546,19.56,20.1376,20.5722,20.9111,21.1828
0.475643,10.1234,14.2547,16.6058,18.1355,19.2129,20.0135,20.6322,21.1247,21.5261
0.587799,12.0375,16.6014,19.0532,20.5782,21.6159,22.3669,22.9351,23.3798,23.7373
0.496714,10.9179,15.4718,18.0162,19.6386,20.763,21.5883,22.2199,22.7189,23.1231
0.59495,14.0184,20.0141,23.3014,25.363,26.7734,27.7981,28.576,29.1863,29.678
0.480093,11.645,16.4703,19.0591,20.6689,21.7666,22.563,23.1673,23.6416,24.0238
0.502354,12.277,17.0979,19.6275,21.1851,22.2411,23.0044,23.5819,24.0341,24.3978
0.501985,12.2492,16.9521,19.4426,20.9905,22.0474,22.8153,23.3987,23.8571,24.2267
0.527096,13.259,18.5175,21.3645,23.1538,24.3829,25.2794,25.9622,26.4995,26.9334
0.550206,13.4855,18.4935,21.1165,22.7296,23.8212,24.6088,25.2038,25.6691,26.0429
0.476339,11.4838,15.816,18.1607,19.638,20.6558,21.4002,21.9685,22.4168,22.7794
0.663118,17.7786,25.4932,29.87,32.6837,34.642,36.0825,37.1861,38.0584,38.765
0.464084,12.8965,18.3741,21.3627,23.2318,24.5083,25.4346,26.1371,26.6881,27.1317
0.543365,16.0692,22.9686,26.7092,29.047,30.6456,31.8078,32.6909,33.3846,33.944
0.473864,12.5761,17.0779,19.3809,20.7848,21.7318,22.4142,22.9296,23.3326,23.6566
0.481204,14.0262,19.9237,23.2426,25.3833,26.8812,27.9886,28.8409,29.5171,30.0668
0.609955,18.9498,27.0774,31.5338,34.3299,36.242,37.6298,38.682,39.5069,40.1706
0.523942,16.7899,23.7958,27.5535,29.889,31.4802,32.634,33.5091,34.1956,34.7486
0.463835,14.2685,19.735,22.6081,24.3847,25.5936,26.4702,27.1351,27.6569,28.0773
0.530726,15.0978,20.3345,23.0298,24.6799,25.7955,26.6004,27.2087,27.6847,28.0672
0.560775,17.4582,24.6762,28.7551,31.3891,33.2324,34.5949,35.6433,36.4749,37.1508
0.481196,15.6217,22.2073,25.8469,28.1429,29.7191,30.8666,31.7387,32.4237,32.9758
0.465817,15.793,22.3889,25.9405,28.147,29.6485,30.7358,31.5593,32.2048,32.7242
0.459446,16.4861,23.5246,27.3492,29.7486,31.3948,32.5947,33.5083,34.2272,34.8078
0.525883,18.0794,25.2223,29.0426,31.4299,33.0656,34.2571,35.1641,35.8777,36.4539
0.457609,16.0795,22.4505,25.8583,27.9813,29.4304,30.4824,31.2807,31.9072,32.4118
0.573415,21.1939,30.0174,34.8503,37.9019,40.0039,41.5398,42.7113,43.6342,44.3802
0.608204,22.4697,31.4802,36.3078,39.3134,41.3637,42.8515,43.9803,44.8659,45.5792
0.476449,15.8838,21.5114,24.4401,26.2438,27.4681,28.3543,29.0257,29.552,29.9757
0.572421,21.1638,30.1821,35.3239,38.6569,40.9942,42.7242,44.0565,45.114,45.9738
0.477403,18.6569,26.6749,31.0751,33.8314,35.7133,37.0775,38.1109,38.9204,39.5714
0.465596,18.0827,25.223,28.9461,31.2207,32.7533,33.8561,34.6876,35.3372,35.8586
0.583834,23.6768,33.4622,38.7828,42.139,44.4536,46.148,47.4426,48.4642,49.2911
0.557664,22.7334,31.9599,36.9435,40.067,42.2083,43.7674,44.9532,45.8854,46.6375
0.474889,18.8674,26.2688,30.2553,32.7541,34.4682,35.7175,36.6686,37.4169,38.0212
0.527937,22.0978,31.2936,36.3538,39.5546,41.7606,43.3728,44.6023,45.5708,46.3534
0.478286,19.8338,27.8984,32.2958,35.0646,36.9683,38.3576,39.4162,40.2498,40.9231
0.608175,26.4704,37.5388,43.5701,47.3548,49.9483,51.8358,53.2706,54.398,55.3072
0.468984,18.5017,25.1329,28.5429,30.6225,32.0241,33.0332,33.7946,34.3896,34.8674
0.518724,20.2384,27.779,31.8381,34.3901,36.1464,37.43,38.4094,39.1815,39.8059
0.466975,19.1648,27.0734,31.5137,34.3588,36.3365,37.7904,38.9041,39.7843,40.4974
0.555404,24.5619,35.2603,41.2057,44.9614,47.5413,49.4204,50.8492,51.9718,52.877
0.53554,24.1497,34.2775,39.7286,43.1184,45.4284,47.1034,48.3737,49.3702,50.1728
0.49558,22.1724,31.284,36.2435,39.3729,41.5312,43.1112,44.3183,45.2708,46.0418
0.571127,26.8191,38.0824,44.202,48.0394,50.6682,52.5806,54.0338,55.1753,56.0954
0.492703,23.2696,32.7427,37.8209,40.9859,43.1477,44.7181,45.9107,46.8473,47.6024
0.537944,26.3183,37.2276,43.1393,46.8496,49.3957,51.2514,52.6642,53.7756,54.6729
0.533692,26.9564,38.1444,44.1828,47.9586,50.5418,52.4201,53.8472,54.9682,55.872
0.465962,18.5753,24.5567,27.6113,29.4819,30.749,31.6653,32.3593,32.9032,33.3412
0.517944,23.2872,33.0806,38.7789,42.5266,45.1811,47.1601,48.6923,49.9136,50.91
0.67138,32.5033,47.0301,55.2836,60.5516,64.1891,66.8457,68.8686,70.4593,71.7424
0.505952,25.651,36.9449,43.1317,47.0026,49.6476,51.5683,53.0263,54.1708,55.0931
0.552803,28.8954,41.3379,48.0749,52.29,55.1774,57.2801,58.88,60.1386,61.1545
0.486374,25.8005,36.6557,42.5232,46.204,48.7309,50.5738,51.9775,53.0825,53.9749
0.475825,22.3176,30.0118,33.8743,36.2023,37.7597,38.8751,39.7134,40.3664,40.8894
0.466989,23.4813,32.9767,38.269,41.6702,44.0459,45.8008,47.1507,48.2215,49.0919
0.518441,26.3994,36.873,42.4857,45.9669,48.3304,50.0375,51.3271,52.3353,53.1448
0.523956,26.662,36.9976,42.4713,45.8557,48.1552,49.8197,51.0804,52.0686,52.864
0.500062,27.2187,38.8297,45.3013,49.4336,52.303,54.4124,56.0287,57.3068,58.3429
0.519695,28.0716,39.6677,45.9968,49.9791,52.7144,54.7086,56.2268,57.421,58.3849
0.48801,24.675,34.0234,38.9867,42.0698,44.1725,45.6989,46.8576,47.7672,48.5003
0.482997,25.5797,35.9516,41.6243,45.2032,47.6668,49.4659,50.8375,51.9176,52.7903
