0.678681,0.829347,0.895623,0.932898,0.956791,0.973411,0.985641,0.995016,1.00243,1.00845
0.26258,0.449571,0.561372,0.634601,0.686078,0.724185,0.753511,0.776769,0.795663,0.811312
0.156272,0.347183,0.466284,0.542005,0.593363,0.630198,0.657802,0.679217,0.696294,0.710219
0.137825,0.381832,0.533512,0.626483,0.688005,0.731462,0.763719,0.788588,0.808338,0.824398
0.209935,0.701595,1.00165,1.18135,1.29922,1.38225,1.44384,1.49134,1.52909,1.5598
0.0946625,0.369472,0.530414,0.62417,0.684919,0.727415,0.758798,0.78292,0.802039,0.817564
0.108949,0.475422,0.676698,0.790933,0.864216,0.915216,0.95276,0.981555,1.00434,1.02282
0.210879,1.1318,1.70594,2.06228,2.30468,2.48032,2.61345,2.71786,2.80193,2.87108
0.861794,5.03528,7.32937,8.61855,9.43635,9.99948,10.4103,10.7229,10.9687,11.1669
0.106301,0.700701,1.03513,1.23143,1.36083,1.45272,1.52142,1.57475,1.61738,1.65223
0.0733108,0.533863,0.789961,0.940021,1.03856,1.10821,1.16004,1.2001,1.23199,1.25798
0.0741213,0.574114,0.833928,0.980704,1.07487,1.14039,1.18859,1.22553,1.25474,1.27843
0.078335,0.697196,1.05045,1.2644,1.40817,1.51153,1.58945,1.6503,1.69915,1.73923
0.291505,2.70123,3.94125,4.63915,5.08467,5.3932,5.6193,5.79204,5.92826,6.03843
0.0580898,0.398909,0.50392,0.552293,0.580194,0.598374,0.611169,0.620668,0.627999,0.633831
0.0569139,0.472257,0.680138,0.81321,0.907557,0.978334,1.03351,1.07779,1.11412,1.14447
0.0706686,0.666301,0.987504,1.18292,1.31229,1.40345,1.47084,1.52252,1.56336,1.5964
0.0439666,0.46046,0.68426,0.814383,0.898247,0.95657,0.99943,1.03225,1.05819,1.0792
0.0539768,0.582537,0.840417,0.982404,1.07186,1.13341,1.17837,1.21266,1.23969,1.26155
0.0627426,0.710664,1.02116,1.19402,1.30446,1.38125,1.43778,1.48115,1.51549,1.54335
0.0997854,1.22536,1.78367,2.1021,2.30819,2.45252,2.55923,2.64133,2.70645,2.75936
0.053727,0.710127,1.03894,1.22661,1.3478,1.43247,1.49494,1.54292,1.58093,1.61178
0.0438046,0.620612,0.91065,1.07629,1.18331,1.25813,1.31338,1.35585,1.38951,1.41685
0.0510201,0.738074,1.06162,1.24042,1.35378,1.43207,1.48939,1.53316,1.56768,1.5956
0.0460793,0.765143,1.16208,1.40577,1.57123,1.69109,1.78198,1.85328,1.91072,1.958
0.0476465,0.743725,1.04831,1.20861,1.30679,1.37288,1.42034,1.45604,1.48385,1.50612
0.0519652,0.844378,1.20904,1.41489,1.54816,1.64179,1.71129,1.76497,1.80769,1.84253
0.0639797,1.12753,1.65731,1.96808,2.1726,2.31733,2.42509,2.50843,2.57478,2.62885
0.0621944,1.01305,1.40211,1.60592,1.73084,1.81511,1.87574,1.92145,1.95713,1.98576
0.0657006,1.28081,1.94762,2.36972,2.66308,2.8794,3.04573,3.17769,3.28497,3.37394
0.111795,2.46317,3.81373,4.6409,5.19265,5.58477,5.87697,6.10277,6.28232,6.42843
0.0733942,1.50657,2.14077,2.47188,2.67355,2.80905,2.90632,2.97954,3.03666,3.08246
0.0715081,1.52517,2.2085,2.59901,2.85445,3.03539,3.17054,3.27545,3.35929,3.42786
0.0728717,1.65166,2.43017,2.88428,3.18214,3.39242,3.54869,3.66934,3.76526,3.84333
0.0761941,1.69451,2.41902,2.81681,3.06758,3.2399,3.36554,3.46119,3.53642,3.59714
0.0769063,1.58265,2.1825,2.50165,2.70055,2.83661,2.93561,3.01092,3.07014,3.11795
0.0686089,1.65815,2.49942,3.02889,3.39503,3.66376,3.86951,4.03214,4.16393,4.2729
0.276369,6.60372,9.56417,11.2163,12.2588,12.973,13.4917,13.8848,14.1929,14.4407
0.0713861,1.28303,1.66049,1.84211,1.94918,2.01992,2.07019,2.10779,2.13698,2.16031
0.0677662,1.33216,1.8713,2.1911,2.40591,2.56083,2.67805,2.7699,2.84385,2.90469
0.067822,1.55179,2.33056,2.81578,3.1442,3.38006,3.55715,3.6948,3.80475,3.89453
0.0791691,1.90507,2.80558,3.31428,3.6356,3.85573,4.0156,4.13687,4.23195,4.3085
0.0618338,1.77087,2.76719,3.38462,3.80307,4.10562,4.33476,4.51443,4.65915,4.77823
0.0583142,1.74091,2.6353,3.14822,3.47847,3.70851,3.87783,4.00761,4.11023,4.1934
0.0553924,1.57847,2.26121,2.62585,2.85311,3.00856,3.12169,3.20775,3.27543,3.33007
0.0538299,1.52858,2.18147,2.54337,2.77549,2.9375,3.05713,3.14915,3.22213,3.28145
0.0540285,1.24349,1.63563,1.82976,1.9461,2.02362,2.07897,2.12047,2.15273,2.17853
0.0597955,1.5831,2.30323,2.74928,3.05655,3.28186,3.45439,3.59083,3.70148,3.79303
0.0440836,1.14001,1.60839,1.86545,2.02582,2.13471,2.21321,2.27237,2.3185,2.35545
0.0575612,1.37932,1.88992,2.16069,2.32843,2.44265,2.52552,2.58843,2.63784,2.67768
0.0367267,0.918448,1.29748,1.51223,1.65098,1.74816,1.82005,1.8754,1.91934,1.95507
0.04524,1.24602,1.82555,2.16508,2.38719,2.5435,2.65937,2.74865,2.81953,2.87715
0.0449663,0.951564,1.23142,1.36291,1.43872,1.48791,1.52238,1.54787,1.56747,1.58302
0.0534925,1.37739,2.0217,2.42702,2.70996,2.91983,3.0821,3.21146,3.31708,3.40498
0.0428322,1.28187,1.95451,2.36388,2.63445,2.82491,2.96559,3.07344,3.15861,3.22749
0.0802996,2.5599,3.81326,4.51279,4.95217,5.25256,5.47068,5.6362,5.76611,5.87079
0.0574042,1.93601,2.86384,3.38228,3.71314,3.94308,4.11238,4.24234,4.34528,4.42885
0.0583964,2.32245,3.63455,4.44434,4.99509,5.39441,5.69734,5.93504,6.12654,6.28411
0.0525517,1.8799,2.6593,3.06009,3.30297,3.46557,3.58193,3.66926,3.7372,3.79155
0.0619347,2.35998,3.45952,4.09855,4.5216,4.8237,5.0507,5.22768,5.36962,5.48603
0.0523146,1.82499,2.66175,3.16951,3.51438,3.76454,3.95443,4.10354,4.22373,4.32269
0.0499085,1.90436,2.85692,3.43167,3.81298,4.08317,4.28414,4.43926,4.56251,4.66275
0.237841,7.83861,10.7186,12.1742,13.0446,13.6222,14.0331,14.3403,14.5786,14.7689
0.0983321,3.54113,5.14114,6.08541,6.71503,7.16677,7.50738,7.77364,7.98764,8.16344
0.0423958,1.65423,2.45854,2.93408,3.24654,3.46687,3.6303,3.75621,3.85613,3.93731
0.0405004,1.82177,2.82957,3.45144,3.87032,4.17101,4.39717,4.57341,4.71459,4.83023
0.0458188,2.11348,3.16756,3.76351,4.14334,4.40602,4.59837,4.74525,4.86106,4.95472
0.0363022,1.71712,2.53927,3.00303,3.3015,3.51009,3.66426,3.7829,3.87707,3.95365
0.0345634,1.67994,2.48248,2.94366,3.24448,3.45651,3.61408,3.73582,3.8327,3.91164
0.0341836,1.6711,2.44418,2.88381,3.16807,3.36698,3.51396,3.62699,3.71661,3.7894
0.110445,5.88566,8.9099,10.7401,11.9694,12.8522,13.5171,14.0359,14.452,14.7932
0.0310885,1.34458,1.81692,2.05179,2.19173,2.28445,2.35035,2.39957,2.43773,2.46817
0.0775861,3.68986,5.39516,6.43424,7.14373,7.66144,8.0567,8.36868,8.62135,8.83021
0.0430582,2.13943,3.15801,3.75838,4.1514,4.42748,4.63155,4.78831,4.9124,5.01301
0.0498471,2.60896,3.88287,4.62861,5.11543,5.4577,5.7114,5.90696,6.06231,6.1887
0.0405352,2.30658,3.50998,4.23347,4.7149,5.05824,5.31546,5.51536,5.67519,5.80591
0.0524289,2.9124,4.25014,4.99143,5.46053,5.7838,6.02002,6.20013,6.34199,6.45661
0.0408837,2.30224,3.37573,3.99443,4.39917,4.68529,4.89851,5.06364,5.19534,5.30285
0.0392834,2.17271,3.14313,3.69244,4.04653,4.29377,4.47615,4.61622,4.72715,4.81717
0.0519154,3.07966,4.62684,5.56849,6.20376,6.66158,7.00727,7.27758,7.49475,7.67306
0.0335665,2.00939,2.99321,3.57333,3.95471,4.22413,4.42443,4.57912,4.70216,4.80235
0.0335134,2.09371,3.13927,3.75785,4.16576,4.45482,4.67037,4.83727,4.97034,5.07891
0.0326507,2.06253,3.06739,3.65393,4.03815,4.30936,4.51106,4.66693,4.79102,4.89214
0.0465514,1.66569,2.0296,2.1875,2.27579,2.3322,2.37137,2.40015,2.42219,2.43961
0.0603487,2.85984,4.27642,5.27165,6.0266,6.62277,7.1067,7.50783,7.84595,8.13493
0.0315294,1.78344,2.83631,3.54014,4.02989,4.38504,4.65218,4.85939,5.02431,5.1584
0.0315738,1.99504,3.15269,3.85644,4.31678,4.63896,4.87653,5.05885,5.20317,5.32027
0.0475843,3.22547,4.99908,6.03209,6.70235,7.17275,7.52151,7.79062,8.00469,8.17909
0.0633102,4.09897,5.98839,7.0132,7.6583,8.10292,8.42834,8.67697,8.87317,9.03197
0.0333187,2.27393,3.40075,4.06601,4.50976,4.82793,5.0675,5.2545,5.40456,5.52766
0.0357334,1.73388,2.24716,2.49042,2.63263,2.72588,2.7917,2.84062,2.8784,2.90846
0.0342121,1.89867,2.77251,3.32777,3.71892,4.01086,4.23755,4.41887,4.56727,4.69103
0.0844286,4.74989,6.88605,8.11891,8.91035,9.45722,9.85602,10.159,10.3966,10.5877
0.0415556,2.69913,4.161,5.07538,5.69711,6.14676,6.48711,6.75375,6.96835,7.14483
0.0420737,2.74412,4.0602,4.79676,5.26187,5.58117,5.81365,5.99036,6.12917,6.24107
0.0400033,2.53909,3.65205,4.26058,4.64507,4.91059,5.10521,5.25409,5.37171,5.467
0.0387704,2.54106,3.71636,4.39505,4.83978,5.1544,5.3889,5.57048,5.71527,5.83342
0.0385554,2.47877,3.60309,4.25125,4.67408,4.97177,5.19269,5.36313,5.49861,5.60888
0.0329068,2.04434,2.90858,3.38563,3.68761,3.89575,4.04784,4.16379,4.25512,4.3289
0.0326282,2.25157,3.39936,4.10816,4.59104,4.94159,5.20781,5.41693,5.58559,5.72449
