0.450853,0.53677,0.57318,0.593302,0.606068,0.614888,0.621347,0.626281,0.630173,0.633322
0.310767,0.523647,0.65068,0.734056,0.792801,0.836375,0.869966,0.896644,0.918341,0.93633
0.251891,0.547516,0.728172,0.841542,0.91774,0.972023,1.0125,1.04377,1.06862,1.08883
0.228822,0.631689,0.884138,1.03973,1.14305,1.21621,1.2706,1.3126,1.34598,1.37316
0.212025,0.711595,1.01621,1.19702,1.31465,1.39696,1.45771,1.50437,1.54132,1.5713
0.202735,0.798357,1.14692,1.34877,1.47907,1.57,1.63706,1.68856,1.72935,1.76245
0.229193,1.03394,1.4871,1.7461,1.91285,2.02915,2.1149,2.18075,2.2329,2.27522
0.223025,1.14047,1.64914,1.9414,2.13081,2.26358,2.36182,2.43746,2.4975,2.54631
0.191277,1.10177,1.59873,1.88301,2.06662,2.19493,2.28963,2.36239,2.42003,2.46683
0.179177,1.1422,1.65537,1.94701,2.13483,2.26586,2.36248,2.43667,2.49542,2.54311
0.202793,1.41983,2.05721,2.41882,2.65166,2.81413,2.93394,3.02594,3.09882,3.15797
0.265735,2.03643,2.96313,3.49389,3.83798,4.0792,4.25772,4.39517,4.50427,4.59297
0.171085,1.42394,2.06974,2.43679,2.67325,2.83821,2.95982,3.05316,3.12707,3.18704
0.169565,1.50604,2.18002,2.56159,2.8072,2.97856,3.10495,3.20201,3.27891,3.34133
0.166734,1.57673,2.28055,2.6799,2.93742,3.11732,3.25011,3.35216,3.43303,3.49871
0.164963,1.66526,2.41536,2.84338,3.12021,3.31395,3.45713,3.56725,3.65457,3.72552
0.163484,1.74839,2.53438,2.98167,3.27031,3.47196,3.62078,3.73512,3.82573,3.89929
0.160613,1.75169,2.49392,2.90403,3.16408,3.34368,3.47516,3.57556,3.65475,3.7188
0.167927,1.96218,2.84075,3.3458,3.67466,3.90604,4.07777,4.21031,4.31571,4.40154
0.161713,2.00155,2.90363,3.41803,3.74985,3.98143,4.15214,4.28317,4.38688,4.47101
0.161383,2.11878,3.08626,3.63999,3.99829,4.24907,4.4344,4.57696,4.69001,4.78187
0.165151,2.25688,3.27154,3.84684,4.21715,4.47545,4.66588,4.81209,4.92787,5.02184
0.159345,2.27656,3.29956,3.88036,4.2548,4.51631,4.7093,4.85759,4.9751,5.07051
0.157106,2.32829,3.37204,3.96604,4.34976,4.61814,4.81641,4.96887,5.08977,5.18797
0.167482,2.61318,3.80614,4.49026,4.93384,5.24473,5.4747,5.6517,5.79213,5.90627
0.158187,2.57688,3.75112,4.42098,4.85357,5.15588,5.37904,5.55053,5.68641,5.79674
0.156649,2.65373,3.85676,4.54062,4.98155,5.28947,5.51668,5.69123,5.82954,5.94183
0.156547,2.62365,3.72137,4.32165,4.70006,4.96041,5.1505,5.29538,5.40947,5.50165
0.156204,2.76603,4.00734,4.72321,5.19087,5.52079,5.76617,5.95586,6.10692,6.23007
0.154142,2.85207,4.14805,4.89069,5.37116,5.7071,5.95504,6.14549,6.29634,6.41875
0.155353,3.02485,4.41974,5.21877,5.73553,6.09694,6.36384,6.56902,6.73165,6.86374
0.153673,3.12057,4.55596,5.37365,5.90106,6.2694,6.5412,6.75,6.91544,7.04976
0.15364,3.23086,4.697,5.52499,6.05664,6.42686,6.6995,6.90864,7.07416,7.20841
0.15343,3.27238,4.72252,5.53851,6.06249,6.42764,6.69675,6.90333,7.06693,7.1997
0.164809,3.59368,5.19222,6.10049,6.68735,7.09795,7.40139,7.6348,7.81991,7.97031
0.152183,3.37802,4.87515,5.72536,6.2738,6.65691,6.93965,7.15687,7.32898,7.46872
0.145254,3.35621,4.87917,5.75156,6.31662,6.71232,7.00484,7.22987,7.40834,7.55335
0.151193,3.6616,5.34047,6.29631,6.91191,7.34112,7.65736,7.90001,8.09205,8.24781
0.153074,3.7709,5.46465,6.4219,7.03729,7.46633,7.78262,8.02546,8.2178,8.37391
0.203942,5.26766,7.71968,9.13655,10.0604,10.7107,11.1934,11.5658,11.8619,12.103
0.15136,3.94703,5.71522,6.71156,7.35015,7.79414,8.12063,8.37077,8.56853,8.72879
0.151033,4.00527,5.78445,6.78874,7.43449,7.88482,8.21686,8.47184,8.67381,8.83776
0.159724,4.33646,6.28012,7.38668,8.10188,8.60227,8.97203,9.25642,9.48194,9.66515
0.151877,4.19978,6.08399,7.15792,7.85201,8.33747,8.69608,8.97179,9.19038,9.36792
0.151406,4.28964,6.21617,7.31066,8.01589,8.50802,8.87091,9.14954,9.3702,9.54927
0.183177,5.27138,7.61526,8.93983,9.79106,10.3842,10.8212,11.1565,11.422,11.6373
0.150151,4.40959,6.38166,7.50288,8.22664,8.7326,9.10625,9.39351,9.62124,9.80621
0.150088,4.48067,6.48168,7.61859,8.35181,8.86394,9.24185,9.5322,9.76225,9.94901
0.149451,4.57725,6.64244,7.82041,8.58163,9.11398,9.50717,9.80946,10.0491,10.2437
0.150423,4.74083,6.90024,8.1343,8.93237,9.49069,9.90317,10.2203,10.4718,10.676
0.150382,4.76181,6.89708,8.11233,8.89726,9.4462,9.85173,10.1636,10.4109,10.6118
0.200817,6.57008,9.57271,11.2935,12.4085,13.1895,13.7671,14.2115,14.564,14.8504
0.147814,4.89976,7.09658,8.33824,9.13562,9.69081,10.0995,10.413,10.661,10.8621
0.151026,5.06564,7.325,8.6054,9.43054,10.0068,10.4321,10.759,11.0181,11.2285
0.149994,5.13243,7.43589,8.74631,9.59227,10.1836,10.6201,10.9556,11.2216,11.4375
0.149262,5.20044,7.54189,8.87591,9.73763,10.3401,10.7851,11.1271,11.3982,11.6184
0.146441,5.2225,7.58976,8.94025,9.81287,10.423,10.8737,11.2201,11.4946,11.7176
0.148963,5.42115,7.86808,9.25643,10.1503,10.7737,11.2333,11.5861,11.8655,12.0922
0.149154,5.49129,7.9606,9.36544,10.2728,10.9074,11.3762,11.7368,12.0227,12.255
0.147797,5.50972,7.98726,9.39953,10.3125,10.9513,11.4233,11.7863,12.0741,12.3079
0.149251,5.68805,8.26822,9.74243,10.696,11.3632,11.8561,12.2352,12.5358,12.7799
0.148482,5.78285,8.41,9.90702,10.8733,11.5484,12.0467,12.4296,12.7329,12.9793
0.189827,7.50476,10.9104,12.8538,14.1107,14.9903,15.6405,16.1407,16.5374,16.8597
0.149446,5.95206,8.61769,10.1292,11.1027,11.7822,12.2833,12.6681,12.9729,13.2204
0.148817,5.97411,8.61827,10.1092,11.0664,11.7329,12.2236,12.6001,12.898,13.1396
0.148623,6.08395,8.81416,10.3691,11.374,12.077,12.5964,12.9958,13.3126,13.57
0.149448,6.14576,8.86814,10.4071,11.3965,12.086,12.5939,12.9837,13.2922,13.5425
0.148064,6.28572,9.15479,10.8016,11.8701,12.6195,13.1741,13.6013,13.9403,14.2159
0.194319,8.40378,12.2086,14.3673,15.7559,16.7237,17.4365,17.9833,18.4161,18.7671
0.148149,6.49217,9.42774,11.099,12.1786,12.9337,13.4917,13.9208,14.2612,14.5377
0.146563,6.4867,9.40054,11.0553,12.1223,12.8675,13.4174,13.84,14.1747,14.4465
0.146843,6.27654,8.88399,10.3078,11.2044,11.8208,12.2705,12.6131,12.8828,13.1005
0.146612,6.53074,9.48895,11.2074,12.3351,13.1331,13.7279,14.1886,14.5559,14.8557
0.148,6.82253,9.9645,11.7695,12.9374,13.7536,14.3556,14.8178,15.1837,15.4804
0.149619,6.93849,10.0663,11.8385,12.9778,13.7718,14.3568,14.8058,15.1613,15.4497
0.147131,6.94947,10.1,11.8945,13.0538,13.8647,14.4638,14.9246,15.2899,15.5868
0.147391,7.11779,10.3729,12.2341,13.4387,14.2821,14.9055,15.3851,15.7654,16.0745
0.146782,7.24264,10.5386,12.4081,13.611,14.4496,15.0674,15.5415,15.9167,16.2211
0.148047,7.36287,10.6623,12.5243,13.7206,14.5542,15.1685,15.6399,16.0132,16.316
0.146785,7.32558,10.5923,12.4454,13.6412,14.4772,15.0947,15.5695,15.946,16.2518
0.14643,7.39169,10.7163,12.615,13.8442,14.705,15.3415,15.8312,16.2196,16.5353
0.147843,7.5743,10.9869,12.9292,14.182,15.0568,15.7021,16.1977,16.5903,16.9089
0.146236,7.59455,11.0234,12.9762,14.237,15.1183,15.769,16.2691,16.6656,16.9876
0.172229,9.14229,13.3128,15.6958,17.237,18.3153,19.1121,19.7248,20.2107,20.6053
0.147546,7.68814,11.0493,12.935,14.1424,14.9819,15.5994,16.0727,16.4471,16.7506
0.146611,7.78688,11.2815,13.2787,14.5727,15.4797,16.1508,16.6676,17.0777,17.4112
0.147872,8.04589,11.6818,13.7468,15.0757,16.0019,16.6841,17.2074,17.6214,17.9572
0.148238,8.20789,11.9246,14.0367,15.3983,16.349,17.0505,17.5894,18.0164,18.3632
0.185996,10.5088,15.292,18.0153,19.7732,21.0018,21.9088,22.6059,23.1584,23.6071
0.149523,8.42184,12.1691,14.2844,15.6439,16.5914,17.2896,17.8255,18.2498,18.5941
0.146072,8.24935,11.9265,14.0189,15.3714,16.318,17.0177,17.556,17.9831,18.3301
0.14573,8.31349,12.0269,14.1363,15.4961,16.4454,17.1455,17.6831,18.1089,18.4544
0.142317,8.18414,11.8379,13.912,15.2485,16.1815,16.8697,17.3983,17.817,18.1569
0.180329,10.6329,15.4745,18.2432,20.0348,21.2886,22.2153,22.9279,23.493,23.9522
0.147749,8.7502,12.6758,14.8993,16.3297,17.327,18.0619,18.626,19.0726,19.4349
0.14702,8.76022,12.6958,14.9376,16.3869,17.4011,18.1507,18.7274,19.1849,19.5566
0.147032,8.79452,12.703,14.9123,16.3323,17.3216,18.0502,18.6092,19.0516,19.4105
0.180406,11.0239,16.0184,18.8714,20.7174,22.0096,22.9647,23.6995,24.2824,24.756
0.145235,8.95694,12.8814,15.0557,16.4329,17.3825,18.0764,18.6056,19.0224,19.3591
0.143792,8.94884,12.9198,15.168,16.6186,17.6332,18.3833,18.9605,19.4185,19.7909
