0.5858,0.712597,0.768009,0.799077,0.818955,0.832765,0.842919,0.850697,0.856848,0.861832
0.410807,0.684429,0.842217,0.943417,1.01359,1.06503,1.10433,1.13533,1.1604,1.18109
0.357357,0.775059,1.03021,1.19097,1.29952,1.37717,1.43527,1.48029,1.51617,1.54541
0.251469,0.463906,0.538124,0.572574,0.59209,0.60458,0.613241,0.619593,0.624449,0.628281
0.236251,0.672874,0.970404,1.18392,1.34595,1.47361,1.57699,1.66249,1.73442,1.79579
0.245267,0.946458,1.45191,1.78162,2.00442,2.16213,2.27847,2.36731,2.4371,2.49324
0.254536,1.22329,1.87375,2.25738,2.50214,2.67051,2.79316,2.88645,2.95981,3.01901
0.265976,1.50269,2.26157,2.68885,2.95971,3.14691,3.2842,3.38929,3.47236,3.5397
0.262891,1.68591,2.50058,2.95555,3.24622,3.44849,3.59754,3.71199,3.80266,3.87627
0.253021,1.80044,2.64031,3.10866,3.40848,3.61718,3.7709,3.88885,3.98222,4.05797
0.256395,1.98407,2.88292,3.38456,3.70593,3.92962,4.09432,4.22068,4.32067,4.40179
0.238559,2.01374,2.93134,3.45104,3.78665,4.02141,4.19487,4.32827,4.43405,4.52
0.405042,3.6178,5.21222,6.10388,6.67429,7.07056,7.36186,7.58501,7.76142,7.90438
0.363606,2.9962,4.08411,4.65524,5.00881,5.24956,5.42417,5.55664,5.6606,5.74437
0.267984,2.3794,3.39404,3.99414,4.3945,4.68136,4.89721,5.0656,5.20066,5.31142
0.248362,2.52883,3.74311,4.46936,4.94874,5.28743,5.53889,5.73275,5.88664,6.01172
0.228238,2.43626,3.53321,4.14855,4.53897,4.80809,5.0047,5.15459,5.27263,5.368
0.231831,2.71513,3.98769,4.71757,5.19031,5.52168,5.76698,5.95594,6.10602,6.2281
0.22958,2.93139,4.3226,5.11775,5.63111,5.98974,6.25437,6.45765,6.61867,6.74937
0.23256,3.16184,4.63296,5.46323,5.99593,6.36672,6.63967,6.84901,7.01465,7.14899
0.349017,5.01533,7.33544,8.65243,9.5026,10.0972,10.5366,10.8746,11.1427,11.3605
0.229484,3.30093,4.71879,5.5013,5.99829,6.34209,6.59412,6.78679,6.93888,7.06199
0.250656,3.84161,5.58725,6.59204,7.24732,7.70887,8.05165,8.31634,8.5269,8.69841
0.246076,3.5165,4.90017,5.64871,6.11854,6.44095,6.67589,6.85471,6.99537,7.10889
0.235328,3.76553,5.51902,6.5603,7.25222,7.74573,8.1156,8.40317,8.63318,8.82135
0.353469,6.12545,9.04424,10.7335,11.8267,12.5897,13.1516,13.5823,13.9228,14.1986
0.268014,4.78501,7.00597,8.27617,9.09748,9.67234,10.0974,10.4245,10.6841,10.8952
0.238097,4.06323,5.72925,6.63331,7.20144,7.59179,7.87659,8.09359,8.26442,8.40242
0.326646,6.12937,8.98424,10.6584,11.7628,12.5469,13.1327,13.587,13.9498,14.2461
0.226021,4.50777,6.63763,7.86767,8.6654,9.22361,9.6357,9.95224,10.2029,10.4063
0.225824,4.54224,6.53614,7.63574,8.33038,8.80866,9.158,9.42433,9.63411,9.80363
0.340265,6.97609,9.99105,11.6654,12.7331,13.4743,14.0192,14.4368,14.7671,15.0349
0.247614,5.38171,7.85014,9.27446,10.2038,10.8584,11.3444,11.7197,12.0181,12.2611
0.310999,6.14424,8.51015,9.77014,10.5532,11.0869,11.474,11.7675,11.9978,12.1832
0.327084,6.64082,9.51261,11.1952,12.3097,13.1043,13.7001,14.1637,14.5347,14.8385
0.2293,5.04593,7.4241,8.83005,9.75389,10.4054,10.8888,11.2615,11.5573,11.7977
0.229605,5.08025,7.39284,8.72102,9.58005,10.1807,10.6243,10.9653,11.2356,11.4552
0.229024,5.111,7.32328,8.54827,9.32372,9.85834,10.2492,10.5473,10.7822,10.9721
0.234261,5.65792,8.30006,9.82496,10.8179,11.5163,12.0344,12.4342,12.752,13.0107
0.230314,5.25116,7.31986,8.40414,9.06916,9.51812,9.84141,10.0852,10.2757,10.4285
0.232223,5.86452,8.58902,10.1877,11.2459,12,12.5653,13.0051,13.3571,13.6453
0.221282,5.9928,8.86575,10.5319,11.6147,12.373,12.933,13.3631,13.7037,13.98
0.221265,6.2677,9.21489,10.8849,11.9558,12.7003,13.2477,13.6672,13.9988,14.2676
0.22609,6.66597,9.78121,11.5494,12.6892,13.4855,14.0735,14.5256,14.884,15.1752
0.297275,9.01311,13.1601,15.5063,17.0169,18.0712,18.849,19.4465,19.9199,20.3041
0.306113,8.76456,12.3727,14.3364,15.5751,16.4285,17.0524,17.5285,17.9038,18.2073
0.228007,6.98872,10.2003,12.0745,13.3079,14.182,14.8341,15.3394,15.7424,16.0714
0.27207,8.73064,12.7887,15.116,16.619,17.6676,18.4401,19.0325,19.5011,19.8809
0.223361,7.22967,10.4784,12.3077,13.4796,14.2945,14.894,15.3537,15.7173,16.0122
0.327372,10.7487,15.5674,18.3015,20.066,21.2999,22.2116,22.9129,23.469,23.9209
0.22626,7.56756,11.0039,12.9772,14.2596,15.1603,15.8277,16.342,16.7506,17.0829
0.229542,7.95636,11.6093,13.6969,15.0453,15.9872,16.6821,17.2157,17.6384,17.9814
0.295602,10.4266,15.1199,17.7645,19.4593,20.6378,21.5046,22.169,22.6945,23.1205
0.228366,8.23985,11.9731,14.0969,15.4689,16.4289,17.1383,17.6841,18.117,18.4688
0.26946,9.94536,14.4486,17.0056,18.6538,19.8044,20.6531,21.3049,21.8211,22.2401
0.239923,8.1396,11.3873,13.1479,14.2552,15.0166,15.5725,15.9963,16.3301,16.5998
0.257713,8.64818,12.1672,14.1274,15.3819,16.2546,16.8971,17.3899,17.78,18.0964
0.254555,9.21124,13.4756,15.995,17.6591,18.8398,19.7207,20.403,20.947,21.3909
0.237411,8.96844,13.1302,15.5113,17.0422,18.1065,18.8883,19.4865,19.9589,20.3413
0.317522,12.3484,18.0101,21.2101,23.2615,24.6884,25.7384,26.5435,27.1806,27.6973
0.231516,9.26913,13.526,15.9433,17.502,18.5912,19.3955,20.0138,20.5039,20.9021
0.230411,9.36948,13.6134,16.0137,17.5582,18.6357,19.4303,20.0404,20.5236,20.9158
0.236167,9.6776,13.9928,16.4259,17.9895,19.0793,19.8825,20.4989,20.9871,21.3831
0.304853,12.7936,18.5695,21.8545,23.9759,25.459,26.5543,27.3964,28.0639,28.606
0.293529,12.0876,17.3696,20.3509,22.2693,23.6079,24.5953,25.3538,25.9546,26.4424
0.273231,10.6354,14.9701,17.3603,18.8781,19.9278,20.6973,21.2855,21.7498,22.1257
0.288544,9.60553,13.1571,15.1223,16.3808,17.2579,17.905,18.4022,18.7963,19.1165
0.246404,9.51789,14.1615,17.0501,19.0185,20.4439,21.5228,22.3676,23.0467,23.6043
0.225115,9.45623,14.1758,16.9467,18.7405,19.989,20.9056,21.6061,22.1585,22.605
0.289255,11.7638,16.7606,19.4071,21.0314,22.1284,22.9191,23.5162,23.983,24.3581
0.228143,9.41198,13.4501,15.6804,17.1035,18.0937,18.8237,19.3844,19.829,20.1901
0.250008,10.8639,15.7926,18.6025,20.4223,21.6972,22.64,23.3654,23.9408,24.4082
0.229268,9.74207,13.9351,16.2698,17.7586,18.7907,19.5482,20.1278,20.5856,20.9563
0.232115,10.198,14.7484,17.3337,19.002,20.1679,21.0286,21.6902,22.2145,22.6403
0.227576,10.4698,15.3701,18.2135,20.0698,21.3766,22.3464,23.0946,23.6893,24.1734
0.304642,12.6582,17.6147,20.2491,21.8819,22.9927,23.7971,24.4066,24.8844,25.2689
0.236732,10.7845,15.8008,18.7669,20.7364,22.1419,23.1961,24.0164,24.6731,25.2108
0.273383,12.4169,18.0456,21.2752,23.3647,24.8251,25.9024,26.7295,27.3844,27.9156
0.251386,11.761,17.0527,20.0265,21.9237,23.2377,24.201,24.9374,25.5186,25.9889
0.237511,11.9844,17.7415,21.0746,23.245,24.7709,25.9023,26.7748,27.4682,28.0325
0.289999,14.6418,21.1565,24.7373,26.9941,28.5452,29.6764,30.5377,31.2154,31.7624
0.229773,11.6746,16.815,19.6848,21.523,22.8032,23.7468,24.4713,25.0454,25.5114
0.229515,11.6379,16.6334,19.3996,21.1592,22.3773,23.2705,23.9534,24.4925,24.9288
0.241693,11.9989,17.0233,19.8084,21.5835,22.8146,23.7188,24.4112,24.9584,25.4018
0.242843,12.4692,18.0352,21.2362,23.3193,24.7835,25.869,26.7059,27.3709,27.912
0.350641,18.3013,26.3721,30.8992,33.7858,35.7836,37.2472,38.3653,39.247,39.96
0.233811,12.4195,17.9477,21.0724,23.0811,24.4816,25.514,26.3068,26.9348,27.4445
0.23653,12.6638,18.2165,21.3214,23.3034,24.678,25.6872,26.4596,27.0698,27.564
0.23511,10.5964,14.2912,16.1931,17.3559,18.1414,18.7077,19.1356,19.4703,19.7392
0.23028,11.5551,16.7769,19.9114,22.0183,23.5352,24.6805,25.5763,26.2962,26.8875
0.237396,13.0763,19.4802,23.2679,25.7449,27.4826,28.7659,29.751,30.5305,31.1622
0.231738,13.0109,19.0294,22.3977,24.5329,26.0048,27.0805,27.9008,28.5472,29.0696
0.236052,13.4644,19.5223,22.8918,25.0375,26.5252,27.6181,28.4553,29.1173,29.654
0.272973,15.9138,23.0211,26.9862,29.5191,31.2783,32.5716,33.5625,34.346,34.9811
0.307031,17.5501,24.9869,29.0669,31.6494,33.432,34.7367,35.7331,36.5188,37.1545
0.241897,14.7873,21.722,25.7692,28.4297,30.3135,31.7177,32.805,33.6719,34.3792
0.237777,13.2938,18.4653,21.1723,22.8306,23.9487,24.7528,25.3585,25.8312,26.2102
0.229788,13.4654,19.3647,22.7529,24.9674,26.5322,27.6981,28.601,29.3212,29.9091
0.230018,13.4357,19.157,22.3328,24.3469,25.7357,26.7501,27.5232,28.1316,28.6228
0.227602,13.3808,19.2147,22.5227,24.6567,26.1484,27.2504,28.098,28.7703,29.3166
