0.326874,0.39951,0.43147,0.449447,0.460971,0.468987,0.474886,0.479409,0.482986,0.485887
0.189213,0.324973,0.40697,0.461057,0.499267,0.527656,0.549565,0.56698,0.581151,0.592907
0.193648,0.410319,0.53575,0.611895,0.662018,0.697229,0.723222,0.743157,0.75891,0.771663
0.178731,0.493416,0.696079,0.825007,0.912817,0.976209,1.02406,1.06145,1.09146,1.11607
0.156457,0.507176,0.713747,0.834146,0.911479,0.965067,1.00431,1.03427,1.05787,1.07694
0.109057,0.418245,0.599752,0.706305,0.775819,0.824724,0.861011,0.889013,0.911281,0.929415
0.148026,0.677315,0.996879,1.18806,1.3145,1.40425,1.47123,1.52312,1.56451,1.59829
0.0588871,0.304118,0.443019,0.522538,0.57368,0.609279,0.635469,0.655539,0.671407,0.684266
0.0513245,0.297717,0.4353,0.514913,0.566796,0.60332,0.630438,0.651375,0.668032,0.6816
0.0599389,0.391882,0.577911,0.686596,0.757807,0.808069,0.845439,0.874309,0.897283,0.915999
0.0704766,0.488521,0.70424,0.825099,0.902276,0.955807,0.99511,1.02519,1.04895,1.06819
0.0650434,0.482153,0.693268,0.812736,0.88979,0.94367,0.983484,1.01411,1.03841,1.05815
0.0617269,0.499414,0.720125,0.844519,0.92425,0.979673,1.02042,1.05162,1.07629,1.09627
0.0642188,0.565852,0.826603,0.978103,1.0773,1.14734,1.19946,1.23975,1.27184,1.298
0.0523035,0.488992,0.71054,0.837204,0.919086,0.976331,1.01859,1.05106,1.07679,1.09767
0.0568373,0.577028,0.848993,1.00807,1.11251,1.18636,1.24134,1.28388,1.31776,1.34539
0.0479263,0.303457,0.367525,0.395373,0.410935,0.420869,0.42776,0.43282,0.436693,0.439752
0.0910987,0.792269,1.17511,1.44272,1.64475,1.80368,1.93228,2.03861,2.12804,2.20433
0.0549808,0.578746,0.891911,1.0899,1.2222,1.31533,1.38383,1.43604,1.47703,1.50997
0.044102,0.514931,0.774903,0.922456,1.0153,1.07874,1.12476,1.15968,1.18709,1.20917
0.0460146,0.597564,0.898797,1.07067,1.18138,1.25881,1.31609,1.36023,1.3953,1.42385
0.0417782,0.583539,0.867022,1.0268,1.12943,1.20101,1.25381,1.29436,1.32649,1.35257
0.0390893,0.579799,0.855763,1.01217,1.11324,1.18403,1.23639,1.2767,1.30869,1.3347
0.0313,0.480677,0.700404,0.82379,0.903047,0.958293,0.99901,1.03026,1.05501,1.07509
0.0307944,0.51222,0.761832,0.908933,1.0063,1.07557,1.12738,1.16761,1.19975,1.22602
0.035457,0.622317,0.922478,1.09641,1.20973,1.28931,1.34825,1.39363,1.42965,1.45893
0.0311553,0.554126,0.805873,0.947652,1.0386,1.1019,1.1485,1.18425,1.21254,1.23549
0.0455184,0.815834,1.17566,1.37858,1.50928,1.60058,1.668,1.71985,1.76095,1.79435
0.0372297,0.722845,1.07066,1.27662,1.41305,1.5101,1.58266,1.63898,1.68394,1.72068
0.0378436,0.762529,1.12284,1.33093,1.46603,1.56069,1.63066,1.68447,1.72713,1.76177
0.0397646,0.84004,1.24095,1.47372,1.62571,1.73276,1.81225,1.87361,1.92242,1.96217
0.0354555,0.741446,1.0702,1.25447,1.37238,1.45431,1.51455,1.56072,1.59722,1.62682
0.0353357,0.775599,1.13992,1.35367,1.49471,1.59486,1.66969,1.72774,1.77409,1.81196
0.0343864,0.757168,1.09705,1.29005,1.41428,1.50086,1.56463,1.61353,1.65221,1.68358
0.0387172,0.86681,1.2572,1.48115,1.62662,1.72877,1.80447,1.86283,1.9092,1.94693
0.0302348,0.670086,0.960046,1.12333,1.22811,1.30105,1.35475,1.39593,1.42852,1.45494
0.0263499,0.609575,0.889502,1.05302,1.16042,1.23641,1.29301,1.33681,1.37171,1.40018
0.024978,0.589045,0.857077,1.01113,1.11095,1.18082,1.23244,1.27212,1.30358,1.32912
0.0279141,0.674213,0.984585,1.16442,1.28177,1.3644,1.42574,1.47309,1.51074,1.54141
0.0336747,0.855133,1.25787,1.49115,1.64296,1.74954,1.82846,1.88923,1.93746,1.97667
0.0270608,0.711103,1.04277,1.2326,1.35529,1.44108,1.50444,1.55314,1.59174,1.62308
0.0273073,0.731836,1.0661,1.25585,1.37816,1.46359,1.52664,1.57509,1.61349,1.64467
0.0290517,0.786252,1.13873,1.33848,1.46728,1.55728,1.62374,1.67483,1.71533,1.74822
0.0341847,0.950841,1.3859,1.6366,1.79991,1.91479,2.00002,2.06576,2.11802,2.16056
0.0272537,0.767759,1.11556,1.3146,1.44349,1.53375,1.60046,1.65178,1.69248,1.72554
0.0331623,0.992064,1.46851,1.74867,1.93304,2.06355,2.16079,2.23604,2.296,2.34489
0.0314162,0.96755,1.42867,1.69638,1.87093,1.99366,2.08464,2.15477,2.21048,2.2558
0.0308134,0.966654,1.42106,1.68346,1.85431,1.97443,2.06351,2.13221,2.18681,2.23125
0.0442325,1.41926,2.08624,2.47251,2.72464,2.90221,3.03404,3.1358,3.21673,3.28263
0.0293963,0.980516,1.44958,1.72308,1.90216,2.0285,2.12239,2.19491,2.2526,2.2996
0.0291068,0.991692,1.45816,1.72667,1.90101,2.02328,2.11378,2.18346,2.23876,2.28371
0.0278201,0.977279,1.44312,1.71453,1.89237,2.01797,2.11142,2.18368,2.24122,2.28812
0.025126,0.93949,1.39807,1.66445,1.838,1.9599,2.05016,2.11967,2.17484,2.21969
0.0228995,0.815052,1.16835,1.3632,1.48678,1.57219,1.63477,1.68261,1.72037,1.75094
0.0250305,0.909011,1.32315,1.56375,1.7219,1.83399,1.91766,1.98252,2.03428,2.07655
0.0272882,1.01964,1.49721,1.77648,1.95968,2.08899,2.1851,2.25931,2.31833,2.36639
0.0288863,0.960144,1.32907,1.52455,1.64545,1.72756,1.78696,1.83191,1.86713,1.89545
0.0273699,0.993168,1.46158,1.74566,1.93773,2.0766,2.18181,2.26432,2.33078,2.38547
0.0374105,1.38099,2.01987,2.38914,2.62815,2.79495,2.91776,3.01187,3.08624,3.14647
0.0245051,0.959605,1.42714,1.70267,1.88382,2.01194,2.10735,2.18117,2.23999,2.28797
0.0226971,0.928144,1.38276,1.6483,1.82187,1.94413,2.03487,2.10489,2.16055,2.20586
0.0245801,1.0322,1.52816,1.81413,1.99994,2.13036,2.22697,2.30139,2.36049,2.40856
0.0230606,0.94912,1.37385,1.61179,1.76413,1.87008,1.94805,2.00784,2.05515,2.09352
0.0221718,0.896702,1.28874,1.51018,1.65307,1.75304,1.82694,1.88381,1.92893,1.96561
0.0260111,1.0511,1.51448,1.77923,1.95092,2.07133,2.16044,2.22906,2.28352,2.3278
0.0395756,1.6458,2.40133,2.84039,3.12735,3.3295,3.47957,3.59538,3.68744,3.76238
0.0265152,1.11908,1.63088,1.9247,2.11492,2.24803,2.34634,2.42193,2.48183,2.53049
0.0277984,1.18689,1.72905,2.04019,2.24196,2.38342,2.48811,2.56873,2.63271,2.68474
0.0671671,2.8373,4.08926,4.79561,5.24915,5.56502,5.79764,5.9761,6.11734,6.2319
0.0224149,0.980771,1.43234,1.69339,1.8636,1.9834,2.0723,2.1409,2.19543,2.23983
0.0226015,1.01571,1.48996,1.76445,1.94324,2.06889,2.16201,2.23377,2.29076,2.33712
0.0220556,1.03749,1.53988,1.83485,2.02867,2.1657,2.26771,2.34661,2.40944,2.46066
0.0283133,1.07944,1.44595,1.62779,1.73618,1.80809,1.85927,1.89755,1.92726,1.95098
0.0256375,1.10419,1.62316,1.94463,2.16632,2.32919,2.45414,2.55313,2.63353,2.70015
0.02651,1.19031,1.75613,2.08829,2.30465,2.45597,2.56742,2.65279,2.7202,2.77475
0.045778,2.1287,3.143,3.73002,4.11073,4.37737,4.57451,4.7262,4.84656,4.94439
0.022912,1.04075,1.49952,1.75472,1.91702,2.02937,2.11178,2.17482,2.2246,2.26491
0.0229688,1.06609,1.5517,1.83102,2.01309,2.14134,2.23662,2.31022,2.36879,2.41652
0.0225646,1.07873,1.58405,1.87804,2.07036,2.20595,2.30665,2.38438,2.44619,2.49651
0.0255489,1.25693,1.85031,2.19393,2.41765,2.57479,2.6912,2.78088,2.85208,2.90998
0.0233203,1.1837,1.75074,2.08117,2.29738,2.44988,2.56321,2.65075,2.72041,2.77716
0.0255313,1.34202,1.9898,2.3666,2.6127,2.78599,2.9146,3.01383,3.09271,3.15691
0.0273909,1.46637,2.16305,2.56461,2.82566,3.00898,3.14479,3.24944,3.33255,3.40016
0.0285113,1.46925,2.1062,2.45823,2.68169,2.83617,2.94936,3.03587,3.10413,3.15937
0.0204769,1.08186,1.58114,1.87292,2.0653,2.20192,2.30403,2.38326,2.44654,2.49825
0.0244932,1.3294,1.95214,2.3136,2.54925,2.71481,2.83743,2.93184,3.00676,3.06765
0.021106,1.13278,1.64321,1.93311,2.11984,2.25014,2.34622,2.42,2.47845,2.52588
0.030947,1.73471,2.56514,3.05455,3.37761,3.60693,3.77819,3.91097,4.01695,4.10349
0.0273143,1.51805,2.20549,2.59391,2.84287,3.01585,3.14296,3.24028,3.31718,3.37946
0.0244583,1.37969,2.01221,2.37535,2.61134,2.77715,2.90008,2.99489,3.07024,3.13158
0.0245166,1.3952,2.03365,2.39995,2.63762,2.8043,2.92766,3.02264,3.09802,3.15929
0.0573958,3.42831,5.08777,6.06685,6.71279,7.17086,7.51261,7.77734,7.98845,8.16074
0.0214068,1.31425,1.94785,2.31637,2.55675,2.72576,2.85104,2.94759,3.02427,3.08663
0.021728,1.35067,1.99154,2.3617,2.60269,2.77211,2.89775,2.99465,3.07166,3.13433
0.0204458,1.22031,1.75139,2.04643,2.2343,2.36447,2.45998,2.53307,2.59079,2.63753
0.0218355,1.31902,1.91634,2.2616,2.48752,2.64707,2.76583,2.85768,2.93086,2.99053
0.0237353,1.41554,2.04293,2.40004,2.63053,2.79153,2.91029,3.00149,3.07371,3.13232
0.030845,1.93598,2.86689,3.41995,3.78655,4.04741,4.24251,4.39395,4.51491,4.61375
0.0230608,1.46201,2.14553,2.53817,2.79199,2.96929,3.10006,3.20045,3.27993,3.34441
0.0228389,1.49056,2.20551,2.62384,2.89852,3.09281,3.23755,3.34957,3.43886,3.51171
