0.26451,0.333019,0.364486,0.382561,0.394292,0.402521,0.408613,0.413304,0.417028,0.420055
0.176513,0.312918,0.397833,0.454749,0.495364,0.52575,0.549319,0.568126,0.583477,0.596244
0.105493,0.246389,0.342477,0.407568,0.45374,0.487959,0.514252,0.535052,0.5519,0.565817
0.0845578,0.251343,0.364234,0.436345,0.485081,0.519922,0.545978,0.566165,0.582251,0.595364
0.0637945,0.226937,0.331736,0.395671,0.438016,0.468034,0.49041,0.507732,0.521539,0.532803
0.10829,0.453462,0.671135,0.803694,0.892215,0.955498,1.003,1.03998,1.06958,1.09382
0.0606214,0.293899,0.437301,0.52355,0.5808,0.621539,0.652001,0.675637,0.694507,0.709921
0.0557422,0.306189,0.456733,0.547118,0.607257,0.650159,0.682309,0.707301,0.727286,0.743633
0.044863,0.249281,0.352351,0.408947,0.44467,0.469266,0.487234,0.500934,0.511725,0.520445
0.0413843,0.270751,0.405719,0.489732,0.547416,0.589563,0.621737,0.647116,0.667651,0.684611
0.0620329,0.451175,0.68025,0.820354,0.914472,0.981901,1.03252,1.0719,1.10338,1.12913
0.0349758,0.27552,0.411427,0.492085,0.545279,0.582958,0.611038,0.632772,0.650091,0.664218
0.0382558,0.330838,0.495952,0.594373,0.659642,0.7061,0.740861,0.767851,0.789415,0.807042
0.0392808,0.374678,0.566456,0.682029,0.759228,0.814442,0.85589,0.88815,0.913972,0.935108
0.0434683,0.429548,0.645386,0.777109,0.866259,0.930705,0.9795,1.01774,1.04852,1.07384
0.0631667,0.637049,0.931487,1.10101,1.21096,1.28795,1.34482,1.38853,1.42317,1.45129
0.0410941,0.459662,0.695838,0.841916,0.941476,1.01377,1.06868,1.11181,1.1466,1.17526
0.0382517,0.464585,0.704692,0.849811,0.946511,1.01542,1.06695,1.10693,1.13883,1.16487
0.0368132,0.459617,0.689022,0.826736,0.918713,0.98456,1.03406,1.07263,1.10355,1.12889
0.0276791,0.376303,0.57062,0.688257,0.76698,0.823318,0.865614,0.898529,0.924868,0.946421
0.0286273,0.414278,0.627018,0.754679,0.839657,0.90027,0.945678,0.980964,1.00917,1.03224
0.0423033,0.611557,0.89667,1.05952,1.16486,1.23859,1.29309,1.33502,1.36827,1.3953
0.0369331,0.549591,0.824299,0.995013,1.11246,1.19847,1.26425,1.31623,1.35835,1.39317
0.0371301,0.565195,0.840735,1.00592,1.11569,1.19376,1.25206,1.29722,1.33322,1.36258
0.0311951,0.503535,0.755933,0.908152,1.00972,1.08225,1.13664,1.17893,1.21276,1.24044
0.0282008,0.479835,0.720881,0.864941,0.96049,1.02846,1.07927,1.1187,1.15017,1.17588
0.0358291,0.602424,0.899678,1.08112,1.20408,1.2931,1.36058,1.41354,1.45621,1.49134
0.0367889,0.653924,0.984274,1.1845,1.31844,1.41418,1.48596,1.54174,1.58631,1.62275
0.0265418,0.484377,0.723699,0.866236,0.960658,1.02778,1.07795,1.11687,1.14794,1.17332
0.0329338,0.61631,0.913429,1.08767,1.2021,1.28299,1.34321,1.38979,1.42688,1.45712
0.048432,0.878041,1.27962,1.51437,1.66905,1.77885,1.86088,1.92452,1.97533,2.01685
0.0435806,0.793573,1.16961,1.39752,1.55109,1.66171,1.7452,1.81047,1.86289,1.90592
0.0385924,0.728988,1.08624,1.30308,1.44836,1.55233,1.63037,1.69107,1.73963,1.77935
0.0259305,0.538953,0.823018,0.997596,1.11502,1.19923,1.26253,1.31182,1.35128,1.38359
0.0230606,0.506941,0.770515,0.928364,1.03292,1.10718,1.16264,1.20563,1.23994,1.26794
0.0328707,0.781976,1.19882,1.45061,1.61879,1.73909,1.82941,1.89972,1.95601,2.0021
0.028044,0.649998,0.967872,1.1551,1.27898,1.36717,1.4332,1.4845,1.52552,1.55907
0.0240786,0.598409,0.908012,1.09618,1.22278,1.31378,1.38234,1.43583,1.47873,1.5139
0.0213465,0.541222,0.80985,0.968129,1.0723,1.146,1.20087,1.2433,1.27709,1.30464
0.0230787,0.617186,0.933023,1.12322,1.25042,1.34151,1.40997,1.46332,1.50606,1.54107
0.0274457,0.702985,1.02287,1.20443,1.32148,1.40322,1.46354,1.50988,1.54659,1.5764
0.0333494,0.936764,1.42704,1.73243,1.94179,2.09445,2.21078,2.30238,2.37639,2.43745
0.0269472,0.75916,1.13,1.34721,1.48925,1.58918,1.66323,1.72028,1.76555,1.80235
0.0228561,0.682477,1.03287,1.24505,1.38742,1.48962,1.56658,1.62664,1.67483,1.71434
0.0273537,0.815887,1.23455,1.49277,1.66861,1.79624,1.89314,1.96924,2.0306,2.08112
0.0254868,0.786578,1.18401,1.42128,1.57828,1.68963,1.77263,1.83685,1.88799,1.92968
0.0242495,0.777433,1.17565,1.41585,1.57647,1.69148,1.77792,1.84527,1.89923,1.94344
0.0206002,0.679266,1.02418,1.23073,1.36819,1.46623,1.5397,1.59678,1.64243,1.67975
0.0281601,0.954711,1.44007,1.73185,1.92673,2.06614,2.17082,2.25232,2.31758,2.37101
0.0294601,0.775052,1.0581,1.20888,1.30319,1.36789,1.41508,1.45104,1.47936,1.50224
0.0229682,0.708042,1.07492,1.31438,1.48427,1.61128,1.70989,1.78868,1.8531,1.90674
0.0312399,1.02744,1.57372,1.91263,2.14057,2.30345,2.42531,2.51976,2.59505,2.65643
0.0571796,2.00717,3.08591,3.74275,4.18116,4.49407,4.72857,4.91086,5.05663,5.17589
0.024232,0.894882,1.36945,1.65403,1.84305,1.97771,2.07854,2.15688,2.2195,2.2707
0.0210277,0.798571,1.21226,1.45922,1.62354,1.74086,1.82887,1.89734,1.95214,1.99699
0.0219145,0.730881,1.03373,1.19838,1.30224,1.37383,1.42619,1.46615,1.49767,1.52315
0.0253761,0.945445,1.43179,1.737,1.94799,2.10288,2.22152,2.31532,2.39137,2.45428
0.0255681,0.993204,1.50923,1.82425,2.03542,2.18638,2.29949,2.38733,2.45748,2.51478
0.0224375,0.901492,1.36552,1.64405,1.8291,1.96087,2.05945,2.13599,2.19713,2.2471
0.0192081,0.762985,1.14397,1.37277,1.5258,1.63552,1.71809,1.78249,1.83415,1.87651
0.0359801,1.30897,1.86615,2.17448,2.37026,2.50556,2.60465,2.68033,2.74002,2.7883
0.0285545,1.12382,1.68889,2.03912,2.27887,2.45362,2.58677,2.69162,2.77636,2.84627
0.0207501,0.851216,1.29139,1.56126,1.74287,1.87314,1.97103,2.04723,2.10821,2.15809
0.022136,0.912253,1.3611,1.6249,1.79781,1.91975,2.01035,2.0803,2.13593,2.18125
0.0219832,0.893589,1.31723,1.56453,1.72691,1.84182,1.92748,1.99381,2.04671,2.08988
0.0211812,0.878465,1.32835,1.60964,1.80326,1.94492,2.05315,2.13855,2.20768,2.26478
0.0177681,0.767534,1.16461,1.40626,1.56789,1.68327,1.76966,1.8367,1.89022,1.93391
0.0171477,0.715852,1.04896,1.23898,1.36141,1.44683,1.5098,1.55816,1.59647,1.62756
0.0247718,1.09939,1.66805,2.01948,2.25923,2.43358,2.56619,2.67049,2.7547,2.82411
0.0515077,2.37851,3.60952,4.35264,4.84786,5.20082,5.46485,5.66968,5.83315,5.96662
0.0188289,0.869196,1.2957,1.54512,1.70854,1.82387,1.90964,1.97592,2.02868,2.07168
0.0197722,0.938986,1.40913,1.69015,1.87744,2.01131,2.1118,2.19004,2.25268,2.30398
0.0232473,1.10905,1.64314,1.9538,2.15677,2.2997,2.40575,2.48756,2.55258,2.60549
0.0198001,0.921906,1.36998,1.64123,1.8243,1.95648,2.0565,2.13486,2.19794,2.24981
0.0172999,0.840899,1.27355,1.54011,1.72058,1.85072,1.94892,2.02563,2.08719,2.13767
0.0203124,1.02,1.5505,1.87419,2.0915,2.24728,2.36436,2.45555,2.52859,2.58839
0.0212446,1.07422,1.60798,1.92216,2.12848,2.27426,2.38271,2.46653,2.53327,2.58765
0.0254921,1.21791,1.7708,2.08721,2.29276,2.43723,2.54441,2.6271,2.69286,2.74641
0.0172618,0.869128,1.31002,1.58236,1.76811,1.90306,2.00559,2.08614,2.15109,2.20459
0.0231795,1.14696,1.68779,2.00082,2.20398,2.34614,2.45108,2.53167,2.59549,2.64725
0.0192286,0.991007,1.49865,1.8119,2.02517,2.17996,2.29752,2.38988,2.46439,2.52577
0.0209244,1.09869,1.64875,1.97602,2.19208,2.3451,2.45904,2.54714,2.61726,2.67439
0.0286936,1.28153,1.81318,2.11179,2.30421,2.43885,2.53846,2.61518,2.6761,2.72568
0.0213847,0.983752,1.4547,1.74596,1.9451,2.09007,2.20036,2.28711,2.35712,2.41483
0.0180066,0.822011,1.20446,1.42889,1.57549,1.67844,1.75459,1.81314,1.85954,1.89721
0.0195122,0.92447,1.38649,1.66878,1.85901,1.99596,2.09929,2.18007,2.24495,2.29822
0.026071,1.25775,1.88614,2.26376,2.51484,2.69368,2.82746,2.93128,3.01419,3.08191
0.0187694,0.982601,1.51765,1.85167,2.0794,2.24454,2.36976,2.46796,2.54704,2.61209
0.0232068,1.25597,1.93866,2.36105,2.64753,2.85452,3.01106,3.13359,3.2321,3.31302
0.0202393,1.09329,1.63692,1.95206,2.15691,2.30059,2.40689,2.4887,2.5536,2.60634
0.0186009,1.00317,1.48028,1.75431,1.93253,2.05787,2.15088,2.22267,2.27976,2.32626
0.0184995,1.04815,1.57995,1.90116,2.11702,2.27223,2.38926,2.48066,2.55403,2.61423
0.0215487,0.763356,0.95515,1.04125,1.09005,1.12143,1.1433,1.1594,1.17174,1.18151
0.0213915,0.9018,1.32459,1.60812,1.81604,1.97608,2.10338,2.2072,2.29353,2.36649
0.0253486,1.30482,2.09229,2.63275,3.0184,3.30413,3.52294,3.69525,3.83412,3.94826
0.0178832,1.01615,1.62106,2.0001,2.25358,2.43373,2.56803,2.67192,2.75466,2.82211
0.0223871,1.40964,2.2348,2.73212,3.06048,3.29327,3.46697,3.60161,3.70906,3.79682
0.017258,1.05905,1.61326,1.93978,2.15641,2.31125,2.42767,2.51847,2.59131,2.65105
0.0198142,1.21216,1.82639,2.19209,2.43646,2.61163,2.74342,2.84618,2.92855,2.99606
0.019629,1.30075,2.00445,2.43624,2.72827,2.93875,3.09757,3.22162,3.32117,3.40282
