0.384479,0.466632,0.502416,0.522448,0.535253,0.544144,0.550678,0.555682,0.559638,0.562843
0.234719,0.40595,0.510437,0.579796,0.629005,0.665678,0.694045,0.716634,0.735042,0.750331
0.15448,0.286608,0.348207,0.381337,0.401595,0.415145,0.424805,0.432023,0.437614,0.442068
0.140035,0.371291,0.52487,0.628093,0.701809,0.757068,0.800046,0.834439,0.862593,0.88607
0.106111,0.364916,0.539766,0.649666,0.722927,0.774683,0.81299,0.842404,0.86566,0.884487
0.10474,0.429769,0.632336,0.750631,0.826615,0.879333,0.91802,0.947616,0.970992,0.989924
0.180838,0.865036,1.27055,1.5034,1.65341,1.75816,1.8355,1.89497,1.94213,1.98046
0.107957,0.564388,0.807518,0.941194,1.02558,1.08373,1.12625,1.1587,1.18428,1.20496
0.0990243,0.563561,0.801029,0.932788,1.01688,1.0753,1.11827,1.15123,1.1773,1.19845
0.116348,0.72847,1.04544,1.22638,1.3438,1.42621,1.48725,1.53428,1.57164,1.60202
0.37578,2.48543,3.52669,4.10883,4.48067,4.73862,4.92801,5.07293,5.1874,5.2801
0.141404,0.977031,1.37803,1.6023,1.74585,1.84568,1.91915,1.97548,2.02005,2.0562
0.0852766,0.69214,1.0263,1.22722,1.36122,1.4569,1.52862,1.58437,1.62895,1.6654
0.108122,0.947739,1.38341,1.62942,1.78613,1.89437,1.97351,2.03386,2.08137,2.11975
0.0803312,0.744954,1.07413,1.2573,1.37389,1.45467,1.51398,1.55939,1.59529,1.62438
0.0839149,0.860339,1.26501,1.49986,1.65359,1.76216,1.84294,1.90541,1.95516,1.99572
0.123075,1.33576,1.93706,2.27303,2.48688,2.63476,2.74305,2.82574,2.89093,2.94364
0.111656,1.28086,1.86457,2.19895,2.41635,2.56925,2.68272,2.7703,2.83997,2.89672
0.0983503,1.02536,1.51279,1.83061,2.05821,2.23009,2.36475,2.47319,2.56244,2.63721
0.0720775,0.882766,1.34894,1.63787,1.83066,1.96707,2.06813,2.14575,2.20713,2.25681
0.075027,1.04735,1.60445,1.93215,2.14417,2.29189,2.40058,2.48388,2.54975,2.60315
0.0948602,0.93129,1.1806,1.29058,1.35227,1.39179,1.4193,1.43955,1.4551,1.46741
0.089226,1.1291,1.67959,2.04178,2.30451,2.50531,2.66422,2.79329,2.90028,2.99044
0.190382,2.69896,4.04884,4.85479,5.38044,5.74644,6.01431,6.21811,6.378,6.50661
0.105724,1.63601,2.44008,2.8998,3.19384,3.39757,3.54698,3.66127,3.75154,3.82466
0.0650898,1.06959,1.57548,1.85875,2.03935,2.16462,2.25668,2.32721,2.38299,2.42822
0.08427,1.44684,2.10631,2.47239,2.70561,2.86737,2.9862,3.07722,3.14916,3.20747
0.112004,2.057,3.01873,3.56617,3.92064,4.16912,4.35302,4.49464,4.60707,4.69848
0.0946228,1.84279,2.7107,3.20656,3.52757,3.75231,3.91843,4.04619,4.1475,4.2298
0.064615,1.30709,1.91383,2.25912,2.48218,2.63819,2.75342,2.84203,2.91229,2.96936
0.0694573,1.21198,1.63831,1.85401,1.98442,2.0718,2.13444,2.18155,2.21826,2.24768
0.0896584,1.42157,1.89596,2.14538,2.30091,2.40754,2.4853,2.54457,2.59126,2.62899
0.110257,1.90474,2.70113,3.17087,3.48247,3.70441,3.87054,3.99955,4.10262,4.18686
0.0853077,1.48358,2.08494,2.41786,2.62739,2.7708,2.87491,2.95384,3.01571,3.06548
0.088498,1.80832,2.71886,3.27509,3.64878,3.91703,4.11898,4.27655,4.40292,4.50656
0.072304,1.66662,2.54593,3.06939,3.41233,3.65346,3.83194,3.96926,4.07814,4.16655
0.06148,1.54644,2.35131,2.81785,3.12015,3.33178,3.48821,3.60856,3.70402,3.78161
0.187746,5.03233,7.57229,9.02451,9.96365,10.6214,11.1079,11.4825,11.7798,12.0216
0.0655193,1.80791,2.66983,3.15397,3.46481,3.68151,3.84129,3.96399,4.06118,4.14008
0.0868647,2.49145,3.67626,4.35402,4.79492,5.10506,5.33521,5.51282,5.65405,5.76905
0.102072,3.04115,4.48346,5.31128,5.8494,6.22728,6.50719,6.72284,6.89406,7.03331
0.0777285,2.37102,3.46782,4.08985,4.49074,4.77057,4.97698,5.13549,5.26105,5.36295
0.0673932,1.80309,2.47607,2.82768,3.04446,3.19163,3.29812,3.37878,3.44199,3.49287
0.0561964,1.3676,1.85251,2.11225,2.27561,2.38813,2.47044,2.5333,2.58288,2.623
0.217132,5.633,8.04148,9.46277,10.4048,11.0753,11.5769,11.9662,12.2771,12.5312
0.0593913,1.378,1.86626,2.12072,2.27565,2.37951,2.45387,2.50967,2.55307,2.58778
0.0602989,1.45307,2.04654,2.38662,2.60816,2.76431,2.88044,2.97025,3.04181,3.10019
0.05573,1.51847,2.26819,2.72878,3.03926,3.26232,3.43016,3.56095,3.6657,3.75146
0.0796598,2.10655,2.98323,3.44917,3.73402,3.9252,4.06208,4.16482,4.24471,4.3086
0.157537,4.87113,7.389,8.92354,9.96001,10.7091,11.2767,11.722,12.0809,12.3765
0.0857538,2.80503,4.17946,4.95792,5.45418,5.79692,6.04738,6.2382,6.38832,6.50945
0.092108,2.94435,4.24783,4.96348,5.41679,5.73023,5.96013,6.13607,6.2751,6.38776
0.106161,3.41828,4.97158,5.86925,6.45887,6.87687,7.18898,7.43101,7.62424,7.78209
0.170842,5.75214,8.42879,9.97126,10.973,11.6749,12.1935,12.5922,12.9081,13.1646
0.0561812,1.75161,2.44258,2.80833,3.03427,3.1876,3.29845,3.38232,3.44799,3.50081
0.0551683,1.56601,2.12241,2.41327,2.5931,2.71555,2.80439,2.87182,2.92477,2.96745
0.0628459,2.12896,3.19872,3.8762,4.3469,4.6935,4.95952,5.17018,5.34114,5.48267
0.0781933,2.41033,3.34458,3.82853,4.11994,4.31329,4.45049,4.55269,4.63169,4.69453
0.0662282,1.98178,2.742,3.15135,3.40867,3.58599,3.71584,3.81515,3.8936,3.95717
0.0673355,2.27526,3.35308,4.00033,4.43342,4.74377,4.97708,5.15887,5.30449,5.42375
0.0699436,2.49049,3.66014,4.32761,4.75502,5.05095,5.26759,5.43285,5.56301,5.66814
0.123399,4.01047,5.53838,6.32384,6.80041,7.12025,7.34981,7.52262,7.65744,7.76556
0.0543049,2.01805,2.99917,3.59289,3.99443,4.28511,4.5056,4.67872,4.8183,4.93327
0.0512568,1.77756,2.48657,2.85899,3.08658,3.23944,3.34894,3.43113,3.49505,3.54616
0.0556146,1.99215,2.84004,3.31503,3.62048,3.83396,3.99179,4.11332,4.20983,4.28834
0.0629003,2.15388,2.99988,3.4548,3.73894,3.93317,4.07428,4.18141,4.2655,4.33325
0.0522602,2.01234,2.96752,3.53575,3.91346,4.1829,4.38486,4.54189,4.6675,4.77027
0.0750283,3.14202,4.69822,5.60833,6.2007,6.61564,6.92202,7.15732,7.34361,7.49472
0.0645547,2.89901,4.3432,5.17547,5.71363,6.08977,6.36742,6.58079,6.74989,6.88721
0.0726381,3.1969,4.62756,5.41272,5.90879,6.25087,6.50116,6.69228,6.84302,6.96496
0.083379,3.86634,5.69393,6.74911,7.43958,7.92744,8.29073,8.57186,8.7959,8.97866
0.0976129,3.95577,5.45124,6.23317,6.71473,7.04113,7.27692,7.45522,7.59475,7.70691
0.0693435,2.80357,3.94268,4.58364,4.99808,5.28876,5.50415,5.67023,5.80223,5.90969
0.0609128,2.4985,3.57468,4.19386,4.59643,4.87892,5.08797,5.24886,5.3765,5.48021
0.0676511,2.6669,3.74569,4.33808,4.7112,4.9674,5.15406,5.29609,5.40775,5.49784
0.056936,2.67058,4.0721,4.94681,5.54403,5.9777,6.30696,6.56548,6.77387,6.94543
0.0524711,2.6853,4.07813,4.88907,5.41186,5.77497,6.04123,6.24455,6.40479,6.53426
0.0578106,2.63568,3.66043,4.1766,4.48605,4.69228,4.83963,4.95022,5.03629,5.10521
0.0704238,3.32614,4.75671,5.56476,6.0908,6.46233,6.73928,6.9539,7.1252,7.26512
0.0545247,2.32795,3.18829,3.63988,3.91843,4.10723,4.24353,4.34648,4.42697,4.4916
0.0586711,2.82046,4.1533,4.9611,5.5064,5.89994,6.19754,6.43058,6.61805,6.77215
0.060826,3.18799,4.79166,5.74746,6.37603,6.81896,7.1472,7.3999,7.60031,7.76307
0.0636872,3.52496,5.28025,6.2961,6.95357,7.41311,7.75229,8.0129,8.21941,8.38709
0.062951,3.47268,5.06643,5.9515,6.51375,6.90276,7.18803,7.40622,7.57854,7.71809
0.0675974,3.67974,5.2916,6.18509,6.75525,7.15137,7.44279,7.66626,7.8431,7.98653
0.0961377,5.38184,7.85843,9.29217,10.2317,10.8957,11.3902,11.7727,12.0775,12.326
0.077113,3.30239,4.35861,4.88607,5.2031,5.41475,5.56607,5.67963,5.76799,5.83871
0.0794509,3.38241,4.65189,5.36898,5.83493,6.16308,6.407,6.59555,6.74573,6.86819
0.0768627,3.83413,5.74635,6.94847,7.77101,8.36765,8.81953,9.17334,9.45771,9.6912
0.060404,3.34867,5.1006,6.14933,6.83507,7.31533,7.66943,7.94094,8.15558,8.32943
0.0753291,4.40838,6.62791,7.89813,8.71301,9.27951,9.69623,10.0157,10.2685,10.4735
0.0724617,3.3474,4.45525,4.98649,5.29836,5.50378,5.64944,5.75815,5.8424,5.90963
0.0742026,4.02828,5.9888,7.21904,8.07812,8.71557,9.20843,9.60129,9.92195,10.1887
0.0540256,2.62078,3.61007,4.12182,4.43076,4.63607,4.78184,4.89044,4.97436,5.0411
0.0740149,4.1676,6.25421,7.54441,8.42679,9.07028,9.56116,9.94836,10.2618,10.5208
0.0567355,3.14484,4.53305,5.2935,5.76802,6.09076,6.32393,6.50002,6.63759,6.74797
0.146055,7.16974,9.76372,11.0881,11.8928,12.4344,12.8242,13.1183,13.3483,13.5331
0.107585,4.63951,6.20091,7.02123,7.53242,7.88274,8.13818,8.33281,8.48609,8.60996
0.0796561,3.75255,5.38557,6.36533,7.02237,7.49398,7.84899,8.12586,8.34783,8.52975
0.0785525,3.49148,4.82336,5.52984,5.96228,6.25262,6.46044,6.61632,6.73746,6.83427
