0.131403,0.173445,0.194151,0.206475,0.214651,0.22047,0.224824,0.228204,0.230904,0.233111
0.090562,0.166737,0.21502,0.247515,0.270716,0.288064,0.30151,0.312228,0.32097,0.328234
0.050522,0.120578,0.168125,0.200104,0.222674,0.239344,0.252122,0.262212,0.270376,0.277112
0.0489701,0.146783,0.212385,0.254187,0.282464,0.302713,0.317884,0.329657,0.339054,0.346723
0.070598,0.252024,0.368525,0.440081,0.48777,0.521737,0.547148,0.566872,0.582627,0.595503
0.0355892,0.145192,0.210836,0.249577,0.274919,0.292772,0.306027,0.316257,0.324392,0.331016
0.222767,1.07611,1.60919,1.9373,2.15899,2.31887,2.43967,2.53416,2.61011,2.67248
0.0285488,0.157621,0.235793,0.282659,0.313695,0.335725,0.352161,0.364888,0.375032,0.383306
0.0396945,0.246049,0.368408,0.441624,0.490257,0.524913,0.550865,0.571029,0.587149,0.600331
0.0736592,0.435444,0.616397,0.71915,0.785823,0.832699,0.867492,0.894355,0.915728,0.93314
0.028045,0.112039,0.135414,0.146093,0.152242,0.156242,0.159054,0.161138,0.162745,0.164022
0.0352962,0.204035,0.311143,0.391721,0.455668,0.507898,0.551441,0.588329,0.619994,0.64748
0.0189501,0.147867,0.244474,0.31227,0.360313,0.395366,0.42175,0.44218,0.458393,0.471531
0.0183196,0.175328,0.28873,0.360049,0.407252,0.440488,0.465098,0.484049,0.499093,0.511331
0.0412659,0.45813,0.733998,0.896552,1.00224,1.07653,1.13168,1.1743,1.20823,1.23591
0.0274252,0.334362,0.519309,0.62598,0.695644,0.744902,0.78164,0.810114,0.83284,0.851403
0.0243174,0.316751,0.481117,0.575813,0.637907,0.681886,0.714695,0.740119,0.760402,0.776961
0.0258184,0.357771,0.540708,0.648563,0.720283,0.771513,0.809956,0.839874,0.863821,0.883423
0.0173243,0.250813,0.37653,0.45106,0.500627,0.535995,0.562502,0.583107,0.599584,0.61306
0.0182371,0.271931,0.404571,0.482786,0.53452,0.571282,0.59875,0.620054,0.637059,0.650947
0.0176332,0.271153,0.402879,0.481155,0.53316,0.570235,0.598006,0.619587,0.636841,0.650951
0.0337009,0.541674,0.808111,0.967377,1.07335,1.14892,1.20553,1.24952,1.28467,1.31341
0.0449654,0.640364,0.911363,1.06745,1.16966,1.24195,1.29582,1.33754,1.37082,1.39799
0.0160314,0.262194,0.398081,0.483902,0.542969,0.586056,0.618852,0.644641,0.665445,0.68258
0.0187648,0.33214,0.506635,0.612863,0.683631,0.733975,0.771562,0.800675,0.823878,0.842801
0.0153079,0.273397,0.407186,0.485484,0.53677,0.572977,0.599915,0.620747,0.637341,0.650873
0.0206543,0.391699,0.58918,0.707387,0.786152,0.842437,0.884678,0.917555,0.943872,0.965416
0.0276609,0.564168,0.857206,1.03404,1.15217,1.23662,1.29997,1.34925,1.38867,1.42092
0.0208143,0.441255,0.66425,0.796234,0.883369,0.945178,0.991297,1.02703,1.05552,1.07878
0.0202979,0.441632,0.660062,0.789006,0.874242,0.934817,0.980095,1.01523,1.04328,1.06621
0.01558,0.347722,0.517943,0.618537,0.685083,0.732384,0.767739,0.795167,0.817065,0.834953
0.015159,0.353991,0.532163,0.639446,0.711211,0.7626,0.801214,0.83129,0.855379,0.875105
0.0197739,0.470427,0.70063,0.836442,0.925958,0.989373,1.03664,1.07322,1.10237,1.12615
0.0202904,0.497157,0.744035,0.892111,0.990968,1.06169,1.11482,1.15619,1.18932,1.21646
0.0210677,0.532901,0.79878,0.958041,1.06405,1.13967,1.19632,1.24033,1.27551,1.30427
0.0144963,0.34496,0.494794,0.57835,0.631612,0.668522,0.695606,0.716328,0.732692,0.745944
0.015162,0.389857,0.586062,0.707449,0.790432,0.850864,0.896877,0.933097,0.962356,0.986489
0.018889,0.509915,0.769169,0.925524,1.02953,1.10352,1.15878,1.20158,1.2357,1.26352
0.0181703,0.500529,0.746709,0.891392,0.986347,1.05342,1.10332,1.14189,1.17261,1.19764
0.0186957,0.539246,0.812826,0.977511,1.08763,1.16652,1.22583,1.27205,1.3091,1.33945
0.0142122,0.42214,0.634264,0.760703,0.844583,0.904278,0.948921,0.983564,1.01123,1.03382
0.0180485,0.541191,0.807087,0.964612,1.06891,1.1431,1.19858,1.24164,1.27604,1.30415
0.0187348,0.528956,0.763711,0.897437,0.98403,1.04472,1.08964,1.12423,1.15169,1.17401
0.0187875,0.43499,0.599772,0.692305,0.752197,0.794263,0.825471,0.849559,0.868721,0.88433
0.039149,1.03572,1.56456,1.90866,2.15095,2.33071,2.46932,2.57942,2.66896,2.74321
0.0178811,0.530085,0.823125,1.00776,1.13267,1.2222,1.28931,1.3414,1.38297,1.41689
0.013542,0.426041,0.65488,0.792318,0.883028,0.947256,0.995108,1.03214,1.06166,1.08574
0.0149712,0.492155,0.750621,0.904573,1.00661,1.07929,1.13372,1.17604,1.20988,1.23757
0.0142797,0.483712,0.72979,0.874679,0.970244,1.03806,1.08869,1.12794,1.15926,1.18483
0.024786,0.798744,1.16712,1.37843,1.51619,1.61327,1.68543,1.74118,1.78556,1.82173
0.0167776,0.571463,0.858191,1.0325,1.15013,1.23493,1.29897,1.34905,1.38928,1.4223
0.0172364,0.617037,0.93403,1.12571,1.25372,1.34513,1.41361,1.4668,1.50931,1.54404
0.0180934,0.660768,0.991083,1.18652,1.31542,1.40676,1.47488,1.52762,1.56967,1.60399
0.0138987,0.525709,0.791329,0.950008,1.05555,1.13084,1.18728,1.23117,1.26627,1.29498
0.013722,0.522581,0.782602,0.937907,1.04133,1.11519,1.17059,1.21369,1.24818,1.2764
0.0162466,0.643472,0.971893,1.17035,1.30324,1.39842,1.46995,1.52565,1.57026,1.60678
0.0161246,0.648086,0.971626,1.16391,1.29121,1.38167,1.44925,1.50165,1.54348,1.57763
0.0165241,0.664436,0.990231,1.1838,1.31228,1.40384,1.47242,1.52571,1.56832,1.60317
0.0167999,0.692201,1.03595,1.24149,1.37827,1.47583,1.54893,1.60573,1.65113,1.68826
0.0129827,0.544397,0.816344,0.979674,1.08866,1.16656,1.22502,1.27051,1.30691,1.3367
0.0137059,0.515997,0.730982,0.849065,0.92372,0.975183,1.01281,1.04151,1.06414,1.08243
0.0136129,0.55342,0.829997,1.00213,1.12038,1.20681,1.27281,1.32487,1.36701,1.40181
0.0242234,1.02404,1.54295,1.85676,2.06568,2.21433,2.32531,2.41127,2.47976,2.53561
0.0164671,0.71507,1.07728,1.2946,1.43906,1.542,1.61906,1.67893,1.72679,1.76592
0.0159384,0.659299,0.95687,1.12474,1.23241,1.30735,1.36251,1.40481,1.43829,1.46544
0.0160076,0.699924,1.05004,1.26327,1.40743,1.51159,1.59042,1.65218,1.70189,1.74277
0.0132227,0.517951,0.728172,0.841433,0.912005,0.960114,0.99498,1.0214,1.04209,1.05875
0.0129554,0.561152,0.846562,1.02609,1.1504,1.24182,1.31198,1.36755,1.41268,1.45007
0.0130111,0.610363,0.940159,1.14535,1.28422,1.38407,1.45918,1.51766,1.56445,1.60272
0.0130838,0.604612,0.900591,1.07215,1.18351,1.26154,1.31924,1.36365,1.39888,1.42751
0.0543226,2.6261,3.96673,4.77355,5.31361,5.70101,5.99269,6.22031,6.40294,6.55273
0.0156711,0.772279,1.1586,1.38726,1.5383,1.64547,1.72543,1.78737,1.83675,1.87704
0.0159179,0.796198,1.19038,1.42363,1.57794,1.68763,1.76962,1.83323,1.88403,1.92553
0.0147351,0.736283,1.09902,1.31597,1.46073,1.56429,1.64208,1.70265,1.75117,1.7909
0.0130297,0.657776,0.985906,1.18412,1.31699,1.41227,1.48393,1.53977,1.58453,1.62119
0.0136803,0.714764,1.07708,1.29504,1.44022,1.54376,1.62128,1.68148,1.72958,1.76889
0.0194928,0.966289,1.40799,1.66031,1.82353,1.93778,2.02224,2.08722,2.13877,2.18067
0.0211078,0.872086,1.22556,1.42925,1.56327,1.6585,1.72977,1.78515,1.82943,1.86567
0.02069,0.786064,1.11465,1.31013,1.44043,1.53354,1.60339,1.65773,1.70119,1.73675
0.016022,0.622017,0.918718,1.1045,1.23154,1.32378,1.39375,1.44862,1.4928,1.52912
0.0150174,0.692982,1.09926,1.36685,1.55363,1.69064,1.79521,1.87753,1.94398,1.99872
0.0226204,1.14692,1.80494,2.20578,2.47053,2.65748,2.79629,2.90336,2.98842,3.05762
0.0155393,0.836409,1.29548,1.56692,1.74535,1.8717,1.96594,2.03898,2.09727,2.14488
0.014706,0.816969,1.24648,1.49911,1.66598,1.78467,1.8735,1.94249,1.99765,2.04275
0.0131933,0.755875,1.14577,1.37622,1.52902,1.63789,1.71941,1.78275,1.83338,1.87477
0.0149113,0.868754,1.3182,1.59019,1.77348,1.90555,2.00529,2.08328,2.14595,2.19742
0.0126463,0.730527,1.09312,1.30837,1.45117,1.55282,1.62885,1.68785,1.73497,1.77347
0.0134394,0.774906,1.15492,1.38097,1.53117,1.63826,1.71848,1.78082,1.83066,1.87142
0.0179497,1.01863,1.49755,1.77585,1.95778,2.08596,2.18114,2.25461,2.31302,2.36058
0.0157278,0.92052,1.3751,1.64821,1.83074,1.9614,2.05958,2.13605,2.19731,2.24749
0.017455,1.03568,1.54671,1.85122,2.05311,2.19667,2.30395,2.38716,2.45356,2.50778
0.0153466,0.91386,1.36348,1.63189,1.81033,1.93759,2.03294,2.10704,2.1663,2.21477
0.0161572,0.942626,1.40473,1.68424,1.87209,2.00717,2.109,2.18855,2.2524,2.30479
0.017173,1.02448,1.53498,1.84209,2.04669,2.1926,2.30184,2.38666,2.45441,2.50976
0.0171512,0.97228,1.42091,1.68119,1.85121,1.971,2.05998,2.1287,2.18336,2.22789
0.0129838,0.595652,0.84126,0.986589,1.08386,1.15381,1.20661,1.24792,1.28113,1.30843
0.0158796,0.841375,1.30947,1.62626,1.85441,2.02617,2.15998,2.26708,2.35469,2.42766
0.0127386,0.763064,1.21145,1.49672,1.68982,1.82803,1.93143,2.01156,2.0754,2.12743
0.0145549,0.923492,1.43571,1.74112,1.94147,2.0828,2.18784,2.26901,2.33362,2.3863
0.0144091,0.938606,1.43041,1.71826,1.90732,2.04128,2.14126,2.2188,2.28069,2.33126
