0.432993,0.50738,0.5382,0.555059,0.56569,0.573007,0.57835,0.582424,0.585632,0.588224
0.265091,0.441878,0.547043,0.616053,0.664693,0.700788,0.728624,0.750741,0.768734,0.783657
0.192686,0.421787,0.563798,0.653527,0.714035,0.757214,0.789437,0.814345,0.834147,0.850253
0.154645,0.428985,0.600575,0.705659,0.775044,0.823956,0.860204,0.888114,0.910256,0.928246
0.134521,0.454066,0.648535,0.763556,0.838233,0.890431,0.928933,0.958492,0.981898,1.00089
0.119779,0.44858,0.625919,0.724238,0.786166,0.828716,0.859754,0.883397,0.902009,0.917041
0.263026,1.13989,1.61792,1.89021,2.06577,2.18847,2.2791,2.3488,2.40407,2.44898
0.537953,2.24498,2.96666,3.33032,3.5488,3.69448,3.79851,3.87651,3.93716,3.98565
0.0960443,0.506996,0.740437,0.885166,0.984547,1.05723,1.11279,1.15665,1.19219,1.22156
0.0915268,0.563391,0.832142,0.989714,1.09182,1.16292,1.21509,1.25494,1.28633,1.31169
0.0918821,0.64335,0.947707,1.12012,1.23002,1.30603,1.36172,1.40427,1.43785,1.46502
0.0688223,0.470192,0.648489,0.740076,0.795768,0.833246,0.860207,0.88054,0.896427,0.909182
0.0671718,0.537291,0.786574,0.934403,1.03321,1.10415,1.15764,1.19945,1.23302,1.26059
0.0694864,0.61967,0.912827,1.08218,1.19185,1.26841,1.3248,1.36801,1.40215,1.4298
0.0637683,0.607982,0.8843,1.03924,1.13805,1.20651,1.25673,1.29515,1.32549,1.35007
0.0572062,0.187905,0.20361,0.209386,0.21239,0.214233,0.215479,0.216378,0.217057,0.217589
0.216847,1.15052,1.66452,2.06713,2.39835,2.67708,2.91533,3.12148,3.3017,3.46061
0.090111,0.732965,1.25912,1.6763,1.99542,2.2394,2.42836,2.57723,2.6966,2.7939
0.0509853,0.559234,0.969959,1.2339,1.40286,1.51676,1.59775,1.65799,1.70444,1.74133
0.0366567,0.167564,0.188984,0.195893,0.199179,0.201095,0.202354,0.203246,0.203912,0.204429
0.0419112,0.322999,0.496344,0.633689,0.749933,0.850682,0.939166,1.01761,1.08769,1.1507
0.0406352,0.469529,0.82926,1.10461,1.30993,1.46356,1.58034,1.67086,1.7424,1.79998
0.0372386,0.518789,0.846828,1.0293,1.13723,1.20671,1.25472,1.28976,1.31642,1.33739
0.0462681,0.807849,1.3296,1.62777,1.81815,1.95106,2.04962,2.12588,2.18676,2.23654
0.0552494,1.10962,1.75747,2.11077,2.33328,2.48689,2.59948,2.6856,2.7536,2.80865
0.0558595,1.22795,1.87736,2.22785,2.44963,2.60325,2.71611,2.80258,2.87096,2.9264
0.0557397,1.21629,1.7578,2.03911,2.21375,2.33309,2.41989,2.48589,2.53777,2.57962
0.0555303,1.14649,1.59453,1.82781,1.9731,2.0726,2.14509,2.20029,2.24372,2.2788
0.0698185,1.58266,2.31129,2.73936,3.02438,3.22818,3.38122,3.50039,3.59582,3.67397
0.0496659,1.21478,1.79337,2.12785,2.34477,2.49632,2.60796,2.69356,2.76122,2.81603
0.0455855,1.17328,1.72435,2.03635,2.23632,2.37526,2.47737,2.55559,2.61743,2.66754
0.0554558,1.49576,2.19367,2.58811,2.84155,3.01819,3.14838,3.24834,3.3275,3.39175
0.0464798,1.16928,1.62983,1.87145,2.02038,2.12142,2.19449,2.24978,2.29309,2.32793
0.0386008,1.0483,1.5249,1.80323,1.98723,2.11825,2.2164,2.29272,2.35377,2.40373
0.0373582,0.964488,1.35077,1.55843,1.68767,1.77566,1.83935,1.88756,1.9253,1.95563
0.0358641,0.944243,1.33983,1.56162,1.70405,1.80339,1.87669,1.93302,1.97768,2.01396
0.0378021,1.08471,1.59593,1.89763,2.09662,2.23764,2.34277,2.42415,2.48899,2.54187
0.0391436,1.10999,1.58665,1.84797,2.01195,2.12419,2.20576,2.26768,2.31629,2.35544
0.0371461,1.13694,1.67385,1.98701,2.19259,2.3381,2.4466,2.53066,2.59771,2.65246
0.0397166,1.17393,1.66461,1.92976,2.09526,2.20823,2.29022,2.35239,2.40116,2.44042
0.0422078,1.23028,1.73427,2.01081,2.18629,2.30777,2.39692,2.46517,2.51912,2.56283
0.0382199,1.15165,1.64892,1.93055,2.11224,2.23922,2.33296,2.40501,2.46211,2.50848
0.0381316,1.11365,1.56104,1.80361,1.95555,2.05956,2.1352,2.19266,2.23778,2.27416
0.0376839,1.25788,1.86634,2.22798,2.46772,2.63833,2.76597,2.86507,2.94425,3.00896
0.045531,1.57605,2.31345,2.73118,2.99825,3.18326,3.31885,3.42242,3.5041,3.57014
0.0409618,1.16747,1.56162,1.75696,1.87367,1.95135,2.0068,2.04838,2.08073,2.10662
0.0444426,1.44613,2.12281,2.53997,2.82676,3.03695,3.19788,3.32517,3.42841,3.51385
0.0395413,1.37567,2.05185,2.45647,2.72339,2.91175,3.0514,3.15891,3.24415,3.31334
0.0408555,1.4913,2.20508,2.61182,2.87202,3.05227,3.18441,3.28541,3.3651,3.42958
0.0683478,2.4175,3.44755,4.0039,4.35175,4.58999,4.76349,4.89554,4.99942,5.08329
0.0438558,1.55775,2.21832,2.58329,2.81595,2.97752,3.09637,3.1875,3.2596,3.31809
0.0341711,1.22382,1.74623,2.03816,2.22507,2.35504,2.45066,2.52395,2.58191,2.62889
0.0404074,1.56498,2.30719,2.74369,3.03124,3.23492,3.38673,3.50423,3.59788,3.67426
0.0332683,1.25557,1.78795,2.07677,2.25703,2.37999,2.46913,2.5367,2.58966,2.63228
0.0376326,1.53057,2.25061,2.67003,2.94548,3.14055,3.28609,3.39889,3.48891,3.56243
0.10294,4.03242,5.72256,6.63817,7.21067,7.60197,7.88613,8.10177,8.27095,8.40721
0.0391836,1.47642,2.06109,2.37614,2.57383,2.70963,2.80875,2.88432,2.94384,2.99195
0.0410762,1.70512,2.51202,2.99441,3.31675,3.54763,3.72121,3.8565,3.9649,4.05372
0.0445901,1.95961,2.90225,3.44929,3.80396,4.05174,4.23434,4.37436,4.48508,4.5748
0.0625499,2.81498,4.13136,4.87844,5.3583,5.69243,5.93849,6.12728,6.27671,6.39796
0.0385587,1.67788,2.38771,2.77283,3.01457,3.18051,3.30151,3.39367,3.46619,3.52476
0.0362711,1.62202,2.34609,2.76013,3.02965,3.21943,3.36041,3.46932,3.55599,3.62662
0.0461057,2.08163,3.0108,3.53966,3.88109,4.11961,4.29557,4.43069,4.5377,4.62452
0.0387977,1.68247,2.37595,2.75471,2.99317,3.15704,3.27656,3.36759,3.43923,3.49707
0.0368508,1.58121,2.24994,2.62845,2.8731,3.04451,3.17137,3.26909,3.3467,3.40983
0.040648,1.84119,2.68489,3.17613,3.49723,3.72331,3.89103,4.02036,4.12311,4.20669
0.0368068,1.63704,2.33722,2.72379,2.96778,3.13554,3.25789,3.35103,3.42431,3.48346
0.0347039,1.43113,1.99155,2.29509,2.48607,2.61752,2.7136,2.78692,2.84473,2.89149
0.0368935,1.61075,2.32733,2.74489,3.01924,3.21345,3.3582,3.47025,3.55957,3.63244
0.0532679,2.52542,3.75011,4.47393,4.94937,5.28474,5.53369,5.72569,5.87823,6.0023
0.0410429,2.05205,3.04032,3.60569,3.96897,4.22155,4.4072,4.54937,4.66171,4.75271
0.0396504,1.90959,2.71587,3.14707,3.41487,3.59739,3.72981,3.83028,3.90913,3.97268
0.0387853,1.93137,2.79493,3.28604,3.60502,3.82946,3.99616,4.12493,4.22742,4.31095
0.0395806,1.94148,2.76913,3.22674,3.51719,3.71779,3.86458,3.97661,4.0649,4.13626
0.0339817,1.76981,2.5973,3.0809,3.3988,3.62386,3.79161,3.92149,4.02504,4.10953
0.0339363,1.70137,2.41856,2.80996,3.05559,3.22385,3.34622,3.4392,3.51221,3.57106
0.0340614,1.65644,2.32995,2.69809,2.93086,3.09154,3.20922,3.29916,3.37015,3.42761
0.0380373,2.00604,2.94736,3.50439,3.8736,4.13646,4.33317,4.48593,4.60798,4.70774
0.0387016,2.15045,3.17547,3.76713,4.14978,4.41682,4.6135,4.76429,4.88353,4.98015
0.0511948,2.93933,4.32172,5.10733,5.61233,5.96414,6.22329,6.42214,6.57956,6.70729
0.042154,2.45835,3.58456,4.21812,4.62426,4.90693,5.11507,5.27474,5.40112,5.50364
0.0390996,2.18119,3.08671,3.5764,3.88367,4.09456,4.24832,4.36539,4.45752,4.53191
0.0359571,1.92467,2.69667,3.11847,3.38576,3.5706,3.70614,3.80982,3.8917,3.95801
0.0398236,2.27795,3.32407,3.94035,4.34794,4.63764,4.85416,5.02211,5.15619,5.2657
0.0302636,1.69083,2.41444,2.81545,3.06898,3.24335,3.37049,3.46724,3.54331,3.60467
0.03335,2.00997,2.96989,3.53508,3.90765,4.1719,4.36917,4.5221,4.64415,4.74384
0.0341456,1.94968,2.75895,3.19428,3.46488,3.64907,3.78243,3.88341,3.9625,4.02612
0.029262,0.543093,0.597573,0.618201,0.629073,0.635795,0.640365,0.643676,0.646185,0.648152
0.0363205,1.03556,1.51148,1.87999,2.18077,2.43235,2.64631,2.83068,2.99127,3.13243
0.0576382,2.2023,3.57169,4.54319,5.22983,5.72608,6.09508,6.37717,6.59822,6.77524
0.0399788,1.85637,3.00101,3.68688,4.11733,4.40716,4.61431,4.76942,4.88987,4.9861
0.0367027,1.8287,2.77461,3.26978,3.56724,3.76576,3.90801,4.01513,4.0988,4.16602
0.0375319,2.05358,3.09478,3.66141,4.02019,4.2694,4.45313,4.59439,4.70645,4.79756
0.0422799,2.6123,4.00139,4.79605,5.31433,5.6799,5.95172,6.16174,6.32887,6.46503
0.0331945,2.05883,3.00786,3.51268,3.82657,4.04054,4.19569,4.31331,4.40553,4.47977
0.0322598,1.99471,2.86319,3.33231,3.62887,3.83387,3.98421,4.09925,4.19015,4.2638
0.0284996,1.8171,2.63613,3.0989,3.39867,3.60898,3.76472,3.88472,3.98002,4.05753
0.0362024,2.19391,3.07535,3.54464,3.83616,4.03463,4.17838,4.28725,4.37256,4.44119
0.0359168,2.19159,3.13612,3.67647,4.02912,4.27798,4.46321,4.60651,4.72072,4.8139
0.0356244,2.42797,3.63507,4.3601,4.84222,5.18525,5.4415,5.64008,5.79841,5.92757
