0.227865,0.294375,0.326102,0.344677,0.356873,0.365495,0.371913,0.376877,0.38083,0.384052
0.110091,0.195239,0.247356,0.281816,0.306158,0.32423,0.338164,0.349229,0.358226,0.365683
0.0912146,0.210263,0.287626,0.338144,0.373055,0.398442,0.417669,0.43271,0.444785,0.454686
0.0667292,0.178656,0.244193,0.283111,0.308405,0.326066,0.339071,0.349038,0.356918,0.363302
0.141112,0.475641,0.690523,0.825753,0.91772,0.98422,1.03453,1.07393,1.10562,1.13166
0.0840423,0.342612,0.508712,0.611002,0.679375,0.728131,0.764605,0.792898,0.815477,0.833909
0.0706696,0.333584,0.496263,0.594126,0.658936,0.704968,0.739346,0.765998,0.787266,0.804632
0.0373132,0.194387,0.290704,0.350591,0.39156,0.421417,0.444167,0.462088,0.476574,0.488529
0.0364133,0.215907,0.322649,0.386341,0.428327,0.457998,0.480045,0.497058,0.510577,0.521574
0.0554481,0.367501,0.548259,0.655001,0.725237,0.774947,0.811986,0.840655,0.863506,0.882149
0.0346141,0.252715,0.376376,0.449307,0.497394,0.531498,0.556949,0.576672,0.592406,0.605251
0.0424689,0.323369,0.471579,0.55686,0.612368,0.651405,0.680363,0.702702,0.72046,0.734915
0.0544031,0.430408,0.625456,0.739721,0.815152,0.868751,0.90882,0.939918,0.964758,0.985057
0.0945086,0.769318,1.11418,1.31713,1.4512,1.5464,1.61751,1.67264,1.71663,1.75255
0.0381989,0.317988,0.462969,0.550402,0.609084,0.651228,0.682972,0.707746,0.72762,0.743918
0.0394115,0.359246,0.533364,0.638956,0.709505,0.75987,0.797591,0.826882,0.850278,0.869392
0.0298903,0.312966,0.479271,0.582029,0.651286,0.701017,0.738428,0.767581,0.790935,0.810062
0.0267018,0.308789,0.471045,0.56781,0.631554,0.67663,0.710172,0.736097,0.756733,0.773548
0.0289433,0.353674,0.529867,0.632224,0.699042,0.746125,0.781111,0.808138,0.82965,0.847179
0.10275,1.33035,1.98736,2.37318,2.62776,2.80858,2.94371,3.04855,3.13227,3.20067
0.0244728,0.33925,0.509176,0.610142,0.677148,0.724872,0.760589,0.788323,0.810479,0.828587
0.0470827,0.670677,0.992119,1.17925,1.3018,1.38829,1.45259,1.50228,1.54182,1.57403
0.0318246,0.481365,0.715507,0.853095,0.943692,1.00786,1.0557,1.09273,1.12226,1.14634
0.0400304,0.637986,0.950029,1.13398,1.25529,1.34131,1.40548,1.45518,1.49481,1.52716
0.0243211,0.405338,0.604463,0.722527,0.800715,0.856324,0.897904,0.930172,0.955941,0.976995
0.0246191,0.397682,0.573398,0.672509,0.736197,0.780582,0.813287,0.838387,0.858259,0.874382
0.0314593,0.520288,0.758405,0.898224,0.990634,1.05635,1.10551,1.14368,1.17418,1.19912
0.0237478,0.414259,0.615849,0.737642,0.819218,0.877649,0.921548,0.955729,0.983094,1.0055
0.0323815,0.590583,0.883905,1.06083,1.17887,1.26315,1.32631,1.37539,1.41463,1.44672
0.0309607,0.579521,0.860454,1.02604,1.13492,1.21192,1.26924,1.31356,1.34886,1.37763
0.0301747,0.569203,0.834274,0.987592,1.0875,1.1578,1.20995,1.25019,1.28218,1.30822
0.0222201,0.433897,0.643968,0.769812,0.85388,0.914079,0.959332,0.994598,1.02286,1.04601
0.0283685,0.571982,0.846313,1.00743,1.11317,1.1878,1.24325,1.28607,1.32011,1.34783
0.0216678,0.468231,0.70402,0.845434,0.939544,1.00667,1.05695,1.09603,1.12727,1.15282
0.0224958,0.513544,0.773072,0.927207,1.02902,1.10124,1.15511,1.19683,1.2301,1.25723
0.022162,0.519257,0.776012,0.927447,1.02738,1.0983,1.15125,1.1923,1.22507,1.25183
0.0221262,0.4997,0.725908,0.85516,0.939021,0.997887,1.0415,1.07511,1.10182,1.12354
0.02296,0.529258,0.780245,0.930279,1.03056,1.1024,1.15643,1.19856,1.23232,1.25999
0.0250644,0.580758,0.847207,1.00115,1.10117,1.17126,1.22307,1.2629,1.29448,1.32011
0.0206482,0.448657,0.630335,0.729319,0.79157,0.834336,0.865531,0.889294,0.908,0.923108
0.0245774,0.612369,0.925624,1.12149,1.25611,1.35447,1.42953,1.48872,1.5366,1.57612
0.020027,0.542342,0.827604,1.00032,1.11503,1.19643,1.25707,1.30394,1.34123,1.3716
0.0205082,0.578824,0.873572,1.04699,1.1607,1.24098,1.30067,1.34682,1.38356,1.4135
0.0263302,0.773014,1.1595,1.3855,1.53378,1.63861,1.71667,1.77708,1.82521,1.86447
0.0215026,0.610124,0.88628,1.04191,1.14207,1.212,1.26362,1.30329,1.33474,1.36028
0.023692,0.682447,0.996739,1.17904,1.29862,1.38321,1.44624,1.49502,1.53391,1.56563
0.0462022,1.37799,2.03156,2.41537,2.66797,2.84674,2.97988,3.08287,3.16489,3.23176
0.0246333,0.756478,1.12213,1.3386,1.48168,1.58325,1.65909,1.71787,1.76477,1.80305
0.0268228,0.881819,1.32981,1.5986,1.7773,1.90457,1.99978,2.07367,2.13269,2.1809
0.0270253,0.902668,1.33993,1.59303,1.75759,1.87307,1.95856,2.02439,2.07665,2.11914
0.0228984,0.799425,1.19554,1.4294,1.58392,1.6937,1.77575,1.83941,1.89025,1.93179
0.026714,0.966592,1.45487,1.74776,1.94327,2.0831,2.18809,2.26981,2.33524,2.3888
0.0314869,1.18715,1.78537,2.13964,2.37339,2.53903,2.66249,2.75803,2.83415,2.89622
0.0232506,0.815667,1.17578,1.37812,1.50807,1.59867,1.66549,1.71681,1.75748,1.7905
0.0374312,1.25572,1.79334,2.09913,2.2976,2.43704,2.54045,2.62022,2.68363,2.73525
0.0225781,0.805441,1.1922,1.4254,1.58158,1.69346,1.77753,1.843,1.89543,1.93835
0.0226137,0.839962,1.25354,1.50038,1.66365,1.77942,1.86571,1.93249,1.98568,2.02904
0.0242759,0.947386,1.42227,1.70411,1.88995,2.02158,2.11967,2.19558,2.25608,2.30541
0.0225486,0.913735,1.37016,1.63903,1.81587,1.94102,2.03424,2.10638,2.16387,2.21076
0.0275526,1.13747,1.6906,2.01208,2.22217,2.37025,2.48027,2.56522,2.63281,2.68786
0.024657,1.02341,1.51033,1.79308,1.9782,2.10892,2.20618,2.28139,2.34127,2.3901
0.025838,1.02113,1.47059,1.72496,1.8891,2.00388,2.08867,2.15388,2.2056,2.24761
0.0386879,1.40318,1.97825,2.30146,2.50973,2.65534,2.76293,2.8457,2.91136,2.96472
0.0226859,0.865855,1.27464,1.52335,1.69115,1.81204,1.90329,1.9746,2.03187,2.07887
0.0227528,0.940873,1.42369,1.71912,1.91705,2.05845,2.16435,2.24657,2.31222,2.36584
0.0240919,1.03036,1.54553,1.84832,2.04616,2.1853,2.28844,2.36794,2.43108,2.48244
0.0223511,0.908274,1.37703,1.67702,1.88785,2.0448,2.16644,2.26357,2.34296,2.40909
0.0264746,1.17285,1.80172,2.1872,2.44465,2.62773,2.76418,2.86963,2.95347,3.02168
0.027214,1.26687,1.92995,2.32301,2.58126,2.76368,2.89936,3.00424,3.08775,3.15583
0.0229762,1.09136,1.63551,1.95081,2.15639,2.30116,2.40867,2.49169,2.55775,2.61156
0.0388133,1.86479,2.77843,3.31323,3.66574,3.91598,4.10294,4.24797,4.36378,4.45838
0.0238652,1.10596,1.61179,1.90144,2.08975,2.22207,2.32017,2.39581,2.45591,2.50481
0.0261927,1.28167,1.91853,2.30262,2.56016,2.74494,2.88399,2.99241,3.07933,3.15057
0.0235239,1.07757,1.54644,1.80785,1.97422,2.08928,2.17355,2.23791,2.28867,2.32972
0.0283191,1.40146,2.10624,2.53853,2.83196,3.04451,3.20568,3.33215,3.43405,3.51793
0.026757,1.23373,1.78964,2.1096,2.3174,2.46312,2.57092,2.65388,2.71969,2.77315
0.0223899,1.03537,1.521,1.81008,2.00235,2.13958,2.24249,2.32255,2.38661,2.43904
0.0213699,0.936681,1.33534,1.5577,1.69908,1.79676,1.86825,1.92281,1.9658,2.00056
0.0324805,1.58681,2.41779,2.94364,3.30759,3.57481,3.7795,3.94136,4.0726,4.18117
0.0229111,1.19355,1.81972,2.19605,2.44446,2.61993,2.7502,2.85063,2.93036,2.99516
0.0228993,1.24786,1.89015,2.2681,2.51588,2.69079,2.82087,2.92143,3.00151,3.06679
0.0262378,1.44396,2.15748,2.57276,2.84483,3.03711,3.1803,3.2911,3.37941,3.45144
0.0224432,1.25566,1.86743,2.2242,2.45845,2.62415,2.74759,2.84311,2.91923,2.98131
0.0242526,1.37158,2.04132,2.4373,2.69968,2.88647,3.02625,3.13479,3.22153,3.29243
0.0223096,1.27513,1.8968,2.26465,2.50799,2.68088,2.81003,2.91017,2.99009,3.05533
0.0267171,1.48896,2.17925,2.57829,2.83848,3.02155,3.15737,3.26215,3.34543,3.41322
0.0282153,1.59924,2.37201,2.83377,3.1416,3.36165,3.52683,3.65542,3.75836,3.84264
0.0218691,1.26247,1.87959,2.24692,2.49021,2.66306,2.79214,2.89219,2.97199,3.03712
0.0246023,1.44087,2.14866,2.56983,2.8489,3.04738,3.19576,3.3109,3.40283,3.47793
0.0220115,1.26759,1.86652,2.21602,2.44504,2.60673,2.727,2.81994,2.89394,2.95424
0.0228651,1.30489,1.91173,2.26462,2.49561,2.65861,2.7798,2.87346,2.948,3.00874
0.0237853,1.41014,2.11174,2.53682,2.82237,3.02747,3.18195,3.30249,3.39918,3.47846
0.0218734,1.27369,1.90759,2.29498,2.55675,2.74557,2.88823,2.99983,3.08951,3.16316
0.0227107,1.34806,2.0194,2.4216,2.68846,2.87816,3.01981,3.12959,3.21713,3.28857
0.0207151,1.27052,1.90335,2.27724,2.5232,2.69712,2.82658,2.92669,3.0064,3.07138
0.0236465,1.4715,2.19695,2.62472,2.90683,3.10695,3.25634,3.37214,3.46454,3.53999
0.0208525,1.32352,1.97026,2.34911,2.59784,2.77366,2.90451,3.0057,3.08627,3.15195
0.0289599,1.84946,2.7432,3.2673,3.61225,3.85663,4.03887,4.18001,4.29256,4.3844
0.0341944,2.02306,2.92458,3.44397,3.78335,4.02282,4.20095,4.33868,4.44836,4.53777
0.0337669,1.87595,2.6898,3.16124,3.47017,3.68847,3.85098,3.97667,4.07679,4.15841
