0.569415,0.682332,0.730627,0.757432,0.774481,0.78628,0.79493,0.801543,0.806764,0.810989
0.273157,0.469577,0.589651,0.669573,0.726407,0.768842,0.801716,0.827924,0.849304,0.867076
0.196097,0.437954,0.589211,0.685022,0.749697,0.795874,0.830346,0.856999,0.878192,0.895431
0.172496,0.480665,0.672101,0.789018,0.86618,0.920589,0.960932,0.992013,1.01668,1.03674
0.147264,0.499294,0.714518,0.842764,0.926532,0.985346,1.02887,1.06238,1.08896,1.11056
0.130283,0.51613,0.741924,0.872919,0.957605,1.01677,1.06043,1.09397,1.12054,1.14211
0.11952,0.540615,0.778583,0.915424,1.00391,1.06583,1.11159,1.14678,1.1747,1.19738
0.0976104,0.50114,0.725802,0.855235,0.939204,0.998083,1.04165,1.0752,1.10183,1.12347
0.0957488,0.554074,0.807181,0.953337,1.04833,1.115,1.16436,1.20239,1.23257,1.25712
0.0867802,0.523805,0.739746,0.857894,0.932303,0.983454,1.02078,1.04921,1.07159,1.08966
0.0871403,0.594751,0.865326,1.0236,1.12787,1.20186,1.25711,1.29997,1.33418,1.36213
0.177523,1.32601,1.93126,2.27968,2.50546,2.66345,2.78009,2.86971,2.94069,2.9983
0.0740216,0.608684,0.89306,1.05782,1.16513,1.24056,1.29648,1.33958,1.37383,1.4017
0.219234,1.96764,2.88958,3.41988,3.76362,4.00439,4.18241,4.31936,4.42798,4.51624
0.118205,1.13555,1.65795,1.95525,2.147,2.28094,2.37979,2.45575,2.51595,2.56483
0.065129,0.663532,0.964322,1.135,1.24506,1.32196,1.37873,1.42237,1.45696,1.48505
0.0674171,0.731537,1.06673,1.25918,1.38425,1.47209,1.53718,1.58736,1.62721,1.65964
0.0633802,0.727077,1.05766,1.24606,1.36772,1.45274,1.51549,1.56371,1.60191,1.63292
0.060535,0.717776,1.03493,1.21381,1.32873,1.40881,1.46781,1.51309,1.54895,1.57804
0.0726182,0.911106,1.32364,1.56051,1.71442,1.8225,1.90259,1.96432,2.01335,2.05324
0.0587494,0.779245,1.13595,1.34082,1.47367,1.56676,1.63561,1.68858,1.73059,1.76473
0.0634085,0.888736,1.29909,1.53494,1.68794,1.7952,1.87455,1.93564,1.98411,2.02351
0.0586311,0.856905,1.24954,1.47427,1.61979,1.72171,1.79707,1.85506,1.90106,1.93845
0.053128,0.812371,1.18518,1.39879,1.53723,1.63425,1.70603,1.76127,1.80511,1.84075
0.0553708,0.880983,1.28501,1.51681,1.66721,1.7727,1.85078,1.91091,1.95864,1.99745
0.0519951,0.744881,1.01938,1.16201,1.24939,1.30841,1.35094,1.38306,1.40816,1.42832
0.0507827,0.814202,1.19055,1.41782,1.57131,1.68225,1.76628,1.83218,1.88525,1.92893
0.0651733,1.12057,1.65443,1.96806,2.17295,2.31676,2.42305,2.50472,2.56939,2.62185
0.0492473,0.888455,1.3044,1.54222,1.69531,1.80198,1.88053,1.94079,1.98848,2.02717
0.0555994,1.05584,1.55215,1.83683,2.0213,2.15061,2.24631,2.32002,2.37854,2.42614
0.120548,2.34079,3.41256,4.02272,4.41704,4.693,4.89697,5.0539,5.17838,5.27953
0.0470416,0.910445,1.30303,1.52076,1.65927,1.75517,1.8255,1.87928,1.92174,1.95611
0.0466205,0.952276,1.39022,1.64474,1.81168,1.92973,2.01766,2.08571,2.13994,2.18418
0.0490596,0.98988,1.4132,1.64799,1.79699,1.89986,1.9751,2.03251,2.07775,2.11431
0.0553734,1.05309,1.45895,1.67642,1.81225,1.90522,1.97288,2.02435,2.06481,2.09747
0.045229,0.897325,1.28042,1.50087,1.64487,1.74649,1.82207,1.88051,1.92704,1.96498
0.0457462,0.954802,1.38322,1.63064,1.79125,1.90373,1.98682,2.05067,2.10125,2.1423
0.0446459,1.0125,1.50327,1.79354,1.9846,2.11976,2.22037,2.29818,2.36014,2.41065
0.0439544,0.719058,0.919577,1.01225,1.06538,1.09977,1.12385,1.14165,1.15533,1.16618
0.0433939,0.873049,1.28491,1.5504,1.73924,1.88128,1.99227,2.0815,2.15484,2.21622
0.0584507,1.32776,2.01079,2.4288,2.70614,2.90183,3.04658,3.15766,3.24544,3.31647
0.0419905,1.03385,1.55478,1.8554,2.04819,2.18185,2.27987,2.35481,2.41397,2.46186
0.0492464,1.18393,1.69693,1.97142,2.1418,2.25796,2.34231,2.40636,2.45668,2.49726
0.0420271,1.08319,1.59063,1.88315,2.07479,2.21046,2.31168,2.39015,2.45278,2.50393
0.0408214,0.777261,0.999826,1.10412,1.16463,1.20412,1.23191,1.25252,1.26841,1.28103
0.0418579,0.973483,1.43498,1.7317,1.94223,2.10019,2.22335,2.32217,2.40327,2.47104
0.0482301,1.2373,1.84935,2.21361,2.45095,2.61631,2.73752,2.82989,2.9025,2.961
0.0390049,0.731265,0.938479,1.03346,1.08741,1.12212,1.14632,1.16416,1.17786,1.18871
0.0392665,0.936945,1.40153,1.7057,1.92436,2.09024,2.22075,2.32626,2.41339,2.48659
0.0384897,1.07383,1.66464,2.03195,2.27731,2.451,2.57967,2.67849,2.75659,2.81979
0.0383647,1.1268,1.68934,2.00518,2.20417,2.3405,2.43965,2.515,2.57421,2.62196
0.0556287,1.72729,2.57629,3.0585,3.36974,3.5878,3.74932,3.87389,3.97293,4.05358
0.0531274,1.74183,2.58715,3.06718,3.37713,3.59397,3.7542,3.87744,3.97516,4.05454
0.0379875,1.26598,1.85343,2.1836,2.39578,2.54376,2.65288,2.73668,2.80306,2.85695
0.0385817,1.20618,1.69452,1.95562,2.11872,2.23038,2.31163,2.37343,2.422,2.46119
0.0553767,1.88327,2.77245,3.30082,3.65347,3.90606,4.09601,4.24412,4.36285,4.46018
0.0372722,1.31069,1.93101,2.29155,2.52643,2.69123,2.81311,2.90684,2.98113,3.04145
0.0371583,1.37371,2.03633,2.42133,2.67225,2.84861,2.97932,3.08007,3.1601,3.22522
0.0501754,1.90104,2.80053,3.31662,3.65099,3.88523,4.05849,4.19183,4.29764,4.38364
0.0551296,2.02106,2.89203,3.37137,3.6749,3.88444,4.03783,4.15497,4.24737,4.32211
0.0370063,1.40111,2.04474,2.41953,2.66611,2.84097,2.97152,3.07274,3.15353,3.21953
0.0398057,1.58258,2.33714,2.77817,3.06686,3.27025,3.42116,3.53753,3.62997,3.70516
0.0842492,3.21908,4.60086,5.36188,5.84268,6.17377,6.4156,6.59998,6.7452,6.86254
0.036066,1.47283,2.17152,2.58255,2.85408,3.04708,3.1914,3.30344,3.39295,3.46612
0.0363881,1.5561,2.30397,2.73827,3.02104,3.21947,3.36629,3.47927,3.56886,3.64164
0.0605821,2.63769,3.86755,4.56689,5.0172,5.33128,5.56283,5.7406,5.88139,5.99566
0.039171,1.74742,2.56398,3.03252,3.33683,3.55055,3.70893,3.83104,3.92806,4.00701
0.0356246,1.64887,2.42679,2.87394,3.1642,3.36775,3.51838,3.63435,3.72637,3.80116
0.0587419,2.72644,3.97357,4.68189,5.13884,5.45815,5.69389,5.87509,6.01872,6.13537
0.0467356,2.1806,3.16943,3.73334,4.09847,4.35432,4.5436,4.68933,4.80499,4.89901
0.035517,1.62363,2.32826,2.72291,2.97549,3.15104,3.28014,3.37907,3.45729,3.5207
0.0352723,1.68599,2.46931,2.92611,3.22584,3.43771,3.59545,3.71746,3.81465,3.8939
0.0461235,2.21636,3.23377,3.81931,4.19937,4.4658,4.66288,4.81453,4.93483,5.03258
0.0525899,2.44776,3.49693,4.07959,4.45,4.70623,4.89401,5.03754,5.15081,5.24248
0.0352613,1.68858,2.46172,2.91288,3.20957,3.41977,3.57659,3.6981,3.79504,3.87419
0.0446256,2.22765,3.28116,3.89533,4.29637,4.57842,4.78744,4.94848,5.07633,5.18026
0.0443437,2.25026,3.29883,3.90039,4.28962,4.56191,4.76306,4.91772,5.04033,5.13993
0.0353791,1.76627,2.54979,2.99014,3.27234,3.46871,3.61326,3.72414,3.81189,3.88306
0.0346653,1.80639,2.65217,3.14382,3.46573,3.693,3.86204,3.99271,4.09675,4.18154
0.0437668,2.30153,3.35938,3.96405,4.35487,4.62808,4.82975,4.98471,5.10748,5.20714
0.0344364,1.79647,2.5912,3.03719,3.32262,3.52098,3.66685,3.77863,3.86703,3.93869
0.0346203,1.82408,2.64038,3.10543,3.40638,3.61721,3.77318,3.89325,3.98855,4.06602
0.0430422,2.33029,3.40806,4.0325,4.44014,4.72717,4.94022,5.1046,5.23528,5.34166
0.0437278,2.41136,3.53063,4.176,4.59531,4.88949,5.10721,5.27484,5.40787,5.51601
0.0380626,2.12225,3.10167,3.66417,4.02905,4.2849,4.47423,4.62,4.73571,4.82978
0.0343483,1.94511,2.83911,3.35025,3.68089,3.91226,4.08322,4.2147,4.31896,4.40365
0.045513,2.55361,3.69717,4.34619,4.76485,5.05744,5.27349,5.43958,5.57125,5.6782
0.034312,1.96557,2.87046,3.39366,3.73504,3.97542,4.15387,4.2916,4.40111,4.49028
0.0342645,1.88467,2.68396,3.12529,3.40481,3.59762,3.73861,3.84617,3.93093,3.99944
0.042834,2.41085,3.49939,4.13059,4.54413,4.83642,5.05411,5.22257,5.35684,5.46638
0.0425543,2.31947,3.31461,3.87296,4.22998,4.47774,4.65965,4.79886,4.90881,4.99782
0.0340608,1.94071,2.8495,3.38608,3.74079,3.99283,4.1812,4.32734,4.44403,4.53937
0.0340765,1.96618,2.85859,3.36345,3.68638,3.91022,4.07436,4.19979,4.29874,4.37878
0.0720093,4.25753,6.25035,7.40815,8.1658,8.70073,9.0988,9.40669,9.65198,9.85203
0.0339432,2.06547,3.03655,3.59591,3.95885,4.21318,4.40124,4.5459,4.66062,4.75381
0.0337761,2.06716,3.01178,3.54699,3.89124,4.13123,4.3081,4.44386,4.55136,4.63859
0.0413915,2.59381,3.80168,4.49799,4.95161,5.27078,5.50765,5.69043,5.83576,5.9541
0.0521356,3.25938,4.74466,5.59265,6.14135,6.52545,6.80935,7.02772,7.2009,7.3416
0.183397,11.2613,16.1951,18.9653,20.7402,21.9746,22.8829,23.5791,24.1299,24.5765
0.181518,11.0764,15.8873,18.5935,20.3305,21.5404,22.4316,23.1155,23.6569,24.0961
