0.200447,0.249231,0.271235,0.283761,0.291848,0.2975,0.301673,0.304881,0.307423,0.309488
0.22448,0.38527,0.48117,0.54383,0.587792,0.620288,0.645267,0.665059,0.681124,0.694423
0.148995,0.333265,0.449077,0.523064,0.573415,0.609617,0.6368,0.657919,0.67478,0.688543
0.0918942,0.274734,0.398473,0.477362,0.530623,0.568681,0.59714,0.619191,0.636766,0.651096
0.0791148,0.266438,0.376488,0.440266,0.481249,0.509733,0.53067,0.54671,0.559392,0.569672
0.066179,0.258446,0.369498,0.434375,0.476709,0.506523,0.528665,0.545765,0.55937,0.570455
0.0546907,0.239715,0.343364,0.403676,0.44304,0.470757,0.491332,0.507209,0.519833,0.53011
0.0749683,0.390703,0.574957,0.683765,0.755138,0.805468,0.842835,0.871664,0.894574,0.913217
0.0548234,0.310918,0.450368,0.530033,0.581422,0.617311,0.643795,0.664144,0.68027,0.693364
0.0533943,0.335616,0.48901,0.577909,0.63595,0.676849,0.707232,0.730697,0.749367,0.764576
0.0442236,0.300624,0.435626,0.512937,0.562996,0.598047,0.623957,0.643887,0.659692,0.672533
0.0641492,0.481721,0.704362,0.83339,0.91754,0.97675,1.02067,1.05455,1.08148,1.1034
0.0478087,0.364475,0.51665,0.60056,0.653705,0.690382,0.717219,0.737706,0.75386,0.766923
0.0361288,0.281165,0.396293,0.460937,0.502547,0.531625,0.553109,0.569635,0.582745,0.593401
0.0509606,0.475101,0.721009,0.8764,0.983598,1.062,1.12181,1.16894,1.20703,1.23845
0.0477411,0.465146,0.683588,0.808468,0.888457,0.943848,0.984401,1.01534,1.03972,1.05941
0.0465765,0.471999,0.685161,0.806114,0.884083,0.938595,0.978885,1.00989,1.03451,1.05452
0.0484153,0.550302,0.814245,0.967031,1.06646,1.13628,1.18799,1.22782,1.25943,1.28513
0.0394759,0.433939,0.614345,0.71275,0.774806,0.817547,0.84879,0.872628,0.891418,0.90661
0.0637078,0.774159,1.14257,1.36337,1.51136,1.61765,1.69775,1.7603,1.81051,1.85171
0.0604591,0.661257,0.905156,1.03217,1.1098,1.16206,1.19959,1.22784,1.24985,1.2675
0.0441513,0.572061,0.842518,1.00444,1.11272,1.19036,1.24881,1.29442,1.33101,1.36103
0.0434946,0.58553,0.854808,1.00984,1.11017,1.18026,1.23193,1.27159,1.30297,1.32842
0.0289804,0.424516,0.631417,0.753776,0.834501,0.891748,0.934463,0.967561,0.993963,1.01552
0.0396869,0.728418,1.15483,1.42054,1.59981,1.72838,1.82491,1.89999,1.96002,2.00908
0.0415601,0.698959,0.999163,1.1563,1.25245,1.31733,1.36406,1.39934,1.42693,1.44908
0.0372121,0.593755,0.829432,0.956966,1.03793,1.09416,1.13557,1.16737,1.19258,1.21305
0.0284545,0.481105,0.697369,0.825227,0.91039,0.971271,1.01697,1.05254,1.08101,1.10431
0.0331016,0.605757,0.89091,1.05695,1.16492,1.24048,1.29621,1.33898,1.37282,1.40025
0.0398421,0.719802,1.03419,1.21029,1.32271,1.4007,1.45798,1.50185,1.53653,1.56463
0.0288639,0.560787,0.828454,0.987042,1.09217,1.16705,1.22312,1.26668,1.30151,1.33
0.0371397,0.744139,1.0723,1.25156,1.36351,1.4398,1.49503,1.53684,1.56956,1.59585
0.0430485,0.900691,1.3199,1.56393,1.72457,1.83865,1.92397,1.99025,2.04324,2.0866
0.0290481,0.587576,0.836693,0.974825,1.06267,1.12343,1.16794,1.20194,1.22876,1.25046
0.0319651,0.693127,1.01022,1.19329,1.31258,1.3965,1.45875,1.50677,1.54494,1.576
0.0388479,0.869524,1.27507,1.51163,1.66667,1.77613,1.85753,1.92044,1.97051,2.01131
0.0363653,0.921091,1.41734,1.72749,1.93934,2.09313,2.20982,2.30137,2.37512,2.43579
0.0298772,0.761319,1.10704,1.29286,1.40715,1.48414,1.53939,1.58092,1.61325,1.63913
0.027485,0.68041,0.976395,1.14214,1.24915,1.3243,1.3801,1.42323,1.45759,1.48561
0.035837,0.934343,1.35351,1.59049,1.743,1.8493,1.92758,1.98761,2.03508,2.07355
0.0358362,0.921788,1.3281,1.56021,1.71098,1.81691,1.89544,1.95602,2.00416,2.04335
0.0340683,0.882739,1.27765,1.50604,1.65516,1.76019,1.83817,1.89835,1.94619,1.98515
0.0293723,0.868245,1.33043,1.61973,1.81743,1.96094,2.0698,2.15519,2.22395,2.2805
0.0389854,1.13823,1.67718,1.98405,2.18071,2.31715,2.41726,2.49381,2.55421,2.60309
0.0453117,1.12163,1.53239,1.74585,1.87712,1.9662,2.03069,2.07956,2.11788,2.14876
0.0299787,0.751323,1.06637,1.25034,1.3723,1.45938,1.52474,1.57565,1.61642,1.64983
0.0546844,1.53209,2.29509,2.76642,3.08528,3.31473,3.48748,3.62212,3.72994,3.81821
0.0313996,1.02788,1.59194,1.93439,2.16044,2.3198,2.43788,2.52876,2.60081,2.65932
0.0415593,1.33357,1.95981,2.30603,2.52439,2.67467,2.78448,2.86826,2.93431,2.98773
0.0280565,0.887429,1.28848,1.51551,1.66271,1.76626,1.84318,1.90263,1.94996,1.98854
0.0374903,1.21116,1.74269,2.0368,2.22347,2.35237,2.44666,2.5186,2.57527,2.62107
0.111299,3.66913,5.35539,6.33823,6.98564,7.44516,7.78852,8.05492,8.2677,8.44159
0.0338701,1.07505,1.53087,1.78416,1.94524,2.05661,2.13816,2.20043,2.24952,2.28921
0.034759,1.12578,1.60796,1.87697,2.04853,2.16747,2.25477,2.32157,2.37435,2.41709
0.0254915,0.859299,1.25835,1.49373,1.6495,1.76033,1.84326,1.90766,1.95913,2.00121
0.0300249,1.05333,1.55772,1.85497,2.0504,2.18849,2.29118,2.3705,2.4336,2.48498
0.032377,1.31917,2.03521,2.47042,2.76031,2.96665,3.12083,3.24033,3.33565,3.41343
0.0400301,1.53475,2.22957,2.61258,2.85462,3.02146,3.14348,3.23663,3.31008,3.3695
0.025783,0.973322,1.4101,1.66,1.82312,1.93831,2.02411,2.09053,2.1435,2.18672
0.0477612,1.91821,2.83072,3.36292,3.7114,3.95705,4.13939,4.28004,4.39179,4.48271
0.0301664,1.0207,1.39368,1.5876,1.70657,1.78702,1.84507,1.88894,1.92325,1.95083
0.0382647,1.40776,2.04148,2.41865,2.67088,2.85188,2.98823,3.0947,3.18016,3.25029
0.0317378,1.34891,2.0591,2.49568,2.78856,2.99775,3.15429,3.27568,3.37249,3.45146
0.0461757,1.9893,2.97233,3.54352,3.91434,4.17409,4.36611,4.51384,4.63101,4.72623
0.0351691,1.64818,2.50418,3.01263,3.34866,3.58729,3.76555,3.90379,4.01415,4.10429
0.0403103,1.75411,2.52498,2.94924,3.21811,3.40392,3.54006,3.64413,3.72626,3.79274
0.0305834,1.30173,1.87794,2.20937,2.42646,2.58008,2.69464,2.7834,2.85422,2.91203
0.108765,5.17933,7.78637,9.35169,10.3925,11.133,11.6862,12.1148,12.4566,12.7354
0.0330105,1.43728,2.03936,2.36615,2.57076,2.7108,2.81265,2.89006,2.95087,2.99992
0.0322454,1.31605,1.84903,2.14606,2.33687,2.47017,2.56868,2.6445,2.70468,2.75361
0.0273355,1.1363,1.64579,1.94835,2.14965,2.29334,2.40106,2.48482,2.55181,2.6066
0.0331629,1.40814,2.05944,2.44242,2.69351,2.87043,3.00169,3.10288,3.18325,3.24862
0.0294964,1.3348,1.96017,2.31562,2.54262,2.69964,2.81458,2.90231,2.97144,3.02731
0.0336477,1.44885,2.07351,2.42142,2.64363,2.79813,2.91191,2.99924,3.06841,3.12457
0.0229812,0.935111,1.31639,1.52741,1.66196,1.75537,1.82404,1.87665,1.91826,1.95198
0.0374629,1.60738,2.3515,2.79497,3.0904,3.30146,3.4598,3.58299,3.68157,3.76224
0.0284477,1.29605,1.93034,2.30782,2.5568,2.73289,2.86387,2.96504,3.0455,3.111
0.0261588,1.23766,1.84614,2.20362,2.43779,2.60291,2.72557,2.82027,2.8956,2.95695
0.0312351,1.58882,2.40017,2.8804,3.19668,3.42058,3.58738,3.71645,3.81929,3.90315
0.0769321,4.03749,6.06287,7.2497,8.02875,8.57951,8.98958,9.30678,9.55948,9.76555
0.0321882,1.74806,2.57487,3.03528,3.32723,3.52857,3.67571,3.7879,3.87625,3.94763
0.028753,1.41077,1.98615,2.29755,2.49425,2.63017,2.72986,2.80615,2.86645,2.91531
0.0357104,1.8269,2.67469,3.18079,3.52002,3.76372,3.94739,4.09081,4.20592,4.30036
0.0288188,1.21744,1.6261,1.82982,1.95107,2.03121,2.08802,2.13035,2.16309,2.18915
0.0320372,1.50064,2.19262,2.62078,2.91553,3.13176,3.29749,3.42871,3.53524,3.62349
0.0247042,1.2259,1.82832,2.19275,2.4348,2.60643,2.73415,2.83274,2.91108,2.97479
0.0367898,2.07197,3.24246,3.98655,4.49721,4.86863,5.15076,5.37232,5.55092,5.69795
0.0465872,2.42048,3.49269,4.07122,4.42971,4.67306,4.84893,4.98191,5.08597,5.1696
0.0235415,1.24585,1.8183,2.14717,2.36226,2.51445,2.62802,2.71608,2.78641,2.84388
0.0314897,1.72022,2.53251,3.00513,3.31469,3.53311,3.69541,3.82073,3.92038,4.00151
0.021854,1.12238,1.59694,1.85862,2.02447,2.13895,2.22272,2.28668,2.33711,2.37789
0.0331798,2.03398,3.12736,3.80734,4.27087,4.60701,4.86191,5.06183,5.22284,5.35527
0.107079,6.41777,9.46863,11.1979,12.3047,13.0722,13.6352,14.0656,14.4052,14.6801
0.077862,5.17945,7.99803,9.7505,10.9491,11.8221,12.4869,13.0103,13.4332,13.782
0.029392,1.80752,2.62276,3.07568,3.36323,3.56179,3.70704,3.81787,3.9052,3.97578
0.02948,1.79534,2.61064,3.0804,3.3878,3.60511,3.76705,3.89244,3.99245,4.07409
0.0315892,2.02282,2.968,3.50978,3.85999,4.10455,4.28483,4.42315,4.53259,4.62132
0.0341416,2.12867,3.08708,3.6346,3.98971,4.23895,4.42362,4.56598,4.67911,4.77117
0.027489,1.70561,2.48661,2.94205,3.24127,3.45304,3.61086,3.73301,3.83038,3.9098
0.0272746,1.95143,3.01978,3.69037,4.14858,4.48089,4.73271,4.93001,5.08873,5.21916
