0.350992,0.408908,0.432708,0.445678,0.45384,0.459449,0.463542,0.466659,0.469113,0.471095
0.459832,0.777796,0.971765,1.10109,1.19325,1.26217,1.31565,1.35834,1.3932,1.4222
0.17707,0.395882,0.534139,0.62208,0.681513,0.723947,0.755608,0.780071,0.799508,0.815308
0.0759828,0.213576,0.306814,0.368478,0.41168,0.443534,0.467975,0.48732,0.503011,0.515997
0.172079,0.581591,0.831818,0.977958,1.07122,1.13534,1.18197,1.21733,1.24505,1.26733
0.503341,2.00564,2.88317,3.38583,3.70796,3.93185,4.09659,4.22293,4.32294,4.40409
0.14376,0.710999,1.07199,1.29288,1.44132,1.54798,1.62835,1.69108,1.74142,1.7827
0.0626105,0.358034,0.534331,0.636164,0.701813,0.747525,0.781141,0.806885,0.827224,0.843694
0.0616169,0.361171,0.508705,0.586692,0.634841,0.667549,0.69123,0.709175,0.723245,0.734575
0.106737,0.68331,0.972552,1.1348,1.23951,1.3129,1.36727,1.40919,1.44251,1.46963
0.0579865,0.432939,0.644447,0.772312,0.858168,0.919794,0.966165,1.00231,1.03128,1.055
0.0502904,0.360043,0.516657,0.608488,0.669186,0.712352,0.744644,0.769719,0.789756,0.806138
0.157778,1.32769,1.98993,2.39211,2.66064,2.85211,2.99531,3.10636,3.19496,3.26727
0.0489667,0.448382,0.659527,0.778675,0.854348,0.90649,0.944551,0.973538,0.996344,1.01475
0.0948107,0.81511,1.11854,1.27388,1.36827,1.43178,1.47748,1.51195,1.53888,1.56052
0.069523,0.71899,1.07449,1.29387,1.4443,1.55427,1.63828,1.7046,1.75831,1.80269
0.0504644,0.565177,0.83912,0.998698,1.10232,1.17473,1.22806,1.26892,1.3012,1.32733
0.0737192,0.895223,1.32568,1.57251,1.73189,1.84321,1.92535,1.98848,2.0385,2.07913
0.0416537,0.567737,0.860785,1.03601,1.15259,1.23579,1.29819,1.34672,1.38556,1.41734
0.0332334,0.486775,0.731054,0.872896,0.965275,1.03016,1.07821,1.11521,1.14458,1.16846
0.087065,1.21256,1.71804,1.98854,2.15723,2.27258,2.35647,2.42024,2.47037,2.51081
0.035403,0.501358,0.714336,0.834351,0.912045,0.966601,1.00706,1.03828,1.06311,1.08333
0.0848158,1.34828,2.02005,2.43179,2.71072,2.91214,3.06438,3.18346,3.27914,3.35768
0.0366391,0.565137,0.807503,0.940715,1.02439,1.08166,1.12326,1.15483,1.17959,1.19953
0.0481156,0.748174,1.06847,1.24921,1.36578,1.44736,1.50773,1.55422,1.59115,1.6212
0.0563312,0.888136,1.26687,1.48057,1.61796,1.71373,1.7843,1.83845,1.88131,1.91607
0.0521379,0.921107,1.37909,1.65842,1.84664,1.98207,2.08419,2.16394,2.22794,2.28044
0.0306743,0.568416,0.845446,1.00764,1.11346,1.18777,1.24276,1.28507,1.31863,1.34588
0.0451297,0.826273,1.20099,1.41436,1.55219,1.64866,1.71999,1.7749,1.81848,1.85391
0.0521984,1.00409,1.47445,1.74804,1.92718,2.05365,2.14771,2.22041,2.27828,2.32544
0.0346749,0.628747,0.884736,1.02369,1.1109,1.17073,1.21431,1.24747,1.27355,1.29459
0.175423,3.54034,5.23655,6.25221,6.93112,7.4176,7.78352,8.06884,8.29759,8.48509
0.0403074,0.911879,1.38879,1.67826,1.87141,2.00907,2.11202,2.19184,2.25553,2.3075
0.0349103,0.736295,1.04309,1.20555,1.30549,1.37306,1.42177,1.45854,1.48729,1.51038
0.0417455,0.954451,1.40508,1.67022,1.84625,1.97206,2.06661,2.14032,2.19942,2.24788
0.0348936,0.829347,1.21834,1.44244,1.58786,1.68968,1.76487,1.82265,1.86841,1.90555
0.0300193,0.702109,1.00779,1.17785,1.28614,1.36114,1.41617,1.45827,1.49153,1.51845
0.0504013,1.25368,1.84459,2.19151,2.4204,2.58291,2.70431,2.79848,2.87366,2.93507
0.0411219,0.903141,1.23793,1.4115,1.51745,1.58877,1.64002,1.67861,1.70871,1.73284
0.0311799,0.734651,1.06069,1.2533,1.38163,1.47354,1.5427,1.59667,1.63998,1.67551
0.0639565,1.6586,2.47847,2.97321,3.30253,3.53682,3.71175,3.84723,3.95518,4.04318
0.0411234,1.06345,1.54211,1.8093,1.97848,2.09495,2.17996,2.24471,2.29566,2.3368
0.0417643,1.09432,1.57954,1.85233,2.0274,2.14946,2.2395,2.30868,2.36353,2.40808
0.11915,3.21995,4.68228,5.521,6.06601,6.44886,6.7326,6.95133,7.12509,7.26646
0.0366615,1.05535,1.5625,1.86024,2.05594,2.19432,2.29732,2.37696,2.44036,2.49204
0.0355588,1.02158,1.4811,1.73908,1.90382,2.01803,2.10184,2.16596,2.21658,2.25756
0.0712547,1.76254,2.38605,2.70517,2.89949,3.03038,3.12458,3.19565,3.25119,3.29579
0.0428978,1.1723,1.69728,2.01027,2.22009,2.37097,2.48482,2.57383,2.64535,2.70409
0.0356138,0.950984,1.34542,1.56316,1.70031,1.79429,1.86258,1.9144,1.95503,1.98773
0.0446293,1.27757,1.86118,2.1998,2.42082,2.5765,2.69213,2.78143,2.85249,2.91039
0.0408164,1.25327,1.86405,2.2254,2.4635,2.63208,2.75766,2.85481,2.93219,2.99528
0.0322118,0.970487,1.39726,1.63299,1.78183,1.88423,1.95895,2.01587,2.06067,2.09685
0.0378406,1.06908,1.48364,1.7027,1.83839,1.93081,1.99784,2.04871,2.08863,2.12081
0.0397437,1.30611,1.96162,2.36547,2.64096,2.84129,2.99363,3.11343,3.21013,3.28982
0.0784779,1.98992,2.61303,2.91078,3.08367,3.19616,3.27504,3.33334,3.37815,3.41366
0.0309003,0.944058,1.40226,1.69363,1.89838,2.05096,2.16935,2.264,2.34145,2.40604
0.0446172,1.51213,2.2843,2.74699,3.05036,3.26292,3.41947,3.53927,3.63375,3.71009
0.0766484,2.66868,3.93823,4.65249,5.10619,5.41935,5.64848,5.82342,5.96139,6.07302
0.0362456,1.31739,1.94576,2.30472,2.53721,2.70034,2.82124,2.91447,2.98858,3.04891
0.037338,1.487,2.2465,2.69589,2.99294,3.2039,3.36146,3.48361,3.58106,3.66062
0.0376996,1.46933,2.12454,2.48112,2.70459,2.85759,2.96884,3.05337,3.11975,3.17326
0.0384359,0.613724,0.697722,0.730902,0.748778,0.759979,0.767666,0.77327,0.777539,0.780899
0.0655543,1.57892,2.3617,2.96367,3.45345,3.8623,4.20953,4.50839,4.76846,4.99691
0.0363501,1.14461,1.86773,2.37327,2.72854,2.98492,3.17567,3.32173,3.43643,3.52849
0.0481824,1.81457,2.94489,3.62954,4.06682,4.366,4.58265,4.74661,4.875,4.97829
0.0290908,1.23886,1.95976,2.3693,2.62882,2.80818,2.93985,3.04077,3.12066,3.18552
0.034911,1.32113,1.85219,2.10924,2.26119,2.36197,2.43384,2.48773,2.52965,2.5632
0.0315968,1.37256,2.06305,2.47499,2.7545,2.95796,3.11306,3.23535,3.3343,3.41603
0.0283129,1.40493,2.19004,2.67357,3.00087,3.23638,3.41359,3.55157,3.66197,3.75225
0.0253357,1.28989,1.95463,2.33982,2.59019,2.76568,2.89545,2.99528,3.07446,3.1388
0.0305999,1.56488,2.3118,2.73217,3.00216,3.19039,3.3292,3.43584,3.52033,3.58895
0.0340246,1.27715,1.65699,1.83622,1.94105,2.00994,2.0587,2.09504,2.12317,2.14559
0.0262086,1.10126,1.58775,1.88922,2.09831,2.25266,2.37153,2.46597,2.54286,2.60669
0.0250925,1.19354,1.80763,2.18933,2.44649,2.63021,2.76749,2.87372,2.95825,3.02705
0.0240057,1.28554,1.9945,2.42851,2.71716,2.92208,3.07486,3.19308,3.28727,3.36407
0.0572972,3.29795,5.09257,6.16129,6.86488,7.36279,7.73376,8.02091,8.2498,8.43655
0.0309246,1.73665,2.55494,3.00741,3.29422,3.49245,3.63772,3.74878,3.83645,3.90743
0.0274165,1.57965,2.33462,2.77017,3.05568,3.25783,3.40864,3.52554,3.61882,3.695
0.0303869,1.76481,2.6114,3.10824,3.43646,3.66963,3.84384,3.97893,4.08675,4.17479
0.0455133,2.39655,3.36472,3.88576,4.21129,4.43382,4.59549,4.71824,4.8146,4.89224
0.0248088,1.31242,1.88017,2.20664,2.42013,2.57097,2.6833,2.77026,2.83958,2.89615
0.0251482,1.47376,2.22679,2.69316,3.01011,3.23929,3.4126,3.5482,3.65716,3.74662
0.0315029,1.53459,2.09067,2.37254,2.54143,2.65357,2.73335,2.79295,2.83917,2.87604
0.0317942,1.53615,2.15479,2.5055,2.73387,2.89511,3.01526,3.10836,3.18266,3.24335
0.0317977,1.78208,2.71269,3.30507,3.71493,4.01495,4.24383,4.42408,4.56966,4.68965
0.0243938,1.40628,2.09711,2.49699,2.75412,2.9324,3.06297,3.1626,3.24107,3.30445
0.0252076,1.57846,2.40638,2.90354,3.2343,3.47041,3.64754,3.78541,3.89581,3.98624
0.0337701,2.14014,3.20046,3.81432,4.21392,4.49475,4.70292,4.86338,4.99085,5.09454
0.0309572,1.96857,2.89939,3.42964,3.77257,4.01271,4.19032,4.32703,4.43552,4.52372
0.0279488,1.78967,2.61997,3.09371,3.40076,3.61611,3.77555,3.89836,3.99588,4.07518
0.0263304,1.72962,2.55889,3.04611,3.36774,3.59611,3.76668,3.89895,4.00453,4.09075
0.0536334,3.50705,5.13526,6.0716,6.67951,7.10577,7.4211,7.66379,7.85631,8.01275
0.0308224,1.99743,2.89834,3.41039,3.74081,3.97171,4.14218,4.27321,4.37707,4.46142
0.0271236,1.67337,2.38185,2.77668,3.02894,3.20417,3.33302,3.43176,3.50985,3.57316
0.0296959,0.431474,0.46292,0.474667,0.480828,0.484625,0.4872,0.489061,0.490469,0.491572
0.0327817,0.814028,1.22686,1.58287,1.89925,2.18356,2.44087,2.67501,2.88907,3.08556
0.0316292,1.14094,1.97612,2.63252,3.12316,3.4882,3.76336,3.97467,4.14016,4.27219
0.0215928,1.03634,1.83431,2.35891,2.69913,2.93085,3.09715,3.22188,3.31883,3.39634
0.0244138,1.48528,2.6009,3.27255,3.702,3.99963,4.21868,4.38708,4.52079,4.62966
0.0241969,1.59517,2.54588,3.04683,3.35396,3.56283,3.71461,3.83008,3.92094,3.99433
