0.523389,0.654647,0.714365,0.748505,0.770601,0.786071,0.797507,0.806305,0.813283,0.818953
0.298291,0.50074,0.61698,0.691162,0.742392,0.779834,0.808372,0.830836,0.848974,0.863923
0.212575,0.433839,0.555966,0.628549,0.675826,0.708847,0.733138,0.751727,0.766395,0.778258
0.116991,0.300615,0.408469,0.47371,0.516786,0.547232,0.569863,0.587336,0.601231,0.612543
0.139578,0.447966,0.652734,0.787356,0.881891,0.951852,1.00571,1.04846,1.08321,1.11201
0.0928267,0.352751,0.508357,0.598301,0.655444,0.694621,0.723041,0.744555,0.761386,0.774903
0.217608,0.982969,1.43556,1.6974,1.8665,1.98469,2.07199,2.13916,2.19246,2.2358
0.773367,4.10801,6.06385,7.1953,7.92874,8.44259,8.82262,9.11509,9.34711,9.53568
0.0541713,0.163118,0.187332,0.196981,0.202162,0.205396,0.207607,0.209215,0.210436,0.211396
0.0745193,0.333843,0.481803,0.586933,0.66748,0.73159,0.783958,0.827588,0.86452,0.896197
0.067283,0.419285,0.671908,0.846699,0.969993,1.05976,1.12725,1.17947,1.22088,1.25442
0.0502247,0.25547,0.329922,0.362425,0.379895,0.390659,0.397923,0.403148,0.407084,0.410155
0.0516329,0.368547,0.563952,0.692974,0.78647,0.858053,0.914884,0.961206,0.999737,1.03231
0.0488012,0.436387,0.687629,0.841831,0.943644,1.01505,1.06755,1.1076,1.13908,1.16442
0.047651,0.469232,0.703567,0.83063,0.909024,0.962026,1.00023,1.02907,1.05162,1.06974
0.144736,1.61038,2.41634,2.86752,3.15697,3.35916,3.50869,3.62387,3.71538,3.78985
0.0547608,0.658039,0.970633,1.14323,1.25307,1.32921,1.38511,1.4279,1.4617,1.48908
0.0403327,0.210466,0.237434,0.24774,0.253213,0.256613,0.25893,0.260612,0.261889,0.26289
0.0720492,0.580352,0.858352,1.06957,1.24012,1.38163,1.50122,1.60372,1.69259,1.77041
0.0368798,0.38294,0.599601,0.741176,0.836126,0.902387,0.95048,0.986612,1.01457,1.03674
0.0429054,0.557252,0.889658,1.08918,1.21663,1.30403,1.36751,1.41569,1.45351,1.484
0.0347729,0.546133,0.874455,1.06566,1.18841,1.27386,1.33687,1.3853,1.42372,1.45495
0.036596,0.613316,0.921954,1.08426,1.18382,1.25126,1.30001,1.33692,1.36584,1.38911
0.0384901,0.690829,1.01937,1.1963,1.30811,1.38554,1.44245,1.48607,1.52059,1.54859
0.0411293,0.785417,1.15137,1.35305,1.48203,1.5718,1.63791,1.68864,1.72878,1.76135
0.124888,2.59875,3.8591,4.58053,5.05056,5.38131,5.62671,5.81602,5.96649,6.08896
0.0515359,0.961322,1.36723,1.59658,1.74571,1.85076,1.92884,1.98919,2.03725,2.07644
0.0373264,0.759195,1.11088,1.31573,1.44975,1.54409,1.61403,1.66792,1.7107,1.74547
0.0360096,0.763632,1.10895,1.3028,1.42622,1.51152,1.57393,1.62156,1.6591,1.68944
0.0500582,1.12253,1.64142,1.93683,2.12747,2.26074,2.35919,2.4349,2.49496,2.54376
0.0508466,1.2171,1.79857,2.13464,2.35351,2.50738,2.62147,2.70943,2.77932,2.83618
0.0380056,0.924496,1.33717,1.56495,1.70895,1.80812,1.88055,1.93575,1.97922,2.01433
0.0407561,0.597748,0.724626,0.779287,0.809808,0.829312,0.84286,0.852823,0.860458,0.866497
0.0414496,0.779746,1.12775,1.35889,1.52744,1.6566,1.75899,1.84224,1.9113,1.96953
0.03189,0.720092,1.1048,1.34927,1.51416,1.63129,1.71812,1.78478,1.83741,1.87995
0.0352474,0.854089,1.27192,1.50496,1.64978,1.74777,1.81832,1.87151,1.91304,1.94636
0.0328343,0.769713,1.08998,1.2575,1.36027,1.42994,1.48037,1.51861,1.54863,1.57282
0.0316652,0.829458,1.22552,1.45555,1.60704,1.7147,1.79526,1.85783,1.90786,1.94877
0.0423445,1.18435,1.75177,2.0755,2.28422,2.42972,2.53682,2.6189,2.68377,2.73633
0.0350169,0.96847,1.38399,1.60758,1.74703,1.84228,1.91146,1.96399,2.00523,2.03847
0.0462601,0.747985,0.911098,0.984685,1.02707,1.05473,1.07423,1.08874,1.09996,1.1089
0.0473335,1.05182,1.57145,1.93457,2.20778,2.42178,2.59423,2.73627,2.85533,2.9566
0.0345716,0.913148,1.41213,1.72382,1.92983,2.0736,2.17863,2.25828,2.32053,2.37041
0.0362512,1.03219,1.54664,1.83171,2.00835,2.12783,2.21395,2.27895,2.32979,2.37064
0.0432663,1.27732,1.86423,2.18022,2.3772,2.51212,2.61051,2.68551,2.74461,2.79241
0.0367527,1.25623,1.92387,2.32271,2.58942,2.78087,2.92513,3.03778,3.1282,3.20239
0.032601,1.12902,1.65583,1.94252,2.12196,2.24458,2.33356,2.40103,2.45392,2.49648
0.0357786,1.2789,1.86285,2.18624,2.39273,2.53631,2.64205,2.72322,2.7875,2.83969
0.0319323,1.16408,1.68423,1.97344,2.15833,2.28684,2.38136,2.4538,2.5111,2.55754
0.0338338,1.18955,1.68422,1.95468,2.12593,2.24421,2.33083,2.39701,2.44922,2.49147
0.0365073,1.29895,1.85439,2.16695,2.36816,2.50865,2.61232,2.69198,2.75512,2.80638
0.0416081,0.670936,0.770715,0.811154,0.833041,0.84675,0.856139,0.862971,0.868164,0.872244
0.0348305,0.784246,1.13451,1.38452,1.57639,1.72923,1.85416,1.95829,2.04647,2.12213
0.0394446,1.15982,1.85546,2.33473,2.67144,2.91584,3.09915,3.24072,3.35283,3.44354
0.0400298,1.31892,2.03272,2.43692,2.68546,2.85135,2.96938,3.05748,3.12573,3.18015
0.0409128,1.57995,2.47575,2.99434,3.32878,3.56295,3.73653,3.87056,3.97729,4.06435
0.0381821,1.55831,2.34467,2.77097,3.03763,3.22046,3.35372,3.45517,3.53501,3.59946
0.0652715,2.58636,3.69195,4.26435,4.61688,4.85659,5.03039,5.16224,5.26573,5.34914
0.0355223,1.46368,2.13055,2.51013,2.75876,2.93495,3.0665,3.16854,3.25003,3.31661
0.0354078,1.5481,2.27948,2.69963,2.97267,3.16407,3.30552,3.41426,3.50042,3.57034
0.0399347,1.81413,2.67106,3.16101,3.47789,3.69949,3.86311,3.98887,4.08855,4.1695
0.0374138,1.75818,2.58839,3.06356,3.37136,3.58699,3.74646,3.86921,3.9666,4.04577
0.0403931,1.90859,2.78125,3.27503,3.59299,3.81491,3.97862,4.10437,4.20401,4.2849
0.0374705,1.86874,2.75279,3.26068,3.59031,3.82149,3.99257,4.12428,4.22881,4.31378
0.0369174,1.85833,2.6995,3.16969,3.4696,3.67746,3.82999,3.94667,4.0388,4.1134
0.0370118,1.89564,2.75656,3.24502,3.56055,3.7814,3.9447,4.07038,4.17011,4.25119
0.0473793,2.09956,2.88279,3.29644,3.55318,3.72825,3.85532,3.95176,4.02747,4.08848
0.0520228,2.07037,2.83676,3.26282,3.53691,3.7286,3.87036,3.97951,4.06617,4.13664
0.0649576,2.78356,4.00643,4.72906,5.20572,5.54318,5.79439,5.98855,6.14307,6.26892
0.0312333,1.3703,1.97286,2.31422,2.53194,2.68238,2.79238,2.87626,2.94232,2.99567
0.0532321,2.47772,3.62832,4.29054,4.71908,5.01895,5.24056,5.41105,5.54628,5.65619
0.0321598,1.59229,2.34612,2.77557,3.05148,3.24348,3.38474,3.493,3.5786,3.64797
0.0324306,1.73616,2.59433,3.09117,3.41439,3.64145,3.80971,3.9394,4.04243,4.12625
0.0338222,1.55378,2.12047,2.40407,2.57399,2.68715,2.7679,2.82843,2.87549,2.91312
0.0574884,2.82573,4.06276,4.78063,5.25548,5.5943,5.84868,6.04686,6.20569,6.33587
0.0314688,1.57339,2.26009,2.64657,2.89352,3.06448,3.18964,3.28513,3.36035,3.4211
0.0399834,2.0052,2.86797,3.34849,3.65428,3.86589,4.02103,4.13966,4.23331,4.30914
0.0422669,2.18269,3.14881,3.69455,4.04522,4.28957,4.46962,4.6078,4.71721,4.80598
0.0337076,1.82594,2.6716,3.15788,3.47343,3.69466,3.85835,3.98436,4.08434,4.16561
0.0342294,1.87216,2.70218,3.16247,3.45407,3.65513,3.80208,3.91415,4.00243,4.07377
0.0352283,1.98768,2.8874,3.39634,3.72412,3.95306,4.12209,4.25204,4.35508,4.43879
0.0382471,2.18791,3.16699,3.71752,4.07042,4.3159,4.49652,4.63498,4.74448,4.83326
0.0364078,0.866714,0.988546,1.03687,1.06282,1.079,1.09006,1.09811,1.10421,1.10901
0.0482948,1.71901,2.56397,3.206,3.7233,4.15176,4.51333,4.82287,5.09102,5.32563
0.0466376,2.124,3.41126,4.28383,4.88424,5.31127,5.62575,5.86472,6.0513,6.20039
0.0343415,1.75209,2.72064,3.27237,3.6135,3.84249,4.0063,4.1292,4.22484,4.3014
0.0350579,1.78806,2.68024,3.18317,3.50645,3.73314,3.90153,4.03183,4.13577,4.22067
0.0396354,2.37835,3.70516,4.49441,5.01707,5.38883,5.66675,5.88229,6.05429,6.19469
0.0329699,2.0808,3.146,3.7423,4.12212,4.38501,4.57766,4.72487,4.84099,4.93493
0.0283739,1.75475,2.53141,2.94254,3.19782,3.372,3.49853,3.59465,3.67016,3.73106
0.0356802,2.19052,3.13939,3.66179,3.99612,4.22921,4.40122,4.53345,4.63831,4.72351
0.0345972,2.13796,3.05981,3.57165,3.89868,4.12574,4.29255,4.42026,4.52116,4.60288
0.0321849,2.15728,3.19629,3.80827,4.21235,4.49906,4.71302,4.87881,5.01104,5.11897
0.0469123,3.0631,4.39679,5.12873,5.58929,5.90522,6.1352,6.31004,6.44742,6.55819
0.0356556,2.13564,3.04067,3.56091,3.90227,4.14438,4.32532,4.46581,4.5781,4.66993
0.0365851,2.22147,3.16967,3.70108,4.03968,4.27369,4.44484,4.57534,4.67808,4.76103
0.0434694,2.80504,4.1007,4.85027,5.33787,5.68024,5.93384,6.12924,6.28443,6.41066
0.0352026,2.24212,3.20157,3.72533,4.05358,4.27824,4.44155,4.5656,4.663,4.7415
0.0343703,2.18721,3.11711,3.63142,3.95864,4.18547,4.35208,4.4797,4.58061,4.66241
0.0340487,2.18693,3.12294,3.64398,3.97633,4.20683,4.37607,4.50561,4.60794,4.69082
