0.10912,0.123838,0.129668,0.132793,0.134742,0.136073,0.13704,0.137775,0.138352,0.138816
0.0995953,0.181852,0.240068,0.283081,0.316094,0.342211,0.363383,0.38089,0.395605,0.408147
0.0763029,0.194476,0.282409,0.343292,0.386371,0.417956,0.441909,0.46061,0.475572,0.487792
0.0633189,0.202778,0.298798,0.358697,0.398286,0.426133,0.446723,0.462547,0.475084,0.48526
0.0567388,0.227183,0.343543,0.415401,0.463318,0.497479,0.523065,0.542952,0.558856,0.571868
0.0537554,0.25412,0.383567,0.461283,0.512641,0.549093,0.57631,0.59741,0.614247,0.627996
0.0508873,0.270328,0.401813,0.478767,0.529182,0.564798,0.591308,0.611813,0.628147,0.641467
0.0521223,0.317342,0.477583,0.574045,0.638573,0.684817,0.719595,0.746705,0.768434,0.786239
0.0544501,0.356941,0.526123,0.624339,0.688473,0.733633,0.767148,0.793005,0.813557,0.830285
0.0487161,0.358785,0.537976,0.645953,0.718274,0.770135,0.809154,0.839581,0.863974,0.883969
0.0465381,0.373907,0.559262,0.669679,0.742876,0.794926,0.833822,0.863987,0.88806,0.907716
0.0432615,0.369051,0.545527,0.648737,0.716454,0.764302,0.799909,0.827441,0.849366,0.867239
0.0426774,0.394359,0.587605,0.702945,0.779705,0.834499,0.875585,0.90754,0.933105,0.954024
0.0441641,0.434882,0.646155,0.771179,0.853771,0.912378,0.956114,0.989998,1.01702,1.03907
0.038938,0.248679,0.306199,0.331992,0.346653,0.356115,0.362728,0.367612,0.371366,0.374342
0.0370484,0.320749,0.480707,0.593082,0.678102,0.745063,0.79929,0.844148,0.881894,0.914105
0.0406405,0.429518,0.677026,0.84007,0.952432,1.0334,1.09406,1.14097,1.17822,1.20847
0.0384222,0.445866,0.684297,0.825206,0.916286,0.979663,1.02625,1.06194,1.09015,1.11303
0.0367352,0.476556,0.732763,0.884664,0.984732,1.05574,1.1088,1.14999,1.18291,1.20983
0.0399171,0.553548,0.835529,0.998375,1.10439,1.17898,1.23434,1.27705,1.31102,1.33867
0.145279,2.1684,3.27795,3.93278,4.36668,4.67581,4.90736,5.08733,5.23125,5.34897
0.0649959,0.930418,1.34969,1.58758,1.74179,1.85004,1.93026,1.9921,2.04124,2.08122
0.0354016,0.549809,0.822183,0.987024,1.09801,1.17789,1.23815,1.28522,1.32301,1.35402
0.0347797,0.60301,0.925846,1.12484,1.25921,1.35583,1.42858,1.48529,1.53072,1.56793
0.0347888,0.629457,0.947386,1.13345,1.25495,1.3404,1.40374,1.45256,1.49133,1.52287
0.0350695,0.654232,0.977161,1.16703,1.29234,1.38137,1.44794,1.49961,1.54089,1.57465
0.0345939,0.651301,0.961628,1.14297,1.26226,1.34678,1.4098,1.45861,1.49753,1.52928
0.0341631,0.66792,0.992977,1.18641,1.31496,1.40663,1.4753,1.52865,1.57131,1.60619
0.0371038,0.743494,1.10153,1.31269,1.45193,1.5506,1.62417,1.68112,1.72651,1.76354
0.0349928,0.708127,1.04954,1.25363,1.38973,1.48704,1.5601,1.61699,1.66255,1.69985
0.0326875,0.682965,1.0171,1.21723,1.35042,1.44539,1.5165,1.57174,1.61588,1.65196
0.033676,0.735054,1.10449,1.32796,1.47755,1.58465,1.66512,1.72778,1.77796,1.81904
0.0333124,0.747262,1.11471,1.33194,1.47506,1.57638,1.65187,1.71027,1.7568,1.79473
0.0335646,0.782365,1.17008,1.4006,1.55338,1.66209,1.74342,1.80656,1.857,1.89823
0.0355,0.875954,1.32251,1.59101,1.7701,1.89803,1.99398,2.0686,2.12829,2.17712
0.0329555,0.808689,1.20033,1.43086,1.58291,1.69077,1.77127,1.83367,1.88346,1.9241
0.0332286,0.836615,1.24699,1.49198,1.65509,1.77153,1.85885,1.92676,1.98109,2.02555
0.0334729,0.878746,1.31937,1.58417,1.76076,1.88685,1.98139,2.05488,2.11364,2.1617
0.0333391,0.91065,1.37224,1.64985,1.83497,1.96718,2.06631,2.14339,2.20504,2.25547
0.0321868,0.896244,1.33837,1.59933,1.77133,1.89322,1.98409,2.05445,2.11054,2.1563
0.0395779,1.15246,1.73688,2.08856,2.32363,2.49191,2.61834,2.71682,2.79571,2.86032
0.0325835,0.874202,1.25253,1.46353,1.59822,1.6917,1.76036,1.81294,1.8545,1.88817
0.0331574,0.943341,1.40782,1.69267,1.88641,2.02698,2.13373,2.21757,2.28518,2.34087
0.0323709,0.961033,1.44805,1.74442,1.94305,2.08516,2.19176,2.27462,2.34087,2.39502
0.0314384,0.96243,1.44404,1.73058,1.91983,2.05399,2.15402,2.23147,2.2932,2.34356
0.106393,3.39789,5.11057,6.12954,6.80417,7.28375,7.64222,7.92034,8.14241,8.32383
0.0337702,1.05751,1.56351,1.86053,2.05636,2.19534,2.29915,2.37965,2.44391,2.4964
0.0320124,0.627464,0.784085,0.856332,0.898059,0.925258,0.944397,0.958599,0.969557,0.978268
0.0386214,0.964757,1.44414,1.77552,2.0229,2.21564,2.37035,2.49741,2.60367,2.69388
0.0309668,0.891472,1.39381,1.72129,1.94622,2.10826,2.22975,2.32385,2.39872,2.4596
0.0380098,1.21367,1.89193,2.30206,2.57081,2.75943,2.89889,3.00614,3.09118,3.16027
0.0308102,1.0174,1.53491,1.82923,2.01783,2.14909,2.24581,2.32007,2.37891,2.4267
0.0309489,1.04295,1.56806,1.87809,2.0843,2.23191,2.34298,2.42965,2.49918,2.55622
0.0327176,1.1518,1.74315,2.09861,2.33661,2.50717,2.63539,2.73526,2.81525,2.88074
0.0307517,1.09777,1.64242,1.96333,2.17493,2.32488,2.43668,2.52323,2.59221,2.64847
0.0311616,1.19059,1.81278,2.18985,2.44283,2.62432,2.76086,2.86731,2.95264,3.02256
0.0805936,3.2287,4.89539,5.88452,6.53743,7.00013,7.34501,7.61192,7.82459,7.99801
0.0309656,1.19818,1.76837,2.09918,2.31598,2.46927,2.58349,2.67192,2.74243,2.79997
0.0362916,1.45055,2.1697,2.60139,2.89022,3.09719,3.25283,3.37413,3.47132,3.55095
0.0302243,1.20692,1.80407,2.16437,2.40588,2.57907,2.70934,2.81089,2.89227,2.95894
0.0298751,1.26611,1.91913,2.31461,2.57887,2.76763,2.9091,3.01902,3.10688,3.1787
0.076175,3.40945,5.19459,6.27032,6.98682,7.49783,7.88056,8.17791,8.41556,8.60986
0.0311686,1.3294,1.96535,2.33739,2.58232,2.75604,2.88576,2.98636,3.06666,3.13226
0.0334808,1.49235,2.24013,2.68948,2.98966,3.20441,3.36564,3.49114,3.59159,3.6738
0.0296857,1.31184,1.9534,2.33569,2.58976,2.77088,2.90654,3.01195,3.09621,3.16511
0.0290524,1.34198,2.02133,2.43034,2.70321,2.89808,3.04417,3.15773,3.24854,3.3228
0.0701774,2.92445,4.13026,4.77973,5.18471,5.46117,5.66186,5.81417,5.93369,6.02998
0.0325549,1.44541,2.15109,2.58424,2.8798,3.09502,3.25897,3.3881,3.49249,3.57864
0.0310439,1.44769,2.18775,2.63993,2.94356,3.16096,3.32406,3.45085,3.55218,3.63499
0.0289629,1.36556,2.04482,2.44822,2.71444,2.90309,3.04373,3.15261,3.23939,3.31019
0.0319284,1.56849,2.36411,2.83992,3.156,3.38122,3.54985,3.68084,3.78555,3.87115
0.0695873,3.50046,5.2605,6.30619,6.99858,7.49085,7.85882,8.14429,8.37221,8.55839
0.0290088,1.48703,2.23043,2.67238,2.96551,3.17422,3.33042,3.45173,3.54865,3.62788
0.0350647,1.79107,2.67037,3.19318,3.54049,3.78814,3.97369,4.11792,4.23324,4.32758
0.0323529,1.63406,2.42351,2.89265,3.20417,3.42618,3.59243,3.7216,3.82484,3.90926
0.031053,1.57864,2.345,2.80132,3.10418,3.31982,3.48115,3.60638,3.70641,3.78815
0.0661194,3.49477,5.24735,6.29952,6.99994,7.49939,7.8734,8.1639,8.39605,8.5858
0.0289043,1.56501,2.34608,2.80982,3.1163,3.3338,3.49612,3.62189,3.7222,3.80408
0.0282044,1.55398,2.32739,2.78716,3.09196,3.30891,3.47124,3.59729,3.698,3.78032
0.028781,1.62052,2.43033,2.91312,3.23375,3.4622,3.63322,3.76605,3.8722,3.95898
0.0873398,5.04317,7.56376,9.06087,10.0519,10.7562,11.2823,11.6903,12.0159,12.2818
0.0288155,1.66386,2.4838,2.97147,3.29535,3.52625,3.69923,3.83368,3.94119,4.02913
0.0282814,1.65318,2.46856,2.95402,3.27626,3.50574,3.67747,3.8108,3.91731,4.00436
0.0285834,1.6689,2.4802,2.96061,3.27843,3.50428,3.67305,3.80395,3.90843,3.99377
0.0286009,1.69032,2.51846,3.01149,3.33871,3.57173,3.74613,3.88154,3.98973,4.07816
0.0660167,4.08993,6.17391,7.42985,8.268,8.86668,9.31557,9.66458,9.94368,10.172
0.0287128,1.68575,2.47539,2.9353,3.23683,3.44994,3.6086,3.73135,3.82915,3.90892
0.0285321,1.68493,2.4903,2.96806,3.28495,3.51064,3.67956,3.81076,3.91559,4.0013
0.028147,1.73181,2.6076,3.14022,3.49811,3.75502,3.94835,4.09908,4.21988,4.31887
0.0293271,1.86615,2.81751,3.38907,3.76903,4.03957,4.24189,4.39887,4.5242,4.62657
0.0281876,1.73922,2.56885,3.0527,3.36979,3.59378,3.76048,3.8894,3.9921,4.07584
0.0292428,1.82612,2.71843,3.25153,3.60686,3.86085,4.0515,4.19991,4.31872,4.41599
0.0282188,1.15914,1.47192,1.61792,1.70243,1.75752,1.79627,1.82499,1.84715,1.86474
0.0286577,1.47987,2.22727,2.7371,3.11384,3.40516,3.63766,3.82772,3.98607,4.12009
0.0278371,1.60659,2.49436,3.06187,3.44771,3.72409,3.9306,4.09023,4.21704,4.32008
0.0304659,1.94713,3.0527,3.7328,4.18549,4.50713,4.74718,4.93317,5.08151,5.20261
0.0305617,1.94087,2.90408,3.44765,3.79452,4.03515,4.21198,4.34746,4.4546,4.54148
0.0272022,1.83888,2.78791,3.34915,3.72159,3.98747,4.18703,4.34242,4.46688,4.56883
0.499673,35.5389,54.1597,65.3039,72.7342,78.0434,82.0259,85.1234,87.601,89.6278
0.494546,33.3198,48.7878,57.5702,63.2458,67.218,70.1542,72.4131,74.2051,75.6613
