0.553118,0.637127,0.671103,0.689487,0.70101,0.708907,0.714658,0.719033,0.722473,0.725249
0.415249,0.653011,0.783204,0.864604,0.920187,0.960519,0.991108,1.0151,1.03442,1.05031
0.367416,0.805753,1.09007,1.2771,1.40715,1.50213,1.5743,1.63089,1.6764,1.71377
0.20663,0.58191,0.822285,0.969944,1.06701,1.13501,1.18509,1.22343,1.25369,1.27818
0.166436,0.510248,0.68583,0.778675,0.834959,0.872567,0.899446,0.919608,0.935292,0.94784
0.138696,0.507919,0.709029,0.824012,0.898438,0.95068,0.989428,1.01934,1.04313,1.06252
0.133817,0.594148,0.859992,1.01594,1.11782,1.18946,1.24253,1.2834,1.31583,1.34218
0.170726,0.850459,1.21199,1.41129,1.53637,1.62195,1.68412,1.73132,1.76836,1.7982
0.150213,0.873121,1.27144,1.49908,1.64617,1.74912,1.82524,1.88384,1.93035,1.96816
0.153111,0.998003,1.44821,1.70034,1.86097,1.97217,2.05368,2.11597,2.16512,2.20488
0.104541,0.737458,1.05691,1.2328,1.34413,1.42096,1.47719,1.52014,1.55401,1.58141
0.108196,0.840806,1.2193,1.43525,1.57536,1.67374,1.74665,1.80286,1.84754,1.88389
0.113974,0.966924,1.40469,1.65314,1.81309,1.92459,2.00673,2.06973,2.11958,2.16001
0.132715,1.21643,1.76177,2.06803,2.26388,2.39984,2.49973,2.57622,2.63666,2.68563
0.110187,1.09117,1.58384,1.86212,2.04098,2.16566,2.25755,2.32809,2.38395,2.42928
0.100892,0.927744,1.26162,1.43202,1.53538,1.60474,1.65452,1.69198,1.72119,1.7446
0.101992,1.07443,1.55822,1.84507,2.03674,2.17428,2.27792,2.35887,2.42387,2.47723
0.0989089,1.13592,1.65797,1.95763,2.15068,2.28492,2.38347,2.45881,2.51824,2.56628
0.116742,1.43204,2.08121,2.44605,2.67873,2.83989,2.95809,3.04849,3.11987,3.17767
0.0783673,1.01604,1.47165,1.72699,1.89026,2.0037,2.08714,2.1511,2.20169,2.24271
0.10467,1.42426,2.05808,2.4138,2.64174,2.80035,2.91711,3.00665,3.07751,3.13498
0.0772938,1.11128,1.60868,1.88887,2.06871,2.19392,2.28612,2.35683,2.41279,2.45817
0.0791205,1.18107,1.70015,1.99006,2.17515,2.30355,2.39785,2.47004,2.52708,2.57329
0.0895779,1.16967,1.56807,1.76899,1.89028,1.97149,2.02967,2.07342,2.10751,2.13482
0.0732315,0.840637,1.09751,1.22902,1.30976,1.36456,1.40424,1.43431,1.4579,1.4769
0.0826869,1.17495,1.73458,2.09258,2.34305,2.52834,2.671,2.78424,2.87631,2.95264
0.0788898,1.25928,1.8837,2.25358,2.49328,2.65975,2.78155,2.87431,2.9472,3.00593
0.0929608,1.51176,2.17469,2.5318,2.75235,2.90178,3.00969,3.09128,3.15516,3.20654
0.070934,1.24353,1.81746,2.14335,2.35419,2.50219,2.61196,2.6967,2.76411,2.81903
0.0863816,1.63949,2.41759,2.86238,3.15001,3.35117,3.49971,3.61385,3.70427,3.77767
0.0740857,1.36348,1.92493,2.22372,2.40904,2.53518,2.62657,2.69583,2.75013,2.79384
0.0656561,1.08957,1.46987,1.66487,1.78423,1.86499,1.92332,1.96745,2.00202,2.02983
0.0715727,1.38796,2.03996,2.43746,2.70747,2.90328,3.05189,3.16857,3.26263,3.34007
0.0804524,1.65028,2.40872,2.83902,3.11308,3.30189,3.43948,3.54405,3.62613,3.69224
0.0789436,1.49382,2.05164,2.3371,2.50976,2.6254,2.70829,2.77062,2.81922,2.85817
0.287872,5.17073,7.01981,7.99441,8.60135,9.01707,9.3201,9.55097,9.73278,9.8797
0.063414,1.29599,1.88903,2.24546,2.48463,2.65641,2.78578,2.88673,2.96769,3.03406
0.0751078,1.65144,2.41861,2.85758,3.13866,3.33308,3.47523,3.58353,3.66874,3.73748
0.0691872,1.64674,2.42585,2.8673,3.14962,3.34549,3.48934,3.59946,3.6865,3.75702
0.0687813,1.73477,2.54472,2.99806,3.28706,3.48737,3.63443,3.747,3.83593,3.90797
0.0735124,1.88604,2.71564,3.16875,3.45439,3.65104,3.79473,3.90432,3.99068,4.06049
0.0690628,1.83687,2.65253,3.10819,3.40025,3.60367,3.75357,3.86865,3.95979,4.03376
0.0731521,2.04023,2.96651,3.49068,3.8283,4.06391,4.23766,4.37106,4.47671,4.56243
0.0681393,1.94137,2.80252,3.28317,3.58978,3.80233,3.95831,4.07765,4.1719,4.24821
0.234628,6.55762,9.27349,10.7491,11.677,12.3147,12.78,13.1344,13.4135,13.6389
0.0840474,2.4944,3.61661,4.26021,4.67895,4.97345,5.19195,5.36054,5.49458,5.60371
0.0653404,2.00968,2.92236,3.44193,3.77675,4.01022,4.18223,4.31417,4.41857,4.50322
0.22818,6.12983,8.31894,9.43533,10.1115,10.5649,10.89,11.1345,11.3251,11.4778
0.0786408,2.05899,2.8262,3.24414,3.5095,3.6935,3.82876,3.93246,4.01452,4.08108
0.0710125,2.11123,3.10698,3.71196,4.11915,4.41177,4.63213,4.80399,4.94175,5.05462
0.0661784,2.10993,3.11669,3.69724,4.07024,4.32881,4.51818,4.66267,4.77646,4.86837
0.0733114,2.35096,3.40058,3.98163,4.34902,4.60228,4.7875,4.9289,5.04042,5.13063
0.0712289,2.40191,3.50926,4.13887,4.54565,4.83047,5.04115,5.20335,5.33211,5.4368
0.0687848,1.99329,2.68625,3.03196,3.23889,3.37657,3.47476,3.54829,3.60542,3.65107
0.063142,2.08012,3.03686,3.61195,4.00028,4.28119,4.49418,4.66137,4.79614,4.90714
0.0794519,2.78656,4.10157,4.86317,5.35585,5.69913,5.9514,6.14434,6.29656,6.41964
0.064009,2.34332,3.43224,4.0465,4.43862,4.71027,4.90954,5.06195,5.1823,5.27975
0.102253,3.87535,5.63305,6.60903,7.22864,7.65696,7.97081,8.2107,8.40003,8.55327
0.0723507,2.39458,3.25725,3.69682,3.96403,4.1439,4.2733,4.37089,4.44713,4.50834
0.0810385,2.98657,4.35068,5.16402,5.70972,6.10243,6.39892,6.63084,6.81725,6.97039
0.0721268,2.86589,4.24479,5.05185,5.57775,5.94612,6.21793,6.42649,6.59146,6.72515
0.0744446,2.85756,4.05838,4.70212,5.10086,5.37164,5.56747,5.71566,5.83171,5.92506
0.109377,4.38112,6.36116,7.49736,8.23857,8.76167,9.1511,9.45248,9.69275,9.88882
0.0589461,2.48071,3.63697,4.30159,4.73241,5.034,5.25677,5.42796,5.5636,5.67368
0.070205,3.01906,4.39257,5.16529,5.65947,6.00248,6.25441,6.44727,6.59965,6.72308
0.0661314,2.49764,3.4036,3.86632,4.14725,4.336,4.47159,4.57372,4.65341,4.71735
0.064388,2.66134,3.8632,4.57689,5.05446,5.39758,5.65637,5.85866,6.02118,6.15464
0.0729132,3.15979,4.61188,5.44439,5.98025,6.35259,6.62578,6.83451,6.99908,7.13209
0.0710287,2.63743,3.56307,4.02964,4.30979,4.49653,4.62989,4.72992,4.80773,4.86999
0.06437,2.68092,3.91608,4.66203,5.16669,5.53224,5.8097,6.02766,6.2035,6.34838
0.0607825,2.70754,3.98999,4.73173,5.21028,5.54294,5.78694,5.97327,6.12007,6.23865
0.0705019,3.27239,4.81007,5.68344,6.24358,6.63305,6.91953,7.13914,7.31287,7.45375
0.331349,15.6566,22.7497,26.7012,29.2165,30.9586,32.237,33.2151,33.9878,34.6136
0.0575283,2.77482,4.03246,4.74266,5.20015,5.5198,5.75587,5.9374,6.08134,6.19828
0.071237,3.56004,5.19398,6.12145,6.71938,7.13684,7.44477,7.68126,7.86856,8.02057
0.17487,8.74011,12.6181,14.788,16.1753,17.1388,17.847,18.3895,18.8184,19.166
0.0610179,2.99492,4.2782,4.99226,5.44816,5.76471,5.99739,6.17567,6.31664,6.43092
0.0621121,3.13786,4.52868,5.31716,5.82545,6.1804,6.44229,6.64347,6.80286,6.93224
0.110846,4.80613,6.5052,7.37835,7.91023,8.26818,8.52553,8.71945,8.87083,8.99227
0.0628175,2.97494,4.29859,5.08542,5.61136,5.98872,6.27299,6.49497,6.67316,6.81938
0.0611112,3.05241,4.46378,5.28041,5.80855,6.17666,6.44734,6.65452,6.81808,6.95042
0.188445,9.7398,14.2045,16.7254,18.3352,19.4506,20.2689,20.8948,21.389,21.7892
0.0708727,3.73417,5.41119,6.34769,6.94457,7.35836,7.66218,7.89479,8.0786,8.22754
0.0580718,2.95792,4.1861,4.85237,5.27113,5.55892,5.76893,5.92897,6.05499,6.1568
0.0679354,3.36351,4.73946,5.4992,5.98345,6.31961,6.56676,6.75617,6.90599,7.02746
0.0874522,4.57702,6.64502,7.84503,8.63001,9.18348,9.59463,9.91207,10.1645,10.3701
0.0615097,3.36353,4.91072,5.79328,6.36074,6.75544,7.04556,7.2677,7.44318,7.58529
0.0560203,2.39772,3.14501,3.50471,3.71575,3.85447,3.9526,4.02569,4.08225,4.12732
0.0620895,3.07158,4.47317,5.33667,5.93076,6.36663,6.70073,6.96525,7.17998,7.35784
0.0712234,3.84014,5.71212,6.82156,7.54644,8.05385,8.42755,8.71366,8.93944,9.12202
0.0581489,2.6153,3.51075,3.94899,4.20635,4.37522,4.49448,4.58317,4.65171,4.70628
0.0586768,2.9945,4.37051,5.19762,5.75672,6.16198,6.46994,6.71217,6.90781,7.06918
0.0598294,3.3145,4.92974,5.87886,6.49805,6.93187,7.25191,7.49735,7.69137,7.8485
0.105475,6.121,9.03611,10.6845,11.7362,12.464,12.9973,13.4049,13.7264,13.9866
0.0544602,3.22054,4.68418,5.49302,6.00534,6.35911,6.6182,6.81617,6.97241,7.09886
0.0541301,3.15062,4.51424,5.26587,5.74394,6.07538,6.31886,6.50535,6.65279,6.7723
0.0566853,3.42308,4.97026,5.85082,6.42102,6.82064,7.1163,7.3439,7.52452,7.67135
0.0690593,4.09021,5.83801,6.80228,7.41326,7.83481,8.14311,8.37836,8.56374,8.71359
0.0603548,3.7021,5.35865,6.30045,6.909,7.33481,7.64954,7.89166,8.08372,8.23981
0.0597431,3.64754,5.23227,6.116,6.67917,7.06925,7.35534,7.57409,7.74677,7.88653
