0.651352,0.740113,0.775332,0.794229,0.806016,0.81407,0.819923,0.824367,0.827858,0.830672
0.434999,0.753218,0.959178,1.10221,1.20712,1.28731,1.35057,1.40174,1.44399,1.47945
0.351193,0.82164,1.13496,1.33858,1.47736,1.57675,1.65095,1.70825,1.75373,1.79065
0.286725,0.850266,1.2153,1.43876,1.58551,1.68845,1.76445,1.8228,1.86899,1.90646
0.247736,0.863094,1.2252,1.43215,1.56377,1.6546,1.72103,1.77172,1.81169,1.844
0.223918,0.929072,1.34591,1.58931,1.74799,1.8597,1.94264,2.00669,2.05764,2.09916
0.363473,1.74495,2.53983,2.99844,3.29536,3.50313,3.65661,3.77459,3.8681,3.94404
0.186557,0.985553,1.41322,1.65262,1.80526,1.91106,1.98871,2.04814,2.09508,2.13309
0.177806,1.04058,1.49648,1.75509,1.92191,2.03854,2.1247,2.19097,2.24352,2.28622
0.170903,1.12395,1.64219,1.94425,2.14218,2.28194,2.38588,2.46621,2.53015,2.58226
0.158413,1.11232,1.59931,1.87245,2.04679,2.16759,2.2562,2.32395,2.37743,2.42071
0.205093,1.60271,2.34501,2.77643,3.05878,3.25807,3.40632,3.52093,3.61219,3.68659
0.148347,1.27626,1.87941,2.22987,2.45848,2.61924,2.73842,2.83028,2.90324,2.96258
0.13681,1.22936,1.77584,2.08246,2.27845,2.41449,2.51444,2.59097,2.65146,2.70046
0.366054,3.42986,4.92327,5.76464,6.3059,6.68371,6.96255,7.17684,7.34671,7.48468
0.135698,1.18209,1.60849,1.83103,1.96795,2.06071,2.12772,2.17839,2.21805,2.24993
0.14552,1.42525,2.07069,2.46231,2.72766,2.91986,3.06566,3.18011,3.27238,3.34835
0.132563,1.45078,2.15278,2.57093,2.84593,3.03966,3.18318,3.29363,3.38118,3.45225
0.135364,1.34427,1.82832,2.0724,2.2182,2.31491,2.38369,2.43512,2.47501,2.50686
0.199263,2.21576,3.18592,3.75205,4.12678,4.39426,4.59517,4.75176,4.87732,4.98027
0.142732,1.52351,2.09657,2.39919,2.58541,2.71121,2.80176,2.86998,2.9232,2.96586
0.147452,1.85839,2.7585,3.30746,3.67877,3.94711,4.15027,4.30952,4.43774,4.54323
0.177936,2.51892,3.78887,4.53855,5.02786,5.37083,5.624,5.81832,5.97207,6.09669
0.183186,2.49791,3.52759,4.06932,4.40148,4.62576,4.78736,4.90936,5.00473,5.08134
0.175478,2.61827,3.81803,4.50966,4.9629,5.28392,5.52359,5.70948,5.85794,5.97926
0.144415,2.32237,3.4211,4.05665,4.47044,4.76096,4.97598,5.14147,5.27273,5.37937
0.165605,2.72312,3.96776,4.67703,5.13534,5.45588,5.69268,5.87479,6.01919,6.13652
0.13802,2.29999,3.29836,3.85208,4.20395,4.44728,4.62557,4.76181,4.86931,4.9563
0.137401,2.49426,3.67948,4.37467,4.83275,5.15761,5.40009,5.58803,5.73799,5.86044
0.154773,3.02078,4.48214,5.32961,5.88067,6.26703,6.55269,6.77239,6.94656,7.088
0.140683,2.78383,4.04133,4.74275,5.18935,5.49857,5.72537,5.89883,6.03579,6.14669
0.340771,6.4797,9.10074,10.5094,11.3912,11.9958,12.4364,12.7718,13.0358,13.249
0.128774,2.71046,4.01346,4.79884,5.32751,5.70841,5.99613,6.22121,6.40214,6.55075
0.127106,2.7759,4.066,4.80225,5.2751,5.60337,5.84417,6.02818,6.17329,6.29061
0.144374,3.38279,5.0278,5.98955,6.61982,7.0649,7.39607,7.65217,7.85616,8.02251
0.121513,2.95483,4.38523,5.21971,5.76637,6.15228,6.43928,6.66109,6.83765,6.98154
0.270872,6.45774,9.28507,10.8472,11.8372,12.5204,13.0202,13.4018,13.7026,13.9458
0.119982,3.05123,4.49036,5.33001,5.88214,6.27336,6.56523,6.79141,6.97186,7.11919
0.121472,3.09207,4.47867,5.2616,5.76414,6.11379,6.371,6.5681,6.72393,6.85022
0.155469,4.08124,5.96299,7.05241,7.76445,8.26663,8.63995,8.92844,9.15809,9.34525
0.130364,3.38957,4.91169,5.78626,6.3549,6.75435,7.05036,7.27851,7.45973,7.60716
0.16902,4.62172,6.82673,8.13214,8.9954,9.60852,10.0664,10.4214,10.7047,10.9359
0.158048,4.23595,6.12441,7.19544,7.88407,8.36374,8.71692,8.98778,9.20207,9.37584
0.160907,2.71929,3.60167,4.10113,4.42867,4.66134,4.83556,4.97105,5.07948,5.16827
0.17744,3.46455,5.01828,5.98797,6.64788,7.12421,7.4834,7.76357,7.98801,8.17175
0.159191,3.58394,5.41892,6.54347,7.28814,7.81363,8.20303,8.50267,8.74018,8.93298
0.163334,3.80312,5.57217,6.55215,7.16469,7.58235,7.88512,8.11463,8.29459,8.4395
0.186055,4.51633,6.58792,7.74588,8.48556,9.00013,9.3793,9.67052,9.90132,10.0888
0.123644,2.96121,4.20143,4.8693,5.28726,5.57369,5.78229,5.94099,6.06578,6.16647
0.112365,3.07103,4.60507,5.52526,6.1415,6.58369,6.91663,7.17641,7.3848,7.55569
0.131928,4.04923,6.18262,7.44893,8.28088,8.86719,9.30192,9.63681,9.90255,10.1185
0.106758,3.49967,5.27775,6.29536,6.95074,7.40756,7.74413,8.0024,8.20687,8.37276
0.122244,4.12968,6.0998,7.1992,7.90097,8.38828,8.7466,9.02124,9.2385,9.41467
0.105004,3.74398,5.55771,6.59802,7.27563,7.75281,8.10724,8.38096,8.59875,8.77619
0.186776,4.39179,5.51854,6.02567,6.31486,6.50184,6.63266,6.72933,6.80367,6.86261
0.101504,3.02953,4.48313,5.44393,6.14094,6.67283,7.09303,7.43376,7.71578,7.95315
0.117047,3.98826,6.09201,7.3916,8.25543,8.86415,9.3134,9.65731,9.92841,10.1473
0.125794,4.1622,5.98044,6.95115,7.54519,7.94458,8.23127,8.44705,8.61536,8.75034
0.119159,4.32957,6.44175,7.67582,8.48874,9.06673,9.49962,9.8363,10.1058,10.3265
0.109808,4.182,6.1894,7.33427,8.07232,8.58712,8.96639,9.25728,9.48737,9.67388
0.102089,4.15688,6.20854,7.39719,8.17255,8.71835,9.12345,9.43608,9.68467,9.88708
0.116332,4.64668,6.71601,7.85439,8.57458,9.07127,9.43453,9.71175,9.93027,10.1069
0.107226,3.40885,4.48726,5.01337,5.32639,5.53429,5.68252,5.79357,5.8799,5.94894
0.10422,3.71255,5.35664,6.35816,7.04238,7.54156,7.92245,8.22287,8.46599,8.66681
0.126566,5.0194,7.51845,9.03296,10.0383,10.75,11.2787,11.6862,12.0094,12.272
0.131546,5.4392,8.06777,9.57775,10.5474,11.2208,11.7152,12.0936,12.3925,12.6345
0.113019,4.43547,6.31959,7.3434,7.98623,8.42788,8.75027,8.99609,9.18977,9.34634
0.118593,5.10065,7.56897,9.02808,9.99588,10.6859,11.2031,11.6053,11.927,12.1903
0.111718,4.04577,5.46239,6.16877,6.5901,6.86937,7.06785,7.21608,7.33096,7.42257
0.119044,5.08158,7.59145,9.15814,10.2421,11.0399,11.6528,12.1389,12.534,12.8617
0.205776,7.66826,10.478,11.9056,12.7592,13.3235,13.723,14.0202,14.2496,14.4319
0.113305,4.85718,7.20365,8.63295,9.60295,10.307,10.8423,11.2635,11.6038,11.8846
0.109218,4.97807,7.38573,8.77665,9.6735,10.297,10.7545,11.104,11.3794,11.602
0.309564,15.3751,23.1467,27.684,30.6437,32.7252,34.269,35.4599,36.4065,37.1771
0.120404,6.2313,9.25507,10.964,12.0586,12.8193,13.3787,13.8072,14.146,14.4207
0.117911,6.02225,8.71031,10.1877,11.1241,11.7715,12.2461,12.6091,12.8957,13.1278
0.135383,6.68444,9.55097,11.1502,12.1779,12.8956,13.4257,13.8333,14.1567,14.4195
0.11497,5.64887,8.07094,9.4318,10.3061,10.9153,11.364,11.7082,11.9806,12.2015
0.106201,5.18958,7.41794,8.67428,9.48164,10.0442,10.4585,10.7765,11.0281,11.2322
0.113975,6.14304,9.16743,10.9804,12.1869,13.0472,13.6913,14.1916,14.5914,14.9182
0.113803,6.50842,9.73156,11.6066,12.8238,13.6754,14.304,14.7867,15.1689,15.4791
0.106178,6.18616,9.11384,10.7702,11.8329,12.5725,13.1172,13.535,13.8658,14.1341
0.105485,6.30188,9.26649,10.9575,12.0525,12.8203,13.3888,13.8267,14.1745,14.4573
0.113311,6.90871,10.1284,11.9639,13.1514,13.9829,14.5976,15.0705,15.4456,15.7503
0.113209,6.13776,8.49496,9.73338,10.4981,11.0175,11.3934,11.6781,11.9011,12.0806
0.10355,6.19726,9.16004,10.958,12.1754,13.0565,13.7245,14.2486,14.6709,15.0185
0.186271,11.9953,18.0496,21.6726,24.0661,25.7587,27.0166,27.9871,28.7581,29.3851
0.105491,6.7584,9.932,11.7346,12.8914,13.6958,14.2876,14.7411,15.0999,15.3907
0.103256,6.66624,9.76638,11.5435,12.698,13.5093,14.1111,14.5754,14.9446,15.2453
0.116448,7.7618,11.4919,13.6793,15.1194,16.1398,16.9006,17.4898,17.9596,18.3428
0.140424,9.59336,14.1996,16.8779,18.6267,19.8575,20.7705,21.4745,22.0339,22.489
0.100609,6.62421,9.59149,11.2704,12.3518,13.1069,13.6642,14.0924,14.4318,14.7075
0.110675,7.48923,10.9909,13.0323,14.3719,15.3191,16.0245,16.5702,17.0049,17.3594
0.120768,7.93998,11.4685,13.4703,14.7599,15.6599,16.3234,16.8328,17.2362,17.5636
0.100618,6.99705,10.4048,12.4414,13.7975,14.7657,15.4918,16.0565,16.5082,16.8779
0.117483,8.18074,11.9965,14.1824,15.5932,16.5774,17.3027,17.859,18.2992,18.6562
0.099252,7.3361,10.9801,13.1415,14.5717,15.5884,16.3485,16.9384,17.4095,17.7945
0.105073,8.07407,12.0922,14.4492,15.9945,17.0849,17.8952,18.521,19.0187,19.424
0.0986395,7.62126,11.2686,13.3665,14.7289,15.685,16.3931,16.9386,17.3719,17.7243
0.097872,7.89374,11.8322,14.1709,15.7233,16.8297,17.6585,18.3027,18.8177,19.2389
