0.769425,0.853949,0.886408,0.903581,0.914207,0.921432,0.926662,0.930624,0.93373,0.936229
0.653979,0.983933,1.15868,1.26626,1.33907,1.39159,1.43125,1.46227,1.48718,1.50763
1.0696,1.82711,2.17055,2.35559,2.46934,2.54579,2.60052,2.64156,2.67343,2.69888
0.380097,0.783095,0.97725,1.08549,1.15397,1.20112,1.23556,1.26181,1.28249,1.29919
0.345422,1.00991,1.43215,1.70143,1.88574,2.01931,2.12041,2.19953,2.2631,2.31529
0.586979,2.16599,3.112,3.64629,3.9777,4.20052,4.3597,4.47873,4.57094,4.6444
0.280258,1.2773,1.85536,2.17164,2.36733,2.50002,2.59593,2.66851,2.72539,2.77117
0.395616,2.23773,3.31763,3.91467,4.29,4.54777,4.73581,4.87908,4.99188,5.083
0.671121,3.41417,4.43879,4.89572,5.15274,5.31742,5.43191,5.51612,5.58066,5.63169
0.330342,1.76207,2.32709,2.61834,2.7998,2.92459,3.01594,3.08579,3.14098,3.18571
0.306387,1.67514,2.20261,2.47393,2.64004,2.75213,2.83279,2.89358,2.94102,2.97906
0.423786,2.75293,3.85365,4.48093,4.88699,5.17126,5.38136,5.54298,5.67115,5.77529
0.388917,2.97149,4.27491,5.00548,5.46696,5.78329,6.01311,6.18743,6.32408,6.43404
0.366825,2.97628,4.17105,4.79625,5.17729,5.43337,5.61723,5.75564,5.86361,5.95019
0.29408,2.90698,4.28199,5.06058,5.5609,5.90981,6.16716,6.36487,6.52155,6.64879
0.46235,3.56096,4.4993,4.90758,5.13413,5.27782,5.37697,5.44945,5.50473,5.54826
0.352535,3.48394,5.04118,6.0031,6.67164,7.16693,7.54975,7.85497,8.1042,8.31166
0.411278,3.92762,5.29208,5.96732,6.36218,6.61838,6.79691,6.92794,7.02795,7.10667
0.285455,3.32284,4.83548,5.71305,6.28872,6.69667,7.00149,7.2382,7.4275,7.58241
0.301919,4.02158,5.87582,6.88973,7.51985,7.94697,8.25471,8.4866,8.66742,8.81228
0.284045,4.07941,5.84103,6.76132,7.32308,7.70143,7.97365,8.17896,8.33937,8.46817
0.290981,4.02129,5.46077,6.1662,6.58593,6.86481,7.06373,7.21284,7.32879,7.42155
0.308615,4.18822,5.62091,6.34739,6.79143,7.09198,7.30922,7.47366,7.60252,7.70624
0.297868,4.72812,6.79319,7.98564,8.76758,9.32048,9.7322,10.0507,10.3044,10.5112
0.391529,5.24462,6.81067,7.54326,7.9631,8.23377,8.42227,8.56089,8.66702,8.75084
0.311677,5.01212,7.1879,8.47874,9.34525,9.97038,10.4438,10.8153,11.1148,11.3615
0.333291,5.01422,6.75984,7.63469,8.15333,8.49422,8.7345,8.9126,9.04971,9.15842
0.25423,2.46512,2.93483,3.13731,3.25056,3.32309,3.37359,3.41081,3.43939,3.46204
0.272052,3.59231,5.17112,6.22564,6.99552,7.58565,8.05343,8.43369,8.74906,9.01492
0.345176,4.55685,6.23383,7.10452,7.61984,7.9545,8.187,8.35691,8.48601,8.58717
0.262539,4.49347,6.80994,8.2222,9.1667,9.8434,10.3529,10.7508,11.0705,11.3331
0.334179,7.06136,10.98,13.2438,14.6804,15.665,16.3792,16.9199,17.3428,17.6824
0.277353,5.07869,6.81599,7.58767,8.01646,8.28869,8.47681,8.61461,8.71991,8.80301
0.354624,7.55114,10.8411,12.6765,13.8742,14.7249,15.3626,15.8594,16.2576,16.5842
0.576978,11.4954,15.5927,17.6365,18.8602,19.6726,20.2501,20.6811,21.0148,21.2805
0.466704,8.59693,11.4696,12.9488,13.8604,14.4806,14.9304,15.2719,15.5402,15.7565
0.296041,5.68292,7.80388,8.96304,9.69735,10.2045,10.5757,10.8591,11.0826,11.2633
0.264531,1.95533,2.15652,2.23416,2.27512,2.30036,2.31745,2.32979,2.3391,2.34639
0.240213,2.94223,4.39301,5.55361,6.52469,7.35394,8.07189,8.70015,9.25485,9.74834
0.263994,4.67615,7.851,10.1446,11.7637,12.9234,13.7756,14.4188,14.9167,15.3107
0.278526,5.22105,7.71393,8.93077,9.59871,10.0102,10.2867,10.4846,10.6332,10.7489
0.257626,4.60319,6.25667,7.00788,7.43589,7.7149,7.91239,8.06005,8.17485,8.26678
0.249521,5.9582,9.15002,11.0809,12.4021,13.3709,14.1138,14.7022,15.18,15.5758
0.23791,6.71298,10.2558,12.2009,13.4085,14.2233,14.8069,15.244,15.5829,15.8529
0.322551,10.6269,16.1632,19.128,20.959,22.2005,23.0978,23.7769,24.309,24.7373
0.25313,5.81956,7.29754,7.89732,8.22219,8.42619,8.56631,8.66853,8.74642,8.80774
0.417713,10.5255,14.3178,16.425,17.8099,18.7983,19.5417,20.1221,20.5881,20.9707
0.244703,7.55318,11.1897,13.3924,14.865,15.9134,16.6952,17.2993,17.7795,18.17
0.255899,9.16824,13.7539,16.3386,17.9594,19.0603,19.8537,20.4514,20.9174,21.2907
0.294317,11.4347,16.8191,19.6897,21.4536,22.6459,23.5059,24.156,24.6648,25.074
0.287989,8.8661,11.5451,12.7615,13.458,13.9104,14.2283,14.4642,14.6462,14.7909
0.673871,18.2094,23.5049,26.1585,27.7857,28.8922,29.6955,30.3058,30.7855,31.1725
0.264288,7.95087,11.0669,12.8697,14.0549,14.8942,15.5195,16.0033,16.3887,16.7029
0.270752,9.19102,13.2615,15.581,17.0591,18.0766,18.8174,19.3798,19.8209,20.1759
0.247691,9.47157,13.8785,16.3211,17.8499,18.8926,19.6482,20.2207,20.6694,21.0306
0.309687,10.1503,13.438,14.9646,15.8384,16.4036,16.7992,17.0917,17.3166,17.4951
0.258722,8.41301,11.3411,12.8722,13.8288,14.4873,14.9694,15.3382,15.6295,15.8656
0.241127,8.76628,12.4436,14.5241,15.8663,16.8034,17.4942,18.0241,18.4434,18.7833
0.241109,9.63973,13.8993,16.2524,17.7297,18.7391,19.4709,20.0252,20.4594,20.8085
0.232596,10.3957,15.2132,17.8642,19.5276,20.6665,21.4948,22.1243,22.6189,23.0177
0.293067,14.2557,20.7694,24.2645,26.4311,27.9043,28.971,29.7789,30.412,30.9215
0.247518,4.7204,5.30935,5.52915,5.64422,5.71511,5.7632,5.79798,5.82431,5.84494
0.258386,6.52674,9.02384,10.7072,11.9533,12.9195,13.6925,14.3256,14.854,15.3018
0.258696,8.71005,13.5151,16.7371,18.9686,20.5737,21.7703,22.6906,23.417,24.0033
0.295336,11.3586,17.1315,20.2902,22.1824,23.4201,24.2867,24.9255,25.4152,25.8025
0.279061,11.4447,16.608,19.229,20.7897,21.8267,22.5677,23.1246,23.5589,23.9073
0.303787,11.0691,14.8521,16.6377,17.6847,18.3765,18.8688,19.2374,19.5239,19.753
0.351168,10.6875,13.7455,15.2243,16.112,16.7071,17.1345,17.4567,17.7084,17.9104
0.235684,8.64073,12.4142,14.701,16.2553,17.3829,18.2388,18.9107,19.4523,19.8981
0.284126,10.6657,15.1175,17.5535,19.0673,20.0914,20.8274,21.3806,21.8111,22.1553
0.261298,11.5727,17.2895,20.615,22.7728,24.284,25.4014,26.2613,26.9438,27.4987
0.238538,11.4852,16.8223,19.6676,21.4081,22.5775,23.4157,24.0454,24.5356,24.9278
0.254637,12.6765,18.0549,20.8145,22.4895,23.616,24.4262,25.0373,25.5149,25.8985
0.242042,10.8869,14.6789,16.5421,17.6587,18.4051,18.9399,19.3422,19.6558,19.9073
0.261374,13.2878,19.0161,22.2554,24.3626,25.8472,26.9507,27.8036,28.4826,29.036
0.252767,12.304,16.8854,19.219,20.624,21.5589,22.2245,22.7218,23.1072,23.4146
0.229802,12.2699,17.6503,20.7125,22.7023,24.1027,25.1434,25.9477,26.5883,27.1107
0.276422,16.0062,23.1825,27.1315,29.6092,31.3021,32.5297,33.4595,34.1877,34.7732
0.229951,11.3129,15.0848,16.9166,17.9971,18.7102,19.2161,19.5939,19.8868,20.1206
0.306203,17.6169,25.5,30.1019,33.1523,35.3309,36.9675,38.243,39.2654,40.1035
0.289801,12.25,15.612,17.1632,18.05,18.6218,19.0202,19.3135,19.5381,19.7156
0.24594,12.8655,18.6402,22.1965,24.6435,26.4392,27.8162,28.9071,29.7931,30.5273
0.222186,12.4499,17.9146,20.9143,22.7715,24.022,24.9165,25.5859,26.1047,26.5181
0.243485,15.2707,22.3816,26.3091,28.776,30.4671,31.6988,32.6364,33.3742,33.9702
0.222341,15.0461,21.9491,25.6751,27.9936,29.5747,30.722,31.5925,32.2757,32.826
0.483389,34.615,49.9012,57.9855,62.9782,66.3694,68.8238,70.6827,72.1394,73.3118
0.233537,16.2992,22.8805,26.3239,28.4547,29.9068,30.961,31.7615,32.3903,32.8973
0.254345,14.7839,19.392,21.6269,22.9553,23.8371,24.4655,24.936,25.3016,25.5938
0.226112,14.156,19.7639,22.9508,25.0328,26.5044,27.6011,28.4505,29.1281,29.6812
0.265122,17.3837,24.5742,28.5472,31.049,32.7615,34.0044,34.9463,35.6841,36.2773
0.239371,14.1013,18.9005,21.292,22.7154,23.658,24.3279,24.8284,25.2166,25.5264
0.227268,13.9439,19.3252,22.2669,24.1346,25.4297,26.3818,27.1118,27.6896,28.1584
0.243298,14.2285,19.2858,21.8947,23.4809,24.5451,25.3077,25.8805,26.3264,26.6833
0.228534,15.191,21.9108,25.7854,28.3122,30.0922,31.4146,32.4362,33.2493,33.9119
0.237791,16.9967,24.5672,28.7202,31.3134,33.0786,34.355,35.3198,36.0742,36.68
0.225385,13.2539,17.3683,19.2925,20.4021,21.1236,21.6305,22.0061,22.2957,22.5259
0.293364,20.061,28.8061,33.9422,37.3747,39.8442,41.7104,43.172,44.3484,45.3161
0.231799,16.1399,22.8207,26.4191,28.6451,30.1494,31.2305,32.0433,32.676,33.182
0.237509,17.9735,25.8962,30.2537,32.9996,34.8876,36.2655,37.3158,38.1432,38.8119
0.235918,18.9689,27.3147,31.8255,34.6376,36.5567,37.9494,39.006,39.835,40.5027
