0.62923,0.725192,0.764031,0.785055,0.798233,0.807267,0.813847,0.818852,0.822788,0.825963
0.406756,0.653929,0.794395,0.884173,0.946369,0.991965,1.02681,1.0543,1.07654,1.0949
0.447182,0.926019,1.20419,1.37405,1.48632,1.5654,1.62388,1.6688,1.70433,1.73311
0.285405,0.731874,0.988624,1.1396,1.23704,1.30474,1.3544,1.39235,1.42229,1.4465
0.259871,0.7941,1.08994,1.25786,1.36446,1.4379,1.49152,1.53239,1.56455,1.59054
0.288282,0.908554,1.18502,1.32544,1.40962,1.46564,1.50558,1.53551,1.55876,1.57735
0.214476,0.864805,1.23384,1.45672,1.60657,1.71452,1.79609,1.85993,1.91129,1.9535
0.502506,2.43643,3.5393,4.17394,4.57991,4.86019,5.06468,5.22018,5.34228,5.44063
0.271243,1.24755,1.64944,1.84418,1.95804,2.03262,2.08524,2.12436,2.15459,2.17866
0.226786,1.28986,1.85691,2.1938,2.4197,2.5825,2.70567,2.80221,2.87997,2.94396
0.231434,1.53443,2.23954,2.6417,2.89878,3.07631,3.20588,3.30444,3.38185,3.44421
0.663233,4.9464,7.1841,8.41972,9.19704,9.73022,10.1185,10.4139,10.6462,10.8337
0.238641,1.93197,2.77806,3.24117,3.53331,3.73461,3.88183,3.99424,4.08289,4.1546
0.20643,1.80537,2.58201,3.0064,3.27427,3.45885,3.5938,3.69677,3.77792,3.84353
0.271891,2.57795,3.69918,4.3201,4.71531,4.9891,5.19002,5.34375,5.46517,5.5635
0.201359,2.02619,2.88465,3.35303,3.64793,3.85061,3.99845,4.11103,4.19963,4.27116
0.194328,2.04902,2.90497,3.374,3.67075,3.87558,4.02551,4.14002,4.23036,4.30345
0.261906,2.98172,4.28179,5.01214,5.48065,5.80681,6.04694,6.23113,6.37688,6.49508
0.199852,1.67647,2.09804,2.28834,2.39646,2.46612,2.51471,2.55054,2.57803,2.5998
0.182925,1.89774,2.71149,3.21938,3.57323,3.83541,4.03792,4.19925,4.33088,4.44036
0.197595,2.37124,3.50779,4.18652,4.63002,4.93966,5.16696,5.3404,5.47684,5.58685
0.162547,2.17294,3.2045,3.78308,4.14699,4.39582,4.57644,4.71346,4.82096,4.90755
0.176903,2.48479,3.57286,4.15422,4.51388,4.75843,4.93562,5.06998,5.1754,5.26033
0.18781,2.71228,3.85427,4.47132,4.85972,5.12743,5.32339,5.47311,5.59127,5.68692
0.173831,2.69449,3.87187,4.52594,4.94352,5.23343,5.44647,5.60963,5.73858,5.84306
0.3058,5.01147,7.18918,8.3871,9.14436,9.66593,10.0469,10.3372,10.5658,10.7505
0.199311,2.71762,3.56526,3.97573,4.21826,4.37851,4.49231,4.57732,4.64323,4.69585
0.183135,2.8121,3.99244,4.68892,5.15491,5.48999,5.74296,5.94089,6.10003,6.23081
0.582485,10.0508,14.7303,17.4659,19.2432,20.4839,21.3966,22.095,22.646,23.0915
0.17841,3.20401,4.59566,5.35027,5.81838,6.13605,6.36551,6.53896,6.67466,6.78372
0.183984,2.92941,3.92511,4.41872,4.71376,4.91031,5.05079,5.15625,5.23837,5.30414
0.155601,2.79815,4.02466,4.74651,5.22773,5.57281,5.83275,6.03576,6.19875,6.33252
0.164849,3.16968,4.56454,5.34281,5.83463,6.17186,6.41684,6.60257,6.74809,6.86511
0.190852,3.15754,4.19326,4.70069,5.00087,5.19918,5.33998,5.44515,5.5267,5.59181
0.184897,3.58868,5.2198,6.20249,6.86714,7.34864,7.7142,8.00145,8.23323,8.42424
0.27281,4.7833,6.46179,7.30644,7.80898,8.14028,8.37438,8.54827,8.68237,8.78887
0.159887,3.26794,4.78437,5.69289,6.30261,6.74162,7.07341,7.33326,7.5424,7.71443
0.475673,10.8681,16.1394,19.174,21.122,22.471,23.4577,24.2097,24.8011,25.2782
0.171283,4.13018,6.01099,7.03204,7.66741,8.10011,8.41365,8.65129,8.83762,8.98766
0.167512,4.28628,6.21578,7.26915,7.93314,8.39067,8.72536,8.98096,9.1826,9.34575
0.164629,4.34926,6.249,7.28387,7.93678,8.38674,8.71578,8.96689,9.16485,9.32491
0.145696,3.88681,5.51077,6.38656,6.93595,7.313,7.58786,7.79712,7.96177,8.09471
0.149845,1.48877,1.65605,1.72049,1.75476,1.77606,1.79058,1.80112,1.80912,1.8154
0.166399,2.52088,3.68043,4.56206,5.27197,5.85927,6.35425,6.77749,7.14371,7.4638
0.190422,3.88446,6.24606,7.87672,9.00824,9.81565,10.4106,10.8625,11.2148,11.4959
0.158219,3.89457,6.18489,7.5143,8.33503,8.88258,9.27169,9.56196,9.78672,9.96593
0.141224,3.86116,5.88264,6.95674,7.6102,8.05031,8.36774,8.60796,8.7963,8.94805
0.14056,4.04603,5.93656,6.9183,7.52216,7.93325,8.23188,8.45889,8.63737,8.78143
0.140114,4.26142,6.17714,7.19479,7.83251,8.27114,8.59166,8.83621,9.02896,9.18481
0.163625,5.19286,7.49613,8.7489,9.54326,10.0928,10.4958,10.804,11.0473,11.2442
0.231596,7.62204,10.9364,12.7372,13.8726,14.6539,15.2242,15.6588,16.001,16.2773
0.372809,12.5819,17.9042,20.7746,22.5738,23.807,24.7051,25.3883,25.9254,26.3589
0.157831,5.32349,7.53308,8.73942,9.50298,10.0304,10.4168,10.7121,10.9452,11.1338
0.30033,9.90496,13.8069,15.8972,17.2022,18.0945,18.743,19.2357,19.6226,19.9345
0.401787,14.6166,21.2149,25.0021,27.4632,29.1913,30.4716,31.4582,32.2418,32.8793
0.155521,5.27629,7.29519,8.34629,8.98804,9.41978,9.72984,9.9632,10.1451,10.2909
0.2004,7.2276,10.3156,12.0551,13.177,13.9623,14.5433,14.9909,15.3464,15.6356
0.160966,4.90149,6.49646,7.28669,7.7575,8.0696,8.2915,8.45728,8.58581,8.68836
0.151679,5.26643,7.59693,8.99002,9.9261,10.6007,11.1107,11.51,11.8314,12.0957
0.146678,5.38213,7.76559,9.09951,9.94161,10.5181,10.9363,11.253,11.5008,11.6999
0.173479,6.81967,9.97321,11.7602,12.9056,13.702,14.2881,14.7376,15.0934,15.382
0.153666,6.22197,8.94678,10.4212,11.3402,11.9673,12.4222,12.7672,13.0378,13.2558
0.141237,5.38808,7.46761,8.55178,9.21924,9.67232,10.0003,10.2488,10.4437,10.6006
0.140422,5.64817,8.05335,9.40401,10.2749,10.8842,11.3349,11.6818,11.9571,12.1809
0.140625,5.81311,8.28633,9.64936,10.5105,11.1029,11.5348,11.8636,12.1222,12.3307
0.194124,7.91146,11.1314,12.8744,13.967,14.7162,15.2619,15.6772,16.0039,16.2676
0.275666,12.0246,17.3501,20.3608,22.2983,23.65,24.6468,25.4124,26.0189,26.5112
0.154472,5.39305,7.05819,7.85886,8.32824,8.63638,8.85406,9.01599,9.14113,9.24072
0.237671,9.21525,13.0592,15.3137,16.8156,17.8928,18.7045,19.3388,19.8484,20.2669
0.167405,7.10546,10.3499,12.2244,13.4339,14.2745,14.8909,15.3615,15.7321,16.0314
0.142485,5.89945,8.28705,9.54808,10.3203,10.8405,11.2143,11.496,11.7158,11.8921
0.163916,7.35999,10.6649,12.5352,13.7415,14.5858,15.2105,15.6918,16.0741,16.3851
0.189298,8.95719,12.985,15.2184,16.6322,17.6062,18.3172,18.8589,19.2852,19.6294
0.143099,6.961,10.0293,11.7159,12.7818,13.5166,14.0539,14.464,14.7873,15.0487
0.210458,10.1784,14.3922,16.6477,18.0532,19.0132,19.7107,20.2404,20.6564,20.9918
0.151235,5.98344,7.8593,8.77886,9.32755,9.69268,9.95335,10.1488,10.3009,10.4226
0.304901,13.6925,19.659,23.234,25.645,27.3868,28.7059,29.7401,30.5729,31.2582
0.17971,7.16976,9.64357,10.8942,11.6397,12.1317,12.4794,12.7378,12.9371,13.0954
0.157017,7.13456,10.3572,12.2701,13.5446,14.4571,15.144,15.6801,16.1105,16.4637
0.234052,11.5167,16.8942,19.9566,21.9113,23.2607,24.2458,24.9956,25.5848,26.0599
0.152371,7.3931,10.4989,12.1539,13.176,13.8694,14.3706,14.7499,15.047,15.286
0.153291,6.39577,8.51249,9.55559,10.1785,10.5934,10.8899,11.1124,11.2855,11.4242
0.150465,5.10718,6.52341,7.21773,7.6346,7.91359,8.11365,8.26422,8.38168,8.47589
0.348998,14.8019,21.7612,26.2392,29.3962,31.7471,33.5671,35.0182,36.2024,37.1872
0.163194,6.38509,8.76176,9.98669,10.7167,11.196,11.533,11.7821,11.9732,12.1244
0.142024,6.60599,9.84902,11.8055,13.116,14.0577,14.7683,15.3243,15.7716,16.1393
0.152047,6.57536,9.09365,10.3616,11.1141,11.6097,11.9598,12.22,12.4207,12.5802
0.149862,6.12481,8.29178,9.39582,10.0693,10.5246,10.8537,11.1029,11.2983,11.4556
0.148579,7.2238,10.6908,12.7867,14.2015,15.2229,15.9954,16.6003,17.0868,17.4865
0.319186,14.1973,19.4287,22.0362,23.5748,24.5831,25.2925,25.8178,26.2219,26.5422
0.168467,8.69026,12.8169,15.2588,16.8867,18.0544,18.9347,19.623,20.1763,20.631
0.135354,6.35217,8.67705,9.83292,10.5168,10.9665,11.2839,11.5196,11.7013,11.8456
0.146619,7.83719,11.4657,13.5924,15.0036,16.0126,16.7714,17.3635,17.8387,18.2286
0.25387,14.6991,21.6176,25.5132,27.9898,29.6961,30.9402,31.8861,32.629,33.2275
0.130697,7.92945,11.5331,13.4989,14.7301,15.573,16.1861,16.6522,17.0185,17.314
0.156106,9.95718,14.4034,16.8116,18.3205,19.3551,20.1089,20.6828,21.1343,21.4988
0.145169,9.19828,13.0673,15.1424,16.4413,17.3323,17.9818,18.4765,18.8658,19.1802
0.135716,0.661142,0.673358,0.677499,0.679591,0.680855,0.681701,0.682308,0.682764,0.683119
0.110188,0.993149,1.45993,1.88825,2.28587,2.65657,3.00318,3.32806,3.63322,3.92043
0.109372,1.7822,3.53818,5.4044,7.18766,8.79495,10.1984,11.4042,12.4331,13.3097
