0.433755,0.531099,0.574042,0.598227,0.613742,0.62454,0.632489,0.638584,0.643407,0.647318
0.255237,0.422069,0.516572,0.576489,0.61771,0.647759,0.670621,0.688593,0.703088,0.715026
0.201266,0.444764,0.598493,0.697583,0.765551,0.814729,0.851843,0.880797,0.903992,0.922979
0.155637,0.419868,0.579318,0.675293,0.738019,0.781925,0.81429,0.839107,0.858728,0.874625
0.293057,0.978869,1.40375,1.66097,1.83088,1.95114,2.04069,2.10994,2.16509,2.21006
0.123828,0.48426,0.696655,0.820272,0.90019,0.955975,0.997097,1.02866,1.05364,1.0739
0.590891,2.6303,3.77695,4.43266,4.85485,5.14936,5.36653,5.5333,5.66542,5.77266
0.106033,0.536269,0.774394,0.910949,0.999293,1.06113,1.10684,1.14201,1.1699,1.19256
0.114151,0.645199,0.931954,1.09523,1.20044,1.27386,1.328,1.36957,1.40249,1.42921
0.0955015,0.602168,0.875729,1.03318,1.13547,1.20727,1.26045,1.30143,1.33397,1.36044
0.100176,0.701163,1.0239,1.20949,1.32982,1.41414,1.47649,1.52446,1.56251,1.59343
0.100629,0.733365,1.04553,1.21826,1.32787,1.40361,1.45909,1.50147,1.53491,1.56196
0.104959,0.842353,1.22357,1.44416,1.58841,1.69022,1.76596,1.82452,1.87115,1.90916
0.0871976,0.765702,1.11892,1.32243,1.45446,1.54695,1.6153,1.66786,1.70952,1.74335
0.0849362,0.8076,1.18375,1.40068,1.54164,1.64057,1.71383,1.77026,1.81507,1.85151
0.0881826,0.863118,1.2374,1.44501,1.57686,1.66799,1.73475,1.78575,1.82599,1.85854
0.102331,1.02136,1.44705,1.68266,1.83272,1.9368,2.01326,2.07183,2.11813,2.15566
0.0800953,0.870856,1.27853,1.52292,1.68662,1.80408,1.89253,1.96154,2.0169,2.06229
0.104903,1.19804,1.74189,2.05257,2.25238,2.39129,2.49333,2.57139,2.63301,2.68287
0.0947332,1.04634,1.46547,1.69235,1.83453,1.93204,2.00309,2.05718,2.09975,2.13412
0.0875906,1.04977,1.52097,1.79658,1.97833,2.1074,2.20388,2.27874,2.33854,2.3874
0.0817681,1.11781,1.68509,2.02974,2.26032,2.42507,2.54852,2.64442,2.72103,2.78363
0.0826481,1.18329,1.74979,2.07439,2.28329,2.42868,2.53562,2.61756,2.68234,2.73483
0.0796571,1.21953,1.80579,2.14352,2.36296,2.5171,2.63135,2.71947,2.7895,2.8465
0.105609,1.70152,2.51341,2.98176,3.28685,3.50148,3.66074,3.7836,3.88128,3.96079
0.0880993,1.47213,2.15778,2.5495,2.80312,2.98076,3.11211,3.21319,3.29337,3.35853
0.0744316,1.26147,1.82856,2.14994,2.3573,2.50227,2.60936,2.6917,2.75699,2.81003
0.0694706,1.26425,1.86797,2.22223,2.45549,2.62073,2.74393,2.83932,2.91536,2.9774
0.0936044,1.81326,2.69524,3.21152,3.54971,3.78817,3.96527,4.10195,4.21062,4.29908
0.0747413,1.45284,2.109,2.47735,2.71285,2.87635,2.99648,3.08848,3.1612,3.22012
0.0704394,1.3958,2.03004,2.39492,2.63297,2.80078,2.92554,3.02196,3.09874,3.16132
0.076138,1.60966,2.38373,2.84048,3.1419,3.35562,3.515,3.63841,3.73678,3.81702
0.0690244,1.46351,2.12455,2.49818,2.73779,2.90436,3.02683,3.12064,3.19479,3.25487
0.0724036,1.43756,2.00325,2.30554,2.49386,2.62252,2.71602,2.78706,2.84287,2.88787
0.0703367,1.53284,2.2513,2.68178,2.97038,3.17776,3.3341,3.45623,3.55429,3.63478
0.0743087,1.6529,2.40812,2.84197,3.12224,3.31772,3.46165,3.57195,3.65915,3.72979
0.0731336,1.71213,2.53082,3.01299,3.33058,3.55563,3.72348,3.8535,3.95722,4.04188
0.067142,1.52674,2.19339,2.56667,2.805,2.9703,3.09167,3.18455,3.25793,3.31735
0.0778471,1.90685,2.82528,3.37123,3.73382,3.99236,4.18611,4.33673,4.4572,4.55576
0.0724114,1.70191,2.41886,2.80971,3.05471,3.22239,3.34425,3.43678,3.50941,3.56793
0.0662749,1.68193,2.4779,2.94823,3.26011,3.48246,3.64915,3.77881,3.88258,3.96753
0.0703842,1.86003,2.73437,3.23762,3.56335,3.79098,3.95887,4.08773,4.18973,4.27245
0.0667102,1.73954,2.51566,2.95491,3.2378,3.43535,3.58119,3.6933,3.78219,3.8544
0.0696595,1.88541,2.75593,3.25997,3.58918,3.82119,3.99353,4.1266,4.23246,4.31867
0.0686426,1.92306,2.82779,3.35477,3.69957,3.94266,4.12322,4.26262,4.37349,4.46376
0.0712347,2.07871,3.0721,3.65154,4.03059,4.29775,4.49615,4.64929,4.77108,4.87024
0.134593,3.82408,5.48111,6.39586,6.97477,7.37392,7.66575,7.88839,8.06383,8.20565
0.0663769,1.78383,2.52126,2.93411,3.19981,3.38558,3.52292,3.62864,3.71256,3.78081
0.0682628,1.95229,2.86459,3.40999,3.77371,4.0336,4.22856,4.38019,4.50148,4.6007
0.0681096,2.08297,3.10882,3.72015,4.12358,4.40904,4.62141,4.78548,4.916,5.02228
0.064605,2.01258,2.95571,3.49267,3.83741,4.07715,4.25346,4.38854,4.49535,4.58192
0.0675818,2.26643,3.38703,4.04432,4.47613,4.78165,5.00931,5.18555,5.32604,5.44066
0.0766689,2.3952,3.39484,3.93348,4.27006,4.50032,4.66777,4.79501,4.89497,4.97558
0.0645334,2.08376,3.03513,3.59302,3.96272,4.22644,4.42427,4.57824,4.70154,4.80251
0.0642585,2.15347,3.17237,3.77205,4.16659,4.44548,4.65289,4.8131,4.94053,5.04429
0.0656656,2.32602,3.456,4.11728,4.54947,4.85355,5.07901,5.25279,5.39082,5.50309
0.103289,3.854,5.73702,6.82895,7.53925,8.03786,8.40707,8.69147,8.91727,9.10088
0.0643047,2.30042,3.29257,3.83427,4.17537,4.40996,4.58124,4.71181,4.81464,4.89773
0.0673053,2.47092,3.60935,4.27518,4.71531,5.02866,5.26337,5.44583,5.59178,5.71121
0.0617595,2.30342,3.37335,3.99645,4.40418,4.69149,4.90472,5.06919,5.19987,5.30619
0.0680218,2.67373,3.95967,4.71126,5.20275,5.54884,5.80561,6.00364,6.16101,6.28906
0.409333,16.4253,24.1389,28.5559,31.4106,33.4063,34.8798,36.0124,36.9101,37.6391
0.0660963,2.04624,2.70784,3.03662,3.23392,3.36566,3.45993,3.53075,3.58591,3.6301
0.06202,2.14008,3.10427,3.6985,4.10683,4.40587,4.63467,4.81551,4.96208,5.08332
0.0872521,3.36301,5.07215,6.11975,6.81945,7.31685,7.6874,7.97361,8.20108,8.38607
0.0666656,2.72136,4.08167,4.87365,5.3857,5.74276,6.00569,6.20731,6.36681,6.49615
0.0746507,3.13156,4.61927,5.45721,5.99259,6.3643,6.63755,6.84697,7.01261,7.14691
0.142179,6.22571,9.20958,10.9205,12.0322,12.8137,13.3934,13.8408,14.1965,14.4861
0.0741304,3.11928,4.47051,5.21446,5.6865,6.01287,6.25204,6.43485,6.57911,6.69586
0.0795241,3.41624,4.96094,5.85047,6.43185,6.84219,7.14747,7.38353,7.57154,7.72483
0.0597347,2.55919,3.69774,4.34564,4.76395,5.05615,5.27173,5.43729,5.5684,5.6748
0.0847042,3.59536,5.16825,6.05852,6.63165,7.03152,7.32638,7.55282,7.73218,7.87777
0.0680103,2.73394,3.83828,4.44177,4.82233,5.08425,5.27552,5.42134,5.53619,5.62898
0.0667796,1.45862,1.73408,1.85408,1.92154,1.96483,1.99497,2.01719,2.03423,2.04773
0.0723249,2.15931,3.18717,3.91573,4.4702,4.90871,5.26493,5.56031,5.80936,6.02223
0.0667014,2.4322,3.80856,4.70358,5.30957,5.73897,6.05587,6.29785,6.48793,6.64078
0.127271,5.60833,9.01498,11.11,12.481,13.4394,14.1452,14.6864,15.1146,15.4618
0.0624094,2.83833,4.31107,5.12439,5.63404,5.9836,6.23862,6.43308,6.58635,6.71031
0.0611727,3.0229,4.61082,5.52577,6.1242,6.54787,6.86416,7.10952,7.30547,7.46563
0.0717146,3.75621,5.68534,6.79501,7.51847,8.02792,8.4061,8.69792,8.92991,9.11874
0.0997867,4.88722,7.03518,8.20869,8.95303,9.46813,9.84597,10.1351,10.3634,10.5484
0.0845386,3.4409,4.65035,5.27799,5.66614,5.93059,6.12252,6.26823,6.38265,6.4749
0.0816336,3.2509,4.53988,5.28145,5.76863,6.11401,6.37185,6.57178,6.73135,6.86169
0.0799193,3.1613,4.52104,5.32516,5.85654,6.23331,6.51416,6.73147,6.90457,7.04567
0.0789951,3.14858,4.54705,5.36339,5.89541,6.26877,6.54498,6.75749,6.92602,7.06292
0.185618,7.26118,10.3807,12.142,13.2681,14.0493,14.6229,15.0619,15.4087,15.6896
0.18139,7.20031,10.487,12.4235,13.7023,14.6109,15.2901,15.8173,16.2385,16.5827
0.0776313,2.81206,3.93315,4.54552,4.93056,5.19481,5.38732,5.53377,5.6489,5.74178
0.0816016,3.23359,4.76954,5.6949,6.3149,6.75975,7.09465,7.35596,7.56556,7.73745
0.0715631,3.02421,4.5054,5.37587,5.94403,6.34275,6.63754,6.86415,7.0437,7.18942
0.0702591,3.37171,5.15601,6.21316,6.90579,7.39354,7.7553,8.03423,8.25583,8.43611
0.0733915,3.63433,5.42244,6.43047,7.07456,7.52156,7.84998,8.10151,8.30035,8.4615
0.0590202,2.72117,3.85651,4.46124,4.83843,5.09669,5.2848,5.42799,5.54067,5.63166
0.0574116,2.9989,4.50161,5.40367,6.00942,6.44512,6.77378,7.03061,7.23685,7.40614
0.101947,6.03993,9.28005,11.2097,12.4789,13.3735,14.0366,14.5471,14.952,15.2809
0.0602871,3.45188,5.01462,5.85872,6.38505,6.74443,7.00544,7.20364,7.35929,7.48479
0.065175,3.82488,5.60297,6.61925,7.28243,7.75085,8.09983,8.3701,8.58567,8.76166
0.0564497,3.51535,5.23779,6.24878,6.91478,7.38647,7.73792,8.00983,8.2264,8.40294
0.0899745,5.95474,8.89211,10.5863,11.6839,12.4513,13.0177,13.4527,13.7971,14.0766
0.0890641,5.78608,8.46733,9.98936,10.9728,11.6614,12.1709,12.5632,12.8747,13.1281
