0.650228,0.696042,0.712783,0.721458,0.726766,0.730348,0.732928,0.734876,0.736397,0.737619
0.456982,0.735567,0.906057,1.02081,1.10327,1.16537,1.21382,1.25267,1.28451,1.31109
0.350469,0.724697,0.938512,1.06517,1.14652,1.20243,1.24296,1.27355,1.29742,1.31652
0.327211,0.889919,1.22997,1.43228,1.56334,1.65458,1.72163,1.77295,1.81349,1.84632
0.319021,1.05068,1.46048,1.68665,1.82683,1.92172,1.99008,2.04165,2.08192,2.11423
0.284298,1.06608,1.46098,1.66863,1.7954,1.88078,1.94223,1.98858,2.02479,2.05387
0.278848,1.24339,1.74804,2.02545,2.20073,2.32168,2.41023,2.47788,2.53126,2.57446
0.31318,1.59883,2.24909,2.59908,2.81668,2.96486,3.0722,3.1535,3.21719,3.26844
0.311853,1.53942,2.02751,2.2651,2.40549,2.49822,2.56405,2.61321,2.65132,2.68173
0.257795,1.14518,1.43696,1.57674,1.6596,1.71462,1.75388,1.78331,1.80621,1.82453
0.749818,4.25605,6.00547,7.07107,7.79653,8.32373,8.72454,9.03966,9.29396,9.50353
0.240535,1.69543,2.50584,2.98328,3.29141,3.50459,3.66003,3.77805,3.87055,3.94492
0.233526,1.84469,2.65668,3.08612,3.34622,3.51966,3.64335,3.73597,3.80791,3.86539
0.240864,2.14261,3.08076,3.57966,3.88846,4.09886,4.25165,4.36774,4.45899,4.53263
0.227457,2.02795,2.77451,3.1442,3.36496,3.51183,3.61663,3.69517,3.75623,3.80505
0.23726,2.22532,3.05588,3.49015,3.75983,3.94421,4.07842,4.18054,4.26089,4.32577
0.219214,1.84524,2.39592,2.66335,2.82201,2.92707,3.00175,3.05756,3.10084,3.13538
0.217778,2.22806,3.18083,3.74529,4.12256,4.39328,4.59723,4.75649,4.88434,4.98925
0.223341,2.46148,3.47114,4.01309,4.346,4.5696,4.72953,4.84934,4.94232,5.01652
0.505489,6.27433,9.00873,10.5036,11.4409,12.0835,12.5516,12.908,13.1885,13.415
0.392378,5.20448,7.38175,8.5331,9.24226,9.72264,10.0695,10.3317,10.5369,10.7018
0.222884,3.12786,4.40482,5.07837,5.49486,5.77816,5.98346,6.1391,6.26119,6.35952
0.219335,3.14014,4.34886,4.9763,5.36136,5.62195,5.81007,5.95228,6.06357,6.15302
0.217146,3.1789,4.37853,5.00643,5.3942,5.65776,5.84863,5.99326,6.10665,6.19794
0.176588,0.709095,0.753699,0.769968,0.77842,0.7836,0.787102,0.789626,0.791533,0.793024
0.179499,1.23641,1.81302,2.29247,2.70514,3.06562,3.3837,3.66663,3.92003,4.14832
0.178371,1.79571,2.97164,3.83315,4.44423,4.88178,5.20239,5.4434,5.62907,5.77529
0.178222,2.27571,3.66,4.44173,4.90241,5.19724,5.39994,5.54731,5.65915,5.74693
0.222924,3.65333,5.9125,7.15123,7.90811,8.41933,8.78937,9.07049,9.29174,9.47063
0.208976,3.48902,5.03977,5.75609,6.16545,6.43151,6.61874,6.75779,6.86518,6.95063
0.184159,3.36939,4.84358,5.593,6.05702,6.3754,6.60818,6.78603,6.92646,7.04018
0.382719,7.837,11.3478,13.2036,14.3644,15.1601,15.7393,16.1796,16.5256,16.8045
0.182397,3.9393,5.59676,6.45407,6.98012,7.33567,7.59194,7.78536,7.93652,8.05789
0.181817,4.27471,6.11529,7.0955,7.70739,8.12611,8.43078,8.66246,8.84461,8.99158
0.183581,4.58488,6.51768,7.53726,8.16784,8.59623,8.90616,9.14075,9.32449,9.47229
0.194629,5.14946,7.30805,8.45295,9.16387,9.64845,10,10.2668,10.4761,10.6447
0.178693,4.87158,6.84986,7.89253,8.53778,8.97666,9.29457,9.53548,9.72436,9.87642
0.180241,5.04432,7.05326,8.11279,8.7689,9.21538,9.53891,9.78416,9.97648,10.1313
0.18255,4.35063,5.68546,6.32829,6.70752,6.95785,7.13549,7.26811,7.3709,7.45291
0.311657,8.12954,11.3298,13.1458,14.3308,15.168,15.792,16.2753,16.6609,16.9757
0.191284,5.00205,6.91405,7.93802,8.5717,9.00074,9.30979,9.54272,9.72442,9.87005
0.211539,5.82319,8.16937,9.44595,10.2463,10.7948,11.1941,11.4979,11.7368,11.9297
0.181019,5.02793,6.97058,7.9919,8.61911,9.04301,9.34856,9.5792,9.75946,9.9042
0.239372,6.94019,9.71512,11.2063,12.138,12.7757,13.2399,13.5929,13.8706,14.0946
0.180215,5.02289,6.8541,7.79866,8.37484,8.76294,9.04211,9.25255,9.41685,9.54868
0.183646,5.56376,7.85538,9.12005,9.9242,10.4812,10.8901,11.203,11.4503,11.6506
0.38288,12.6519,18.1445,21.162,23.0588,24.3584,25.3033,26.0208,26.584,27.0378
0.187388,6.27462,8.82224,10.1619,10.9846,11.5407,11.9417,12.2445,12.4813,12.6715
0.223636,7.28909,10.0163,11.4216,12.2805,12.8607,13.2791,13.5953,13.8426,14.0415
0.214118,6.10371,8.02335,8.97355,9.54395,9.92503,10.1978,10.4028,10.5625,10.6904
0.186518,5.44206,7.3991,8.46224,9.13601,9.60226,9.94437,10.2062,10.413,10.5806
0.187026,5.97392,8.45702,9.85934,10.7576,11.3809,11.838,12.1874,12.463,12.686
0.203547,7.13199,10.2754,12.0207,13.1193,13.8717,14.4185,14.8336,15.1592,15.4215
0.216093,7.32211,10.0876,11.4853,12.322,12.878,13.2742,13.5708,13.8012,13.9853
0.188948,6.59208,9.1626,10.5261,11.376,11.9583,12.3827,12.7061,12.9607,13.1666
0.182215,6.77116,9.59343,11.1389,12.1159,12.7893,13.2815,13.6569,13.9527,14.1917
0.183533,6.14598,8.21468,9.23287,9.83649,10.2353,10.5182,10.7292,10.8926,11.0229
0.185486,6.5564,9.08954,10.4739,11.3544,11.9657,12.4156,12.7608,13.0342,13.2561
0.18112,6.48584,8.991,10.3316,11.1645,11.731,12.1409,12.451,12.6937,12.8887
0.18519,7.05374,9.96678,11.5617,12.5661,13.2564,13.76,14.1435,14.4454,14.6892
0.333275,10.4947,13.6447,15.1413,16.0123,16.5815,16.9824,17.28,17.5096,17.6921
0.190868,6.32843,8.68791,10.0019,10.8505,11.4463,11.8886,12.2303,12.5023,12.724
0.18462,6.1592,8.51513,9.8003,10.6065,11.1579,11.5581,11.8615,12.0993,12.2906
0.187629,7.22824,10.5314,12.4333,13.6614,14.5179,15.1488,15.6327,16.0156,16.3261
0.166534,1.2602,1.32763,1.35098,1.3627,1.36973,1.3744,1.37774,1.38024,1.38218
0.163458,2.1706,3.21199,4.10643,4.89781,5.60608,6.24466,6.82374,7.35144,7.83442
0.205634,4.37523,7.87504,10.8432,13.185,14.9927,16.3893,17.4794,18.3424,19.0358
0.293796,8.09813,13.7825,17.0601,18.9435,20.1064,20.8787,21.4234,21.8264,22.1359
0.164484,5.91311,9.98023,12.1844,13.5021,14.3803,15.0117,15.4898,15.8657,16.1695
0.163506,7.11341,11.4701,13.6751,14.9913,15.8721,16.5053,16.9831,17.3567,17.6569
0.278275,13.6643,20.9057,24.4624,26.5996,28.036,29.0703,29.8513,30.4621,30.9531
0.169447,8.29747,11.8515,13.5555,14.5777,15.2632,15.7558,16.1272,16.4172,16.65
0.167143,8.7614,12.5761,14.5748,15.8329,16.7016,17.3382,17.825,18.2094,18.5206
0.258731,14.1861,20.1743,23.3107,25.2559,26.5795,27.5376,28.263,28.831,29.2878
0.179864,9.2204,12.5878,14.2855,15.3156,16.0076,16.5048,16.8793,17.1716,17.4062
0.174376,7.49087,9.69242,10.7545,11.3852,11.8038,12.1021,12.3256,12.4992,12.6381
0.23999,11.7062,16.4912,19.2806,21.1297,22.4493,23.4394,24.2101,24.8272,25.3326
0.168937,8.83587,12.6049,14.6964,16.0101,16.9062,17.5543,18.0439,18.4265,18.7333
0.196226,11.0486,15.8812,18.5169,20.1611,21.2823,22.0955,22.7122,23.196,23.5857
0.56886,30.9661,42.7224,48.6645,52.2324,54.6111,56.3103,57.5849,58.5764,59.3698
0.167129,9.4775,13.3456,15.4513,16.7861,17.711,18.3906,18.9115,19.3237,19.658
0.166204,9.57875,13.4066,15.4422,16.7037,17.561,18.181,18.6499,19.0169,19.3119
0.169253,9.83823,13.6961,15.7345,16.9951,17.8519,18.4721,18.9418,19.31,19.6064
0.17218,7.2962,9.14296,9.98334,10.4646,10.7765,10.9952,11.157,11.2816,11.3805
0.220081,10.7192,14.9404,17.4422,19.1262,20.343,21.2653,21.9892,22.5728,23.0534
1.79189,77.0759,102.257,115.089,122.775,127.86,131.46,134.137,136.202,137.843
0.214305,11.0381,16.0651,19.0721,21.075,22.5065,23.5817,24.4194,25.0908,25.6411
0.175418,8.93418,12.4416,14.2457,15.3241,16.0362,16.5397,16.9139,17.2026,17.4319
0.227836,13.1063,18.9774,22.2367,24.3093,25.7465,26.8032,27.6136,28.2552,28.776
0.1687,10.5549,15.3167,17.896,19.503,20.5981,21.3917,21.9927,22.4636,22.8423
0.174197,10.6466,14.8101,16.913,18.1782,19.0231,19.6273,20.081,20.4341,20.7168
0.168387,10.1666,13.9795,15.9404,17.1435,17.9593,18.5495,18.9966,19.3472,19.6295
0.167914,10.7553,15.1712,17.5855,19.1168,20.1759,20.9524,21.5461,22.0148,22.3942
0.169433,11.3135,15.986,18.4967,20.0591,21.123,21.8934,22.4767,22.9335,23.3009
0.24896,14.3668,19.0035,21.2542,22.5824,23.4587,24.0802,24.544,24.9034,25.1901
0.170829,10.7782,15.1455,17.614,19.219,20.3503,21.192,21.8432,22.3623,22.7858
0.224295,13.4574,18.3875,20.9546,22.5199,23.5703,24.3226,24.8872,25.3263,25.6774
0.216242,11.6987,15.5196,17.4483,18.6134,19.3941,19.9541,20.3756,20.7045,20.9682
0.318088,16.6204,22.2984,25.2997,27.167,28.4431,29.3711,30.0767,30.6313,31.0787
0.314788,16.8246,23.2022,26.7159,28.9432,30.4806,31.6054,32.4639,33.1405,33.6874
