0.146946,0.14741,0.147565,0.147642,0.147689,0.14772,0.147742,0.147759,0.147772,0.147783
0.131523,0.260508,0.386248,0.508864,0.628469,0.745174,0.859082,0.970293,1.0789,1.185
0.141774,0.53468,1.10651,1.77765,2.48021,3.1661,3.80662,4.38801,4.9064,5.36371
0.125509,0.803843,1.84616,2.76518,3.40779,3.82967,4.10882,4.29954,4.43476,4.53409
0.125317,1.37263,3.48898,5.15018,6.22242,6.93065,7.42906,7.80026,8.08907,8.32129
0.117328,0.876133,1.14403,1.21228,1.23953,1.25405,1.26314,1.26941,1.27402,1.27754
0.116997,1.46251,2.49281,3.18867,3.7423,4.20647,4.60458,4.95087,5.25522,5.52499
0.12778,2.45561,4.68895,6.2397,7.35921,8.18515,8.80831,9.28924,9.66839,9.97312
0.146499,3.63081,6.42749,7.9453,8.85479,9.44833,9.86274,10.1675,10.4008,10.5851
0.158053,4.24716,6.61884,7.73071,8.3776,8.80361,9.10687,9.33445,9.51186,9.65421
0.162653,4.45223,6.51945,7.53797,8.16604,8.59671,8.91169,9.15248,9.34269,9.49681
0.286129,7.68115,10.8378,12.4499,13.4548,14.1443,14.6472,15.0302,15.3317,15.5751
0.10949,3.13212,4.50825,5.27094,5.7634,6.10814,6.36299,6.55906,6.71457,6.84093
0.1751,5.53248,8.07341,9.48164,10.3753,10.9909,11.44,11.7818,12.0506,12.2673
0.284921,10.3376,15.5113,18.4615,20.3609,21.6838,22.6577,23.4045,23.9952,24.4743
0.110554,2.87918,3.66485,4.00968,4.20259,4.32571,4.41109,4.47376,4.52172,4.55961
0.128627,4.16084,6.0673,7.25365,8.08246,8.69866,9.17615,9.55756,9.86948,10.1294
0.112879,4.17306,6.25845,7.49063,8.29116,8.84774,9.25494,9.56478,9.80797,10.0037
0.115074,4.71294,7.05791,8.37527,9.20634,9.77606,10.1905,10.5054,10.7528,10.9524
0.115208,4.90432,7.15287,8.35908,9.10797,9.61846,9.98902,10.2704,10.4914,10.6695
0.120002,5.29239,7.64775,8.92342,9.7269,10.2807,10.686,10.9956,11.2399,11.4376
0.163759,7.17752,10.1639,11.7569,12.7515,13.4324,13.9278,14.3046,14.6007,14.8396
0.116643,5.18733,7.39449,8.61895,9.40285,9.94864,10.3508,10.6594,10.9039,11.1023
0.126094,5.66096,8.0347,9.33594,10.1578,10.7236,11.1366,11.4512,11.6989,11.8988
0.187813,8.47686,11.9834,13.8966,15.1019,15.9307,16.5357,16.9967,17.3597,17.6529
0.128022,5.81968,8.27202,9.63826,10.5114,11.1181,11.5643,11.9063,12.1769,12.3962
0.11755,5.61146,8.0836,9.47406,10.3637,10.9811,11.4346,11.7815,12.0556,12.2774
0.266725,13.5361,19.6903,23.1476,25.3533,26.8811,28.0012,28.8575,29.5333,30.0802
0.125489,6.17662,8.7394,10.1193,10.9812,11.5708,11.9996,12.3256,12.5818,12.7884
0.152083,7.77798,11.1625,13.0558,14.2694,15.1147,15.7376,16.2158,16.5945,16.9019
0.244826,10.8067,14.681,16.7003,17.9438,18.7872,19.397,19.8584,20.2199,20.5106
0.132946,5.46572,7.4521,8.53672,9.22568,9.70318,10.0539,10.3226,10.5351,10.7073
0.115822,5.13445,7.33269,8.60802,9.4402,10.0253,10.4588,10.7927,11.0577,11.2731
0.124485,5.93588,8.62223,10.1509,11.1275,11.8029,12.297,12.6738,12.9706,13.2103
0.117576,5.18751,7.13649,8.13397,8.73576,9.1378,9.42531,9.64114,9.80911,9.94357
0.141253,7.06471,10.3622,12.3024,13.5891,14.5077,15.1975,15.7349,16.1656,16.5185
0.131707,6.22278,8.66918,9.94347,10.7191,11.239,11.611,11.8901,12.1071,12.2805
0.117622,5.44796,7.58685,8.74294,9.47154,9.97414,10.3423,10.6238,10.8462,11.0263
0.169903,8.9561,13.2244,15.7532,17.4279,18.6185,19.5082,20.198,20.7485,21.198
0.131514,7.02442,10.1521,11.8758,12.9585,13.6993,14.2372,14.6453,14.9652,15.2228
0.119237,6.24548,8.82167,10.2005,11.059,11.6454,12.0716,12.3956,12.6502,12.8555
0.11922,6.40731,9.12775,10.63,11.5862,12.2493,12.7364,13.1094,13.4043,13.6434
0.164955,9.45254,13.7399,16.1742,17.7433,18.8384,19.6458,20.2657,20.7564,21.1546
0.119456,7.07626,10.2711,12.0596,13.1999,13.9896,14.5686,15.0112,15.3605,15.6432
0.168997,9.91881,14.1069,16.3709,17.7873,18.7568,19.4622,19.9984,20.4199,20.7598
0.142311,7.63903,10.4798,11.9642,12.8801,13.5027,13.9537,14.2957,14.5638,14.7798
0.387031,12.8992,15.6339,16.8612,17.563,18.0181,18.3374,18.5739,18.7561,18.9008
0.131508,5.10071,7.07497,8.30157,9.15272,9.78087,10.2644,10.6484,10.9608,11.2201
0.130009,6.14895,9.29813,11.3025,12.6627,13.6362,14.3632,14.9251,15.3714,15.7341
0.131295,6.34491,9.16913,10.6841,11.6021,12.2123,12.6458,12.9692,13.2196,13.4191
0.136209,6.9935,10.1554,11.8913,12.9858,13.7412,14.295,14.7189,15.0542,15.3261
0.176569,9.8154,14.4267,17.0099,18.6615,19.8094,20.6538,21.3009,21.8128,22.2276
0.135264,8.02661,11.8087,13.9169,15.259,16.1882,16.8693,17.39,17.8009,18.1335
0.149807,6.39144,8.15084,8.94376,9.39504,9.68642,9.89012,10.0406,10.1562,10.2479
0.299684,16.0483,23.6473,28.4792,31.8935,34.4501,36.4409,38.0371,39.3461,40.4394
0.137437,8.25356,12.3872,14.8246,16.4021,17.4952,18.2927,18.8983,19.3728,19.754
0.161692,9.90742,14.336,16.6997,18.1489,19.1248,19.8263,20.3548,20.7673,21.0983
0.149868,9.73712,14.2058,16.6841,18.2639,19.3621,20.171,20.7922,21.2844,21.6843
0.153732,9.7726,13.8508,16.0238,17.3759,18.2989,18.9691,19.4779,19.8772,20.199
0.138005,9.14589,13.1875,15.4586,16.9221,17.9456,18.7021,19.2842,19.7461,20.1215
0.133791,8.94302,12.7818,14.8894,16.2203,17.1362,17.8045,18.3134,18.7139,19.0372
0.137025,9.41132,13.5055,15.7764,17.2211,18.2213,18.9549,19.516,19.9591,20.3179
0.153385,10.7753,15.4673,18.0671,19.7187,20.8606,21.6971,22.3363,22.8407,23.2487
0.137991,9.39417,13.2078,15.2589,16.5406,17.4175,18.0554,18.5402,18.9212,19.2285
0.147035,10.4374,14.962,17.5028,19.1345,20.2719,21.1105,21.7544,22.2644,22.6785
0.138605,3.63147,4.06912,4.2393,4.32975,4.38584,4.424,4.45165,4.4726,4.48901
0.131212,5.18381,7.62258,9.47813,10.9732,12.211,13.2552,14.1488,14.9225,15.5993
0.136376,7.29662,11.9332,15.2023,17.5048,19.1656,20.3994,21.3422,22.0809,22.6724
0.151336,9.74508,15.7263,19.249,21.4388,22.9049,23.949,24.7289,25.3333,25.8155
0.163446,11.0671,16.5928,19.4138,21.089,22.1999,22.9925,23.5876,24.0514,24.4233
0.266301,19.3302,28.7136,33.759,36.9453,39.1567,40.7866,42.0395,43.0335,43.8415
0.178243,11.354,15.6129,17.7425,19.0357,19.9072,20.5349,21.0086,21.3788,21.6761
0.180396,10.6347,14.5208,16.5904,17.8969,18.8001,19.4626,19.9696,20.3703,20.6949
0.186234,11.08,15.5523,18.0845,19.7247,20.874,21.7238,22.3776,22.8961,23.3173
0.165543,10.6773,15.5158,18.3239,20.149,21.4268,22.37,23.0944,23.668,24.1332
0.204296,14.6493,21.763,25.8534,28.4809,30.3047,31.6428,32.6657,33.4728,34.1259
0.144686,10.2222,14.6221,16.9676,18.4162,19.399,20.1095,20.6472,21.0684,21.4072
0.251605,18.1439,25.8691,30.0512,32.6814,34.4919,35.8157,36.8262,37.6231,38.2677
0.128729,9.35351,13.2616,15.3792,16.7111,17.6267,18.295,18.8042,19.2051,19.529
0.147351,11.5621,16.8646,19.8888,21.8474,23.2197,24.2347,25.016,25.6359,26.1398
0.132656,10.8561,15.8105,18.5774,20.3372,21.553,22.4427,23.1217,23.6568,24.0893
0.164798,14.059,20.4392,23.9747,26.217,27.7654,28.899,29.7647,30.4476,31
0.139194,11.4952,16.2391,18.77,20.3451,21.4206,22.2018,22.7952,23.2611,23.6368
0.145453,11.5654,16.1613,18.6416,20.2031,21.2786,22.0651,22.6655,23.139,23.522
0.130053,10.6593,15.1973,17.7509,19.3936,20.5396,21.3847,22.0335,22.5473,22.9643
0.14768,12.8083,18.5842,21.8659,23.9756,25.4436,26.5233,27.3503,28.0039,28.5334
0.145805,12.8443,18.4582,21.5476,23.4942,24.8315,25.8065,26.5486,27.1324,27.6037
0.144404,12.9444,18.558,21.6492,23.6064,24.9576,25.9469,26.7027,27.299,27.7815
0.145397,12.4957,17.4632,20.1025,21.7408,22.8572,23.667,24.2812,24.763,25.1512
0.147004,13.133,18.758,21.9108,23.9362,25.3491,26.3914,27.1922,27.8268,28.3422
0.176578,16.4274,23.7327,27.8528,30.4938,32.3289,33.6774,34.7099,35.5255,36.1861
0.144732,12.923,18.1778,21.0018,22.7616,23.9628,24.8348,25.4966,26.016,26.4345
0.130804,11.449,16.0383,18.5297,20.0989,21.1792,21.9689,22.5715,23.0465,23.4306
0.135921,12.559,18.0522,21.1631,23.1674,24.5666,25.5986,26.3912,27.0189,27.5284
0.128753,11.2236,15.5747,17.8647,19.2722,20.2234,20.9088,21.426,21.83,22.1543
0.14812,11.4012,15.2757,17.262,18.4757,19.2957,19.8875,20.335,20.6852,20.9669
0.154364,8.34081,10.3105,11.2334,11.7723,12.1262,12.3765,12.5631,12.7074,12.8224
0.136252,9.17334,13.2372,15.8696,17.7395,19.1415,20.2333,21.108,21.8249,22.4232
0.314219,25.5246,39.0865,47.52,53.1146,57.0447,59.9367,62.1449,63.8819,65.2816
0.312199,27.1947,40.6906,48.2139,52.8965,56.0726,58.3648,60.0964,61.4507,62.539
