0.711554,0.832911,0.883116,0.910559,0.927859,0.939762,0.948453,0.955078,0.960295,0.964509
0.381953,0.575766,0.674274,0.733294,0.772504,0.800418,0.821293,0.837491,0.850423,0.860985
1.01235,2.03085,2.62319,2.99148,3.2393,3.41653,3.54926,3.65224,3.73441,3.80147
0.251111,0.628657,0.845127,0.972359,1.05426,1.11097,1.15242,1.184,1.20883,1.22886
0.658728,2.051,2.8628,3.33581,3.64022,3.85172,4.00704,4.1259,4.21978,4.2958
0.255198,0.948382,1.33855,1.55841,1.69752,1.79322,1.86302,1.91617,1.95798,1.99174
0.191904,0.77912,1.06921,1.22238,1.31636,1.37987,1.42565,1.46023,1.48727,1.50899
0.184971,0.801861,1.08471,1.23352,1.32553,1.38816,1.4336,1.46807,1.49514,1.51695
0.164792,0.712123,0.932727,1.04468,1.11258,1.1582,1.19097,1.21565,1.23491,1.25035
0.164807,0.909582,1.31901,1.56994,1.74052,1.86421,1.95808,2.03176,2.09116,2.14006
0.156611,1.01361,1.48575,1.75649,1.92904,2.04774,2.13406,2.19954,2.25085,2.2921
0.155378,1.15349,1.6901,1.98819,2.17582,2.30454,2.3983,2.46965,2.52577,2.57108
0.150767,1.19397,1.69816,1.96457,2.12878,2.24019,2.32078,2.3818,2.42962,2.4681
0.15487,1.26757,1.76136,2.01921,2.17833,2.28655,2.36499,2.42448,2.47116,2.50878
0.152637,1.40009,2.00408,2.34314,2.56161,2.71437,2.82726,2.9141,2.98298,3.03896
0.492399,4.02959,5.3134,5.93758,6.30558,6.54782,6.71919,6.84675,6.94536,7.02386
0.182526,1.67059,2.342,2.72751,2.9809,3.16091,3.29562,3.40032,3.48409,3.55264
0.178766,1.78692,2.54512,2.97322,3.24661,3.43563,3.57383,3.67914,3.76199,3.82885
0.163847,1.69159,2.37456,2.74415,2.97454,3.13167,3.24565,3.33209,3.39991,3.45453
0.186744,1.70862,2.24011,2.49962,2.65325,2.75486,2.82706,2.88102,2.92288,2.95631
0.193362,2.04155,2.88926,3.3843,3.71249,3.94688,4.12293,4.26012,4.37007,4.4602
0.186349,2.16716,3.11084,3.64343,3.9822,4.21552,4.38555,4.51476,4.61618,4.69787
0.186914,2.25655,3.17752,3.66907,3.97238,4.17782,4.32611,4.43818,4.52585,4.59631
0.193768,2.51651,3.58205,4.1672,4.53744,4.79315,4.98049,5.12372,5.2368,5.32837
0.160192,1.14734,1.66926,2.07394,2.40452,2.68119,2.91662,3.11958,3.29642,3.45192
0.110205,1.11881,1.82705,2.33329,2.69175,2.95062,3.14274,3.28925,3.40376,3.49523
0.110593,1.53992,2.62892,3.32211,3.7688,4.07328,4.29225,4.45678,4.5848,4.68723
0.136886,2.27855,3.65656,4.38676,4.81933,5.10393,5.30554,5.45606,5.57283,5.66614
0.107868,1.99252,3.02074,3.53918,3.85162,4.06213,4.21422,4.32949,4.41995,4.49289
0.148859,2.60616,3.62081,4.10167,4.38688,4.57691,4.71288,4.81507,4.89471,4.95853
0.145149,2.50889,3.43624,3.90865,4.20144,4.40176,4.54768,4.65879,4.74624,4.81689
0.150754,2.83085,4.01031,4.66565,5.08748,5.38203,5.59932,5.76621,5.89839,6.00566
0.741065,13.8286,19.1996,22.0456,23.8063,25.0003,25.8623,26.5135,27.0226,27.4314
0.109675,1.88763,2.52179,2.84147,3.03442,3.16357,3.25612,3.3257,3.37993,3.4234
0.102949,1.75406,2.36381,2.68588,2.88636,3.02345,3.1232,3.19907,3.25873,3.30689
0.114791,2.43456,3.63401,4.37593,4.88058,5.24588,5.52245,5.73904,5.91324,6.05636
0.108836,2.53014,3.7216,4.37944,4.78772,5.06344,5.26136,5.41001,5.52561,5.61801
0.102911,2.74449,4.12329,4.90329,5.40163,5.74761,6.00205,6.19716,6.35161,6.47695
0.139792,3.95037,5.78988,6.77884,7.39365,7.81276,8.11677,8.34737,8.52828,8.67399
0.14789,3.27567,4.24846,4.69317,4.94897,5.11549,5.23262,5.31954,5.38663,5.43997
0.10461,2.36117,3.22831,3.7138,4.03097,4.25581,4.42392,4.5545,4.65891,4.74435
0.115362,3.06501,4.5082,5.37936,5.96025,6.37355,6.68188,6.92039,7.11019,7.26474
0.104516,3.05039,4.49474,5.30877,5.82219,6.17324,6.42771,6.62039,6.77125,6.89252
0.103193,3.26368,4.78676,5.62156,6.14413,6.5017,6.76183,6.95962,7.11513,7.24063
0.105135,3.52398,5.12391,5.99172,6.53575,6.90909,7.18136,7.38876,7.55204,7.68394
0.232489,7.60614,10.6569,12.2379,13.2073,13.8631,14.3366,14.6946,14.9747,15.1999
0.112129,3.6851,5.19088,6.0143,6.53857,6.90273,7.17073,7.37632,7.53908,7.67116
0.110563,3.52191,4.87688,5.59837,6.0473,6.35341,6.57541,6.74371,6.87566,6.98188
0.151443,4.7635,6.58643,7.56596,8.17907,8.59919,8.90512,9.13788,9.32093,9.46866
0.105705,3.45729,4.88673,5.68631,6.19808,6.55382,6.81545,7.01597,7.17455,7.3031
0.101944,3.67296,5.35279,6.31497,6.93543,7.3679,7.6863,7.93038,8.12338,8.2798
0.105704,4.04738,5.8833,6.89851,7.53761,7.97591,8.29492,8.5374,8.72792,8.88154
0.107223,3.88797,5.42868,6.23743,6.73596,7.07444,7.31947,7.50514,7.65072,7.76795
0.10662,3.85115,5.38448,6.21541,6.73987,7.10179,7.36683,7.56938,7.72924,7.85863
0.102335,3.86023,5.49642,6.41116,6.99649,7.40317,7.70209,7.93104,8.11198,8.25858
0.102744,4.09374,5.89534,6.9033,7.5453,7.98935,8.31456,8.56292,8.75876,8.91712
0.10425,4.33959,6.24897,7.30231,7.96738,8.425,8.75904,9.01356,9.21394,9.37578
0.268082,11.0264,15.5197,17.9084,19.3889,20.3964,21.1265,21.68,22.114,22.4635
0.10048,2.0603,2.97503,3.66925,4.22762,4.68918,5.07794,5.41017,5.69751,5.94855
0.0987408,2.6026,4.05729,5.02442,5.6789,6.13797,6.47215,6.72364,6.91839,7.0729
0.0989717,3.33805,5.41462,6.69003,7.5088,8.07009,8.47692,8.78493,9.02619,9.22034
0.0981008,3.83538,6.00963,7.19046,7.90864,8.38979,8.7348,8.9945,9.19717,9.3598
0.0986724,4.07462,6.02371,7.0059,7.59555,7.99054,8.27432,8.48834,8.65562,8.79002
0.100022,4.54829,6.73803,7.91341,8.65658,9.17183,9.55084,9.8416,10.0718,10.2586
0.100371,4.67783,6.77184,7.88814,8.58835,9.06937,9.42026,9.68752,9.89785,10.0677
0.100306,4.7377,6.76512,7.85195,8.53473,9.00406,9.3466,9.60767,9.81324,9.97933
0.104917,5.14756,7.38846,8.62109,9.40516,9.94821,10.3466,10.6514,10.8921,11.0871
0.0992,4.71422,6.57313,7.5489,8.15045,8.55817,8.85264,9.07525,9.24942,9.3894
0.243267,11.9523,16.9112,19.6352,21.3657,22.5641,23.4437,24.1171,24.6492,25.0803
0.100863,4.94047,6.98039,8.1032,8.81517,9.30693,9.66693,9.94185,10.1586,10.334
0.100349,5.04649,7.17949,8.3604,9.10989,9.62758,10.0065,10.2958,10.5239,10.7084
0.0995511,4.74373,6.54222,7.48341,8.06118,8.4517,8.73324,8.94581,9.11197,9.24542
0.102862,5.25319,7.52228,8.8109,9.64531,10.2307,10.6644,10.9987,11.2644,11.4806
0.211173,10.8534,15.3424,17.7708,19.2845,20.316,21.0631,21.6288,22.0718,22.4281
0.103519,5.08103,7.0508,8.10198,8.75699,9.20482,9.53057,9.77828,9.97304,10.1302
0.752104,38.0524,53.7989,62.5535,68.1431,72.0245,74.8778,77.0639,78.7924,80.1934
0.152809,3.8495,4.48067,4.74048,4.88186,4.97067,5.03158,5.07595,5.10971,5.13624
0.0989781,3.3528,4.79891,5.78916,6.5266,7.10073,7.56152,7.93996,8.25651,8.5253
0.0989405,4.34466,6.83792,8.49518,9.63468,10.4507,11.0574,11.5231,11.8904,12.1867
0.26275,13.1246,20.1616,24.1174,26.5454,28.1655,29.318,30.1785,30.8451,31.3765
0.114802,6.09563,9.06,10.6398,11.6116,12.2715,12.75,13.1134,13.3992,13.6299
0.115212,6.12904,8.76395,10.1252,10.9603,11.5269,11.9373,12.2484,12.4925,12.689
0.122343,5.76966,7.76492,8.74532,9.33387,9.72757,10.0097,10.2219,10.3874,10.52
0.0997717,5.31612,7.70131,9.10291,10.0387,10.7102,11.2162,11.6113,11.9284,12.1887
0.100739,5.81501,8.50583,10.025,10.9921,11.6581,12.1433,12.5119,12.8012,13.034
0.206363,12.6535,18.4463,21.6324,23.6346,25.0071,26.0063,26.7663,27.3638,27.846
0.0998789,5.96194,8.41505,9.70937,10.5095,11.0536,11.4479,11.7469,11.9815,12.1704
0.0995158,6.03991,8.56646,9.94701,10.8223,11.4279,11.8723,12.2124,12.4812,12.6988
0.0997472,6.22543,8.88634,10.3578,11.2931,11.9402,12.4142,12.7765,13.0623,13.2935
0.100575,6.50432,9.32865,10.8915,11.8827,12.5669,13.0674,13.4494,13.7506,13.994
0.187348,12.5309,17.9825,20.982,22.877,24.1819,25.1352,25.862,26.4345,26.897
0.101176,6.54795,9.19932,10.6221,11.5107,12.1189,12.5614,12.8979,13.1624,13.3758
0.100487,6.3691,8.89636,10.2619,11.12,11.7098,12.1404,12.4686,12.727,12.9359
0.101233,6.70739,9.58647,11.2083,12.2509,12.9778,13.5134,13.9245,14.25,14.5141
0.100128,5.92569,8.04586,9.1346,9.79565,10.2391,10.5571,10.7962,10.9824,11.1316
0.100767,6.00265,8.31674,9.58238,10.3852,10.941,11.349,11.6614,11.9084,12.1086
0.100897,6.37313,9.11446,10.6769,11.6858,12.3905,12.9103,13.3093,13.6253,13.8816
0.130258,8.62658,12.4321,14.5618,15.9138,16.846,17.527,18.046,18.4545,18.7844
0.104114,7.31982,10.6341,12.483,13.6568,14.4675,15.0607,15.5138,15.871,16.16
0.103183,6.97046,9.74097,11.1832,12.065,12.6595,13.0876,13.4105,13.6627,13.8652
