1.5888,1.66054,1.68592,1.6989,1.70678,1.71208,1.71588,1.71875,1.72098,1.72277
1.23294,1.7522,2.02144,2.18598,2.29692,2.37678,2.43701,2.48405,2.52181,2.55279
1.11492,1.82888,2.14903,2.32107,2.42665,2.49753,2.54822,2.58619,2.61567,2.63919
0.936437,2.08874,2.73613,3.1276,3.38743,3.57209,3.70999,3.81688,3.90218,3.97181
0.797636,1.95278,2.46835,2.72794,2.8802,2.97934,3.04873,3.0999,3.13913,3.17014
0.866157,2.795,3.85327,4.46597,4.86416,5.14411,5.35196,5.51252,5.64035,5.74457
0.455548,0.750806,0.800925,0.819244,0.828556,0.834155,0.83788,0.840532,0.842515,0.844052
0.476524,1.39706,2.04512,2.57707,3.02998,3.4222,3.76579,4.06953,4.34009,4.58269
0.497685,2.29963,3.88521,5.07551,5.93304,6.5533,7.01078,7.35616,7.62296,7.83345
0.505926,3.21532,5.33599,6.54716,7.25441,7.70092,8.00388,8.22161,8.38526,8.51266
0.528642,4.2979,6.81728,8.07135,8.78625,9.24741,9.57087,9.81113,9.99706,10.1454
0.524965,5.1634,7.84765,9.13279,9.88326,10.3795,10.7334,10.9992,11.2063,11.3723
0.575909,6.02346,8.50088,9.62388,10.2734,10.6996,11.0015,11.2266,11.4011,11.5402
0.546509,6.3394,8.90568,10.1727,10.9463,11.471,11.8511,12.1393,12.3654,12.5476
0.56015,7.07789,9.87168,11.2767,12.1323,12.7085,13.1227,13.4348,13.6784,13.8736
0.917514,12.0296,16.4356,18.6184,19.9296,20.8045,21.4297,21.8987,22.2636,22.5555
0.578439,7.58933,10.1679,11.4418,12.2064,12.717,13.0822,13.3566,13.5703,13.7414
0.592851,8.38669,11.4797,13.1006,14.1053,14.79,15.2868,15.6638,15.9596,16.1981
0.631193,9.01149,12.1279,13.6947,14.6356,15.2622,15.709,16.0435,16.3033,16.5108
0.626886,9.15785,12.3229,13.9363,14.917,15.5767,16.0512,16.4089,16.6883,16.9125
0.625634,9.49381,12.8475,14.5773,15.634,16.3466,16.8597,17.2466,17.549,17.7916
0.629216,9.95686,13.5247,15.3654,16.4877,17.2431,17.7861,18.1952,18.5144,18.7705
0.6511,10.0921,13.4255,15.0844,16.0761,16.7355,17.2056,17.5577,17.8312,18.0499
0.515255,1.92493,2.01952,2.05374,2.07147,2.08232,2.08966,2.09495,2.09895,2.10208
0.711761,4.61366,6.69489,8.43768,9.94219,11.2588,12.4222,13.458,14.3866,15.2238
0.511543,5.22401,8.99868,11.9927,14.2354,15.9015,17.1531,18.1104,18.8567,19.4494
0.676128,9.22085,15.4542,19.0439,21.1225,22.4181,23.2861,23.903,24.3623,24.717
0.530658,9.45902,15.5373,18.6856,20.5069,21.6917,22.5279,23.1522,23.6375,24.0262
0.538195,11.4972,17.8546,20.8805,22.6252,23.7683,24.5786,25.184,25.654,26.0296
0.54196,12.8739,18.9013,21.7012,23.3396,24.424,25.1971,25.7767,26.2276,26.5885
0.561864,14.2404,20.1711,22.9919,24.6772,25.8044,26.6128,27.2213,27.6959,28.0766
0.547506,13.9304,19.0367,21.4771,22.9332,23.9033,24.5965,25.1166,25.5213,25.8452
0.674909,17.5363,23.8452,27.0026,28.9265,30.2248,31.1606,31.8673,32.42,32.8641
0.574287,15.54,21.2567,24.1979,26.0026,27.2231,28.1034,28.7682,29.288,29.7056
0.557509,15.3127,20.7851,23.5619,25.2428,26.3687,27.1751,27.781,28.2529,28.6307
0.569281,15.7531,21.277,24.0813,25.7808,26.9213,27.7399,28.3561,28.8367,29.2221
0.558428,15.6564,21.1574,23.9729,25.6869,26.8404,27.6699,28.2952,28.7833,29.175
0.58165,16.7901,22.8229,25.9404,27.8455,29.1303,30.0553,30.7529,31.2979,31.7354
0.567608,16.4198,22.1666,25.0922,26.8631,28.0498,28.9003,29.5397,30.0378,30.4369
0.596805,17.7693,24.1523,27.4519,29.4695,30.8312,31.8124,32.553,33.132,33.597
0.756974,18.4951,23.4204,25.6979,27.009,27.8606,28.4583,28.9007,29.2414,29.5118
0.611222,17.3228,23.9817,27.7813,30.2704,32.0348,33.3531,34.3763,35.1941,35.8627
0.739766,22.5746,31.4792,36.2318,39.1452,41.1,42.497,43.5429,44.3541,45.0011
0.61475,17.9107,23.9462,26.8873,28.6121,29.7435,30.5427,31.1372,31.5968,31.9628
0.725814,22.9709,31.7389,36.3962,39.3015,41.2933,42.746,43.8534,44.7259,45.4312
0.591983,18.6149,25.1726,28.4599,30.4263,31.7321,32.6612,33.3556,33.8939,34.3234
0.803582,27.4584,38.1135,43.7554,47.2566,49.6441,51.3776,52.6939,53.7276,54.5612
0.59135,21.1908,29.315,33.5009,36.0421,37.7457,38.9661,39.8829,40.5967,41.168
0.619252,22.8915,31.4535,35.8135,38.452,40.2206,41.4888,42.4428,43.1866,43.7828
0.597344,22.6119,30.9202,35.1495,37.7149,39.4381,40.6757,41.6077,42.335,42.9184
0.600124,22.6267,30.6214,34.6645,37.1107,38.7511,39.9278,40.8132,41.5035,42.0569
0.712485,24.7846,32.5363,36.3246,38.5767,40.0706,41.1342,41.9301,42.5481,43.0419
0.603364,21.5731,29.0444,32.9683,35.4039,37.0663,38.2744,39.1923,39.9135,40.4952
0.610564,22.6832,30.9432,35.286,37.9572,39.763,41.064,42.0453,42.8117,43.4266
0.743001,26.4198,35.1613,39.5084,42.0976,43.8134,45.0333,45.9449,46.6519,47.2163
0.615473,23.1024,31.554,36.0166,38.7845,40.6721,42.0429,43.0841,43.902,44.5615
0.633815,18.1167,22.5519,24.5498,25.6821,26.4099,26.9168,27.2898,27.5757,27.8018
0.636545,21.1514,29.1136,33.7122,36.7542,38.9266,40.5592,41.8323,42.8534,43.691
0.626546,22.1087,30.5801,35.087,37.84,39.6808,40.9925,41.9719,42.7299,43.3333
0.748258,27.8034,38.4277,43.9154,47.2338,49.4524,51.0398,52.2321,53.1605,53.9042
0.687027,28.235,39.8191,45.95,49.7315,52.2974,54.1534,55.5587,56.6598,57.5459
0.659118,28.7169,40.1628,46.0246,49.5679,51.9383,53.6345,54.9079,55.899,56.6922
0.638979,27.1658,36.7634,41.468,44.2617,46.1137,47.4321,48.4188,49.185,49.7974
0.573307,5.30931,5.5982,5.70097,5.75403,5.78651,5.80845,5.82428,5.83624,5.8456
0.586266,9.29236,13.5499,17.1036,20.1707,22.8552,25.2278,27.341,29.2358,30.9447
0.580749,13.9688,23.7498,31.2721,36.7819,40.8093,43.7992,46.0659,47.8212,49.2082
0.58199,19.3594,33.483,42.1024,47.3088,50.6533,52.9445,54.6006,55.8501,56.8254
0.655149,26.9382,43.6547,51.959,56.609,59.5605,61.6053,63.1099,64.266,65.1836
0.608499,27.2513,40.3557,46.2284,49.5392,51.6862,53.2001,54.3281,55.2022,55.9
0.678311,31.155,43.6496,49.358,52.7083,54.9342,56.526,57.7224,58.6551,59.4027
0.592888,28.9014,40.316,45.9625,49.4146,51.7555,53.4495,54.7327,55.7384,56.548
0.594784,30.1295,41.6623,47.4525,50.974,53.3427,55.0444,56.3255,57.3247,58.1257
0.614248,31.4603,42.9347,48.6775,52.1457,54.4676,56.1308,57.3808,58.3545,59.1344
0.650622,27.4759,34.9761,38.424,40.4152,41.7129,42.6259,43.3032,43.8258,44.2412
0.618136,30.2061,41.9888,48.6931,53.0871,56.2024,58.5301,60.3369,61.7806,62.9611
0.597616,31.8501,44.8267,51.803,56.1007,58.9928,61.0639,62.6166,63.8222,64.7846
0.605537,31.3197,42.3602,47.7745,50.957,53.0467,54.5232,55.6218,56.4712,57.1477
0.689572,36.5333,49.7391,56.5015,60.6324,63.4261,65.4446,66.9725,68.1699,69.1338
0.603577,27.3107,35.0926,38.7503,40.8781,42.2697,43.2508,43.9794,44.5418,44.9891
0.617423,32.0296,44.5652,51.6439,56.2463,59.4901,61.9031,63.7697,65.2571,66.4705
0.665444,37.594,52.903,61.1019,66.1437,69.5352,71.9642,73.786,75.2012,76.3314
0.686642,40.78,56.8505,65.0876,70.0479,73.355,75.7163,77.4866,78.8634,79.9648
0.622437,37.992,52.3541,59.6046,63.9709,66.8909,68.9826,70.5551,71.7807,72.763
0.608754,34.3371,45.4499,50.8103,53.9757,56.0681,57.5548,58.6659,59.5279,60.2161
0.654071,37.7284,50.965,57.85,62.111,65.0162,67.1262,68.7291,69.9884,71.0041
0.642618,36.7198,49.433,55.9469,59.9066,62.5648,64.4711,65.9043,67.0207,67.9147
0.606357,35.619,48.4845,55.1843,59.2933,62.0702,64.0723,65.5842,66.7664,67.7162
0.619774,36.3021,49.1199,55.6704,59.6388,62.2985,64.2046,65.6375,66.7538,67.6479
0.728824,44.0112,60.0743,68.4061,73.5052,76.948,79.4291,81.3024,82.7668,83.9432
0.649783,38.2093,51.3343,57.9407,61.9135,64.5647,66.4594,67.8807,68.9864,69.871
0.67713,32.3495,40.8873,44.8661,47.1739,48.6822,49.7457,50.536,51.1465,51.6324
0.626251,34.741,48.2047,55.9462,61.0376,64.6543,67.36,69.4619,71.1425,72.5173
0.670266,41.1646,58.265,67.5853,73.3577,77.2535,80.0482,82.1458,83.7759,85.0779
0.635415,38.2761,52.0793,58.8786,62.873,65.4929,67.3422,68.7171,69.7794,70.6249
0.650285,40.8913,56.2046,64.0973,68.9302,72.2036,74.5713,76.3652,77.772,78.9051
0.63379,41.1447,56.5728,64.5149,69.3578,72.6192,74.9647,76.7321,78.1114,79.2178
0.70718,44.5697,59.8962,67.5042,72.05,75.0721,77.2263,78.8395,80.0927,81.0943
0.698271,45.9793,62.97,71.8594,77.3532,81.0914,83.8016,85.8573,87.4704,88.7701
0.634039,43.6722,60.241,68.8802,74.172,77.7415,80.3099,82.2457,83.7566,84.9685
0.628696,41.2577,55.1963,62.0703,66.1543,68.8584,70.7803,72.2165,73.3303,74.2194
