1.68363,1.73058,1.74681,1.75504,1.76002,1.76335,1.76574,1.76754,1.76894,1.77006
0.822155,1.20615,1.41981,1.55582,1.64999,1.71905,1.77186,1.81356,1.84731,1.87519
0.659223,1.24859,1.5659,1.75053,1.8685,1.94955,2.00835,2.05283,2.08758,2.11545
0.557791,1.35535,1.79193,2.03965,2.19567,2.30223,2.37944,2.43791,2.4837,2.52053
0.459871,1.3292,1.76472,1.99402,2.13258,2.22489,2.29069,2.33993,2.37816,2.40868
0.574722,1.98048,2.67423,3.03986,3.26356,3.41447,3.52318,3.60524,3.66939,3.72093
0.382672,1.58669,2.19044,2.51165,2.70965,2.84378,2.94063,3.01384,3.07111,3.11713
0.322903,1.64844,2.34635,2.72455,2.95992,3.12024,3.2364,3.32441,3.39338,3.44889
0.343079,1.99696,2.79324,3.19799,3.4404,3.6014,3.71599,3.80166,3.86812,3.92117
0.289099,1.41401,1.75988,1.90924,1.99249,2.04565,2.08256,2.1097,2.1305,2.14696
0.27279,1.7291,2.43053,2.84592,3.12679,3.33074,3.48597,3.60821,3.70704,3.78862
0.3728,2.91273,4.24817,5.00337,5.48008,5.80497,6.03924,6.21555,6.35275,6.46239
0.274237,2.46586,3.54725,4.1089,4.44599,4.66945,4.82816,4.94663,5.03843,5.11166
0.299218,3.17327,4.62077,5.38529,5.85565,6.17459,6.40536,6.58021,6.71734,6.82779
0.312106,3.76297,5.43647,6.30225,6.8297,7.18474,7.44003,7.63242,7.78259,7.90307
0.310225,3.93721,5.5002,6.27567,6.7397,7.04886,7.26971,7.43539,7.5643,7.66746
0.328638,4.31042,5.91288,6.71444,7.19944,7.52534,7.75965,7.9363,8.07429,8.18507
0.274016,3.8923,5.41305,6.21187,6.70799,7.0466,7.29255,7.47932,7.626,7.74424
0.282147,3.9662,5.3519,6.04238,6.45591,6.73099,6.92704,7.07379,7.18773,7.27875
0.30757,4.77438,6.65443,7.66656,8.30277,8.74047,9.0603,9.30432,9.49669,9.65226
0.267873,4.3397,5.99141,6.84635,7.3668,7.71616,7.96658,8.15476,8.30127,8.41855
0.284935,4.87623,6.75008,7.72772,8.32801,8.73422,9.02748,9.24919,9.42273,9.56226
0.267441,4.83405,6.70355,7.68024,8.28022,8.68619,8.97914,9.20051,9.37366,9.5128
0.26693,4.80464,6.52515,7.39576,7.92143,8.27326,8.52525,8.71461,8.86212,8.98027
0.275149,4.92933,6.64719,7.52546,8.06108,8.42239,8.68274,8.87931,9.03302,9.15652
0.268296,5.12613,7.06841,8.10571,8.75284,9.19531,9.51698,9.76138,9.95337,10.1082
0.272554,5.41849,7.47404,8.55289,9.21537,9.66281,9.98505,10.2281,10.4179,10.5702
0.270796,5.66518,7.84958,8.99725,9.70335,10.1814,10.5266,10.7875,10.9916,11.1557
0.275748,5.91819,8.1383,9.28544,9.98501,10.4561,10.7948,11.0502,11.2495,11.4095
0.281182,5.92143,7.99586,9.04692,9.68294,10.1095,10.4156,10.6459,10.8256,10.9696
0.273343,5.8376,7.92149,9.00533,9.67242,10.1249,10.4522,10.7,10.8942,11.0504
0.341872,7.31105,9.88929,11.2225,12.0376,12.5873,12.983,13.2814,13.5145,13.7015
0.267178,5.38281,7.11437,7.98081,8.50117,8.8483,9.09636,9.28247,9.42727,9.54314
0.272015,4.39892,5.49857,6.01692,6.31994,6.51902,6.6599,6.76488,6.84616,6.91094
0.274897,5.50971,7.80068,9.19486,10.1435,10.833,11.3574,11.7699,12.103,12.3776
0.266673,6.10796,8.82608,10.348,11.2983,11.9409,12.4017,12.7472,13.0153,13.2291
0.261527,5.87376,8.03807,9.10089,9.72196,10.1278,10.4136,10.6258,10.7895,10.9197
0.274461,6.63952,9.25596,10.6323,11.486,12.0696,12.4947,12.8185,13.0735,13.2796
0.259115,6.78558,9.55373,11.0199,11.9271,12.5436,12.9895,13.3269,13.591,13.8033
0.264866,7.27324,10.1599,11.6554,12.568,13.1823,13.6239,13.9567,14.2163,14.4246
0.272923,7.99524,11.2237,12.9185,13.9635,14.6726,15.1856,15.574,15.8783,16.1231
0.302744,8.81812,12.0896,13.7473,14.7493,15.4204,15.9014,16.2629,16.5446,16.7702
0.262086,7.4712,10.148,11.5274,12.3741,12.9479,13.3629,13.677,13.9232,14.1214
0.261979,7.68466,10.5318,12.0286,12.954,13.5828,14.0379,14.3825,14.6524,14.8696
0.265902,8.26853,11.521,13.2653,14.3524,15.0943,15.6327,16.0412,16.3618,16.6199
0.273594,8.21193,11.0982,12.5489,13.4181,13.9962,14.4082,14.7166,14.9561,15.1474
0.258135,7.2183,9.57969,10.7729,11.4971,11.9845,12.3354,12.6002,12.8072,12.9736
0.265459,8.27809,11.6095,13.4755,14.6744,15.5105,16.1271,16.6005,16.9755,17.2799
0.259818,8.47019,11.8192,13.5878,14.6699,15.397,15.9179,16.309,16.6133,16.8566
0.265108,8.85249,12.2412,13.9927,15.0586,15.7753,16.2905,16.6787,16.9818,17.2251
0.283297,9.55227,13.0973,14.9191,16.0293,16.7775,17.316,17.7224,18.0399,18.2949
0.255287,8.68944,11.9482,13.6632,14.7259,15.4499,15.9752,16.3739,16.6868,16.939
0.262783,9.34492,12.9641,14.882,16.0692,16.8759,17.4595,17.9012,18.2471,18.5253
0.267602,9.37615,12.7645,14.4923,15.5376,16.2375,16.7388,17.1155,17.4088,17.6437
0.260317,9.58327,13.2925,15.2725,16.5078,17.3532,17.9685,18.4365,18.8046,19.1017
0.258494,9.9669,13.8957,15.977,17.2625,18.1342,18.7637,19.2396,19.6118,19.9108
0.264469,10.3405,14.2706,16.3042,17.5444,18.3792,18.9793,19.4316,19.7846,20.0679
0.258533,10.4773,14.5142,16.6277,17.9289,18.8112,19.4491,19.9318,20.3098,20.614
0.260742,10.1417,13.7086,15.5125,16.6023,17.3321,17.8551,18.2482,18.5545,18.7999
0.259909,10.4865,14.4322,16.5278,17.8333,18.726,19.3753,19.869,20.2571,20.5703
0.266188,6.91249,8.32919,8.93971,9.27918,9.49506,9.64436,9.75372,9.83725,9.90314
0.259554,8.35907,11.6742,13.7316,15.1617,16.2197,17.0361,17.6859,18.2158,18.6562
0.253598,9.7323,14.3109,17.0112,18.7488,19.9452,20.8131,21.4686,21.9798,22.389
0.254966,10.0262,14.1024,16.1712,17.3905,18.1884,18.7499,19.1661,19.487,19.7419
0.261293,11.2608,16.0759,18.6327,20.2179,21.3005,22.0886,22.6886,23.1612,23.5431
0.255666,11.4368,16.0632,18.4424,19.8893,20.8621,21.561,22.0872,22.4976,22.8266
0.262129,12.2185,17.1191,19.6718,21.2431,22.3092,23.0805,23.6645,24.1222,24.4906
0.25891,11.9268,16.3371,18.5679,19.9171,20.8212,21.4694,21.9567,22.3365,22.6408
0.2579,8.72216,10.8291,11.7717,12.3089,12.6564,12.8998,13.0798,13.2184,13.3283
0.264834,11.1031,15.8054,18.7037,20.7067,22.1814,23.3147,24.2137,24.9446,25.5508
0.25482,12.4121,18.2474,21.6016,23.7299,25.183,26.2313,27.0203,27.6341,28.1245
0.26058,13.7038,19.8087,23.0334,24.9884,26.2939,27.2262,27.9252,28.4688,28.9036
0.289865,14.9506,20.6543,23.4692,25.1397,26.2473,27.0365,27.6277,28.0873,28.455
0.287181,14.9986,20.6579,23.5643,25.349,26.5609,27.439,28.105,28.6276,29.0488
0.278958,13.6235,18.2043,20.4818,21.8504,22.7643,23.4178,23.9082,24.2899,24.5952
0.296768,15.3972,21.3447,24.5836,26.637,28.0579,29.1003,29.898,30.5282,31.0387
0.252693,9.28109,11.4655,12.4393,12.9881,13.3394,13.5831,13.762,13.8989,14.0069
0.257208,11.7505,16.6969,19.7554,21.8705,23.4289,24.6277,25.5795,26.3541,26.997
0.293975,15.4564,22.6471,26.781,29.4038,31.1947,32.4871,33.46,34.2171,34.822
0.254766,13.9831,19.8621,22.8912,24.701,25.8981,26.7474,27.3811,27.872,28.2636
0.259108,13.9488,19.1441,21.7218,23.2606,24.2858,25.0189,25.5697,25.999,26.343
0.261179,14.5405,20.1246,23.0386,24.8422,26.0724,26.9662,27.6453,28.179,28.6095
0.265922,14.0676,18.9502,21.4038,22.8833,23.8727,24.5806,25.1121,25.5258,25.8568
0.275432,15.7228,21.9806,25.3967,27.561,29.0574,30.1544,30.9933,31.6558,32.1923
0.266798,15.9484,22.3728,25.7991,27.9182,29.3546,30.391,31.1736,31.7852,32.2761
0.249221,10.5193,13.0289,14.1294,14.7452,15.1386,15.4114,15.6119,15.7653,15.8866
0.281002,13.1793,17.9625,20.7146,22.5389,23.845,24.8288,25.5974,26.2148,26.7219
0.25784,14.1147,20.4281,24.1169,26.5068,28.1691,29.3873,30.3161,31.0466,31.6356
0.25018,14.657,20.9457,24.2836,26.3097,27.661,28.6239,29.3439,29.9025,30.3483
0.260417,16.6237,23.8853,27.747,30.1294,31.7469,32.9181,33.8058,34.5022,35.0634
0.244738,8.8984,10.5759,11.25,11.6131,11.8401,11.9956,12.1087,12.1948,12.2624
0.269664,12.9443,18.4561,22.0342,24.6156,26.5809,28.1317,29.3882,30.4277,31.3023
0.245092,12.956,18.606,21.7788,23.7537,25.0799,26.0231,26.7244,27.2644,27.6919
0.263195,15.9188,23.3421,27.4293,29.9684,31.6913,32.9363,33.8782,34.6159,35.2096
0.266675,16.7275,23.7149,27.2581,29.375,30.7807,31.782,32.5316,33.1139,33.5793
0.275503,17.0791,23.5157,26.7226,28.65,29.9404,30.8661,31.5631,32.1071,32.5436
0.254139,15.8472,21.7494,24.7827,26.6455,27.909,28.8232,29.5157,30.0584,30.4952
0.251693,14.4004,19.108,21.4351,22.8287,23.7571,24.4199,24.9167,25.3029,25.6118
0.250687,16.3688,23.2733,27.2089,29.772,31.5777,32.9196,33.9564,34.7818,35.4545
0.248991,18.1744,26.3846,30.943,33.8094,35.7677,37.1865,38.2601,39.1001,39.7749
