0.366009,0.389836,0.398483,0.402952,0.405682,0.407522,0.408847,0.409847,0.410627,0.411254
0.712132,1.20526,1.53514,1.77072,1.94728,2.08451,2.19421,2.28392,2.35863,2.42183
0.535059,1.26508,1.76392,2.0889,2.30892,2.46503,2.58046,2.6688,2.73834,2.79438
0.237707,0.709279,1.00281,1.17294,1.27992,1.35259,1.40498,1.44448,1.4753,1.50003
0.219454,0.78877,1.11691,1.2985,1.4117,1.48889,1.54492,1.58746,1.62087,1.64782
0.173353,0.472035,0.560602,0.597894,0.618317,0.631214,0.640103,0.646603,0.651564,0.655475
0.31427,1.2432,1.78954,2.15675,2.42647,2.6344,2.80003,2.93524,3.04777,3.14292
0.497032,2.50496,3.73929,4.484,4.96658,5.29918,5.54005,5.72152,5.86265,5.97526
0.164854,1.00409,1.496,1.76994,1.93997,2.05501,2.13789,2.20043,2.24929,2.28854
0.16073,1.1085,1.61242,1.87954,2.04358,2.15465,2.23492,2.2957,2.34333,2.38168
0.257078,1.9897,2.87619,3.3519,3.64958,3.85399,4.00321,4.11699,4.20665,4.27912
0.422904,3.59844,5.16113,6.00021,6.52563,6.88595,7.1485,7.34831,7.50548,7.63233
0.469769,4.32768,6.1623,7.1467,7.76256,8.18446,8.49161,8.72523,8.9089,9.0571
0.161434,1.58431,2.23964,2.59097,2.81062,2.96103,3.07049,3.15373,3.21917,3.27196
0.230129,2.3446,3.27467,3.76901,4.07654,4.28642,4.43882,4.55452,4.64535,4.71856
0.347862,3.77491,5.32553,6.17651,6.71632,7.08962,7.36326,7.57248,7.73766,7.87137
0.225098,2.5823,3.6403,4.21516,4.57591,4.82317,5.00312,5.13993,5.24742,5.3341
0.175345,2.04936,2.84831,3.27307,3.53658,3.71601,3.84608,3.94469,4.02203,4.08431
0.358798,2.65118,3.16193,3.38054,3.50215,3.57965,3.63337,3.67281,3.70299,3.72684
0.537255,5.44817,7.89089,9.54092,10.7564,11.6945,12.4423,13.053,13.5614,13.9914
0.195447,2.29325,3.37853,4.01797,4.42647,4.70538,4.90609,5.05662,5.17329,5.26615
0.189539,2.48548,3.63945,4.27402,4.66703,4.93308,5.12499,5.26998,5.38343,5.47465
0.145339,2.13565,3.12881,3.66883,4.00572,4.23608,4.40368,4.53117,4.63145,4.71239
0.187019,3.00739,4.37526,5.11125,5.57033,5.88433,6.11275,6.28641,6.4229,6.53301
0.184939,3.13266,4.48951,5.21213,5.66214,5.96972,6.19337,6.36335,6.49692,6.60467
0.204154,3.59155,5.09505,5.89776,6.39929,6.74281,6.99294,7.18324,7.3329,7.45368
0.144373,2.50985,3.47559,3.9794,4.28992,4.50064,4.65305,4.76841,4.85877,4.93147
0.139341,2.58675,3.65931,4.25015,4.62624,4.88699,5.07848,5.22511,5.341,5.43491
0.168148,1.75478,2.06715,2.19714,2.26831,2.31317,2.34401,2.36652,2.38366,2.39714
0.194208,1.34702,1.56286,1.66744,1.7305,1.77294,1.80351,1.82662,1.8447,1.85925
0.141976,1.55352,2.35298,2.97216,3.46968,3.87848,4.22034,4.51042,4.75962,4.97601
0.121459,1.25266,1.69336,1.9138,2.03836,2.11603,2.16818,2.20522,2.2327,2.25379
0.181139,2.70674,4.32671,5.40966,6.17957,6.75719,7.20818,7.57097,7.86964,8.12009
0.145321,2.77924,4.51564,5.54606,6.20028,6.64598,6.96684,7.20786,7.39505,7.54436
0.117139,2.61634,4.08008,4.85401,5.32099,5.6325,5.85513,6.02227,6.15244,6.25672
0.119515,2.9467,4.42488,5.18638,5.65194,5.96764,6.19641,6.37005,6.50643,6.61645
0.122468,3.09388,4.44485,5.12881,5.54708,5.83055,6.03565,6.19102,6.31283,6.4109
0.123465,3.17363,4.48486,5.1693,5.59587,5.88819,6.10124,6.26347,6.39115,6.49427
0.121889,3.32907,4.76621,5.55398,6.05592,6.40408,6.65979,6.85555,7.01022,7.13552
0.121762,3.4173,4.85008,5.6222,6.10553,6.43622,6.67657,6.8591,7.00239,7.11786
0.139444,3.6762,5.02601,5.71984,6.14337,6.42893,6.63455,6.78969,6.91093,7.0083
0.12355,3.46099,4.88385,5.67542,6.18287,6.53656,6.79739,6.99775,7.15653,7.28546
0.120501,3.09379,4.16519,4.70747,5.03384,5.25139,5.4066,5.52282,5.61308,5.68519
0.388524,11.0951,15.8552,18.5998,20.3977,21.6697,22.6184,23.3535,23.9401,24.4193
0.12215,3.69501,5.32476,6.24075,6.82363,7.22582,7.51957,7.74331,7.91929,8.06129
0.123747,3.82813,5.42791,6.28443,6.81446,7.17419,7.4342,7.63088,7.78485,7.90866
0.150576,4.90514,7.03961,8.22241,8.9755,9.49786,9.88178,10.176,10.4087,10.5974
0.167265,5.73428,8.2471,9.62959,10.5028,11.1038,11.5426,11.877,12.1402,12.3527
0.152746,4.99714,6.89575,7.86979,8.46129,8.85845,9.14348,9.35799,9.52526,9.65936
0.159442,5.44134,7.67664,8.90801,9.69342,10.2394,10.6415,10.9501,11.1945,11.3928
0.424069,14.6481,20.5598,23.75,25.7438,27.1063,28.0956,28.8462,29.435,29.9091
0.169064,5.80725,8.12843,9.389,10.1823,10.7278,11.1261,11.4298,11.669,11.8623
0.144164,5.13257,7.2766,8.46431,9.21914,9.74123,10.1238,10.4162,10.6469,10.8336
0.143507,5.24568,7.43461,8.63062,9.38233,9.898,10.2735,10.5592,10.7837,10.9648
0.165087,6.26967,8.91045,10.35,11.2543,11.8747,12.3269,12.671,12.9417,13.1602
0.1429,5.42039,7.59738,8.75693,9.47662,9.96684,10.3223,10.5918,10.8032,10.9734
0.143581,5.38871,7.50777,8.64427,9.35523,9.84256,10.1976,10.4679,10.6806,10.8523
0.164072,6.28058,8.87746,10.3234,11.2482,11.8911,12.3641,12.7268,13.0137,13.2463
0.142521,5.59151,7.9281,9.21556,10.0289,10.5885,10.9969,11.3078,11.5525,11.75
0.132805,5.35626,7.61221,8.85097,9.63237,10.17,10.5624,10.8615,11.097,11.2872
0.155478,6.44127,9.15213,10.6325,11.5638,12.2035,12.6701,13.0254,13.305,13.5307
0.151844,6.07285,8.41413,9.64354,10.4008,10.9142,11.2851,11.5657,11.7854,11.9621
0.389833,16.239,22.9671,26.6903,29.0642,30.7122,31.9239,32.8525,33.5871,34.1827
0.156418,3.67286,4.3745,4.67352,4.83914,4.94428,5.01693,5.07012,5.11074,5.14277
0.14081,4.35815,6.29006,7.59288,8.55168,9.29136,9.88075,10.362,10.7626,11.1013
0.150977,5.54148,8.37232,10.1141,11.2571,12.0514,12.6302,13.0683,13.4102,13.6838
0.149906,3.72148,4.64305,5.03528,5.24681,5.37818,5.46753,5.53222,5.58122,5.61963
0.203552,6.69047,9.8699,11.9199,13.3843,14.4925,15.3637,16.0679,16.6495,17.1382
0.141942,5.42457,8.1828,9.80292,10.8428,11.5578,12.0757,12.4664,12.7708,13.0142
0.147887,6.13061,9.10413,10.7373,11.7534,12.4444,12.9445,13.3233,13.6202,13.8593
0.17207,7.70931,11.3449,13.3114,14.5391,15.3795,15.9914,16.4571,16.8235,17.1194
0.145664,6.8271,9.89763,11.5417,12.5682,13.2713,13.7832,14.1728,14.4793,14.7266
0.150036,7.25631,10.3815,12.0438,13.0792,13.7869,14.3014,14.6923,14.9994,15.247
0.213479,10.7762,15.4013,17.8909,19.4524,20.5241,21.3055,21.9004,22.3685,22.7465
0.630602,17.569,20.8543,22.2135,22.9585,23.4293,23.7537,23.9908,24.1717,24.3143
0.122824,4.43399,6.34522,7.61694,8.54748,9.26264,9.83088,10.2938,10.6784,11.0032
0.187149,8.15745,12.4111,15.0784,16.8552,18.1038,19.021,19.7196,20.2676,20.708
0.176968,8.10863,11.8821,13.9222,15.164,15.9926,16.5834,17.0255,17.3688,17.6431
0.155133,7.61962,11.1207,13.0155,14.1982,15.0086,15.5997,16.0505,16.4058,16.6933
0.155837,8.15524,11.84,13.8254,15.0668,15.9173,16.5367,17.008,17.3787,17.6778
0.151383,5.73451,7.25437,7.92666,8.30642,8.55067,8.721,8.84656,8.94296,9.0193
0.21018,9.37788,13.3798,15.8185,17.4986,18.7345,19.6842,20.4377,21.0506,21.5589
0.16159,4.75812,5.84576,6.33013,6.60046,6.77151,6.88892,6.97427,7.03899,7.0897
0.136792,5.43871,8.05336,9.81053,11.0944,12.0792,12.8606,13.4966,14.0248,14.4706
0.297182,13.4951,20.1672,24.0439,26.4938,28.1545,29.3438,30.2327,30.9198,31.4656
0.138941,6.96942,10.4381,12.3913,13.6247,14.4724,15.0911,15.563,15.9349,16.2358
0.158065,8.31992,12.1275,14.1498,15.3947,16.2381,16.8476,17.3088,17.6699,17.9604
0.61597,22.8223,28.6993,31.259,32.6964,33.6191,34.2623,34.7364,35.1006,35.3891
0.148632,6.84272,9.92029,11.8465,13.1984,14.2065,14.9892,15.6152,16.1277,16.555
0.15816,8.04451,11.7754,13.8964,15.2381,16.1531,16.8127,17.3091,17.6951,18.0034
0.173976,9.00911,12.9546,15.0996,16.437,17.3496,18.0122,18.5154,18.9108,19.2298
0.187869,9.8059,13.9073,16.1041,17.4727,18.4082,19.0886,19.6059,20.0126,20.3407
0.143403,7.77144,11.0905,12.9064,14.0546,14.847,15.427,15.87,16.2195,16.5022
0.144174,8.65515,12.6903,14.971,16.4348,17.453,18.202,18.7758,19.2294,19.597
0.326031,20.8602,30.3253,35.4539,38.6479,40.8232,42.3985,43.5913,44.5256,45.2772
0.144175,9.27242,13.2695,15.4257,16.7788,17.7087,18.3877,18.9057,19.3139,19.644
0.129049,8.57047,12.296,14.3412,15.6383,16.5351,17.1924,17.6949,18.0915,18.4125
0.178064,11.6917,16.4804,19.0417,20.6379,21.7279,22.5194,23.1202,23.5917,23.9717
0.141811,8.88379,12.275,14.0635,15.1724,15.928,16.4761,16.8921,17.2185,17.4816
0.14054,8.9065,12.4146,14.3121,15.5048,16.3245,16.9225,17.3781,17.7367,18.0264
