1.06979,1.0722,1.07301,1.07341,1.07365,1.07381,1.07393,1.07402,1.07408,1.07414
1.15986,2.30773,3.43877,4.55333,5.65178,6.73446,7.8017,8.85384,9.89119,10.9141
1.05675,4.10566,8.8554,14.933,21.941,29.504,37.2999,45.0731,52.6355,59.8596
1.0949,8.05525,23.1713,43.7122,64.9306,83.6007,98.6952,110.451,119.512,126.524
0.925932,12.2466,39.7732,68.2728,88.131,100.666,108.77,114.305,118.298,121.314
0.923081,20.4517,61.8407,88.9337,102.89,110.927,116.177,119.923,122.758,124.992
1.03733,33.5719,80.9349,102.471,113.641,120.764,125.83,129.66,132.673,135.111
1.22956,51.3732,100.69,121.065,132.793,140.737,146.543,150.987,154.503,157.354
0.986229,47.2526,79.446,93.2576,101.659,107.428,111.651,114.878,117.425,119.486
0.982172,54.9575,89.1454,106.411,117.647,125.612,131.56,136.173,139.855,142.861
0.952052,55.8161,84.9862,99.9125,109.38,115.929,120.727,124.392,127.281,129.618
0.959257,57.2909,84.4231,98.8262,108.013,114.395,119.089,122.687,125.534,127.842
1.08995,66.3993,96.9255,113.747,124.581,132.15,137.738,142.033,145.438,148.203
0.94788,58.5566,84.9075,99.5687,108.979,115.529,120.351,124.048,126.973,129.344
0.946323,60.3643,88.1896,104.056,114.353,121.577,126.924,131.042,134.311,136.969
0.933195,60.7299,88.7438,104.737,115.09,122.337,127.692,131.81,135.076,137.728
0.927294,59.6585,85.9832,100.7,110.102,116.628,121.422,125.093,127.994,130.344
1.06808,69.5313,100.322,117.664,128.803,136.565,142.284,146.674,150.149,152.97
0.903718,57.9322,82.6397,96.3204,105.013,111.025,115.43,118.797,121.453,123.603
0.748035,46.6688,66.2311,77.1413,84.122,88.977,92.5506,95.2914,97.4606,99.2201
0.885669,57.4762,83.5103,98.6205,108.502,115.469,120.645,124.641,127.82,130.409
0.913494,60.2019,87.2452,102.57,112.397,119.224,124.24,128.078,131.11,133.566
1.02814,69.2281,100.641,118.507,130.022,138.063,143.996,148.555,152.167,155.101
0.771051,52.7491,76.4641,89.8236,98.3839,104.336,108.713,112.068,114.721,116.871
0.822055,64.3121,97.2928,116.834,129.708,138.818,145.602,150.847,155.024,158.428
0.863864,63.0946,89.8174,104.022,112.801,118.759,123.067,126.327,128.879,130.932
0.877918,62.7398,89.1621,103.811,113.199,119.751,124.59,128.312,131.266,133.668
0.975811,69.7532,99.7811,116.753,127.701,135.352,140.999,145.338,148.776,151.566
0.81533,62.5325,90.9191,106.938,117.174,124.262,129.455,133.42,136.547,139.075
0.821032,60.4157,85.9902,100.089,109.03,115.212,119.742,123.207,125.943,128.159
0.809233,59.1376,84.5133,98.8157,108.026,114.46,119.211,122.863,125.759,128.111
0.808007,59.7069,86.2557,101.51,111.423,118.383,123.538,127.509,130.662,133.225
0.822336,62.4019,90.3874,106.22,116.363,123.406,128.577,132.534,135.659,138.188
0.945714,71.0911,102.04,119.318,130.338,137.979,143.591,147.888,151.284,154.035
0.790652,61.1844,88.8964,104.752,115.03,122.237,127.571,131.68,134.941,137.593
0.790472,60.978,88.1288,103.496,113.379,120.269,125.345,129.24,132.323,134.824
0.768271,60.7414,87.8556,103.076,112.801,119.547,124.499,128.289,131.281,133.705
0.757309,59.1007,85.0627,99.7083,109.133,115.713,120.57,124.303,127.262,129.665
0.684838,66.1679,103.404,126.658,142.463,153.876,162.495,169.229,174.634,179.067
0.699966,63.3727,91.6823,106.822,116.163,122.485,127.044,130.486,133.176,135.336
0.770346,62.4817,86.7259,99.5729,107.606,113.126,117.16,120.241,122.673,124.64
0.798056,62.5204,87.8436,102.111,111.357,117.85,122.664,126.377,129.328,131.73
0.763046,59.1526,83.9892,98.1345,107.276,113.664,118.377,121.995,124.859,127.183
0.835914,65.4127,93.9358,110.279,120.848,128.235,133.687,137.876,141.194,143.888
0.703963,55.1113,79.0806,92.6101,101.272,107.286,111.705,115.088,117.762,119.927
0.729144,59.3086,86.2167,101.598,111.53,118.47,123.593,127.53,130.649,133.182
0.712412,58.9477,85.7288,100.954,110.759,117.598,122.64,126.511,129.576,132.064
0.714602,59.8387,86.8796,102.194,112.044,118.912,123.974,127.861,130.938,133.435
0.853208,71.8314,103.903,121.974,133.571,141.645,147.59,152.15,155.759,158.686
0.689419,58.3643,84.0575,98.4256,107.603,113.971,118.649,122.231,125.061,127.354
0.697187,58.9187,84.9446,99.6882,109.201,115.853,120.767,124.546,127.544,129.98
0.699702,59.8979,86.705,101.958,111.803,118.681,123.757,127.656,130.746,133.254
0.686272,59.1932,85.7208,100.793,110.507,117.289,122.291,126.132,129.175,131.645
0.72711,62.3111,89.9829,105.691,115.822,122.9,128.125,132.141,135.323,137.908
0.593172,54.8525,80.4559,94.979,104.284,110.743,115.483,119.109,121.97,124.287
0.689058,61.8759,88.8489,103.783,113.276,119.849,124.672,128.364,131.28,133.643
0.666628,57.041,80.5758,93.5162,101.734,107.423,111.597,114.791,117.314,119.358
0.720519,63.5214,91.8147,108.135,118.79,126.297,131.873,136.178,139.603,142.392
0.813097,72.0335,104.122,122.391,134.162,142.368,148.412,153.047,156.715,159.688
0.671482,59.6589,86.4069,101.689,111.574,118.492,123.605,127.538,130.658,133.193
0.662123,59.5166,86.2226,101.375,111.121,117.914,122.917,126.756,129.794,132.258
0.64438,56.3793,80.5247,93.9458,102.489,108.407,112.748,116.069,118.692,120.816
0.679689,60.5032,87.5625,103.084,113.172,120.261,125.516,129.569,132.789,135.41
0.764884,69.1341,100.406,118.278,129.827,137.898,143.854,148.429,152.052,154.993
0.656834,60.168,87.2112,102.489,112.287,119.101,124.112,127.953,130.99,133.452
0.642284,59.2123,85.8668,101.016,110.794,117.63,122.681,126.564,129.644,132.146
0.648287,60.1235,86.9685,102.129,111.867,118.648,123.642,127.473,130.504,132.962
0.652827,61.845,90.0297,106.137,116.563,123.865,129.264,133.418,136.713,139.392
0.637606,60.6028,87.9545,103.494,113.513,120.508,125.669,129.634,132.774,135.324
0.7675,70.7266,100.995,117.8,128.494,135.899,141.331,145.485,148.766,151.422
0.632226,59.4276,86.0652,101.35,111.287,118.271,123.45,127.443,130.617,133.2
0.637732,57.9271,82.2667,95.6718,104.145,109.98,114.24,117.488,120.044,122.109
0.65704,61.2848,88.8372,104.746,115.134,122.457,127.901,132.108,135.456,138.186
0.636731,60.7255,88.3867,104.209,114.425,121.557,126.814,130.849,134.043,136.633
0.697764,67.5401,98.1989,115.594,126.78,134.575,140.318,144.724,148.212,151.042
0.623064,61.1542,88.6655,104.153,114.074,120.972,126.046,129.935,133.01,135.503
0.606929,60.2921,87.5654,103.056,113.055,120.045,125.21,129.181,132.33,134.889
0.633167,62.7527,90.7017,106.481,116.624,123.693,128.902,132.899,136.064,138.631
0.613264,61.4763,89.0374,104.666,114.736,121.766,126.951,130.934,134.089,136.65
0.71381,72.5209,105.377,124.116,136.23,144.704,150.966,155.78,159.598,162.699
0.612998,62.6698,90.8692,106.856,117.147,124.323,129.613,133.674,136.889,139.497
0.615324,63.9535,93.2867,110.137,121.082,128.766,134.458,138.844,142.327,145.16
0.596058,62.0708,89.933,105.659,115.747,122.764,127.926,131.882,135.01,137.546
0.608616,63.3825,91.5887,107.516,117.757,124.897,130.162,134.204,137.406,140.004
0.697413,73.1015,105.691,124.139,136.014,144.299,150.409,155.1,158.815,161.83
0.594191,62.5706,90.4089,106.15,116.273,123.329,128.529,132.52,135.68,138.243
0.597528,63.0576,91.2161,107.227,117.564,124.792,130.13,134.234,137.488,140.131
0.589557,62.952,91.3523,107.547,118.009,125.324,130.725,134.877,138.167,140.839
0.586942,63.051,91.3602,107.413,117.744,124.949,130.259,134.335,137.563,140.181
0.683715,74.3923,107.938,126.977,139.241,147.8,154.113,158.961,162.801,165.918
0.586356,63.9845,92.7967,109.192,119.78,127.184,132.654,136.86,140.194,142.903
0.580586,63.9155,92.7668,109.184,119.78,127.183,132.647,136.845,140.172,142.874
0.577387,62.4883,89.8245,105.167,114.991,121.82,126.844,130.695,133.74,136.209
0.559416,60.953,88.091,103.545,113.537,120.531,125.701,129.678,132.833,135.398
0.638783,70.0277,101.278,119.016,130.441,138.411,144.287,148.796,152.367,155.264
0.555301,61.5175,89.3021,105.17,115.434,122.617,127.925,132.008,135.246,137.877
0.564355,62.3744,90.1252,105.806,115.878,122.893,128.058,132.019,135.154,137.696
0.547212,61.1222,88.6523,104.342,114.483,121.578,126.82,130.852,134.049,136.647
0.5506,62.3339,90.5029,106.507,116.817,124.01,129.313,133.385,136.609,139.225
0.5475,61.1684,88.0494,103.146,112.817,119.542,124.491,128.284,131.285,133.719
