0.599152,0.705508,0.749878,0.774225,0.789606,0.800205,0.807951,0.81386,0.818515,0.822279
0.368819,0.59258,0.717156,0.795639,0.849464,0.888633,0.918401,0.941783,0.960632,0.976149
0.29369,0.617803,0.810713,0.930677,1.01103,1.06821,1.11082,1.14375,1.16992,1.19121
0.233509,0.618997,0.85125,0.991457,1.08335,1.14781,1.19541,1.23197,1.26091,1.28438
0.202392,0.670661,0.958964,1.13176,1.24488,1.32437,1.38322,1.42852,1.46446,1.49366
0.180006,0.711861,1.02698,1.20918,1.32625,1.40761,1.46739,1.51315,1.54931,1.5786
0.170505,0.789951,1.14827,1.35392,1.4864,1.57884,1.64701,1.69936,1.74083,1.7745
0.142528,0.544415,0.684259,0.747905,0.784155,0.807557,0.823914,0.83599,0.845271,0.852627
0.135399,0.682113,0.986311,1.18006,1.3168,1.41907,1.49863,1.56237,1.61462,1.65823
0.131827,0.823244,1.2448,1.50428,1.67682,1.79864,1.88875,1.9579,2.01252,2.05671
0.125019,0.882376,1.31105,1.55445,1.70881,1.81498,1.8924,1.95133,1.9977,2.03514
0.121013,0.950347,1.40029,1.65295,1.81426,1.92632,2.00878,2.07203,2.12211,2.16275
0.116638,1.00036,1.46258,1.72134,1.88697,2.00222,2.08707,2.15218,2.20371,2.24551
0.113588,1.05158,1.53188,1.80247,1.97657,2.0981,2.18777,2.25666,2.31126,2.35559
0.111585,1.11971,1.63307,1.92367,2.11089,2.24157,2.33796,2.41198,2.47061,2.51819
0.109266,1.17914,1.72188,2.03073,2.23026,2.3698,2.47288,2.55213,2.61497,2.66601
0.108357,1.24906,1.82283,2.14908,2.35961,2.50671,2.61529,2.69872,2.76484,2.81852
0.105685,1.2409,1.78173,2.08413,2.27765,2.4122,2.5112,2.58709,2.64714,2.69583
0.104253,1.31156,1.90274,2.23971,2.45764,2.61016,2.72287,2.80957,2.87832,2.93418
0.104248,1.44703,2.14573,2.55558,2.82473,3.01493,3.15643,3.2658,3.35287,3.42382
0.211507,3.05023,4.4524,5.24419,5.75133,6.1036,6.36243,6.56062,6.71722,6.84407
0.102162,1.55086,2.26503,2.67189,2.93496,3.11916,3.25538,3.36024,3.44346,3.51112
0.114831,1.81278,2.64,3.11111,3.41568,3.62881,3.78632,3.90747,4.00356,4.08162
0.0988225,1.65332,2.42774,2.87563,3.16776,3.37336,3.52593,3.64364,3.73721,3.81338
0.0993174,1.7256,2.52061,2.97422,3.26718,3.47191,3.62302,3.73912,3.83111,3.90579
0.098291,1.77483,2.59081,3.05745,3.35969,3.57145,3.72809,3.84867,3.94436,4.02215
0.1072,1.98713,2.8821,3.38881,3.71493,3.9424,4.11009,4.23883,4.34078,4.42351
0.0962706,1.81255,2.61173,3.06219,3.35166,3.55344,3.70216,3.81632,3.90673,3.9801
0.0955729,1.78878,2.55098,2.97756,3.25076,3.44081,3.58068,3.68795,3.77282,3.84165
0.0948887,1.8728,2.73459,3.24052,3.57415,3.81083,3.9875,4.12443,4.23368,4.32287
0.0967954,1.96562,2.89053,3.43716,3.79801,4.05393,4.24481,4.39263,4.51048,4.60663
0.0934613,1.93914,2.82797,3.33757,3.66676,3.89662,4.06613,4.19626,4.2993,4.38289
0.092634,1.98417,2.89067,3.40847,3.74305,3.97703,4.14988,4.2828,4.3882,4.47383
0.101562,2.16002,3.09324,3.61297,3.94421,4.17381,4.34235,4.47134,4.57324,4.65578
0.0909662,2.02154,2.94462,3.4801,3.83076,4.07844,4.26279,4.40536,4.51892,4.61152
0.0905594,2.10292,3.08482,3.65472,4.02634,4.2876,4.4812,4.63038,4.74883,4.84514
0.0897995,2.1999,3.25048,3.8615,4.26017,4.54061,4.74857,4.90893,5.03634,5.14
0.0909603,2.31575,3.40667,4.03132,4.43506,4.71731,4.92571,5.08588,5.21282,5.3159
0.0907688,2.4309,3.59116,4.26031,4.69554,5.00133,5.22797,5.40269,5.54151,5.65446
0.0897453,2.39843,3.47346,4.07525,4.46001,4.72724,4.92368,5.07416,5.19314,5.28956
0.0903774,2.43067,3.51763,4.13758,4.53992,4.8225,5.03199,5.19354,5.32195,5.42646
0.0895711,2.48405,3.63341,4.3031,4.74232,5.05262,5.28348,5.46193,5.604,5.71977
0.0883957,2.51671,3.68491,4.36057,4.80026,5.10898,5.33757,5.51361,5.65333,5.76692
0.089383,2.5825,3.75993,4.4321,4.86627,5.16975,5.39381,5.56603,5.70252,5.81337
0.157375,4.70892,6.89124,8.14735,8.9635,9.53644,9.96081,10.2878,10.5475,10.7587
0.0876013,2.64063,3.84458,4.53437,4.98172,5.29543,5.52763,5.70645,5.8484,5.96381
0.087338,2.69524,3.94032,4.66031,5.12988,5.46037,5.70562,5.89485,6.04527,6.16773
0.0863102,2.70862,3.94968,4.66148,5.12274,5.44582,5.6847,5.86847,6.01423,6.13266
0.0859264,2.8011,4.12255,4.89229,5.39619,5.7517,6.01599,6.22017,6.38267,6.51506
0.0855854,2.87088,4.2104,4.97792,5.4742,5.82115,6.07727,6.27406,6.42998,6.55655
0.0860614,2.39713,3.21958,3.6324,3.88063,4.04639,4.16495,4.25398,4.32328,4.37876
0.0864178,2.6659,3.88387,4.62811,5.13649,5.50729,5.79018,6.01329,6.19383,6.34297
0.0856129,2.80544,4.15424,4.95704,5.48519,5.85732,6.13297,6.34506,6.51314,6.64954
0.085078,2.9377,4.36858,5.20493,5.74966,6.13194,6.41488,6.63272,6.80562,6.94619
0.0841055,3.0597,4.55606,5.42316,5.9868,6.38241,6.6754,6.90112,7.08037,7.22617
0.144966,5.50731,8.16077,9.67787,10.6578,11.3429,11.8489,12.2378,12.5462,12.7966
0.0847907,3.24108,4.76094,5.63284,6.20014,6.5993,6.8956,7.12434,7.30629,7.45449
0.0838973,3.23153,4.72208,5.57642,6.13146,6.5212,6.80993,7.03242,7.20912,7.35283
0.084058,3.29983,4.83854,5.7306,6.31383,6.72505,7.0306,7.26658,7.45432,7.60725
0.0841212,3.39495,4.99784,5.92977,6.53888,6.96799,7.28656,7.53239,7.72784,7.88694
0.0825964,3.41948,5.03271,5.96544,6.57253,6.99899,7.31496,7.55843,7.75179,7.90905
0.144513,5.94497,8.60593,10.0999,11.0556,11.7194,12.2073,12.581,12.8764,13.1159
0.0868777,3.72525,5.47879,6.5004,7.17077,7.6449,7.99811,8.27148,8.48937,8.66711
0.113144,4.99449,7.34481,8.69963,9.57934,10.196,10.6521,11.003,11.2814,11.5074
0.0820056,3.66287,5.35768,6.32735,6.95516,7.39486,7.72001,7.97023,8.16877,8.33014
0.0858103,3.89934,5.71466,6.76301,7.44655,7.92772,8.28488,8.56052,8.7797,8.95817
0.134402,6.26288,9.17687,10.8487,11.9319,12.6904,13.251,13.6822,14.0242,14.3019
0.0825525,3.85179,5.616,6.62708,7.28324,7.74369,8.08472,8.34749,8.55619,8.72595
0.0816296,3.86737,5.6532,6.68369,7.35495,7.82703,8.17713,8.44713,8.66169,8.83629
0.0826899,3.9363,5.72957,6.75556,7.41979,7.88482,8.22855,8.49294,8.70262,8.87296
0.12041,5.75454,8.37561,9.88316,10.8635,11.5523,12.0629,12.4565,12.7692,13.0237
0.082945,3.9784,5.78987,6.8331,7.51164,7.98831,8.34152,8.61373,8.82994,9.00582
0.0816777,3.97289,5.79795,6.85129,7.5367,8.0182,8.37497,8.64991,8.86826,9.04586
0.0820289,4.1481,6.10968,7.24962,7.99351,8.5169,8.90509,9.20445,9.44231,9.63585
0.0807279,4.16933,6.12464,7.24878,7.97756,8.48815,8.86573,9.15627,9.38676,9.57406
0.116517,6.14595,9.02366,10.6784,11.7529,12.5071,13.0656,13.4959,13.8376,14.1156
0.0824567,4.31631,6.28341,7.40758,8.13612,8.64691,9.02498,9.31613,9.54727,9.73523
0.0813359,4.31752,6.31591,7.47368,8.23022,8.76349,9.15967,9.46561,9.70899,9.90722
0.0812736,4.36648,6.38897,7.55711,8.31754,8.8518,9.24767,9.55271,9.79496,9.99198
0.0810991,4.16339,5.93047,6.90679,7.52575,7.95311,8.2659,8.50474,8.69308,8.84541
0.124381,6.73457,9.88578,11.7394,12.9637,13.8337,14.484,14.9887,15.3917,15.7211
0.0817797,4.50869,6.6145,7.83295,8.6252,9.18087,9.59189,9.90812,10.1589,10.3626
0.0802656,4.26643,6.11582,7.14694,7.80403,8.25936,8.59352,8.84922,9.0512,9.21479
0.080325,4.48247,6.58944,7.8262,8.64146,9.21985,9.65167,9.98644,10.2536,10.4718
0.106254,6.12063,9.03056,10.7222,11.8251,12.6,13.174,13.6161,13.967,14.2523
0.0877406,5.00686,7.30879,8.6283,9.48372,10.0835,10.5273,10.8692,11.1405,11.3612
0.0805517,4.62981,6.7681,8.00403,8.81029,9.37803,9.79953,10.1249,10.3836,10.5943
0.0801585,4.75136,6.98869,8.28552,9.13086,9.7252,10.1658,10.5053,10.775,10.9944
0.108708,6.60065,9.67872,11.4368,12.5714,13.3636,13.948,14.3967,14.7522,15.0407
0.0804822,4.82724,7.0349,8.30349,9.12939,9.71062,10.1421,10.4753,10.7403,10.9562
0.0806456,4.8658,7.09158,8.37184,9.20413,9.78855,10.2214,10.5549,10.8197,11.035
0.0795234,4.91056,7.19386,8.51306,9.37179,9.97512,10.4222,10.7667,11.0402,11.2628
0.1053,6.72432,9.89928,11.7333,12.9256,13.7624,14.3818,14.8589,15.2375,15.5454
0.0840915,5.30745,7.73092,9.11539,10.0118,10.6399,11.1045,11.4623,11.7462,11.9771
0.0802612,5.07956,7.41243,8.76046,9.64028,10.2601,10.7205,11.0759,11.3586,11.5889
0.0796146,5.17355,7.60346,9.01571,9.93822,10.5878,11.0698,11.4416,11.7371,11.9776
0.103073,6.76083,9.87347,11.6495,12.7953,13.5954,14.1856,14.6388,14.9977,15.2891
0.0799015,5.09566,7.3582,8.64407,9.47543,10.0577,10.4884,10.8201,11.0834,11.2974
0.0810104,5.2511,7.66906,9.07678,9.99962,10.6515,11.1366,11.5116,11.8101,12.0535
0.0801876,5.0695,7.28341,8.5271,9.32234,9.87417,10.2793,10.5894,10.8343,11.0325
