0.655346,0.722108,0.747492,0.760864,0.76912,0.774724,0.778778,0.781846,0.784248,0.786181
0.636845,1.13738,1.48943,1.74913,1.94836,2.10596,2.23372,2.33938,2.4282,2.50391
0.419975,1.03705,1.47652,1.77035,1.97278,2.11818,2.22669,2.31031,2.37652,2.43012
0.323814,1.04876,1.55638,1.8746,2.08512,2.23319,2.34265,2.42676,2.49338,2.54746
0.289024,1.14018,1.6891,2.01067,2.21731,2.36082,2.46627,2.54704,2.61089,2.66265
0.521968,2.45101,3.64505,4.3395,4.79028,5.10676,5.34135,5.52228,5.66611,5.7832
0.237771,1.29601,1.92512,2.28785,2.52312,2.68813,2.81029,2.90438,2.97907,3.03981
0.288697,1.75891,2.58579,3.05646,3.36034,3.57289,3.72994,3.85073,3.94652,4.02435
0.330577,2.14899,3.1012,3.63612,3.9799,4.21975,4.39669,4.53264,4.64036,4.72784
0.197509,1.44794,2.13304,2.53483,2.7997,2.98756,3.12775,3.23639,3.32304,3.39377
1.57948,12.6348,18.5441,21.9468,24.1541,25.7001,26.8426,27.7211,28.4175,28.983
0.18245,1.55546,2.2632,2.66604,2.9261,3.10789,3.24214,3.34537,3.42721,3.49369
0.350976,3.25603,4.77874,5.66228,6.23995,6.64732,6.95009,7.18397,7.37009,7.52172
0.199123,1.99036,2.92578,3.46735,3.82029,4.06843,4.25238,4.39418,4.50682,4.59845
0.160566,1.68963,2.46464,2.90767,3.19432,3.39497,3.54326,3.65733,3.74781,3.82132
0.155452,1.74127,2.551,3.01985,3.32602,3.54175,3.702,3.82574,3.92418,4.00435
0.15187,1.78257,2.59966,3.06852,3.37261,3.58577,3.74347,3.86484,3.96114,4.03941
0.161559,1.59335,2.11307,2.37142,2.52601,2.62892,2.70235,2.75739,2.80018,2.83439
0.144177,1.6714,2.44694,2.93016,3.26441,3.51035,3.69921,3.84892,3.97055,4.07137
0.137374,1.78453,2.6709,3.20464,3.55699,3.80546,3.98947,4.13097,4.24303,4.33391
0.135745,1.85631,2.73695,3.24106,3.56485,3.78997,3.95549,4.08233,4.18262,4.26393
1.12111,16.392,24.228,28.7463,31.683,33.7466,35.2769,36.4574,37.3959,38.16
0.13066,2.00493,2.94929,3.49094,3.8423,4.08876,4.27123,4.41176,4.52333,4.61406
0.143305,2.32501,3.4311,4.07171,4.49005,4.7848,5.00371,5.17272,5.30716,5.41664
0.124831,2.12431,3.12878,3.70782,4.08442,4.3489,4.54483,4.69579,4.81566,4.91314
0.139082,2.47292,3.63569,4.30487,4.73982,5.04522,5.27146,5.44579,5.58424,5.69685
0.123353,2.23173,3.24199,3.8142,4.18274,4.43999,4.62974,4.7755,4.89097,4.98471
0.11985,2.25116,3.29829,3.90809,4.30843,4.59169,4.80275,4.96614,5.09638,5.20263
0.118514,2.31069,3.39388,4.02399,4.43594,4.72617,4.94161,5.10784,5.23998,5.34753
0.130921,2.60183,3.79821,4.48647,4.93344,5.24703,5.47919,5.65799,5.79993,5.91535
0.172008,3.5073,5.12531,6.06156,6.67244,7.10259,7.42192,7.6684,7.86441,8.02402
0.114918,2.45553,3.61642,4.29364,4.73703,5.04977,5.28214,5.46158,5.60432,5.72057
0.113856,2.47068,3.59956,4.24306,4.65825,4.94821,5.16213,5.32644,5.45661,5.56226
0.125372,2.78109,4.06753,4.81507,5.30487,5.65096,5.90862,6.10795,6.26677,6.3963
0.116319,2.64988,3.88591,4.60598,5.07744,5.41002,5.65717,5.84804,5.99987,6.12353
0.121774,2.87871,4.23645,5.02689,5.54346,5.9073,6.17736,6.38574,6.55139,6.68623
0.10807,2.63621,3.87073,4.58243,5.04466,5.36891,5.60889,5.79368,5.94034,6.05957
0.109972,2.67547,3.86455,4.53308,4.96142,5.25934,5.47856,5.64664,5.77961,5.88743
0.166014,4.08312,5.94231,7.02444,7.73569,8.23963,8.61562,8.907,9.13948,9.3293
0.114293,2.53661,3.5621,4.13561,4.50345,4.75966,4.9484,5.09324,5.2079,5.30092
0.127877,2.88074,4.14949,4.89943,5.39658,5.75058,6.01554,6.22133,6.38577,6.52021
0.112102,2.81353,4.22548,5.08729,5.66431,6.07651,6.38527,6.62501,6.81646,6.97285
0.111461,2.97932,4.47996,5.36694,5.9476,6.35624,6.65918,6.89264,7.07804,7.22882
0.111962,3.19247,4.79462,5.72635,6.33258,6.75826,7.07361,7.3166,7.50959,7.66659
0.173716,5.17946,7.71928,9.17907,10.126,10.7904,11.2823,11.6613,11.9622,12.207
0.111365,3.28482,4.79286,5.64604,6.19677,6.58221,6.86723,7.08661,7.26071,7.40225
0.108667,3.27131,4.79428,5.67723,6.25604,6.66521,6.96989,7.20561,7.39341,7.54656
0.107802,3.23395,4.67531,5.48927,6.01218,6.37625,6.6442,6.84962,7.01209,7.14379
0.0976002,3.09749,4.56733,5.42805,5.99391,6.39437,6.69276,6.92371,7.10777,7.25792
0.104924,3.27543,4.75325,5.59693,6.14264,6.52451,6.80667,7.02367,7.19573,7.33551
0.105169,3.31552,4.82723,5.70207,6.27347,6.6762,6.97541,7.2065,7.39036,7.54015
0.104893,3.34234,4.8552,5.72253,6.28437,6.67776,6.9685,7.19209,7.36938,7.51338
0.129087,4.3902,6.51673,7.77243,8.60035,9.18707,9.62455,9.96329,10.2333,10.4536
0.169005,5.96525,8.81754,10.4613,11.526,12.2709,12.8209,13.2436,13.5785,13.8504
0.102624,3.60131,5.26321,6.21628,6.83549,7.27061,7.59329,7.84223,8.04014,8.20128
0.0952187,3.36956,4.9256,5.82642,6.41522,6.83044,7.13904,7.37743,7.56712,7.72166
0.105224,3.84971,5.67293,6.73851,7.43732,7.93074,8.29763,8.5811,8.80668,8.99044
0.0931379,3.59263,5.34377,6.37008,7.04265,7.51704,7.86946,8.14153,8.35791,8.53409
0.250296,9.96558,14.7379,17.4833,19.2622,20.5079,21.4287,22.137,22.6987,23.1551
0.101731,4.00046,5.83077,6.87385,7.54925,8.02279,8.37339,8.6435,8.85803,9.03254
0.100097,3.88734,5.62691,6.62014,7.26448,7.71666,8.05159,8.30966,8.51462,8.68133
0.0912035,3.674,5.40834,6.42931,7.10292,7.58072,7.93724,8.21345,8.43373,8.6135
0.0973345,4.0622,6.00453,7.13821,7.87906,8.40046,8.78711,9.08519,9.32195,9.51454
0.101276,4.1902,6.0749,7.13409,7.81123,8.28122,8.62648,8.89084,9.09975,9.26901
0.142844,6.04827,8.87727,10.5305,11.6187,12.3905,12.9667,13.4136,13.7702,14.0616
0.0963209,4.04547,5.87982,6.93037,7.61087,8.08735,8.43949,8.71028,8.92497,9.09933
0.0955547,4.05505,5.90549,6.97148,7.66495,8.15221,8.51335,8.79175,9.01293,9.19289
0.0957527,4.21956,6.22626,7.4043,8.1789,8.72692,9.13506,9.45079,9.70231,9.90739
0.155755,7.01446,10.3163,12.2217,13.4585,14.3255,14.9666,15.4599,15.8511,16.169
0.0898009,4.03747,5.90036,6.97235,7.6696,8.15969,8.52313,8.80346,9.02628,9.20766
0.0935653,3.34428,4.44912,5.00263,5.33554,5.55791,5.71698,5.83642,5.92939,6.00383
0.0943446,3.88783,5.74819,6.92397,7.74434,8.35155,8.81985,9.19228,9.49567,9.74765
0.093213,4.23432,6.42153,7.75666,8.64418,9.27259,9.73925,10.0988,10.3839,10.6153
0.142377,6.8,10.2022,12.1708,13.4398,14.3236,14.974,15.4726,15.8671,16.1869
0.096499,4.66015,6.88408,8.15125,8.96953,9.54237,9.96617,10.2926,10.5518,10.7627
0.087592,4.19173,6.11424,7.20747,7.9154,8.41197,8.77975,9.06316,9.28828,9.47142
0.0915489,4.48412,6.59104,7.81671,8.62076,9.18917,9.61235,9.93966,10.2004,10.4129
0.0862549,4.41195,6.53879,7.78067,8.59367,9.16674,9.59223,9.92056,10.1816,10.394
0.0886263,1.30217,1.42692,1.47383,1.49845,1.51362,1.5239,1.53134,1.53696,1.54137
0.103738,2.30903,3.37629,4.21642,4.91067,5.4972,6.00028,6.43691,6.81961,7.15789
0.11323,3.37438,5.52867,7.10644,8.24914,9.09045,9.72506,10.2157,10.6036,10.9166
0.140584,4.7366,7.49444,9.13229,10.1609,10.8555,11.3536,11.7276,12.0187,12.2518
0.181437,6.68996,10.3207,12.3687,13.6644,14.5603,15.2185,15.7234,16.1236,16.4487
0.0906268,3.09299,4.44668,5.16541,5.61459,5.9236,6.14972,6.32253,6.45895,6.56943
0.101864,4.39135,6.95943,8.58802,9.72073,10.5556,11.1967,11.7045,12.1166,12.4576
0.0795483,3.44616,5.15796,6.11125,6.71416,7.12833,7.42981,7.65884,7.83862,7.98344
0.125578,6.38214,9.95697,12.0982,13.5243,14.543,15.3076,15.9028,16.3795,16.77
0.169786,8.5079,12.5095,14.6703,16.0197,16.9417,17.6115,18.1199,18.519,18.8405
0.0843844,4.58915,6.91824,8.28407,9.18984,9.83657,10.3222,10.7004,11.0036,11.252
0.0834407,4.8181,7.26667,8.69284,9.62657,10.2847,10.7733,11.1501,11.4495,11.6931
0.0794586,4.83846,7.26352,8.65935,9.5656,10.2011,10.6713,11.0332,11.3204,11.5539
0.146561,9.3488,13.9716,16.6218,18.3408,19.5463,20.4387,21.1261,21.6717,22.1154
0.0951715,5.24759,7.38626,8.55379,9.29592,9.81082,10.1895,10.4798,10.7095,10.8959
0.0815116,2.87717,3.55119,3.85964,4.03748,4.15329,4.23472,4.2951,4.34166,4.37866
0.0810284,3.79324,5.6936,7.01908,8.01415,8.79239,9.41888,9.9345,10.3665,10.7338
0.0773049,4.33348,6.83774,8.45851,9.55795,10.3403,10.9205,11.3657,11.717,12.0007
0.0817913,4.97564,7.63246,9.15238,10.1105,10.7653,11.2403,11.6005,11.8831,12.1108
0.0829315,5.20254,7.81339,9.29046,10.2401,10.9043,11.3961,11.7753,12.0769,12.3226
0.206808,13.2554,19.7021,23.3812,25.7728,27.4562,28.7065,29.6721,30.4403,31.0662
0.204971,13.9258,20.8677,24.9057,27.5534,29.4239,30.8154,31.891,32.7472,33.4448
