0.770485,0.838364,0.863729,0.876996,0.885153,0.890677,0.894664,0.897678,0.900037,0.901932
0.558766,0.980351,1.27213,1.48514,1.64733,1.7749,1.87785,1.96267,2.03377,2.09422
0.48345,1.20112,1.7215,2.07358,2.31792,2.49425,2.62626,2.72822,2.80906,2.87458
0.392645,1.21917,1.75211,2.06604,2.26508,2.40097,2.49926,2.57353,2.63161,2.67826
0.347336,1.31062,1.902,2.24298,2.46136,2.61308,2.72473,2.81039,2.87822,2.9333
0.31376,1.4131,2.06776,2.44249,2.68335,2.85121,2.97492,3.06988,3.14507,3.20609
0.226485,0.612899,0.703012,0.738717,0.757802,0.769682,0.77779,0.783677,0.788145,0.791652
2.12702,8.88287,13.0024,16.0024,18.3437,20.2348,21.7982,23.1137,24.2366,25.2067
0.208107,1.18759,1.88484,2.35414,2.67775,2.90915,3.08063,3.21176,3.31475,3.39749
0.206491,1.46346,2.30688,2.80425,3.11879,3.33304,3.48778,3.60467,3.69606,3.76949
0.193045,1.58031,2.40844,2.86135,3.14263,3.33444,3.47386,3.5799,3.66334,3.73074
0.182743,1.64816,2.44219,2.87103,3.14061,3.32655,3.4628,3.56704,3.64938,3.7161
0.178068,1.73002,2.51937,2.9487,3.22085,3.4093,3.54763,3.65353,3.73721,3.805
0.280821,2.93623,4.26065,4.99504,5.46516,5.79236,6.03329,6.21811,6.36438,6.48303
0.170475,1.89162,2.72382,3.183,3.47488,3.67682,3.82482,3.93792,4.02717,4.09938
0.165589,1.96287,2.84214,3.33827,3.658,3.88136,4.04626,4.17301,4.27349,4.3551
0.162539,2.04376,2.95717,3.47066,3.79977,4.02858,4.19684,4.32576,4.42768,4.51028
0.157737,2.11748,3.08126,3.62899,3.98242,4.22938,4.41168,4.55179,4.66284,4.75302
0.156113,2.21158,3.21043,3.77337,4.13432,4.38537,4.57004,4.71158,4.82351,4.91423
0.152305,2.25422,3.25528,3.81487,4.1722,4.42015,4.60229,4.74175,4.85196,4.94125
0.15075,2.26823,3.23915,3.77695,4.11917,4.35623,4.53019,4.6633,4.76845,4.85361
0.151072,2.34183,3.36365,3.94403,4.31957,4.58271,4.77743,4.92736,5.04639,5.14317
0.148819,2.39866,3.46051,4.06511,4.4554,4.72803,4.92918,5.08367,5.20604,5.30534
0.145062,2.41018,3.47028,4.06898,4.45324,4.72066,4.91746,5.06835,5.18771,5.28448
0.14394,2.47923,3.56876,4.1817,4.57428,4.84716,5.04784,5.20162,5.32323,5.4218
0.142461,2.56403,3.70941,4.3592,4.77779,5.06998,5.28552,5.45108,5.58225,5.68873
0.197996,3.46399,4.86257,5.61654,6.08768,6.4099,6.64414,6.8221,6.96188,7.07457
0.137349,2.5637,3.70719,4.36824,4.80095,5.1067,5.33439,5.51058,5.65101,5.76558
0.137588,2.60442,3.7267,4.35333,4.75211,5.02777,5.22953,5.38353,5.50489,5.60298
0.135818,2.71517,3.9422,4.64546,5.10139,5.42103,5.65762,5.83982,5.98447,6.10211
0.135913,2.86204,4.1746,4.92328,5.40597,5.74274,5.99099,6.18151,6.33233,6.45468
0.133645,2.85938,4.11417,4.81093,5.25343,5.55929,5.78332,5.95448,6.08952,6.19877
0.201318,4.50592,6.531,7.67755,8.41636,8.93245,9.31348,9.60638,9.83857,10.0272
0.133077,3.06336,4.43911,5.21931,5.7222,6.07336,6.33246,6.5315,6.6892,6.81721
0.130326,3.07711,4.4561,5.23822,5.74224,6.09411,6.35368,6.55306,6.71101,6.83923
0.13074,3.18035,4.6138,5.42933,5.95573,6.32359,6.59517,6.80388,6.9693,7.10362
0.127849,3.18218,4.59847,5.39636,5.90791,6.26371,6.52545,6.72607,6.88472,7.01334
0.206572,5.33879,7.75496,9.12947,10.0167,10.6368,11.0946,11.4466,11.7256,11.9522
0.125585,3.28787,4.75221,5.58039,6.11321,6.48482,6.75879,6.96913,7.13571,7.2709
0.125858,3.34189,4.82403,5.66417,6.2057,6.58392,6.86305,7.07753,7.24749,7.3855
0.134444,3.56068,5.09075,5.94497,6.49021,6.86841,7.14611,7.35868,7.52661,7.66263
0.125378,3.30539,4.71359,5.50475,6.01263,6.36651,6.6273,6.82749,6.98601,7.11466
0.125031,3.259,4.60491,5.34835,5.81981,6.14537,6.38363,6.56554,6.70896,6.82493
0.198395,5.62211,8.23243,9.76033,10.7639,11.4735,12.0019,12.4106,12.7362,13.0017
0.123697,3.58102,5.19992,6.1158,6.70232,7.10941,7.40828,7.63692,7.81746,7.9636
0.12132,3.62136,5.27019,6.20869,6.81433,7.23768,7.55037,7.79082,7.98149,8.13641
0.123064,3.77543,5.48198,6.44626,7.06552,7.49675,7.81427,8.05781,8.25051,8.40679
0.119287,3.76627,5.45668,6.40655,7.01467,7.43732,7.74811,7.98626,8.17457,8.3272
0.11899,3.89501,5.65611,6.64973,7.2878,7.73224,8.05959,8.31074,8.50953,8.67078
0.113569,3.72628,5.34371,6.23921,6.80802,7.20136,7.48958,7.70985,7.88367,8.02434
0.118255,3.76123,5.31107,6.16197,6.70148,7.07451,7.34793,7.557,7.72206,7.85569
0.118314,3.95132,5.73568,6.7733,7.45421,7.93577,8.29443,8.57196,8.79309,8.97344
0.117138,3.98014,5.77209,6.79609,7.45694,7.91808,8.25792,8.51866,8.72498,8.8923
0.116828,4.14004,6.04277,7.13029,7.83221,8.32239,8.68401,8.96176,9.18179,9.3604
0.123688,4.3067,6.14157,7.14682,7.7802,8.21571,8.53354,8.7757,8.96635,9.12033
0.117178,4.1415,5.96216,6.99768,7.66872,8.13969,8.48874,8.75788,8.97178,9.1459
0.117139,4.21577,6.08945,7.15573,7.84388,8.32452,8.67909,8.95138,9.16701,9.34199
0.116062,4.31189,6.26826,7.38643,8.10915,8.61444,8.98751,9.27424,9.50148,9.68601
0.113852,4.39434,6.40595,7.54856,8.2834,8.79531,9.17227,9.46139,9.69015,9.87567
0.276758,10.9838,15.9638,18.767,20.5621,21.8097,22.7272,23.4303,23.9862,24.4369
0.118416,4.73794,6.85802,8.05512,8.82554,9.36332,9.76017,10.0651,10.3068,10.5031
0.116686,4.7078,6.78981,7.96187,8.71422,9.23814,9.62395,9.91991,10.1541,10.3441
0.114391,4.63597,6.66358,7.80252,8.53262,9.0406,9.41446,9.70112,9.92792,10.1118
0.125389,5.24757,7.62794,8.99349,9.87994,10.5019,10.9624,11.3171,11.5988,11.8278
0.161687,6.98625,10.1692,11.9763,13.1382,13.9473,14.5429,14.9994,15.3605,15.6532
0.113581,4.85138,6.98422,8.18258,8.95095,9.48587,9.87984,10.1821,10.4214,10.6156
0.11135,4.8341,7.0028,8.24267,9.0466,9.61042,10.0278,10.3493,10.6045,10.8121
0.111991,4.90738,7.08214,8.3092,9.09628,9.6437,10.0463,10.3549,10.5988,10.7965
0.249333,10.5834,14.9538,17.3367,18.836,19.8662,20.6176,21.19,21.6406,22.0044
0.111748,4.90515,7.09309,8.35605,9.18162,9.76432,10.1979,10.5331,10.8002,11.0179
0.111886,5.06674,7.38318,8.71664,9.58131,10.1867,10.6339,10.9776,11.2499,11.471
0.118221,5.4491,7.92324,9.3304,10.2363,10.8679,11.3333,11.6904,11.9732,12.2025
0.147702,7.06034,10.2871,12.1128,13.2844,14.0997,14.6996,15.1596,15.5234,15.8183
0.111213,5.34603,7.75219,9.11381,9.99076,10.6032,11.0552,11.4026,11.678,11.9017
0.115575,5.57123,8.0483,9.44845,10.3497,10.9785,11.4424,11.7986,12.0807,12.3097
0.110356,5.46044,7.95056,9.37895,10.306,10.9563,11.4377,11.8085,12.1028,12.3421
0.109454,5.47488,7.91955,9.29457,10.1743,10.7851,11.2338,11.5772,11.8485,12.0683
0.158578,8.18506,11.8868,13.9795,15.324,16.2608,16.951,17.4805,17.8998,18.2399
0.109571,5.42602,7.72785,9.00553,9.82012,10.3853,10.8005,11.1186,11.3701,11.5739
0.109983,5.48788,7.89214,9.26451,10.1547,10.7792,11.2418,11.5982,11.8812,12.1114
0.110695,5.67563,8.22544,9.68206,10.6228,11.2797,11.7643,12.1363,12.4309,12.6698
0.113565,5.9119,8.5379,10.0139,10.9572,11.6115,12.0919,12.4595,12.7499,12.9851
0.147848,7.75978,11.1937,13.1293,14.3721,15.238,15.876,16.3658,16.7537,17.0684
0.109516,5.531,7.84644,9.12788,9.9429,10.5073,10.9213,11.238,11.4882,11.6907
0.113677,5.94453,8.6196,10.1675,11.1791,11.8924,12.4225,12.832,13.1579,13.4233
0.108268,5.89914,8.64099,10.2249,11.2531,11.9734,12.5057,12.915,13.2393,13.5027
0.108068,5.99876,8.71839,10.2477,11.224,11.9007,12.3972,12.7769,13.0767,13.3194
0.151785,8.66873,12.5938,14.7992,16.2107,17.1919,17.9136,18.4669,18.9045,19.2594
0.109006,6.24653,9.04866,10.6348,11.6578,12.373,12.9014,13.3078,13.6301,13.892
0.107951,6.08734,8.74611,10.2431,11.2052,11.8759,12.3703,12.7498,13.0503,13.2942
0.10902,6.22231,8.9782,10.5427,11.5518,12.2566,12.7768,13.1764,13.493,13.75
0.144689,8.53724,12.4007,14.5962,16.0096,16.9948,17.7206,18.2774,18.7181,19.0755
0.10746,6.23135,8.95931,10.4938,11.4782,12.1637,12.6687,13.0561,13.3629,13.6117
0.107784,6.37206,9.24574,10.8937,11.9637,12.7146,13.2707,13.6991,14.0393,14.316
0.106301,6.40687,9.28561,10.9131,11.957,12.6827,13.2162,13.6248,13.9478,14.2095
0.105847,6.57951,9.56749,11.258,12.3437,13.0999,13.6567,14.0838,14.4218,14.696
0.147317,9.26566,13.3863,15.6879,17.1557,18.1734,18.9204,19.492,19.9436,20.3093
0.107396,6.59676,9.44554,11.0418,12.0661,12.7801,13.3065,13.7108,14.0311,14.2911
0.108117,6.7161,9.70497,11.4169,12.5286,13.3091,13.8871,14.3324,14.6861,14.9737
0.10704,6.63669,9.52661,11.1462,12.1802,12.8968,13.4225,13.8245,14.1418,14.3986
