0.466426,0.564893,0.607653,0.631557,0.646823,0.657417,0.6652,0.671159,0.675868,0.679683
0.297922,0.490223,0.599233,0.668461,0.716155,0.750964,0.777471,0.798323,0.815152,0.829019
0.856196,1.69238,2.13792,2.39775,2.56502,2.68092,2.76569,2.83027,2.88105,2.92201
0.192657,0.511603,0.714411,0.843874,0.932464,0.996673,1.04529,1.08337,1.11399,1.13916
0.178478,0.58903,0.845219,0.999265,1.09975,1.16997,1.22165,1.26122,1.29247,1.31775
0.185775,0.736013,1.06781,1.2611,1.38576,1.4726,1.53654,1.58558,1.62439,1.65586
0.165427,0.74634,1.07087,1.25277,1.36826,1.44806,1.5065,1.55115,1.58639,1.6149
0.148685,0.758497,1.08912,1.27516,1.39433,1.47726,1.53833,1.58518,1.62228,1.65237
0.150271,0.8391,1.19526,1.39365,1.52012,1.60782,1.67222,1.72151,1.76045,1.79199
0.141164,0.893389,1.29763,1.53113,1.68341,1.7906,1.87017,1.93157,1.9804,2.02015
0.150619,1.04665,1.51788,1.78623,1.95913,2.0797,2.16853,2.23669,2.29063,2.33437
0.22306,1.71505,2.50096,2.95018,3.24046,3.44343,3.59331,3.70853,3.79986,3.87404
0.135569,1.12054,1.62066,1.90153,2.08118,2.20593,2.29761,2.36783,2.42333,2.4683
0.132174,1.18044,1.7113,2.01226,2.20626,2.34179,2.44184,2.51875,2.57971,2.62922
0.136204,1.3146,1.91093,2.24983,2.46836,2.62096,2.73354,2.82002,2.88852,2.94413
0.190282,1.8321,2.57148,2.96828,3.21565,3.38459,3.50728,3.60042,3.67354,3.73247
0.125933,1.3324,1.92814,2.27209,2.49716,2.65619,2.7746,2.86624,2.93928,2.99887
0.103898,0.433351,0.479401,0.497076,0.50641,0.512172,0.516082,0.518907,0.521043,0.522715
0.104864,0.700667,1.03491,1.29743,1.51406,1.69692,1.85366,1.98964,2.10879,2.21409
0.114954,1.07681,1.77543,2.28083,2.6425,2.90602,3.10307,3.25429,3.37313,3.46848
0.110296,1.30508,2.14484,2.6571,2.98177,3.20174,3.35962,3.47823,3.57054,3.64444
0.107646,1.47643,2.32569,2.79336,3.08241,3.27887,3.42146,3.52986,3.61515,3.68407
0.107241,1.6375,2.50312,2.97394,3.27089,3.47643,3.62754,3.74346,3.83525,3.90976
0.115903,1.87681,2.77713,3.2608,3.56559,3.776,3.93014,4.04797,4.14097,4.21625
0.106717,1.60906,2.22637,2.53807,2.7281,2.85639,2.94889,3.01876,3.07341,3.11732
0.122938,2.01708,2.91791,3.43998,3.78599,4.03303,4.21849,4.36293,4.47865,4.57345
0.104055,1.81311,2.64697,3.12765,3.44002,3.65878,3.82028,3.94431,4.04249,4.12211
0.103697,1.94753,2.87181,3.40498,3.75073,3.99276,4.17156,4.30903,4.418,4.50651
0.10331,2.07852,3.07138,3.63917,4.00549,4.26122,4.44983,4.59467,4.70939,4.8025
0.101497,1.95207,2.77163,3.21765,3.49868,3.69219,3.83364,3.94158,4.02667,4.09548
0.101931,2.12786,3.11928,3.69754,4.07803,4.34774,4.54901,4.70499,4.82943,4.93102
0.106634,2.2351,3.20311,3.73691,4.07394,4.30565,4.47458,4.60313,4.7042,4.78574
0.105757,2.29415,3.32336,3.91246,4.29536,4.5646,4.76439,4.91861,5.04129,5.14121
0.108779,2.41709,3.49858,4.11401,4.51114,4.78851,4.99313,5.15027,5.27473,5.37573
0.10632,2.41985,3.49614,4.10504,4.49642,4.76911,4.96997,5.12407,5.24604,5.34498
0.101385,2.48467,3.65626,4.33427,4.7757,5.08586,5.31567,5.49277,5.63342,5.74782
0.103203,2.58826,3.75219,4.40072,4.81271,5.09731,5.30562,5.46464,5.59002,5.69139
0.189281,4.91805,7.13769,8.38844,9.1921,9.75254,10.1659,10.4833,10.7349,10.9392
0.104027,2.68973,3.86893,4.53321,4.96072,5.25919,5.47947,5.64874,5.7829,5.89185
0.101982,2.68493,3.88453,4.57247,5.01962,5.33371,5.56647,5.74588,5.88839,6.00432
0.100944,2.49193,3.47891,4.0116,4.34478,4.57273,4.73846,4.86436,4.96324,5.04296
0.117253,3.13277,4.58144,5.44267,6.01617,6.42614,6.734,6.97377,7.16583,7.32315
0.101397,2.84166,4.17166,4.94081,5.43899,5.78697,6.04343,6.24012,6.39568,6.52176
0.100815,2.97934,4.38218,5.18351,5.69949,6.05916,6.32413,6.52746,6.68841,6.81899
0.193091,5.93607,8.69561,10.2559,11.2574,11.9547,12.4682,12.8622,13.174,13.4269
0.107938,3.30154,4.76914,5.59203,6.11985,6.4876,6.75865,6.96676,7.1316,7.2654
0.119234,3.5164,5.00331,5.83407,6.36691,6.7382,7.01187,7.22199,7.3884,7.52348
0.101544,3.12996,4.54522,5.36474,5.90016,6.2774,6.5575,6.77368,6.94557,7.08551
0.100583,3.24307,4.7388,5.5967,6.15096,6.53791,6.82317,7.04208,7.21535,7.35588
0.101217,3.38374,4.93457,5.8118,6.37423,6.76527,7.05285,7.27322,7.44749,7.58874
0.182563,6.08994,8.71833,10.1603,11.0702,11.6968,12.1546,12.5037,12.7788,13.0011
0.105086,3.46559,4.96142,5.80698,6.35376,6.73717,7.02116,7.24007,7.41401,7.55556
0.101619,3.27594,4.64399,5.40601,5.89229,6.2295,6.47702,6.66638,6.81592,6.93699
0.104557,3.58723,5.24118,6.20978,6.84641,7.29679,7.63221,7.89171,8.09845,8.26704
0.101384,3.41154,4.87351,5.68344,6.19589,6.54875,6.80636,7.00261,7.15707,7.28178
0.100017,3.66158,5.39545,6.40615,7.06781,7.53477,7.88204,8.15046,8.36417,8.53837
0.0944443,0.936936,1.0171,1.04691,1.06246,1.07201,1.07847,1.08313,1.08665,1.0894
0.0947345,1.50086,2.20753,2.77697,3.25608,3.66695,4.02384,4.33701,4.61414,4.86118
0.0953667,2.21114,3.79844,5.0449,5.98803,6.70171,7.24946,7.6776,8.0185,8.2947
0.0938897,2.81994,4.85725,6.15345,6.98037,7.53778,7.9347,8.2305,8.45909,8.64096
0.0939025,3.36311,5.5439,6.76321,7.51312,8.02029,8.38722,8.66569,8.88462,9.06146
0.166117,6.73156,10.6222,12.7049,13.9994,14.8878,15.5375,16.0341,16.4264,16.7441
0.0957777,3.83241,5.66697,6.62887,7.23198,7.64845,7.95407,8.18814,8.37323,8.52329
0.095757,3.70286,5.2743,6.10334,6.62448,6.98371,7.24657,7.44732,7.60566,7.73374
0.0944959,3.72255,5.3338,6.22836,6.80427,7.20673,7.50394,7.73244,7.9136,8.06074
0.0934342,4.04458,6.00943,7.1677,7.9338,8.47766,8.88351,9.19788,9.44852,9.65301
0.0935838,4.37752,6.54218,7.79051,8.59757,9.16051,9.575,9.89272,10.1439,10.3475
0.203802,9.4232,13.5729,15.8126,17.2097,18.1638,18.8569,19.3833,19.7966,20.1299
0.0936551,4.42838,6.43406,7.57326,8.31302,8.83356,9.22024,9.519,9.75685,9.95074
0.0930771,4.51567,6.58399,7.76539,8.53075,9.06679,9.46302,9.76774,10.0093,10.2055
0.0939802,4.67607,6.82036,8.04089,8.82835,9.37824,9.78387,10.0954,10.3422,10.5424
0.0959774,4.82281,6.98918,8.20891,8.99101,9.53513,9.93555,10.2426,10.4854,10.6824
0.0927689,4.11327,5.61609,6.3902,6.86244,7.18064,7.40962,7.58231,7.71719,7.82546
0.0937013,4.4514,6.4151,7.56821,8.33373,8.88057,9.29122,9.61111,9.86743,10.0774
0.101946,5.11326,7.51789,8.93179,9.85851,10.5111,10.9948,11.3673,11.6629,11.903
0.0934386,4.72845,6.87712,8.09378,8.87258,9.413,9.80977,10.1134,10.3532,10.5474
0.093716,4.98048,7.316,8.65528,9.52219,10.1292,10.5781,10.9235,11.1977,11.4205
0.144252,7.90744,11.5745,13.6496,14.9819,15.9092,16.5918,17.1152,17.5293,17.865
0.0972891,5.25843,7.62049,8.95931,9.82418,10.4297,10.8777,11.2226,11.4964,11.719
0.0933052,5.15849,7.51525,8.86475,9.73994,10.3535,10.8075,11.157,11.4343,11.6596
0.0936242,5.30777,7.74427,9.13404,10.0313,10.6582,11.1207,11.476,11.7574,11.9858
0.0976272,5.69251,8.30903,9.79492,10.7516,11.4187,11.9105,12.288,12.5869,12.8294
0.134858,7.36284,10.3553,11.9656,12.9723,13.6614,14.1629,14.5442,14.844,15.0858
0.124323,6.34279,8.87969,10.2964,11.2086,11.8466,12.3186,12.6821,12.9707,13.2055
0.13848,6.91391,9.7899,11.4354,12.5039,13.2538,13.8088,14.2362,14.5754,14.8511
0.142303,7.03019,10.0104,11.71,12.8064,13.5714,14.1353,14.5681,14.9106,15.1884
0.135319,6.73565,9.64961,11.3063,12.3719,13.1142,13.6608,14.08,14.4117,14.6807
0.133116,6.39236,9.00608,10.4415,11.3468,11.9695,12.424,12.7704,13.0431,13.2634
0.13305,6.49707,9.32859,10.9552,12.0138,12.7586,13.3114,13.7382,14.0776,14.354
0.120067,6.52319,9.75465,11.6865,12.9655,13.8731,14.5498,15.0735,15.4907,15.8309
0.0991582,5.62588,8.3443,9.89875,10.8969,11.5904,12.0998,12.4897,12.7977,13.047
0.109636,6.33539,9.22873,10.8272,11.838,12.5349,13.0445,13.4335,13.7402,13.9882
0.0937075,5.46646,7.86652,9.18199,10.014,10.5884,11.009,11.3304,11.5839,11.7891
0.0932995,5.3688,7.67451,8.95578,9.77563,10.3462,10.7665,11.0891,11.3445,11.5517
0.0936009,5.7437,8.46452,10.0636,11.1189,11.8678,12.4267,12.8598,13.2053,13.4873
0.0971853,6.26409,9.27768,11.0217,12.1538,12.9462,13.5315,13.9811,14.3373,14.6263
0.167151,10.7671,15.6487,18.3736,20.1083,21.3093,22.1899,22.8633,23.395,23.8255
0.110897,6.57348,9.25924,10.7297,11.6626,12.3086,12.7829,13.1461,13.4331,13.6658
0.102501,6.26132,9.06776,10.7045,11.7822,12.5462,13.1163,13.558,13.9104,14.198
0.101525,6.46552,9.50112,11.2759,12.4364,13.2531,13.8584,14.3247,14.6949,14.9959
