0.691576,0.779845,0.814498,0.833005,0.844519,0.852374,0.858074,0.862399,0.865794,0.868529
0.577395,0.887512,1.05529,1.15973,1.23089,1.28245,1.32153,1.35216,1.37681,1.39708
0.754578,0.951316,1.01015,1.037,1.05214,1.06179,1.06847,1.07335,1.07706,1.07999
0.16529,0.357216,0.50111,0.613984,0.705288,0.780803,0.844353,0.898597,0.945453,0.98634
0.171242,0.512631,0.756483,0.911647,1.0127,1.08161,1.13075,1.16716,1.19501,1.21689
0.125735,0.483166,0.712993,0.840913,0.918538,0.970002,1.00651,1.03373,1.05483,1.07166
0.121431,0.613113,0.938024,1.12314,1.24041,1.32142,1.38083,1.42632,1.46231,1.49149
0.590647,3.5883,5.36892,6.31447,6.89281,7.28274,7.56338,7.77499,7.94022,8.0728
0.117557,0.807668,1.17295,1.36175,1.47726,1.55544,1.61195,1.65473,1.68826,1.71524
0.111609,0.877962,1.27437,1.48548,1.61757,1.70826,1.77444,1.82488,1.86461,1.89671
0.10291,0.768729,1.03007,1.15452,1.22757,1.27563,1.30964,1.33498,1.35458,1.3702
0.0974214,0.887215,1.28436,1.51349,1.66493,1.77292,1.85397,1.91708,1.96765,2.00909
0.0874308,1.00346,1.5375,1.85522,2.06377,2.21029,2.31852,2.40159,2.46727,2.52047
0.090775,1.10861,1.60449,1.85942,2.01209,2.11321,2.18497,2.2385,2.27995,2.31298
0.0856106,1.12563,1.61226,1.86826,2.02704,2.13557,2.21461,2.27481,2.32222,2.36055
0.178526,2.19309,2.95213,3.32254,3.54309,3.68964,3.79412,3.87238,3.93318,3.98179
0.0811924,1.15517,1.66142,1.95264,2.14439,2.2807,2.38272,2.46199,2.52538,2.57724
0.0808504,1.31398,1.94026,2.29968,2.53128,2.69225,2.81035,2.90057,2.97169,3.02915
0.0812992,1.4367,2.0993,2.46145,2.68768,2.84199,2.95388,3.03869,3.10519,3.15873
0.0814036,1.45557,2.05516,2.36694,2.55778,2.68672,2.77972,2.85,2.905,2.94921
0.0824485,1.60201,2.30726,2.69753,2.94694,3.12053,3.24844,3.34666,3.42447,3.48764
0.0835979,1.70995,2.45188,2.85656,3.11129,3.28623,3.41373,3.51073,3.58699,3.64852
0.200743,4.2323,6.00831,6.9647,7.56278,7.97216,8.27001,8.49646,8.67444,8.81801
0.316072,6.40831,8.81406,10.0609,10.8254,11.3424,11.7155,11.9975,12.2181,12.3954
0.127879,2.77308,3.9434,4.60301,5.02928,5.32803,5.54922,5.71964,5.85501,5.96515
0.0872161,1.95521,2.77441,3.22406,3.50721,3.70148,3.84288,3.95034,4.03473,4.10274
0.0867622,1.94827,2.72709,3.14418,3.40368,3.58066,3.70909,3.80655,3.88303,3.94467
0.087447,2.05093,2.90532,3.37606,3.67471,3.88123,4.0326,4.14835,4.23973,4.31371
0.0869331,2.12888,3.03472,3.53557,3.85311,4.07229,4.23264,4.35502,4.45148,4.52946
0.0859006,2.09251,2.92687,3.3712,3.64661,3.83394,3.96958,4.07232,4.15284,4.21763
0.0886173,2.29333,3.27213,3.81658,4.16409,4.4054,4.58282,4.71881,4.82636,4.91357
0.124609,3.14218,4.36463,5.00963,5.40737,5.67691,5.87154,6.01863,6.13369,6.22613
0.0903927,2.3282,3.26841,3.78406,4.11112,4.33741,4.50341,4.63043,4.73079,4.81209
0.0894384,2.0774,2.78915,3.15228,3.37253,3.52029,3.62627,3.70597,3.76807,3.81783
0.087943,2.12376,2.94559,3.40075,3.69168,3.89409,4.04317,4.15759,4.24821,4.32177
0.0889773,2.22691,3.12243,3.61501,3.92554,4.13876,4.29405,4.41212,4.50488,4.57967
0.14492,3.65267,5.08681,5.85606,6.33394,6.6593,6.89503,7.07366,7.21369,7.32642
0.0890348,2.39671,3.41299,3.97853,4.33866,4.58819,4.77134,4.91151,5.02226,5.11196
0.0839145,0.963754,1.08893,1.13764,1.16345,1.17941,1.19025,1.1981,1.20403,1.20868
0.114491,1.9547,2.84802,3.50544,4.02233,4.44215,4.79076,5.08519,5.33732,5.55571
0.109571,2.47956,3.95311,4.94881,5.63313,6.11968,6.478,6.75034,6.96304,7.13304
0.0873293,2.24711,3.43443,4.0846,4.47437,4.73001,4.90966,5.04261,5.14493,5.22612
0.0849618,2.51265,3.82541,4.53991,4.98407,5.28794,5.50961,5.67881,5.81235,5.92052
0.0847237,2.54956,3.662,4.21989,4.5549,4.7789,4.93941,5.06011,5.15419,5.22957
0.0857861,2.83422,4.1354,4.84312,5.29365,5.60708,5.83811,6.01561,6.1563,6.27059
0.0841943,2.99322,4.36682,5.11682,5.59102,5.91784,6.15662,6.33864,6.48194,6.59767
0.147392,5.41453,7.76752,9.02341,9.80559,10.3395,10.727,11.0211,11.252,11.438
0.0847664,3.11838,4.40706,5.09456,5.52422,5.8186,6.03305,6.19628,6.3247,6.4284
0.084785,3.18557,4.50721,5.22512,5.67809,5.9902,6.21838,6.39248,6.5297,6.64063
0.0858059,3.21746,4.49734,5.17867,5.60201,5.89043,6.09951,6.258,6.38227,6.48232
0.114555,4.38748,6.17622,7.15181,7.76783,8.19248,8.50306,8.74014,8.92708,9.07827
0.316419,12.599,17.9307,20.882,22.7564,24.0519,25.0007,25.7254,26.2969,26.7592
0.087641,3.17336,4.31702,4.90583,5.26451,5.50585,5.67931,5.80999,5.91198,5.99379
0.086545,3.3055,4.66885,5.43761,5.93428,6.28236,6.54009,6.73871,6.8965,7.0249
0.0862723,3.36219,4.74201,5.49586,5.96863,6.292,6.52681,6.70493,6.84461,6.95706
0.0861937,3.53308,5.04558,5.88265,6.41289,6.77873,7.04637,7.25069,7.4118,7.5421
0.108405,4.56015,6.47729,7.51658,8.16658,8.61117,8.93434,9.17983,9.37263,9.52804
0.0888125,3.67269,5.12846,5.90158,6.3813,6.70821,6.94536,7.1253,7.26652,7.38031
0.0880216,3.69097,5.20339,6.03583,6.56504,6.93171,7.20093,7.40704,7.56993,7.70192
0.0876989,3.7956,5.40283,6.29584,6.86401,7.25706,7.54503,7.76504,7.93858,8.07895
0.0881081,3.70957,5.1659,5.93952,6.41818,6.74327,6.97839,7.15631,7.29564,7.4077
0.113007,4.95789,7.02411,8.16513,8.89019,9.39217,9.76048,10.0423,10.265,10.4453
0.110897,4.50522,6.12548,6.95451,7.45692,7.79362,8.03485,8.21612,8.35729,8.47033
0.090245,0.486318,0.501833,0.507401,0.510286,0.512056,0.513253,0.514118,0.514773,0.515285
0.0890145,0.881625,1.30976,1.69904,2.05863,2.39261,2.70389,2.99481,3.26736,3.52324
0.0736735,1.246,2.36926,3.44414,4.3753,5.1458,5.77197,6.27902,6.69114,7.02857
0.118992,3.17805,6.63,9.34122,11.1904,12.4398,13.3108,13.9421,14.4165,14.7846
0.105332,3.88656,7.51024,9.55601,10.7091,11.4298,11.9219,12.2805,12.5542,12.7705
0.0925309,3.89366,6.39926,7.52559,8.14833,8.54972,8.83291,9.04453,9.20912,9.34099
0.293779,13.6841,20.9408,24.3303,26.3617,27.739,28.7401,29.5023,30.1026,30.5878
0.245775,11.5373,16.6409,19.116,20.6327,21.6658,22.4161,22.986,23.4336,23.7945
0.0738071,3.98307,5.95424,7.04742,7.76029,8.26344,8.6377,8.92697,9.15726,9.34493
0.0846581,4.91446,7.25247,8.51752,9.31393,9.85998,10.257,10.5585,10.795,10.9855
0.0741168,4.51536,6.55653,7.64455,8.32288,8.78618,9.12273,9.37833,9.57908,9.74093
0.0737923,4.63991,6.65512,7.72892,8.39931,8.85814,9.19206,9.44605,9.64575,9.80691
0.210527,13.7123,19.6415,22.8515,24.8739,26.2663,27.2837,28.0597,28.6713,29.1656
0.0759324,4.93987,7.02271,8.15779,8.87557,9.37091,9.73346,10.0103,10.2287,10.4054
0.0747204,4.84893,6.84525,7.92765,8.60831,9.07591,9.41694,9.67664,9.881,10.046
0.0750896,5.00849,7.13294,8.30735,9.05379,9.57023,9.94882,10.2383,10.4667,10.6517
0.0845201,5.64829,7.97542,9.23497,10.0234,10.5631,10.9555,11.2537,11.4879,11.6767
1.358,82.1901,111.33,126.228,135.285,141.376,145.754,149.053,151.628,153.695
0.090256,5.584,7.83392,9.10339,9.92577,10.5035,10.932,11.2628,11.5258,11.7401
0.0767401,5.03182,7.23564,8.49301,9.30265,9.86619,10.2805,10.5976,10.848,11.0508
0.0768212,5.12174,7.29727,8.48515,9.22807,9.73542,10.1036,10.3828,10.6019,10.7783
0.0758752,4.21354,5.55019,6.19743,6.57862,6.82991,7.00808,7.14104,7.24407,7.32625
0.0753494,3.86531,5.11981,5.77492,6.1823,6.46126,6.66462,6.81957,6.94162,7.04026
0.0779296,4.59105,6.60424,7.80626,8.6078,9.18032,9.60953,9.94315,10.2099,10.4279
0.123599,8.06266,11.8841,14.0964,15.5181,16.5028,17.2229,17.7716,18.2033,18.5516
0.0771393,5.37678,7.89995,9.30383,10.188,10.7946,11.2364,11.5724,11.8367,12.0499
0.077447,5.43465,7.76253,8.99394,9.7529,10.2677,10.6399,10.9217,11.1425,11.3202
0.0764907,4.95611,6.77584,7.69813,8.25797,8.63476,8.90592,9.1105,9.27038,9.39878
0.194903,13.7716,19.7449,23.139,25.3478,26.9041,28.0608,28.9547,29.6665,30.2466
0.0777271,3.28729,3.98591,4.28863,4.45726,4.56453,4.63867,4.69295,4.73439,4.76706
0.0762056,2.53403,3.1152,3.41184,3.59546,3.72105,3.81259,3.88235,3.93732,3.98177
0.0781778,3.67098,5.54549,6.88028,7.8829,8.66306,9.28693,9.79694,10.2215,10.5804
0.0761527,4.51915,7.18597,8.87735,9.98999,10.7601,11.3183,11.7386,12.0652,12.3256
0.170726,11.8562,18.529,22.2522,24.5347,26.0628,27.1554,27.9752,28.6133,29.1243
0.0784173,5.63573,8.35383,9.76918,10.6325,11.2164,11.6389,11.9593,12.2108,12.4137
0.0765132,5.8224,8.53463,9.98481,10.8957,11.5239,11.9841,12.336,12.6139,12.8389
0.0759625,5.99805,8.67529,10.1076,11.0055,11.622,12.0715,12.4137,12.683,12.9004
