0.47083,0.57063,0.614013,0.638276,0.653777,0.664536,0.67244,0.678493,0.683277,0.687152
0.266445,0.420757,0.50279,0.552993,0.586762,0.610999,0.62923,0.643437,0.654817,0.664137
0.26213,0.559132,0.742995,0.861163,0.942312,1.00115,1.04566,1.08045,1.10838,1.13127
0.201022,0.536885,0.741903,0.866286,0.947867,1.00505,1.04722,1.07956,1.10512,1.12582
0.18028,0.548385,0.745994,0.855226,0.923321,0.969653,1.00318,1.02856,1.04844,1.06442
0.158101,0.574064,0.80555,0.938764,1.02491,1.08522,1.12983,1.16417,1.19144,1.21362
0.15839,0.668122,0.949531,1.11035,1.21375,1.28574,1.3387,1.37929,1.41138,1.43738
0.136279,0.633395,0.889303,1.03044,1.11946,1.18068,1.22535,1.25939,1.28618,1.30782
0.132303,0.738093,1.08229,1.28529,1.41904,1.51383,1.58454,1.63932,1.683,1.71866
0.13249,0.841984,1.23496,1.45928,1.60325,1.70325,1.77667,1.83283,1.87716,1.91304
0.123929,0.817,1.15005,1.32708,1.43657,1.51096,1.5648,1.60559,1.63755,1.66328
0.123421,0.877243,1.24281,1.44574,1.57562,1.6661,1.73283,1.7841,1.82474,1.85776
0.12001,0.869238,1.20384,1.38313,1.49501,1.57146,1.62699,1.66915,1.70224,1.7289
0.115274,0.976002,1.43008,1.7002,1.87994,2.00829,2.10456,2.17947,2.23942,2.28849
0.114104,1.07207,1.57753,1.86856,2.05626,2.18694,2.283,2.35652,2.41458,2.46158
0.110996,1.10073,1.58522,1.85092,2.01789,2.13244,2.21589,2.2794,2.32936,2.36968
0.107263,1.17635,1.7256,2.04071,2.2456,2.38971,2.49668,2.57926,2.64495,2.69847
0.113927,1.3423,1.95979,2.30764,2.53041,2.68515,2.79884,2.88587,2.95463,3.01032
0.109731,1.14128,1.53566,1.7333,1.85219,1.93163,1.98847,2.03117,2.06443,2.09106
0.104254,1.24332,1.80452,2.14174,2.36953,2.53433,2.6593,2.75738,2.83645,2.90156
0.112082,1.43566,2.08971,2.46522,2.70693,2.87478,2.99784,3.09179,3.16581,3.22559
0.129341,1.62969,2.2847,2.6344,2.85088,2.99794,3.10435,3.18492,3.24805,3.29885
0.113091,1.27537,1.70194,1.9194,2.0519,2.14128,2.20573,2.25442,2.29252,2.32314
0.108695,1.38507,1.98079,2.33304,2.56774,2.73572,2.862,2.96042,3.0393,3.10395
0.112793,1.69294,2.55389,3.07942,3.4302,3.67979,3.86602,4.0101,4.1248,4.21823
0.13595,2.30293,3.50164,4.20564,4.66234,4.98127,5.21625,5.39646,5.53902,5.65459
0.112475,2.00883,2.97808,3.5185,3.86114,4.09774,4.271,4.40338,4.50785,4.59241
0.109294,2.06003,3.03893,3.59234,3.94941,4.19944,4.38446,4.52699,4.64018,4.73226
0.102724,2.02559,2.97782,3.5198,3.87084,4.11693,4.29907,4.43932,4.55064,4.64114
0.126676,2.64753,3.89516,4.60533,5.06399,5.38457,5.6212,5.80301,5.94707,6.06402
0.104628,2.23117,3.2403,3.80612,4.16859,4.4207,4.60621,4.74846,4.86099,4.95225
0.103132,2.29495,3.35276,3.95834,4.35167,4.62791,4.83262,4.99043,5.11581,5.21782
0.0974585,2.25341,3.29267,3.88618,4.27006,4.53861,4.73698,4.88947,5.01034,5.10849
0.155845,3.66299,5.30926,6.2391,6.83681,7.2534,7.56037,7.79598,7.98251,8.13386
0.0960074,2.28447,3.30058,3.87675,4.24858,4.50855,4.70059,4.84827,4.96538,5.06052
0.0971066,2.38147,3.4615,4.08162,4.48445,4.76719,4.97659,5.1379,5.26598,5.37013
0.088647,2.2672,3.31967,3.92771,4.32339,4.60128,4.80712,4.9657,5.09161,5.19399
0.147679,3.95606,5.81579,6.88715,7.58229,8.06944,8.42972,8.70695,8.92686,9.10556
0.0933618,2.51939,3.6645,4.31496,4.73439,5.02742,5.24374,5.41,5.54179,5.64883
0.0899351,2.512,3.66481,4.32352,4.74984,5.04835,5.26903,5.43882,5.5735,5.68294
0.0907172,2.60042,3.78591,4.46003,4.89483,5.19851,5.42259,5.59474,5.73113,5.84185
0.169774,5.07485,7.42996,8.78011,9.65527,10.2686,10.7223,11.0714,11.3485,11.5737
0.0918048,2.74468,3.9786,4.67857,5.12999,5.4454,5.67826,5.85725,5.99913,6.11435
0.0895785,2.70864,3.92744,4.62438,5.07632,5.39329,5.62794,5.80868,5.95216,6.06885
0.0882691,2.73205,3.98179,4.70274,5.17214,5.50208,5.74665,5.93518,6.08495,6.20679
0.120552,3.80668,5.5363,6.52329,7.16046,7.60552,7.93387,8.18608,8.38585,8.548
0.0882242,2.78147,4.02862,4.74177,5.20409,5.52833,5.76839,5.95333,6.10018,6.21963
0.0832412,2.68947,3.92013,4.63072,5.09352,5.41887,5.66007,5.84602,5.99374,6.11393
0.0880379,2.91159,4.24059,5.00021,5.4909,5.83376,6.08677,6.28113,6.4351,6.56008
0.0829324,2.7655,4.00411,4.70555,5.15682,5.47153,5.70354,5.88167,6.02275,6.13725
0.0825537,2.83154,4.12963,4.87686,5.36297,5.7046,5.95789,6.15319,6.30837,6.43466
0.0831045,2.92571,4.28041,5.06165,5.56971,5.92646,6.1907,6.39426,6.55588,6.68731
0.11091,4.03743,5.91322,6.98766,7.68255,8.16853,8.52739,8.80321,9.02181,9.19932
0.0760432,2.75296,3.99187,4.69557,5.14979,5.46742,5.70209,5.88258,6.02573,6.14204
0.0820245,3.04383,4.44679,5.25792,5.78725,6.16006,6.43686,6.65052,6.82044,6.9588
0.075427,2.87672,4.21099,4.97897,5.47741,5.82682,6.08524,6.2841,6.44184,6.57001
0.109247,4.31783,6.33635,7.49495,8.24537,8.77076,9.15909,9.45777,9.69464,9.88708
0.0794346,3.13921,4.57065,5.38771,5.91661,6.28717,6.5613,6.77236,6.93987,7.07607
0.0760503,3.06585,4.48086,5.29699,5.82865,6.2026,6.47998,6.69393,6.86397,7.00236
0.0786219,3.24112,4.73038,5.58113,6.13078,6.5149,6.7984,7.01621,7.18876,7.32883
0.112145,4.68551,6.81698,8.02998,8.81291,9.36012,9.76417,10.0748,10.321,10.521
0.0786747,3.29622,4.78738,5.64089,6.19468,6.58329,6.87112,7.09289,7.26901,7.41228
0.0796105,3.33583,4.83281,5.68856,6.2429,6.63127,6.9185,7.13955,7.31492,7.45744
0.0782621,3.37437,4.92912,5.82713,6.41174,6.82252,7.12694,7.36154,7.54788,7.69944
0.0743244,3.1623,4.5504,5.32877,5.82614,6.17126,6.42471,6.61872,6.772,6.89615
0.0780027,3.33594,4.82922,5.68729,6.24592,6.63901,6.93079,7.15601,7.33515,7.48105
0.0752928,3.29141,4.79281,5.65777,6.21974,6.61396,6.90569,7.13026,7.30843,7.45323
0.102739,4.70696,6.92518,8.20912,9.04415,9.63015,10.0639,10.3979,10.663,10.8784
0.0758883,3.39428,4.89982,5.74742,6.29099,6.66933,6.94791,7.16161,7.33075,7.46795
0.0714412,3.23671,4.7076,5.55621,6.10992,6.50005,6.78988,7.01373,7.19183,7.33693
0.0977985,4.50121,6.56105,7.74681,8.51695,9.05713,9.45685,9.76452,10.0086,10.207
0.0737164,3.42029,4.99,5.89625,6.48639,6.90129,7.20894,7.44617,7.63469,7.78811
0.0738278,3.59608,5.28985,6.26552,6.89783,7.34041,7.66734,7.91865,8.11782,8.27954
0.0844175,4.21428,6.1784,7.2989,8.02204,8.52726,8.90019,9.18677,9.4139,9.59834
0.0735283,3.57642,5.17887,6.09178,6.6834,7.09855,7.40613,7.64322,7.8316,7.9849
0.0706794,3.53527,5.16809,6.11243,6.72836,7.16177,7.48327,7.73121,7.92824,8.08856
0.0732035,3.77369,5.53369,6.5464,7.20312,7.66312,8.00314,8.26466,8.47204,8.64049
0.0741499,3.80062,5.48687,6.42862,7.02885,7.44467,7.74973,7.98308,8.16735,8.31655
0.0728915,3.736,5.40533,6.3583,6.97673,7.41108,7.7331,7.98144,8.17884,8.33954
0.0717001,3.75868,5.47802,6.46858,7.11283,7.56523,7.90028,8.15837,8.36325,8.52983
0.138554,7.56832,11.1129,13.1544,14.4783,15.4054,16.0907,16.6176,17.0354,17.3748
0.0726185,3.87579,5.601,6.57546,7.20206,7.63907,7.96133,8.20883,8.40491,8.56409
0.0706567,3.84084,5.61668,6.65138,7.33061,7.81111,8.1691,8.44618,8.66701,8.84715
0.0858125,4.72118,6.89895,8.15438,8.96983,9.54164,9.96462,10.2901,10.5483,10.7581
0.0703393,3.85362,5.60102,6.6012,7.24901,7.70284,8.03849,8.29683,8.50183,8.66846
0.067937,3.81767,5.59361,6.62288,7.29454,7.76738,8.1183,8.38906,8.60432,8.77956
0.0854497,4.88645,7.14768,8.44435,9.28371,9.87108,10.305,10.6386,10.9031,11.1179
0.0697098,3.90175,5.63307,6.61201,7.24211,7.68186,8.0063,8.25555,8.45307,8.61346
0.071034,4.0331,5.86815,6.92622,7.61575,8.10097,8.46104,8.73886,8.95974,9.13956
0.0830663,4.82333,7.04212,8.31704,9.14348,9.72225,10.15,10.479,10.7398,10.9517
0.07044,4.0852,5.94721,7.01632,7.71043,8.19754,8.55831,8.83628,9.05703,9.2366
0.0646162,3.84238,5.62208,6.64728,7.31327,7.78053,8.12642,8.39275,8.60414,8.77599
0.0806974,4.86948,7.10401,8.37835,9.20085,9.77542,10.1994,10.5252,10.7833,10.9928
0.0691806,4.14265,6.01221,7.0794,7.77063,8.25516,8.61377,8.88995,9.10922,9.28754
0.0671328,4.09324,5.9747,7.05951,7.76561,8.26186,8.62968,8.91321,9.13844,9.32167
0.0684038,4.23086,6.18121,7.303,8.03121,8.54189,8.91978,9.2107,9.44156,9.62921
0.0698608,4.41784,6.45413,7.61694,8.3678,8.89241,9.27957,9.577,9.81266,10.004
0.0697887,4.52556,6.66299,7.90651,8.72074,9.29556,9.72315,10.0537,10.3169,10.5315
0.0691185,4.64237,6.83211,8.08572,8.89525,9.46048,9.87727,10.1972,10.4505,10.656
0.0684053,4.33294,6.14915,7.13634,7.75689,8.18327,8.49438,8.73143,8.91809,9.06888
