0.622675,0.764285,0.826976,0.862343,0.885053,0.90087,0.912518,0.921454,0.928526,0.934263
0.316978,0.511194,0.616863,0.682297,0.726627,0.758598,0.782729,0.801581,0.816714,0.829127
0.220897,0.448437,0.576937,0.654911,0.706488,0.742926,0.769965,0.790798,0.807328,0.820757
0.18399,0.470519,0.63944,0.741471,0.808613,0.855903,0.890941,0.91792,0.939322,0.956712
0.158402,0.493239,0.688641,0.803136,0.877088,0.92857,0.966415,0.99539,1.01828,1.03681
0.132021,0.485872,0.686573,0.801423,0.874925,0.925895,0.963299,0.991912,1.01451,1.0328
0.127977,0.564028,0.817531,0.965171,1.06113,1.12846,1.17829,1.21667,1.24714,1.27191
0.603432,2.98806,4.27631,4.99303,5.44634,5.7585,5.98643,6.16013,6.29688,6.40732
0.124242,0.702659,1.01525,1.19194,1.30539,1.38444,1.4427,1.48742,1.52285,1.5516
0.116227,0.725639,1.04459,1.22351,1.33795,1.41744,1.47588,1.52065,1.55604,1.58473
0.103764,0.710558,1.02019,1.19285,1.30292,1.3792,1.43519,1.47802,1.51184,1.53924
0.102623,0.748833,1.06463,1.23881,1.34928,1.42561,1.48152,1.52424,1.55795,1.58522
0.095557,0.761429,1.09364,1.28132,1.40216,1.48652,1.54876,1.59658,1.63447,1.66523
0.0919983,0.83016,1.22363,1.45364,1.60437,1.71072,1.78976,1.8508,1.89935,1.93888
0.0931698,0.900567,1.30957,1.53875,1.68462,1.78545,1.85927,1.91562,1.96005,1.99597
0.0945835,0.988627,1.44262,1.70044,1.86676,1.98305,2.06898,2.13508,2.18751,2.23012
0.338335,3.85354,5.65838,6.69077,7.35892,7.82663,8.17229,8.43814,8.64895,8.82021
0.0907191,1.05789,1.52033,1.77647,1.93921,2.05177,2.13427,2.19733,2.24711,2.28739
0.0891286,1.10069,1.59454,1.87607,2.05859,2.18667,2.28155,2.35468,2.41277,2.46004
0.089844,1.14151,1.63949,1.91922,2.09847,2.2231,2.31476,2.38499,2.44052,2.48552
0.214826,2.89477,4.20141,4.95098,5.43765,5.77917,6.03208,6.22691,6.38162,6.50745
0.0840694,1.09356,1.52602,1.75726,1.90096,1.99884,2.06979,2.12356,2.16571,2.19964
0.0842599,1.20365,1.74797,2.06566,2.27485,2.42328,2.53416,2.62017,2.68886,2.74498
0.333017,5.08052,7.41518,8.75288,9.61584,10.2174,10.6602,10.9995,11.2677,11.4851
0.0828795,1.31725,1.9159,2.25599,2.47492,2.62763,2.74024,2.82671,2.89521,2.95081
0.0829456,1.36325,1.97459,2.3203,2.54262,2.69765,2.81195,2.8997,2.96921,3.02562
0.0858945,1.42696,2.03826,2.37665,2.59157,2.74017,2.84905,2.93226,2.99792,3.05105
0.081172,1.42773,2.07178,2.44107,2.68104,2.84963,2.97459,3.07094,3.14751,3.20981
0.0816253,1.51584,2.2164,2.61972,2.88155,3.0651,3.20087,3.30534,3.38821,3.45554
0.0798629,1.50367,2.16369,2.53106,2.7646,2.92607,3.04434,3.1347,3.20598,3.26365
0.262615,5.22239,7.60545,8.96899,9.85324,10.4736,10.933,11.287,11.5682,11.7969
0.0802234,1.61821,2.33763,2.74418,3.00559,3.18781,3.32209,3.42513,3.50671,3.57288
0.0796888,1.58877,2.26013,2.63255,2.86961,3.03383,3.15431,3.2465,3.3193,3.37826
0.123766,2.6004,3.77364,4.45118,4.89331,5.20473,5.43599,5.61453,5.75654,5.8722
0.0780438,1.6461,2.35285,2.74534,2.99433,3.16614,3.29177,3.3876,3.46308,3.52408
0.119748,2.69596,3.93249,4.64497,5.10854,5.43437,5.676,5.86235,6.01047,6.13104
0.182228,2.41602,3.51617,4.32503,4.95984,5.4745,5.90114,6.26094,6.56864,6.83487
0.0717041,1.26788,2.04966,2.59903,2.98883,3.2731,3.48675,3.65185,3.78256,3.88825
0.0752449,1.59364,2.55577,3.13365,3.50055,3.75032,3.93039,4.06613,4.17205,4.25701
0.0718412,1.67993,2.59022,3.09233,3.40508,3.61881,3.77447,3.89307,3.98653,4.06214
0.073696,1.91211,2.92514,3.49379,3.85913,4.1148,4.30413,4.45011,4.56615,4.66063
0.0733464,1.99522,2.96998,3.50543,3.84582,4.0818,4.2551,4.38779,4.49264,4.57758
0.0705662,1.94177,2.82503,3.30923,3.61759,3.83163,3.98901,4.10963,4.20504,4.2824
0.0705095,1.98312,2.86703,3.35803,3.67252,3.89144,4.05264,4.17631,4.27418,4.35358
0.210735,6.11338,8.8833,10.4579,11.4782,12.1934,12.7228,13.1303,13.4538,13.7168
0.0723393,2.18049,3.19059,3.77184,4.14997,4.41553,4.61225,4.7638,4.88413,4.98199
0.071281,2.21763,3.24441,3.83196,4.21212,4.47808,4.67452,4.82555,4.94526,5.04248
0.071581,2.28121,3.31542,3.8978,4.27084,4.53011,4.72074,4.86679,4.98227,5.07585
0.0697673,2.28639,3.31957,3.90233,4.27664,4.53746,4.72964,4.87715,4.99394,5.08871
0.0691016,2.33501,3.38665,3.97808,4.35708,4.62065,4.81455,4.96317,5.08071,5.176
0.319545,11.0643,16.0516,18.8717,20.6869,21.9537,22.8881,23.6058,24.1743,24.6359
0.0718197,2.46762,3.57831,4.21852,4.63671,4.93168,5.15103,5.32056,5.45555,5.56557
0.0747723,2.5629,3.69966,4.34784,4.76675,5.05961,5.27581,5.44193,5.57354,5.68038
0.0699356,2.4519,3.55598,4.18759,4.59622,4.88213,5.09335,5.25575,5.38451,5.4891
0.0698804,2.5713,3.76694,4.45487,4.90079,5.21308,5.44391,5.62146,5.76225,5.87663
0.0685721,2.59638,3.78436,4.45513,4.88486,5.18348,5.40299,5.57114,5.70406,5.81177
0.223304,8.45348,12.1855,14.2706,15.603,16.5285,17.2092,17.7309,18.1435,18.4781
0.0766245,2.73478,3.858,4.47822,4.8733,5.14741,5.34885,5.50319,5.62523,5.72416
0.0700761,2.57952,3.73955,4.41997,4.8692,5.18827,5.42666,5.61155,5.75915,5.8797
0.0712987,2.73549,4.00988,4.75244,5.23659,5.57651,5.82804,6.02158,6.17506,6.29972
0.0699158,2.75441,4.01211,4.72315,5.17792,5.49335,5.72486,5.90198,6.04184,6.15508
0.0695101,2.89195,4.25293,5.03237,5.53662,5.8896,6.15056,6.35136,6.51067,6.64016
0.0702838,2.86266,4.08944,4.75719,5.17649,5.46417,5.67378,5.8333,5.95875,6.06
0.095273,3.92654,5.67444,6.67545,7.32815,7.78845,8.13085,8.39563,8.60656,8.77858
0.0669376,1.49639,2.19735,2.73264,3.16488,3.52326,3.82583,4.08494,4.30942,4.50584
0.0682235,2.08198,3.4378,4.42108,5.12936,5.64933,6.04099,6.34364,6.58295,6.77607
0.0637945,2.40509,3.96801,4.9248,5.53274,5.94508,6.24112,6.46346,6.63644,6.77484
0.285818,11.4316,17.4612,20.6271,22.5334,23.808,24.7227,25.4122,25.9514,26.3848
0.0660368,2.84933,4.29364,5.08291,5.58524,5.9356,6.19473,6.39445,6.55321,6.68248
0.0650759,2.91863,4.3309,5.11433,5.61783,5.96976,6.2298,6.42981,6.58842,6.71728
0.0642792,2.97105,4.36832,5.15036,5.65384,6.00547,6.26499,6.46439,6.62239,6.75067
0.0641075,3.13081,4.63768,5.50101,6.06278,6.4576,6.75026,6.97587,7.15509,7.3009
0.0661114,3.02541,4.26953,4.93159,5.34308,5.62355,5.82694,5.98117,6.10215,6.19957
0.0651226,3.13189,4.56605,5.40186,5.95369,6.34624,6.64008,6.86841,7.05101,7.20038
0.0658999,3.16315,4.56979,5.36589,5.87732,6.23308,6.4946,6.69486,6.85306,6.98117
0.0741974,3.71144,5.43131,6.42332,7.06847,7.52152,7.85715,8.11579,8.32122,8.48833
0.0635052,3.29337,4.83238,5.71407,6.28402,6.68242,6.97649,7.20243,7.38145,7.52678
0.0609629,0.601962,0.637382,0.650185,0.656809,0.660861,0.663598,0.665571,0.667061,0.668227
0.0600264,1.01904,1.51479,1.94174,2.32019,2.65935,2.96548,3.24336,3.49681,3.72895
0.0617698,1.6382,2.95367,4.08282,4.98737,5.69659,6.2527,6.6928,7.04555,7.33213
0.0599935,2.18187,3.98793,5.19888,5.97631,6.49567,6.86093,7.12989,7.33559,7.49782
0.139609,6.4442,11.2746,14.0218,15.6908,16.8066,17.6079,18.213,18.6874,19.0699
0.0610335,3.12567,5.04294,6.05155,6.67351,7.10008,7.41261,7.65207,7.84165,7.99558
0.0608277,3.40948,5.29788,6.31013,6.95346,7.40205,7.73354,7.98869,8.19121,8.3559
0.0604705,3.57181,5.39478,6.38781,7.02402,7.46813,7.79599,8.04801,8.24779,8.41004
0.0598304,3.71816,5.55895,6.58663,7.25097,7.71651,8.06097,8.32617,8.53665,8.70776
0.135346,8.74112,12.9274,15.265,16.7667,17.8131,18.5839,19.1753,19.6433,20.023
0.061345,3.76939,5.40855,6.31148,6.88798,7.28866,7.5835,7.80963,7.9886,8.13378
0.0619964,3.82147,5.51718,6.48305,7.11086,7.55214,7.87937,8.13173,8.33229,8.49552
0.0598405,3.79859,5.54725,6.55823,7.21744,7.68095,8.02448,8.28923,8.49947,8.67045
0.119719,7.9062,11.5792,13.673,15.0207,15.9592,16.6499,17.1793,17.5979,17.9372
0.0607766,3.91036,5.66832,6.67235,7.32374,7.78115,8.12025,8.38179,8.5897,8.75897
0.0615842,4.02393,5.86398,6.92346,7.61253,8.09648,8.455,8.73122,8.95054,9.1289
0.061569,4.09365,5.97507,7.05438,7.75355,8.24309,8.6049,8.88317,9.10382,9.28307
0.05957,4.01504,5.84595,6.88739,7.55859,8.02704,8.37253,8.63783,8.84797,9.01853
0.130168,8.82147,12.741,14.9339,16.3337,17.3045,18.0173,18.5629,18.9939,19.343
0.0610866,4.05377,5.85429,6.88727,7.56056,8.035,8.38763,8.66013,8.87707,9.0539
0.0608424,4.12977,6.03137,7.13648,7.85885,8.36769,8.74533,9.03666,9.26818,9.45659
0.0621498,4.24472,6.18041,7.28886,8.0055,8.50646,8.87624,9.16036,9.38548,9.56824
0.0616274,4.37751,6.41042,7.57182,8.32106,8.84407,9.22977,9.52592,9.76046,9.9508
