0.479861,0.588399,0.636379,0.663428,0.680791,0.692879,0.70178,0.708607,0.71401,0.718392
0.285203,0.472385,0.578849,0.646528,0.693172,0.72722,0.753149,0.773547,0.79001,0.803574
0.213608,0.457537,0.604071,0.695637,0.75718,0.801084,0.833875,0.859255,0.87946,0.895917
0.176618,0.46648,0.638994,0.742746,0.810692,0.858365,0.893586,0.920644,0.942073,0.959459
0.165107,0.518448,0.720711,0.837832,0.913076,0.965325,1.00369,1.03304,1.05621,1.07498
0.136243,0.510164,0.725131,0.849934,0.93071,0.987189,1.02889,1.06094,1.08635,1.10698
0.420401,1.80379,2.56684,2.99927,3.27572,3.46747,3.60822,3.71592,3.80097,3.86984
0.118881,0.577642,0.824894,0.964617,1.05415,1.11641,1.16222,1.19734,1.22512,1.24764
0.266231,1.48883,2.16438,2.55488,2.80887,2.98727,3.11945,3.22132,3.30222,3.36803
0.109607,0.677554,0.979892,1.15105,1.26085,1.33721,1.39336,1.4364,1.47042,1.49799
0.10774,0.709125,1.00807,1.17269,1.27684,1.34867,1.40122,1.44133,1.47295,1.49852
0.0997791,0.712789,1.01721,1.18763,1.29679,1.37274,1.42867,1.47157,1.50553,1.53307
0.100028,0.801125,1.16683,1.37779,1.51506,1.6115,1.68295,1.738,1.78172,1.81727
0.0963216,0.685765,0.911127,1.0223,1.08831,1.13198,1.16299,1.18614,1.20408,1.2184
0.0919468,0.782301,1.13696,1.35252,1.49918,1.60587,1.68711,1.75109,1.80282,1.84552
0.089391,0.843897,1.23522,1.46148,1.60738,1.70873,1.78301,1.8397,1.88434,1.92037
0.0872809,0.90048,1.32192,1.56311,1.71847,1.82679,1.90663,1.96793,2.01648,2.05588
0.088102,0.985397,1.44756,1.71113,1.88111,1.99984,2.08748,2.15483,2.20822,2.25157
0.0941088,1.13077,1.6575,1.95636,2.14878,2.28304,2.38205,2.45809,2.51832,2.5672
0.0888772,1.05161,1.47964,1.70769,1.84935,1.94591,2.01596,2.06909,2.11078,2.14435
0.0881848,1.12705,1.62779,1.91474,2.10196,2.23403,2.33228,2.40826,2.46879,2.51816
0.103404,1.42061,2.07102,2.44375,2.68493,2.85352,2.9779,3.0734,3.14902,3.21035
0.0840829,1.21073,1.75423,2.05971,2.25496,2.39042,2.48987,2.56599,2.62613,2.67483
0.0838141,1.23403,1.76538,2.05904,2.24538,2.37418,2.46855,2.54068,2.5976,2.64368
0.0820096,1.26355,1.82731,2.14975,2.35925,2.50648,2.61568,2.69991,2.76686,2.82137
0.07935,0.839883,1.04602,1.1395,1.19283,1.22727,1.25135,1.26912,1.28278,1.2936
0.0807159,1.09454,1.60489,1.94221,2.18633,2.37225,2.51888,2.63762,2.7358,2.81836
0.0770872,1.23316,1.88175,2.2841,2.5516,2.73999,2.87892,2.98519,3.0689,3.13644
0.0769992,1.37215,2.08394,2.49736,2.76238,2.94588,3.08033,3.18304,3.26409,3.32968
0.0767467,1.46506,2.18332,2.58444,2.83887,3.01473,3.14365,3.24227,3.32016,3.38326
0.239281,4.78958,7.03589,8.28282,9.07782,9.62999,10.0362,10.3477,10.5943,10.7942
0.076748,1.56332,2.26786,2.6612,2.9137,3.08985,3.21982,3.31968,3.39883,3.46311
0.0756784,1.59106,2.30783,2.7132,2.97492,3.15796,3.29319,3.39717,3.47961,3.54658
0.0757719,1.63195,2.35713,2.76531,3.02737,3.20983,3.34415,3.44716,3.52865,3.59474
0.0750215,1.67182,2.42444,2.85277,3.12961,3.32327,3.46637,3.57642,3.6637,3.7346
0.0735318,1.67661,2.41483,2.82759,3.09092,3.27341,3.4073,3.5097,3.59055,3.65599
0.0726916,1.73253,2.51417,2.95798,3.24422,3.4442,3.59184,3.70532,3.79528,3.86834
0.0884447,1.97516,2.74189,3.14642,3.39614,3.56559,3.68808,3.78076,3.85332,3.91166
0.074211,1.6095,2.24579,2.59987,2.82734,2.98627,3.10373,3.19413,3.26588,3.32423
0.0826108,1.95519,2.86175,3.40484,3.76703,4.02567,4.21953,4.37019,4.49062,4.58907
0.0745606,1.76813,2.53995,2.97231,3.24665,3.43563,3.57353,3.67852,3.76109,3.82772
0.0737613,1.86874,2.74263,3.25058,3.58236,3.8162,3.98998,4.12424,4.23112,4.31822
0.0751521,2.02518,2.98975,3.54531,3.90498,4.15654,4.34226,4.48495,4.598,4.68976
0.0727273,2.07366,3.05521,3.61162,3.9686,4.2169,4.39954,4.53952,4.65021,4.73994
0.0750062,2.06754,2.92991,3.39126,3.67848,3.87458,4.01704,4.12523,4.2102,4.2787
0.0743578,2.10219,3.03296,3.56662,3.91548,4.16207,4.34581,4.48811,4.60159,4.69422
0.0736168,2.15545,3.13463,3.69752,4.06292,4.31897,4.50822,4.65374,4.76908,4.86273
0.0858755,2.58678,3.77264,4.45368,4.89513,5.20434,5.43296,5.60884,5.74835,5.86171
0.071991,2.22283,3.23556,3.81204,4.18365,4.44303,4.63432,4.78122,4.89757,4.992
0.0731174,2.36108,3.45193,4.07337,4.4741,4.75386,4.96023,5.11872,5.24426,5.34616
0.0730305,2.27205,3.21764,3.73007,4.05138,4.2717,4.43219,4.55432,4.65036,4.72788
0.0715819,2.17648,3.08263,3.59065,3.91783,4.14666,4.31585,4.44609,4.54947,4.63354
0.0722315,2.3076,3.3606,3.97861,4.38572,4.6741,4.88903,5.05536,5.18789,5.29596
0.119266,4.03853,5.96107,7.08487,7.81837,8.33373,8.71529,9.00903,9.24208,9.43145
0.0704288,2.43986,3.56766,4.20779,4.6186,4.90432,5.1145,5.27558,5.40297,5.50623
0.0698019,2.51834,3.67921,4.33436,4.75438,5.04659,5.26164,5.42653,5.55699,5.66279
0.063269,0.410422,0.431765,0.439427,0.443388,0.445812,0.44745,0.448631,0.449523,0.450221
0.0615474,0.699464,1.04082,1.33941,1.60734,1.85,2.07109,2.27348,2.4595,2.63108
0.061775,1.1185,2.03874,2.84725,3.50557,4.02743,4.43958,4.76725,5.03062,5.24495
0.0623159,1.59153,2.97512,3.92862,4.54714,4.96142,5.25266,5.46681,5.63032,5.75906
0.0620894,1.9652,3.39543,4.17713,4.63792,4.93983,5.15362,5.31351,5.43791,5.53764
0.0623542,2.344,3.85457,4.65253,5.14419,5.48139,5.72855,5.91803,6.06813,6.19007
0.197748,8.3324,13.0759,15.5632,17.1199,18.1944,18.9827,19.5861,20.063,20.4494
0.063695,2.7596,4.1327,4.86067,5.32215,5.64264,5.87856,6.05959,6.20293,6.31925
0.0631267,2.77974,4.07361,4.77823,5.22948,5.54408,5.77608,5.95427,6.09544,6.21003
0.0617218,2.81432,4.11821,4.84803,5.3192,5.64877,5.89222,6.07941,6.22781,6.34835
0.0608574,2.81184,4.0646,4.75686,5.19749,5.50245,5.72597,5.8968,6.0316,6.14066
0.17292,7.9633,11.3742,13.2455,14.4313,15.2504,15.8502,16.3083,16.6698,16.9623
0.0613587,2.90874,4.21209,4.95603,5.43918,5.77855,6.03013,6.22411,6.37826,6.50371
0.061359,2.94912,4.26495,5.00949,5.48818,5.82159,6.06703,6.25522,6.40407,6.52474
0.0612624,2.98322,4.3105,5.05992,5.54126,5.87649,6.12338,6.31278,6.46269,6.58429
0.0608184,3.04954,4.42934,5.21314,5.71827,6.07085,6.33092,6.53065,6.68887,6.81729
0.144129,7.55248,11.0736,13.0947,14.4046,15.3222,16.0008,16.5229,16.9371,17.2736
0.0616786,3.21588,4.66227,5.47927,6.00436,6.37034,6.64004,6.84706,7.01097,7.14397
0.0618914,3.04642,4.29287,4.97157,5.39914,5.69338,5.90828,6.07214,6.20122,6.30553
0.0723693,3.77775,5.50823,6.51929,7.18486,7.65669,8.00879,8.28165,8.49933,8.67706
0.0659936,3.44636,4.97423,5.8352,6.38575,6.76747,7.04745,7.26148,7.43035,7.56698
0.147343,8.09331,11.8637,14.0364,15.4478,16.4384,17.172,17.7372,18.186,18.5511
0.0617571,3.33504,4.81724,5.65255,6.18856,6.56176,6.83658,7.04739,7.21424,7.34957
0.0624461,3.42327,4.95771,5.82904,6.39114,6.78392,7.07392,7.29681,7.47348,7.61696
0.062298,3.29047,4.65685,5.40329,5.87348,6.19675,6.43262,6.61231,6.75375,6.86797
0.0616505,3.08545,4.31695,4.99364,5.42349,5.72121,5.93975,6.10705,6.23927,6.34641
0.144611,7.83217,11.4137,13.5094,14.886,15.8592,16.5835,17.1434,17.5891,17.9524
0.0623271,3.39857,4.92248,5.78758,6.34279,6.72869,7.01227,7.22938,7.40091,7.53982
0.0623373,3.55168,5.20753,6.16199,6.78176,7.21657,7.5385,7.78647,7.98335,8.14348
0.0617797,3.66929,5.39448,6.38063,7.01688,7.46105,7.78861,8.0401,8.23925,8.40085
0.122172,7.5301,11.0353,13.012,14.2779,15.1575,15.8041,16.2995,16.6912,17.0086
0.0625444,3.76035,5.41269,6.3336,6.92245,7.33196,7.63342,7.86469,8.04775,8.19628
0.0624264,3.85339,5.61147,6.62146,7.2791,7.74175,8.08502,8.34985,8.56038,8.73175
0.0627787,3.94827,5.74264,6.76177,7.41791,7.87527,8.21213,8.4705,8.67492,8.84068
0.0612485,3.9577,5.75614,6.77127,7.42228,7.87507,8.20817,8.46349,8.66541,8.82911
0.0622772,3.79528,5.37632,6.24514,6.79597,7.1768,7.45595,7.6694,7.83794,7.9744
0.0626114,3.89955,5.62805,6.6221,7.27025,7.72676,8.06579,8.32756,8.5358,8.70541
0.0887335,5.67435,8.25644,9.74076,10.7027,11.376,11.8734,12.2556,12.5584,12.8043
0.0660813,4.42279,6.48263,7.66085,8.42064,8.95063,9.3412,9.64091,9.87814,10.0706
0.0625181,3.88785,5.44663,6.27444,6.78692,7.13539,7.38773,7.57892,7.72879,7.84943
0.0625596,4.02486,5.8224,6.86718,7.55543,8.0444,8.41013,8.69417,8.92121,9.10688
0.0616789,3.98672,5.74689,6.74326,7.38255,7.82672,8.15292,8.40248,8.59949,8.75893
0.0615869,4.15034,6.074,7.18567,7.90898,8.41707,8.79355,9.08371,9.31421,9.50173
0.0610709,4.31358,6.34406,7.50536,8.25404,8.77614,9.16081,9.45591,9.68944,9.87882
