0.342137,0.432489,0.474235,0.498283,0.51392,0.524901,0.533036,0.539305,0.544284,0.548333
0.184783,0.322989,0.406644,0.461683,0.500454,0.529186,0.551313,0.568869,0.583134,0.594953
0.144967,0.328873,0.446184,0.521867,0.573733,0.611218,0.639476,0.6615,0.67913,0.693551
0.492552,1.38934,1.95997,2.31546,2.55331,2.72262,2.84902,2.94689,3.02488,3.08848
0.110046,0.361873,0.510336,0.597333,0.653613,0.692876,0.721801,0.743989,0.761545,0.775783
0.0979913,0.383036,0.55383,0.655876,0.723264,0.771069,0.806751,0.834406,0.856472,0.874488
0.0834652,0.375468,0.545277,0.644725,0.709592,0.755185,0.788966,0.814991,0.835655,0.852457
0.0804675,0.419749,0.619976,0.73921,0.818054,0.874045,0.915861,0.948282,0.974155,0.995283
0.0747311,0.446622,0.664739,0.793846,0.878806,0.938893,0.983618,1.0182,1.04573,1.06816
0.344327,2.26676,3.34206,3.96471,4.36985,4.65445,4.86533,5.02786,5.15696,5.26199
0.0708694,0.507113,0.742767,0.87839,0.966559,1.0285,1.07442,1.10982,1.13796,1.16085
0.065942,0.445912,0.618146,0.711475,0.770316,0.810874,0.840546,0.863203,0.881074,0.895532
0.0666974,0.526362,0.77771,0.931785,1.03646,1.1123,1.1698,1.21491,1.25124,1.28113
0.0637091,0.544282,0.799586,0.948209,1.0447,1.11215,1.16186,1.19999,1.23014,1.25458
0.0595152,0.566785,0.845352,1.01005,1.11848,1.19523,1.25243,1.29671,1.33201,1.3608
0.0599366,0.622738,0.92905,1.1083,1.22562,1.30833,1.36977,1.4172,1.45493,1.48565
0.0661083,0.720777,1.05985,1.25413,1.38002,1.46825,1.53354,1.58382,1.62372,1.65617
0.0597366,0.686212,1.00636,1.19098,1.31136,1.39613,1.45907,1.50767,1.54633,1.57781
0.0564354,0.690817,1.02096,1.21497,1.34289,1.43361,1.5013,1.55374,1.59557,1.62971
0.0545225,0.71159,1.05434,1.25503,1.38667,1.47959,1.54866,1.60202,1.64447,1.67904
0.0537188,0.741516,1.09874,1.30761,1.44457,1.5413,1.61324,1.66886,1.71313,1.74921
0.0552658,0.776133,1.12801,1.32718,1.45525,1.54453,1.61031,1.66079,1.70076,1.73319
0.0540639,0.797614,1.17315,1.39379,1.53953,1.6431,1.72054,1.78064,1.82866,1.8679
0.0587265,0.902575,1.32614,1.57261,1.73369,1.84713,1.9313,1.99621,2.04779,2.08976
0.051497,0.775152,1.11661,1.31154,1.43789,1.52651,1.59212,1.64267,1.68282,1.71548
0.0514263,0.818192,1.19741,1.41951,1.56546,1.66868,1.74554,1.80499,1.85234,1.89094
0.159661,2.67796,3.93414,4.66307,5.13764,5.47082,5.71746,5.90735,6.05804,6.18052
0.0532809,0.944015,1.39882,1.66635,1.84242,1.96709,2.06003,2.13198,2.18934,2.23614
0.0508423,0.951027,1.41642,1.69094,1.87181,1.99992,2.09541,2.16933,2.22824,2.27629
0.0503445,0.958755,1.40877,1.66793,1.83628,1.95443,2.0419,2.10928,2.16278,2.20628
0.0488407,0.968985,1.42837,1.69565,1.87065,1.99418,2.08606,2.15707,2.2136,2.25967
0.0482734,0.98585,1.44733,1.71379,1.88727,2.0092,2.09958,2.16925,2.22458,2.2696
0.0491568,1.02677,1.50364,1.77933,1.95917,2.08578,2.17977,2.2523,2.30999,2.35696
0.0489097,1.0111,1.45865,1.71261,1.87644,1.99093,2.07546,2.14043,2.19193,2.23375
0.0485881,1.07176,1.58866,1.89744,2.10314,2.25007,2.36029,2.44603,2.51464,2.57079
0.0575912,1.34427,2.00642,2.39843,2.65661,2.8392,2.97505,3.08004,3.16358,3.23163
0.0476563,1.07884,1.55711,1.82495,1.99598,2.11465,2.20181,2.26855,2.3213,2.36404
0.0483449,1.13189,1.66125,1.97301,2.1794,2.32638,2.43645,2.522,2.59041,2.64638
0.0469183,1.16354,1.73106,2.06777,2.29022,2.44794,2.56552,2.65651,2.729,2.7881
0.0474964,1.17931,1.72509,2.03801,2.24049,2.38216,2.48681,2.56728,2.63108,2.6829
0.0463944,1.16177,1.69162,1.99584,2.19353,2.33241,2.43536,2.51475,2.57783,2.62918
0.120217,3.18571,4.72638,5.63922,6.24342,6.67293,6.99394,7.24294,7.44172,7.60407
0.0463316,1.23174,1.80893,2.14431,2.3634,2.51769,2.63222,2.72059,2.79085,2.84804
0.0457485,1.27685,1.89817,2.26572,2.50851,2.68083,2.80948,2.90918,2.98872,3.05366
0.0459054,1.33626,1.98938,2.3726,2.62398,2.80144,2.93336,3.03527,3.11634,3.18238
0.0443232,1.30623,1.91954,2.27108,2.49872,2.65813,2.776,2.86669,2.93863,2.9971
0.115261,3.35432,4.86257,5.72002,6.27455,6.66297,6.95034,7.1716,7.34724,7.49005
0.0449788,1.2411,1.78719,2.10563,2.31575,2.46512,2.57684,2.6636,2.73293,2.78962
0.045462,1.28628,1.87753,2.22582,2.45521,2.6175,2.7383,2.83168,2.90599,2.96654
0.0453592,1.35475,2.01255,2.40459,2.66392,2.84795,2.98523,3.09155,3.17632,3.24548
0.0441801,1.3611,2.01049,2.38647,2.63045,2.80133,2.92762,3.02474,3.10175,3.16429
0.153907,4.87099,7.17655,8.50741,9.37313,9.98151,10.4326,10.7804,11.0569,11.2819
0.0443134,1.48085,2.20864,2.63757,2.92041,3.12098,3.27064,3.38658,3.47906,3.55453
0.0442761,1.48682,2.18476,2.58517,2.8447,3.02654,3.16101,3.26449,3.34658,3.41328
0.0434144,1.47492,2.15962,2.55376,2.81037,2.99085,3.12476,3.22807,3.31021,3.37708
0.0434315,1.55066,2.3066,2.75407,3.05018,3.26065,3.41794,3.53994,3.63733,3.71687
0.0433406,1.58234,2.34121,2.78249,3.07054,3.2732,3.42348,3.53935,3.6314,3.70629
0.0435456,1.60512,2.3606,2.79763,3.08267,3.28333,3.43229,3.54726,3.6387,3.71316
0.0442309,1.65831,2.43867,2.8918,3.18814,3.39712,3.55242,3.67237,3.76782,3.84557
0.0502796,1.90706,2.79342,3.30446,3.63691,3.87043,4.04346,4.17679,4.28268,4.36881
0.10688,4.24242,6.2988,7.51113,8.31075,8.87777,9.3008,9.62853,9.88989,10.1032
0.044024,1.73712,2.54616,3.01272,3.31618,3.52932,3.68723,3.8089,3.90553,3.98412
0.0426965,1.69491,2.4813,2.93701,3.23479,3.44472,3.60071,3.72119,3.81706,3.89516
0.0424678,1.75717,2.60686,3.10883,3.44024,3.67535,3.85079,3.9867,4.09509,4.18354
0.0884174,3.7627,5.56943,6.61985,7.30484,7.78638,8.14324,8.41824,8.63663,8.81424
0.0425304,1.77849,2.59942,3.07279,3.38134,3.59859,3.75993,3.88451,3.98362,4.06436
0.0422092,1.80491,2.65713,3.15603,3.48397,3.71602,3.88889,4.02265,4.12922,4.21613
0.0457737,2.03858,3.02684,3.60793,3.98986,4.25984,4.46072,4.61599,4.7396,4.84031
0.0873624,3.9029,5.72833,6.77719,7.45718,7.93366,8.28606,8.55727,8.77244,8.94732
0.0420372,1.86825,2.74467,3.259,3.59848,3.83967,4.01997,4.15989,4.27167,4.36302
0.0417086,1.90897,2.83072,3.37656,3.73734,3.99339,4.18446,4.33246,4.45048,4.54676
0.0422436,1.9917,2.95361,3.51561,3.88307,4.14183,4.33382,4.4819,4.59958,4.69533
0.0848407,4.14597,6.166,7.34685,8.12037,8.66622,9.07204,9.3856,9.63515,9.83849
0.0430225,1.94262,2.78347,3.25506,3.55782,3.76892,3.92461,4.04421,4.13897,4.21592
0.0426244,1.99114,2.93343,3.49669,3.87304,4.14259,4.34525,4.50318,4.62975,4.73345
0.0431848,2.10558,3.14111,3.75949,4.1691,4.45986,4.67675,4.84466,4.97845,5.08755
0.0523805,2.64008,3.9417,4.70884,5.21271,5.56862,5.83331,6.03786,6.20065,6.3333
0.0427318,2.17357,3.21082,3.80991,4.19947,4.47306,4.67578,4.83201,4.95612,5.05708
0.043017,2.15019,3.14857,3.72736,4.1064,4.37424,4.57367,4.72799,4.85096,4.95127
0.0421045,2.02569,2.90979,3.40836,3.72882,3.95216,4.1167,4.24296,4.34289,4.42396
0.0419431,2.15305,3.20651,3.84176,4.26752,4.57294,4.80276,4.98199,5.12569,5.24346
0.0424802,2.24927,3.33962,3.97615,4.39109,4.68235,4.89782,5.06359,5.19503,5.30178
0.0424902,2.23287,3.28643,3.89881,4.29951,4.58236,4.7928,4.95554,5.08517,5.19088
0.0424005,2.30922,3.43613,4.10288,4.54364,4.85668,5.0905,5.27178,5.41643,5.53454
0.0816296,4.59495,6.83629,8.14555,9.00181,9.60491,10.0525,10.3977,10.6721,10.8954
0.0440825,2.39829,3.5024,4.13793,4.552,4.84352,5.06,5.22717,5.36018,5.46854
0.0482046,2.49836,3.58567,4.20228,4.60064,4.87943,5.0855,5.24405,5.36981,5.47201
0.0410794,2.19861,3.23487,3.85201,4.26257,4.55555,4.77515,4.94589,5.08244,5.19415
0.0777337,4.47686,6.72742,8.07383,8.96468,9.59621,10.0667,10.4306,10.7203,10.9564
0.0411839,2.34493,3.46473,4.11528,4.53972,4.8385,5.06026,5.23141,5.36752,5.47837
0.0410679,2.39714,3.5611,4.2463,4.69802,5.0184,5.2575,5.44279,5.59062,5.7113
0.0403907,2.4578,3.67174,4.38605,4.85565,5.18768,5.43479,5.62582,5.7779,5.90184
0.0758748,4.74672,7.04907,8.37961,9.24444,9.85131,10.3006,10.6465,10.9211,11.1444
0.0415737,2.46431,3.55998,4.17833,4.57694,4.85568,5.0617,5.22024,5.34603,5.44829
0.0408223,2.49319,3.67126,4.36629,4.82647,5.15392,5.39887,5.58905,5.74097,5.86513
0.384496,24.1656,35.6521,42.3268,46.676,49.7299,51.9903,53.7302,55.1104,56.2319
0.0407696,2.46816,3.59355,4.24441,4.66975,4.96982,5.193,5.36555,5.50297,5.61502
0.0406094,2.5178,3.71908,4.4315,4.90347,5.23919,5.49019,5.68494,5.84043,5.96745
0.0401442,2.55059,3.7882,4.52019,5.0028,5.3446,5.59927,5.79631,5.95327,6.08125
0.0397527,2.58972,3.8507,4.59129,5.07739,5.42075,5.67614,5.87352,6.03063,6.15866
