0.592547,0.700821,0.746277,0.77129,0.787119,0.798037,0.806024,0.812119,0.816924,0.820809
0.272636,0.439427,0.532621,0.591446,0.631839,0.661258,0.683629,0.70121,0.715387,0.727062
0.325853,0.675734,0.879504,1.00465,1.08783,1.14671,1.19044,1.22413,1.25086,1.27256
0.31358,0.891797,1.28741,1.54749,1.72786,1.8595,1.95959,2.03818,2.10149,2.15358
0.238039,0.583996,0.713492,0.772502,0.805377,0.826163,0.840447,0.850851,0.858761,0.864974
0.228441,0.827247,1.22547,1.50116,1.70607,1.86534,1.99308,2.09794,2.18565,2.26013
0.334148,1.58237,2.45694,3.01729,3.39494,3.66287,3.86128,4.01341,4.13342,4.23031
0.18762,1.08436,1.67522,2.02303,2.2463,2.40082,2.51393,2.60028,2.66836,2.72343
0.191351,1.27797,1.93839,2.31337,2.55333,2.72028,2.84329,2.93778,3.01267,3.07349
0.181593,1.33516,1.98048,2.34196,2.57387,2.73571,2.8552,2.94709,3.01996,3.07918
0.17708,1.25728,1.74236,1.99305,2.14707,2.25149,2.32699,2.38413,2.42889,2.46489
0.155352,1.28514,1.8934,2.25877,2.50542,2.68369,2.81871,2.92457,3.00983,3.07997
0.186708,1.35361,1.80412,2.0286,2.16246,2.25107,2.31396,2.36086,2.39715,2.42607
0.191562,1.50889,2.10906,2.45354,2.67966,2.84009,2.96005,3.05322,3.12771,3.18866
0.146109,1.42169,2.16632,2.64177,2.9703,3.21023,3.39285,3.53637,3.65206,3.74727
0.147881,1.60826,2.42807,2.90748,3.21652,3.43094,3.588,3.70783,3.8022,3.87841
0.148181,1.74627,2.61415,3.11489,3.4396,3.66741,3.83622,3.96641,4.06991,4.1542
0.281465,3.58922,5.36139,6.38664,7.05538,7.52648,7.87644,8.1467,8.36173,8.53689
0.160866,2.19992,3.27625,3.89855,4.30448,4.59028,4.80244,4.96616,5.09634,5.20233
0.16304,2.31514,3.398,4.01335,4.41076,4.6887,4.89403,5.05192,5.17712,5.27882
0.158825,2.38562,3.50683,4.15094,4.56992,4.8644,5.08273,5.25109,5.38487,5.49374
0.160023,2.43662,3.52382,4.13557,4.52836,4.80195,5.00348,5.15809,5.28047,5.37974
0.165509,2.27594,3.119,3.56293,3.83791,4.02518,4.16098,4.264,4.34482,4.40994
0.226675,3.5156,5.16877,6.17931,6.86647,7.36517,7.74392,8.04147,8.28146,8.47914
0.150261,2.45864,3.61624,4.29256,4.73256,5.04045,5.26751,5.44167,5.57939,5.69099
0.170853,2.99834,4.45216,5.304,5.86124,6.25388,6.54546,6.77058,6.94965,7.0955
0.303842,5.40968,7.88954,9.29665,10.2018,10.8329,11.2982,11.6554,11.9383,12.168
0.163817,3.20741,4.77141,5.68198,6.27695,6.69606,7.00722,7.24737,7.43832,7.59377
0.198752,4.11948,6.10376,7.24132,7.97711,8.49175,8.87181,9.16396,9.39552,9.58356
0.194998,4.07036,5.91598,6.95193,7.61614,8.07864,8.41934,8.68081,8.88784,9.05583
0.170742,3.23746,4.45429,5.08946,5.48067,5.74605,5.93795,6.08321,6.19698,6.28851
0.157334,2.8302,3.87546,4.4419,4.80044,5.04845,5.2304,5.36966,5.47971,5.56887
0.167866,3.46952,5.14688,6.18998,6.90411,7.42382,7.81895,8.12947,8.3799,8.58613
0.144523,3.18047,4.72356,5.62982,6.21893,6.63047,6.93349,7.16561,7.34898,7.49743
0.179308,4.17841,6.21973,7.40911,8.18392,8.72849,9.13227,9.44368,9.69121,9.89273
0.154959,3.80502,5.65129,6.71616,7.40734,7.89216,8.25106,8.52746,8.74689,8.92532
0.14347,3.08505,4.2437,4.84269,5.20916,5.45673,5.63525,5.77011,5.87559,5.96035
0.156475,3.71949,5.48218,6.55939,7.29429,7.82959,8.23746,8.55879,8.81858,9.033
0.322704,8.33367,12.5082,15.0122,16.6683,17.8397,18.7101,19.3814,19.9145,20.3478
0.154909,4.15039,6.17524,7.35195,8.11692,8.65339,9.05034,9.35593,9.59847,9.79566
0.192851,5.36567,7.96013,9.46315,10.443,11.1326,11.6446,12.0397,12.354,12.61
0.142492,3.29809,4.45311,5.03475,5.38537,5.61994,5.78791,5.91415,6.01248,6.09124
0.204434,5.36257,7.91117,9.49216,10.5829,11.384,11.9984,12.4848,12.8798,13.2069
0.160037,4.51433,6.78275,8.15781,9.0728,9.72248,10.2064,10.5803,10.8775,11.1194
0.162446,4.77009,7.09163,8.43414,9.30173,9.90712,10.3533,10.6956,10.9666,11.1865
0.194272,5.93895,8.82698,10.5042,11.5994,12.3714,12.9452,13.3886,13.7416,14.0293
0.151482,4.50782,6.53557,7.68097,8.41867,8.93398,9.31444,9.60692,9.83878,10.0271
0.298714,9.10409,13.315,15.7613,17.3655,18.4997,19.3442,19.9976,20.5182,20.9427
0.166279,5.38852,7.95969,9.44866,10.4166,11.0952,11.5969,11.9827,12.2885,12.5369
0.173016,4.53957,6.04374,6.78263,7.22104,7.51121,7.71744,7.87156,7.99112,8.08656
0.147511,4.58995,6.83064,8.24589,9.23456,9.96759,10.5339,10.9849,11.3528,11.6587
0.171729,5.97264,9.12675,11.0591,12.3475,13.2617,13.9418,14.4663,14.8826,15.2208
0.147546,5.50457,8.34889,10.0085,11.0837,11.835,12.3891,12.8145,13.1515,13.4251
0.180072,6.92735,10.3142,12.2365,13.4728,14.3356,14.9722,15.4616,15.8496,16.1648
0.153383,5.28383,7.34524,8.41451,9.07096,9.51564,9.837,10.0802,10.2706,10.4238
0.147136,5.38229,7.86031,9.33591,10.3272,11.0415,11.5816,12.0045,12.3448,12.6245
0.161097,6.24091,9.27951,11.0896,12.287,13.1354,13.7669,14.2549,14.6431,14.959
0.152431,5.16538,7.11244,8.12154,8.73585,9.14847,9.44457,9.66735,9.84103,9.98023
0.147605,5.61014,8.32056,9.98133,11.1134,11.9375,12.5651,13.0595,13.4592,13.789
0.143554,5.88231,8.88549,10.7004,11.9069,12.7638,13.4026,13.8965,14.2896,14.6098
0.289321,12.1377,18.064,21.4907,23.7103,25.2629,26.4095,27.2908,27.9894,28.5567
0.147717,6.15673,9.01005,10.6335,11.6823,12.4166,12.9597,13.3778,13.7097,13.9797
0.140968,6.13694,9.13891,10.9213,12.1057,12.9508,13.5844,14.0771,14.4713,14.7939
0.279844,11.9166,17.3945,20.5349,22.5708,23.9972,25.0519,25.8633,26.5067,27.0295
0.146092,5.40132,7.43132,8.50602,9.17294,9.62752,9.95736,10.2077,10.4041,10.5624
0.279886,11.5583,17.2276,20.7772,23.2291,25.0286,26.4069,27.4968,28.3806,29.1117
0.147946,6.57619,9.92154,11.9316,13.2575,14.1928,14.886,15.4197,15.8427,16.1861
0.164859,7.67633,11.5137,13.7483,15.2002,16.2179,16.9707,17.5501,18.0099,18.3837
0.153433,7.40686,11.0516,13.1596,14.5318,15.4969,16.213,16.7656,17.2049,17.5627
0.164483,8.19552,12.1912,14.5042,16.014,17.0777,17.8679,18.4781,18.9635,19.3589
0.144423,7.22438,10.6335,12.5919,13.8657,14.7612,15.4251,15.9372,16.3441,16.6753
0.161207,8.13839,11.9716,14.1969,15.6547,16.6844,17.4506,18.043,18.5148,18.8994
0.284677,13.9672,20.2691,23.8824,26.2307,27.8802,29.1025,30.0446,30.793,31.4018
0.168271,8.24542,12.0542,14.2913,15.7676,16.8155,17.5981,18.2048,18.689,19.0844
0.200876,9.19951,13.1679,15.435,16.9041,17.9338,18.6955,19.2818,19.7471,20.1253
0.157582,7.26853,10.5917,12.5598,13.8638,14.7915,15.4855,16.0242,16.4545,16.8061
0.141365,6.99589,10.4794,12.5822,13.9826,14.9802,15.7263,16.305,16.7668,17.1439
0.134014,7.02552,10.6065,12.7422,14.1515,15.1494,15.8927,16.4677,16.9257,17.299
0.14699,7.93416,11.876,14.1739,15.6738,16.7297,17.5132,18.1178,18.5985,18.9899
0.150923,8.29316,12.3486,14.714,16.2656,17.3627,18.18,18.8124,19.3165,19.7276
0.136411,7.57636,11.2473,13.3982,14.8145,15.8182,16.5669,17.1468,17.6094,17.9868
0.146406,8.18178,12.0769,14.3422,15.8247,16.8704,17.6475,18.2477,18.7252,19.1141
0.268861,15.1653,22.4653,26.7781,29.6321,31.6617,33.1795,34.3574,35.2983,36.0672
0.146903,7.99159,11.5323,13.5229,14.7969,15.6816,16.3316,16.8291,17.2222,17.5406
0.162505,9.0374,13.2551,15.7306,17.3641,18.524,19.3908,20.0633,20.6003,21.0391
0.168436,8.30494,11.4814,13.1592,14.1943,14.8959,15.4025,15.7853,16.0846,16.3252
0.137691,7.23648,10.5504,12.5322,13.8606,14.8155,15.5359,16.099,16.5515,16.9231
0.13537,7.75917,11.6576,14.0088,15.5706,16.6797,17.5065,18.146,18.6551,19.0699
0.138276,8.35521,12.5344,14.9742,16.5604,17.6717,18.4931,19.1247,19.6255,20.0322
0.13733,8.53644,12.7449,15.1915,16.7898,17.9165,18.7541,19.4013,19.9166,20.3366
0.146128,6.0148,7.6212,8.35449,8.77493,9.04772,9.23907,9.38074,9.48985,9.57648
0.136936,6.05502,8.44956,9.88688,10.8649,11.5777,12.1215,12.5505,12.8977,13.1847
0.132158,6.97635,10.6863,13.1085,14.7987,16.0377,16.9818,17.7236,18.321,18.8122
0.132786,7.1569,10.598,12.5531,13.787,14.6302,15.2411,15.7033,16.065,16.3557
0.132433,7.81685,11.9007,14.3494,15.9776,17.1405,18.014,18.6947,19.2404,19.6879
0.152701,9.25976,13.8308,16.4475,18.1355,19.314,20.183,20.8501,21.3783,21.8068
0.240619,15.4456,23.2304,27.7777,30.763,32.8753,34.4495,35.6682,36.6399,37.4327
0.133334,8.82566,13.1435,15.6204,17.2263,18.3518,19.1842,19.8249,20.3331,20.7461
0.130972,8.98667,13.4145,15.9934,17.6854,18.882,19.7733,20.463,21.0127,21.4611
0.129457,7.74562,10.7499,12.3213,13.289,13.9451,14.4192,14.7779,15.0587,15.2845
