0.773912,0.881695,0.924619,0.947688,0.96209,0.971937,0.979095,0.984533,0.988804,0.992248
13.7419,21.4564,25.6737,28.3108,30.1121,31.4196,32.4116,33.1898,33.8165,34.3321
0.476261,0.975248,1.26487,1.44231,1.55999,1.64313,1.70476,1.75217,1.78974,1.82022
0.424683,1.08379,1.46028,1.67991,1.82068,1.91792,1.98894,2.04301,2.08553,2.11984
0.402157,1.25336,1.73317,2.00637,2.17984,2.29933,2.38655,2.453,2.50531,2.54754
0.390679,1.4392,2.00963,2.32639,2.5256,2.66219,2.76164,2.83727,2.89672,2.94468
0.391721,1.64834,2.30253,2.66056,2.88521,3.03928,3.15152,3.23695,3.30414,3.35839
0.35659,1.66463,2.30519,2.64775,2.86036,3.00514,3.11009,3.18965,3.25204,3.30228
0.356941,1.88459,2.64263,3.05826,3.32088,3.50197,3.63444,3.73557,3.81532,3.87981
0.553825,3.15562,4.36878,5.01349,5.41253,5.68362,5.87972,6.02813,6.14435,6.23782
0.341459,2.067,2.83594,3.24181,3.49289,3.66365,3.78737,3.88114,3.95467,4.01388
0.329365,2.27075,3.21434,3.7421,4.08,4.31503,4.48801,4.62065,4.7256,4.81072
0.395854,3.00092,4.2476,4.92688,5.35213,5.64277,5.85378,6.01385,6.1394,6.24049
0.326546,2.68821,3.7957,4.39319,4.76614,5.02103,5.20627,5.34699,5.45753,5.54666
0.327901,2.91912,4.12313,4.77411,5.18187,5.46136,5.66492,5.8198,5.94161,6.03992
0.324697,3.04417,4.2623,4.91321,5.31841,5.59498,5.79581,5.94825,6.06792,6.16436
0.385593,3.83445,5.3765,6.20924,6.73152,7.08988,7.35109,7.54997,7.70645,7.8328
0.326084,3.40214,4.75643,5.48497,5.94028,6.25179,6.47832,6.65045,6.78568,6.89472
0.359251,3.77197,5.20732,5.97303,6.45019,6.77628,7.01331,7.19342,7.33491,7.44902
0.533807,5.96079,8.33178,9.62538,10.4409,11.0021,11.412,11.7244,11.9704,12.1691
0.365203,4.32876,6.09866,7.07005,7.68318,8.10516,8.41325,8.64803,8.83287,8.98218
0.533021,6.62467,9.30518,10.753,11.657,12.2747,12.7233,13.0639,13.3312,13.5466
0.308282,3.1103,3.98057,4.39041,4.62879,4.78476,4.89478,4.97656,5.03973,5.09001
0.303591,3.71478,5.30596,6.26847,6.92269,7.39842,7.76058,8.04577,8.27627,8.46649
0.305895,4.20188,6.08929,7.15836,7.83531,8.29864,8.63421,8.88782,9.08593,9.24479
0.317599,4.75644,6.87635,8.036,8.75963,9.25315,9.61115,9.88273,10.0958,10.2676
0.412853,6.36303,8.96016,10.3152,11.144,11.7035,12.1067,12.4112,12.6492,12.8405
0.377708,6.1829,8.76911,10.1689,11.0506,11.6583,12.103,12.4426,12.7106,12.9275
0.326998,5.50677,7.7315,8.91752,9.65537,10.1587,10.5238,10.8008,11.0181,11.1931
0.300238,5.22301,7.32718,8.45915,9.16794,9.6538,10.0077,10.277,10.4888,10.6598
0.327223,5.83233,8.15197,9.39625,10.1731,10.7042,11.0903,11.3836,11.614,11.7998
0.320826,5.73567,7.94187,9.11375,9.84141,10.3373,10.697,10.9698,11.1839,11.3563
0.281087,2.27724,2.5749,2.69365,2.75766,2.79771,2.82514,2.84511,2.86029,2.87223
0.27797,3.36907,4.9036,6.03231,6.91779,7.63528,8.22974,8.73083,9.15917,9.52965
0.385528,6.15962,9.70396,12.0461,13.629,14.7408,15.5521,16.1644,16.6401,17.0185
0.277996,5.30322,8.24817,9.91632,10.9389,11.6201,12.1043,12.4658,12.7459,12.9694
0.373061,5.93377,7.85747,8.69386,9.15371,9.44486,9.64618,9.79392,9.90705,9.99653
0.275737,5.37152,7.86956,9.33665,10.3271,11.0479,11.5982,12.0327,12.385,12.6764
0.371665,8.32707,12.3827,14.6657,16.1161,17.1125,17.8362,18.3842,18.8129,19.157
0.27844,6.65394,9.66606,11.266,12.251,12.9171,13.3975,13.7602,14.0438,14.2717
0.285859,5.05677,6.39309,6.97981,7.3102,7.52247,7.6705,7.77968,7.86356,7.93003
0.282264,6.16084,8.87285,10.5391,11.6936,12.5465,13.2039,13.7269,14.1531,14.5072
0.299065,7.46472,11.0311,13.0982,14.4247,15.3392,16.004,16.5076,16.9014,17.2173
0.288196,7.77218,11.3235,13.2433,14.4278,15.2283,15.8048,16.2398,16.5796,16.8525
0.321396,8.80782,12.4806,14.3958,15.5694,16.3636,16.9373,17.3714,17.7115,17.9853
0.274161,7.91657,11.2559,13.0471,14.1694,14.9402,15.5028,15.9316,16.2694,16.5423
0.288476,8.58867,12.1612,14.0809,15.2827,16.1061,16.7056,17.1616,17.52,17.8092
0.285551,8.26901,11.4113,13.043,14.0439,14.7206,15.2088,15.5775,15.8658,16.0975
0.289454,8.83092,12.4743,14.485,15.7666,16.6562,17.3102,17.8115,18.208,18.5295
0.679613,20.4636,28.4565,32.7128,35.3527,37.148,38.4472,39.4307,40.2009,40.8202
0.446252,13.2575,18.2886,20.9556,22.6099,23.737,24.5544,25.1745,25.661,26.053
0.384005,10.7712,14.6114,16.6227,17.864,18.7072,19.3175,19.7799,20.1423,20.4339
0.438095,12.5796,17.4177,20.0662,21.7424,22.8994,23.7464,24.3933,24.9035,25.3162
0.387795,11.1071,15.3597,17.6507,19.0798,20.0551,20.7628,21.2995,21.7205,22.0594
0.426259,12.441,17.3041,19.9324,21.5759,22.7003,23.5179,24.1393,24.6275,25.0211
0.381805,11.2811,15.6915,18.0608,19.5372,20.5452,21.277,21.8324,22.2684,22.6198
0.358986,10.8412,15.1142,17.4082,18.8379,19.8142,20.5231,21.0613,21.4838,21.8243
0.355055,11.7836,16.9389,19.8255,21.6684,22.9466,23.885,24.6033,25.1706,25.6301
0.292419,10.2315,14.6495,17.0439,18.5365,19.5541,20.2916,20.8504,21.2883,21.6407
0.282622,10.3976,14.8589,17.2626,18.7627,19.7881,20.5335,21.1,21.5451,21.904
0.269566,9.78207,13.6939,15.7599,17.0399,17.9116,18.5439,19.0235,19.3999,19.7032
0.307241,11.9548,17.0949,19.9336,21.739,22.9895,23.9071,24.6092,25.1638,25.6129
0.318929,12.5249,17.6269,20.3381,22.0159,23.1552,23.9788,24.6018,25.0894,25.4813
0.301012,12.4011,17.605,20.4303,22.2067,23.4275,24.3186,24.9978,25.5327,25.9649
0.324264,13.4282,18.8463,21.733,23.5263,24.7484,25.6346,26.3067,26.8338,27.2582
0.311501,13.4405,19.0364,22.0825,24.0013,25.3215,26.2856,27.0208,27.5998,28.0678
0.313425,13.7107,19.3039,22.3101,24.1862,25.4682,26.3995,27.1066,27.6618,28.1092
0.28468,11.7803,16.1169,18.3606,19.7335,20.6606,21.3287,21.8332,22.2276,22.5445
0.303329,12.4636,17.1973,19.7491,21.3543,22.4591,23.2667,23.8829,24.3688,24.7616
0.276804,11.8896,16.7704,19.4819,21.2079,22.4024,23.2778,23.9467,24.4744,24.9013
0.304628,13.4086,18.9185,21.9174,23.7949,25.0787,26.0113,26.7192,27.2747,27.7223
0.309378,13.9881,19.7624,22.8944,24.8559,26.1996,27.1776,27.9214,28.5061,28.978
0.29773,13.6993,19.3003,22.3195,24.2061,25.4968,26.4356,27.149,27.7096,28.1617
0.284225,13.3813,18.8528,21.8027,23.6476,24.9105,25.8293,26.5279,27.0768,27.5197
0.279147,13.2967,18.6584,21.5336,23.3267,24.552,25.4423,26.1184,26.6494,27.0775
0.288656,13.9631,19.6152,22.6676,24.5807,25.8925,26.8482,27.5755,28.1476,28.6094
0.328157,16.0681,22.5612,26.0681,28.2646,29.7695,30.865,31.6982,32.3531,32.8815
0.287325,14.1942,19.9448,23.0663,25.0279,26.3751,27.3576,28.1059,28.6948,29.1704
0.31599,15.7402,22.0852,25.5151,27.6631,29.1344,30.2051,31.0192,31.6591,32.1752
0.31268,15.8322,22.2393,25.703,27.8719,29.3575,30.4387,31.2608,31.9071,32.4284
0.300306,15.2542,21.3471,24.6228,26.6683,28.067,29.084,29.8566,30.4636,30.9531
0.283285,14.7066,20.6802,23.92,25.9539,27.3496,28.3669,29.1412,29.7504,30.2421
0.622306,33.0705,46.5983,53.9233,58.5116,61.6544,63.9414,65.6801,67.0465,68.1486
0.338592,12.6392,15.7939,17.2244,18.0412,18.5696,18.9394,19.2127,19.423,19.5898
0.313259,9.05034,11.1722,12.225,12.865,13.2975,13.6099,13.8465,14.0319,14.1812
0.344903,12.9664,18.8907,22.8182,25.6334,27.7517,29.4035,30.7272,31.8118,32.7166
0.290438,13.0549,19.8306,23.9408,26.6061,28.4453,29.7801,30.7884,31.5747,32.204
0.268342,13.4446,20.1227,23.785,26.0344,27.5466,28.6313,29.4473,30.0834,30.5934
0.288593,15.3204,22.3383,26.0202,28.2721,29.7941,30.8933,31.7252,32.3771,32.9019
0.30563,17.0139,24.514,28.4786,30.9418,32.6258,33.8514,34.7839,35.5174,36.1095
0.304126,17.2682,24.5329,28.3709,30.7573,32.3872,33.5717,34.4715,35.1783,35.7481
0.27343,15.4537,21.7368,25.0916,27.1922,28.6333,29.684,30.484,31.1137,31.6222
0.272855,15.8317,22.3645,25.905,28.1329,29.6642,30.7814,31.6323,32.3021,32.8429
0.27887,16.6152,23.5069,27.242,29.5856,31.1923,32.3622,33.252,33.9515,34.5159
0.280909,16.8012,23.5813,27.2085,29.4669,31.008,32.1268,32.9758,33.6422,34.1792
0.306037,18.1607,25.2874,29.078,31.434,33.0408,34.2071,35.0923,35.7871,36.3471
0.49669,30.2895,42.6695,49.4361,53.7111,56.6584,58.8139,60.4591,61.7561,62.8048
0.304498,18.6295,26.17,30.2556,32.817,34.5722,35.8498,36.8212,37.5847,38.2005
0.277554,17.0202,23.8403,27.5165,29.8149,31.3877,32.5317,33.4012,34.0844,34.6354
0.275001,17.1282,24.0899,27.8736,30.2519,31.8855,33.0768,33.9842,34.6983,35.2749
