1.64838,1.93054,2.04736,2.11124,2.15152,2.17923,2.19947,2.2149,2.22705,2.23686
0.466317,0.745631,0.900744,0.998382,1.06532,1.11402,1.15103,1.18009,1.20352,1.22281
1.0283,2.12707,2.76598,3.15781,3.41793,3.60186,3.73834,3.84343,3.92674,3.99437
0.725084,1.86837,2.52686,2.91352,3.16253,3.33517,3.46158,3.55802,3.63399,3.69535
0.467847,1.37692,1.85352,2.11684,2.28158,2.39406,2.4757,2.53765,2.58626,2.62542
0.433332,1.51685,2.1002,2.43053,2.6418,2.78849,2.8963,2.97889,3.04419,3.09712
0.350949,1.06473,1.31356,1.42828,1.49381,1.53613,1.5657,1.58751,1.60426,1.61753
0.296988,0.95666,1.21552,1.35271,1.43883,1.49821,1.54172,1.57501,1.60131,1.62263
0.297663,1.31264,1.91008,2.29567,2.56496,2.76336,2.91544,3.03566,3.13303,3.21348
0.269868,1.55946,2.39751,2.91434,3.25409,3.49138,3.6654,3.79805,3.9023,3.98628
0.266781,1.86427,2.8396,3.3876,3.72916,3.96097,4.12833,4.2548,4.35372,4.43323
0.186437,1.0111,1.2753,1.38659,1.44745,1.48588,1.51239,1.53179,1.54662,1.55832
0.178808,1.28944,1.88621,2.26134,2.52635,2.72527,2.88062,3.00549,3.10813,3.19403
0.184333,1.56694,2.32574,2.76479,3.04607,3.23961,3.38004,3.48618,3.56903,3.63539
0.228492,2.25016,3.35084,3.96602,4.35368,4.61942,4.81281,4.95984,5.07543,5.1687
0.263758,1.95512,2.46242,2.68149,2.80306,2.88039,2.93394,2.97322,3.00329,3.02703
0.242054,1.68998,2.16092,2.40262,2.55325,2.6569,2.73279,2.79085,2.83673,2.87391
0.875621,8.37118,12.5835,15.4019,17.4319,18.9628,20.1576,21.1154,21.9001,22.5544
0.225817,1.80785,2.34916,2.60033,2.74078,2.8292,2.88953,2.93315,2.96607,2.99176
0.223674,2.40971,3.62733,4.40555,4.95236,5.36023,5.67723,5.93118,6.13942,6.31341
0.184737,1.70568,2.23781,2.4835,2.62155,2.70902,2.76904,2.81263,2.84565,2.87148
0.217953,2.54208,3.73199,4.45178,4.94113,5.29778,5.57013,5.78531,5.95978,6.1042
0.223038,2.23125,2.91585,3.23518,3.41711,3.53374,3.61452,3.67364,3.71869,3.75414
0.191053,1.90901,2.52932,2.85091,3.05031,3.18679,3.28633,3.36225,3.42211,3.47055
0.202025,2.78294,4.29881,5.30404,6.02172,6.55965,6.97764,7.31162,7.58454,7.81169
0.459842,7.85768,12.3932,15.099,16.8347,18.0247,18.885,19.5333,20.0381,20.4417
0.19078,3.65745,5.56966,6.60438,7.24048,7.66996,7.97948,8.21329,8.39625,8.54338
0.199902,4.14114,6.11834,7.15878,7.80092,8.23817,8.55569,8.79696,8.9866,9.13964
0.150612,3.30106,4.79193,5.58338,6.07817,6.41788,6.66582,6.85484,7.00375,7.1241
0.413463,9.537,13.7437,16.0112,17.4399,18.4243,19.144,19.6932,20.126,20.476
0.198058,4.69262,6.70514,7.79748,8.48734,8.963,9.3109,9.57644,9.78578,9.95506
0.209248,4.90229,6.87646,7.93219,8.59211,9.04392,9.37269,9.62267,9.81916,9.97767
0.194051,4.72689,6.70343,7.79381,8.48744,8.96786,9.32036,9.59006,9.80308,9.97559
0.224721,5.499,7.74046,8.96037,9.72775,10.2548,10.639,10.9315,11.1616,11.3473
0.203476,3.31235,4.06806,4.40489,4.59571,4.71856,4.80428,4.8675,4.91605,4.95451
0.183162,3.84329,5.56806,6.6917,7.49717,8.1062,8.58391,8.96904,9.28631,9.55228
0.403866,9.94609,14.9661,17.9991,19.9777,21.3519,22.3546,23.1153,23.7105,24.1882
0.177666,3.11488,3.94128,4.30456,4.50503,4.63153,4.71855,4.78206,4.83048,4.86861
0.163816,3.66627,5.36973,6.44464,7.20013,7.7646,8.20387,8.556,8.84486,9.08621
0.174826,4.5685,6.88336,8.24973,9.13277,9.74377,10.1889,10.5265,10.7906,11.0026
0.16431,4.69906,6.99366,8.26428,9.05895,9.60099,9.99406,10.2921,10.526,10.7144
0.174652,5.34842,7.85885,9.2228,10.077,10.6629,11.0902,11.4157,11.6721,11.8793
0.186384,6.00964,8.72644,10.1931,11.113,11.7447,12.2056,12.5569,12.8335,13.0569
0.17753,5.79608,8.26309,9.58164,10.4059,10.9708,11.3822,11.6953,11.9416,12.1404
0.161512,3.56006,4.41498,4.79467,5.01038,5.14967,5.24709,5.31906,5.3744,5.4183
0.160122,4.39615,6.33283,7.56626,8.43898,9.09275,9.60189,10.01,10.3447,10.6242
0.176232,5.43099,8.01748,9.54099,10.5244,11.2039,11.6984,12.0731,12.3662,12.6013
0.163932,5.54667,8.22065,9.7311,10.6865,11.3429,11.8212,12.1852,12.4715,12.7028
0.16299,3.73446,4.66452,5.06669,5.28972,5.43153,5.5297,5.60171,5.6568,5.70031
0.310686,8.97197,13.0215,15.5856,17.3974,18.7559,19.8154,20.666,21.3644,21.9484
0.18316,6.07644,9.10867,10.9183,12.0978,12.9187,13.5192,13.976,14.3342,14.6223
0.162421,5.93611,8.86747,10.5165,11.5557,12.2673,12.7845,13.1773,13.4858,13.7345
0.286069,10.956,15.9861,18.6884,20.3652,21.5075,22.3363,22.9654,23.4593,23.8575
0.186794,7.29507,10.4705,12.1746,13.242,13.9752,14.5105,14.9187,15.2404,15.5005
0.152178,6.02724,8.59066,9.98232,10.8611,11.4674,11.9111,12.25,12.5173,12.7335
0.736077,29.931,42.7841,49.8755,54.3864,57.5101,59.8013,61.5538,62.9374,64.0576
0.186282,6.57224,8.80745,9.92634,10.5987,11.0473,11.3679,11.6084,11.7954,11.945
0.205064,6.92266,9.42069,10.7813,11.6471,12.2486,12.6915,13.0313,13.3005,13.5191
0.200873,6.98681,9.7582,11.3114,12.3049,12.994,13.4996,13.8862,14.1912,14.438
0.175955,6.46359,9.24429,10.8255,11.841,12.5469,13.0657,13.4629,13.7768,14.031
0.169967,6.86714,10.0612,11.8871,13.0591,13.8733,14.4712,14.9288,15.2902,15.5828
0.183033,7.52077,10.785,12.5495,13.6472,14.395,14.937,15.3479,15.67,15.9294
0.161749,7.02258,10.1733,11.9273,13.0466,13.8241,14.396,14.8346,15.1818,15.4633
0.254261,11.5254,16.6636,19.4972,21.2908,22.5277,23.432,24.1218,24.6653,25.1045
0.162777,6.82366,9.40076,10.727,11.5359,12.081,12.4733,12.7692,13.0003,13.1859
0.162014,7.30489,10.4773,12.2815,13.4548,14.2808,14.8945,15.3687,15.7462,16.0538
0.181291,8.46183,12.1614,14.2238,15.5346,16.4394,17.1007,17.6048,18.0016,18.3221
0.160315,7.55975,10.7859,12.5568,13.6742,14.4433,15.0049,15.4331,15.7703,16.0429
0.177576,8.77654,12.6311,14.7722,16.1338,17.076,17.7667,18.2948,18.7117,19.0491
0.317964,15.1397,21.1605,24.3476,26.319,27.6586,28.628,29.3622,29.9374,30.4002
0.167448,5.50382,6.85802,7.47781,7.835,8.06772,8.23151,8.3531,8.44696,8.52161
0.173437,7.00973,10.1007,12.0698,13.4583,14.495,15.3001,15.9439,16.4708,16.9101
0.16019,7.29371,10.8046,12.8805,14.2217,15.1491,15.8244,16.3363,16.7369,17.0583
0.160124,7.79493,11.4632,13.507,14.789,15.665,16.3011,16.7839,17.1629,17.4685
0.241031,12.2543,17.7774,20.7689,22.6355,23.9119,24.8405,25.5467,26.1021,26.5503
0.160863,8.29885,11.931,13.9159,15.1719,16.0403,16.6771,17.1642,17.5491,17.8608
0.148137,4.94725,6.09699,6.59972,6.88228,7.06341,7.18941,7.28212,7.35319,7.4094
0.265426,11.1103,16.0451,19.2234,21.4914,23.2019,24.5412,25.6195,26.5068,27.2501
0.185623,8.84354,13.2034,15.8194,17.5253,18.7112,19.5777,20.2359,20.7516,21.1658
0.188716,9.82901,14.6347,17.3419,19.0461,20.2119,21.0585,21.7012,22.2056,22.6122
0.19943,6.5783,8.09707,8.73331,9.08062,9.29943,9.45001,9.56002,9.64393,9.71006
0.193746,8.09327,11.7542,14.1237,15.8279,17.1231,18.1439,18.9704,19.6537,20.2284
0.39735,12.0944,15.2747,16.738,17.5611,18.0822,18.439,18.6977,18.8931,19.0458
0.227592,9.35026,14.0829,17.2396,19.5254,21.2664,22.6406,23.7545,24.6767,25.4532
0.159609,2.73628,3.1101,3.25361,3.32748,3.37193,3.4014,3.4223,3.43784,3.44983
0.163534,4.46564,6.75718,8.53159,9.98332,11.2025,12.2443,13.146,13.9349,14.6312
0.155629,1.67515,1.876,1.95298,1.99166,2.01427,2.02886,2.03893,2.04625,2.05178
0.152124,2.81588,4.35409,5.62403,6.71432,7.66788,8.51179,9.26525,9.94273,10.5555
0.150996,4.30466,7.78373,10.5359,12.6001,14.1403,15.3041,16.1997,16.9023,17.4635
0.215662,6.66963,10.2529,11.9856,12.9108,13.466,13.831,14.0877,14.2778,14.424
0.385814,16.658,28.2621,35.2533,39.9102,43.277,45.8457,47.8794,49.534,50.9086
0.218522,11.9305,19.9804,24.4596,27.2605,29.1717,30.5558,31.6026,32.4209,33.0774
0.159406,6.93307,9.32542,10.3056,10.8394,11.1764,11.4088,11.579,11.709,11.8117
0.158571,8.65396,13.0494,15.6612,17.4627,18.7952,19.8247,20.6457,21.3161,21.8744
0.145696,8.95623,13.5041,16.0503,17.6704,18.7834,19.5913,20.2026,20.6803,21.0634
0.152184,10.3411,15.5303,18.3911,20.1976,21.4398,22.3463,23.037,23.5809,24.0204
0.198816,8.54964,10.5457,11.3702,11.8204,12.1042,12.2995,12.4422,12.5509,12.6366
0.138728,7.61797,11.0972,13.3405,14.9543,16.1809,17.1476,17.9303,18.5774,19.1216
0.209378,13.624,20.7487,25.0824,27.9318,29.9212,31.3778,32.4852,33.353,34.05
0.207472,13.3675,19.1403,22.1318,23.9242,25.1111,25.9536,26.5824,27.0697,27.4584
