1.10389,1.21787,1.26128,1.28416,1.2983,1.3079,1.31484,1.32009,1.32421,1.32752
0.64447,0.955876,1.11831,1.21754,1.28437,1.33241,1.36861,1.39687,1.41953,1.43811
0.515256,0.979017,1.22911,1.37699,1.4731,1.54012,1.58937,1.62701,1.65669,1.68068
0.455053,1.07945,1.41935,1.61485,1.73949,1.82537,1.88801,1.93566,1.97312,2.00332
0.430442,1.22605,1.64369,1.87411,2.01769,2.11532,2.18593,2.23933,2.28113,2.31473
1.13803,3.85079,5.26032,6.03292,6.51575,6.8456,7.08517,7.26706,7.40986,7.52495
0.421358,1.63615,2.23817,2.55942,2.75757,2.89183,2.98877,3.06203,3.11935,3.16541
0.369907,1.5728,2.12271,2.40728,2.58058,2.69719,2.78102,2.84419,2.89351,2.93308
0.361332,1.78514,2.47771,2.85552,3.09374,3.25782,3.37779,3.46933,3.5415,3.59986
0.511942,2.86842,4.01199,4.62958,5.01453,5.27703,5.46734,5.61157,5.72462,5.8156
0.350822,2.1845,3.04681,3.50339,3.78484,3.97552,4.1132,4.21727,4.29869,4.36414
0.350006,2.38215,3.30549,3.78946,4.08698,4.28843,4.43388,4.54386,4.62992,4.69912
0.349139,2.57109,3.55834,4.07659,4.39619,4.6131,4.77001,4.88881,4.98187,5.05675
0.342532,2.68093,3.70102,4.23995,4.57397,4.80145,4.96638,5.09148,5.18961,5.26865
0.337036,2.82485,3.9052,4.47732,4.83174,5.07282,5.24742,5.37969,5.48336,5.56679
0.333384,2.97747,4.11686,4.71952,5.09234,5.34569,5.52906,5.66791,5.77671,5.86425
0.333091,3.03975,4.13216,4.69376,5.03561,5.26554,5.43077,5.55524,5.65237,5.73028
0.370884,3.71619,5.17368,5.96237,6.45813,6.79897,7.04781,7.23751,7.38694,7.5077
0.32718,3.43054,4.73225,5.41393,5.83195,6.11404,6.31708,6.47014,6.58962,6.68547
0.327367,3.60944,4.9802,5.70181,6.14726,6.44977,6.66868,6.83449,6.96443,7.06903
0.325807,3.74531,5.16717,5.91916,6.38491,6.70185,6.9315,7.10557,7.24207,7.35197
0.319748,3.88515,5.379,6.17053,6.6605,6.99357,7.23465,7.41722,7.56027,7.67536
0.579516,7.40693,10.2585,11.7641,12.6937,13.3247,13.7809,14.1262,14.3966,14.614
0.315772,4.2929,5.99642,6.91041,7.48073,7.87066,8.15413,8.36952,8.53874,8.67521
0.315594,4.22879,5.73396,6.49672,6.95654,7.26371,7.48334,7.64814,7.77635,7.87892
0.353144,5.08249,7.06906,8.14584,8.82497,9.29335,9.63623,9.89821,10.105,10.2723
0.312568,4.63823,6.39727,7.31926,7.88494,8.26673,8.54149,8.74858,8.9102,9.03982
0.313638,4.79314,6.59492,7.53929,8.1207,8.51479,8.79961,9.01512,9.18388,9.31964
0.343233,5.50046,7.62181,8.74975,9.45023,9.92768,10.274,10.5368,10.7429,10.909
0.3101,5.12936,7.07891,8.10175,8.73089,9.1567,9.46396,9.69609,9.87763,10.0235
0.311522,5.38196,7.45518,8.55127,9.22939,9.69042,10.0243,10.2772,10.4755,10.6351
0.313555,5.51463,7.59625,8.68904,9.36259,9.81937,10.1496,10.3994,10.595,10.7523
0.310454,5.6905,7.88557,9.05205,9.7762,10.2696,10.6275,10.8989,11.1118,11.2832
0.310462,5.74358,7.89187,9.01632,9.70777,10.1759,10.5137,10.7691,10.9688,11.1294
0.306655,5.84973,8.05491,9.21536,9.93159,10.4178,10.7694,11.0356,11.2442,11.4119
0.307838,6.06801,8.38477,9.61153,10.3712,10.888,11.2622,11.5458,11.7681,11.947
0.307511,6.27828,8.7035,9.99132,10.7896,11.3327,11.7262,12.0244,12.2581,12.4462
0.305534,6.58265,9.19207,10.5839,11.4478,12.0361,12.4623,12.7853,13.0386,13.2424
0.310823,7.02908,9.83002,11.3156,12.2342,12.8582,13.3096,13.6512,13.9188,14.1341
0.324878,6.41348,8.39173,9.33849,9.89314,10.2575,10.5151,10.7069,10.8552,10.9734
0.303122,6.50062,8.99851,10.3919,11.2919,11.9236,12.3923,12.7542,13.0422,13.2769
0.305267,7.04575,9.918,11.4916,12.4783,13.1521,13.6404,14.01,14.2994,14.5319
0.476628,11.2804,15.6594,17.9424,19.3329,20.2666,20.9363,21.4401,21.8327,22.1474
0.304268,7.43644,10.335,11.8651,12.8115,13.4555,13.9224,14.2765,14.5545,14.7785
0.302565,7.60547,10.552,12.1041,13.0625,13.7132,14.1839,14.5402,14.8193,15.0438
0.320496,8.27299,11.4599,13.1357,14.1695,14.8709,15.378,15.7618,16.0623,16.304
0.301941,7.89005,10.876,12.44,13.4033,14.0562,14.5281,14.8851,15.1646,15.3893
0.302901,8.22477,11.459,13.1956,14.2813,15.0247,15.5657,15.9772,16.3007,16.5617
0.302436,8.19163,11.2591,12.856,13.8335,14.4929,14.9676,15.3255,15.605,15.8293
0.29649,8.2466,11.3907,13.0528,14.0823,14.7829,15.2908,15.6758,15.9779,16.2212
0.302412,8.35925,11.5024,13.1677,14.201,14.9051,15.4159,15.8033,16.1072,16.352
0.322065,9.20391,12.7905,14.7179,15.9214,16.7442,17.3422,17.7964,18.1531,18.4406
0.297085,7.93562,10.6501,12.0198,12.8438,13.3937,13.7866,14.0812,14.3104,14.4937
0.298226,7.63928,10.1969,11.5118,12.3168,12.8612,13.2544,13.5518,13.7847,13.972
0.298995,8.4337,11.8412,13.7578,14.9903,15.8502,16.4842,16.971,17.3566,17.6695
0.295999,8.94577,12.6681,14.6924,15.9525,16.809,17.4279,17.8955,18.261,18.5545
0.296898,9.30606,13.0578,15.0316,16.2416,17.0582,17.6465,18.0904,18.4373,18.7158
0.438646,14.1171,19.6522,22.5366,24.3053,25.5014,26.3647,27.0173,27.528,27.9385
0.313199,10.2897,14.3103,16.433,17.7489,18.6457,19.2964,19.7903,20.1779,20.4902
0.293513,9.77876,13.5507,15.5381,16.7666,17.6014,18.2056,18.6631,19.0215,19.3099
0.295456,10.2215,14.2429,16.3798,17.7058,18.6087,19.2631,19.7592,20.1483,20.4615
0.310445,10.7419,14.7729,16.8598,18.1341,18.9927,19.6103,20.0759,20.4394,20.731
0.309192,11.0696,15.3971,17.7116,19.157,20.1465,20.8668,21.4148,21.8457,22.1935
0.290426,10.4504,14.4211,16.5022,17.7818,18.6475,19.272,19.7435,20.1122,20.4083
0.295094,10.6986,14.708,16.8024,18.0897,18.9611,19.5904,20.066,20.4383,20.7376
0.294588,10.7892,14.8672,17.0229,18.3587,19.2681,19.9274,20.4273,20.8194,21.1353
0.29582,11.1108,15.4025,17.6888,19.1092,20.0771,20.7789,21.311,21.7284,22.0645
0.293956,11.3298,15.7316,18.0648,19.5078,20.4878,21.1967,21.7333,22.1535,22.4915
0.293566,11.4197,15.7934,18.0961,19.5166,20.4804,21.1772,21.7045,22.1175,22.4498
0.290832,11.6546,16.1909,18.5963,20.0866,21.1007,21.8353,22.3921,22.8286,23.18
0.294008,11.7804,16.2349,18.5653,19.998,20.9679,21.668,22.1971,22.6111,22.9438
0.314055,12.2305,16.6324,18.9064,20.2973,21.2364,21.9133,22.4244,22.8239,23.1449
0.286643,5.81733,6.73515,7.11452,7.32238,7.4537,7.54421,7.61039,7.66089,7.70069
0.287968,7.48446,10.3641,12.2361,13.5799,14.5973,15.3963,16.0409,16.5722,17.0179
0.306021,9.97528,14.9881,18.133,20.2245,21.6918,22.7683,23.5874,24.2292,24.7446
0.285756,10.9573,16.5554,19.6926,21.6223,22.9131,23.8332,24.5212,25.0546,25.4803
0.286302,11.9353,17.4934,20.3718,22.1019,23.256,24.0815,24.7019,25.1856,25.5733
0.30596,13.4436,19.2456,22.2058,24.0039,25.2161,26.0902,26.7509,27.2681,27.6841
0.289738,12.983,18.248,20.9514,22.6101,23.7349,24.5487,25.1651,25.6482,26.0371
0.363422,16.2181,22.3671,25.5002,27.4111,28.6998,29.6278,30.3281,30.8752,31.3145
0.286425,13.0712,18.155,20.8506,22.5329,23.6848,24.5234,25.1614,25.6631,26.0681
0.285558,13.1565,18.1763,20.8055,22.4243,23.5204,24.3114,24.909,25.3762,25.7514
0.442359,20.7558,28.7896,33.0562,35.7067,37.5139,38.8252,39.8203,40.6013,41.2306
0.282731,13.6314,18.9728,21.8121,23.5728,24.7708,25.6385,26.2959,26.8112,27.2258
0.28428,13.8508,19.1867,21.9923,23.721,24.8926,25.739,26.3791,26.88,27.2828
0.354312,17.7758,24.7509,28.4572,30.7573,32.3242,33.4604,34.3222,34.9983,35.5428
0.286502,14.3083,19.76,22.6225,24.3868,25.5832,26.4479,27.1021,27.6142,28.0261
0.284212,11.907,15.4346,17.1266,18.1209,18.7755,19.2392,19.5849,19.8525,20.0658
0.335049,15.6774,21.8976,25.4505,27.775,29.4201,30.6474,31.5989,32.3584,32.9788
0.284048,14.0253,19.7894,22.9494,24.9255,26.2712,27.2441,27.979,28.5533,29.0141
0.322416,14.4677,19.3479,21.7539,23.176,24.1135,24.7779,25.2733,25.6569,25.9627
0.284203,14.0071,19.7209,22.9072,24.9546,26.3859,27.4447,28.2602,28.908,29.4351
0.282687,14.3091,19.9968,23.0104,24.8636,26.1141,27.0133,27.6902,28.2178,28.6404
0.333997,16.2611,22.0796,25.0157,26.7815,27.9601,28.8029,29.4355,29.928,30.3223
0.283483,12.4908,16.4743,18.4551,19.6465,20.4437,21.0153,21.4453,21.7806,22.0494
0.315428,15.4992,21.7732,25.3236,27.6243,29.2394,30.4365,31.3595,32.093,32.6899
0.282394,14.6345,20.6478,23.9006,25.9191,27.2874,28.2738,29.0177,29.5982,30.0636
0.296047,15.4895,21.5244,24.6617,26.5733,27.8587,28.7823,29.478,30.021,30.4566
0.327139,17.7847,24.8197,28.5284,30.8199,32.3777,33.5063,34.3618,35.0327,35.5731
0.324037,18.3849,25.8289,29.8035,32.2773,33.9659,35.192,36.1227,36.8533,37.4421
