2.39123,2.70969,2.83557,2.903,2.94502,2.97371,2.99455,3.01038,3.0228,3.03281
0.510536,0.786207,0.935025,1.0275,1.09042,1.13598,1.17048,1.19751,1.21925,1.23712
0.617826,0.920928,1.03318,1.08849,1.12089,1.14202,1.15684,1.16779,1.17621,1.18287
1.06251,2.46606,3.4122,4.08045,4.57793,4.96315,5.27048,5.52149,5.73043,5.90708
0.420015,1.19994,1.65332,1.91062,2.06946,2.17524,2.24996,2.30524,2.34762,2.38106
0.200762,0.778197,1.15895,1.38987,1.54158,1.64854,1.72801,1.78942,1.83833,1.87822
0.193346,0.912721,1.34496,1.58286,1.7298,1.82902,1.90038,1.95412,1.99602,2.0296
0.242436,0.845019,1.02021,1.09146,1.12984,1.15385,1.17031,1.1823,1.19143,1.19861
0.258036,0.939556,1.18351,1.31127,1.392,1.44807,1.48942,1.52122,1.54644,1.56696
0.252508,1.35209,2.04448,2.52187,2.87162,3.1383,3.34801,3.51708,3.65617,3.77256
0.153088,1.08357,1.71033,2.09799,2.35001,2.52351,2.64897,2.7434,2.81679,2.87534
0.373323,3.20816,4.95301,5.90896,6.49194,6.88165,7.16013,7.36906,7.53166,7.66185
0.353054,3.06572,4.30508,4.89381,5.23516,5.45861,5.61658,5.73433,5.82556,5.89834
0.21324,2.16278,3.15258,3.69638,4.04642,4.29236,4.47514,4.61651,4.72917,4.82111
0.257505,2.8843,4.17798,4.87649,5.31466,5.6148,5.83298,5.9986,6.12852,6.23314
0.205349,2.35326,3.29543,3.78158,4.07883,4.27938,4.42381,4.5328,4.61797,4.68637
0.203318,2.58402,3.70856,4.33076,4.7286,5.00548,5.20946,5.36606,5.49009,5.59078
0.205815,2.70065,3.79666,4.37638,4.73457,4.9775,5.15295,5.28554,5.38924,5.47254
0.198537,2.77699,3.94615,4.5879,4.99508,5.27681,5.48347,5.6416,5.76652,5.86772
0.20649,2.9293,4.09008,4.70671,5.08901,5.34908,5.53737,5.67998,5.7917,5.88159
0.195693,2.94272,4.16663,4.84146,5.27037,5.56738,5.78533,5.95212,6.08389,6.19064
0.192555,3.03566,4.29315,4.97672,5.40542,5.69907,5.91268,6.07501,6.2025,6.30529
0.270208,4.48453,6.35717,7.37705,8.01812,8.45834,8.77932,9.02375,9.21609,9.37141
0.192246,3.32053,4.69493,5.43951,5.9063,6.2263,6.45935,6.63664,6.77606,6.88856
0.186707,3.37229,4.77083,5.52937,6.0054,6.33199,6.56997,6.7511,6.89358,7.00859
0.365257,6.68801,9.38021,10.8291,11.7354,12.3561,12.808,13.1516,13.4218,13.6397
0.191519,3.34439,4.55629,5.18427,5.56903,5.82906,6.01658,6.15821,6.26897,6.35795
0.181925,3.37605,4.74749,5.51369,6.00559,6.3487,6.60182,6.79633,6.95049,7.0757
0.178672,3.34241,4.65123,5.35377,5.79037,6.0874,6.30231,6.46493,6.59223,6.69456
0.243386,4.89899,6.98376,8.14914,8.89337,9.40996,9.7896,10.0804,10.3104,10.4968
0.176561,3.44991,4.75603,5.43565,5.85053,6.12972,6.3303,6.48132,6.59911,6.69353
0.175447,3.51484,4.88293,5.61894,6.08038,6.39726,6.62852,6.80482,6.94369,7.05594
0.188642,3.92558,5.4989,6.35422,6.89187,7.261,7.53006,7.73483,7.89589,8.02587
0.2322,5.00075,7.02032,8.11339,8.79747,9.26563,9.60606,9.86473,10.0679,10.2317
0.21276,4.99873,7.17966,8.39505,9.1686,9.70397,10.0964,10.3965,10.6333,10.825
0.171654,4.13026,5.85933,6.79248,7.37461,7.77207,8.06061,8.27956,8.45138,8.5898
0.169796,4.20397,5.94953,6.89497,7.48838,7.89582,8.19299,8.41936,8.59756,8.74151
0.164388,2.1843,2.55847,2.71195,2.79555,2.84814,2.88428,2.91064,2.93072,2.94652
0.163226,2.98884,4.31913,5.23397,5.91833,6.45307,6.88352,7.23787,7.53487,7.78747
0.173615,3.86269,5.86473,7.10621,7.92196,8.4881,8.89956,9.2101,9.45178,9.64468
0.153173,2.15997,2.63791,2.83382,2.93735,3.00086,3.0437,3.07454,3.0978,3.11597
0.150696,1.85074,2.30622,2.53695,2.67973,2.77769,2.84934,2.90413,2.94743,2.98253
0.151727,2.722,4.18177,5.22442,6.01075,6.62473,7.11703,7.52032,7.85658,8.14114
0.148548,3.43077,5.5082,6.81375,7.66642,8.25324,8.67657,8.99415,9.24014,9.43573
0.181121,4.88948,7.61633,9.10654,10.0107,10.6127,11.0417,11.3629,11.6125,11.8122
0.168382,2.81649,3.44307,3.68421,3.81097,3.88939,3.94282,3.98162,4.01111,4.03428
0.140974,3.23409,4.7831,5.80066,6.54731,7.12454,7.58587,7.96363,8.2789,8.54613
0.360628,9.70451,14.597,17.443,19.2569,20.4936,21.3822,22.0476,22.5624,22.9716
0.145377,4.381,6.5692,7.78566,8.54799,9.06861,9.44658,9.73358,9.95904,10.1409
0.144451,4.72836,6.96789,8.16611,8.90763,9.41185,9.77719,10.0542,10.2715,10.4466
0.144531,5.09984,7.45979,8.72778,9.52114,10.0654,10.4624,10.7648,11.0029,11.1953
0.141513,5.24348,7.56045,8.79143,9.55727,10.0802,10.4601,10.7485,10.975,11.1576
0.164415,6.31244,9.02039,10.4662,11.3699,11.9889,12.4397,12.7827,13.0525,13.2702
0.156644,3.01673,3.51315,3.71286,3.82114,3.88915,3.93585,3.9699,3.99583,4.01623
0.185783,4.81344,6.9007,8.33068,9.39952,10.2342,10.9058,11.4584,11.9214,12.315
0.15636,4.97258,7.59647,9.25736,10.3648,11.1413,11.7098,12.1414,12.4786,12.7488
0.141042,5.09318,7.70728,9.17628,10.0854,10.6972,11.1357,11.4651,11.7216,11.927
0.140539,5.56292,8.27343,9.73104,10.6305,11.2414,11.684,12.0198,12.2835,12.4961
0.138981,5.79333,8.40163,9.76509,10.6031,11.1717,11.5832,11.895,12.1394,12.3363
0.210347,8.8063,12.4442,14.3302,15.4924,16.2825,16.8551,17.2893,17.63,17.9045
0.1367,5.49754,7.62351,8.74287,9.44098,9.91929,10.2678,10.5332,10.742,10.9106
0.158408,6.10056,8.35835,9.55046,10.292,10.7982,11.1659,11.445,11.6641,11.8406
0.152679,6.42108,9.2036,10.7962,11.8312,12.5579,13.0963,13.5112,13.8406,14.1086
0.151861,6.44426,9.10189,10.5361,11.4273,12.0328,12.4704,12.8011,13.0598,13.2676
0.153816,4.45382,5.50803,5.97466,6.2375,6.40615,6.5236,6.6101,6.67648,6.72904
0.151932,5.32008,7.55621,8.951,9.92361,10.6449,11.2025,11.647,12.0098,12.3117
0.157192,6.33141,9.39247,11.2255,12.4227,13.2573,13.8688,14.3347,14.7006,14.9952
0.149576,6.53489,9.62527,11.3414,12.4121,13.1399,13.6658,14.0635,14.3747,14.6249
0.18004,8.24044,11.929,13.9039,15.1264,15.958,16.5608,17.0181,17.377,17.6663
0.159661,7.64274,10.9813,12.7695,13.8853,14.6492,15.2055,15.6287,15.9617,16.2305
0.448922,21.3145,29.9669,34.5182,37.3356,39.2539,40.6448,41.6997,42.5273,43.1939
0.136154,6.63784,9.41447,10.9345,11.8996,12.5679,13.0583,13.4336,13.7301,13.9704
0.1638,8.37075,12.0093,14.0316,15.3197,16.2115,16.8653,17.365,17.7592,18.0782
0.144908,7.5024,10.6634,12.379,13.454,14.1901,14.7256,15.1326,15.4523,15.7101
0.144147,4.18169,4.98376,5.32213,5.50903,5.62764,5.70964,5.76972,5.81565,5.85189
0.140262,3.3155,4.07485,4.46954,4.71674,4.88715,5.01204,5.1076,5.18312,5.24433
0.147518,4.78538,7.10347,8.71119,9.89357,10.7981,11.5116,12.0884,12.564,12.9628
0.115183,4.70045,7.39701,9.10908,10.2415,11.0304,11.6058,12.0416,12.382,12.6546
0.115397,5.43113,8.40155,10.0654,11.0908,11.7799,12.2739,12.6452,12.9346,13.1665
0.127023,6.61973,9.99507,11.7989,12.9094,13.6633,14.2098,14.6245,14.9503,15.2131
0.128393,6.8837,9.97234,11.5578,12.5258,13.1805,13.6535,14.0114,14.2918,14.5174
0.93053,52.4319,75.5725,87.8796,95.5977,100.908,104.791,107.754,110.09,111.98
0.141062,7.90899,11.172,12.8947,13.9672,14.7001,15.2328,15.6374,15.9552,16.2113
0.155076,8.8678,12.5749,14.5937,15.8723,16.7557,17.4029,17.8975,18.2879,18.6038
0.140396,8.16789,11.5679,13.4165,14.5799,15.3791,15.9619,16.4055,16.7545,17.0361
0.145676,8.8165,12.5834,14.6544,15.9644,16.8676,17.5279,18.0316,18.4286,18.7494
0.142719,0.938366,0.96538,0.974754,0.979524,0.982415,0.984356,0.985748,0.986797,0.987614
0.121182,1.45697,2.15427,2.78623,3.36818,3.90714,4.4081,4.87511,5.31159,5.72048
0.139988,2.90288,5.56026,8.15559,10.4486,12.3791,13.9713,15.2763,16.3479,17.2327
0.131539,4.2712,8.87718,12.4601,14.8758,16.49,17.604,18.4044,19.0015,19.4617
0.119732,5.40784,10.5104,13.4174,15.0645,16.0976,16.8054,17.3223,17.7179,18.0311
0.272315,15.5239,27.2957,33.0148,36.272,38.4041,39.9231,41.0663,41.9601,42.6791
0.121294,7.77671,12.3649,14.5031,15.77,16.6222,17.2384,17.7058,18.0727,18.3686
0.126825,8.69865,13.0552,15.1732,16.4739,17.3626,18.01,18.503,18.891,19.2044
0.132166,9.60925,14.0994,16.409,17.8578,18.8558,19.5854,20.1422,20.5811,20.936
0.290547,11.7287,14.0006,14.9051,15.3988,15.7101,15.9243,16.0806,16.1998,16.2936
0.132871,6.99731,10.0963,12.1557,13.6715,14.8419,15.7753,16.5379,17.1732,17.7107
0.120727,7.38045,11.0484,13.2603,14.7001,15.6955,16.418,16.9633,17.3878,17.727
0.129875,9.04124,13.6749,16.3182,17.9864,19.1275,19.9558,20.5843,21.0775,21.475
0.128884,9.36373,13.6427,15.8833,17.2451,18.1595,18.8161,19.3108,19.6969,20.0068
