1.42615,1.51791,1.55117,1.56836,1.57885,1.58593,1.59102,1.59486,1.59786,1.60027
0.840054,1.24794,1.46955,1.60844,1.70359,1.77283,1.82548,1.86686,1.90024,1.92773
1.05063,2.30165,3.14539,3.71256,4.11151,4.40481,4.62853,4.80436,4.94599,5.0624
0.5846,1.23924,1.50438,1.6291,1.69883,1.74271,1.77268,1.79438,1.81078,1.82359
0.565236,1.90208,2.87811,3.57712,4.10511,4.52004,4.85565,5.13315,5.36665,5.56596
0.610487,2.83864,4.5169,5.58393,6.28699,6.77475,7.12891,7.3959,7.60346,7.76895
0.541778,2.2381,2.91308,3.20115,3.35513,3.45017,3.51456,3.56106,3.59622,3.62376
0.571214,2.99155,4.26672,4.99816,5.484,5.83389,6.09913,6.30761,6.47599,6.61491
0.454069,1.85544,2.27183,2.45209,2.55206,2.61529,2.65876,2.6904,2.71444,2.7333
0.473867,2.92401,4.44552,5.51083,6.3156,6.94907,7.46205,7.88652,8.24384,8.54892
0.49953,4.14217,6.6622,8.2646,9.32814,10.0696,10.6095,11.0173,11.3348,11.5881
0.466109,3.20029,4.17944,4.59352,4.81427,4.9502,5.04211,5.10837,5.15841,5.19756
0.476603,3.98785,5.69326,6.66722,7.31377,7.7793,8.13219,8.40956,8.63359,8.81844
0.454798,2.76778,3.38726,3.65469,3.80296,3.89675,3.96122,4.00816,4.04382,4.0718
0.431552,3.93752,6.01871,7.4886,8.60652,9.49108,10.2104,10.8076,11.3117,11.7432
0.582797,6.93618,11.1274,13.7818,15.5397,16.7634,17.6536,18.3255,18.8482,19.2652
0.447504,3.9832,5.08823,5.54435,5.78549,5.93345,6.0333,6.10521,6.15949,6.20192
0.467049,5.10072,7.27122,8.54243,9.40113,10.0268,10.5053,10.8838,11.1911,11.4457
0.532122,4.28939,5.30176,5.74757,5.99608,6.15345,6.2616,6.34027,6.39996,6.44674
0.39782,4.67788,7.12446,8.8216,10.0926,11.086,11.8861,12.5452,13.098,13.5685
0.416973,6.2729,9.95931,12.2476,13.7458,14.782,15.5331,16.0988,16.5384,16.8887
0.428969,5.07654,6.60711,7.25927,7.61013,7.8278,7.9758,8.08297,8.16419,8.22789
0.625751,8.95721,12.8629,15.1277,16.6442,17.7419,18.5769,19.2349,19.7674,20.2074
0.424266,4.28808,5.27992,5.71017,5.94868,6.0994,6.20289,6.27816,6.33527,6.38005
0.401216,5.90845,9.00945,11.1739,12.8054,14.0877,15.1249,15.9824,16.7037,17.3193
0.756972,14.6545,23.7643,29.6164,33.531,36.2761,38.2845,39.8069,40.9954,41.946
0.409275,6.10339,7.95943,8.74074,9.15648,9.41223,9.58501,9.7095,9.80349,9.87698
0.468826,8.18793,11.6486,13.6186,14.9249,15.8648,16.5769,17.1364,17.5882,17.9609
0.411874,4.90373,6.00473,6.48421,6.75158,6.92137,7.0384,7.1238,7.18878,7.23983
0.392507,6.79492,10.3337,12.8171,14.6955,16.1751,17.3737,18.3657,19.2009,19.9141
0.414554,9.40612,15.2363,18.9955,21.5136,23.2802,24.5727,25.5524,26.3171,26.9286
0.452498,8.2857,10.9873,12.1523,12.778,13.1646,13.4265,13.6156,13.7585,13.8703
0.417198,8.72159,12.4041,14.4628,15.8098,16.7702,17.4929,18.0579,18.5123,18.8859
0.3986,5.87562,7.25977,7.86509,8.20366,8.41924,8.56816,8.67703,8.75997,8.82523
0.431058,9.02454,13.6843,16.8992,19.3027,21.1792,22.6887,23.931,24.9719,25.8571
0.408705,10.8633,17.3474,21.4505,24.1791,26.0886,27.4852,28.5444,29.372,30.0348
0.433186,8.86774,11.5689,12.7216,13.3406,13.7235,13.9833,14.171,14.3129,14.424
0.42244,10.0154,14.2362,16.6429,18.2376,19.3838,20.2513,20.9323,21.4818,21.9348
0.400476,6.46651,7.93284,8.57131,8.92671,9.15208,9.30726,9.42038,9.50638,9.57392
0.437665,10.3332,15.7844,19.6184,22.5224,24.8125,26.6695,28.2078,29.5038,30.6112
0.409683,12.4201,20.0085,24.8448,28.0617,30.3085,31.9476,33.1873,34.1535,34.9253
0.395469,9.11114,11.8565,13.0097,13.6224,13.999,14.2532,14.4362,14.5744,14.6823
0.426172,11.4807,16.3491,19.1262,20.9695,22.2968,23.303,24.0938,24.7326,25.2597
0.389792,6.99399,8.55513,9.232,9.60833,9.84683,10.011,10.1306,10.2216,10.293
0.394528,10.2363,15.5265,19.2177,21.9988,24.1831,25.9486,27.4071,28.6333,29.679
0.387575,12.6419,20.0117,24.597,27.6019,29.6802,31.1859,32.319,33.1988,33.8995
0.386673,9.60668,12.4743,13.6928,14.3464,14.7508,15.0252,15.2236,15.3738,15.4914
0.399736,11.5789,16.5034,19.3416,21.2354,22.6031,23.6418,24.4594,25.1204,25.6662
0.388122,7.70174,9.49584,10.2845,10.7251,11.005,11.198,11.3387,11.4457,11.5298
0.40571,11.4671,17.4093,21.531,24.6196,27.035,28.9806,30.5834,31.9278,33.0721
0.395968,14.2997,23.0238,28.6262,32.3843,35.0297,36.9724,38.4504,39.6079,40.5366
0.392274,10.8202,14.1515,15.5725,16.3338,16.804,17.1224,17.3521,17.5257,17.6615
0.440996,14.2252,20.3592,23.8771,26.216,27.9013,29.1794,30.1842,30.9959,31.6658
0.401119,8.64621,10.6135,11.4672,11.9415,12.2421,12.4488,12.5995,12.714,12.8039
0.379699,11.7209,17.7756,21.9812,25.1402,27.6157,29.6133,31.2614,32.6453,33.8245
0.389189,15.7499,25.6402,32.0797,36.4303,39.5038,41.7651,43.4869,44.8358,45.9179
0.367805,6.22535,7.12951,7.44778,7.60466,7.69717,7.75801,7.80105,7.83309,7.85788
0.412176,10.1228,14.7016,17.9205,20.3919,22.3688,23.9923,25.3517,26.5076,27.5029
0.349454,7.41817,9.73678,10.8738,11.5246,11.9372,12.2183,12.4206,12.5722,12.6897
0.36433,11.4835,18.4336,23.3078,26.9175,29.7069,31.9326,33.7532,35.2718,36.5589
0.396963,16.8124,28.4702,35.9311,40.8634,44.2958,46.796,48.6868,50.1612,51.34
0.37523,12.963,17.482,19.3575,20.3455,20.9505,21.3583,21.6519,21.8733,22.0464
0.396939,16.0484,23.2711,27.2742,29.8979,31.7745,33.191,34.3012,35.1958,35.9328
0.368519,9.95223,12.2615,13.2431,13.787,14.1316,14.369,14.5421,14.6737,14.7772
0.366965,14.1568,21.4842,26.5218,30.2934,33.2428,35.6188,37.5764,39.2184,40.6161
0.399487,16.5159,24.188,28.4111,30.9959,32.7093,33.9159,34.8061,35.4871,36.0236
0.344538,12.0135,15.8391,17.6058,18.612,19.2611,19.715,20.0506,20.3091,20.5144
0.272284,5.674,6.69635,7.13867,7.38951,7.55212,7.66641,7.75125,7.81677,7.86891
0.271762,5.99705,7.8353,8.89786,9.60408,10.1099,10.4905,10.7876,11.026,11.2216
0.238296,8.61924,14.6081,19.44,23.3574,26.5684,29.2354,31.4797,33.3912,35.037
0.26679,13.8426,24.9969,32.6099,37.6638,41.1214,43.5837,45.4043,46.7948,47.8861
0.356794,14.6115,19.7768,21.816,22.8462,23.4611,23.8695,24.1609,24.3795,24.5499
0.355523,16.7964,24.2673,28.3218,30.9625,32.8495,34.2747,35.3926,36.2944,37.0378
0.372906,12.5672,15.7275,17.0969,17.8655,18.3566,18.6968,18.9458,19.1358,19.2854
0.380304,18.2265,27.9538,34.627,39.6129,43.5042,46.6334,49.2075,51.3638,53.1971
0.365969,21.8837,34.8508,42.8491,48.0851,51.709,54.3379,56.3194,57.8601,59.0891
0.373567,16.7847,21.8195,23.9429,25.0811,25.7856,26.2638,26.6097,26.8715,27.0767
0.51264,26.2481,37.1285,43.2929,47.3698,50.2963,52.5092,54.2448,55.6442,56.7971
0.344131,11.4235,13.942,15.04,15.6529,16.0424,16.311,16.5071,16.6564,16.7737
0.370079,17.582,26.71,33.1549,38.0505,41.9187,45.0601,47.6651,49.862,51.7405
0.354215,20.5223,32.1308,39.2601,43.8897,47.0707,49.364,51.0836,52.4147,53.4724
0.33786,16.0266,21.3418,23.7098,25.0113,25.8287,26.3891,26.7973,27.108,27.3526
0.34794,18.9342,27.1729,31.8395,34.9046,37.0922,38.7389,40.0259,41.0606,41.9111
0.350253,12.8692,15.8901,17.2021,17.932,18.3951,18.7143,18.9472,19.1245,19.2639
0.348955,18.3081,27.895,34.5437,39.5347,43.4447,46.5991,49.2012,51.3859,53.2471
0.35296,23.6529,38.0764,47.2346,53.3241,57.5802,60.6878,63.0407,64.8762,66.3438
0.349639,17.6427,23.0281,25.3055,26.5217,27.2717,27.7792,28.1454,28.422,28.6385
0.362627,20.6595,29.1837,33.9786,37.1337,39.3916,41.0953,42.4296,43.5042,44.3889
0.379454,14.3419,17.5651,18.9701,19.7541,20.2522,20.5958,20.8465,21.0374,21.1873
0.363599,19.6942,29.9129,37.0626,42.458,46.7001,50.1316,52.9681,55.3539,57.3893
0.356822,24.8186,40,49.7195,56.2041,60.7427,64.0584,66.569,68.5273,70.0928
0.317463,16.8303,22.0605,24.2876,25.4784,26.2127,26.7096,27.0681,27.3389,27.5507
0.506159,31.4997,45.28,53.1936,58.4596,62.2571,65.1389,67.4059,69.2382,70.7509
0.34547,13.1214,15.879,17.0507,17.6961,18.1031,18.3824,18.5855,18.7396,18.8605
0.334962,18.2871,27.6717,34.3079,39.3665,43.377,46.6435,49.359,51.6538,53.6196
0.364578,25.9858,42.2585,52.9296,60.1566,65.2624,69.0149,71.8679,74.0993,75.8865
0.344402,18.9922,25.0508,27.6406,29.021,29.8691,30.4411,30.8525,31.1626,31.4048
0.35817,22.7071,32.513,38.079,41.7552,44.3936,46.3891,47.9553,49.2187,50.2604
0.351333,12.7732,15.2079,16.2122,16.7577,17.0989,17.3318,17.5005,17.6282,17.7281
0.349297,18.8244,28.5522,35.6009,41.082,45.4972,49.1402,52.2014,54.812,57.0655
