0.684425,0.842739,0.913146,0.952953,0.978548,0.996389,1.00954,1.01963,1.02762,1.0341
0.386213,0.602862,0.71455,0.781625,0.826185,0.857889,0.881581,0.899952,0.914609,0.926573
0.313309,0.643466,0.837306,0.958442,1.04027,1.09897,1.14304,1.17731,1.20469,1.22708
0.366265,0.928255,1.253,1.44552,1.57034,1.65723,1.72103,1.76979,1.80824,1.83932
0.228508,0.763598,1.11098,1.32765,1.47318,1.57725,1.65528,1.71592,1.7644,1.80404
0.235216,0.960419,1.41656,1.68704,1.86263,1.98524,2.07556,2.1448,2.19954,2.24391
0.213079,0.901064,1.24003,1.41568,1.52208,1.59337,1.64448,1.68292,1.71288,1.7369
0.213308,1.03554,1.46812,1.71428,1.87436,1.98723,2.07123,2.13623,2.18806,2.23035
0.140401,0.327077,0.359059,0.371332,0.377809,0.381805,0.384514,0.38647,0.387948,0.389105
0.130263,0.507747,0.74876,0.940037,1.09897,1.23385,1.35,1.45115,1.54008,1.61889
0.139582,0.81658,1.38236,1.81173,2.12895,2.36514,2.54441,2.68345,2.79356,2.88242
0.139094,0.998685,1.5898,1.92405,2.12402,2.25389,2.34422,2.41047,2.46108,2.50099
0.173944,1.52889,2.40884,2.8971,3.20226,3.41197,3.56563,3.68341,3.77672,3.85256
0.131962,1.26479,1.87962,2.19777,2.39249,2.52453,2.62014,2.69262,2.74948,2.79528
0.111055,0.490979,0.554642,0.578151,0.590548,0.598243,0.603494,0.607307,0.610204,0.612479
0.118118,0.84498,1.27427,1.60856,1.88497,2.11898,2.32013,2.49505,2.64865,2.78464
0.115249,1.09419,1.75332,2.19219,2.48927,2.6973,2.84837,2.96174,3.0493,3.11859
0.120087,1.42177,2.27981,2.78502,3.10249,3.31757,3.47237,3.58904,3.68015,3.75332
0.104187,0.588967,0.677542,0.708996,0.72486,0.734433,0.740852,0.745462,0.748937,0.751651
0.102961,0.922644,1.39999,1.76109,2.05451,2.30006,2.50927,2.68993,2.84761,2.9865
0.118125,1.53267,2.63779,3.45241,4.04777,4.48915,4.82371,5.08321,5.28889,5.45507
0.108102,1.63369,2.59812,3.12693,3.44073,3.64415,3.78563,3.88943,3.96875,4.03134
0.109722,1.87295,2.89317,3.44678,3.79271,4.031,4.20597,4.3403,4.44686,4.53355
0.108337,1.9941,2.97866,3.50385,3.83278,4.05915,4.22472,4.35116,4.45089,4.53156
0.107313,2.2634,3.46697,4.16472,4.62546,4.95348,5.19913,5.39005,5.54271,5.66758
0.112527,2.61267,3.96899,4.73986,5.23753,5.58494,5.84097,6.03738,6.19277,6.31874
0.110387,2.38635,3.35198,3.84363,4.14228,4.34303,4.48729,4.59597,4.6808,4.74887
0.211311,4.92469,7.14473,8.4083,9.23471,9.81961,10.2561,10.5945,10.8647,11.0855
0.134309,3.01793,4.24276,4.90337,5.3173,5.60069,5.8067,5.96315,6.08595,6.18489
0.111694,2.77197,4.09643,4.88862,5.41854,5.79847,6.08436,6.30737,6.48621,6.63286
0.114468,3.09161,4.61714,5.50823,6.08801,6.49392,6.79345,7.02336,7.20529,7.35279
0.119452,2.92962,4.05459,4.62901,4.97571,5.20744,5.37322,5.4977,5.59461,5.6722
0.116,2.67488,3.70608,4.27642,4.64342,4.90063,5.09132,5.23849,5.35558,5.45099
0.112686,2.6816,3.79848,4.4344,4.84563,5.13312,5.34524,5.50811,5.63704,5.74162
0.110522,3.09383,4.69216,5.68021,6.34796,6.82832,7.19011,7.47226,7.69841,7.8837
0.115637,3.36858,4.9971,5.92323,6.51358,6.92117,7.21904,7.44608,7.62479,7.7691
0.114668,3.13337,4.39631,5.05729,5.46315,5.73792,5.93645,6.08666,6.20431,6.29899
0.113588,3.333,4.84056,5.70799,6.27617,6.67841,6.97852,7.21115,7.39683,7.54849
0.114198,2.99041,4.09629,4.67249,5.02596,5.2647,5.43665,5.56634,5.66762,5.74889
0.113513,3.38363,5.01557,6.01867,6.70312,7.2012,7.58031,7.8787,8.11976,8.31859
0.11594,3.7679,5.66033,6.78292,7.51805,8.03421,8.41558,8.70845,8.94022,9.12811
0.133547,4.14831,5.89408,6.8209,7.39116,7.77679,8.05488,8.26489,8.42912,8.56107
0.213695,6.58563,9.29753,10.7744,11.7088,12.3552,12.8296,13.1929,13.4802,13.713
0.112983,3.471,4.8988,5.687,6.18873,6.53645,6.79167,6.98698,7.14124,7.26616
0.117479,4.00231,5.95234,7.1309,7.92209,8.49011,8.91772,9.25124,9.51866,9.73785
0.115438,3.91534,5.69135,6.69538,7.33698,7.78126,8.10673,8.35527,8.5512,8.70959
0.170685,5.61516,7.93373,9.18528,9.96728,10.5023,10.8914,11.1872,11.4197,11.6073
0.116072,4.05044,5.89989,6.97349,7.67818,8.17716,8.54935,8.83774,9.06783,9.25569
0.116288,3.8535,5.41715,6.2618,6.78933,7.14959,7.41105,7.60935,7.76487,7.89009
0.114142,4.19425,6.21418,7.42325,8.23102,8.80966,9.24485,9.58419,9.85627,10.0793
0.117595,4.43675,6.47853,7.62867,8.36101,8.86663,9.23614,9.51773,9.73934,9.91823
0.123162,4.42824,6.24986,7.23115,7.84474,8.26505,8.57117,8.80416,8.98748,9.1355
0.116908,4.31983,6.21264,7.29271,7.99502,8.48925,8.85625,9.13965,9.36514,9.54885
0.164578,6.08533,8.67286,10.1068,11.0162,11.6435,12.102,12.4516,12.7268,12.9491
0.120238,4.77366,7.07727,8.45927,9.38336,10.0455,10.5436,10.932,11.2434,11.4987
0.118269,5.06231,7.60505,9.10977,10.0975,10.7935,11.3098,11.7077,12.0236,12.2804
0.115686,4.52659,6.32867,7.26228,7.82977,8.21065,8.48385,8.68935,8.84954,8.97792
0.165262,6.93751,10.0772,11.8863,13.0726,13.9136,14.5418,15.0293,15.4188,15.7373
0.116847,4.52031,6.30702,7.26863,7.86979,8.2809,8.57962,8.80639,8.98437,9.12776
0.115511,5.01136,7.43601,8.90026,9.88416,10.5915,11.1249,11.5415,11.8759,12.1504
0.119968,5.34328,7.8028,9.18613,10.0646,10.6695,11.1106,11.4462,11.7099,11.9225
0.117642,4.85555,6.79942,7.8376,8.48408,8.92593,9.24729,9.49168,9.68385,9.83896
0.116596,4.89427,6.95955,8.11911,8.86568,9.38752,9.77311,10.0698,10.3051,10.4963
0.162533,6.95815,9.93422,11.5971,12.6575,13.3918,13.9302,14.3415,14.6661,14.9286
0.115943,5.29649,7.84519,9.37248,10.3921,11.1217,11.6697,12.0967,12.4386,12.7188
0.117939,5.79483,8.69648,10.4113,11.5358,12.3278,12.9149,13.3673,13.7264,14.0183
0.113863,3.05237,3.65948,3.90935,4.0446,4.12923,4.18713,4.22924,4.26123,4.28637
0.116982,3.94816,5.70133,6.8821,7.7544,8.4303,8.97102,9.41405,9.78393,10.0975
0.122856,4.68024,6.9874,8.39936,9.32809,9.97601,10.4499,10.8097,11.0914,11.3174
0.117652,5.40455,8.48354,10.3839,11.6442,12.5355,13.1982,13.7099,14.1171,14.4489
0.12018,6.25801,9.7464,11.7586,13.0429,13.9307,14.5806,15.0767,15.4679,15.7842
0.116242,5.59981,7.99569,9.22368,9.97019,10.4734,10.8361,11.1103,11.3249,11.4974
0.116142,5.83896,8.47351,9.94979,10.9067,11.5806,12.0817,12.4692,12.778,13.0298
0.161412,7.91588,11.1722,12.9123,13.997,14.7373,15.2742,15.6812,16.0003,16.2571
0.119733,6.35847,9.42403,11.2634,12.4997,13.3897,14.0618,14.5875,15.0101,15.3572
0.116834,6.66202,10.0011,11.9748,13.2708,14.1839,14.8609,15.3824,15.7961,16.1324
0.146857,7.7508,10.8877,12.5206,13.5153,14.1836,14.6633,15.0242,15.3055,15.5311
0.118295,6.33882,9.09972,10.6735,11.7006,12.4267,12.9682,13.388,13.7231,13.9969
0.11768,6.40164,9.16423,10.7015,11.6787,12.3535,12.8469,13.2231,13.5193,13.7585
0.262994,14.8117,21.3773,25.07,27.435,29.0787,30.2875,31.2139,31.9466,32.5405
0.11695,6.72464,9.82347,11.6224,12.8003,13.6323,14.2515,14.7303,15.1118,15.4228
0.117491,6.22941,8.70047,10.0203,10.8395,11.397,11.8005,12.1062,12.3456,12.5382
0.118834,6.29289,8.92458,10.4102,11.37,12.0427,12.5408,12.9247,13.2297,13.4779
0.121809,6.29413,8.8845,10.3272,11.2465,11.8831,12.3498,12.7065,12.9879,13.2156
0.143149,8.01012,11.8019,14.0608,15.5601,16.6277,17.4264,18.0466,18.5421,18.9471
0.11779,6.94674,10.3602,12.3799,13.7073,14.6444,15.3407,15.8781,16.3054,16.6532
0.117245,6.5188,9.22555,10.666,11.5544,12.1561,12.5904,12.9185,13.1751,13.3813
0.1184,6.69135,9.55862,11.1555,12.1785,12.8917,13.4178,13.8224,14.1431,14.4038
0.118598,6.69577,9.56021,11.1612,12.1856,12.8975,13.4209,13.8219,14.1388,14.3957
0.139698,7.7602,11.0976,12.9915,14.2155,15.0723,15.7056,16.1929,16.5795,16.8938
0.120046,7.2614,10.8791,13.0888,14.5794,15.6525,16.4619,17.0941,17.6015,18.0177
0.123361,7.22302,10.328,12.0048,13.0431,13.7462,14.2529,14.635,14.9334,15.1727
0.148448,9.14479,13.278,15.6066,17.1033,18.1482,18.92,19.5137,19.9848,20.3678
0.121734,7.05471,9.98589,11.5996,12.625,13.3351,13.8561,14.2548,14.5697,14.8248
0.117211,7.73858,11.639,14.0071,15.5995,16.7436,17.6053,18.2776,18.8167,19.2586
0.14348,10.4388,15.8304,18.9794,21.0201,22.4436,23.4909,24.2929,24.9264,25.4391
0.118239,7.39959,10.2543,11.7162,12.6041,13.2013,13.6308,13.9548,14.2079,14.4112
0.132707,8.96786,13.0093,15.3444,16.8808,17.9721,18.7884,19.4225,19.9295,20.3441
0.13696,8.69298,12.295,14.2892,15.5573,16.4343,17.0766,17.567,17.9537,18.2663
0.135928,9.72237,14.4756,17.3062,19.1819,20.515,21.5109,22.283,22.8992,23.4022
