0.381494,0.481609,0.527777,0.554347,0.571614,0.583735,0.592713,0.599629,0.605121,0.609588
0.223378,0.382636,0.476227,0.536717,0.578826,0.609772,0.633454,0.652153,0.667287,0.679786
0.173784,0.389334,0.525174,0.612317,0.671854,0.714803,0.747141,0.772323,0.792467,0.808937
0.140914,0.392056,0.549142,0.645941,0.710227,0.755746,0.789592,0.815718,0.836485,0.853384
0.125349,0.428472,0.620857,0.73908,0.817915,0.87407,0.916069,0.948658,0.97468,0.995938
0.123067,0.494636,0.721206,0.855933,0.944219,1.00641,1.05257,1.08817,1.11646,1.13949
0.107087,0.480678,0.692244,0.813917,0.892548,0.947537,0.988159,1.0194,1.04417,1.0643
0.109548,0.568519,0.836786,0.996915,1.10328,1.17911,1.23592,1.28008,1.3154,1.34429
0.0975309,0.558499,0.814335,0.962177,1.05813,1.12536,1.17506,1.21328,1.24358,1.26819
0.0920161,0.59651,0.883014,1.05269,1.16483,1.24447,1.30397,1.35011,1.38694,1.41702
0.0963927,0.69941,1.04265,1.24617,1.38056,1.47587,1.54695,1.60201,1.6459,1.6817
0.0871544,0.679607,0.998344,1.1815,1.30014,1.38322,1.44463,1.49187,1.52933,1.55977
0.138694,1.19109,1.76717,2.10613,2.32967,2.48827,2.60669,2.69849,2.77175,2.83159
0.0881293,0.781098,1.12484,1.31581,1.43709,1.52088,1.5822,1.62902,1.66593,1.69577
0.0796252,0.775805,1.1493,1.37271,1.52218,1.62942,1.71019,1.77324,1.82384,1.86535
0.0788207,0.401859,0.468764,0.496516,0.511695,0.52126,0.527836,0.532633,0.536287,0.539162
0.0709202,0.520001,0.763672,0.939325,1.07508,1.18381,1.27308,1.34777,1.41121,1.46579
0.0758308,0.740933,1.20133,1.52489,1.75605,1.92614,2.05515,2.1557,2.23594,2.30128
0.0701323,0.796469,1.25809,1.5339,1.71022,1.83125,1.91914,1.98578,2.03803,2.0801
0.200278,2.62906,4.12746,5.00427,5.57327,5.97298,6.26975,6.4991,6.68182,6.83089
0.0709239,1.01357,1.55193,1.85939,2.05849,2.19832,2.30204,2.38208,2.44574,2.49758
0.0662594,0.979609,1.45707,1.72607,1.89993,2.02186,2.11219,2.18182,2.23714,2.28216
0.0679127,1.06012,1.57582,1.87449,2.0708,2.2099,2.31367,2.39407,2.4582,2.51055
0.0661637,1.06977,1.57461,1.86435,2.05286,2.1853,2.28343,2.35904,2.41908,2.4679
0.0655053,1.13094,1.684,2.00989,2.22521,2.37812,2.49232,2.58088,2.65155,2.70926
0.204634,3.75109,5.60044,6.68703,7.40131,7.90629,8.28207,8.57257,8.80383,8.99228
0.0673634,1.19641,1.72567,2.02261,2.21294,2.34541,2.44296,2.5178,2.57704,2.6251
0.0672661,1.27322,1.8909,2.26238,2.51163,2.69073,2.82572,2.93115,3.01577,3.0852
0.0649915,1.20488,1.73844,2.03998,2.23336,2.36771,2.46642,2.54196,2.60163,2.64994
0.10981,2.21695,3.31638,3.98231,4.4298,4.75145,4.99391,5.18328,5.33529,5.46003
0.0636705,1.37075,2.06151,2.47311,2.74499,2.93758,3.08103,3.19195,3.28026,3.35222
0.064316,1.31802,1.88436,2.19368,2.38807,2.52149,2.61874,2.69278,2.75103,2.79806
0.066923,1.44924,2.14786,2.57017,2.8554,3.0616,3.21782,3.34036,3.43909,3.52034
0.0633867,1.39459,2.05148,2.43582,2.68744,2.86463,2.99603,3.09728,3.17766,3.243
0.0657199,1.48599,2.19898,2.62188,2.90189,3.10101,3.24991,3.36548,3.45779,3.53323
0.0617285,1.46711,2.19473,2.63045,2.92012,3.12652,3.281,3.40096,3.49678,3.57509
0.113649,2.73293,4.02026,4.76099,5.24077,5.57653,5.82456,6.01525,6.1664,6.28916
0.0620631,1.55143,2.2946,2.72899,3.01419,3.21593,3.36622,3.48255,3.57527,3.65092
0.172855,4.46407,6.59027,7.82425,8.62963,9.19652,9.61712,9.94155,10.1994,10.4092
0.0606547,1.61394,2.39689,2.86034,3.16732,3.3858,3.54928,3.67623,3.77767,3.8606
0.062523,1.73143,2.59057,3.10392,3.44523,3.6885,3.87065,4.01212,4.12517,4.21756
0.0626725,1.71976,2.51239,2.96396,3.25501,3.45806,3.60773,3.72261,3.81355,3.88733
0.0603734,1.70704,2.50886,2.97499,3.28032,3.496,3.65652,3.78067,3.87958,3.96023
0.0607101,1.71551,2.49097,2.93232,3.21719,3.41623,3.56313,3.67599,3.76541,3.838
0.0610214,1.76196,2.56945,3.03531,3.33891,3.55255,3.71109,3.83342,3.93068,4.00987
0.061362,1.81971,2.69884,3.22723,3.58097,3.83459,4.02539,4.17417,4.29344,4.3912
0.0614559,1.8282,2.67998,3.17355,3.4946,3.71979,3.88635,4.01449,4.1161,4.19864
0.0594962,1.91498,2.89378,3.48932,3.88963,4.17722,4.39385,4.56293,4.69858,4.80982
0.142366,4.63816,6.83413,8.08163,8.88088,9.43548,9.84246,10.1537,10.3993,10.5981
0.0616601,2.02958,3.00528,3.58204,3.96503,4.23852,4.44385,4.60379,4.73193,4.83693
0.0606874,2.03345,3.02664,3.62055,4.01634,4.299,4.51095,4.67574,4.80752,4.9153
0.0609392,2.05222,3.01961,3.58062,3.94604,4.2027,4.39276,4.53914,4.65532,4.74977
0.0600278,2.14187,3.21078,3.85026,4.27574,4.57929,4.8068,4.98367,5.12514,5.24086
0.0586207,2.07823,3.04042,3.58646,3.93725,4.18137,4.36098,4.49863,4.60747,4.69568
0.0607341,2.0948,3.05916,3.62566,4.00095,4.26855,4.46923,4.6254,4.75043,4.85281
0.0596404,2.07213,3.05417,3.64089,4.03169,4.31063,4.51967,4.68213,4.812,4.91818
0.0596947,2.05319,2.99309,3.53707,3.89085,4.13904,4.32266,4.46397,4.57607,4.66716
0.0594552,2.24309,3.39445,4.09704,4.56953,4.90891,5.16447,5.36384,5.52372,5.65479
0.143631,5.5641,8.25492,9.79426,10.7833,11.4706,11.9754,12.3618,12.6668,12.9138
0.0662387,2.47488,3.61453,4.27347,4.70534,5.0111,5.23927,5.41618,5.55743,5.67284
0.0595836,2.30247,3.42845,4.10653,4.56104,4.8871,5.13242,5.32367,5.47696,5.60254
0.0592507,2.30262,3.40111,4.04466,4.46638,4.7637,4.98446,5.1548,5.29018,5.40036
0.0587577,2.39256,3.58871,4.30672,4.78527,5.12704,5.38336,5.58275,5.74227,5.87282
0.130684,5.43667,8.08214,9.62437,10.631,11.3391,11.864,12.2686,12.5899,12.8513
0.0580292,2.40242,3.54314,4.20879,4.64593,4.95535,5.18601,5.36464,5.5071,5.62337
0.0581102,2.47296,3.69092,4.42113,4.90872,5.25756,5.51954,5.72353,5.88685,6.02057
0.0572256,2.46161,3.64173,4.32995,4.77967,5.0962,5.33094,5.51192,5.65568,5.77261
0.215974,9.93769,15.0136,18.0679,20.1059,21.5622,22.655,23.5052,24.1856,24.7424
0.0622201,2.69032,3.90667,4.59684,5.04183,5.3527,5.58219,5.75857,5.89837,6.01191
0.0546649,1.16143,1.37068,1.45992,1.50962,1.54134,1.56336,1.57955,1.59195,1.60176
0.0552704,1.673,2.52371,3.1576,3.65935,4.06877,4.40995,4.69893,4.94697,5.16226
0.108923,4.10092,6.59541,8.27999,9.44443,10.2791,10.8992,11.3744,11.7485,12.0496
0.0577336,2.44982,3.91884,4.82589,5.42371,5.84455,6.15646,6.39692,6.58805,6.74369
0.055882,2.48848,3.82258,4.58227,5.06771,5.40496,5.6532,5.84371,5.99461,6.11712
0.0555934,2.6734,4.11749,4.96757,5.5301,5.93126,6.23224,6.46657,6.65423,6.80795
0.0553739,2.84563,4.3422,5.20919,5.77519,6.17379,6.46959,6.69776,6.87907,7.02661
0.05613,2.6609,3.78167,4.36918,4.73177,4.97803,5.15625,5.29122,5.397,5.48213
0.055711,2.77838,4.13059,4.94957,5.50699,5.91268,6.2217,6.46515,6.66198,6.82445
0.0548494,2.81506,4.18733,4.99723,5.5303,5.90671,6.18622,6.40175,6.57292,6.71208
0.101065,5.54422,8.37678,10.0696,11.1918,11.9893,12.5851,13.047,13.4157,13.7167
0.0558005,2.97873,4.43355,5.29775,5.87206,6.28196,6.58942,6.82867,7.02018,7.17698
0.0553293,2.89558,4.24943,5.03594,5.55028,5.91286,6.18217,6.39008,6.55543,6.69006
0.0554487,3.08565,4.65481,5.60914,6.25112,6.71257,7.06025,7.33163,7.54933,7.72786
0.0543387,3.11144,4.63144,5.50903,6.07663,6.47284,6.76479,6.98872,7.16585,7.30945
0.110924,6.73865,10.1444,12.1531,13.4773,14.4164,15.1174,15.6608,16.0944,16.4486
0.0554136,3.21649,4.73488,5.62034,6.20317,6.61662,6.9254,7.16488,7.35606,7.51224
0.0551266,3.1392,4.58189,5.41719,5.96318,6.34808,6.63401,6.85477,7.03035,7.17333
0.0560656,3.39309,5.10275,6.14193,6.84083,7.34301,7.72125,8.01638,8.25307,8.44711
0.0543274,3.31595,4.89671,5.80427,6.38967,6.79767,7.09799,7.32817,7.51015,7.65763
0.0552862,3.19199,4.55533,5.30418,5.77794,6.10496,6.34441,6.52739,6.67178,6.78866
0.0551288,3.11186,4.50183,5.31712,5.85774,6.24358,6.53311,6.75853,6.93905,7.08691
0.0539214,3.15018,4.6441,5.53264,6.12087,6.53838,6.84978,7.09083,7.28287,7.43944
0.0536908,3.42664,5.19761,6.27048,6.98561,7.49526,7.87652,8.17236,8.40855,8.60146
0.107598,7.03113,10.4492,12.3981,13.6478,14.5156,15.153,15.6409,16.0262,16.3383
0.0546797,3.47537,5.11983,6.08168,6.71705,7.16944,7.50846,7.77217,7.98326,8.1561
0.0552549,3.69492,5.54383,6.65201,7.39057,7.91773,8.31272,8.6196,8.86485,9.0653
0.0532099,3.56354,5.23902,6.19249,6.80533,7.23172,7.54528,7.78549,7.97534,8.12916
0.0544218,1.22557,1.37378,1.43253,1.46425,1.48417,1.49785,1.50783,1.51544,1.52144
0.052788,1.7829,2.64,3.3048,3.84796,4.30259,4.6895,5.02306,5.31373,5.56935
0.0523484,2.47903,4.21654,5.5394,6.5257,7.26784,7.83706,8.2829,8.63915,8.92901
