0.604855,0.699936,0.73864,0.759642,0.772827,0.781874,0.788467,0.793486,0.797433,0.800619
0.39424,0.628503,0.759404,0.842205,0.899171,0.940726,0.972367,0.997258,1.01735,1.0339
0.282831,0.511052,0.619416,0.678873,0.71576,0.740695,0.758613,0.772083,0.782567,0.790952
0.223743,0.547019,0.74086,0.862342,0.944894,1.00455,1.04966,1.08496,1.11335,1.13667
0.304342,0.955928,1.35784,1.59922,1.75632,1.86578,1.9461,2.00743,2.05574,2.09474
0.207295,0.793187,1.13984,1.33754,1.46275,1.54876,1.61142,1.65907,1.69653,1.72676
0.265601,1.14585,1.61073,1.86037,2.01464,2.11936,2.19511,2.25247,2.29742,2.33359
0.225363,0.996015,1.33791,1.51135,1.6163,1.68675,1.73737,1.77551,1.80528,1.82918
0.216854,1.14775,1.63305,1.91306,2.09673,2.22683,2.32392,2.39918,2.45925,2.5083
0.304432,1.8529,2.66659,3.12465,3.41622,3.61739,3.76427,3.8761,3.96403,4.03495
0.166078,1.14235,1.64849,1.92918,2.10659,2.2287,2.31786,2.38581,2.43931,2.48254
0.179677,1.32436,1.87775,2.17569,2.36158,2.48865,2.58103,2.65122,2.70638,2.75086
0.183966,1.33359,1.81532,2.06312,2.21456,2.31685,2.39061,2.44634,2.48993,2.52497
0.168679,1.37828,1.95577,2.28341,2.49606,2.64553,2.75643,2.84201,2.91006,2.96548
0.188112,1.70877,2.45502,2.87345,3.13979,3.3237,3.45813,3.56058,3.64122,3.70632
0.292584,2.87757,4.11836,4.79824,5.22538,5.51826,5.7315,5.89369,6.0212,6.12407
0.128303,1.3443,1.91698,2.23031,2.42793,2.56403,2.6635,2.7394,2.79922,2.84759
0.163702,1.52224,2.0152,2.25743,2.4016,2.49728,2.56542,2.61642,2.65603,2.68768
0.142012,1.51402,2.15165,2.52329,2.76951,2.94527,3.07722,3.18,3.26235,3.32983
0.149801,1.78538,2.58971,3.04935,3.34421,3.54849,3.69799,3.81198,3.90168,3.97408
0.123621,1.58219,2.27919,2.66235,2.90275,3.06728,3.1869,3.27778,3.34916,3.40671
0.135004,1.82764,2.61208,3.0377,3.30438,3.48722,3.62044,3.72186,3.80166,3.8661
0.16696,1.95827,2.58545,2.89061,3.07147,3.19124,3.27645,3.34018,3.38965,3.42916
0.135246,1.80681,2.57049,3.01728,3.31444,3.52719,3.68729,3.81223,3.91248,3.99472
0.136465,2.01609,2.92415,3.44298,3.77574,4.00617,4.17473,4.30319,4.40425,4.48577
0.134183,2.06736,2.94378,3.41557,3.70781,3.90613,4.04944,4.15781,4.24263,4.31083
0.149685,2.36701,3.34308,3.87008,4.20049,4.42739,4.59299,4.71925,4.81873,4.89915
0.11939,1.65535,2.19262,2.45862,2.61779,2.72382,2.79953,2.85631,2.90047,2.9358
0.13261,2.09276,2.98556,3.50916,3.85705,4.10576,4.29264,4.43829,4.55505,4.65074
0.144941,2.48056,3.57146,4.18419,4.57265,4.83953,5.03367,5.181,5.29653,5.3895
0.125421,1.07477,1.24213,1.30914,1.34504,1.3674,1.38266,1.39375,1.40216,1.40877
0.139483,1.74121,2.55115,3.13274,3.58183,3.94159,4.23704,4.48432,4.69446,4.87531
0.133951,2.00732,3.03012,3.65568,4.0607,4.33809,4.5374,4.68637,4.80132,4.89241
0.125141,2.25767,3.48204,4.19477,4.64695,4.95706,5.18262,5.35406,5.48884,5.59762
0.115128,2.40956,3.69222,4.40327,4.84752,5.15103,5.37163,5.53929,5.67107,5.77739
0.142059,3.12224,4.55979,5.30096,5.75154,6.05497,6.27346,6.43839,6.56733,6.67092
0.129643,2.97972,4.2959,4.99635,5.43598,5.73895,5.96078,6.13037,6.26427,6.3727
0.135845,2.90898,3.9841,4.52756,4.85814,5.08079,5.24098,5.36178,5.4561,5.53181
0.14242,3.32133,4.74319,5.54675,6.06897,6.43652,6.70951,6.92035,7.08814,7.22487
0.12585,3.23744,4.72816,5.57591,6.12073,6.49925,6.77709,6.98951,7.1571,7.29264
0.156542,4.14863,5.97661,6.97964,7.61081,8.04405,8.35974,8.59999,8.78895,8.94148
0.133093,3.62118,5.17752,6.02669,6.56171,6.92995,7.19898,7.40419,7.56591,7.69665
0.144682,3.4989,4.71383,5.32486,5.69338,5.94004,6.11675,6.2496,6.35311,6.43604
0.168089,4.57727,6.58109,7.74599,8.51457,9.06117,9.47028,9.78815,10.0423,10.2502
0.130042,3.68817,5.30756,6.2163,6.79455,7.19354,7.48492,7.70684,7.88138,8.02219
0.141775,4.18263,6.01857,7.03778,7.68381,8.12957,8.45566,8.70458,8.90085,9.05958
0.132893,4.05141,5.81412,6.78603,7.40099,7.82517,8.13546,8.37231,8.55906,8.71007
0.134681,3.84051,5.27912,6.02196,6.47542,6.78108,7.0011,7.16705,7.29668,7.40075
0.200505,2.23703,2.497,2.60016,2.65593,2.69097,2.71504,2.73262,2.74601,2.75656
0.101332,1.73063,2.53556,3.14884,3.64262,4.05091,4.39483,4.68874,4.94292,5.16498
0.12096,2.7417,4.38913,5.51537,6.2912,6.84209,7.24667,7.55319,7.7918,7.98192
0.11096,3.11511,5.01448,6.14054,6.845,7.31918,7.65831,7.91248,8.11001,8.26796
0.122323,3.63444,5.40545,6.2953,6.81727,7.16022,7.40322,7.58468,7.72549,7.838
0.135408,4.34402,6.38355,7.45801,8.12832,8.58994,8.92837,9.18754,9.39254,9.55883
0.128412,4.47968,6.59183,7.74191,8.47205,8.97804,9.34953,9.63385,9.85845,10.0403
0.109004,4.05405,5.92537,6.94317,7.58559,8.02802,8.3512,8.59757,8.79157,8.9483
0.117507,4.47757,6.42494,7.46614,8.11648,8.56147,8.88515,9.13119,9.32455,9.48052
0.119434,3.92555,5.23652,5.87658,6.25768,6.51081,6.69126,6.82642,6.93145,7.01543
0.127786,4.48383,6.31352,7.35533,8.0376,8.52095,8.88187,9.16186,9.38547,9.56823
0.117094,4.38285,6.29936,7.38661,8.08389,8.56743,8.92174,9.19222,9.40532,9.57746
0.107093,4.21014,6.06235,7.08847,7.73597,8.18077,8.50494,8.75163,8.94562,9.10218
0.175638,6.99768,9.93626,11.5176,12.5027,13.175,13.6633,14.0339,14.325,14.5596
0.124794,4.4107,5.93384,6.70001,7.16234,7.47207,7.6942,7.86133,7.99166,8.09616
0.113858,4.32641,6.1382,7.17809,7.85956,8.34214,8.70226,8.98143,9.20425,9.38626
0.13001,5.36084,7.78827,9.17701,10.0704,10.691,11.1465,11.4945,11.7689,11.9907
0.147883,6.47666,9.40616,11.0291,12.0515,12.7529,13.2635,13.6518,13.9569,14.203
0.120003,5.36992,7.71257,8.98958,9.79211,10.3435,10.7459,11.0525,11.2941,11.4893
0.103384,3.83742,5.07597,5.67912,6.03682,6.27383,6.4425,6.56869,6.66666,6.74493
0.121158,5.10292,7.33163,8.65059,9.53386,10.1692,10.6489,11.0242,11.326,11.5739
0.12383,2.21766,2.52546,2.64881,2.71483,2.7558,2.78363,2.80374,2.81894,2.83083
0.122257,3.14555,4.56709,5.59891,6.40018,7.04445,7.57505,8.02013,8.39909,8.72574
0.111601,3.83862,6.17616,7.7836,8.90407,9.71002,10.3092,10.7683,11.1293,11.4194
0.159359,5.54485,8.05093,9.31413,10.0365,10.4964,10.813,11.0439,11.2195,11.3576
0.106351,4.2952,6.47147,7.69747,8.48579,9.03936,9.45131,9.77062,10.0258,10.2345
0.109603,4.84975,7.21769,8.50424,9.30952,9.86085,10.2618,10.5662,10.8052,10.9977
0.116416,5.63168,8.35598,9.84306,10.7811,11.4275,11.9002,12.261,12.5454,12.7755
0.144842,7.3782,10.7678,12.5869,13.7242,14.5031,15.0701,15.5013,15.8404,16.1139
0.106045,4.48187,5.95469,6.65914,7.07471,7.34936,7.54452,7.69039,7.80356,7.89394
0.116518,5.45997,7.78891,9.13878,10.0346,10.6754,11.1573,11.5332,11.8348,12.0821
0.10944,5.68956,8.35078,9.88382,10.8732,11.5611,12.0657,12.4511,12.7546,12.9998
0.127962,3.36098,3.94821,4.18561,4.31317,4.39265,4.44688,4.48624,4.51612,4.53957
0.121223,4.2949,6.20019,7.50124,8.4709,9.22702,9.83488,10.3349,10.7536,11.1096
0.104212,4.30627,6.4396,7.73118,8.56871,9.14533,9.56223,9.87572,10.1191,10.3129
0.118817,5.73561,8.73581,10.4604,11.5494,12.2942,12.8346,13.2446,13.5663,13.8255
0.117029,6.18352,9.26107,10.9398,11.9833,12.6946,13.2109,13.6029,13.9109,14.1592
0.110511,6.23893,9.20984,10.8142,11.8187,12.5085,13.012,13.3959,13.6984,13.943
0.113285,6.78893,9.94029,11.648,12.7232,13.4636,14.0049,14.4178,14.7433,15.0064
0.12048,3.11062,3.56166,3.73579,3.82859,3.88634,3.92575,3.95436,3.97609,3.99315
0.113045,4.11357,5.94869,7.25183,8.25326,9.05237,9.70647,10.2524,10.7151,11.1125
0.112371,5.30957,8.39955,10.463,11.88,12.8903,13.6372,14.2073,14.6545,15.0133
0.174386,9.42027,14.5173,17.3738,19.1186,20.2781,21.1006,21.7134,22.1874,22.5649
0.12501,7.08842,10.4303,12.1604,13.2053,13.9063,14.4104,14.7911,15.0889,15.3286
0.0972793,4.6755,6.28572,7.05744,7.51513,7.81984,8.03781,8.20165,8.32937,8.43174
0.120785,6.97405,10.2863,12.2552,13.5818,14.5406,15.2669,15.8364,16.2951,16.6726
0.105879,6.86196,10.2575,12.1933,13.4306,14.2842,14.9065,15.3792,15.7501,16.0486
0.104003,7.0505,10.3243,12.1006,13.2085,13.9645,14.5132,14.9296,15.2566,15.5201
0.141529,9.71522,13.9307,16.178,17.5775,18.5342,19.2302,19.7596,20.1759,20.5118
0.124721,6.73926,8.78151,9.75111,10.321,10.6968,10.9635,11.1626,11.317,11.4402
0.0986033,5.97872,8.52061,10.0319,11.0505,11.7869,12.3451,12.7831,13.1361,13.4267
0.0977751,6.37965,9.26104,10.9112,11.969,12.7003,13.2342,13.6404,13.9593,14.2162
