0.405016,0.503376,0.547715,0.572948,0.589235,0.600618,0.609022,0.615481,0.620599,0.624756
0.237417,0.395661,0.485527,0.542508,0.581693,0.610247,0.631962,0.649026,0.662786,0.674114
0.190491,0.415202,0.553697,0.641747,0.701641,0.744742,0.777147,0.802357,0.82251,0.83898
0.160846,0.42525,0.581202,0.674219,0.734754,0.777028,0.808145,0.831981,0.850813,0.866063
0.141131,0.462334,0.66063,0.781496,0.861834,0.918967,0.96166,0.99477,1.0212,1.04278
0.248871,0.974003,1.41422,1.67595,1.84726,1.96777,2.05707,2.12586,2.18047,2.22486
0.117586,0.509343,0.72239,0.841185,0.916325,0.968079,1.00589,1.03471,1.05742,1.07576
0.111867,0.558978,0.807974,0.952022,1.04591,1.11203,1.16113,1.19906,1.22925,1.25384
0.112258,0.621192,0.889371,1.03923,1.13451,1.20037,1.24856,1.28536,1.31436,1.3378
0.104504,0.656236,0.958662,1.13496,1.25057,1.33231,1.39319,1.44031,1.47787,1.5085
0.107457,0.753107,1.10924,1.31765,1.45425,1.55064,1.62226,1.67757,1.72156,1.75738
0.103485,0.763511,1.0972,1.28291,1.40088,1.48239,1.54206,1.58763,1.62356,1.65262
0.104379,0.856168,1.25611,1.48976,1.64339,1.75225,1.83346,1.89639,1.9466,1.98759
0.0985743,0.830655,1.18522,1.38117,1.50524,1.59076,1.65327,1.70092,1.73845,1.76877
0.0980319,0.905431,1.32223,1.56585,1.72623,1.83997,1.92489,1.99073,2.04328,2.08621
0.0974755,0.985851,1.45515,1.72989,1.90984,2.03667,2.13082,2.20345,2.26116,2.30812
0.0973303,1.01477,1.46698,1.72123,1.88381,1.99667,2.07957,2.14306,2.19322,2.23387
0.0950354,1.07054,1.57159,1.86385,2.05574,2.19152,2.29272,2.37107,2.43354,2.48452
0.0917324,1.0607,1.53003,1.79394,1.96284,2.08012,2.16627,2.23223,2.28433,2.32653
0.0901482,1.11418,1.6293,1.92857,2.12456,2.26297,2.36598,2.44563,2.50908,2.56082
0.206812,2.75898,4.08827,4.87178,5.38788,5.75331,6.02558,6.23623,6.40405,6.54087
0.0865462,1.15848,1.66609,1.94802,2.12689,2.25037,2.3407,2.40963,2.46397,2.5079
0.0862241,1.21553,1.77615,2.10356,2.3192,2.47224,2.58658,2.6753,2.74615,2.80406
0.0873796,1.24172,1.78272,2.08654,2.28083,2.41564,2.5146,2.59031,2.65008,2.69846
0.0853937,1.30851,1.92323,2.28417,2.52191,2.69041,2.81612,2.91351,2.99119,3.05461
0.0884201,1.43362,2.11401,2.50992,2.7682,2.94979,3.08437,3.18806,3.27039,3.33734
0.0871399,1.3815,1.96506,2.28378,2.4842,2.62181,2.72213,2.79851,2.8586,2.90712
0.151584,2.58908,3.79406,4.50066,4.96722,5.29888,5.54697,5.73962,5.89359,6.01947
0.0834188,1.43018,2.06038,2.41571,2.64344,2.80167,2.91792,3.00692,3.07722,3.13415
0.0839277,1.53335,2.25601,2.68086,2.96093,3.15959,3.30786,3.42279,3.5145,3.58938
0.0852795,1.63842,2.41598,2.86776,3.16216,3.36897,3.52214,3.6401,3.73372,3.80983
0.0804773,1.55405,2.24566,2.63277,2.87975,3.05097,3.17665,3.27284,3.34881,3.41035
0.0822068,1.7362,2.58067,3.07855,3.40728,3.64072,3.8151,3.95035,4.05832,4.14651
0.174196,3.72501,5.40892,6.34931,6.94745,7.36085,7.66345,7.89445,8.07654,8.22374
0.0810779,1.77,2.58048,3.04791,3.35345,3.56921,3.72984,3.85413,3.95319,4.03401
0.0810981,1.8394,2.70299,3.2073,3.53823,3.77204,3.94597,4.08039,4.18739,4.27456
0.0800369,1.79122,2.57641,3.01678,3.29822,3.49351,3.6369,3.74665,3.83335,3.90356
0.0792858,1.88203,2.76859,3.28924,3.63242,3.87585,4.05757,4.19843,4.31084,4.40264
0.0782871,1.92026,2.80703,3.31264,3.63812,3.86483,4.03167,4.15955,4.26066,4.34259
0.0776226,2.02863,3.0025,3.56833,3.93782,4.19807,4.39132,4.54052,4.65918,4.75583
0.0737405,0.619157,0.683119,0.707507,0.720398,0.728379,0.733807,0.737741,0.740722,0.74306
0.0679596,0.885256,1.3026,1.63018,1.90041,2.12842,2.32378,2.49319,2.64157,2.77264
0.0730541,1.34113,2.26207,2.96272,3.48431,3.87603,4.17586,4.41025,4.59718,4.74901
0.0720241,1.6489,2.75586,3.44287,3.87996,4.17568,4.3873,4.54574,4.66866,4.76677
0.0720002,1.9542,3.18479,3.88944,4.3335,4.63906,4.86279,5.03404,5.16954,5.27953
0.15121,4.61679,7.27644,8.74895,9.68283,10.3312,10.8087,11.1755,11.4663,11.7025
0.0727768,2.18226,3.21441,3.75933,4.10055,4.33553,4.50752,4.63896,4.74271,4.8267
0.0729829,2.33768,3.49554,4.16344,4.60527,4.92044,5.15687,5.34086,5.48817,5.60877
0.0726825,2.31163,3.35851,3.93863,4.3089,4.56556,4.75382,4.89773,5.01128,5.10315
0.0737728,2.50608,3.72097,4.43224,4.90177,5.23519,5.4843,5.67752,5.83179,5.95783
0.072294,2.58962,3.844,4.56623,5.03452,5.36224,5.60422,5.79013,5.9374,6.05692
0.142522,5.15436,7.49989,8.8048,9.6349,10.2093,10.6304,10.9523,11.2065,11.4122
0.0734901,2.68818,3.92911,4.64567,5.11504,5.44703,5.69448,5.88614,6.03899,6.16377
0.0723343,2.52856,3.61168,4.21816,4.60676,4.87705,5.0759,5.22831,5.34883,5.44651
0.07175,2.6475,3.89441,4.63308,5.12284,5.47153,5.73248,5.93512,6.09703,6.22939
0.0654588,2.52819,3.75825,4.48592,4.96518,5.30418,5.55645,5.75142,5.90659,6.033
0.0700574,2.67884,3.87773,4.54546,4.96901,5.26123,5.4749,5.63791,5.76636,5.87018
0.0697688,0.926777,1.03286,1.07418,1.09627,1.11005,1.11947,1.12633,1.13154,1.13564
0.0702956,1.39975,2.05245,2.55374,2.96027,3.29852,3.58495,3.83083,4.04432,4.23147
0.0677092,1.87468,3.13771,4.08176,4.7771,5.29601,5.69172,6.00038,6.24627,6.44587
0.0680124,2.3774,4.01989,5.06472,5.74297,6.20889,6.54613,6.80084,6.9998,7.15948
0.112663,4.41321,7.00043,8.40954,9.26922,9.84751,10.2639,10.5786,10.8251,11.0235
0.159632,6.58712,10.0994,12.0465,13.2972,14.1759,14.8296,15.3359,15.7399,16.07
0.0689977,2.75038,3.98917,4.64775,5.06135,5.34623,5.55456,5.71357,5.83891,5.94026
0.0679559,2.94388,4.40643,5.26475,5.83647,6.24571,6.55336,6.79315,6.98533,7.14281
0.0675002,3.05251,4.5575,5.43088,6.00193,6.4039,6.70192,6.93157,7.1139,7.26213
0.0675929,2.98833,4.33356,5.08262,5.56048,5.89185,6.13514,6.32137,6.46851,6.58772
0.110126,5.07014,7.45288,8.83185,9.73447,10.3719,10.8463,11.2132,11.5054,11.7437
0.0680391,3.06158,4.41767,5.18071,5.67041,6.01129,6.26221,6.45459,6.60678,6.73018
0.0679466,3.20856,4.73953,5.64367,6.24205,6.66763,6.9859,7.23296,7.4303,7.59158
0.068105,3.34066,4.95722,5.90369,6.5234,6.96007,7.28415,7.53413,7.73276,7.89438
0.0670114,3.28634,4.78836,5.63425,6.17535,6.55099,6.82695,7.03824,7.2052,7.34047
0.108975,5.69506,8.48408,10.1269,11.2114,11.9816,12.557,13.0033,13.3597,13.6509
0.068368,3.33855,4.76928,5.55813,6.05804,6.40317,6.65576,6.8486,7.00065,7.12361
0.0680145,3.46746,5.09515,6.05622,6.69372,7.14824,7.48891,7.75383,7.96579,8.13923
0.0687929,3.6129,5.32543,6.32233,6.97266,7.42962,7.76799,8.02851,8.2352,8.40316
0.0998363,5.22743,7.57138,8.88297,9.71845,10.2967,10.7206,11.0447,11.3004,11.5074
0.0672402,3.53698,5.1509,6.08226,6.69089,7.1205,7.4402,7.6875,7.88454,8.04525
0.0681181,3.61064,5.25298,6.19484,6.80549,7.23331,7.54961,7.79292,7.98586,8.14258
0.0675325,3.78224,5.60455,6.67454,7.37754,7.87449,8.24434,8.5303,8.75799,8.94358
0.100294,5.78318,8.51778,10.0808,11.0882,11.7907,12.3083,12.7053,13.0195,13.2742
0.067997,3.70931,5.30137,6.18277,6.74385,7.13287,7.41864,7.63753,7.8106,7.95089
0.0690601,3.87526,5.66824,6.72179,7.41869,7.91457,8.28566,8.57387,8.80421,8.99253
0.0682228,3.80969,5.50775,6.46814,7.08382,7.5114,7.82537,8.06556,8.2552,8.40869
0.107179,6.35999,9.40638,11.1917,12.3639,13.1926,13.8095,14.2867,14.6669,14.9769
0.0688641,3.77012,5.39622,6.31326,6.9035,7.3156,7.61977,7.85356,8.03888,8.18939
0.0685073,3.74934,5.40998,6.36636,6.98945,7.42783,7.75308,8.00399,8.20343,8.36578
0.0692037,4.04273,6.00391,7.17305,7.94789,8.4986,8.90994,9.22879,9.48315,9.69078
0.0673056,3.91137,5.72449,6.76417,7.4358,7.9049,8.25093,8.51664,8.72708,8.89786
0.068719,3.99952,5.76667,6.74702,7.36856,7.79759,8.1115,8.35115,8.54009,8.69289
0.0688044,4.22856,6.27518,7.49033,8.29846,8.87574,9.30908,9.64648,9.9167,10.138
0.0678356,4.0946,5.94318,6.98609,7.65407,8.11787,8.45844,8.71904,8.9248,9.09137
0.0683373,4.41684,6.5613,7.81781,8.64308,9.22668,9.66128,9.99752,10.2654,10.4839
0.0997479,6.45799,9.4065,11.0574,12.1094,12.8375,13.3712,13.779,14.1008,14.3611
0.0678268,4.20918,6.07754,7.14791,7.84626,8.33908,8.70591,8.98975,9.21598,9.40057
0.0679373,4.45128,6.61354,7.90848,8.77176,9.38817,9.8502,10.2093,10.4964,10.7311
0.0679645,4.37111,6.32246,7.41236,8.10417,8.58122,8.92971,9.1953,9.40437,9.5732
0.0938483,6.39879,9.45855,11.2429,12.4127,13.2394,13.8551,14.3315,14.7113,15.0211
0.0680236,4.43315,6.39379,7.49928,8.20977,8.70508,9.07016,9.35042,9.57234,9.75242
0.0673966,4.51296,6.5959,7.80328,8.59258,9.14915,9.56275,9.88222,10.1364,10.3435
