1.10067,1.2312,1.28187,1.30881,1.32552,1.3369,1.34515,1.3514,1.3563,1.36025
0.712933,1.08055,1.27594,1.3964,1.47797,1.53683,1.5813,1.61608,1.64401,1.66695
0.609312,1.31027,1.76187,2.05825,2.26405,2.41423,2.52825,2.6176,2.68943,2.74838
0.576846,1.61504,2.27671,2.67934,2.9416,3.12394,3.25739,3.35906,3.43897,3.50339
0.603284,2.07421,2.9598,3.46768,3.78946,4.01051,4.17155,4.29406,4.3904,4.46814
0.538246,1.87698,2.47842,2.77491,2.94942,3.06428,3.14563,3.20627,3.25323,3.29067
0.522022,2.2505,3.18993,3.73844,4.10131,4.3603,4.55482,4.70643,4.82797,4.92763
0.551257,2.81486,4.06085,4.76952,5.22242,5.53548,5.76426,5.93849,6.0755,6.18599
0.496248,2.61727,3.58549,4.08054,4.37879,4.57776,4.71988,4.82645,4.90933,4.97563
0.486489,3.00496,4.30266,5.04189,5.52244,5.86094,6.11264,6.30729,6.46237,6.58888
0.505244,3.30561,4.61288,5.30732,5.73583,6.0259,6.23501,6.39276,6.51596,6.61479
0.49857,3.68053,5.25307,6.13013,6.6906,7.08013,7.36675,7.58658,7.76057,7.90172
0.471217,3.35832,4.52548,5.11202,5.4638,5.69797,5.86495,5.98998,6.0871,6.16469
0.464318,3.91014,5.64317,6.65918,7.33278,7.81362,8.17459,8.45576,8.68104,8.86564
0.480821,4.14533,5.78596,6.65825,7.19519,7.55755,7.81801,8.01402,8.16675,8.28906
0.45502,3.35236,4.31715,4.77815,5.04865,5.22673,5.35294,5.44712,5.5201,5.57833
0.4519,4.22319,6.15886,7.36632,8.2025,8.81836,9.29162,9.66696,9.97205,10.225
0.447782,4.92548,7.35742,8.78296,9.70139,10.3364,10.7993,11.1507,11.4261,11.6474
0.760691,8.93021,12.8997,15.0153,16.311,17.1832,17.8099,18.282,18.6505,18.9461
0.445992,5.27451,7.36222,8.44071,9.10049,9.54691,9.86954,10.1138,10.3053,10.4594
0.44611,5.91938,8.56717,10.0661,11.0381,11.7213,12.2283,12.6196,12.9309,13.1844
0.461507,6.32899,8.97018,10.3869,11.2677,11.8671,12.3008,12.629,12.8859,13.0924
0.447908,5.63165,7.55389,8.51442,9.09177,9.47745,9.75347,9.96084,10.1224,10.2518
0.443429,6.23915,8.88225,10.4078,11.4114,12.1239,12.6567,13.0704,13.401,13.6713
0.451836,6.59564,9.32232,10.8175,11.7559,12.3974,12.8627,13.2152,13.4914,13.7135
0.448565,6.01236,8.06064,9.09002,9.70767,10.1193,10.4132,10.6337,10.8051,10.9423
0.441403,6.9424,10.0823,11.9489,13.1962,14.0911,14.7655,15.2922,15.7151,16.0622
0.444479,7.78757,11.4456,13.5292,14.8587,15.7758,16.4447,16.9534,17.3529,17.6747
0.443875,7.86827,11.1466,12.8702,13.9248,14.6355,15.1467,15.5322,15.8333,16.075
0.442265,7.85238,10.9557,12.5961,13.6153,14.3118,14.8186,15.2041,15.5074,15.7522
0.461655,9.06785,13.1269,15.4414,16.9444,18.0002,18.783,19.3865,19.866,20.2562
0.449576,8.94765,12.6679,14.6676,15.9107,16.7564,17.3683,17.8313,18.1937,18.485
0.462626,8.09961,10.7703,12.0918,12.8816,13.4074,13.7828,14.0644,14.2834,14.4587
0.443191,8.8538,12.7217,15.0068,16.5325,17.6273,18.4522,19.0965,19.6139,20.0386
0.444689,9.64745,14.0268,16.5176,18.1089,19.2078,20.0101,20.6207,21.1004,21.4871
0.451723,8.34824,11.0696,12.3851,13.1551,13.6598,14.0161,14.2811,14.4858,14.6488
0.459937,9.72865,13.9578,16.4399,18.0928,19.2783,20.1719,20.8703,21.4316,21.8926
0.433513,9.83613,14.2258,16.7036,18.2818,19.3701,20.164,20.7677,21.2419,21.6239
0.437744,10.0483,14.2128,16.4389,17.8159,18.7505,19.4261,19.9373,20.3376,20.6596
0.430109,9.91293,13.8568,15.9545,17.2585,18.1488,18.7958,19.2874,19.6738,19.9855
0.429905,10.7587,15.5394,18.2629,20.0292,21.269,22.1876,22.8958,23.4583,23.9161
0.432548,11.1601,15.939,18.5458,20.1792,21.2962,22.1073,22.7226,23.2053,23.5939
0.442527,9.77358,12.9423,14.4886,15.4044,16.0101,16.4406,16.7624,17.0121,17.2115
0.604456,15.0978,21.6457,25.5161,28.1055,29.9672,31.3727,32.4722,33.3562,34.0826
0.447667,12.3392,18.073,21.3735,23.4964,24.9685,26.0462,26.8677,27.5141,28.0356
0.455734,10.7208,14.2869,16.0126,17.0214,17.6818,18.1474,18.4933,18.7604,18.9729
0.434289,11.7876,17.0569,20.1715,22.2546,23.7532,24.8856,25.7724,26.4861,27.0731
0.433622,12.6609,18.4676,21.7655,23.873,25.3293,26.3931,27.203,27.8396,28.3528
0.441135,12.9424,18.3604,21.2453,23.0251,24.2309,25.1014,25.7594,26.2742,26.6881
0.429565,12.6246,17.7033,20.4081,22.0923,23.2438,24.0817,24.719,25.2203,25.6249
0.431584,13.6373,19.6402,23.0232,25.2022,26.7246,27.8487,28.7128,29.3978,29.9542
0.428862,13.8414,19.7213,22.9228,24.9303,26.3045,27.3036,28.0622,28.6578,29.1377
0.434399,12.5084,16.8339,19.0035,20.3079,21.179,21.8021,22.27,22.6344,22.9261
0.426317,13.3018,18.8644,22.041,24.1155,25.5812,26.6733,27.5189,28.1933,28.7438
0.438213,14.8504,21.5825,25.4405,27.9276,29.6589,30.9313,31.9049,32.6735,33.2954
0.427281,12.0128,15.8634,17.7197,18.8048,19.515,20.0158,20.3876,20.6747,20.903
0.439315,14.3335,20.7403,24.5726,27.1554,29.023,30.4394,31.5516,32.4487,33.1879
0.430414,15.2388,22.2898,26.3095,28.8769,30.6484,31.9403,32.9223,33.693,34.3136
0.438874,15.4411,21.8669,25.2735,27.3682,28.7842,29.8051,30.5761,31.179,31.6634
0.445242,15.2089,21.103,24.2019,26.1194,27.4257,28.3739,29.094,29.6595,30.1156
0.556173,19.5934,27.6151,32.0305,34.8396,36.7868,38.2168,39.3118,40.1771,40.8782
0.427271,15.8392,22.6806,26.5114,28.9591,30.6567,31.9027,32.8558,33.6083,34.2173
0.43057,14.1808,19.0857,21.5439,23.0152,23.9934,24.6904,25.2121,25.6172,25.9408
0.564007,21.176,30.7115,36.3427,40.0929,42.7783,44.7991,46.3759,47.6411,48.6791
0.439855,17.6792,25.7604,30.3147,33.2082,35.1997,36.6505,37.7529,38.6183,39.3151
0.420768,14.3077,19.0376,21.3228,22.6618,23.5406,24.1616,24.6238,24.9813,25.266
0.534262,20.797,30.0644,35.5479,39.2206,41.8652,43.8646,45.4309,46.6917,47.729
0.441175,18.5409,27.1225,32.0181,35.1537,37.3229,38.9084,40.116,41.0654,41.8309
0.430638,18.071,25.6814,29.7399,32.245,33.9424,35.168,36.0946,36.8196,37.4025
0.425542,16.2094,21.9649,24.874,26.6343,27.8162,28.6654,29.3053,29.805,30.2061
0.421412,17.9798,26.0166,30.7227,33.8426,36.069,37.7396,39.04,40.0814,40.9342
0.524599,23.0111,32.9473,38.4072,41.831,44.1686,45.8625,47.1446,48.1481,48.9545
0.431338,16.1248,21.4625,24.0923,25.6559,26.6927,27.4309,27.9834,28.4126,28.7557
0.420214,17.909,25.8935,30.6455,33.8335,36.1294,37.8644,39.2229,40.3158,41.2143
0.619548,27.8319,40.2618,47.2335,51.6473,54.6763,56.8775,58.5468,59.8547,60.9065
0.436756,16.2147,21.4551,24.0019,25.5016,26.4895,27.1895,27.7117,28.1162,28.4389
0.426007,18.2517,26.4305,31.3281,34.6296,37.0166,38.8261,40.2465,41.3917,42.3348
0.435376,19.7613,28.6003,33.5431,36.6622,38.7966,40.344,41.5151,42.4311,43.1666
0.431578,20.0679,28.681,33.3377,36.2381,38.2166,39.6525,40.7424,41.598,42.2878
0.421768,19.2806,26.9927,31.069,33.5921,35.3097,36.5552,37.5,38.2415,38.8389
0.430937,21.0409,30.2476,35.4154,38.7379,41.057,42.7686,44.0841,45.1268,45.9738
0.428362,21.4404,30.6338,35.6609,38.8219,40.99,42.5683,43.768,44.7106,45.4706
0.563236,24.6001,32.9462,37.0867,39.5598,41.2043,42.3769,43.2554,43.9381,44.4841
0.431156,21.1776,30.5766,36.128,39.8338,42.4928,44.4967,46.0622,47.3195,48.3517
0.505236,26.6162,38.8289,45.7694,50.2028,53.2645,55.5,57.2013,58.5383,59.6159
0.435575,19.0264,25.2636,28.2854,30.0588,31.2238,32.0475,32.6607,33.1351,33.5131
0.42038,20.9164,30.2045,35.7155,39.4114,42.0747,44.0893,45.668,46.9393,47.9853
0.429026,23.1926,33.9606,40.1018,44.0285,46.7404,48.7198,50.2254,51.4079,52.3605
0.426504,23.0852,32.8978,38.1451,41.388,43.5874,45.1766,46.3787,47.3198,48.0767
0.496653,26.2306,36.6013,42.0602,45.4358,47.7334,49.3999,50.6646,51.6574,52.4576
0.422437,24.1101,34.8485,40.9545,44.914,47.6942,49.7548,51.3437,52.6063,53.6338
0.508712,29.3583,41.8644,48.6708,52.9341,55.8494,57.9665,59.5727,60.8326,61.8471
0.424618,20.206,26.6731,29.8422,31.7269,32.9777,33.8688,34.5362,35.0547,35.4693
0.425067,23.0999,33.3225,39.4431,43.5676,46.5466,48.8024,50.5711,51.9957,53.1679
0.440742,25.3324,36.7173,43.1518,47.2403,50.0513,52.0963,53.6481,54.8645,55.843
0.423982,20.6281,27.4746,30.8127,32.7762,34.0676,34.9815,35.6624,36.1893,36.6093
0.49854,27.6344,39.9733,47.2912,52.1928,55.7214,58.3883,60.4771,62.1582,63.5408
0.42397,25.2804,37.0825,43.8641,48.2267,51.2544,53.4728,55.1656,56.4984,57.5745
0.42877,25.4766,36.2675,42.0271,45.58,47.9855,49.7213,51.0326,52.0582,52.8823
0.424518,25.0995,35.264,40.6658,44.0231,46.3157,47.9823,49.2493,50.2452,51.0488
