0.311353,0.398661,0.439767,0.463671,0.479304,0.490324,0.498511,0.504833,0.509862,0.513958
0.175359,0.299292,0.371602,0.418122,0.450405,0.474077,0.492161,0.506421,0.517951,0.527464
0.115786,0.259743,0.351132,0.410145,0.450668,0.480012,0.502174,0.519472,0.533337,0.544691
0.290293,0.845103,1.21821,1.45856,1.62265,1.74103,1.83022,1.89976,1.95546,2.00107
0.0862179,0.305507,0.446977,0.533259,0.590217,0.630435,0.660301,0.683342,0.701652,0.716551
0.083397,0.351307,0.519757,0.621074,0.688009,0.735474,0.770887,0.798325,0.820212,0.838078
0.19159,0.930523,1.37832,1.64398,1.81892,1.94279,2.03513,2.10661,2.16358,2.21006
0.329136,1.82191,2.70371,3.22398,3.56625,3.8085,3.98898,4.12864,4.23993,4.3307
0.0679336,0.413147,0.605876,0.717092,0.789387,0.840152,0.877759,0.906737,0.929751,0.94847
0.0633494,0.42343,0.622502,0.73902,0.815659,0.869946,0.910431,0.941789,0.966796,0.987206
0.0617785,0.444208,0.651731,0.773571,0.853844,0.910744,0.953187,0.986062,1.01228,1.03367
0.0606097,0.460677,0.667784,0.786482,0.863368,0.917202,0.95699,0.98759,1.01185,1.03156
0.0571744,0.485025,0.720074,0.860555,0.954047,1.02077,1.07078,1.10967,1.14077,1.16622
0.0577534,0.532368,0.793308,0.948475,1.05112,1.12399,1.17838,1.22052,1.25413,1.28155
0.0503348,0.499887,0.744569,0.889093,0.984347,1.05183,1.10214,1.14109,1.17214,1.19747
0.0502544,0.522216,0.767517,0.909178,1.00137,1.06615,1.11416,1.15118,1.18058,1.20451
0.053023,0.572133,0.835517,0.987787,1.08722,1.15732,1.20941,1.24965,1.28168,1.30777
0.0497545,0.579796,0.861002,1.02872,1.14026,1.21982,1.27944,1.32577,1.36282,1.39311
0.0476714,0.584811,0.863743,1.0266,1.1331,1.20811,1.26377,1.3067,1.34081,1.36857
0.0497579,0.652237,0.969986,1.15768,1.28156,1.36945,1.43506,1.48591,1.52648,1.55961
0.0867015,1.21598,1.81719,2.17318,2.40828,2.57508,2.69955,2.79598,2.87288,2.93564
0.0454194,0.659952,0.975533,1.15887,1.27862,1.36296,1.42559,1.47392,1.51236,1.54365
0.0460306,0.695518,1.02598,1.21867,1.34506,1.43438,1.50088,1.55232,1.5933,1.62671
0.045816,0.703993,1.02774,1.21423,1.33563,1.42097,1.48424,1.53303,1.5718,1.60334
0.17505,2.8342,4.19723,5.00785,5.54643,5.93046,6.21817,6.44179,6.62059,6.76683
0.0448736,0.763525,1.13589,1.35682,1.50285,1.60646,1.68376,1.74362,1.79135,1.83029
0.077836,1.37878,2.04959,2.44546,2.70635,2.8912,3.02902,3.13573,3.22079,3.29019
0.0453023,0.828303,1.22983,1.46709,1.62384,1.73514,1.81828,1.88274,1.93419,1.97621
0.0430428,0.802184,1.18725,1.41491,1.56549,1.67251,1.7525,1.81455,1.86409,1.90456
0.0432772,0.835182,1.23784,1.4756,1.63245,1.74366,1.8266,1.89083,1.94204,1.98381
0.0425915,0.845754,1.25456,1.49669,1.65687,1.77069,1.85574,1.92171,1.97437,2.01738
0.0410505,0.842129,1.24781,1.48642,1.64337,1.75442,1.83712,1.90109,1.95205,1.99359
0.0418628,0.905923,1.35549,1.62355,1.80146,1.92814,2.02293,2.09653,2.15533,2.20338
0.0440106,0.949511,1.3938,1.65044,1.81752,1.93495,2.02199,2.0891,2.14241,2.18578
0.0410701,0.920115,1.36297,1.62483,1.79813,1.92138,2.01356,2.08511,2.14226,2.18897
0.0435781,1.02805,1.53775,1.84182,2.0436,2.18719,2.29457,2.37788,2.44439,2.49871
0.0393169,0.964133,1.43828,1.7172,1.90046,2.02998,2.12635,2.20084,2.26014,2.30846
0.0394607,1.0001,1.48813,1.77426,1.96225,2.09521,2.19425,2.27088,2.33193,2.38173
0.0388625,1.02252,1.52261,1.8164,2.00974,2.14665,2.24868,2.32767,2.39063,2.44198
0.0173626,0.0294089,0.0296731,0.0297627,0.029808,0.0298353,0.0298536,0.0298667,0.0298765,0.0298842
0.0182929,0.0609247,0.0913118,0.120954,0.149997,0.178484,0.206438,0.233877,0.260817,0.287272
0.0178887,0.114327,0.244463,0.405603,0.584931,0.771463,0.956819,1.13523,1.30315,1.45872
0.018974,0.22261,0.609279,1.08344,1.52846,1.89264,2.17357,2.3867,2.5491,2.67455
0.018145,0.363943,1.0564,1.67217,2.07486,2.32975,2.49947,2.61954,2.70901,2.77846
0.0181233,0.561754,1.45194,1.98809,2.28492,2.47186,2.60246,2.70004,2.77627,2.83773
0.0196639,0.808853,1.68017,2.07872,2.30122,2.44832,2.55453,2.63535,2.69908,2.7507
0.0187658,0.922648,1.65613,1.99851,2.21083,2.35955,2.47038,2.55637,2.62508,2.68126
0.0192093,1.09132,1.83571,2.22214,2.47591,2.65751,2.79415,2.90072,2.98616,3.05618
0.0197041,1.20227,1.90362,2.27846,2.52258,2.6948,2.82281,2.92167,3.00031,3.06436
0.0246237,1.57697,2.42142,2.89022,3.19725,3.41435,3.57604,3.70115,3.80083,3.88213
0.0201971,1.33728,2.02152,2.41161,2.66806,2.84967,2.98506,3.08989,3.17345,3.24162
0.0673793,4.47938,6.6424,7.87127,8.67105,9.23323,9.65001,9.97134,10.2266,10.4343
0.0196758,1.30531,1.9339,2.30266,2.54722,2.72153,2.85212,2.95364,3.03484,3.10127
0.0196685,1.34522,2.01653,2.41933,2.68855,2.88111,3.02564,3.13808,3.22805,3.30167
0.0199696,1.40241,2.10796,2.52978,2.81004,3.00959,3.15884,3.27466,3.36714,3.44269
0.0212951,1.50718,2.25083,2.69009,2.97993,3.18546,3.33881,3.45761,3.55236,3.62969
0.0201551,0.945623,1.40747,1.73972,1.99643,2.20209,2.37099,2.51233,2.63244,2.7358
0.025554,1.4561,2.32363,2.91167,3.32279,3.62113,3.84531,4.0189,4.15678,4.26865
0.0208528,1.26951,1.9662,2.37842,2.64316,2.82614,2.9599,3.06189,3.14225,3.2072
0.0202473,1.32378,2.03752,2.45585,2.72908,2.92191,3.06552,3.17674,3.26548,3.33795
0.0202655,1.40707,2.15848,2.60149,2.89402,3.10199,3.25755,3.37833,3.47483,3.55372
0.0200598,1.47896,2.26332,2.72575,3.03105,3.24777,3.4096,3.53503,3.6351,3.71679
0.0595963,4.46266,6.6803,7.94941,8.77247,9.34968,9.77693,10.1059,10.3671,10.5795
0.0206449,1.51508,2.23466,2.6502,2.92269,3.11556,3.25939,3.37082,3.45972,3.53229
0.0209772,1.56702,2.33258,2.78775,3.09082,3.30724,3.46955,3.59578,3.69676,3.77938
0.0209679,1.60725,2.40384,2.87775,3.19183,3.41508,3.58184,3.71113,3.81427,3.89846
0.0214612,1.69605,2.54572,3.05086,3.38519,3.6227,3.80009,3.93762,4.04736,4.13696
0.0613083,4.92209,7.32874,8.73146,9.64835,10.2942,10.7738,11.1438,11.438,11.6776
0.0221442,1.7089,2.50813,2.97444,3.28137,3.49907,3.66166,3.78775,3.88842,3.97066
0.0207989,1.63248,2.42223,2.89264,3.20532,3.42823,3.59515,3.72482,3.82844,3.91314
0.0211739,1.72017,2.5793,3.09417,3.43651,3.68037,3.86282,4.00442,4.11751,4.2099
0.0241303,1.84889,2.68794,3.16772,3.47829,3.69579,3.85664,3.98042,4.07864,4.15848
0.0576222,4.30469,6.22808,7.33326,8.05258,8.55853,8.93393,9.22358,9.45388,9.64139
0.0239171,1.84198,2.73453,3.27342,3.6349,3.89431,4.08956,4.24184,4.36394,4.46401
0.0218066,1.74916,2.6229,3.14602,3.49264,3.73872,3.92228,4.06439,4.17764,4.26998
0.0216853,1.79765,2.70142,3.23815,3.59248,3.8437,4.03107,4.1762,4.29191,4.38634
0.0212908,1.85662,2.80925,3.3763,3.75149,4.018,4.21705,4.37138,4.49454,4.59509
0.0653639,5.83844,8.75954,10.4673,11.5859,12.3753,12.9622,13.4157,13.7765,14.0705
0.025125,1.9968,2.86669,3.35962,3.6793,3.90401,4.07079,4.19956,4.30201,4.38547
0.0254081,1.90683,2.73732,3.2211,3.53991,3.76617,3.93515,4.06617,4.17074,4.25614
0.022725,1.70497,2.492,2.96255,3.2758,3.49919,3.66647,3.79639,3.90019,3.98502
0.0224296,1.82814,2.76652,3.34174,3.72799,4.00455,4.21213,4.37357,4.50269,4.60829
0.023213,1.91562,2.84348,3.37756,3.72174,3.96146,4.13787,4.27308,4.37999,4.46664
0.0234142,1.97381,2.94596,3.52022,3.90011,4.1705,4.37296,4.53031,4.65616,4.75913
0.0241835,2.08313,3.11967,3.73611,4.1451,4.43633,4.65425,4.82343,4.95858,5.06901
0.0296276,2.62925,3.93844,4.71048,5.21879,5.57853,5.84644,6.05368,6.21873,6.35328
0.0538004,4.97984,7.48755,8.96656,9.94052,10.6301,11.144,11.5417,11.8587,12.1172
0.0233648,2.09268,3.08621,3.6638,4.0426,4.31051,4.51011,4.66462,4.7878,4.8883
0.0224743,1.97894,2.90209,3.43983,3.79283,4.0425,4.22846,4.37233,4.48696,4.58044
0.0221167,2.0148,3.00247,3.5921,3.98411,4.26352,4.47272,4.6352,4.76503,4.87115
0.0452594,4.28511,6.4274,7.69993,8.54027,9.13591,9.5799,9.92353,10.1973,10.4206
0.0384956,3.60796,5.35036,6.37072,7.04094,7.51504,7.86822,8.14156,8.3594,8.5371
0.021848,2.07878,3.095,3.69657,4.09468,4.37771,4.58929,4.75346,4.88455,4.99164
0.0218933,2.13523,3.19316,3.82114,4.23672,4.53196,4.75248,4.92344,5.05985,5.17122
0.0223604,2.25363,3.3767,4.0391,4.47508,4.78357,5.0133,5.19099,5.33251,5.44789
0.022408,2.16033,3.13028,3.67276,4.01914,4.2595,4.43608,4.57129,4.67815,4.76474
0.0229922,2.22449,3.27421,3.8964,4.31077,4.60722,4.83002,5.00367,5.14286,5.25693
0.0228367,2.25371,3.35396,4.01253,4.45079,4.76318,4.997,5.1785,5.32345,5.44186
0.0232868,2.33005,3.46443,4.13359,4.57378,4.88501,5.11661,5.29564,5.43816,5.5543
0.0231424,2.37678,3.5488,4.2416,4.69851,5.0224,5.26398,5.45109,5.60029,5.72205
