0.593659,0.721533,0.777346,0.808621,0.828624,0.842518,0.852731,0.860555,0.86674,0.871753
2.06708,3.36875,4.09558,4.55309,4.86647,5.09425,5.26718,5.40291,5.51224,5.60219
0.675353,0.89588,0.963416,0.994382,1.01187,1.02305,1.03078,1.03643,1.04075,1.04415
0.598065,1.36337,1.94676,2.40981,2.78814,3.10371,3.37121,3.60097,3.8005,3.97544
0.867174,2.95588,4.72189,5.99347,6.89541,7.54847,8.03483,8.40714,8.69928,8.93349
0.553506,1.30381,1.52274,1.60621,1.64781,1.67229,1.68833,1.69963,1.70802,1.71449
0.914659,3.3955,5.02077,6.17253,7.05513,7.76051,8.33974,8.8249,9.23763,9.59325
0.634862,1.89845,2.30644,2.48216,2.5763,2.63378,2.67203,2.69911,2.71918,2.73459
0.552851,2.74996,4.36898,5.60129,6.58771,7.40129,8.08635,8.67233,9.17988,9.62412
0.62984,4.38587,7.34232,9.28062,10.5716,11.467,12.1139,12.5981,12.9716,13.2671
0.58608,3.39125,4.43642,4.86141,5.08183,5.21528,5.30455,5.36845,5.41649,5.45393
0.698268,5.8838,9.21148,11.3824,12.9593,14.1728,15.1409,15.9334,16.595,17.1561
0.662655,3.50458,4.19942,4.47048,4.61188,4.69764,4.75477,4.79537,4.82559,4.84893
0.587186,4.88644,7.55329,9.50656,11.0472,12.3051,13.3555,14.2475,15.0152,15.6833
0.680867,7.306,11.6309,14.3179,16.0684,17.2688,18.1304,18.773,19.2676,19.6584
0.595846,4.73975,6.01419,6.5375,6.81419,6.98415,7.09902,7.18188,7.24452,7.29356
0.683477,7.50195,11.278,13.7076,15.4521,16.7798,17.8291,18.6809,19.3871,19.9825
0.667241,4.24919,5.00709,5.30756,5.46529,5.56128,5.62535,5.67095,5.70495,5.73122
0.621796,6.36922,9.87825,12.5465,14.703,16.497,18.018,19.3263,20.4645,21.4646
0.638439,9.52677,16.6008,21.7321,25.4112,28.0963,30.1067,31.6512,32.866,33.8414
0.618107,6.22727,7.86004,8.48512,8.79673,8.97999,9.09993,9.18436,9.24699,9.29531
0.687612,10.0733,15.5997,19.3119,22.0748,24.2417,25.9972,27.4524,28.6801,29.7306
0.602079,5.357,6.44414,6.87735,7.10424,7.24172,7.33306,7.39775,7.44576,7.48271
0.938843,13.1203,20.4684,25.9153,30.2378,33.7833,36.7556,39.2882,41.4743,43.3819
0.648361,12.6256,21.5844,27.8112,32.1733,35.3165,37.6538,39.4429,40.8478,41.9754
0.607761,7.53294,9.37181,10.0683,10.4172,10.6236,10.7593,10.8553,10.9266,10.9818
0.653455,11.1104,16.5591,20.0707,22.6133,24.565,26.1186,27.388,28.4461,29.3421
0.608812,5.81084,6.84995,7.26567,7.48495,7.61865,7.70795,7.77149,7.81885,7.85542
0.60753,9.04005,13.8782,17.5021,20.3941,22.7745,24.7747,26.482,27.9578,29.2469
0.629732,13.6159,23.7033,31.0835,36.4227,40.3512,43.3137,45.6039,47.4149,48.876
0.638062,10.5737,13.9591,15.3387,16.043,16.4618,16.7375,16.9323,17.077,17.1888
0.869694,19.1841,29.2641,35.5076,39.8828,43.1649,45.7344,47.807,49.5171,50.9534
0.610017,7.85593,9.42552,10.05,10.381,10.5843,10.7211,10.8191,10.8926,10.9497
0.599783,11.9216,18.5082,23.3848,27.2569,30.4332,33.095,35.3618,37.3173,39.0224
0.629255,16.9043,28.3836,36.1922,41.59,45.4444,48.2921,50.4618,52.1597,53.5187
0.589344,11.8802,15.5233,17.0209,17.8003,18.2716,18.586,18.8104,18.9786,19.1093
0.677787,17.7604,26.6547,32.118,35.9248,38.7648,40.9771,42.7539,44.2143,45.4369
0.64835,9.00729,10.5894,11.2106,11.5381,11.7386,11.8733,11.9696,12.0418,12.0979
0.652578,14.0869,21.629,27.2924,31.8333,35.5859,38.7494,41.4567,43.8018,45.8541
0.803361,24.6995,42.5783,55.4683,64.7048,71.453,76.5144,80.4103,83.4806,85.9508
0.595035,11.4504,14.3108,15.4096,15.9608,16.2865,16.5004,16.6514,16.7637,16.8504
0.634331,17.5811,27.1066,33.5729,38.4165,42.2307,45.3297,47.9043,50.0801,51.9447
0.832617,10.9576,12.6706,13.3231,13.6579,13.8583,13.9905,14.0836,14.1524,14.2052
0.605283,12.9497,20.0659,25.6253,30.2226,34.1211,37.4807,40.411,42.9919,45.2837
0.660767,20.5825,36.1597,47.7459,56.1763,62.3783,67.0408,70.629,73.4521,75.7179
0.73355,13.9836,17.3512,18.5975,19.2045,19.5556,19.7825,19.9409,20.0575,20.147
0.628499,16.9439,25.6797,31.4591,35.723,39.0464,41.7259,43.9384,45.7989,47.3866
0.613996,10.5011,12.8067,13.7593,14.2667,14.5771,14.7846,14.9321,15.042,15.1267
0.582585,15.7879,25.1074,32.1165,37.7214,42.3445,46.2376,49.5675,52.4513,54.975
0.73403,28.5616,50.4896,66.1518,77.2636,85.3214,91.3316,95.939,99.5585,102.463
0.60426,16.7074,21.7761,23.7709,24.7821,25.3839,25.7812,26.0627,26.2726,26.4351
0.61272,23.331,36.1317,44.358,50.298,54.8538,58.4809,61.4457,63.9182,66.0133
0.724716,15.5633,18.6611,19.8792,20.5184,20.9077,21.1677,21.3528,21.4908,21.5975
0.624128,20.1655,31.0649,39.0424,45.3279,50.4539,54.7296,58.357,61.4763,64.1889
0.60139,25.9009,43.087,54.6756,62.656,68.345,72.5455,75.7457,78.2502,80.2556
0.59086,15.0469,18.4645,19.7645,20.4207,20.8113,21.0694,21.2524,21.3889,21.4947
0.72004,25.7725,38.7619,47.4561,53.9058,58.9422,63.0044,66.358,69.177,71.5815
0.616216,11.5774,13.6314,14.4572,14.8921,15.1567,15.333,15.4582,15.5513,15.6231
0.592271,17.8293,27.8367,35.5641,41.8713,47.159,51.6713,55.5741,58.9864,61.9971
0.582902,25.3757,44.6748,58.8707,69.1203,76.6284,82.261,86.5927,90.001,92.738
0.759245,24.0455,31.4475,34.3789,35.851,36.7177,37.2846,37.6832,37.9787,38.2064
0.601473,24.8136,37.6796,45.7263,51.4244,55.7348,59.1314,61.8855,64.1673,66.0907
0.608965,15.1941,18.4353,19.7487,20.4488,20.8796,21.1695,21.3771,21.5325,21.6531
0.590923,22.8013,35.7702,45.3671,52.9732,59.2028,64.417,68.8533,72.6774,76.0099
0.592539,30.3777,50.7745,64.296,73.4654,79.9231,84.6457,88.2163,90.9934,93.2058
0.567086,21.5409,28.2142,30.9767,32.4282,33.3134,33.908,34.3349,34.6562,34.9071
0.779919,37.9526,56.8416,68.3822,76.3965,82.3587,86.9918,90.7053,93.7522,96.2993
0.590994,15.09,17.8016,18.8756,19.4447,19.7944,20.0299,20.1988,20.3255,20.4239
0.644398,25.5939,39.5093,49.9989,58.4313,65.4135,71.3091,76.3612,80.7427,84.5807
0.699309,38.8783,66.7282,86.5615,100.644,110.866,118.494,124.345,128.943,132.633
0.555676,22.5389,29.5148,32.3667,33.836,34.717,35.3009,35.7156,36.0253,36.2654
0.615464,33.2647,50.9363,62.1194,70.0673,76.0861,80.8303,84.6771,87.8641,90.5499
0.774365,22.8936,27.3084,29.0508,29.9677,30.5278,30.9031,31.1709,31.3711,31.5262
0.593211,25.8416,39.405,49.2775,57.0165,63.3004,68.5225,72.9385,76.7254,80.0104
0.611987,36.1972,60.6574,77.5305,89.3331,97.8416,104.176,109.032,112.851,115.921
0.593552,22.2121,27.808,29.9943,31.1064,31.77,32.2088,32.5199,32.752,32.9318
0.602245,30.1303,44.8193,54.209,60.9464,66.0801,70.1431,73.4473,76.1905,78.5064
0.686109,19.5294,23.3483,24.9126,25.7476,26.2607,26.6055,26.852,27.0364,27.1792
0.682008,30.4064,47.5358,60.4868,70.8842,79.483,86.7373,92.9503,98.3363,103.053
0.593495,35.462,59.8953,76.6865,88.3295,96.6529,102.805,107.492,111.159,114.094
0.581986,26.2554,34.5938,38.041,39.8329,40.9148,41.6356,42.1496,42.5345,42.8336
0.708318,43.6021,67.7616,83.2755,94.3985,102.873,109.584,115.045,119.582,123.416
0.600719,20.6132,24.769,26.4078,27.2687,27.7938,28.1452,28.3958,28.583,28.7278
0.646521,33.0074,50.5778,63.2517,73.1275,81.1115,87.7239,93.3004,98.0714,102.202
0.705243,48.7918,81.9783,104.763,120.678,132.15,140.694,147.25,152.409,156.561
0.623802,25.9469,32.1708,34.5753,35.7976,36.5279,37.0115,37.355,37.6115,37.8103
0.625769,35.1879,52.4692,63.7382,71.9429,78.2604,83.3002,87.4241,90.8653,93.7825
0.605579,18.9474,22.5599,24.0322,24.8138,25.2918,25.6116,25.8394,26.0094,26.1407
0.581551,28.5977,44.6926,56.9357,66.8098,75.007,81.945,87.9038,93.0823,97.627
0.669831,41.4091,66.5414,82.3398,92.6207,99.6418,104.657,108.38,111.234,113.479
0.603778,21.3498,25.9084,27.6474,28.5336,29.0665,29.4219,29.676,29.8668,30.0154
0.681995,36.39,56.3766,70.6899,81.8262,90.8427,98.3267,104.652,110.074,114.776
0.604483,19.397,23.6798,25.4696,26.4206,26.9995,27.3843,27.6567,27.8586,28.0138
0.584604,29.5893,47.1058,60.3143,70.8707,79.5736,86.9004,93.1667,98.5939,103.344
0.698837,47.4404,80.0492,101.571,116.014,126.088,133.395,138.882,143.124,146.486
0.585627,30.555,40.4904,44.5807,46.7147,48.0104,48.8784,49.5003,49.968,50.3327
0.695815,45.9572,68.8399,82.5421,91.9477,98.8938,104.264,108.551,112.059,114.983
0.592341,21.1989,25.2215,26.8295,27.6885,28.2197,28.5792,28.8378,29.0326,29.1842
0.658856,36.7853,57.2593,72.6983,85.118,95.4071,104.098,111.548,118.01,123.672
0.655193,49.081,83.0854,106.731,123.307,135.254,144.138,150.938,156.278,160.563
