1.29633,1.40154,1.44051,1.46082,1.47328,1.48171,1.48779,1.49238,1.49597,1.49886
0.908402,1.31901,1.53071,1.65942,1.74588,1.80793,1.85463,1.89104,1.92023,1.94415
0.850609,1.59441,1.99297,2.22789,2.38024,2.48632,2.56416,2.62362,2.67045,2.70828
0.763639,1.79811,2.35738,2.67698,2.87971,3.0189,3.12012,3.19696,3.25725,3.30579
0.769851,2.18951,2.92737,3.33008,3.57909,3.74753,3.86886,3.96036,4.03181,4.08915
0.736813,2.4677,3.33803,3.80426,4.09164,4.28623,4.42668,4.53284,4.61589,4.68264
0.720898,2.85232,3.92609,4.50418,4.86306,5.10736,5.28438,5.41855,5.52374,5.60842
0.72166,3.26805,4.50254,5.15316,5.55242,5.82209,6.01637,6.16297,6.27751,6.36947
0.697622,3.44713,4.68216,5.31548,5.69972,5.95769,6.14287,6.28227,6.391,6.47819
0.691904,3.77438,5.14887,5.8671,6.30942,6.60953,6.82663,6.99101,7.11982,7.22348
0.669414,4.0284,5.51116,6.28484,6.75954,7.08036,7.31161,7.48618,7.62262,7.73218
0.688353,4.52475,6.20267,7.07971,7.61855,7.98317,8.24629,8.44512,8.60066,8.72566
0.694562,5.02946,6.93663,7.93806,8.55448,8.97199,9.27345,9.50133,9.67963,9.82294
0.687776,5.44422,7.53468,8.63339,9.31,9.76844,10.0996,10.3499,10.5458,10.7033
0.679462,5.77487,7.96726,9.11067,9.812,10.286,10.6279,10.886,11.0878,11.25
0.684898,6.20893,8.52983,9.73073,10.4644,10.9591,11.3152,11.5838,11.7937,11.9621
0.715894,6.62833,8.9735,10.1711,10.8991,11.3888,11.7409,12.0063,12.2134,12.3797
0.541532,5.37007,7.373,8.43457,9.09452,9.54497,9.87215,10.1206,10.3157,10.473
0.676811,7.62709,10.7491,12.4372,13.491,14.2101,14.7317,15.1271,15.4371,15.6867
0.662535,7.41494,10.0493,11.3633,12.1464,12.6655,13.0345,13.3103,13.5242,13.6949
0.688641,7.94717,10.7966,12.2733,13.1821,13.7995,14.2468,14.586,14.8522,15.0668
0.657687,7.81533,10.6141,12.0695,12.9633,13.5681,14.0045,14.3341,14.5919,14.799
0.647696,8.0083,10.9278,12.4594,13.4035,14.0437,14.5063,14.8562,15.1301,15.3504
0.602262,7.76057,10.6349,12.1493,13.0839,13.7181,14.1766,14.5234,14.795,15.0135
0.724604,9.93373,13.7348,15.7498,16.996,17.8424,18.4546,18.9181,19.2811,19.573
0.657115,5.9344,7.11387,7.61591,7.89333,8.0692,8.19064,8.27951,8.34737,8.40088
0.651553,7.67681,10.8185,12.8096,14.2141,15.2646,16.0821,16.737,17.2739,17.7221
0.677281,9.40173,13.6816,16.1535,17.7204,18.7872,19.5543,20.1297,20.576,20.9315
0.651694,10.1371,14.6408,17.0404,18.4973,19.47,20.1644,20.6848,21.0895,21.4131
0.640438,10.5613,14.8725,17.0594,18.3717,19.2473,19.8736,20.3442,20.7109,21.0048
0.640809,10.9421,15.1562,17.2923,18.5884,19.461,20.0893,20.5636,20.9344,21.2323
0.828227,15.4118,21.6618,24.9683,27.0253,28.4306,29.4521,30.2283,30.838,31.3296
0.66134,12.6763,17.5516,20.0586,21.5855,22.6123,23.3499,23.9051,24.338,24.6851
0.642438,11.0714,14.5299,16.1951,17.1777,17.8266,18.2873,18.6315,18.8983,19.1114
0.653214,12.2275,16.8513,19.3909,21.0148,22.1465,22.9813,23.6231,24.1319,24.5454
0.659743,13.1589,18.3329,21.1155,22.8437,24.0172,24.8645,25.5042,26.0041,26.4052
0.851513,17.6082,24.3637,27.8852,30.034,31.4796,32.518,33.3,33.9101,34.3994
0.650655,13.6844,18.7913,21.4353,23.0517,24.1428,24.9293,25.5233,25.9878,26.3611
0.645394,13.9551,19.1813,21.9112,23.5911,24.7299,25.5529,26.1756,26.6632,27.0553
0.644944,14.2924,19.637,22.4305,24.1484,25.3118,26.1518,26.7867,27.2835,27.6828
0.63766,14.4985,19.9267,22.7665,24.5131,25.696,26.55,27.1956,27.7007,28.1068
0.646075,15.0883,20.7452,23.7037,25.5225,26.7537,27.6423,28.314,28.8395,29.2618
0.813581,20.1124,27.9882,32.1789,34.7797,36.5511,37.8351,38.8087,39.5721,40.1869
0.512829,15.5581,23.0901,27.4147,30.2058,32.1525,33.5865,34.6862,35.5562,36.2615
0.640346,17.3924,23.4165,26.2637,27.9021,28.9625,29.7038,30.2508,30.6708,31.0034
0.649599,17.408,23.5019,26.6284,28.5565,29.8717,30.8287,31.5572,32.1309,32.5944
0.671574,18.839,25.9769,29.805,32.2043,33.8495,35.0476,35.9587,36.6748,37.2524
0.639872,17.1519,23.032,26.0071,27.7985,28.9933,29.8461,30.4852,30.9817,31.3786
0.830835,22.9727,31.4172,35.9039,38.6974,40.6068,41.9955,43.0513,43.8815,44.5513
0.60536,16.931,23.1632,26.4383,28.454,29.8182,30.8023,31.5455,32.1265,32.5931
0.624392,16.9157,22.7706,25.7612,27.5743,28.7906,29.663,30.3194,30.8311,31.2413
0.625555,17.3244,23.6187,26.9399,28.9971,30.3979,31.4137,32.1842,32.7888,33.2759
0.674826,19.4689,26.855,30.7829,33.2167,34.8713,36.0687,36.9752,37.6852,38.2563
0.622661,17.9036,24.4081,27.7631,29.804,31.1751,32.1594,32.9001,33.4777,33.9408
0.625421,18.2559,24.9603,28.4629,30.6177,32.0782,33.1339,33.9328,34.5585,35.0619
0.621933,18.1359,24.7019,28.1159,30.2091,31.6239,32.6441,33.4145,34.0169,34.5008
0.631134,19.1636,26.4538,30.3312,32.7392,34.3802,35.5703,36.473,37.1811,37.7515
0.630077,19.3288,26.5135,30.2524,32.5393,34.081,35.1902,36.0264,36.6792,37.2029
0.493151,16.2303,22.7222,26.2121,28.3906,29.8804,30.9635,31.7867,32.4335,32.9551
0.640357,24.9569,36.5482,43.025,47.131,49.9596,52.0244,53.5969,54.8342,55.8327
0.645419,22.9121,30.9367,34.7727,36.9999,38.4513,39.4712,40.2268,40.809,41.2712
0.667833,23.6354,32.0619,36.3977,39.0714,40.894,42.219,43.2269,44.0199,44.6603
0.619052,21.574,29.1669,33.0938,35.5041,37.1347,38.311,39.1993,39.8938,40.4516
0.743927,26.2127,35.7277,40.7369,43.8343,45.9389,47.462,48.6153,49.5188,50.2458
0.621963,22.4249,30.8028,35.2372,37.9793,39.8415,41.1882,42.2074,43.0054,43.6473
0.619087,22.7297,31.246,35.7159,38.4634,40.3219,41.6625,42.675,43.4667,44.1027
0.618049,22.8711,31.3244,35.721,38.4129,40.2303,41.5397,42.5281,43.3006,43.921
0.620267,22.9174,31.2652,35.5995,38.2554,40.0505,41.3451,42.3231,43.088,43.7026
0.618495,23.1943,31.7833,36.2922,39.0732,40.9604,42.3251,43.3581,44.1671,44.818
0.62751,23.764,32.5235,37.0912,39.8928,41.7859,43.1505,44.1806,44.9858,45.6324
0.586505,22.1897,30.2507,34.4329,36.993,38.7216,39.9673,40.9076,41.6427,42.2331
0.620512,24.294,33.5288,38.4326,41.4762,43.5501,45.0542,46.1951,47.0901,47.8111
0.640303,27.2022,38.1549,43.9828,47.5834,50.0243,51.7865,53.118,54.1592,54.9955
0.655976,26.9177,36.6271,41.525,44.47,46.4353,47.84,48.8941,49.7144,50.3708
0.657202,26.4362,35.7532,40.5323,43.4538,45.4284,46.8536,47.9312,48.7748,49.4532
0.751679,20.1688,24.4164,26.2884,27.3457,28.0255,28.4995,28.8488,29.1169,29.3292
0.631763,20.8668,29.1431,34.2642,37.8108,40.4257,42.4375,44.0348,45.3345,46.4129
0.656697,25.3539,37.0114,43.8163,48.171,51.1598,53.3237,54.9564,56.2289,57.247
0.647838,26.3116,37.3714,43.1171,46.5549,48.8279,50.4392,51.6403,52.5702,53.3114
0.655049,27.122,37.7103,43.0732,46.3025,48.4646,50.016,51.1846,52.097,52.8293
0.642094,27.2514,37.7649,43.2018,46.5406,48.8051,50.4436,51.6848,52.6577,53.441
0.647033,28.2604,39.154,44.8342,48.3308,50.7013,52.4142,53.7098,54.7239,55.5393
0.654469,29.059,40.1061,45.8547,49.3843,51.7722,53.495,54.7967,55.8148,56.6328
0.757895,30.0573,39.5634,44.1896,46.9292,48.7413,50.0287,50.9905,51.7364,52.3317
0.641671,27.6551,38.3227,44.2045,47.9657,50.5854,52.5172,54.0013,55.1778,56.1333
0.650468,29.4042,41.0105,47.217,51.0546,53.6526,55.5246,56.936,58.0374,58.9204
0.649179,30.3981,42.316,48.5695,52.4024,54.9894,56.8525,58.2583,59.3568,60.2389
0.74259,35.7302,49.5775,56.7967,61.2217,64.2124,66.3694,67.9989,69.2734,70.2976
0.639477,31.2398,43.0986,49.2443,53.0052,55.5449,57.3754,58.7574,59.8379,60.7058
0.64675,31.898,43.8607,50.0765,53.8909,56.4719,58.3349,59.7429,60.8447,61.7303
0.735469,36.5268,50.1449,57.246,61.612,64.5689,66.7044,68.319,69.5827,70.5986
0.64203,32.3662,44.5253,50.9008,54.8296,57.4936,59.4189,60.8753,62.0155,62.9324
0.645197,34.0926,47.5215,54.6929,59.1531,62.1945,64.4009,66.0747,67.3878,68.4455
0.648123,33.9903,46.5892,53.0563,56.9797,59.6106,61.4966,62.9144,64.019,64.9038
0.737612,38.7629,53.0555,60.4811,65.0411,68.1295,70.361,72.0495,73.3718,74.4355
0.638516,33.6939,46.1308,52.6272,56.6247,59.3335,61.2903,62.77,63.9282,64.8594
0.645188,34.321,47.0752,53.7643,57.886,60.6803,62.6994,64.2266,65.4221,66.3834
0.64455,34.8148,47.81,54.6045,58.7777,61.5999,63.6355,65.1728,66.3749,67.3406
0.644536,34.8589,47.7357,54.444,58.5596,61.3424,63.3496,64.866,66.052,67.005
0.637945,34.4019,47.0097,53.5803,57.6155,60.3462,62.3172,63.8069,64.9725,65.9093
