0.066054,0.0892126,0.101018,0.108176,0.112979,0.116425,0.119018,0.12104,0.122661,0.123989
0.0372469,0.0674547,0.0861965,0.0986507,0.107468,0.114022,0.119079,0.123097,0.126364,0.129073
0.0262998,0.0611981,0.0840679,0.0991121,0.109573,0.117219,0.123033,0.127597,0.131271,0.134291
0.0218813,0.0631639,0.0905082,0.108093,0.120126,0.128834,0.135414,0.140557,0.144686,0.148073
0.0191584,0.0671601,0.0987244,0.118567,0.131983,0.141625,0.148881,0.154537,0.159069,0.162781
0.0169437,0.0697524,0.103575,0.124447,0.138472,0.148529,0.156092,0.161985,0.166707,0.170575
0.0154028,0.0732518,0.109647,0.132002,0.147045,0.157855,0.165996,0.17235,0.177446,0.181624
0.0163437,0.0870634,0.129896,0.155832,0.173171,0.185577,0.194894,0.202148,0.207955,0.212709
0.0286397,0.1698,0.253941,0.305019,0.339293,0.363889,0.382401,0.396839,0.408414,0.417901
0.0133269,0.0876396,0.131641,0.158431,0.176438,0.18937,0.199107,0.206703,0.212793,0.217785
0.0128362,0.0942655,0.142451,0.17172,0.19133,0.205374,0.215924,0.224138,0.230714,0.236097
0.0160256,0.119757,0.174553,0.206111,0.226633,0.241054,0.251745,0.259988,0.266539,0.27187
0.0121029,0.0950034,0.139234,0.165658,0.183324,0.19599,0.205523,0.21296,0.218925,0.223817
0.017264,0.152269,0.230853,0.280045,0.313721,0.338201,0.356791,0.371384,0.38314,0.392814
0.0113723,0.112731,0.172894,0.209889,0.23474,0.25253,0.265879,0.276257,0.284555,0.29134
0.0112338,0.117603,0.177396,0.213072,0.236717,0.25354,0.266125,0.275896,0.283704,0.290087
0.0107294,0.122271,0.186087,0.224942,0.251106,0.269937,0.284143,0.295244,0.304158,0.311474
0.0105906,0.128383,0.194582,0.234567,0.261332,0.280501,0.294906,0.306125,0.315109,0.322466
0.0166911,0.212278,0.320183,0.385243,0.428803,0.460022,0.483499,0.501797,0.51646,0.528475
0.0117078,0.154143,0.229739,0.274429,0.303954,0.32491,0.340555,0.352679,0.36235,0.370245
0.0105483,0.146362,0.220215,0.265127,0.295404,0.317216,0.333685,0.346562,0.356907,0.365402
0.0101374,0.148418,0.224337,0.270612,0.301754,0.324132,0.340984,0.35413,0.36467,0.373309
0.0103405,0.156474,0.23505,0.282369,0.313971,0.336567,0.353526,0.366723,0.377285,0.38593
0.0100106,0.157193,0.236353,0.28431,0.316501,0.33961,0.35701,0.370584,0.38147,0.390394
0.00987536,0.164995,0.250113,0.301942,0.336764,0.361754,0.380557,0.395214,0.406959,0.416582
0.00973963,0.170178,0.257052,0.309322,0.344173,0.369059,0.387717,0.402223,0.413826,0.423316
0.00958828,0.17208,0.258533,0.31047,0.345163,0.36999,0.388643,0.403172,0.41481,0.424342
0.00954619,0.178087,0.268535,0.323417,0.360304,0.386808,0.406772,0.422353,0.43485,0.445097
0.00939335,0.181272,0.273588,0.329692,0.367405,0.394496,0.414897,0.430813,0.443576,0.454039
0.00971638,0.194914,0.293921,0.353633,0.393519,0.422035,0.44343,0.460075,0.473392,0.484289
0.00952722,0.195964,0.294854,0.354586,0.394606,0.423301,0.444888,0.461718,0.475209,0.486265
0.00935922,0.200321,0.302849,0.365224,0.407173,0.437316,0.460022,0.47774,0.49195,0.503601
0.0132584,0.292396,0.441134,0.531076,0.591298,0.634433,0.666847,0.692094,0.712314,0.728872
0.00921691,0.205226,0.307411,0.368843,0.409891,0.43927,0.461339,0.478528,0.492295,0.503569
0.00984931,0.226138,0.339581,0.407994,0.453751,0.486504,0.511104,0.530259,0.545595,0.55815
0.00932991,0.210443,0.309942,0.368289,0.406663,0.433826,0.454066,0.469731,0.482215,0.492399
0.00911703,0.218053,0.329579,0.3983,0.444974,0.478763,0.504359,0.524423,0.540575,0.553856
0.00894664,0.164016,0.217668,0.244263,0.260101,0.270598,0.278061,0.283637,0.287962,0.291413
0.00881727,0.193783,0.293086,0.358991,0.406607,0.442789,0.471271,0.494298,0.513309,0.529278
0.00917012,0.220834,0.340039,0.414961,0.465656,0.501968,0.529151,0.550214,0.566992,0.580658
0.010221,0.26412,0.406208,0.492433,0.549717,0.590443,0.620868,0.644461,0.663294,0.678677
0.00907923,0.249098,0.381886,0.461648,0.514684,0.552512,0.580865,0.602913,0.620552,0.634986
0.00880603,0.249147,0.377608,0.453925,0.504535,0.54059,0.56759,0.588569,0.605342,0.619058
0.00884057,0.255942,0.386538,0.464932,0.517395,0.555013,0.583317,0.605391,0.623088,0.637594
0.00888751,0.261131,0.391197,0.468513,0.519829,0.556374,0.583721,0.604953,0.621913,0.635773
0.0087304,0.265285,0.399965,0.481344,0.53592,0.575075,0.60454,0.627516,0.645936,0.661032
0.00869622,0.268752,0.405595,0.488851,0.544921,0.585262,0.615682,0.63944,0.658509,0.674153
0.0192,0.611236,0.92576,1.11746,1.24646,1.33916,1.40898,1.46346,1.50714,1.54295
0.00909644,0.293918,0.441214,0.529094,0.587381,0.628847,0.65985,0.683903,0.703108,0.718794
0.00861713,0.285173,0.430612,0.5191,0.578717,0.621645,0.654044,0.67937,0.699713,0.716413
0.00837787,0.284249,0.429273,0.51706,0.575865,0.617989,0.64964,0.674288,0.694024,0.710182
0.0150245,0.493475,0.747918,0.908798,1.0205,1.10277,1.16596,1.21604,1.25672,1.29042
0.00938588,0.328531,0.503446,0.611474,0.684285,0.736503,0.775711,0.806203,0.830578,0.850502
0.00982143,0.332334,0.497882,0.597562,0.664217,0.711973,0.747892,0.775903,0.798363,0.816779
0.00839389,0.297152,0.451332,0.545881,0.609746,0.655771,0.690509,0.717657,0.739455,0.757342
0.0146446,0.543869,0.829836,1.00395,1.12072,1.20438,1.26724,1.31619,1.35538,1.38745
0.00827348,0.319819,0.487533,0.588913,0.656686,0.705174,0.741582,0.769926,0.792617,0.811194
0.01017,0.403933,0.613112,0.738995,0.823085,0.883253,0.928443,0.963632,0.991811,1.01489
0.00900401,0.353442,0.528758,0.63315,0.702598,0.752178,0.789363,0.81829,0.841437,0.86038
0.0177448,0.716482,1.0815,1.30337,1.45276,1.56024,1.64128,1.70456,1.75535,1.79702
0.0085419,0.349972,0.527459,0.634776,0.706653,0.75814,0.796829,0.82696,0.85109,0.870848
0.00939151,0.391197,0.591396,0.713463,0.795724,0.854934,0.899595,0.934486,0.962498,0.985483
0.00801431,0.342527,0.518735,0.625769,0.697589,0.749091,0.787821,0.818,0.842178,0.861981
0.0187113,0.815853,1.23485,1.48885,1.6592,1.78138,1.87328,1.94494,2.00236,2.04942
0.00830989,0.371055,0.561429,0.676471,0.75346,0.808589,0.850008,0.882265,0.908097,0.929249
0.00880806,0.387508,0.577447,0.690041,0.764612,0.81766,0.857335,0.888132,0.912731,0.932834
0.0162743,0.736288,1.11252,1.34284,1.49868,1.61121,1.69631,1.76293,1.8165,1.86051
0.00885042,0.39694,0.59176,0.707554,0.784205,0.838655,0.879313,0.910824,0.93596,0.956476
0.00815643,0.375996,0.567253,0.683841,0.762427,0.819013,0.861713,0.895085,0.921886,0.943885
0.00820331,0.388333,0.588543,0.710623,0.792737,0.851719,0.896123,0.930756,0.958519,0.981272
0.00868425,0.402441,0.597142,0.71152,0.786707,0.839889,0.879491,0.910125,0.934528,0.954425
0.00810614,0.317363,0.438949,0.504043,0.544725,0.572592,0.592887,0.608331,0.62048,0.630287
0.00795621,0.350617,0.530986,0.647569,0.729843,0.791166,0.838684,0.876605,0.907576,0.933353
0.00820151,0.380862,0.581697,0.705982,0.78961,0.849432,0.894233,0.928991,0.956718,0.979341
0.00992149,0.482914,0.740638,0.898455,1.0044,1.08036,1.13748,1.18201,1.21769,1.24693
0.0081466,0.391477,0.588457,0.705773,0.783607,0.839059,0.880591,0.912867,0.938676,0.959785
0.0188542,0.938827,1.42654,1.72429,1.92528,2.07018,2.17963,2.26522,2.33399,2.39045
0.00805331,0.412179,0.626937,0.7576,0.845408,0.908448,0.955892,0.992886,1.02254,1.04683
0.00891801,0.462041,0.698222,0.840304,0.93515,1.00295,1.05384,1.09344,1.12513,1.15106
0.0138626,0.731225,1.10866,1.3387,1.49383,1.60558,1.68994,1.75588,1.80885,1.85233
0.00808576,0.42977,0.646986,0.777329,0.86418,0.926172,0.972632,1.00874,1.03761,1.06122
0.00818548,0.445102,0.673399,0.812015,0.905183,0.972124,1.02255,1.06191,1.09349,1.11938
0.00863661,0.480301,0.727812,0.878026,0.978839,1.05116,1.10557,1.14798,1.18197,1.20982
0.00810274,0.445484,0.66693,0.799235,0.887263,0.950073,0.997149,1.03375,1.06302,1.08697
0.00806951,0.453106,0.684314,0.825225,0.920223,0.98863,1.04025,1.08058,1.11297,1.13955
0.00803525,0.445733,0.667485,0.800957,0.890159,0.953984,1.00191,1.03922,1.06909,1.09354
0.0276956,1.57936,2.3928,2.89162,3.22879,3.47191,3.65552,3.79908,3.91441,4.00908
0.00789858,0.462435,0.702239,0.848279,0.946335,1.01666,1.06955,1.11076,1.14377,1.17081
0.00892111,0.496956,0.732263,0.869469,0.959386,1.0229,1.07015,1.1067,1.1358,1.15952
0.0133163,0.751994,1.12957,1.36171,1.51957,1.63407,1.72096,1.78918,1.84416,1.88943
0.00783667,0.456647,0.69159,0.835219,0.931816,1.00112,1.05323,1.09381,1.1263,1.15289
0.00786791,0.470025,0.711614,0.857578,0.955018,1.02463,1.07683,1.11742,1.14989,1.17646
0.012357,0.763754,1.16376,1.40776,1.57201,1.69012,1.77916,1.84869,1.9045,1.95027
0.0079514,0.499337,0.75863,0.916049,1.02176,1.09765,1.15478,1.19934,1.23507,1.26436
0.00854376,0.540969,0.817734,0.98475,1.09654,1.17663,1.23682,1.28373,1.3213,1.35207
0.011815,0.748488,1.12537,1.35193,1.50332,1.61166,1.69303,1.7564,1.80715,1.8487
0.0087635,0.568261,0.861112,1.0399,1.16049,1.24735,1.31288,1.36409,1.40521,1.43895
0.00890356,0.568555,0.851072,1.02027,1.13297,1.21341,1.27372,1.3206,1.3581,1.38877
0.0136185,0.896236,1.35729,1.63882,1.82862,1.96525,2.06831,2.14882,2.21344,2.26647
0.0134779,0.893702,1.35425,1.63594,1.82607,1.96304,2.06641,2.1472,2.21207,2.26531
