0.347673,0.42732,0.462649,0.482598,0.495416,0.504346,0.510924,0.515971,0.519966,0.523207
0.219632,0.386633,0.490537,0.560272,0.610103,0.647428,0.676408,0.699552,0.718457,0.734188
0.166098,0.379565,0.515608,0.602666,0.66182,0.704252,0.736036,0.760677,0.780312,0.796312
0.138305,0.39823,0.56476,0.668118,0.736991,0.785865,0.822269,0.850409,0.872805,0.891048
0.147313,0.500746,0.713104,0.83814,0.919236,0.975917,1.01773,1.04985,1.07528,1.09593
0.127301,0.503499,0.724574,0.854574,0.939608,0.999557,1.04411,1.07852,1.10591,1.12822
0.137733,0.599025,0.848333,0.989149,1.07925,1.14183,1.18781,1.22303,1.25087,1.27342
0.188682,0.894825,1.27002,1.48629,1.62731,1.72667,1.80051,1.85756,1.90297,1.93997
0.0852243,0.481358,0.712676,0.852653,0.946165,1.01297,1.06303,1.10194,1.13304,1.15846
0.0856192,0.565384,0.850955,1.02163,1.1341,1.21358,1.27265,1.31825,1.3545,1.38402
0.0811044,0.59648,0.889295,1.0589,1.16894,1.24604,1.30306,1.34695,1.38178,1.41009
0.0769884,0.624075,0.926856,1.10188,1.21589,1.29612,1.35566,1.40162,1.43818,1.46794
0.078969,0.698252,1.0338,1.22761,1.35394,1.44285,1.50882,1.55973,1.6002,1.63315
0.0757666,0.667706,0.952263,1.10934,1.20922,1.27839,1.32915,1.36799,1.39867,1.42352
0.0714634,0.674568,0.97643,1.15085,1.26504,1.34572,1.40577,1.45223,1.48925,1.51944
0.0701213,0.727371,1.07304,1.2769,1.41123,1.50632,1.57714,1.63192,1.67553,1.71107
0.068537,0.766933,1.13552,1.35127,1.4925,1.59203,1.66592,1.72294,1.76828,1.80518
0.0866681,1.02404,1.50719,1.78627,1.96778,2.09525,2.18968,2.26246,2.32027,2.36729
0.0659771,0.696887,0.948524,1.07738,1.15568,1.2083,1.2461,1.27457,1.29678,1.3146
0.0670688,0.818469,1.20633,1.44462,1.60763,1.72657,1.81733,1.88891,1.94684,1.99468
0.0658304,0.864545,1.27689,1.51843,1.67573,1.78582,1.86699,1.92923,1.97842,2.01826
0.0727023,1.03238,1.53461,1.82799,2.01949,2.15421,2.25414,2.33123,2.39251,2.4424
0.102409,1.53508,2.2703,2.69464,2.97037,3.16393,3.30731,3.4178,3.50555,3.57692
0.0620516,0.977508,1.44439,1.71506,1.8919,2.01656,2.1092,2.18076,2.2377,2.2841
0.0598629,0.984442,1.45455,1.72867,1.90848,2.03555,2.13014,2.20329,2.26155,2.30905
0.0634387,1.09411,1.61647,1.92016,2.11867,2.25853,2.36237,2.44251,2.50623,2.55811
0.0672522,1.18998,1.74224,2.059,2.26445,2.4085,2.51509,2.59717,2.66231,2.71527
0.0603432,1.08602,1.58172,1.86649,2.05172,2.18192,2.27848,2.35296,2.41215,2.46033
0.0698437,1.30981,1.92549,2.28638,2.52388,2.69209,2.81748,2.91455,2.99192,3.05505
0.0594539,1.17359,1.73872,2.07142,2.29033,2.44518,2.56048,2.64964,2.72063,2.7785
0.0691996,1.36527,1.983,2.33355,2.55912,2.71638,2.83226,2.92119,2.9916,3.04872
0.0582798,1.12452,1.59951,1.86265,2.03009,2.14607,2.23119,2.29633,2.3478,2.38948
0.0607084,1.22734,1.78573,2.11197,2.32673,2.47899,2.59262,2.68068,2.75094,2.80831
0.0563069,1.14091,1.63918,1.92021,2.10021,2.2252,2.31698,2.38721,2.44267,2.48758
0.0565755,1.23162,1.82299,2.17536,2.40953,2.57652,2.70166,2.79896,2.87678,2.94045
0.0565169,1.02852,1.37805,1.55191,1.65537,1.72384,1.77246,1.80875,1.83686,1.85927
0.0556808,1.14855,1.67817,2.00282,2.22498,2.38729,2.51131,2.60926,2.68863,2.75426
0.0658791,1.50895,2.27432,2.7407,3.0518,3.27303,3.43798,3.5655,3.66695,3.74951
0.0552307,1.15581,1.62825,1.88192,2.03922,2.14616,2.22355,2.28216,2.32809,2.36505
0.0653932,1.45632,2.12674,2.52189,2.78405,2.97121,3.11172,3.22117,3.30886,3.38071
0.0530598,1.26417,1.86994,2.22452,2.45627,2.61924,2.73993,2.83285,2.90655,2.96643
0.0527107,1.34442,2.00317,2.38707,2.63734,2.8132,2.9435,3.04391,3.12365,3.1885
0.0549557,1.28181,1.79027,2.05737,2.22174,2.33309,2.41352,2.47434,2.52195,2.56024
0.0518542,1.33722,1.97307,2.35333,2.60845,2.79204,2.93065,3.03908,3.12624,3.19786
0.0560135,1.58887,2.39905,2.88503,3.20718,3.43572,3.60599,3.73764,3.84241,3.92774
0.053066,1.53043,2.24909,2.65272,2.90959,3.08712,3.21709,3.31632,3.39456,3.45784
0.0526468,1.61719,2.41084,2.87463,3.17957,3.39568,3.55698,3.68204,3.78186,3.8634
0.0625023,1.9506,2.87771,3.41185,3.75951,4.00389,4.18504,4.32469,4.43563,4.52588
0.134282,4.08076,5.87586,6.87921,7.52114,7.96735,8.29557,8.54715,8.74615,8.90749
0.0666333,1.94799,2.77619,3.2439,3.54611,3.75781,3.91446,4.03511,4.13091,4.20882
0.0520496,1.62533,2.40094,2.86627,3.17704,3.3993,3.5661,3.6959,3.79976,3.88475
0.0498942,1.68749,2.54277,3.05621,3.39647,3.63789,3.81786,3.95712,4.06803,4.15843
0.134371,4.78616,7.17499,8.56547,9.4695,10.1034,10.5722,10.933,11.2192,11.4518
0.0516294,1.7911,2.59706,3.04526,3.33068,3.52856,3.67389,3.78518,3.87317,3.94447
0.0509519,1.78003,2.58685,3.04919,3.3505,3.56284,3.72067,3.84264,3.93973,4.01887
0.0517228,1.88805,2.78298,3.3069,3.65122,3.8947,4.07593,4.21605,4.3276,4.4185
0.0521156,0.540817,0.5919,0.611496,0.621893,0.628345,0.63274,0.635928,0.638346,0.640244
0.0482987,0.808926,1.20704,1.53233,1.80907,2.04862,2.2584,2.44378,2.60887,2.75685
0.0511829,1.21962,2.08629,2.7561,3.25672,3.63212,3.91832,4.14091,4.31747,4.4601
0.115322,3.54358,6.11225,7.76388,8.83181,9.56066,10.0851,10.4794,10.7862,11.0318
0.048775,1.70904,2.78191,3.3856,3.76142,4.01808,4.20512,4.34782,4.46045,4.55171
0.0454786,1.78893,2.83114,3.41282,3.78498,4.04527,4.23814,4.387,4.50544,4.60196
0.0447718,1.91806,2.96798,3.55653,3.93688,4.20397,4.40207,4.5549,4.6764,4.77531
0.0483553,2.17678,3.2909,3.91414,4.31637,4.59807,4.80646,4.96689,5.09421,5.19772
0.0468055,2.02032,2.93903,3.44676,3.77282,4.00053,4.16869,4.29803,4.40061,4.48397
0.0461997,2.07541,3.06544,3.64251,4.02363,4.29444,4.49684,4.65386,4.77922,4.88162
0.101333,4.16082,5.82798,6.71754,7.27094,7.64803,7.92132,8.12841,8.29072,8.42135
0.0465824,2.00817,2.94037,3.49859,3.87363,4.14366,4.34762,4.5072,4.63552,4.74097
0.0464875,2.14939,3.21967,3.86281,4.2898,4.59304,4.81916,4.99411,5.13341,5.24691
0.0468758,2.2853,3.42639,4.09516,4.53154,4.83811,5.06513,5.23997,5.37874,5.49157
0.0940628,4.7195,7.00265,8.31067,9.15597,9.74712,10.1838,10.5197,10.786,11.0025
0.045666,2.23091,3.25065,3.83147,4.20816,4.47272,4.66891,4.82025,4.94058,5.03855
0.0684756,3.45912,5.10985,6.07978,6.71986,7.17414,7.51331,7.77618,7.9859,8.1571
0.0467349,2.37261,3.46555,4.08862,4.49037,4.77063,4.97715,5.1356,5.26099,5.36268
0.0902623,4.77311,7.06753,8.41301,9.29825,9.92523,10.3927,10.7548,11.0435,11.2791
0.0467853,2.48069,3.65022,4.32902,4.77243,5.08479,5.31671,5.4957,5.63803,5.75391
0.0448015,2.39628,3.51127,4.15324,4.57041,4.86322,5.08006,5.2471,5.37972,5.48757
0.0937639,5.19008,7.65499,9.08545,10.0192,10.6765,11.1643,11.5407,11.8399,12.0835
0.0484715,2.58614,3.74465,4.40455,4.83159,5.13077,5.35211,5.52252,5.65779,5.76777
0.0455522,2.48061,3.63286,4.30533,4.74682,5.05899,5.29143,5.47123,5.61446,5.73124
0.089127,5.13215,7.63789,9.11629,10.089,10.7767,11.2884,11.6839,11.9987,12.2551
0.0568897,3.17297,4.63093,5.46908,6.01362,6.396,6.67935,6.89777,7.0713,7.21251
0.0554321,2.97112,4.27286,5.01196,5.48947,5.82363,6.07066,6.26072,6.4115,6.53403
0.0471084,2.58038,3.76768,4.46159,4.91742,5.23983,5.47993,5.66567,5.81364,5.93428
0.130073,7.06445,10.1971,11.9676,13.1024,13.8909,14.4701,14.9136,15.264,15.5477
0.0447707,2.55057,3.76934,4.48967,4.96588,5.3043,5.55727,5.75356,5.91033,6.03844
0.0451549,2.60124,3.85718,4.60182,5.09447,5.44446,5.70591,5.90862,6.07038,6.20246
0.0972878,5.73646,8.48225,10.0774,11.1163,11.8458,12.386,12.8019,13.1321,13.4004
0.0456947,2.63992,3.84211,4.52723,4.97006,5.28,5.50914,5.68547,5.82538,5.9391
0.0454748,2.75223,4.09306,4.89046,5.42013,5.79775,6.08066,6.30053,6.47633,6.62011
0.063524,4.00375,5.98089,7.14552,7.91067,8.45106,8.85278,9.16303,9.4098,9.61074
0.0463211,2.79936,4.04389,4.73766,5.17952,5.48557,5.7101,5.88187,6.01752,6.12738
0.0453524,2.79914,4.1058,4.86991,5.37363,5.73129,5.99859,6.20601,6.37168,6.50706
0.047134,3.01575,4.46568,5.3169,5.876,6.27094,6.56458,6.7914,6.97182,7.11875
0.0507093,1.13346,1.27564,1.33195,1.36222,1.38113,1.39408,1.4035,1.41066,1.41629
0.0437805,1.47961,2.20658,2.77353,3.23892,3.63009,3.96422,4.25322,4.50578,4.72844
0.0512851,2.3462,3.91173,5.05435,5.87953,6.4858,6.94244,7.29511,7.57378,7.79847
0.0439789,2.33243,3.76838,4.62472,5.16318,5.52704,5.78801,5.98404,6.13665,6.25885
0.0537445,3.22275,5.12017,6.2127,6.91258,7.40066,7.76156,8.03982,8.26117,8.4416
0.053262,3.48509,5.41626,6.50887,7.21238,7.705,8.06977,8.35091,8.57429,8.75606
