0.254175,0.320829,0.35156,0.369244,0.380735,0.388801,0.394775,0.399378,0.403032,0.406004
0.156639,0.271138,0.339365,0.383818,0.414927,0.437873,0.455481,0.469414,0.48071,0.490051
0.128698,0.290355,0.393323,0.459849,0.505524,0.538589,0.56355,0.583028,0.598635,0.611413
0.106419,0.297723,0.418644,0.493714,0.543822,0.579427,0.60597,0.626499,0.642843,0.656159
0.0921752,0.300214,0.42458,0.498781,0.547451,0.581755,0.607223,0.626878,0.642506,0.655231
0.153324,0.602899,0.878641,1.0452,1.15566,1.23414,1.29276,1.33819,1.37444,1.40403
0.0884985,0.404009,0.589736,0.698059,0.76833,0.8175,0.853805,0.881699,0.903799,0.921737
0.075659,0.380456,0.546355,0.639897,0.699726,0.741289,0.77185,0.795271,0.813794,0.828811
0.0713226,0.402051,0.584045,0.68993,0.759329,0.808392,0.844936,0.873218,0.89576,0.914148
0.0728042,0.465096,0.687957,0.820775,0.9089,0.971621,1.01853,1.05493,1.08399,1.10773
0.044603,0.311449,0.457373,0.541978,0.59701,0.635623,0.664195,0.686188,0.703636,0.717816
0.070836,0.638309,1.01037,1.24548,1.40613,1.52254,1.61069,1.67972,1.73522,1.78081
0.0649914,0.567952,0.821738,0.959021,1.04464,1.10312,1.14559,1.17783,1.20315,1.22356
0.0649639,0.581353,0.834168,0.976888,1.06952,1.13475,1.18325,1.22077,1.25066,1.27505
0.202606,1.92895,2.81864,3.34669,3.69852,3.94997,4.13867,4.28549,4.40298,4.49912
0.0602528,0.600662,0.874574,1.03382,1.13775,1.21081,1.26493,1.30661,1.33969,1.36658
0.0590451,0.625985,0.917457,1.08817,1.20018,1.2793,1.33816,1.38367,1.4199,1.44943
0.0577629,0.650876,0.954959,1.13159,1.24674,1.32771,1.38773,1.43399,1.47074,1.50064
0.0669224,0.786889,1.15044,1.36081,1.49795,1.59445,1.66607,1.72132,1.76526,1.80102
0.0591388,0.71194,1.03192,1.2154,1.33448,1.41804,1.47991,1.52758,1.56542,1.5962
0.0564189,0.721284,1.06171,1.26324,1.39672,1.49167,1.56269,1.61781,1.66184,1.69783
0.0589548,0.781029,1.14027,1.3472,1.48138,1.57533,1.64474,1.69811,1.74041,1.77476
0.0531871,0.424671,0.512988,0.551382,0.572858,0.586584,0.596115,0.603121,0.608488,0.612732
0.0525877,0.572972,0.85,1.04442,1.19159,1.30758,1.40158,1.47939,1.5449,1.60084
0.0525038,0.6983,1.09545,1.3562,1.53511,1.66349,1.75928,1.8331,1.89156,1.93889
0.0537068,0.828384,1.29829,1.58051,1.76349,1.89075,1.98417,2.05563,2.11204,2.15771
0.0512288,0.87151,1.34213,1.61395,1.78941,1.91215,2.00294,2.07288,2.12845,2.17367
0.0506882,0.916089,1.38055,1.64402,1.81406,1.93317,2.02135,2.08929,2.14325,2.18715
0.0523369,0.969994,1.43193,1.69273,1.86133,1.97954,2.06709,2.13455,2.18813,2.23172
0.121897,2.2964,3.34686,3.94052,4.32431,4.59312,4.79196,4.94502,5.06647,5.1652
0.053291,1.04523,1.53673,1.82331,2.0119,2.14554,2.24521,2.32241,2.38398,2.43422
0.0543357,1.08164,1.57854,1.8646,2.05066,2.18131,2.27806,2.35258,2.41173,2.45982
0.0485807,1.03835,1.55604,1.86896,2.07885,2.22945,2.3428,2.4312,2.50207,2.56017
0.0515044,1.11632,1.64241,1.94525,2.14132,2.2784,2.37955,2.45725,2.51877,2.5687
0.0500172,1.12667,1.6685,1.98696,2.19686,2.34577,2.45695,2.54315,2.61196,2.66816
0.0489216,1.13848,1.68351,2.00167,2.21007,2.35711,2.46639,2.55078,2.61792,2.6726
0.0505478,1.19167,1.74327,2.05941,2.26426,2.40777,2.51391,2.59559,2.66039,2.71306
0.0508163,1.21843,1.77839,2.10062,2.31033,2.45777,2.56712,2.65147,2.71851,2.77308
0.0482409,1.18054,1.72854,2.04752,2.25657,2.40423,2.51409,2.59902,2.66664,2.72176
0.0395726,0.949784,1.36629,1.60176,1.75316,1.85868,1.93641,1.99606,2.04327,2.08156
0.0315975,0.950986,1.50106,1.85445,2.09953,2.27918,2.41641,2.52463,2.61213,2.68434
0.402808,13.9782,22.1002,26.9621,30.1371,32.3586,33.9954,35.2497,36.2408,37.0431
0.0513177,1.54308,2.20427,2.55642,2.77635,2.92735,3.03767,3.12191,3.18839,3.24221
0.0512131,1.48998,2.13536,2.50529,2.74852,2.92135,3.05069,3.15117,3.23152,3.29724
0.0511846,1.49274,2.17077,2.5725,2.83945,3.02971,3.17212,3.28267,3.37097,3.4431
0.0474523,1.43073,2.11584,2.52715,2.80095,2.99605,3.14202,3.2553,3.34575,3.41963
0.048074,1.49914,2.2341,2.67389,2.96552,3.17283,3.32771,3.44779,3.5436,3.62184
0.0495269,1.57431,2.32835,2.76776,3.05439,3.25593,3.40534,3.52052,3.61201,3.68644
0.0504495,1.56247,2.26628,2.66743,2.92686,3.10855,3.24295,3.34643,3.42856,3.49535
0.0489745,1.47194,2.11583,2.4839,2.72298,2.89096,3.01552,3.11158,3.18792,3.25006
0.0469861,1.46948,2.16037,2.57084,2.84317,3.03705,3.18211,3.29471,3.38465,3.45814
0.0482498,1.55444,2.30713,2.75644,3.05447,3.26643,3.42483,3.54767,3.6457,3.72575
0.0490328,1.59243,2.33689,2.76651,3.04512,3.24022,3.38439,3.49526,3.58316,3.65455
0.0491784,1.6269,2.38811,2.82938,3.11742,3.32033,3.47104,3.58742,3.68001,3.75544
0.0447825,1.50347,2.21626,2.63562,2.91229,3.10863,3.25523,3.36888,3.45957,3.53362
0.0489184,1.62513,2.36441,2.78844,3.06325,3.25574,3.39805,3.50753,3.59434,3.66488
0.0479166,1.66538,2.47216,2.95314,3.27293,3.50103,3.67198,3.80487,3.91116,3.99811
0.0478752,1.73466,2.58207,3.08001,3.40648,3.63669,3.80764,3.93954,4.04439,4.12971
0.046049,1.74664,2.61776,3.13384,3.47473,3.71667,3.89731,4.03734,4.14907,4.2403
0.0487292,1.83003,2.6624,3.12678,3.42209,3.62627,3.77581,3.89002,3.9801,4.05296
0.0483094,1.79767,2.62216,3.10171,3.41751,3.64181,3.80954,3.93978,4.04388,4.12901
0.0463016,1.78084,2.63011,3.13186,3.46335,3.69854,3.874,4.00986,4.11816,4.20649
0.0465706,1.81073,2.66917,3.17191,3.50172,3.7346,3.90778,4.04158,4.14806,4.23481
0.0841903,3.43347,5.1381,6.15727,6.83461,7.31729,7.67866,7.95935,8.18367,8.36705
0.0473354,1.85929,2.71783,3.2141,3.53761,3.76527,3.93421,4.06457,4.16821,4.25258
0.0474391,1.95606,2.92353,3.50583,3.89524,4.17408,4.38362,4.54685,4.67759,4.78467
0.0469861,1.91513,2.79599,3.29692,3.61884,3.84282,4.00753,4.13371,4.23343,4.31422
0.045697,1.91157,2.81171,3.33547,3.67862,3.92108,4.10159,4.24124,4.35252,4.44329
0.0465067,1.99187,2.94125,3.49674,3.86143,4.1192,4.31104,4.45937,4.57748,4.67375
0.0470231,2.05395,3.00813,3.5518,3.90196,4.14606,4.32586,4.46378,4.57291,4.6614
0.0342424,1.55984,2.3317,2.79477,3.10449,3.32655,3.49366,3.62403,3.72859,3.81433
0.0383465,1.80648,2.71792,3.26592,3.63136,3.89225,4.08777,4.23971,4.36116,4.46045
0.0442893,2.47338,3.89247,4.76708,5.35344,5.77219,6.08565,6.32888,6.52301,6.68148
0.0305488,1.71489,2.54655,2.99934,3.28122,3.47316,3.6122,3.71754,3.8001,3.86656
0.0629062,3.97677,6.10834,7.37374,8.21631,8.81959,9.27355,9.62784,9.91216,10.1455
0.0307529,1.95945,2.92465,3.47336,3.82787,4.07581,4.25893,4.39967,4.51121,4.60176
0.0399132,2.63862,3.98026,4.78034,5.31535,5.69908,5.98799,6.21345,6.39433,6.54269
0.0390562,2.37982,3.48458,4.13225,4.561,4.86628,5.09483,5.27239,5.41433,5.5304
0.0663016,3.81888,5.39657,6.25488,6.79309,7.16143,7.42908,7.63224,7.79167,7.92008
0.0315748,1.96689,2.92464,3.50563,3.89768,4.18058,4.39455,4.56213,4.69697,4.80784
0.043932,2.34132,3.27511,3.78921,4.11494,4.33973,4.50418,4.62968,4.72859,4.80855
0.0495776,2.55617,3.65733,4.30855,4.74175,5.05136,5.28387,5.46498,5.61006,5.72892
0.0482945,2.51216,3.66497,4.35489,4.81299,5.13877,5.3821,5.57067,5.72105,5.84374
0.0782017,4.41441,6.69852,8.11787,9.07978,9.77336,10.2968,10.7057,11.0339,11.3031
0.046374,2.44554,3.55355,4.18524,4.5915,4.87445,5.08279,5.24257,5.369,5.47153
0.04815,2.53001,3.69292,4.37117,4.81649,5.13173,5.36678,5.54885,5.69408,5.81263
0.0480963,2.5513,3.75044,4.45715,4.92323,5.25368,5.50014,5.69102,5.84319,5.96734
0.0473173,2.54624,3.74893,4.4524,4.91311,5.23798,5.47929,5.66556,5.81369,5.93429
0.0759326,4.0985,5.98795,7.07136,7.77241,8.26291,8.62529,8.90392,9.12483,9.30427
0.047839,2.56773,3.75054,4.43721,4.88678,5.2043,5.44061,5.62338,5.76897,5.8877
0.0487265,2.52105,3.62595,4.25321,4.65784,4.94052,5.14916,5.30946,5.43648,5.53961
0.048272,2.65646,3.9519,4.73133,5.25242,5.62545,5.9057,6.12397,6.29877,6.44191
0.0487021,2.81462,4.21351,5.04069,5.58408,5.9675,6.25225,6.47195,6.64657,6.78866
0.0484057,2.77522,4.06574,4.798,5.26855,5.59632,5.83775,6.023,6.16964,6.28862
0.0489411,2.7978,4.10818,4.87344,5.3775,5.73528,6.00263,6.21008,6.37577,6.51118
0.0444666,2.61593,3.88603,4.64065,5.141,5.49697,5.76311,5.96958,6.13439,6.26899
0.0492634,2.99679,4.46339,5.32537,5.89099,6.29018,6.58681,6.81584,6.99799,7.14631
0.0488285,3.04458,4.5119,5.36048,5.91221,6.29947,6.58623,6.80711,6.98248,7.12509
0.0515103,3.13303,4.58774,5.42949,5.98023,6.36921,6.65877,6.8828,7.06131,7.20692
0.0509712,3.13664,4.61887,5.48841,6.06106,6.46679,6.76929,7.00351,7.1902,7.3425
