1.1083,1.2754,1.34289,1.37939,1.40225,1.41792,1.42933,1.43801,1.44483,1.45033
0.617064,0.866942,0.982739,1.04897,1.09176,1.12165,1.14371,1.16066,1.17408,1.18497
0.579094,1.16495,1.52925,1.76845,1.93597,2.0594,2.15397,2.22868,2.28916,2.33911
0.276423,0.401125,0.434559,0.448576,0.456065,0.460671,0.463774,0.465999,0.46767,0.46897
0.361938,0.914007,1.33013,1.66307,1.93854,2.17121,2.37071,2.54382,2.69553,2.82962
0.314599,1.2136,1.99628,2.56759,2.97455,3.26892,3.48732,3.65368,3.78351,3.88702
0.369308,1.92747,3.15186,3.87963,4.32675,4.62205,4.82987,4.98361,5.10184,5.19559
0.41161,2.65633,4.15513,4.94634,5.41955,5.73438,5.9596,6.1291,6.26148,6.36783
0.264921,0.708379,0.774994,0.796797,0.807633,0.814155,0.818524,0.821661,0.824024,0.825868
0.261034,1.18739,1.76217,2.21779,2.60067,2.92932,3.21518,3.46633,3.68883,3.88738
0.273667,1.87775,3.18293,4.15092,4.85261,5.36564,5.74854,6.04102,6.26949,6.45162
0.31103,2.859,4.82034,5.99647,6.72012,7.19667,7.53072,7.77691,7.96564,8.11487
0.282285,3.1371,4.9925,5.95837,6.53003,6.90768,7.17661,7.37839,7.53565,7.6618
0.288833,3.60086,5.42517,6.33951,6.89109,7.26306,7.53192,7.73569,7.8956,8.02449
0.298751,4.11215,6.05096,7.05164,7.67269,8.09823,8.40861,8.64515,8.83146,8.982
0.349476,5.02909,7.19226,8.31192,9.00603,9.47972,9.82379,10.0851,10.2902,10.4556
0.370317,5.465,7.70214,8.88393,9.62339,10.1307,10.5006,10.7823,11.0041,11.1831
0.330894,5.12496,7.24717,8.39763,9.12432,9.62525,9.9915,10.2709,10.4912,10.6692
0.323533,5.34507,7.61876,8.86672,9.65641,10.2008,10.5986,10.902,11.141,11.3342
0.327188,5.40566,7.52915,8.64802,9.33822,9.80619,10.1443,10.4,10.6001,10.761
0.332677,5.71119,8.00447,9.24517,10.0253,10.5618,10.9536,11.2524,11.4878,11.6781
0.332261,6.02877,8.56191,9.96452,10.8564,11.4737,11.9261,12.272,12.545,12.7659
0.341261,5.13148,6.67166,7.40822,7.8389,8.12118,8.32038,8.46844,8.5828,8.67377
0.3519,6.1303,8.72094,10.2543,11.2814,12.0206,12.5792,13.0164,13.3683,13.6575
0.337436,6.47028,9.36266,11.005,12.051,12.7712,13.2955,13.6936,14.0057,14.2568
0.358358,7.31146,10.517,12.2665,13.3582,14.1027,14.6426,15.052,15.3732,15.6319
0.392117,8.23478,11.6882,13.5382,14.6893,15.4753,16.0464,16.4804,16.8213,17.0963
0.350446,7.27588,10.1241,11.6264,12.5571,13.1911,13.6511,14.0001,14.2741,14.4948
0.561646,12.3841,17.5356,20.3646,22.1589,23.3994,24.3085,25.0035,25.552,25.9959
0.369468,8.43718,11.9334,13.8332,15.0253,15.8423,16.437,16.889,17.2442,17.5307
0.371289,8.86688,12.5837,14.609,15.8825,16.757,17.3947,17.8803,18.2624,18.5709
0.371045,9.1589,12.965,15.0257,16.3169,17.2016,17.8457,18.3355,18.7206,19.0313
0.380482,9.66663,13.6532,15.8086,17.1592,18.085,18.7593,19.2723,19.6757,20.0013
0.376796,9.43452,13.0864,15.0129,16.204,17.0135,17.5995,18.0434,18.3912,18.6712
0.391562,10.1473,14.2665,16.5238,17.9542,18.9428,19.6672,20.2211,20.6583,21.0123
0.391188,10.2753,14.4007,16.6332,18.0313,18.9884,19.6844,20.2133,20.6286,20.9634
0.521767,14.1779,20.003,23.1866,25.1928,26.5728,27.5802,28.348,28.9527,29.4411
0.375076,10.3085,14.4549,16.6882,18.0825,19.0356,19.7282,20.2542,20.6672,21.0001
0.396957,11.1887,15.7693,18.2715,19.85,20.9372,21.7318,22.3379,22.8156,23.2017
0.386225,10.9182,15.2735,17.6176,19.0817,20.0826,20.8101,21.3627,21.7967,22.1465
0.378829,10.7175,14.9401,17.214,18.6369,19.6117,20.3213,20.8611,21.2856,21.6281
0.379156,11.1147,15.67,18.1712,19.7529,20.8436,21.6412,22.2498,22.7296,23.1174
0.382068,10.3387,14.037,15.9468,17.1122,17.8972,18.4618,18.8874,19.2196,19.4862
0.396976,11.7318,16.7126,19.555,21.4019,22.7006,23.6643,24.4082,24.9999,25.4818
0.390699,11.6548,16.3831,18.9329,20.5173,21.594,22.3722,22.9603,23.4203,23.7897
0.38746,12.234,17.4455,20.3215,22.1425,23.3993,24.3192,25.022,25.5764,26.0251
0.393049,12.9508,18.4695,21.4791,23.3683,24.6637,25.6068,26.3241,26.8879,27.3428
0.399324,13.4765,19.114,22.163,24.0723,25.3806,26.3332,27.0579,27.6278,28.0876
0.389368,13.5028,19.1401,22.2007,24.1244,25.446,26.4101,27.1446,27.7227,28.1897
0.386202,13.6936,19.3789,22.4656,24.4052,25.7372,26.7084,27.448,28.03,28.4999
0.344841,2.43291,2.56146,2.60706,2.63042,2.64462,2.65416,2.66101,2.66617,2.6702
0.355789,4.34604,6.40028,8.15561,9.70005,11.0749,12.3082,13.4216,14.432,15.3532
0.443455,8.41394,14.7854,20.0083,24.0285,27.0789,29.4083,31.2125,32.6333,33.7708
0.357824,9.50205,17.1078,22.0669,25.1841,27.2355,28.6628,29.7055,30.4982,31.1205
0.380164,12.4232,20.7775,25.1541,27.6796,29.3129,30.4591,31.3106,31.9695,32.4955
0.355984,13.4154,21.1485,25.0147,27.3285,28.8859,30.0124,30.8676,31.5399,32.0826
0.369855,15.0987,22.6784,26.481,28.8109,30.3983,31.5523,32.4301,33.1203,33.6774
0.375668,15.7347,22.7154,26.2506,28.4302,29.9152,30.9932,31.8116,32.4542,32.9722
0.4328,18.8009,26.8902,31.1514,33.8244,35.662,37.0038,38.0268,38.8326,39.4837
0.368971,16.4972,23.4411,27.1429,29.4622,31.0522,32.2099,33.0905,33.7828,34.3413
0.36641,16.947,24.0974,27.9626,30.3945,32.0658,33.2851,34.214,34.9451,35.5355
0.478204,21.6622,30.1313,34.5707,37.308,39.1641,40.5055,41.5201,42.3143,42.9529
0.371174,17.5096,24.754,28.7243,31.2419,32.983,34.2593,35.2355,36.0062,36.6304
0.467621,22.6214,32.0169,37.1335,40.3493,42.5558,44.1628,45.3852,46.3461,47.1212
0.372679,17.7679,24.7524,28.4532,30.7434,32.3,33.4267,34.28,34.9486,35.4867
0.470975,23.341,33.0425,38.3837,41.7738,44.119,45.8388,47.1542,48.193,49.0342
0.385169,19.5795,27.719,32.1472,34.9255,36.8293,38.2146,39.2675,40.0946,40.7616
0.384111,19.5218,27.4352,31.699,34.3646,36.1891,37.5166,38.5259,39.3192,39.9592
0.379589,18.5874,25.7028,29.4758,31.8178,33.4143,34.5726,35.4515,36.1413,36.6971
0.457961,23.1774,32.6477,37.8736,41.195,43.4943,45.1806,46.4706,47.4892,48.314
0.386048,20.0068,28.3058,32.8599,35.7312,37.705,39.1443,40.2401,41.1021,41.7978
0.376632,19.9531,28.2303,32.734,35.5593,37.4959,38.9059,39.9783,40.8213,41.5015
0.464541,23.9082,33.2559,38.2281,41.3152,43.4192,44.9456,46.1036,47.0124,47.7445
0.390946,20.9177,29.5663,34.3212,37.3341,39.4154,40.9397,42.1044,43.0233,43.7668
0.44579,22.4336,30.8042,35.1861,37.88,39.7031,41.0185,42.0123,42.7894,43.4138
0.382935,20.5826,29.2482,34.109,37.2297,39.4052,41.0094,42.2414,43.2175,44.01
0.455408,23.2263,32.0402,36.6748,39.5234,41.4487,42.8358,43.8822,44.6996,45.3555
0.379573,19.9536,28.0616,32.5312,35.371,37.3375,38.7809,39.8858,40.7589,41.4665
0.389901,17.5328,23.1306,25.8863,27.5215,28.6028,29.3703,29.9431,30.3869,30.7407
0.377179,18.8737,26.7986,31.4126,34.4617,36.6339,38.2624,39.5296,40.5441,41.375
0.387407,21.0074,30.3782,35.6742,39.0425,41.3618,43.0514,44.3353,45.3428,46.1542
0.465609,25.9549,37.0278,42.9864,46.6775,49.1834,50.9951,52.3658,53.4391,54.3024
0.378596,16.016,20.4717,22.5195,23.6959,24.4603,24.9972,25.3953,25.7022,25.9461
0.38587,19.1524,27.3605,32.3215,35.7042,38.172,40.056,41.5431,42.7474,43.7429
0.378877,20.9455,30.7465,36.4297,40.086,42.6157,44.4619,45.8651,46.9658,47.8515
0.473094,27.5327,39.8224,46.4707,50.5786,53.3582,55.3618,56.8741,58.0561,59.0053
0.388574,23.8512,34.3883,40.0742,43.6238,46.0533,47.8221,49.1682,50.2274,51.0827
0.442553,27.7879,39.5583,45.8248,49.7197,52.3774,54.3074,55.7727,56.9232,57.8505
0.386855,24.6529,34.8741,40.3465,43.7676,46.1116,47.8187,49.1176,50.1393,50.9639
0.395964,24.7578,34.6144,39.8818,43.1733,45.4273,47.0681,48.3162,49.2974,50.0893
0.387024,24.8905,35.1821,40.8233,44.3944,46.8591,48.6627,50.0398,51.1256,52.0037
0.392094,25.505,36.003,41.7137,45.3015,47.7631,49.5562,50.9203,51.9929,52.8583
0.44777,29.4933,41.6198,48.2086,52.3467,55.1867,57.2567,58.8324,60.072,61.0728
0.402133,26.9461,38.0552,44.0896,47.8786,50.4787,52.3734,53.8156,54.95,55.8657
0.400662,27.091,38.1842,44.1944,47.9641,50.5494,52.4329,53.8661,54.9933,55.9031
0.401361,25.9351,35.7758,40.9508,44.1444,46.3124,47.8805,49.0676,49.9975,50.7456
0.439131,25.1714,33.4852,37.6921,40.2413,41.9533,43.1828,44.109,44.8317,45.4115
0.388354,23.98,33.7724,39.3789,43.0378,45.6191,47.5393,49.0241,50.2067,51.171
0.47983,31.1216,44.3904,51.7998,56.4914,59.7164,62.0647,63.8492,65.2501,66.3788
0.475821,31.9856,45.6221,53.072,57.7367,60.9272,63.2461,65.0076,66.3911,67.5066
