0.74624,0.879778,0.935585,0.966231,0.985601,0.998952,1.00871,1.01616,1.02203,1.02677
0.563121,0.902817,1.09142,1.21006,1.29135,1.35046,1.39537,1.43063,1.45904,1.48243
0.506903,1.04412,1.35516,1.54572,1.67224,1.76173,1.82816,1.87933,1.91992,1.95288
0.535538,1.37485,1.86424,2.15558,2.34516,2.47761,2.57516,2.64992,2.70901,2.75689
0.452377,1.3987,1.93845,2.25038,2.45043,2.58916,2.6909,2.76867,2.83005,2.87971
0.331162,1.25802,1.80452,2.12423,2.33166,2.47682,2.58403,2.66644,2.73175,2.78479
0.726996,3.3053,4.76674,5.58151,6.09327,6.44324,6.69729,6.88997,7.04107,7.16269
0.423756,2.06492,2.87949,3.31133,3.57815,3.75956,3.89101,3.99071,4.06893,4.13196
0.411868,2.19077,3.05423,3.5238,3.82035,4.02506,4.17503,4.28966,4.38014,4.45339
0.423455,2.46051,3.44766,3.99231,4.33829,4.57762,4.75302,4.88707,4.99286,5.07845
0.39653,2.40941,3.32802,3.8225,4.13147,4.34276,4.49634,4.61299,4.70461,4.77846
0.64623,4.33969,6.11088,7.09954,7.73125,8.16993,8.49239,8.73945,8.93479,9.09313
0.390785,2.84761,4.02701,4.68144,5.09663,5.38322,5.59284,5.75279,5.87883,5.98071
0.3877,3.03313,4.28693,4.97715,5.4132,5.71352,5.93292,6.10022,6.232,6.3385
0.372835,3.1682,4.50393,5.24271,5.71102,6.03434,6.27098,6.45167,6.59415,6.70939
0.385361,3.44914,4.86629,5.63877,6.12454,6.45821,6.70154,6.88684,7.03266,7.1504
0.381566,3.60339,5.07784,5.88378,6.39225,6.74243,6.99832,7.19351,7.34731,7.47163
0.373729,3.80252,5.40892,6.29998,6.86662,7.25871,7.54614,7.76587,7.9393,8.07967
0.498345,5.33165,7.54026,8.74463,9.50154,10.021,10.3994,10.6874,10.9139,11.0966
0.367438,4.23598,6.03321,7.02209,7.64739,8.07844,8.39361,8.63409,8.82362,8.97685
0.366382,4.41667,6.25691,7.26066,7.8925,8.32682,8.64375,8.88521,9.07529,9.22881
0.3663,4.62142,6.54298,7.59486,8.25913,8.71686,9.05148,9.30678,9.50799,9.67066
0.364692,4.85775,6.90979,8.04315,8.7623,9.25927,9.62325,9.90133,10.1207,10.2982
0.498421,6.87248,9.71692,11.2679,12.2436,12.9138,13.4026,13.7747,14.0675,14.3039
0.360494,5.18208,7.34042,8.52624,9.27662,9.7944,10.1733,10.4626,10.6907,10.8752
0.358147,5.32077,7.53038,8.74507,9.51376,10.0441,10.432,10.7281,10.9615,11.1502
0.360496,5.51404,7.77171,9.00143,9.7747,10.3057,10.6929,10.9877,11.2196,11.4068
0.357635,5.37261,7.4301,8.52506,9.20567,9.6699,10.0069,10.2626,10.4633,10.6251
0.356059,5.69983,8.07463,9.40376,10.2557,10.8488,11.2857,11.6209,11.8863,12.1016
0.475994,8.0244,11.4283,13.3155,14.5112,15.3354,15.9375,16.3964,16.7577,17.0495
0.356932,6.19971,8.78197,10.192,11.0786,11.6872,12.1309,12.4687,12.7345,12.9491
0.357313,6.61571,9.45915,11.0293,12.0238,12.7101,13.2123,13.5956,13.8979,14.1424
0.352598,6.6611,9.43548,10.9449,11.8935,12.545,13.0201,13.3818,13.6665,13.8964
0.442157,8.53243,12.0379,13.9447,15.1448,15.97,16.5724,17.0315,17.3931,17.6852
0.356272,7.09294,10.0374,11.6544,12.6778,13.3839,13.9006,14.295,14.6061,14.8576
0.350596,7.16519,10.1347,11.7623,12.7898,13.4974,14.0144,14.4085,14.7189,14.9697
0.350918,7.3323,10.3684,12.0352,13.089,13.8156,14.347,14.7524,15.072,15.3304
0.34642,7.42094,10.4868,12.1646,13.2225,13.9504,14.4819,14.8869,15.2058,15.4634
0.347548,7.78153,11.0846,12.9134,14.0746,14.8773,15.4653,15.9146,16.2691,16.556
0.451131,10.2499,14.4651,16.7494,18.1801,19.1598,19.8726,20.4145,20.8402,21.1836
0.339643,7.94024,11.2624,13.0947,14.2578,15.0623,15.6522,16.1033,16.4594,16.7478
0.345885,8.24624,11.6804,13.5675,14.7609,15.5835,16.1849,16.6436,17.0051,17.2972
0.352101,8.52227,12.0265,13.9386,15.1424,15.9699,16.5737,17.0336,17.3956,17.688
0.3503,8.72877,12.38,14.3943,15.6717,16.5543,17.2006,17.6945,18.0841,18.3993
0.425871,10.8066,15.2448,17.6543,19.1651,20.2003,20.9537,21.5265,21.9767,22.3398
0.345016,9.06733,12.8948,15.0127,16.3587,17.2902,17.9734,18.496,18.9086,19.2427
0.343855,9.2354,13.0878,15.1933,16.5188,17.4295,18.0936,18.5992,18.997,19.3182
0.345188,9.60699,13.6871,15.9397,17.3681,18.355,19.0776,19.6297,20.0653,20.4177
0.34532,9.87596,14.0419,16.3229,17.7607,18.7496,19.4712,20.021,20.4538,20.8033
0.346342,10.0533,14.2227,16.4918,17.919,18.8996,19.6149,20.1599,20.5889,20.9353
0.343405,10.1461,14.361,16.671,18.1314,19.1386,19.8753,20.4377,20.881,21.2396
0.340934,10.3041,14.6104,16.9772,18.4745,19.5069,20.2618,20.8379,21.2918,21.6589
0.339697,10.4099,14.7164,17.0687,18.5506,19.5696,20.3132,20.8798,21.3259,21.6861
0.409687,12.9212,18.3641,21.3679,23.2728,24.5887,25.5523,26.2884,26.8691,27.339
0.339983,10.9127,15.4857,17.9969,19.5836,20.6766,21.4753,22.0844,22.5642,22.952
0.332904,10.822,15.3447,17.8332,19.4088,20.4963,21.2921,21.8998,22.3791,22.7667
0.342743,11.3266,16.0525,18.6476,20.2877,21.4179,22.2439,22.874,23.3704,23.7716
0.337568,11.3146,16.0315,18.624,20.2639,21.3949,22.222,22.8532,23.3509,23.7532
0.334557,11.2317,15.8228,18.3235,19.8968,20.9779,21.7665,22.3671,22.8398,23.2216
0.339668,11.4905,16.1727,18.7272,20.3369,21.4444,22.2531,22.8695,23.3549,23.7472
0.392374,12.4332,16.9908,19.3707,20.8333,21.8233,22.538,23.0781,23.5007,23.8403
0.336583,10.5949,14.6124,16.7892,18.1609,19.1058,19.7967,20.3241,20.74,21.0763
0.3388,11.2688,15.9955,18.6652,20.3811,21.5764,22.4565,23.1315,23.6654,24.0983
0.342504,11.667,16.5344,19.2067,20.8865,22.0377,22.8751,23.5113,24.011,24.4138
0.338591,11.9274,16.9972,19.7971,21.5698,22.7929,23.6879,24.3712,24.9102,25.3462
0.339892,12.4035,17.7286,20.6664,22.5254,23.8074,24.7448,25.4601,26.0238,26.4795
0.340027,12.4955,17.6384,20.4038,22.1278,23.305,24.1599,24.8089,25.3182,25.7287
0.337205,12.7512,18.1278,21.0887,22.9679,24.2678,25.2211,25.9502,26.526,26.9923
0.343678,13.1721,18.6505,21.638,23.5182,24.8101,25.7522,26.4695,27.0339,27.4895
0.336413,13.1856,18.7049,21.7292,23.6391,24.9549,25.9165,26.65,27.228,27.6952
0.336604,13.2031,18.5786,21.485,23.3055,24.5528,25.4607,26.1512,26.694,27.1319
0.339251,13.7976,19.6224,22.8396,24.882,26.2942,27.3292,28.1202,28.7445,29.2498
0.335606,13.7424,19.4476,22.5647,24.5283,25.8783,26.8633,27.6136,28.2042,28.6811
0.333606,13.971,19.8208,23.0296,25.0563,26.4526,27.4731,28.2514,28.8647,29.3604
0.332434,14.3465,20.4595,23.8366,25.978,27.4571,28.5399,29.3669,30.0191,30.5466
0.334512,14.3798,20.2874,23.4895,25.4973,26.8737,27.8759,28.6384,29.2379,29.7216
0.333108,14.5219,20.5276,23.8133,25.8884,27.3184,28.364,29.1619,29.7909,30.2994
0.33573,15.0637,21.433,24.95,27.1802,28.7206,29.8481,30.7091,31.3881,31.9372
0.37865,17.2266,24.411,28.3283,30.7909,32.4814,33.7135,34.6512,35.3887,35.984
0.336711,15.6235,22.1512,25.7176,27.9653,29.5117,30.6409,31.5018,32.1797,32.7275
0.331063,15.6146,22.142,25.7151,27.9703,29.5235,30.6583,31.5238,32.2056,32.7566
0.336726,15.9974,22.622,26.2387,28.518,30.0862,31.2311,32.1038,32.7911,33.3463
0.338465,16.1858,22.866,26.5195,28.8252,30.413,31.5732,32.4581,33.1553,33.7187
0.336754,16.2956,23.0481,26.7502,29.0887,30.6998,31.8772,32.7753,33.4828,34.0547
0.324481,15.7898,22.2806,25.8224,28.0525,29.5855,30.7041,31.5562,32.2269,32.7687
0.33341,16.4388,23.258,27.0024,29.37,31.0026,32.1965,33.1076,33.8258,34.4065
0.334538,16.7635,23.7586,27.5998,30.0265,31.6982,32.9197,33.8512,34.5851,35.1781
0.368376,18.6465,26.531,30.9128,33.7049,35.6405,37.0615,38.1493,39.0087,39.7049
0.337346,17.0371,24.029,27.8279,30.2104,31.843,33.0312,33.9346,34.6444,35.217
0.33146,17.18,24.4246,28.4272,30.9676,32.7239,34.011,34.9948,35.7712,36.3997
0.371912,19.5379,27.7219,32.2048,35.0313,36.9755,38.3944,39.4755,40.3265,41.0137
0.334069,17.839,25.3186,29.4172,32.0041,33.7854,35.0869,36.0794,36.8613,37.4933
0.33382,18.436,26.3245,30.6768,33.4336,35.3361,36.7281,37.7906,38.6282,39.3056
0.379183,20.7282,29.157,33.6823,36.5031,38.4293,39.828,40.8898,41.7233,42.395
0.331161,18.0863,25.4156,29.3962,31.9027,33.6277,34.888,35.8492,36.6067,37.2191
0.33509,18.6968,26.5149,30.8403,33.59,35.4928,36.8878,37.9542,38.796,39.4773
0.366952,20.6505,29.2463,33.9632,36.9404,38.9894,40.4852,41.6252,42.5226,43.2475
0.337819,19.1537,27.0781,31.4075,34.1345,36.0096,37.3781,38.4208,39.2418,39.9049
0.330457,19.0284,26.963,31.3158,34.0656,35.9603,37.3452,38.4016,39.2341,39.907
0.327047,18.7469,26.3624,30.4826,33.0635,34.8317,36.1188,37.0975,37.8669,38.4876
