1.15797,1.29565,1.34912,1.37754,1.39518,1.40719,1.41589,1.42249,1.42767,1.43184
0.778604,1.21153,1.4514,1.60284,1.70699,1.78296,1.84081,1.88633,1.92308,1.95337
0.754774,1.54061,1.99612,2.27425,2.45806,2.58751,2.68323,2.75671,2.81483,2.8619
1.77236,4.28247,5.60528,6.34296,6.80338,7.11606,7.34171,7.51205,7.64511,7.75191
0.692174,1.97012,2.62509,2.98522,3.21042,3.3643,3.47607,3.56096,3.62762,3.68136
0.70877,2.31804,3.11441,3.54516,3.813,3.99544,4.12768,4.22791,4.30649,4.36976
0.649343,2.45725,3.35529,3.84453,4.15083,4.36049,4.513,4.62892,4.71999,4.79344
0.748761,3.19733,4.37792,5.01032,5.40232,5.66881,5.86166,6.00767,6.12203,6.21402
0.65817,2.91985,3.88287,4.37242,4.668,4.86578,5.00742,5.11385,5.19675,5.26315
0.663821,3.29881,4.49474,5.14131,5.54808,5.82809,6.03277,6.18898,6.31214,6.41175
1.00329,4.83788,6.29089,7.00886,7.43566,7.71811,7.9187,8.06843,8.18443,8.27694
0.653724,3.74217,5.19743,6.02447,6.56144,6.93909,7.21948,7.43603,7.60837,7.74882
0.643032,3.8754,5.26176,5.98102,6.41666,6.70744,6.91481,7.06995,7.19029,7.28631
0.636522,4.22651,5.81713,6.66548,7.19251,7.55199,7.81305,8.01133,8.1671,8.29273
0.638131,4.7488,6.63873,7.65835,8.29454,8.72904,9.04453,9.28397,9.47188,9.62325
0.632586,4.65209,6.22407,7.00402,7.46808,7.77548,7.994,8.15728,8.2839,8.38496
0.617165,5.08712,7.05011,8.11596,8.78968,9.2553,9.59675,9.85802,10.0645,10.2317
0.627788,4.88344,6.41597,7.16385,7.60501,7.89538,8.10074,8.25355,8.37163,8.46558
0.643303,5.55658,7.62313,8.75123,9.46764,9.96443,10.3297,10.6097,10.8314,11.0112
0.622402,5.63601,7.68638,8.75864,9.4143,9.85538,10.1719,10.4099,10.5952,10.7436
0.644055,5.77981,7.70968,8.68414,9.27109,9.66334,9.94403,10.1549,10.3191,10.4506
0.611048,5.95431,8.16972,9.36355,10.1131,10.6283,11.0045,11.2913,11.5173,11.7
0.73114,7.73597,10.7257,12.321,13.3083,13.9781,14.4618,14.8273,15.1131,15.3427
0.638061,7.3468,10.2611,11.8094,12.7656,13.4141,13.8828,14.2372,14.5146,14.7377
0.660075,8.17382,11.4246,13.1388,14.1947,14.9101,15.4268,15.8176,16.1234,16.3692
0.655108,8.26197,11.2971,12.8383,13.7692,14.3924,14.8388,15.1743,15.4357,15.645
0.650996,8.32143,11.2876,12.809,13.7385,14.3664,14.8193,15.1615,15.4293,15.6445
0.673081,8.91549,12.1573,13.8539,14.9009,15.6119,16.1264,16.5159,16.8212,17.0667
0.816442,10.9063,14.7426,16.7172,17.9206,18.7303,19.3123,19.7507,20.0928,20.3671
0.650302,9.04056,12.3349,14.0685,15.1399,15.868,16.3951,16.7945,17.1075,17.3595
0.672848,9.64929,13.1661,15.0022,16.1286,16.8896,17.438,17.8519,18.1753,18.435
0.644982,9.59918,13.1288,14.9731,16.1055,16.8715,17.424,17.8415,18.168,18.4303
0.624175,9.29054,12.5495,14.2167,15.2287,15.9083,16.3962,16.7634,17.0497,17.2793
0.669342,8.79009,11.3312,12.558,13.2823,13.7608,14.1006,14.3544,14.5512,14.7083
0.722402,10.7305,14.8268,17.1363,18.6329,19.6845,20.4648,21.0671,21.5463,21.9366
0.709414,10.7234,14.5959,16.6032,17.8177,18.6273,19.2039,19.6347,19.9685,20.2347
0.692325,11.3038,15.6759,18.0052,19.4489,20.4314,21.1438,21.6841,22.1081,22.4498
0.650544,10.5423,14.2655,16.1449,17.2736,18.0257,18.5626,18.9649,19.2777,19.5277
0.634216,10.5033,14.2539,16.1952,17.3861,18.1927,18.7756,19.2167,19.5622,19.8403
0.630778,10.7094,14.5512,16.5434,17.7634,18.5872,19.1808,19.6288,19.9788,20.2598
0.720036,13.3947,18.6932,21.5496,23.3355,24.5574,25.446,26.1212,26.6517,27.0794
0.684405,13.5383,18.8797,21.6817,23.3974,24.5535,25.3846,26.0106,26.4989,26.8905
0.646465,12.1944,16.3177,18.339,19.5362,20.3279,20.8902,21.3104,21.6362,21.8964
0.672193,13.4863,18.5298,21.21,22.8857,24.036,24.8754,25.5155,26.0198,26.4276
0.641139,12.9142,17.5189,19.8759,21.3049,22.2622,22.9475,23.462,23.8624,24.1827
0.69118,15.2947,21.4185,24.7398,26.8273,28.2617,29.3084,30.1062,30.7344,31.242
0.629841,12.4187,16.2802,18.1227,19.1949,19.8948,20.387,20.7518,21.0329,21.2561
0.653837,14.0623,19.3527,22.2341,24.0656,25.3375,26.274,26.993,27.5626,28.0252
0.631523,13.9994,19.1979,21.912,23.5696,24.6834,25.4819,26.0817,26.5484,26.9218
0.66338,14.9895,20.4557,23.2735,24.9883,26.1413,26.9699,27.5941,28.0813,28.4722
0.680114,15.4759,21.0024,23.8398,25.5675,26.7307,27.5674,28.1982,28.6909,29.0864
0.679971,16.3344,22.5038,25.7609,27.7762,29.1469,30.1396,30.8918,31.4815,31.9562
0.724854,18.4182,25.5598,29.3221,31.6386,33.2068,34.3382,35.1928,35.861,36.3978
0.703581,18.3911,25.3342,28.9164,31.0967,32.5624,33.6152,34.4079,35.0263,35.5222
0.666053,16.2287,21.5348,24.1392,25.688,26.7155,27.4472,27.9948,28.4202,28.7602
0.726091,17.571,23.4961,26.5502,28.4272,29.7008,30.6226,31.321,31.8686,32.3095
0.663795,17.0085,23.3504,26.7555,28.8836,30.3392,31.3972,32.2008,32.8317,33.3402
0.658712,16.8201,22.7836,25.8374,27.6832,28.9167,29.7982,30.4593,30.9732,31.3842
0.70466,18.4461,25.1269,28.599,30.7269,32.1656,33.2037,33.9884,34.6024,35.096
0.676104,18.0248,24.5628,27.9523,30.0252,31.4236,32.4305,33.1902,33.7836,34.26
0.693448,19.3591,26.6486,30.4766,32.8342,34.4317,35.5857,36.4584,37.1413,37.6904
0.688189,19.0665,25.8197,29.2427,31.3066,32.6857,33.672,34.4122,34.9883,35.4493
0.663839,17.6396,23.4794,26.4058,28.1682,29.3473,30.192,30.8271,31.322,31.7187
0.689586,18.6917,25.2614,28.7007,30.8263,32.2721,33.3197,34.114,34.737,35.2386
0.68448,18.55,25.0194,28.3586,30.394,31.763,32.7463,33.4864,34.0636,34.5263
0.668859,19.7981,27.5817,31.7947,34.4339,36.2421,37.5583,38.5594,39.3464,39.9814
0.678634,21.1174,29.3695,33.686,36.3213,38.093,39.3645,40.3209,41.0661,41.6631
0.702867,22.4334,30.9175,35.2725,37.916,39.6911,40.9656,41.9253,42.6741,43.2746
0.692005,21.6844,29.2933,33.1087,35.4037,36.9372,38.0348,38.8593,39.5014,40.0157
0.65457,19.1682,25.2931,28.3251,30.1433,31.357,32.2252,32.8773,33.3851,33.7918
0.680818,21.0336,28.7116,32.8321,35.4197,37.1987,38.4976,39.488,40.2681,40.8987
0.659515,21.8427,30.3731,34.9465,37.7841,39.7113,41.1037,42.1561,42.979,43.64
0.700472,22.9078,31.1035,35.2383,37.7151,39.3615,40.5343,41.4121,42.0935,42.638
0.70754,24.5237,33.8993,38.8421,41.9018,43.9856,45.4975,46.6451,47.5461,48.2724
0.668687,21.3245,28.1992,31.5458,33.521,34.8231,35.7456,36.4331,36.9652,37.3892
0.670664,22.8858,31.4576,36.0761,38.9871,40.9956,42.4668,43.5916,44.4798,45.1991
0.665326,22.3126,30.1205,34.0904,36.4821,38.0764,39.2133,40.0643,40.7249,41.2523
0.703605,24.3844,33.3253,38.0073,40.8918,42.8489,44.2647,45.3368,46.1771,46.8535
0.693305,24.9885,34.5038,39.5401,42.6549,44.771,46.3019,47.4608,48.3686,49.0987
0.711521,27.4236,38.3276,44.1123,47.6842,50.1061,51.8554,53.1779,54.2126,55.0442
0.679286,28.8038,40.9102,47.379,51.3853,54.1071,56.076,57.5661,58.7331,59.6717
0.655968,37.3196,59.1945,72.8538,82.144,88.8643,93.9495,97.9309,101.133,103.763
0.656705,43.4773,67.319,80.3126,88.264,93.5781,97.3631,100.189,102.377,104.119
0.647153,46.6391,69.4074,81.0556,88.0812,92.7865,96.1631,98.7068,100.693,102.289
0.652914,51.7171,76.4424,89.4745,97.5886,103.15,107.208,110.301,112.738,114.708
0.676057,50.525,70.3435,80.1969,86.145,90.1348,92.9984,95.1541,96.8356,98.184
0.661634,54.0238,77.7439,90.8189,99.2097,105.069,109.397,112.726,115.367,117.513
0.687092,55.8419,78.4789,90.3596,97.6782,102.63,106.199,108.893,110.996,112.684
0.64722,47.1152,63.0211,70.8831,75.5863,78.7185,80.9551,82.6327,83.9378,84.9822
0.633735,46.8982,64.5514,74.1434,80.233,84.4551,87.5583,89.9369,91.8186,93.3448
0.644001,46.3768,63.5705,72.7353,78.4274,82.3005,85.1039,87.2257,88.887,90.2227
0.635295,51.2526,73.9414,86.9544,95.3816,101.28,105.639,108.991,111.649,113.808
0.629103,54.3677,78.7449,92.1957,100.633,106.397,110.579,113.749,116.233,118.232
0.634763,55.996,79.6131,92.1012,99.7851,104.986,108.741,111.58,113.801,115.587
0.638524,58.4149,83.1246,96.3979,104.7,110.391,114.54,117.699,120.185,122.194
0.6437,60.0406,84.9513,98.2752,106.583,112.26,116.386,119.52,121.981,123.965
0.635631,59.3698,83.3922,96.2205,104.219,109.687,113.662,116.683,119.056,120.969
0.64721,53.617,71.6618,80.6515,86.044,89.6395,92.2082,94.135,95.6337,96.8329
0.657536,59.0964,83.5342,97.4248,106.467,112.84,117.579,121.243,124.162,126.542
0.65333,58.6603,82.133,94.7841,102.646,107.986,111.844,114.758,117.035,118.863
