1.65428,1.70932,1.72849,1.73824,1.74414,1.74809,1.75093,1.75306,1.75473,1.75606
1.3261,1.83964,2.1001,2.25747,2.36282,2.43829,2.495,2.53918,2.57457,2.60355
1.18221,2.10971,2.59112,2.87077,3.05059,3.17511,3.26612,3.33541,3.38988,3.43378
1.07736,2.35253,2.99109,3.34205,3.55963,3.70678,3.81266,3.8924,3.95458,4.00441
1.01778,2.68571,3.50952,3.95294,4.22588,4.41018,4.54286,4.6429,4.72103,4.78372
0.966288,3.0211,4.01094,4.5323,4.8503,5.06399,5.21735,5.33275,5.42271,5.4948
0.975842,3.54317,4.74504,5.36913,5.7483,6.00276,6.1853,6.32263,6.42969,6.51549
0.966873,3.97673,5.33013,6.02272,6.44142,6.72174,6.92252,7.0734,7.19094,7.28508
0.923765,4.2691,5.74026,6.4929,6.94916,7.25533,7.47502,7.64034,7.76927,7.87263
0.919259,4.74148,6.39582,7.24175,7.75468,8.09885,8.34575,8.53151,8.67634,8.79241
0.93338,5.3076,7.16137,8.1051,8.67608,9.05864,9.33282,9.53895,9.69957,9.82824
0.91793,5.70151,7.69179,8.7035,9.31561,9.72583,10.0199,10.241,10.4134,10.5515
0.717613,2.21149,2.44074,2.52802,2.57402,2.60243,2.62172,2.63568,2.64624,2.65452
0.727723,3.48368,4.92433,5.96432,6.76898,7.41381,7.94326,8.38617,8.76235,9.08591
0.715216,4.72096,7.24176,8.85706,9.92333,10.6587,11.1876,11.5821,11.8856,12.1252
0.741787,6.04559,9.0922,10.7113,11.6592,12.2703,12.6944,13.0053,13.2429,13.4303
0.938432,8.82832,12.7964,14.7336,15.8566,16.5903,17.1086,17.4949,17.7943,18.0334
0.763156,7.90386,11.1022,12.6381,13.543,14.1426,14.5701,14.8907,15.1402,15.3399
0.73785,8.24683,11.3906,12.927,13.8475,14.463,14.904,15.2357,15.4943,15.7016
0.750155,8.80891,11.9884,13.5545,14.4951,15.1236,15.5735,15.9114,16.1745,16.3852
0.757819,9.6017,13.1496,14.9556,16.0572,16.8002,17.3352,17.7389,18.0544,18.3077
0.760818,10.0159,13.5666,15.3444,16.4134,17.1267,17.6362,18.0184,18.3156,18.5532
0.909908,12.2033,16.3564,18.4274,19.6716,20.5024,21.0965,21.5426,21.8899,22.168
0.762306,10.5592,14.1806,16.0183,17.1336,17.8832,18.4218,18.8275,19.1442,19.3982
0.770081,11.1261,15.0146,17.0054,18.2164,19.0307,19.6157,20.0562,20.3999,20.6756
0.925693,13.9333,18.8326,21.3341,22.8506,23.8678,24.5971,25.1456,25.5731,25.9157
0.769319,12.0663,16.3261,18.4976,19.8131,20.6951,21.3275,21.8032,22.174,22.4712
0.888558,14.3456,19.3323,21.853,23.3732,24.3899,25.1176,25.6641,26.0898,26.4306
0.777331,12.9248,17.4069,19.6795,21.0544,21.9761,22.6371,23.1343,23.5219,23.8325
0.888218,15.2192,20.5057,23.1929,24.8204,25.912,26.6949,27.2839,27.7431,28.1111
0.76962,13.5263,18.208,20.5857,22.0246,22.9891,23.6806,24.2006,24.6059,24.9306
0.78377,14.1721,19.0919,21.595,23.1111,24.128,24.8573,25.406,25.8337,26.1765
0.775257,14.4014,19.4095,21.9593,23.5042,24.5405,25.2838,25.843,26.279,26.6284
0.781946,14.9865,20.2268,22.8966,24.5143,25.5994,26.3776,26.963,27.4193,27.785
0.876764,17.251,23.2624,26.3161,28.1633,29.4009,30.2879,30.9548,31.4745,31.8908
0.781903,15.8362,21.3766,24.1976,25.9069,27.0535,27.8762,28.4951,28.9776,29.3645
0.775957,16.1737,21.8442,24.731,26.4797,27.6524,28.4935,29.1261,29.6192,30.0144
0.786746,16.8016,22.6751,25.6617,27.4699,28.6821,29.5514,30.2052,30.7148,31.1232
0.785472,16.9027,22.6631,25.5634,27.3101,28.4773,29.3124,29.9394,30.4275,30.8183
0.787645,17.4679,23.5613,26.679,28.5757,29.8519,30.7695,31.4611,32.0011,32.4344
0.791622,17.993,24.2713,27.4678,29.403,30.6998,31.6291,32.3277,32.872,33.308
0.788252,18.3723,24.7991,28.0713,30.053,31.3819,32.335,33.0518,33.6106,34.0585
0.882065,21.1547,28.5946,32.3852,34.6818,36.2221,37.3269,38.1579,38.8058,39.325
0.789666,19.3025,26.0266,29.4351,31.4946,32.8736,33.8615,34.604,35.1824,35.6458
0.787926,19.7013,26.5679,30.0546,32.1646,33.579,34.5932,35.356,35.9506,36.4271
0.796734,20.664,28.038,31.8233,34.1279,35.6786,36.7934,37.6334,38.2892,38.8153
0.793389,20.844,28.0989,31.7631,33.9706,35.4452,36.4998,37.2913,37.9072,38.4001
0.848893,22.5407,30.3139,34.2501,36.6304,38.2259,39.3701,40.2309,40.902,41.44
0.804774,21.8669,29.4959,33.3876,35.7499,37.3365,38.4758,39.3334,40.0024,40.5388
0.785057,21.5696,29.0175,32.7949,35.0783,36.6075,37.703,38.5263,39.1677,39.6815
0.787959,22.1761,29.9373,33.9017,36.3087,37.9255,39.0865,39.9607,40.6426,41.1894
0.86272,24.8455,33.5746,38.0257,40.7231,42.5322,43.8296,44.8054,45.566,46.1754
0.793446,23.154,31.1961,35.2716,37.7334,39.3814,40.5619,41.449,42.1401,42.6936
0.797891,23.4004,31.4076,35.4531,37.8953,39.53,40.701,41.5812,42.267,42.8163
0.860121,25.865,34.9259,39.5692,42.3956,44.2977,45.6654,46.6962,47.501,48.1467
0.792397,24.0902,32.4287,36.6579,39.2126,40.922,42.1459,43.0652,43.781,44.3542
0.870183,27.0529,36.5286,41.3657,44.3011,46.2724,47.6876,48.7531,49.5843,50.2508
0.784601,24.9098,33.6552,38.1104,40.8088,42.6181,43.9154,44.8911,45.6514,46.2607
0.795314,25.5476,34.4141,38.9046,41.6164,43.4315,44.7315,45.7085,46.4695,47.079
0.798373,26.1119,35.2114,39.8385,42.6413,44.5213,45.8701,46.8849,47.6762,48.3105
0.85829,28.6266,38.6518,43.7588,46.8542,48.9308,50.4206,51.5414,52.4152,53.1156
0.795922,26.6181,35.7639,40.3868,43.1765,45.0429,46.3793,47.3834,48.1654,48.7917
0.808318,27.6066,37.2686,42.2117,45.2175,47.239,48.692,49.7867,50.6412,51.3268
0.764294,9.87426,10.8705,11.2489,11.4481,11.5709,11.6542,11.7144,11.76,11.7957
0.79415,15.3138,21.6602,26.2682,29.8479,32.7253,35.0936,37.0789,38.768,40.2229
0.763817,19.6068,30.1997,37.0419,41.5781,44.714,46.9726,48.6589,49.9567,50.9812
0.787538,24.2981,36.8834,43.6556,47.6424,50.2198,52.0114,53.3262,54.3317,55.1256
0.763992,26.5763,38.9069,44.9612,48.4718,50.764,52.3822,53.5877,54.5217,55.2671
0.818869,30.3861,42.9123,48.9037,52.4219,54.7485,56.4054,57.6469,58.6123,59.3847
0.766859,30.2536,42.1819,48.0464,51.5737,53.9391,55.6378,56.9177,57.9168,58.7184
0.807334,32.4674,44.3615,50.1859,53.6712,55.9944,57.6541,58.8989,59.8672,60.6418
0.803727,32.907,44.6452,50.4976,54.0316,56.4006,58.1,59.3787,60.3758,61.1752
0.764486,31.5197,42.51,48.0248,51.3563,53.588,55.1875,56.3901,57.3272,58.078
0.743161,31.0672,41.9186,47.4231,50.762,53.0039,54.6133,55.8248,56.7698,57.5274
0.761664,32.8454,44.6096,50.6501,54.3308,56.8083,58.5895,59.9317,60.9794,61.82
0.811355,34.9804,47.0797,53.1667,56.8263,59.2677,61.0118,62.3198,63.3371,64.1508
0.678495,29.3547,39.4529,44.5659,47.6593,49.7337,51.2219,52.3418,53.2152,53.9154
0.775446,34.2288,46.2256,52.3603,56.0892,58.5959,60.3966,61.7527,62.8109,63.6595
0.801062,35.8451,48.38,54.7552,58.6124,61.1963,63.0478,64.4394,65.5235,66.3919
0.817042,37.2225,50.3358,57.0269,61.0853,63.8095,65.7646,67.2361,68.3837,69.3038
0.7658,34.3032,45.8275,51.584,55.0337,57.3314,58.9714,60.2006,61.1562,61.9204
0.82488,37.742,50.8889,57.6311,61.7423,64.5136,66.5091,68.0149,69.1917,70.1368
0.784527,36.1136,48.6061,54.9553,58.7951,61.3662,63.2077,64.5913,65.6687,66.5315
0.77045,35.578,47.8158,54.0255,57.7808,60.2967,62.1001,63.4561,64.5129,65.3597
0.784716,36.7402,49.5298,56.0586,60.021,62.6819,64.5922,66.0302,67.1519,68.0513
0.788891,38.0005,51.5496,58.5095,62.7441,65.5913,67.6368,69.1772,70.3791,71.3429
0.784707,37.8498,50.9565,57.5616,61.5343,64.1853,66.0797,67.5008,68.6062,69.4906
0.771559,37.5882,50.639,57.2658,61.2791,63.9719,65.9043,67.3589,68.4935,69.4032
0.814019,42.3972,58.3392,66.7044,71.859,75.354,77.8797,79.7901,81.2857,82.4883
0.823679,40.902,54.4166,61.011,64.8984,67.4571,69.2675,70.6154,71.6577,72.4876
0.806163,40.9537,55.1938,62.4953,66.9598,69.9787,72.1587,73.8078,75.0994,76.1386
0.806925,41.0357,55.1188,62.2529,66.5615,69.4438,71.5064,73.055,74.2602,75.2247
0.803014,40.985,55.0581,62.206,66.5329,69.4338,71.5142,73.0791,74.2991,75.2769
0.79243,40.7474,54.8298,62.0068,66.3585,69.2791,71.3747,72.9518,74.1815,75.1673
0.79331,42.3929,57.7154,65.6502,70.501,73.7727,76.1283,77.9052,79.2934,80.4078
0.812955,43.4972,58.6586,66.2967,70.8847,73.9424,76.125,77.7608,79.0323,80.0489
0.8166,43.7653,58.8355,66.442,71.0328,74.1066,76.3095,77.966,79.2571,80.2918
0.776784,41.8417,56.2853,63.6254,68.0743,71.0605,73.2038,74.8171,76.0753,77.0841
0.791965,42.7973,57.5466,65.0429,69.5822,72.626,74.8086,76.4502,77.7298,78.7551
0.784281,42.2737,56.7147,64.033,68.4565,71.4192,73.5421,75.138,76.3815,77.3776
