1.74424,1.79463,1.81208,1.82093,1.82628,1.82987,1.83244,1.83437,1.83588,1.83708
1.33144,1.8239,2.07032,2.21815,2.31668,2.38704,2.43981,2.48084,2.51366,2.54052
1.17918,2.06381,2.51501,2.77528,2.94208,3.05736,3.14153,3.20558,3.25589,3.29643
1.11021,2.41816,3.08249,3.45167,3.68222,3.8389,3.95204,4.03747,4.10423,4.15781
1.05537,2.7635,3.60162,4.04968,4.32391,4.50825,4.6405,4.73994,4.81742,4.87948
1.02959,3.2081,4.25955,4.81402,5.15259,5.38034,5.54396,5.66717,5.76329,5.84038
1.10185,3.97378,5.30728,5.99557,6.41212,6.69093,6.89056,7.04051,7.15727,7.25075
0.982579,4.00463,5.34895,6.03332,6.44603,6.72193,6.91939,7.06769,7.18316,7.27562
0.978003,4.41669,5.88707,6.63062,7.07872,7.37832,7.59277,7.75387,7.87933,7.9798
1.031,5.23744,7.05401,7.98823,8.55729,8.94039,9.21592,9.42362,9.58579,9.71593
0.968174,5.40746,7.27322,8.2204,8.79202,9.1742,9.44763,9.6529,9.81266,9.94053
0.962555,5.94733,8.04442,9.11675,9.76749,10.2044,10.5181,10.7542,10.9384,11.0861
1.0219,6.88115,9.29666,10.5214,11.2606,11.755,12.1089,12.3747,12.5817,12.7474
0.943694,6.8404,9.21698,10.4171,11.1407,11.6246,11.9711,12.2314,12.4341,12.5965
0.941338,7.30526,9.83532,11.1156,11.8891,12.4073,12.7787,13.0579,13.2755,13.4498
0.81305,6.70042,9.00473,10.1695,10.8727,11.3434,11.6806,11.934,12.1314,12.2895
0.997648,9.97815,14.1816,16.4942,17.9574,18.9664,19.7043,20.2674,20.7112,21.07
0.987809,9.82693,13.1797,14.7796,15.7042,16.3036,16.7227,17.0319,17.2693,17.4572
0.948982,9.62895,12.7988,14.3614,15.2988,15.9261,16.3761,16.7151,16.9798,17.1923
0.939177,9.81169,13.053,14.687,15.6774,16.3427,16.8205,17.1804,17.4612,17.6864
0.934188,10.1942,13.6486,15.4148,16.4896,17.2124,17.7318,18.1229,18.4281,18.6729
0.948633,10.933,14.7387,16.6928,17.881,18.6793,19.2525,19.6838,20.0202,20.2898
0.935331,11.2749,15.193,17.1855,18.3893,19.1949,19.7716,20.2048,20.5421,20.8122
0.954886,11.8069,15.8076,17.8198,19.0301,19.8383,20.4162,20.85,21.1876,21.4579
0.977427,12.6615,17.0449,19.2804,20.6375,21.5493,22.2043,22.6975,23.0825,23.3912
0.956997,12.8379,17.2488,19.4811,20.828,21.7288,22.3734,22.8576,23.2345,23.5362
0.952749,13.338,17.9707,20.3275,21.7548,22.712,23.3986,23.9151,24.3179,24.6406
0.966906,14.0317,18.8915,21.3554,22.844,23.8406,24.5545,25.091,25.5089,25.8436
0.949349,14.259,19.1845,21.6781,23.1841,24.1922,24.9143,25.457,25.8797,26.2184
0.939536,14.6243,19.6903,22.2599,23.8138,24.855,25.6012,26.1623,26.5996,26.9499
0.918095,14.7016,19.7629,22.3243,23.8713,24.9068,25.6486,26.2061,26.6403,26.9882
0.920373,15.1102,20.2784,22.8911,24.4685,25.5243,26.2805,26.8488,27.2916,27.6462
0.954054,16.1385,21.6866,24.5017,26.2048,27.3463,28.1647,28.7802,29.2599,29.6442
0.928198,16.1378,21.6814,24.4903,26.1875,27.3238,28.1378,28.7496,29.2262,29.6079
0.948708,16.9509,22.7815,25.738,27.5254,28.7226,29.5806,30.2257,30.7283,31.131
0.927861,17.046,22.9254,25.9095,27.7144,28.9238,29.7906,30.4423,30.9502,31.3571
0.948717,17.9627,24.1869,27.3481,29.2605,30.5419,31.4603,32.1508,32.6889,33.12
0.937421,18.1656,24.4205,27.5858,29.4967,30.7755,31.6912,32.3793,32.9152,33.3445
0.931657,18.5359,24.9327,28.1761,30.137,31.4507,32.3923,33.1003,33.652,34.094
0.958211,19.5507,26.2985,29.7189,31.7861,33.1706,34.1625,34.9082,35.4891,35.9545
0.937565,15.6002,19.5385,21.3343,22.3621,23.0277,23.4939,23.8387,24.104,24.3144
0.931946,17.1312,23.0101,26.2381,28.3072,29.7528,30.8218,31.6452,32.2991,32.8311
0.92837,18.6478,25.6364,29.3758,31.6815,33.2367,34.3532,35.1922,35.845,36.3671
0.92966,19.6257,26.8231,30.4896,32.6868,34.1458,35.1841,35.9604,36.5628,37.0437
0.915659,20.1591,27.4361,31.1053,33.3096,34.781,35.8333,36.6236,37.2389,37.7318
0.923649,21.3156,29.047,32.9695,35.3422,36.9333,38.0747,38.9335,39.6033,40.1402
0.927973,22.1208,29.9926,33.9528,36.3363,37.9286,39.0674,39.9223,40.5876,41.1202
0.916338,22.5295,30.4985,34.5219,36.9517,38.5788,39.7449,40.6217,41.3049,41.8524
0.926376,23.3342,31.4981,35.6148,38.0984,39.76,40.9499,41.844,42.5403,43.098
0.904695,23.2058,31.2262,35.2659,37.7015,39.3305,40.4967,41.3728,42.0552,42.6017
0.918762,23.9822,32.2422,36.4168,38.9391,40.6285,41.8392,42.7494,43.4587,44.0271
0.909196,24.3929,32.9045,37.237,39.8634,41.6258,42.8904,43.8419,44.5838,45.1785
0.930789,25.4759,34.3208,38.8007,41.5059,43.3162,44.6124,45.5862,46.3446,46.9519
0.915336,25.5508,34.4018,38.8826,41.589,43.4008,44.6988,45.6744,46.4344,47.0432
0.922332,26.1155,35.0929,39.628,42.3644,44.1954,45.5064,46.4916,47.2589,47.8734
0.91519,26.5222,35.7286,40.4066,43.2391,45.1386,46.5009,47.5257,48.3247,48.965
0.903746,26.9674,36.4394,41.2629,44.1845,46.1434,47.548,48.6043,49.4276,50.0872
0.919606,27.7344,37.2905,42.1061,45.0055,46.9423,48.3274,49.3671,50.1764,50.8241
0.917062,28.0835,37.7639,42.6658,45.6296,47.6158,49.0398,50.1108,50.9457,51.6148
0.912694,28.3666,38.1397,43.0922,46.0862,48.0918,49.5291,50.6096,51.4516,52.126
0.903721,28.9739,39.1813,44.4,47.5692,49.6981,51.2267,52.3775,53.2752,53.9949
0.918163,30.1132,40.6946,46.0673,49.3136,51.4865,53.0424,54.2113,55.1217,55.8506
0.915494,30.5596,41.2118,46.5982,49.848,52.0222,53.5789,54.7485,55.6594,56.389
0.918076,30.8054,41.329,46.6185,49.802,51.9288,53.4502,54.5926,55.482,56.194
0.917438,31.2199,41.9424,47.3751,50.6623,52.8663,54.4471,55.6364,56.5635,57.3067
0.91679,31.7681,42.7736,48.3706,51.7608,54.0342,55.6647,56.891,57.8469,58.613
0.915985,32.0897,43.1311,48.7183,52.0907,54.3469,55.9622,57.1757,58.1207,58.8775
0.921121,32.6859,43.9385,49.6412,53.0883,55.3973,57.0521,58.2963,59.2659,60.0427
0.906883,32.5314,43.6995,49.353,52.7678,55.0538,56.6914,57.9221,58.8808,59.6488
0.903349,33.0148,44.4572,50.2739,53.7956,56.1567,57.8499,59.1235,60.1162,60.9117
0.915512,33.8487,45.5145,51.4188,54.9829,57.3676,59.0751,60.3579,61.357,62.157
0.913713,34.1962,45.9665,51.9253,55.5248,57.9349,59.6615,60.9594,61.9706,62.7806
0.91134,33.9713,45.4046,51.1466,54.6005,56.9069,58.5561,59.794,60.7575,61.5286
0.901446,34.5399,46.5857,52.7572,56.5142,59.0429,60.8614,62.2321,63.3024,64.1613
0.908915,35.4022,47.7229,53.98,57.7604,60.2899,62.1007,63.4608,64.5196,65.3672
0.91457,36.1316,48.652,54.9884,58.8125,61.3709,63.2028,64.5793,65.6513,66.51
0.899911,36.0958,48.6,54.9311,58.7554,61.3159,63.1504,64.5294,65.6037,66.4644
0.911231,36.7805,49.3939,55.7623,59.6041,62.1744,64.0148,65.3976,66.4746,67.3371
0.905864,36.8747,49.5054,55.8969,59.7589,62.3455,64.199,65.5925,66.6784,67.5483
0.917531,37.7668,50.7455,57.3276,61.3084,63.9756,65.8873,67.3247,68.4448,69.3422
0.898064,30.213,38.0436,41.6489,43.7222,45.0688,46.0137,46.7134,47.2523,47.6801
0.901597,33.1099,44.5782,50.8574,54.8708,57.6688,59.7343,61.323,62.5835,63.6082
0.91142,36.0303,49.538,56.7402,61.1734,64.1613,66.3055,67.9165,69.1699,70.1723
0.90855,36.7579,49.9644,56.6302,60.6078,63.2425,65.1146,66.5128,67.5967,68.4616
0.909983,38.1409,51.9018,58.8794,63.0913,65.9123,67.9351,69.4571,70.6442,71.596
0.910465,39.4313,53.638,60.8352,65.1824,68.0935,70.1794,71.7474,72.9692,73.9479
0.90744,40.2957,54.6561,61.9012,66.2691,69.1901,71.281,72.8516,74.0747,75.054
0.91208,41.3348,55.9265,63.2851,67.7237,70.6935,72.8202,74.4183,75.6631,76.6601
0.905811,41.2851,55.5372,62.69,66.9944,69.8702,71.9274,73.4722,74.6747,75.6375
0.906515,41.9114,56.4318,63.7799,68.2248,71.2046,73.3414,74.9489,76.2021,77.2065
0.91058,42.613,57.368,64.8418,69.36,72.3864,74.5549,76.1851,77.4552,78.4726
0.91772,43.7884,59.106,66.8997,71.6212,74.7878,77.059,78.7676,80.0995,81.1669
0.901474,43.4124,58.4484,66.0498,70.6354,73.7022,75.8973,77.546,78.8297,79.8576
0.90578,43.9107,59.0121,66.6409,71.2451,74.3262,76.5331,78.1916,79.4835,80.5184
0.909788,44.44,59.6954,67.4129,72.075,75.1967,77.4334,79.1148,80.4248,81.4742
0.904947,44.9309,60.5329,68.4691,73.2764,76.5008,78.8135,80.5533,81.9096,82.9966
0.90406,45.4778,61.2774,69.295,74.1415,77.3869,79.712,81.4595,82.8207,83.9111
0.909362,45.9035,61.6528,69.6012,74.3929,77.5968,79.89,81.6124,82.9535,84.0275
0.908385,46.4081,62.4349,70.5671,75.488,78.7868,81.1524,82.9317,84.3187,85.4304
0.899336,46.3727,62.3687,70.4738,75.3711,78.6501,80.9991,82.7645,84.1397,85.2413
