1.65467,1.74636,1.77922,1.79612,1.80641,1.81334,1.81833,1.82208,1.82501,1.82736
1.25346,1.73353,1.96972,2.10996,2.20282,2.26883,2.31816,2.35642,2.38696,2.41191
1.10992,1.95906,2.39487,2.64802,2.81121,2.92453,3.00758,3.07096,3.12088,3.16119
1.04821,2.32338,2.98958,3.36662,3.60478,3.76787,3.88627,3.97603,4.04637,4.10296
1.00493,2.76718,3.69578,4.2101,4.53095,4.74915,4.90692,5.02621,5.11955,5.19455
0.939857,2.99766,3.99165,4.50892,4.82122,5.02954,5.17825,5.28968,5.37627,5.4455
0.969679,3.74647,5.14871,5.90533,6.37618,6.6975,6.93086,7.10808,7.24726,7.35949
1.13288,4.32657,5.55924,6.14028,6.47551,6.69323,6.84587,6.95876,7.04562,7.1145
1.11557,4.88374,6.51767,7.38409,7.92622,8.29897,8.57149,8.77961,8.94385,9.07679
0.943014,4.55973,6.10848,6.91184,7.40173,7.73091,7.96699,8.14441,8.28256,8.39312
0.906347,4.98962,6.81003,7.7703,8.36169,8.76216,9.05126,9.26975,9.4407,9.57809
0.898875,5.21738,6.97501,7.85478,8.38019,8.72895,8.97719,9.16285,9.30692,9.42196
0.888245,5.74267,7.81229,8.89281,9.55804,10.0094,10.3361,10.5835,10.7774,10.9336
0.867043,6.50551,9.09939,10.4913,11.3571,11.947,12.3745,12.6984,12.9523,13.1565
0.878382,7.11936,9.79086,11.145,11.9573,12.4973,12.8819,13.1696,13.3929,13.5712
0.961988,8.69515,12.0794,13.8382,14.9164,15.6459,16.1726,16.571,16.8829,17.1338
0.978907,9.6516,13.3714,15.2836,16.4465,17.2282,17.7895,18.212,18.5416,18.8058
0.969473,10.6584,14.9307,17.1691,18.547,19.4808,20.1556,20.666,21.0656,21.3869
0.960453,11.0621,15.1899,17.2677,18.5161,19.3485,19.9429,20.3886,20.735,21.0121
0.849113,9.74505,13.067,14.7139,15.7015,16.3608,16.8324,17.1867,17.4627,17.6837
0.866916,10.578,14.4014,16.3944,17.6254,18.4627,19.0695,19.5297,19.8906,20.1813
0.853256,10.5368,14.1566,15.9873,17.0915,17.8292,18.3566,18.7521,19.0598,19.3058
0.975651,12.7171,17.2836,19.6592,21.1187,22.107,22.8208,23.3607,23.7834,24.1233
0.924779,12.2438,16.4841,18.6403,19.944,20.8166,21.4415,21.9109,22.2763,22.5689
0.900244,12.4741,16.9251,19.2306,20.6422,21.5958,22.2835,22.8028,23.209,23.5354
0.840859,10.2153,13.0883,14.4466,15.2375,15.7549,16.1196,16.3905,16.5996,16.766
0.886914,11.7672,15.9042,18.1532,19.5817,20.5728,21.3019,21.8612,22.3039,22.6632
0.852037,12.5411,17.4308,20.0857,21.7411,22.8676,23.6821,24.2976,24.7788,25.1652
0.853492,12.1351,16.1906,18.186,19.3616,20.1344,20.6805,21.0868,21.4008,21.6507
0.848275,12.0894,16.0924,18.1132,19.337,20.1597,20.7516,21.1981,21.5472,21.8276
0.905239,13.2681,17.812,20.1573,21.5928,22.5625,23.2615,23.7894,24.202,24.5334
0.842475,13.1765,17.9961,20.5321,22.0952,23.1545,23.9194,24.4975,24.9498,25.3133
0.845245,13.1784,17.6728,19.931,21.2838,22.1836,22.8248,23.3048,23.6775,23.9753
0.847571,8.53657,10.1184,10.7924,11.1668,11.4053,11.5707,11.6921,11.7851,11.8586
0.842673,12.2357,17.8581,21.6835,24.5133,26.7042,28.4545,29.8865,31.0805,32.0915
0.848389,14.2326,20.6896,24.2728,26.4568,27.8952,28.9014,29.6392,30.2005,30.6404
0.850671,16.3767,23.7783,27.662,29.9986,31.5525,32.6605,33.4911,34.1374,34.6549
0.829045,16.9645,23.8615,27.2723,29.2906,30.626,31.5759,32.2867,32.8388,33.2801
0.820403,16.0632,21.4902,24.0573,25.5617,26.5534,27.2573,27.7832,28.1912,28.517
0.796986,16.8018,23.062,26.3255,28.355,29.7446,30.757,31.528,32.1349,32.6251
0.824074,17.4972,23.6692,26.782,28.6589,29.912,30.8071,31.478,31.9993,32.4159
0.841462,18.8423,25.7883,29.3938,31.6069,33.1043,34.1853,35.0025,35.642,36.1563
0.836369,16.9082,22.0103,24.4448,25.8681,26.8011,27.4597,27.9492,28.3273,28.6282
0.843268,18.6225,25.4463,29.1328,31.4634,33.0751,34.2578,35.1633,35.8792,36.4594
0.813097,18.7781,25.7063,29.3128,31.51,32.9836,34.0386,34.8302,35.4457,35.9377
0.797265,15.6566,20.0489,22.102,23.288,24.0601,24.6027,25.005,25.3152,25.5617
0.801647,17.736,24.4034,28.1272,30.5335,32.2235,33.4778,34.4467,35.2179,35.8465
0.844766,21.2173,30.138,35.0525,38.1301,40.2267,41.7421,42.8866,43.7806,44.4976
0.835996,21.7752,30.2432,34.5567,37.1378,38.8494,40.0661,40.9751,41.6799,42.2424
0.86366,22.4504,30.416,34.3474,36.687,38.2406,39.3484,40.1787,40.8243,41.3408
0.850844,23.4805,32.2887,36.8591,39.6728,41.5838,42.9676,44.0166,44.8392,45.5017
0.82211,24.4176,34.0229,39.0787,42.1981,44.3134,45.8414,46.9966,47.9003,48.6266
0.8291,23.2783,31.0342,34.7952,37.0079,38.4633,39.4927,40.2591,40.8518,41.3238
0.825928,23.2736,31.1955,35.2284,37.6904,39.3545,40.5562,41.4652,42.1772,42.7501
0.855344,26.6028,37.0347,42.683,46.2325,48.6696,50.446,51.7981,52.8614,53.7195
0.817118,26.6344,36.8837,42.1894,45.408,47.5615,49.1013,50.256,51.1537,51.8714
0.837091,27.1098,36.7301,41.5274,44.3942,46.3005,47.6601,48.6789,49.4708,50.1043
0.839539,26.1993,34.8596,39.1529,41.7274,43.4462,44.6762,45.6002,46.32,46.8967
0.827307,24.2913,31.8933,35.6823,37.9652,39.4935,40.589,41.4128,42.055,42.5697
0.832322,25.5258,34.5189,39.2916,42.264,44.2949,45.7708,46.8919,47.7725,48.4824
0.827894,26.2846,35.8134,40.7918,43.8364,45.8858,47.3577,48.4653,49.3287,50.0204
0.808878,26.3475,35.8789,40.7814,43.7558,45.7506,47.1809,48.2565,49.0949,49.7667
0.80599,28.0266,38.7588,44.3941,47.8616,50.2105,51.9072,53.1903,54.1946,55.0022
0.810059,29.3435,40.4468,46.1554,49.6191,51.942,53.6072,54.859,55.8343,56.6155
0.826045,33.5189,47.5766,55.1362,59.8537,63.0792,65.4242,67.2062,68.6064,69.7356
0.835452,32.6734,44.2083,49.8176,53.1118,55.2741,56.8009,57.9358,58.8122,59.5093
0.812654,31.8304,43.0036,48.6586,52.0999,54.4222,56.0976,57.3644,58.3563,59.1542
0.81761,34.1726,47.2174,54.1218,58.4114,61.3366,63.459,65.0691,66.3322,67.3495
0.829488,34.0596,46.035,52.0491,55.6537,58.0508,59.7586,61.0364,62.0282,62.8202
0.831944,32.3294,42.8418,48.062,51.1927,53.2821,54.7767,55.8993,56.7737,57.4741
0.829708,33.595,45.6583,52.0275,55.985,58.6864,60.649,62.1397,63.3105,64.2546
0.830627,35.0648,48.1266,54.9838,59.1948,62.0383,64.0854,65.6288,66.8335,67.7999
0.809545,33.3757,44.9085,50.7007,54.1713,56.4806,58.1273,59.3608,60.3191,61.0852
0.813225,33.7568,45.5758,51.6374,55.334,57.8271,59.6234,60.9797,62.0402,62.8923
0.818584,36.6794,50.9032,58.5125,63.2535,66.4907,68.8415,70.6258,72.0264,73.1548
0.806785,33.7103,44.7961,50.2013,53.3828,55.474,56.9519,58.0511,58.9005,59.5764
0.805649,35.4221,48.384,55.223,59.4762,62.3849,64.5025,66.1142,67.3826,68.407
0.825752,34.1531,45.2914,50.806,54.0884,56.2623,57.8066,58.9595,59.8528,60.5651
0.820797,32.3918,42.7244,47.9292,51.079,53.1938,54.713,55.8578,56.7516,57.4689
0.829902,33.7891,45.6343,51.8819,55.7524,58.387,60.2964,61.7438,62.8787,63.7924
0.844086,33.6625,45.1208,50.9855,54.5372,56.9151,58.6172,59.8953,60.89,61.6861
0.828045,34.9705,47.9464,54.8096,59.052,61.934,64.0197,65.5993,66.8371,67.8333
0.84042,36.9664,50.8104,57.9911,62.3627,65.2989,67.4054,68.9896,70.2242,71.2132
0.825589,36.7293,50.0072,56.743,60.8045,63.5197,65.4628,66.9222,68.0587,68.9687
0.834111,38.7518,53.2332,60.7401,65.3388,68.4477,70.6907,72.3857,73.7118,74.7778
0.821497,36.5137,48.742,54.7686,58.3522,60.7265,62.4148,63.6766,64.6553,65.4365
0.813047,38.3936,52.6884,60.2437,64.9423,68.1532,70.4885,72.2641,73.6602,74.7868
0.819498,40.3898,55.6296,63.5525,68.39,71.6444,73.9811,75.7392,77.1094,78.207
0.823363,39.8653,53.7788,60.7264,64.8806,67.6424,69.6111,71.0854,72.2308,73.1463
0.81884,40.1793,54.4452,61.7614,66.228,69.2432,71.4172,73.0597,74.3446,75.3773
0.827702,42.0005,57.407,65.4086,70.3127,73.6257,76.0134,77.8157,79.2242,80.3552
0.84051,47.8395,67.7816,78.6283,85.4343,90.0995,93.4954,96.0776,98.1071,99.7441
0.84149,48.1365,66.2227,75.2917,80.6932,84.2669,86.803,88.6949,90.1598,91.3274
0.831338,48.7223,66.8607,76.1078,81.7294,85.5156,88.2421,90.3005,91.9102,93.2037
0.840814,49.8988,68.2109,77.5844,83.2954,87.1425,89.9109,91.9985,93.6289,94.9376
0.832506,48.2165,64.9662,73.4125,78.5135,81.9293,84.3768,86.2167,87.6502,88.7986
0.827533,48.63,66.0263,75.0307,80.5543,84.2918,86.9899,89.0297,90.6259,91.9092
0.841973,47.3631,63.1839,71.1267,75.902,79.088,81.3643,83.0714,84.3991,85.4611
0.83032,46.9878,63.476,72.0788,77.3821,80.9832,83.5899,85.5646,87.1126,88.3589
0.821743,44.3479,59.0367,66.4656,70.9455,73.939,76.0796,77.6859,78.9355,79.9353
