1.18447,1.28104,1.31683,1.33549,1.34693,1.35468,1.36026,1.36448,1.36778,1.37043
0.895051,1.35981,1.61665,1.77902,1.89085,1.97254,2.03482,2.08387,2.1235,2.15618
0.812976,1.60632,2.05215,2.31931,2.49366,2.61534,2.7047,2.77294,2.82667,2.87004
0.715214,1.75897,2.33358,2.66177,2.86946,3.01177,3.11512,3.1935,3.25495,3.30441
0.723785,2.19004,2.99387,3.44446,3.7279,3.92193,4.06295,4.17005,4.25413,4.32189
0.693413,2.48429,3.4257,3.93699,4.25407,4.46945,4.62519,4.74303,4.83529,4.90949
0.676826,2.75409,3.77686,4.31704,4.64878,4.87311,5.03492,5.15716,5.25277,5.3296
0.678849,3.09041,4.23379,4.8371,5.20944,5.4623,5.6453,5.7839,5.89253,5.97997
0.660928,3.35646,4.6164,5.2853,5.69996,5.98224,6.18682,6.34191,6.46352,6.56144
0.638536,3.57003,4.91846,5.63495,6.07921,6.38162,6.60073,6.76681,6.89701,7.00183
0.63838,3.78665,5.14755,5.85242,6.283,6.57322,6.78206,6.93953,7.0625,7.16118
0.639892,4.32514,6.05236,6.99754,7.59492,8.00698,8.30848,8.53871,8.72028,8.86716
0.602857,4.33382,5.97647,6.8358,7.36188,7.71645,7.97139,8.16343,8.31326,8.43339
0.646691,4.84182,6.58933,7.49054,8.04057,8.41144,8.67852,8.8801,9.03765,9.1642
0.624679,5.16473,7.1669,8.24205,8.91452,9.37524,9.71072,9.96595,10.1667,10.3287
0.615775,5.51615,7.68495,8.84234,9.56048,10.0491,10.4028,10.6706,10.8804,11.0492
0.62143,5.9455,8.25944,9.48028,10.2331,10.7436,11.1124,11.3913,11.6096,11.7852
0.608325,6.19799,8.60017,9.86554,10.6464,11.1764,11.5597,11.8498,12.0771,12.26
0.61244,6.60374,9.1598,10.51,11.3452,11.9132,12.3244,12.6361,12.8803,13.0769
0.601692,6.73747,9.28302,10.616,11.4365,11.9924,12.3941,12.6978,12.9355,13.1266
0.611672,7.14866,9.86592,11.3048,12.1974,12.8055,13.2465,13.5811,13.8436,14.055
0.609481,7.61328,10.5789,12.155,13.1317,13.796,14.2769,14.6411,14.9264,15.156
0.60532,7.80724,10.7786,12.3404,13.3028,13.9554,14.4269,14.7836,15.0629,15.2875
0.60201,8.08399,11.17,12.8014,13.8113,14.4982,14.9959,15.3731,15.6688,15.9069
0.601722,8.36268,11.5484,13.2338,14.2773,14.9871,15.5011,15.8905,16.1958,16.4415
0.600245,8.77873,12.1894,14.0058,15.1336,15.9019,16.4589,16.8812,17.2124,17.4791
0.590727,8.90262,12.311,14.1099,15.2208,15.975,16.5204,16.9332,17.2565,17.5165
0.605194,9.52118,13.2088,15.1675,16.3825,17.2099,17.8097,18.2645,18.6212,18.9085
0.70853,11.4069,15.736,18.0123,19.4157,20.3675,21.0553,21.5756,21.9829,22.3105
0.590867,9.85231,13.6244,15.6227,16.8612,17.7041,18.3151,18.7782,19.1414,19.4339
0.59722,10.3682,14.3827,16.5155,17.8381,18.7382,19.3904,19.8847,20.2721,20.5841
0.689303,12.3107,17.0245,19.509,21.042,22.082,22.8339,23.4027,23.8481,24.2063
0.594467,10.9756,15.1932,17.4234,18.8034,19.7417,20.4212,20.936,21.3395,21.6644
0.596808,11.3046,15.6236,17.9033,19.3124,20.2697,20.9625,21.4872,21.8982,22.2289
0.599454,11.7109,16.2126,18.5984,20.0766,21.0825,21.8113,22.3636,22.7967,23.1453
0.598835,12.0612,16.7046,19.1624,20.6833,21.717,22.4653,23.032,23.4761,23.8334
0.6735,13.5908,18.6282,21.2523,22.862,23.9503,24.7351,25.328,25.7916,26.1641
0.590666,12.3705,17.1241,19.6617,21.243,22.3236,23.1091,23.7058,24.1747,24.5527
0.665806,14.4797,20.1213,23.1273,24.9926,26.262,27.1815,27.8781,28.424,28.8633
0.589409,13.4155,18.7189,21.5424,23.2927,24.4834,25.3457,25.9989,26.5109,26.923
0.58795,13.5794,18.7863,21.5161,23.1953,24.3325,25.1536,25.7744,26.2601,26.6506
0.661689,15.7547,21.8721,25.1211,27.1389,28.5146,29.513,30.2707,30.8655,31.3447
0.596078,14.3868,19.8515,22.7187,24.4842,25.6804,26.5442,27.1972,27.7081,28.1188
0.657104,16.0021,22.0243,25.1945,27.1536,28.4849,29.4489,30.1791,30.7515,31.2123
0.590682,14.9438,20.7685,23.8886,25.8344,27.1641,28.1303,28.8642,29.4404,29.905
0.656135,16.9003,23.3882,26.8116,28.9234,30.3552,31.3895,32.1716,32.7836,33.2755
0.584415,15.3153,21.1606,24.2432,26.1474,27.4408,28.3767,29.0855,29.6409,30.0878
0.584331,15.6489,21.6473,24.8221,26.788,28.1251,29.0937,29.8277,30.403,30.8662
0.658594,18.0644,25.0182,28.701,30.981,32.5312,33.6537,34.504,35.1704,35.7066
0.587324,16.2984,22.4841,25.7377,27.744,29.1048,30.0885,30.8327,31.4153,31.884
0.589798,16.648,22.9827,26.3293,28.4,29.808,30.8276,31.6002,32.2058,32.6932
0.582932,16.715,23.0835,26.4529,28.5387,29.9571,30.9842,31.7623,32.3722,32.8631
0.591008,17.041,23.4279,26.7796,28.8438,30.2426,31.2531,32.0173,32.6153,33.0962
0.586324,17.4559,24.2304,27.8569,30.1183,31.6638,32.7872,33.6406,34.311,34.8516
0.588801,17.7957,24.6212,28.2267,30.4524,31.9622,33.0533,33.8785,34.5244,35.0436
0.585894,18.058,25.0053,28.6843,30.9621,32.5113,33.6335,34.4838,35.1505,35.6872
0.618981,19.5362,27.089,31.0905,33.5677,35.2521,36.4718,37.3957,38.1197,38.7025
0.58207,18.7712,26.0135,29.8387,32.2023,33.8073,34.9684,35.8474,36.5359,37.0898
0.630552,20.4184,28.173,32.2576,34.7808,36.4947,37.7352,38.6746,39.4108,40.0032
0.587959,19.4752,26.9566,30.9208,33.3771,35.0484,36.2592,37.1767,37.8961,38.4752
0.626895,21.0489,29.0819,33.3182,35.9341,37.7098,38.9938,39.9656,40.7267,41.3388
0.592714,20.4341,28.3515,32.557,35.1654,36.9415,38.2289,39.2049,39.9703,40.5866
0.631627,22.0882,30.5855,35.076,37.8518,39.7374,41.1017,42.1345,42.9437,43.5947
0.585974,20.8914,28.9398,33.1951,35.8271,37.6159,38.9108,39.8915,40.6601,41.2785
0.578824,20.939,28.9677,33.2044,35.8223,37.6004,38.887,39.8611,40.6243,41.2383
0.585216,21.4719,29.7433,34.1345,36.8594,38.7158,40.062,41.083,41.884,42.5291
0.564118,21.0066,29.0877,33.3668,36.0153,37.8158,39.1191,40.1063,40.8798,41.5022
0.622164,23.4674,32.4559,37.2032,40.1374,42.1306,43.5728,44.6648,45.5204,46.2088
0.579381,22.067,30.4802,34.9214,37.667,39.5326,40.8829,41.9056,42.7069,43.3518
0.618293,23.9315,33.0959,37.9437,40.9437,42.9832,44.4599,45.5785,46.4551,47.1606
0.575932,22.2941,30.6891,35.101,37.8215,39.6667,41.0006,42.0099,42.8002,43.4357
0.620802,24.7798,34.4257,39.5815,42.7925,44.9848,46.577,47.7859,48.7351,49.5001
0.579524,23.4207,32.4144,37.1548,40.0774,42.0583,43.4891,44.5707,45.4171,46.0974
0.623156,25.4197,35.1009,40.1957,43.3394,45.473,47.0163,48.1845,49.0996,49.8359
0.583154,24.1933,33.4953,38.4264,41.4834,43.5647,45.0732,46.2169,47.1139,47.8362
0.618634,25.9539,35.9154,41.1891,44.4539,46.6739,48.2812,49.4988,50.4531,51.221
0.580236,24.8373,34.4387,39.5281,42.6796,44.8227,46.3746,47.5502,48.4715,49.2131
0.621192,26.8734,37.1752,42.6086,45.9637,48.2414,49.8887,51.1356,52.1122,52.8978
0.577798,25.1813,34.776,39.8357,42.9624,45.0866,46.6239,47.7881,48.7004,49.4346
0.611498,27.6636,38.625,44.513,48.1895,50.7038,52.5317,53.9207,55.0118,55.8916
0.580051,26.1839,36.1226,41.308,44.4849,46.6291,48.1732,49.338,50.2478,50.978
0.579849,26.3595,36.3935,41.693,44.9755,47.2103,48.8307,50.0598,51.0242,51.8012
0.577932,26.521,36.6301,41.9757,45.2845,47.5342,49.1631,50.3969,51.3638,52.1419
0.614089,28.3815,39.2039,44.9335,48.4817,50.895,52.6429,53.9672,55.0053,55.8409
0.576343,27.0598,37.4592,42.9735,46.389,48.7121,50.3944,51.6689,52.6679,53.4719
0.577639,27.4478,37.9944,43.5771,47.0313,49.3792,51.0788,52.366,53.3747,54.1864
0.568802,27.4923,38.0977,43.711,47.1838,49.5442,51.2528,52.5468,53.5608,54.3767
0.578693,28.7882,40.0978,46.1212,49.861,52.4086,54.2557,55.6563,56.7548,57.6395
0.534647,27.4142,38.2743,44.047,47.6239,50.0568,51.8185,53.1531,54.1989,55.0406
0.466464,24.3849,33.982,39.0622,42.2052,44.3415,45.8881,47.0595,47.9776,48.7164
0.58567,34.4343,49.853,58.483,63.9944,67.8182,70.6265,72.7762,74.4747,75.8506
0.57611,31.8759,43.6852,49.5914,53.1119,55.4438,57.1004,58.3374,59.296,60.0604
0.611827,32.7433,44.5101,50.582,54.3164,56.8536,58.6927,60.088,61.1835,62.0666
0.613062,32.2939,44.0333,50.2276,54.0744,56.6981,58.6023,60.0474,61.1814,62.095
0.586234,30.8245,42.2523,48.3299,52.1055,54.6778,56.5425,57.9559,59.0642,59.9564
0.578092,30.3901,41.7736,47.8255,51.5778,54.1307,55.9797,57.3804,58.4783,59.3619
0.611746,32.4365,44.8092,51.4179,55.5263,58.327,60.3585,61.8995,63.1084,64.0822
0.588216,31.697,43.9179,50.4215,54.4517,57.1925,59.1769,60.6799,61.8576,62.8053
0.581241,31.6151,43.7661,50.1987,54.1759,56.8778,58.8329,60.3133,61.4732,62.4064
0.575417,31.7038,43.8965,50.343,54.3286,57.0364,58.9961,60.4801,61.6428,62.5785
