step,run,get,set,free,run_up_to_step
0,0.011871099472,0.00164604187012,0.00149512290955,0.000195026397705,0.0134649276733
1,0.00527620315552,0.00143790245056,0.00143194198608,0.00019097328186,0.015233039856
2,0.00427198410034,0.00149011611938,0.00149011611938,0.00019907951355,0.0146360397339
3,0.00412082672119,0.00151896476746,0.00150489807129,0.000194072723389,0.0168690681458
4,0.00364422798157,0.00149297714233,0.00150513648987,0.00019383430481,0.0162680149078
5,0.00382518768311,0.00149893760681,0.00150084495544,0.000195980072021,0.0184509754181
6,0.00364780426025,0.00152206420898,0.00155806541443,0.000250101089478,0.0191299915314
7,0.00335502624512,0.00140810012817,0.00149393081665,0.000192880630493,0.0188789367676
8,0.00332403182983,0.00149393081665,0.00147891044617,0.000196218490601,0.0258610248566
9,0.00335192680359,0.00149488449097,0.00152111053467,0.00019383430481,0.0202898979187
10,0.00334095954895,0.0014328956604,0.00146508216858,0.000194072723389,0.0210621356964
11,0.00348472595215,0.00145411491394,0.00147294998169,0.000209093093872,0.0237979888916
12,0.00320196151733,0.00135183334351,0.00142884254456,0.000192880630493,0.0228269100189
13,0.00332999229431,0.00146794319153,0.00146293640137,0.000195980072021,0.0252001285553
14,0.0034077167511,0.00146889686584,0.00155591964722,0.00023078918457,0.025768995285
15,0.00318193435669,0.00140404701233,0.0014910697937,0.000195980072021,0.0247609615326
16,0.00354719161987,0.00143599510193,0.00149393081665,0.000196933746338,0.0276589393616
17,0.00315093994141,0.00142002105713,0.00144696235657,0.000191926956177,0.0272040367126
18,0.0031898021698,0.00137710571289,0.0014500617981,0.000204086303711,0.0378639698029
19,0.00318098068237,0.00135898590088,0.00143599510193,0.00019383430481,0.0272989273071
20,0.00319886207581,0.00140810012817,0.00146198272705,0.000191926956177,0.0285999774933
21,0.00322294235229,0.00139212608337,0.00144004821777,0.000190019607544,0.0294349193573
22,0.00356125831604,0.00146102905273,0.00147485733032,0.000195980072021,0.0619740486145
23,0.00318217277527,0.00146102905273,0.00150418281555,0.000213146209717,0.100436925888
24,0.00304627418518,0.00152587890625,0.00150394439697,0.000196933746338,0.0340077877045
25,0.00365495681763,0.00151896476746,0.00146794319153,0.000194072723389,0.0346918106079
26,0.00311803817749,0.00141406059265,0.00152087211609,0.000200986862183,0.0337979793549
27,0.00304508209229,0.00142693519592,0.00146794319153,0.000195980072021,0.0360100269318
28,0.00283813476562,0.00142097473145,0.00144004821777,0.000191926956177,0.0342259407043
29,0.00286030769348,0.00143814086914,0.00151801109314,0.000191211700439,0.0345640182495
30,0.00336885452271,0.00145196914673,0.0015811920166,0.000199794769287,0.0898189544678
31,0.00293302536011,0.00148510932922,0.00160002708435,0.000201940536499,0.036169052124
32,0.00310897827148,0.00154304504395,0.00154495239258,0.000193119049072,0.0403518676758
33,0.00278496742249,0.00146102905273,0.00159001350403,0.000204086303711,0.0379350185394
34,0.00368785858154,0.00133109092712,0.00152111053467,0.000200033187866,0.0419421195984
35,0.00290584564209,0.0013439655304,0.00170302391052,0.000247001647949,0.0401589870453
36,0.00312113761902,0.00158786773682,0.00151801109314,0.000205993652344,0.04381108284
37,0.00289392471313,0.00147199630737,0.00154209136963,0.00020694732666,0.0410809516907
38,0.00293374061584,0.00154805183411,0.00151610374451,0.000194787979126,0.0413148403168
39,0.00300288200378,0.00152707099915,0.00155711174011,0.000195026397705,0.0424220561981
40,0.00295305252075,0.00145792961121,0.00144100189209,0.000195026397705,0.0434398651123
41,0.00299787521362,0.00146794319153,0.00151681900024,0.00019907951355,0.046804189682
42,0.0037260055542,0.0014500617981,0.00158405303955,0.000200033187866,0.135297060013
43,0.00301504135132,0.0016450881958,0.00161099433899,0.000207901000977,0.0488049983978
44,0.00282120704651,0.00156497955322,0.00158214569092,0.00019907951355,0.0461130142212
45,0.00312399864197,0.00147294998169,0.00145816802979,0.000200033187866,0.0539360046387
46,0.00308513641357,0.00135898590088,0.00151586532593,0.000194072723389,0.052031993866
47,0.00277185440063,0.00152993202209,0.00149583816528,0.000192880630493,0.0482130050659
48,0.00288796424866,0.0013279914856,0.00142502784729,0.000200986862183,0.0489609241486
49,0.00286912918091,0.00157189369202,0.00164484977722,0.00019907951355,0.117784976959
50,0.00315880775452,0.00161194801331,0.00182485580444,0.000355005264282,0.0549359321594
51,0.00276207923889,0.00145602226257,0.00154209136963,0.000194787979126,0.0537250041962
52,0.00310111045837,0.00133585929871,0.00145483016968,0.000196933746338,0.0556371212006
53,0.00280904769897,0.00153708457947,0.00182390213013,0.000242948532104,0.0549070835114
54,0.00315928459167,0.00171184539795,0.00155711174011,0.000202894210815,0.0578091144562
55,0.00288510322571,0.00160312652588,0.00145292282104,0.000195980072021,0.0542299747467
56,0.0028862953186,0.00154995918274,0.00155997276306,0.000195026397705,0.0550088882446
57,0.00285983085632,0.00150799751282,0.00151109695435,0.000194072723389,0.0623950958252
58,0.00284099578857,0.00147104263306,0.00143098831177,0.000192880630493,0.0585758686066
59,0.00272393226624,0.00146818161011,0.00186085700989,0.0002601146698,0.0588181018829
60,0.00266695022583,0.00167894363403,0.00166392326355,0.000205993652344,0.0578858852386
61,0.0030779838562,0.00162100791931,0.00157189369202,0.000195026397705,0.0633909702301
62,0.00296711921692,0.00148606300354,0.00156211853027,0.000198841094971,0.0601050853729
63,0.00295901298523,0.00139999389648,0.00144505500793,0.000191211700439,0.0649151802063
64,0.00271582603455,0.00173091888428,0.00189113616943,0.000203132629395,0.119253158569
65,0.00268197059631,0.0015242099762,0.0015389919281,0.000226020812988,0.0615229606628
66,0.00277280807495,0.00155687332153,0.00166511535645,0.000201940536499,0.0616619586945
67,0.00292992591858,0.00157904624939,0.00152897834778,0.000195980072021,0.0664801597595
68,0.002925157547,0.00145697593689,0.0014979839325,0.000194072723389,0.0681250095367
69,0.0625901222229,0.002112865448,0.00166797637939,0.00021505355835,0.0691781044006
70,0.00282120704651,0.00166797637939,0.00185418128967,0.000368118286133,0.0705010890961
71,0.00265717506409,0.00151491165161,0.00144386291504,0.00019383430481,0.0655560493469
72,0.00267100334167,0.00155401229858,0.00151610374451,0.000196933746338,0.0657060146332
73,0.00270795822144,0.00145816802979,0.0014910697937,0.000194072723389,0.0679500102997
74,0.00275111198425,0.00145792961121,0.00187087059021,0.000231981277466,0.0674250125885
75,0.00273108482361,0.00157594680786,0.00160789489746,0.000200033187866,0.0732538700104
76,0.00285696983337,0.00157499313354,0.00155282020569,0.000212907791138,0.0742180347443
77,0.00271892547607,0.00148701667786,0.00160598754883,0.00019907951355,0.069787979126
78,0.00272178649902,0.0014910697937,0.00160980224609,0.000198125839233,0.0768148899078
79,0.00265192985535,0.00158095359802,0.00155091285706,0.000198125839233,0.130650043488
80,0.00278902053833,0.00163602828979,0.00156307220459,0.000197887420654,0.0721800327301
81,0.00265121459961,0.00155806541443,0.00149893760681,0.000194787979126,0.0749011039734
82,0.00282716751099,0.00155210494995,0.0015709400177,0.00019907951355,0.0795159339905
83,0.00266194343567,0.00150084495544,0.00148606300354,0.000195026397705,0.0791621208191
84,0.00296068191528,0.00161910057068,0.00160002708435,0.000197887420654,0.185065984726
85,0.00332903862,0.00168013572693,0.0016028881073,0.000196933746338,0.0826539993286
86,0.00279307365417,0.00150322914124,0.00149893760681,0.000195026397705,0.081906080246
87,0.00272083282471,0.00146698951721,0.00147294998169,0.000194072723389,0.0765981674194
88,0.00379705429077,0.00187611579895,0.00165200233459,0.000203847885132,0.0781888961792
89,0.00289011001587,0.00165104866028,0.00165510177612,0.000205993652344,0.0794751644135
90,0.00286197662354,0.00174999237061,0.00158405303955,0.00019907951355,0.0866820812225
91,0.00300598144531,0.00155782699585,0.00149178504944,0.00019907951355,0.0843060016632
92,0.00302219390869,0.00149011611938,0.00147914886475,0.000194072723389,0.0888919830322
93,0.0030779838562,0.00173902511597,0.00168204307556,0.000211000442505,0.15070104599
94,0.00265288352966,0.00158190727234,0.00152516365051,0.00019907951355,0.0824038982391
95,0.00268316268921,0.00160002708435,0.00157499313354,0.00019907951355,0.112289190292
96,0.00269794464111,0.00152802467346,0.00152707099915,0.000191926956177,0.0887589454651
97,0.00398397445679,0.00182008743286,0.00170612335205,0.000207185745239,0.0884099006653
98,0.0027859210968,0.00160908699036,0.00161910057068,0.000205993652344,0.087769985199
99,0.00287914276123,0.00157117843628,0.00152802467346,0.000194072723389,0.0931370258331
