step,run,get,set,free,run_up_to_step
0,0.270390033722,0.0430901050568,0.0457720756531,0.0104010105133,0.274822950363
1,0.0720210075378,0.0406670570374,0.0482621192932,0.0115661621094,0.286276102066
2,0.0622210502625,0.0451641082764,0.0461809635162,0.00881600379944,0.315449953079
3,0.0605380535126,0.0455389022827,0.0455598831177,0.00882983207703,0.326900005341
4,0.0541160106659,0.0458068847656,0.0478739738464,0.00906801223755,0.321687936783
5,0.0563549995422,0.0440080165863,0.0492959022522,0.00951600074768,0.342992067337
6,0.0542511940002,0.0407881736755,0.0483198165894,0.00884294509888,0.322804927826
7,0.0542938709259,0.0405240058899,0.0487949848175,0.00940704345703,0.32409286499
8,0.0500619411469,0.0428049564362,0.0501449108124,0.00949788093567,0.362419843674
9,0.0526180267334,0.0408139228821,0.0474669933319,0.00872683525085,0.389848947525
10,0.0513150691986,0.0426049232483,0.0483908653259,0.00892901420593,0.406727075577
11,0.0579631328583,0.041818857193,0.0500640869141,0.00949311256409,0.369071960449
12,0.053483247757,0.0474829673767,0.047110080719,0.00883483886719,0.4364361763
13,0.05437707901,0.0428760051727,0.052444934845,0.00882601737976,0.423890113831
14,0.0505859851837,0.0434341430664,0.0509209632874,0.00956916809082,0.411274909973
15,0.0530500411987,0.0409479141235,0.0473439693451,0.00964903831482,0.402158975601
16,0.0499727725983,0.043065071106,0.0503768920898,0.00945210456848,0.430959939957
17,0.050390958786,0.0408771038055,0.0492970943451,0.00888895988464,0.441026926041
18,0.0539541244507,0.0419461727142,0.0466210842133,0.00929307937622,0.440948009491
19,0.0528371334076,0.0411782264709,0.0446720123291,0.00912499427795,0.481262922287
20,0.0537238121033,0.0421249866486,0.0474779605865,0.00961089134216,0.426117897034
21,0.045825958252,0.0429010391235,0.0470058917999,0.00912404060364,0.480861902237
22,0.0425269603729,0.0414409637451,0.0499439239502,0.00958395004272,0.484450101852
23,0.0442950725555,0.0411560535431,0.0481691360474,0.00966000556946,0.490567922592
24,0.0441560745239,0.0425958633423,0.0498089790344,0.0095682144165,0.556932210922
25,0.0451729297638,0.0456929206848,0.0495669841766,0.0102140903473,0.468533992767
26,0.0441799163818,0.0465180873871,0.0468618869781,0.011058807373,0.497169971466
27,0.0480809211731,0.0416040420532,0.0494251251221,0.00982809066772,0.51419210434
28,0.0448429584503,0.0439281463623,0.0469479560852,0.0122201442719,0.518625974655
29,0.0468101501465,0.0456490516663,0.0476460456848,0.0117449760437,0.488531112671
30,0.046642780304,0.0420398712158,0.0463020801544,0.0110411643982,0.538219213486
31,0.0449481010437,0.0459368228912,0.0469501018524,0.00879597663879,0.576508045197
32,0.127649068832,0.0423572063446,0.0480849742889,0.00881099700928,0.519165992737
33,0.0451581478119,0.0412850379944,0.0454699993134,0.00891304016113,0.550604104996
34,0.046746969223,0.0411028862,0.0471749305725,0.00879120826721,0.579262971878
35,0.0473239421844,0.0408849716187,0.0469698905945,0.00965213775635,0.595439910889
36,0.0443589687347,0.0407779216766,0.0848100185394,0.0124359130859,0.593039989471
37,0.0453059673309,0.0422458648682,0.0507659912109,0.00888299942017,0.574678897858
38,0.0451238155365,0.0429971218109,0.049987077713,0.00892615318298,0.61066198349
39,0.0499782562256,0.0428268909454,0.0754721164703,0.00897598266602,0.620026111603
40,0.0439310073853,0.0408940315247,0.0475058555603,0.00961112976074,0.595527887344
41,0.0437200069427,0.0437989234924,0.0495760440826,0.0096321105957,0.724689006805
42,0.0433082580566,0.0426499843597,0.0448269844055,0.00888705253601,0.660990953445
43,0.042090177536,0.0424308776855,0.0492260456085,0.00947999954224,0.63628411293
44,0.0441119670868,0.0425229072571,0.0489549636841,0.00958204269409,0.63258099556
45,0.0440559387207,0.042799949646,0.0517690181732,0.0103549957275,0.651411056519
46,0.0441179275513,0.0432291030884,0.0494658946991,0.0123789310455,0.679317951202
47,0.0424091815948,0.0408270359039,0.0470941066742,0.00951981544495,0.679524898529
48,0.0416877269745,0.040708065033,0.0456011295319,0.00890612602234,0.717187166214
49,0.0438940525055,0.0406579971313,0.0481650829315,0.00923490524292,0.727316141129
50,0.0411427021027,0.0435619354248,0.0455210208893,0.0114848613739,0.737631082535
51,0.0421800613403,0.0421509742737,0.0467460155487,0.0119979381561,0.726125001907
52,0.041825056076,0.0404698848724,0.0488040447235,0.00956106185913,0.710939884186
53,0.0437040328979,0.0405869483948,0.0494160652161,0.0100889205933,0.727366924286
54,0.0437140464783,0.0404839515686,0.0472831726074,0.00961017608643,0.725234031677
55,0.0464389324188,0.0431599617004,0.0482230186462,0.0121939182281,0.732038021088
56,0.0427317619324,0.0425500869751,0.0509641170502,0.00889492034912,0.729908943176
57,0.0410668849945,0.040834903717,0.0504598617554,0.00892615318298,0.7737429142
58,0.0432388782501,0.0421540737152,0.0479600429535,0.0109930038452,0.725620985031
59,0.0395781993866,0.0426230430603,0.0468480587006,0.00889682769775,0.895569086075
60,0.0432062149048,0.0423510074615,0.0481171607971,0.010134935379,0.778393983841
61,0.0386669635773,0.041925907135,0.0477299690247,0.0120861530304,0.808393001556
62,0.0379049777985,0.0420780181885,0.0461959838867,0.0102047920227,0.769116163254
63,0.038074016571,0.0459241867065,0.0490829944611,0.0118849277496,0.805405139923
64,0.0420138835907,0.0458722114563,0.0453548431396,0.0109760761261,0.798949956894
65,0.0418620109558,0.0438680648804,0.0487008094788,0.00962710380554,0.797735929489
66,0.0400528907776,0.0416340827942,0.0482339859009,0.00950813293457,0.832296848297
67,0.042603969574,0.0455160140991,0.0476830005646,0.0107488632202,0.837160110474
68,0.0406126976013,0.0437498092651,0.0490639209747,0.00943303108215,0.912866830826
69,0.0400278568268,0.0424299240112,0.0454750061035,0.0107769966125,0.840070009232
70,0.0401182174683,0.0420529842377,0.0466911792755,0.0110340118408,0.881246089935
71,0.0401849746704,0.042827129364,0.0469341278076,0.0120251178741,0.909176111221
72,0.0457298755646,0.0431129932404,0.0504541397095,0.0119261741638,0.849797964096
73,0.0420320034027,0.0431389808655,0.0458190441132,0.00879096984863,0.874242067337
74,0.0394229888916,0.0411550998688,0.0464799404144,0.0111119747162,0.908730983734
75,0.0401608943939,0.0413110256195,0.0484020709991,0.0122570991516,0.940318107605
76,0.0420198440552,0.0424718856812,0.0473539829254,0.00896310806274,1.03452396393
77,0.042884349823,0.0422160625458,0.0486741065979,0.00957989692688,0.924942016602
78,0.0417540073395,0.0422811508179,0.0489459037781,0.0121898651123,0.916275978088
79,0.0386939048767,0.0422351360321,0.0503871440887,0.0095489025116,0.90056180954
80,0.0378382205963,0.0439651012421,0.0459280014038,0.0100951194763,0.904106140137
81,0.0378587245941,0.0439651012421,0.046238899231,0.00950503349304,0.949050188065
82,0.0421781539917,0.0433909893036,0.0486099720001,0.0118579864502,0.942687988281
83,0.0409560203552,0.0436661243439,0.0506780147552,0.0131928920746,0.950584888458
84,0.0377221107483,0.0431139469147,0.0459790229797,0.00884294509888,1.02760195732
85,0.0378878116608,0.0422282218933,0.048770904541,0.00904107093811,1.13210892677
86,0.0399250984192,0.0424001216888,0.0468459129333,0.0117647647858,0.994302988052
87,0.0377810001373,0.0466411113739,0.0458500385284,0.00871896743774,0.983773946762
88,0.0426230430603,0.0438199043274,0.0462460517883,0.0114150047302,1.0426428318
89,0.0380117893219,0.0421149730682,0.0488920211792,0.0111939907074,1.01570296288
90,0.0400860309601,0.0435938835144,0.0454559326172,0.0087730884552,0.982385158539
91,0.0400440692902,0.0444648265839,0.0458841323853,0.011018037796,1.01630210876
92,0.0398678779602,0.0413770675659,0.0477590560913,0.00952792167664,1.04584002495
93,0.0426108837128,0.0428359508514,0.0479748249054,0.0096230506897,1.24435305595
94,0.0380380153656,0.0429291725159,0.0491018295288,0.00954294204712,1.0474011898
95,0.041867017746,0.042338848114,0.0473551750183,0.00886988639832,1.08663105965
96,0.0387718677521,0.0419688224792,0.0487561225891,0.00961089134216,1.05584001541
97,0.0519990921021,0.0423178672791,0.0489161014557,0.0123858451843,1.08693408966
98,0.0402410030365,0.0486559867859,0.0491509437561,0.00957608222961,1.0830078125
99,0.0439128875732,0.0434830188751,0.0467309951782,0.00889801979065,1.04611802101
