step,run,get,set,free,run_up_to_step
0,1.56368494034,0.113123178482,0.126168966293,0.0140290260315,1.58858299255
1,0.378417015076,0.106539964676,0.126747131348,0.0104238986969,1.76094388962
2,0.29807806015,0.111646175385,0.125470161438,0.0147559642792,1.73192000389
3,0.308153867722,0.113578081131,0.130705833435,0.0146510601044,1.74203896523
4,0.266155004501,0.113046884537,0.124095916748,0.0141348838806,1.75009298325
5,0.29067492485,0.111685037613,0.128890037537,0.0151560306549,1.82272100449
6,0.273527145386,0.113919973373,0.133275985718,0.0150990486145,1.91931509972
7,0.2826192379,0.114152908325,0.129505872726,0.0147829055786,1.8570318222
8,0.258347988129,0.11220407486,0.131644964218,0.0155870914459,1.91446304321
9,0.261175870895,0.115664958954,0.130951166153,0.0154769420624,1.94421815872
10,0.257400989532,0.110722064972,0.12825512886,0.0137770175934,1.81880307198
11,0.27260518074,0.112051010132,0.130876064301,0.0152690410614,2.17919278145
12,0.272295951843,0.112377166748,0.131880044937,0.0145580768585,2.12818288803
13,0.276306867599,0.112703084946,0.130434989929,0.0149400234222,2.12414383888
14,0.25789308548,0.113916873932,0.131661891937,0.0150299072266,2.17758822441
15,0.256736040115,0.112458944321,0.130020856857,0.015734910965,2.2620511055
16,0.231345891953,0.111770868301,0.114077091217,0.0141060352325,2.21345281601
17,0.261066913605,0.112427949905,0.129324913025,0.0148379802704,2.27786302567
18,0.272939920425,0.114422082901,0.131523132324,0.0120859146118,2.28147101402
19,0.275698900223,0.115784168243,0.13248705864,0.0152699947357,2.38761997223
20,0.27445101738,0.115778923035,0.138697147369,0.0147609710693,2.51978206635
21,0.212248086929,0.112240076065,0.130820035934,0.0148777961731,2.41108012199
22,0.211457014084,0.113953113556,0.133100986481,0.0149281024933,2.53738689423
23,0.213444232941,0.114086151123,0.111673116684,0.0148749351501,2.55716490746
24,0.213797092438,0.0984160900116,0.107213020325,0.0164611339569,2.58874392509
25,0.209769964218,0.113448858261,0.138020038605,0.0166339874268,2.68009495735
26,0.21205496788,0.111839056015,0.13360786438,0.0157380104065,2.71134090424
27,0.224543094635,0.114907979965,0.134477853775,0.0152449607849,2.68008899689
28,0.227765083313,0.114741802216,0.141189098358,0.0164659023285,2.71833395958
29,0.2282371521,0.115320920944,0.137014865875,0.0159208774567,2.71391391754
30,0.237056016922,0.119498968124,0.0930650234222,0.0158848762512,2.86807394028
31,0.225503921509,0.116078138351,0.134609937668,0.0154950618744,2.81061911583
32,0.224843978882,0.114347934723,0.130135059357,0.0156869888306,2.80418801308
33,0.226693153381,0.11082816124,0.128715991974,0.0146458148956,2.80445098877
34,0.225490570068,0.113317966461,0.134704113007,0.016373872757,3.09296607971
35,0.199970006943,0.11296582222,0.0977189540863,0.0152280330658,2.93612098694
36,0.225615262985,0.111405849457,0.120020151138,0.0108509063721,2.95846295357
37,0.220965862274,0.084538936615,0.100594043732,0.0119638442993,3.00963687897
38,0.229520082474,0.114903926849,0.127169847488,0.0169858932495,3.06708192825
39,0.194917917252,0.116753816605,0.112425804138,0.0156769752502,3.19985580444
40,0.207393884659,0.0942041873932,0.134250879288,0.0149660110474,3.17562294006
41,0.207937955856,0.113980054855,0.132259130478,0.0157508850098,3.16639113426
42,0.193662166595,0.11177611351,0.134645938873,0.0162441730499,3.27616977692
43,0.211982011795,0.122671127319,0.134510040283,0.0158200263977,3.36796593666
44,0.210498094559,0.112137079239,0.131402015686,0.014524936676,3.2640850544
45,0.209749937057,0.082496881485,0.134140014648,0.0158178806305,3.34166502953
46,0.189510822296,0.114122152328,0.131693840027,0.015545129776,3.44046401978
47,0.206866979599,0.112329959869,0.137474060059,0.0155220031738,3.4961309433
48,0.205893039703,0.112238883972,0.133621931076,0.015191078186,3.63869595528
49,0.210942268372,0.114638805389,0.139233112335,0.0150017738342,3.49376797676
50,0.191030979156,0.115266084671,0.140759944916,0.0122330188751,3.60559391975
51,0.199696063995,0.111354112625,0.132889032364,0.0157561302185,3.73307108879
52,0.207814216614,0.112121105194,0.133203983307,0.0154511928558,3.65143203735
53,0.207067012787,0.109043121338,0.13279914856,0.0156810283661,3.75601696968
54,0.178443908691,0.113929033279,0.134552955627,0.0155670642853,3.6963698864
55,0.222085952759,0.114578008652,0.127242088318,0.0111589431763,3.68068099022
56,0.202163934708,0.114317178726,0.13304400444,0.0150580406189,3.67628002167
57,0.182642936707,0.0776388645172,0.130395174026,0.0156579017639,3.79005408287
58,0.177161693573,0.11009812355,0.13428902626,0.0148010253906,3.82732701302
59,0.202528953552,0.115011930466,0.132255077362,0.0143928527832,3.89431619644
60,0.201949119568,0.112776994705,0.132222890854,0.0152997970581,3.91069793701
61,0.186665058136,0.112222194672,0.1291410923,0.0153510570526,3.97115015984
62,0.181970834732,0.116159915924,0.137742042542,0.017058134079,4.15738582611
63,0.183382034302,0.114450931549,0.132225036621,0.0151720046997,4.06343698502
64,0.19958114624,0.116364002228,0.131373167038,0.0158948898315,4.14690995216
65,0.1957218647,0.115818023682,0.131801128387,0.0113129615784,4.14280509949
66,0.195576906204,0.115036964417,0.132158041,0.0156037807465,4.24305486679
67,0.18280005455,0.11302113533,0.131537914276,0.0153589248657,4.23182892799
68,0.188602924347,0.117851018906,0.13286781311,0.0154168605804,4.30115008354
69,0.183652877808,0.115126132965,0.131458997726,0.0151689052582,4.3072578907
70,0.184689998627,0.11628818512,0.132560014725,0.0154280662537,4.36489295959
71,0.198167800903,0.118574857712,0.131717920303,0.0119600296021,4.50705385208
72,0.185080051422,0.116353034973,0.134111881256,0.0157132148743,4.45311403275
73,0.18480014801,0.115565061569,0.132837057114,0.0154500007629,4.42668390274
74,0.184687852859,0.112992048264,0.131018877029,0.0156280994415,4.52294397354
75,0.173863172531,0.114228963852,0.13135099411,0.0155880451202,4.56022000313
76,0.145092964172,0.116279125214,0.131707191467,0.0154340267181,4.55723690987
77,0.191393136978,0.115094184875,0.133015871048,0.01522397995,4.612803936
78,0.1985039711,0.113989114761,0.108486890793,0.0144639015198,4.64559984207
79,0.183979034424,0.111968040466,0.132600069046,0.0145320892334,4.63900279999
80,0.184551000595,0.11650800705,0.134531974792,0.0153617858887,4.75509190559
81,0.176382780075,0.112858057022,0.132565975189,0.0152831077576,4.71353697777
82,0.201354026794,0.113950014114,0.133810997009,0.0115878582001,4.885846138
83,0.198662042618,0.114962100983,0.132114171982,0.0142421722412,4.90569019318
84,0.185263872147,0.114796876907,0.134029150009,0.0172200202942,4.91532182693
85,0.18524813652,0.114087820053,0.132277011871,0.0154609680176,4.92233109474
86,0.184606075287,0.118986129761,0.130316972733,0.0151500701904,4.97799301147
87,0.185115814209,0.113460063934,0.133035898209,0.0147168636322,4.97988891602
88,0.186123847961,0.114095926285,0.133985042572,0.0151908397675,5.1799249649
89,0.185264110565,0.116116046906,0.134660005569,0.0154299736023,5.08109116554
90,0.183163881302,0.113490104675,0.132241010666,0.0153789520264,5.06064891815
91,0.183621883392,0.115707874298,0.133011102676,0.0156199932098,5.1144258976
92,0.184363126755,0.111528158188,0.118005990982,0.0145959854126,5.0731420517
93,0.18164896965,0.114901065826,0.139408111572,0.0175859928131,5.16297984123
94,0.183604955673,0.113160133362,0.129205226898,0.0154428482056,5.26737499237
95,0.174150943756,0.116276025772,0.130947113037,0.014937877655,5.31080102921
96,0.185225009918,0.0910382270813,0.126181840897,0.0107660293579,5.23532605171
97,0.199927091599,0.104221105576,0.132237911224,0.0151290893555,5.3894200325
98,0.190035104752,0.122066020966,0.132944822311,0.0161979198456,5.50657987595
99,0.196515083313,0.113034963608,0.128718852997,0.0147399902344,5.41580295563
