step,run,get,set,free,run_up_to_step
0,0.00214099884033,0.00117897987366,0.00106000900269,0.000144958496094,0.00332808494568
1,0.00191617012024,0.00118398666382,0.0010290145874,0.000144958496094,0.00331878662109
2,0.00200700759888,0.00118207931519,0.00114893913269,0.000146865844727,0.00415301322937
3,0.00207209587097,0.00116491317749,0.00113797187805,0.000144958496094,0.00446605682373
4,0.00222587585449,0.00117492675781,0.00115609169006,0.000144004821777,0.00452280044556
5,0.00229501724243,0.00110411643982,0.00108098983765,0.000144958496094,0.00619101524353
6,0.00225806236267,0.00114703178406,0.00107598304749,0.000141859054565,0.0121371746063
7,0.00216197967529,0.00120687484741,0.00116896629333,0.000159025192261,0.00652599334717
8,0.00217938423157,0.00125908851624,0.00107097625732,0.0001540184021,0.00679206848145
9,0.00201487541199,0.00118184089661,0.0011670589447,0.000188112258911,0.00718402862549
10,0.00219297409058,0.00124096870422,0.00117993354797,0.000152111053467,0.00777912139893
11,0.00204610824585,0.00119090080261,0.00113701820374,0.000147104263306,0.00765800476074
12,0.00197696685791,0.00125408172607,0.00113797187805,0.000144958496094,0.00793790817261
13,0.00193095207214,0.00119113922119,0.00136017799377,0.000149965286255,0.0082311630249
14,0.00230979919434,0.00121712684631,0.00106501579285,0.000141143798828,0.0113580226898
15,0.00202703475952,0.00112700462341,0.00110101699829,0.000139951705933,0.00841689109802
16,0.00222396850586,0.00116586685181,0.00119185447693,0.000142097473145,0.00884199142456
17,0.0478570461273,0.00138306617737,0.00112009048462,0.0001540184021,0.0103671550751
18,0.0018630027771,0.00113296508789,0.00107598304749,0.000143051147461,0.011803150177
19,0.00188302993774,0.00114703178406,0.00103306770325,0.000141859054565,0.0220258235931
20,0.00191879272461,0.00122284889221,0.0013370513916,0.000149965286255,0.0420799255371
21,0.0333321094513,0.00130701065063,0.00131797790527,0.000171899795532,0.0138909816742
22,0.00232315063477,0.00146102905273,0.00126004219055,0.000149965286255,0.0138900279999
23,0.00214815139771,0.00125288963318,0.00110292434692,0.000152111053467,0.0129120349884
24,0.0021276473999,0.001296043396,0.00125885009766,0.0001540184021,0.0221989154816
25,0.00274991989136,0.00125813484192,0.00131893157959,0.000174999237061,0.0139129161835
26,0.00195693969727,0.00126099586487,0.00116896629333,0.000149965286255,0.0133979320526
27,0.00195288658142,0.00118613243103,0.00108599662781,0.00014591217041,0.0139679908752
28,0.00219082832336,0.00132608413696,0.00113606452942,0.000158071517944,0.0139350891113
29,0.0020010471344,0.00118899345398,0.0011830329895,0.000149011611938,0.0143399238586
30,0.0020740032196,0.00117182731628,0.00108814239502,0.000147819519043,0.0149669647217
31,0.00196695327759,0.00115990638733,0.00114488601685,0.00014591217041,0.015016078949
32,0.00199890136719,0.00120496749878,0.00124502182007,0.000146150588989,0.0161280632019
33,0.00189518928528,0.0013530254364,0.00120806694031,0.000152111053467,0.0878999233246
34,0.00198698043823,0.00128793716431,0.00118088722229,0.000146865844727,0.0162360668182
35,0.00197696685791,0.00122785568237,0.00114989280701,0.000147819519043,0.0162270069122
36,0.00191378593445,0.0011990070343,0.00112891197205,0.000144958496094,0.0169928073883
37,0.00214385986328,0.0012731552124,0.0012891292572,0.000144004821777,0.0180420875549
38,0.00192594528198,0.00119280815125,0.00103712081909,0.000140190124512,0.0175809860229
39,0.00202965736389,0.00132894515991,0.00120902061462,0.000149965286255,0.0928690433502
40,0.0019109249115,0.00134491920471,0.00107598304749,0.000144958496094,0.018826007843
41,0.00255584716797,0.00124597549438,0.00117492675781,0.000149011611938,0.0223500728607
42,0.00191617012024,0.00116991996765,0.00137400627136,0.00016713142395,0.0220370292664
43,0.00219488143921,0.00127601623535,0.00118708610535,0.00014591217041,0.022430896759
44,0.00211310386658,0.00124216079712,0.00109481811523,0.000147104263306,0.0203449726105
45,0.00194787979126,0.00120496749878,0.00117182731628,0.000155925750732,0.0203220844269
46,0.00194501876831,0.00130605697632,0.00110912322998,0.000149965286255,0.110663890839
47,0.00215005874634,0.00131011009216,0.00120091438293,0.000148057937622,0.0214238166809
48,0.00184607505798,0.00129795074463,0.00114798545837,0.000148057937622,0.0216369628906
49,0.00231790542603,0.0012218952179,0.00111985206604,0.000147104263306,0.021821975708
50,0.00199294090271,0.00127696990967,0.00123596191406,0.000151872634888,0.0222749710083
51,0.00236368179321,0.00118708610535,0.00112795829773,0.000144004821777,0.0237729549408
52,0.0020809173584,0.00114703178406,0.00137400627136,0.000171184539795,0.02259516716
53,0.00208473205566,0.00134205818176,0.00115704536438,0.000149011611938,0.023815870285
54,0.00202989578247,0.00119185447693,0.00109696388245,0.000149011611938,0.0302910804749
55,0.00200700759888,0.00141406059265,0.00117516517639,0.000149965286255,0.0260770320892
56,0.00338292121887,0.00114107131958,0.00113415718079,0.000169992446899,0.0245299339294
57,0.00196814537048,0.00126218795776,0.00110697746277,0.000147819519043,0.0248250961304
58,0.00203895568848,0.00120377540588,0.00120306015015,0.000149011611938,0.0262539386749
59,0.00197315216064,0.00126814842224,0.00111317634583,0.000146150588989,0.0795230865479
60,0.00197505950928,0.0013120174408,0.00119781494141,0.000147819519043,0.0261740684509
61,0.00189423561096,0.00122809410095,0.0011739730835,0.00014591217041,0.0295238494873
62,0.0019199848175,0.00113606452942,0.0011031627655,0.000139951705933,0.0262320041656
63,0.00228095054626,0.00127196311951,0.00129699707031,0.000155925750732,0.0258610248566
64,0.00212383270264,0.00145888328552,0.0014660358429,0.000187158584595,0.139852046967
65,0.00214505195618,0.00130105018616,0.00124001502991,0.000144004821777,0.0297248363495
66,0.00204706192017,0.00133490562439,0.00107908248901,0.000147104263306,0.0294010639191
67,0.00196313858032,0.00118494033813,0.00116991996765,0.000146865844727,0.028589963913
68,0.00198197364807,0.00118398666382,0.00117683410645,0.00014591217041,0.0288791656494
69,0.00205898284912,0.00139021873474,0.00149703025818,0.000159978866577,0.0928268432617
70,0.00200605392456,0.00135517120361,0.00124192237854,0.000152111053467,0.0299000740051
71,0.00196695327759,0.00127506256104,0.00116395950317,0.000147104263306,0.0313959121704
72,0.00182104110718,0.00125908851624,0.00108599662781,0.000146865844727,0.0309481620789
73,0.0019690990448,0.0012218952179,0.00123190879822,0.000148057937622,0.0301358699799
74,0.00203394889832,0.00125002861023,0.00107288360596,0.000144958496094,0.0361909866333
75,0.00188589096069,0.0011990070343,0.00156998634338,0.000186920166016,0.0305631160736
76,0.00207996368408,0.00134181976318,0.00112795829773,0.000174999237061,0.0322489738464
77,0.00192785263062,0.00140690803528,0.00125813484192,0.000153064727783,0.0330209732056
78,0.00195908546448,0.00130200386047,0.0010769367218,0.000146150588989,0.0323889255524
79,0.00196123123169,0.00124788284302,0.00113797187805,0.000147104263306,0.0327019691467
80,0.00204491615295,0.00119280815125,0.00117111206055,0.000144958496094,0.0327508449554
81,0.00202822685242,0.00154590606689,0.00123596191406,0.000157117843628,0.138430833817
82,0.00208687782288,0.00134086608887,0.00116896629333,0.000152111053467,0.0343909263611
83,0.0021960735321,0.0013689994812,0.00134491920471,0.000159025192261,0.0355770587921
84,0.00189399719238,0.00121402740479,0.00113296508789,0.000143051147461,0.034099817276
85,0.00225615501404,0.00128197669983,0.00113391876221,0.000145196914673,0.0523929595947
86,0.00201892852783,0.0012309551239,0.00164389610291,0.000200033187866,0.0364620685577
87,0.00224280357361,0.00142121315002,0.00125312805176,0.000150918960571,0.0418729782104
88,0.00341391563416,0.00153803825378,0.00125098228455,0.000165939331055,0.054801940918
89,0.0021071434021,0.00127100944519,0.00118589401245,0.000149965286255,0.0388419628143
90,0.00280117988586,0.00131916999817,0.00129795074463,0.000153064727783,0.0411629676819
91,0.00196123123169,0.00139498710632,0.00124192237854,0.000159025192261,0.113449811935
92,0.00209808349609,0.00136494636536,0.00121808052063,0.000159978866577,0.0386488437653
93,0.00203371047974,0.00131702423096,0.00129699707031,0.0001540184021,0.0418419837952
94,0.0019998550415,0.00118207931519,0.00105500221252,0.000145196914673,0.0778820514679
95,0.0712890625,0.00176286697388,0.00136685371399,0.00016188621521,0.0393240451813
96,0.00243806838989,0.00141191482544,0.00119805335999,0.000154972076416,0.0415079593658
97,0.00226211547852,0.00144910812378,0.00125193595886,0.000169992446899,0.067225933075
98,0.00201392173767,0.00133085250854,0.00130796432495,0.000157833099365,0.0446498394012
99,0.00237202644348,0.00127291679382,0.00126385688782,0.000154972076416,0.0513799190521
