step,run,get,set,free,run_up_to_step
0,0.155160903931,0.181315898895,0.210687160492,0.0230960845947,0.100844144821
1,0.0271110534668,0.170825004578,0.21281504631,0.0229208469391,0.102293014526
2,0.0255908966064,0.179112911224,0.210983037949,0.0235049724579,0.219756126404
3,0.0231182575226,0.184550046921,0.209225893021,0.0231580734253,0.167531967163
4,0.0262138843536,0.18482208252,0.210294008255,0.0230097770691,0.188806056976
5,0.0157098770142,0.174388885498,0.195626020432,0.0172369480133,0.127552032471
6,0.0209579467773,0.178250074387,0.203589916229,0.0242881774902,0.131748914719
7,0.0263390541077,0.177959918976,0.217191934586,0.0234520435333,0.184157848358
8,0.018355846405,0.160140037537,0.186385154724,0.0240089893341,0.122364997864
9,0.0248820781708,0.173438072205,0.190112829208,0.0223150253296,0.204330921173
10,0.0261540412903,0.144775867462,0.178564786911,0.0218629837036,0.0863468647003
11,0.021959066391,0.179233074188,0.197929143906,0.0230221748352,0.184046030045
12,0.020280122757,0.160864114761,0.210884094238,0.0236220359802,0.127197027206
13,0.0267391204834,0.176093816757,0.18946814537,0.0228078365326,0.959969997406
14,0.0241708755493,0.182667016983,0.221172094345,0.023638010025,0.194662094116
15,0.0272469520569,0.18124294281,0.204885959625,0.0228118896484,0.130873918533
16,0.0190739631653,0.172523975372,0.209482908249,0.0211079120636,0.208770036697
17,0.0262370109558,0.18354511261,0.217694044113,0.0238280296326,0.105479001999
18,0.026645898819,0.1773250103,0.209584951401,0.0230808258057,0.140851020813
19,0.0267989635468,0.174988031387,0.213623046875,0.0267012119293,0.18562412262
20,0.0269951820374,0.183257818222,0.209916114807,0.0240280628204,0.127118110657
21,0.0184211730957,0.181629896164,0.223088026047,0.0243158340454,0.21207690239
22,0.0276529788971,0.17883014679,0.204381942749,0.0232181549072,0.136463165283
23,0.0223999023438,0.181287050247,0.224324941635,0.0254349708557,0.222219944
24,0.0272240638733,0.179760932922,0.218982934952,0.02365899086,0.103937864304
25,0.0262100696564,0.168377876282,0.212810993195,0.0244607925415,0.134663105011
26,0.020975112915,0.179123878479,0.21283698082,0.0256040096283,0.209749937057
27,0.0276460647583,0.182918071747,0.20976805687,0.0196490287781,0.130390882492
28,0.0270869731903,0.181180000305,0.212111949921,0.0235829353333,0.21963095665
29,0.0273449420929,0.176618099213,0.223304033279,0.0233380794525,0.131963968277
30,0.026309967041,0.172474861145,0.218907117844,0.022891998291,0.21559882164
31,0.0270221233368,0.173480987549,0.21026802063,0.0169100761414,0.0827100276947
32,0.0273649692535,0.174144983292,0.204314947128,0.0232231616974,0.140674114227
33,0.0251021385193,0.193475008011,0.215421915054,0.0232379436493,0.218478918076
34,0.0277700424194,0.176475048065,0.213064908981,0.02290391922,0.132617950439
35,0.0228142738342,0.190832853317,0.210192918777,0.0259518623352,0.211158037186
36,0.0259280204773,0.175910949707,0.210041999817,0.0248048305511,0.129248142242
37,0.0270490646362,0.182204961777,0.225502967834,0.0244238376617,0.230795145035
38,0.0257368087769,0.192888021469,0.213490962982,0.0233960151672,0.103101015091
39,0.0282101631165,0.180187940598,0.211796998978,0.0237338542938,0.132285118103
40,0.024671792984,0.175338983536,0.208946228027,0.0237381458282,0.176777124405
41,0.0259139537811,0.179414987564,0.20604300499,0.0227560997009,0.102321863174
42,0.0183629989624,0.183198928833,0.206852912903,0.0229728221893,0.305889129639
43,0.0279130935669,0.192410945892,0.209562063217,0.0229721069336,0.128880977631
44,0.0257151126862,0.1624751091,0.207654953003,0.0249190330505,0.104652881622
45,0.0226428508759,0.153784036636,0.224164962769,0.0226480960846,0.188794136047
46,0.0270781517029,0.179573059082,0.212493896484,0.0242989063263,0.128269910812
47,0.025603055954,0.176480054855,0.214986085892,0.0229480266571,0.185165882111
48,0.027410030365,0.183493852615,0.21413397789,0.0203819274902,0.102267980576
49,0.0260739326477,0.178786993027,0.218290090561,0.0233068466187,1.03230381012
50,0.0244362354279,0.18471288681,0.199325084686,0.0267109870911,0.122705221176
51,0.0277409553528,0.167578935623,0.203670978546,0.0233058929443,0.134425878525
52,0.0257041454315,0.177692174911,0.188773155212,0.0234339237213,0.188722133636
53,0.0272672176361,0.182011127472,0.217131853104,0.0233278274536,0.133584022522
54,0.0228068828583,0.184881210327,0.217157125473,0.0256259441376,0.209936141968
55,0.0167520046234,0.141217947006,0.168631076813,0.0205581188202,0.0852520465851
56,0.0272588729858,0.184754133224,0.214667081833,0.0225880146027,0.617400169373
57,0.027676820755,0.175992965698,0.208760023117,0.0246870517731,0.13493013382
58,0.0263638496399,0.177232027054,0.206884860992,0.016902923584,0.125530958176
59,0.0245878696442,0.170320987701,0.199266910553,0.024111032486,6.36213588715
60,0.0258870124817,0.170953035355,0.201392173767,0.0223588943481,0.124314069748
61,0.0203490257263,0.197732925415,0.206581115723,0.0220079421997,1.69793605804
62,0.0251595973969,0.179115056992,0.204892158508,0.0224671363831,0.103111982346
63,0.0258350372314,0.175929069519,0.208632946014,0.0221440792084,0.215945005417
64,0.0269348621368,0.191004037857,0.208225011826,0.0225038528442,0.136171102524
65,0.0264739990234,0.178865909576,0.21369600296,0.0233929157257,0.0990059375763
66,0.0246999263763,0.182770013809,0.216454029083,0.0279440879822,0.201908111572
67,0.027508020401,0.170246124268,0.202594995499,0.0233249664307,0.126034021378
68,0.0255811214447,0.18009185791,0.20849108696,0.0231230258942,0.186595916748
69,0.0251259803772,0.180576086044,0.223577022552,0.0192999839783,0.112555027008
70,0.0267019271851,0.179584026337,0.215455055237,0.0239219665527,0.131782054901
71,0.025319814682,0.170989990234,0.207796812057,0.0226440429688,0.177328109741
72,0.0191650390625,0.165657043457,0.199102163315,0.0218470096588,0.101432085037
73,0.0177171230316,0.1887819767,0.218073129654,0.0230507850647,0.214016914368
74,0.0266270637512,0.167599916458,0.207112073898,0.0231640338898,0.12667298317
75,0.0275588035583,0.197490930557,0.232729196548,0.0201389789581,0.22575712204
76,0.0249428749084,0.170052051544,0.194872140884,0.0166580677032,0.13303399086
77,0.0266280174255,0.156628847122,0.204657077789,0.0241060256958,1.50882792473
78,0.0274379253387,0.192107915878,0.202022075653,0.0164389610291,0.21010684967
79,0.025848865509,0.166674137115,0.196268081665,0.0223770141602,0.121165990829
80,0.0245010852814,0.181540966034,0.19927406311,0.021143913269,1.36226391792
81,0.0248467922211,0.171267986298,0.178722858429,0.0248851776123,0.099091053009
82,0.0220131874084,0.180212020874,0.226171970367,0.0190329551697,1.3468079567
83,0.0220839977264,0.168033123016,0.192346096039,0.0221109390259,0.129926919937
84,0.0206820964813,0.165410041809,0.199878931046,0.0205929279327,0.42226099968
85,0.0204248428345,0.165938138962,0.165287017822,0.0209670066833,1.68839287758
86,0.0258431434631,0.176471948624,0.201395988464,0.0223650932312,0.126162052155
87,0.0231220722198,0.179364919662,0.220368862152,0.0217559337616,0.190062999725
88,0.0192239284515,0.187752962112,0.183619976044,0.0261890888214,0.0954210758209
89,0.0250201225281,0.173968076706,0.200053930283,0.0222640037537,0.216499090195
90,0.0256562232971,0.157315015793,0.194138050079,0.0225470066071,0.952857017517
91,0.017637014389,0.165074825287,0.20618891716,0.0218820571899,0.117589950562
92,0.0224778652191,0.167679071426,0.199373960495,0.0233700275421,0.202503919601
93,0.0258741378784,0.171247005463,0.196175098419,0.0218579769135,0.117588043213
94,0.0182859897614,0.179584026337,0.21132516861,0.0217909812927,0.215557098389
95,0.0247600078583,0.173405885696,0.198912143707,0.0212879180908,0.102433919907
96,0.0233309268951,0.173632144928,0.195101976395,0.0225348472595,0.131801843643
97,0.0243201255798,0.167109966278,0.201700925827,0.0217380523682,0.216930866241
98,0.0246608257294,0.183794975281,0.205009937286,0.0230231285095,0.0987129211426
99,0.0241911411285,0.175312042236,0.204811096191,0.0227360725403,0.189259052277
