step,run,get,set,free,run_up_to_step
0,0.0204169750214,0.00426816940308,0.00431990623474,0.000246047973633,0.020937204361
1,0.00824618339539,0.00341510772705,0.00396418571472,0.000256061553955,0.0222430229187
2,0.0077109336853,0.00395393371582,0.00405788421631,0.000247001647949,0.0244710445404
3,0.00477766990662,0.00209903717041,0.00439882278442,0.000468015670776,0.0255689620972
4,0.00641894340515,0.00343298912048,0.00432896614075,0.000392913818359,0.0289769172668
5,0.00605511665344,0.00377702713013,0.00410795211792,0.000367164611816,0.0283679962158
6,0.00643706321716,0.00347709655762,0.00439405441284,0.00040602684021,0.0269200801849
7,0.00593090057373,0.00377178192139,0.00476288795471,0.000421047210693,0.023255109787
8,0.00440788269043,0.00237894058228,0.00409483909607,0.000367879867554,0.0239729881287
9,0.00640988349915,0.00401210784912,0.00482797622681,0.000502824783325,0.0349450111389
10,0.00605297088623,0.00427222251892,0.00425887107849,0.000421047210693,0.0357141494751
11,0.0058798789978,0.00222301483154,0.00454092025757,0.000236034393311,0.0357828140259
12,0.00545811653137,0.00360608100891,0.00453805923462,0.000431060791016,0.0372231006622
13,0.00572323799133,0.00361800193787,0.00449705123901,0.000365018844604,0.0340690612793
14,0.00554800033569,0.00331091880798,0.00404906272888,0.000245094299316,0.0394082069397
15,0.00595879554749,0.00255584716797,0.00447702407837,0.000458955764771,0.0965111255646
16,0.00533294677734,0.00407791137695,0.00436902046204,0.000379085540771,0.042797088623
17,0.00535702705383,0.00315999984741,0.00445008277893,0.000362157821655,0.0430238246918
18,0.00502610206604,0.00352120399475,0.00424098968506,0.000380992889404,0.0445640087128
19,0.00577902793884,0.0036449432373,0.0044469833374,0.000447988510132,0.0461220741272
20,0.00524973869324,0.00232100486755,0.0043580532074,0.000269889831543,0.046902179718
21,0.00573897361755,0.0042130947113,0.00487399101257,0.000490188598633,0.0487279891968
22,0.00585508346558,0.00251603126526,0.00436282157898,0.000401020050049,0.0517139434814
23,0.00587606430054,0.0035707950592,0.00459814071655,0.000431060791016,0.0494771003723
24,0.00508570671082,0.0035719871521,0.0046911239624,0.000411987304688,0.052216053009
25,0.00475573539734,0.00230193138123,0.00343799591064,0.000253915786743,0.0378558635712
26,0.00489711761475,0.00370693206787,0.00428700447083,0.000440835952759,0.0542640686035
27,0.00512504577637,0.0035879611969,0.00478196144104,0.00049090385437,0.0617668628693
28,0.0052478313446,0.00382304191589,0.00463795661926,0.000449895858765,0.0569288730621
29,0.00523829460144,0.00424385070801,0.00459003448486,0.000464916229248,0.0444760322571
30,0.00520062446594,0.00363397598267,0.00429797172546,0.000405073165894,0.0593719482422
31,0.00486016273499,0.00339722633362,0.00398206710815,0.000370025634766,0.0593240261078
32,0.00547194480896,0.00418901443481,0.00450706481934,0.000414133071899,0.0651528835297
33,0.00478410720825,0.00241208076477,0.00442886352539,0.000364065170288,0.0619869232178
34,0.00494909286499,0.00234603881836,0.00411200523376,0.000365018844604,0.0634272098541
35,0.00530982017517,0.0036780834198,0.00443005561829,0.000428915023804,0.0652868747711
36,0.00490403175354,0.00346183776855,0.00407099723816,0.000273942947388,0.0655519962311
37,0.0059700012207,0.00404810905457,0.00465202331543,0.000515937805176,0.12820315361
38,0.00503587722778,0.00383400917053,0.00459003448486,0.000446081161499,0.0706479549408
39,0.00564312934875,0.00329685211182,0.00446105003357,0.000409126281738,0.0702750682831
40,0.00499892234802,0.00388598442078,0.00445294380188,0.000464916229248,0.0631539821625
41,0.00538611412048,0.00347399711609,0.00475311279297,0.000476837158203,0.071209192276
42,0.00535416603088,0.00404000282288,0.00468802452087,0.000425815582275,0.0528779029846
43,0.005126953125,0.00412583351135,0.00447106361389,0.000257968902588,0.0758180618286
44,0.00574612617493,0.00266814231873,0.00420999526978,0.000424146652222,0.0777678489685
45,0.00540113449097,0.00366616249084,0.00435614585876,0.000401020050049,0.0768730640411
46,0.0052490234375,0.00301718711853,0.00544714927673,0.000753879547119,0.139784097672
47,0.0040602684021,0.00270581245422,0.00469207763672,0.000517845153809,0.0777039527893
48,0.00561308860779,0.00279498100281,0.00465297698975,0.00049901008606,0.0827941894531
49,0.00593519210815,0.00420689582825,0.00481390953064,0.000307083129883,0.0840640068054
50,0.0052969455719,0.00392699241638,0.0051748752594,0.000524997711182,0.0839409828186
51,0.00452494621277,0.00430393218994,0.00478982925415,0.000566959381104,0.120667934418
52,0.00501799583435,0.0024049282074,0.00459694862366,0.000428915023804,0.0817978382111
53,0.0051600933075,0.00361895561218,0.0042290687561,0.000271797180176,0.0692138671875
54,0.00513792037964,0.00370311737061,0.00428795814514,0.000384092330933,0.0881099700928
55,0.00357484817505,0.00254797935486,0.00293803215027,0.000442028045654,0.138597011566
56,0.00519919395447,0.00368118286133,0.00485706329346,0.000442981719971,0.0927901268005
57,0.00525093078613,0.00359487533569,0.00474405288696,0.000432014465332,0.0922620296478
58,0.00409412384033,0.00238800048828,0.0042450428009,0.000272989273071,0.0927510261536
59,0.00347900390625,0.00238513946533,0.00425601005554,0.000264167785645,0.0786349773407
60,0.00513887405396,0.00402307510376,0.00477409362793,0.000452041625977,0.155972957611
61,0.00490689277649,0.00387597084045,0.0044310092926,0.000421047210693,0.0969791412354
62,0.00499701499939,0.00372695922852,0.00472187995911,0.00039005279541,0.0981800556183
63,0.00453686714172,0.00382900238037,0.0043420791626,0.000397920608521,0.0912809371948
64,0.00457620620728,0.0026171207428,0.00471019744873,0.000338077545166,0.145810842514
65,0.00492191314697,0.00359392166138,0.00279092788696,0.000274896621704,0.0999999046326
66,0.00448417663574,0.00407791137695,0.00416994094849,0.000281810760498,0.102030038834
67,0.00340008735657,0.00226998329163,0.00464200973511,0.000457048416138,0.102909088135
68,0.00488185882568,0.0032639503479,0.00471496582031,0.000529050827026,0.105406045914
69,0.00468707084656,0.00399494171143,0.00455713272095,0.000319957733154,0.107162952423
70,0.00518989562988,0.00393915176392,0.00441098213196,0.000457048416138,0.108593940735
71,0.00470781326294,0.00228214263916,0.00411009788513,0.000277042388916,0.108269929886
72,0.00497508049011,0.00334405899048,0.00477194786072,0.000345945358276,0.110344171524
73,0.00493717193604,0.00396800041199,0.0046079158783,0.000479936599731,0.110334157944
74,0.0050961971283,0.00382804870605,0.00438189506531,0.000432014465332,0.11451292038
75,0.00471305847168,0.00239491462708,0.00485706329346,0.000377893447876,0.115258932114
76,0.00393581390381,0.00458192825317,0.00459313392639,0.000527143478394,0.166817903519
77,0.00529384613037,0.00404191017151,0.00468587875366,0.000412225723267,0.107653856277
78,0.00437378883362,0.00425887107849,0.00263714790344,0.000319004058838,0.119098186493
79,0.00514388084412,0.00341606140137,0.00465989112854,0.000415086746216,0.118677139282
80,0.00453686714172,0.00318694114685,0.00477695465088,0.000411033630371,0.169158935547
81,0.00474095344543,0.00445413589478,0.00445103645325,0.000412940979004,0.122702121735
82,0.00527286529541,0.00396609306335,0.00430703163147,0.000399827957153,0.124413013458
83,0.00474309921265,0.00342297554016,0.00500416755676,0.000503063201904,0.107867956161
84,0.00506210327148,0.00255107879639,0.0045211315155,0.000406980514526,0.113862991333
85,0.00469303131104,0.003751039505,0.00258183479309,0.000276803970337,0.126829147339
86,0.00466108322144,0.00316500663757,0.00395894050598,0.000241994857788,0.127058982849
87,0.00457406044006,0.00444889068604,0.00475096702576,0.000475883483887,0.177749156952
88,0.00408601760864,0.00251984596252,0.00277495384216,0.000283002853394,0.129050970078
89,0.00493884086609,0.00381398200989,0.00447607040405,0.000404119491577,0.131037950516
90,0.00363087654114,0.00209498405457,0.00404191017151,0.000369787216187,0.10595202446
91,0.00502419471741,0.00420594215393,0.00483298301697,0.00051212310791,0.35871887207
92,0.00464296340942,0.00286388397217,0.00447201728821,0.000455856323242,0.136442899704
93,0.00502109527588,0.00219702720642,0.00405216217041,0.000270128250122,0.137737989426
94,0.00457286834717,0.00434303283691,0.00473093986511,0.000457048416138,0.195008039474
95,0.00368714332581,0.00270581245422,0.00445008277893,0.000419855117798,0.2932741642
96,0.00462126731873,0.00412917137146,0.00449109077454,0.000433921813965,0.131017923355
97,0.00348806381226,0.00235199928284,0.00426602363586,0.000425815582275,0.102728128433
98,0.0052707195282,0.00416088104248,0.0046980381012,0.00067400932312,0.219563007355
99,0.00438094139099,0.00379204750061,0.00461792945862,0.000478982925415,0.142278194427
