step,run,get,set,free,run_up_to_step
0,0.0104711055756,0.0191161632538,0.0179970264435,0.00340795516968,0.0110158920288
1,0.00326323509216,0.0174179077148,0.0177090167999,0.00330901145935,0.0134761333466
2,0.00382995605469,0.0174369812012,0.0178179740906,0.0032000541687,0.0254240036011
3,0.00345802307129,0.0169279575348,0.0167801380157,0.00337100028992,0.00993394851685
4,0.00336313247681,0.0171809196472,0.0172131061554,0.00312399864197,0.023362159729
5,0.00372791290283,0.017804145813,0.0178310871124,0.00330305099487,0.0112519264221
6,0.00324892997742,0.017040014267,0.0172250270844,0.00339698791504,0.0241429805756
7,0.00327801704407,0.0175740718842,0.0182099342346,0.00319695472717,0.0114388465881
8,0.0033860206604,0.0171060562134,0.0176758766174,0.00323486328125,0.0255389213562
9,0.00361204147339,0.0173301696777,0.0176990032196,0.00330185890198,0.025496006012
10,0.00370597839355,0.0169670581818,0.0173189640045,0.00356793403625,0.0292341709137
11,0.00360703468323,0.0168311595917,0.0175712108612,0.0029571056366,0.022402048111
12,0.00344014167786,0.0174448490143,0.0178480148315,0.00324487686157,0.0262060165405
13,0.00350427627563,0.0173799991608,0.0173850059509,0.00305914878845,0.0253520011902
14,0.00346207618713,0.0169851779938,0.0179908275604,0.00358200073242,0.0892050266266
15,0.00325798988342,0.0168251991272,0.0171730518341,0.00317311286926,0.0117588043213
16,0.00355696678162,0.0176889896393,0.0174980163574,0.00305318832397,0.0248010158539
17,0.00367999076843,0.0170879364014,0.0170359611511,0.00311708450317,0.0107491016388
18,0.00344800949097,0.0166881084442,0.0172460079193,0.00303983688354,0.0231719017029
19,0.00358390808105,0.0176978111267,0.017520904541,0.00342798233032,0.0246448516846
20,0.00340914726257,0.0167648792267,0.0169641971588,0.0032479763031,0.0224421024323
21,0.00355195999146,0.018285036087,0.0188961029053,0.00359296798706,0.024197101593
22,0.00344681739807,0.0168349742889,0.0173020362854,0.0029399394989,0.0248889923096
23,0.00373101234436,0.017275094986,0.0184998512268,0.00304102897644,0.0118582248688
24,0.00372815132141,0.0169670581818,0.0174679756165,0.00325417518616,0.0228600502014
25,0.00325727462769,0.0169208049774,0.0175049304962,0.00306296348572,0.0111391544342
26,0.00364398956299,0.0165529251099,0.0170640945435,0.00303506851196,0.0238170623779
27,0.00390291213989,0.0176148414612,0.0178210735321,0.00310206413269,0.0249619483948
28,0.00348806381226,0.0169200897217,0.0173950195312,0.00337195396423,0.0226449966431
29,0.00372791290283,0.0175099372864,0.0177359580994,0.00334191322327,0.0252568721771
30,0.00347924232483,0.0171091556549,0.0175731182098,0.00336599349976,0.025848865509
31,0.00325989723206,0.0403051376343,0.0178000926971,0.00311803817749,0.0798571109772
32,0.00346326828003,0.0166811943054,0.0175530910492,0.00297689437866,0.0123929977417
33,0.00376915931702,0.0178909301758,0.0182819366455,0.00337386131287,0.0406539440155
34,0.00336289405823,0.0165400505066,0.016988992691,0.00300407409668,0.0106239318848
35,0.00401592254639,0.0174140930176,0.0178020000458,0.00366592407227,0.0432879924774
36,0.00336813926697,0.0163960456848,0.0173881053925,0.00325703620911,0.0233769416809
37,0.00359010696411,0.0170180797577,0.0173439979553,0.00327014923096,0.0284559726715
38,0.0034339427948,0.0164301395416,0.0173909664154,0.00327014923096,0.0228490829468
39,0.00348806381226,0.0171718597412,0.0173048973083,0.00351905822754,0.0251250267029
40,0.0039267539978,0.0175800323486,0.0181210041046,0.00357985496521,0.0279810428619
41,0.00328683853149,0.0166671276093,0.017972946167,0.00321507453918,0.0105149745941
42,0.00377893447876,0.0173881053925,0.0183730125427,0.00334215164185,0.0272161960602
43,0.00343585014343,0.0167651176453,0.0179421901703,0.00334095954895,0.0253129005432
44,0.00603079795837,0.0177779197693,0.0177490711212,0.00337409973145,0.0270609855652
45,0.00349092483521,0.0167140960693,0.0171010494232,0.00327396392822,0.0101828575134
46,0.00352311134338,0.01700091362,0.0174598693848,0.00307583808899,0.0238471031189
47,0.00329899787903,0.0166010856628,0.0169270038605,0.0030620098114,0.0263118743896
48,0.00336694717407,0.0168149471283,0.0171160697937,0.00334215164185,0.0256319046021
49,0.00337481498718,0.0169839859009,0.017345905304,0.00313711166382,0.0654499530792
50,0.00393295288086,0.0178709030151,0.0172460079193,0.00324296951294,0.012727022171
51,0.00355386734009,0.0168921947479,0.0172929763794,0.0033130645752,0.0429921150208
52,0.00338912010193,0.0165889263153,0.0177881717682,0.00327706336975,0.0607159137726
53,0.00375413894653,0.0179409980774,0.0183608531952,0.00319695472717,0.0260190963745
54,0.0035572052002,0.0180370807648,0.0180201530457,0.0033700466156,0.0270998477936
55,0.00353980064392,0.0174570083618,0.0178990364075,0.00312399864197,0.0273990631104
56,0.00336003303528,0.0170719623566,0.0171589851379,0.00326895713806,0.0108799934387
57,0.00326108932495,0.0165178775787,0.0173199176788,0.00331497192383,0.0231409072876
58,0.00338077545166,0.016979932785,0.017853975296,0.0032479763031,0.0109348297119
59,0.00332093238831,0.0172290802002,0.0174090862274,0.00313091278076,0.0374720096588
60,0.00370597839355,0.0179071426392,0.0168600082397,0.00313997268677,0.0297739505768
61,0.00358033180237,0.0177619457245,0.0171120166779,0.00307989120483,0.0307030677795
62,0.00383973121643,0.0210108757019,0.017676115036,0.0031750202179,0.0112018585205
63,0.00361108779907,0.0173900127411,0.0179378986359,0.0032639503479,0.0237710475922
64,0.00360894203186,0.0177721977234,0.0182628631592,0.00346612930298,0.0273218154907
65,0.00354981422424,0.0179600715637,0.0182960033417,0.00349879264832,0.0261299610138
66,0.0035879611969,0.0166211128235,0.0169579982758,0.00310087203979,0.00986313819885
67,0.00343823432922,0.0165219306946,0.0170381069183,0.00299596786499,0.0918688774109
68,0.00336813926697,0.0167338848114,0.0171279907227,0.00306296348572,0.0235061645508
69,0.00340795516968,0.0165510177612,0.0170488357544,0.00295495986938,0.0231750011444
70,0.00338101387024,0.0167858600616,0.0170998573303,0.00313401222229,0.0235188007355
71,0.00348997116089,0.0164430141449,0.017098903656,0.00305700302124,0.0231359004974
72,0.00334787368774,0.0165038108826,0.0171408653259,0.00299501419067,0.0232799053192
73,0.00337100028992,0.0165550708771,0.0170259475708,0.0030460357666,0.0496129989624
74,0.00326704978943,0.0165908336639,0.017138004303,0.00304484367371,0.022894859314
75,0.00348114967346,0.0166230201721,0.0171661376953,0.00304698944092,0.0272300243378
76,0.00347208976746,0.0166988372803,0.0170609951019,0.00291299819946,0.0227670669556
77,0.00339984893799,0.0166158676147,0.0169548988342,0.00293302536011,0.0100250244141
78,0.00321698188782,0.0165679454803,0.0169930458069,0.00299406051636,0.0231590270996
79,0.00340485572815,0.0165619850159,0.0168490409851,0.00294995307922,0.0231738090515
80,0.00335192680359,0.0167469978333,0.0169780254364,0.00306010246277,0.023295879364
81,0.00331020355225,0.0167360305786,0.0169978141785,0.00296020507812,0.0235421657562
82,0.00345706939697,0.0166831016541,0.01691198349,0.00296497344971,0.0230169296265
83,0.00324392318726,0.0166530609131,0.0170741081238,0.00319600105286,0.0226609706879
84,0.00514221191406,0.0185809135437,0.0170149803162,0.0030779838562,0.0121350288391
85,0.00378608703613,0.0166440010071,0.0175228118896,0.00317311286926,0.109346866608
86,0.00328803062439,0.0169680118561,0.0171477794647,0.0031361579895,0.0255889892578
87,0.00333213806152,0.0168359279633,0.0175731182098,0.00339508056641,0.0234920978546
88,0.00334620475769,0.0167498588562,0.0171329975128,0.00315999984741,0.010635137558
89,0.00351810455322,0.0167391300201,0.0168700218201,0.00303292274475,0.0231070518494
90,0.00334787368774,0.0167279243469,0.017107963562,0.00319695472717,0.0252940654755
91,0.00345635414124,0.0168190002441,0.0172190666199,0.00311899185181,0.0240068435669
92,0.0032479763031,0.0168080329895,0.0171449184418,0.00311517715454,0.0233969688416
93,0.00332617759705,0.0165691375732,0.0170350074768,0.00318098068237,0.0234351158142
94,0.00337696075439,0.0167298316956,0.0171048641205,0.00397896766663,0.0237438678741
95,0.00324082374573,0.0166819095612,0.0170090198517,0.00308299064636,0.0485351085663
96,0.00329685211182,0.0166020393372,0.0170550346375,0.0031270980835,0.0233380794525
97,0.0033278465271,0.0166330337524,0.0170340538025,0.00305795669556,0.0233490467072
98,0.00329518318176,0.016811132431,0.016932964325,0.00299906730652,0.024915933609
99,0.00340414047241,0.0167961120605,0.0170860290527,0.00308704376221,0.0237069129944
