step,run,get,set,free,run_up_to_step
0,1.09247589111,0.275671958923,0.322728872299,0.0597188472748,0.597985029221
1,0.297794103622,0.274713039398,0.294714927673,0.0692670345306,1.1488969326
2,0.349406242371,0.283232212067,0.301891088486,0.0724730491638,1.70651388168
3,0.299552202225,0.288177013397,0.303272008896,0.0675098896027,1.35902500153
4,0.309871912003,0.276534795761,0.29708313942,0.065710067749,1.97441387177
5,0.311909198761,0.309634923935,0.292984008789,0.0771880149841,2.55299305916
6,0.292459964752,0.30150103569,0.29713010788,0.0746529102325,2.64814114571
7,0.309487819672,0.341652154922,0.306259870529,0.0821831226349,3.42078399658
8,0.305011987686,0.32181596756,0.30649805069,0.0691330432892,3.74598312378
9,0.295143127441,0.326657056808,0.32088303566,0.0780930519104,3.85512709618
10,0.322286128998,0.330078840256,0.354867935181,0.0882029533386,4.34425115585
11,0.330528020859,0.336222887039,0.317577123642,0.08455991745,4.40044403076
12,0.345191955566,0.325189113617,0.341360092163,0.0813701152802,5.14968514442
13,0.335909843445,0.326200962067,0.355467796326,0.075217962265,4.98544096947
14,0.325829744339,0.314413070679,0.333675861359,0.0762341022491,5.04545998573
15,0.340273141861,0.29509806633,0.353279829025,0.074737071991,5.51120495796
16,0.342901706696,0.303417921066,0.37795996666,0.0753428936005,5.82015419006
17,0.323165893555,0.303390979767,0.364294052124,0.078292131424,6.2802529335
18,0.338846921921,0.319846153259,0.321990013123,0.088103055954,6.47122502327
19,0.340187072754,0.312613010406,0.309710025787,0.0784921646118,7.16739416122
20,0.346242904663,0.357793092728,0.319829940796,0.0840620994568,6.84594106674
21,0.389455318451,0.309850931168,0.338433027267,0.0770170688629,7.60549402237
22,0.326767921448,0.2960460186,0.29733300209,0.0775890350342,7.65211296082
23,0.325697183609,0.3060131073,0.323765993118,0.0768799781799,7.75522398949
24,0.335189819336,0.336736917496,0.323905944824,0.0709779262543,8.84196305275
25,0.352339029312,0.305636167526,0.313839912415,0.0746719837189,8.34406399727
26,0.374971866608,0.31574511528,0.320068836212,0.0833702087402,8.63638615608
27,0.322999954224,0.315292835236,0.330574989319,0.0869901180267,8.89141201973
28,0.325114965439,0.313331842422,0.318093061447,0.0805859565735,9.94054603577
29,0.344096422195,0.324237108231,0.342344999313,0.0814020633698,9.36637616158
30,0.326982021332,0.317720174789,0.336287975311,0.0722060203552,10.3493208885
31,0.329573869705,0.299993991852,0.305783033371,0.0771260261536,10.9503750801
32,0.333044052124,0.288794994354,0.307204008102,0.0737261772156,11.1429798603
33,0.3481092453,0.316881895065,0.335255861282,0.0690090656281,10.8265190125
34,0.355509996414,0.278260946274,0.311517953873,0.0717329978943,10.8835110664
35,0.339812040329,0.29703783989,0.312033891678,0.0691130161285,11.4534978867
36,0.325676202774,0.293195009232,0.308454990387,0.076092004776,11.3522071838
37,0.35898399353,0.283710002899,0.453844070435,0.071524143219,12.7413189411
38,0.336730241776,0.299388170242,0.320474863052,0.0767409801483,11.8667929173
39,0.324902772903,0.300092935562,0.462474107742,0.0888600349426,12.3056130409
40,0.328598022461,0.29384803772,0.314668178558,0.0769810676575,12.7277231216
41,0.304975032806,0.270890951157,0.473037958145,0.0755372047424,13.370606184
42,0.343715906143,0.291657209396,0.317477941513,0.0696558952332,13.1232049465
43,0.343259811401,0.278532981873,0.313047885895,0.0707769393921,13.4585690498
44,0.315736055374,0.271824836731,0.360934019089,0.0695040225983,14.2812509537
45,0.340953826904,0.299065828323,0.349623918533,0.0722668170929,13.7687301636
46,0.339684009552,0.2966401577,0.322901964188,0.0726969242096,14.0001809597
47,0.314189910889,0.270916938782,0.308557987213,0.0672779083252,15.0061640739
48,0.324398040771,0.291913986206,0.325704813004,0.0712459087372,15.5146808624
49,0.32555603981,0.291074991226,0.321706056595,0.0743639469147,15.0727939606
50,0.342873096466,0.287667989731,0.315690040588,0.0749599933624,15.993227005
51,0.326226949692,0.271865129471,0.3286921978,0.0731680393219,16.3283720016
52,0.326319217682,0.288788795471,0.309658050537,0.0711619853973,15.8178501129
53,0.309247016907,0.265377998352,0.309502840042,0.0692059993744,16.8457210064
54,0.347666740417,0.284562110901,0.307840108871,0.0705769062042,16.2274098396
55,0.358304977417,0.278563976288,0.32640504837,0.0670528411865,16.3718700409
56,0.353751897812,0.278611898422,0.299491882324,0.070729970932,16.884116888
57,0.32208609581,0.268387079239,0.315989971161,0.0714638233185,17.9909718037
58,0.326899051666,0.276623010635,0.316123962402,0.0722959041595,17.6410889626
59,0.345155000687,0.275993108749,0.308033943176,0.0660700798035,18.5776011944
60,0.338682889938,0.282027959824,0.289524078369,0.0678858757019,17.648537159
61,0.315278053284,0.265356063843,0.326857089996,0.0731108188629,18.2737379074
62,0.323437929153,0.263393163681,0.315158843994,0.0657489299774,18.6594219208
63,0.337559938431,0.260874032974,0.313658952713,0.071350812912,18.6895399094
64,0.35994887352,0.282353878021,0.319672822952,0.0708260536194,19.0253288746
65,0.328214168549,0.270258903503,0.326131820679,0.0679290294647,19.2373759747
66,0.37379693985,0.287343025208,0.503715991974,0.0703740119934,19.5019669533
67,0.369980812073,0.277951002121,0.318258047104,0.0708870887756,20.0832879543
68,0.314096927643,0.285372018814,0.516793012619,0.0738987922668,20.0012221336
69,0.330637931824,0.278527975082,0.415319919586,0.0669820308685,20.1751070023
70,0.32562994957,0.281270980835,0.364698886871,0.0712330341339,20.7114081383
71,0.325502872467,0.306069135666,0.304587125778,0.0682229995728,21.5326550007
72,0.318789720535,0.32030916214,0.314572811127,0.0693330764771,22.2828269005
73,0.323858976364,0.260151863098,0.49841594696,0.0763311386108,22.6194570065
74,0.320302009583,0.274134159088,0.430854082108,0.0715250968933,21.7568809986
75,0.32195520401,0.278944015503,0.303651094437,0.0711328983307,22.6050739288
76,0.342188119888,0.275945186615,0.293121814728,0.0616011619568,23.3116889
77,0.322550058365,0.284122943878,0.302151203156,0.0697419643402,23.6714510918
78,0.333603143692,0.265430212021,0.303504228592,0.0657730102539,24.1841228008
79,0.331519842148,0.279963970184,0.302529096603,0.0709471702576,24.1945941448
80,0.335264921188,0.278735160828,0.294912099838,0.0681138038635,24.4440219402
81,0.321660995483,0.271471977234,0.298648118973,0.0670390129089,23.7433331013
82,0.314388036728,0.258962869644,0.289849042892,0.0640299320221,24.0036280155
83,0.323308944702,0.268181085587,0.30569601059,0.0681529045105,24.204146862
84,0.323653936386,0.272499084473,0.492321968079,0.0667870044708,24.4465420246
85,0.321821212769,0.271867036819,0.426592111588,0.0647268295288,24.7674708366
86,0.330466032028,0.273736953735,0.303079128265,0.069874048233,25.1920340061
87,0.342641115189,0.271708011627,0.307291984558,0.0699768066406,26.6478538513
88,0.319289922714,0.2835688591,0.299175024033,0.0679230690002,26.8235239983
89,0.324557065964,0.276786804199,0.309771060944,0.0676789283752,26.8762869835
90,0.321976900101,0.271869182587,0.343243837357,0.0747499465942,26.5221939087
91,0.307710886002,0.263508081436,0.307396888733,0.0732080936432,26.0879359245
92,0.323719024658,0.279309034348,0.293734073639,0.06773686409,26.7054030895
93,0.325817108154,0.278925180435,0.28989481926,0.0644550323486,27.0118720531
94,0.325421094894,0.277271032333,0.307147026062,0.074285030365,27.9874260426
95,0.329497098923,0.271917819977,0.544492006302,0.0706949234009,28.705039978
96,0.328151941299,0.276129007339,0.300033807755,0.0680201053619,28.2822070122
97,0.353313922882,0.276695013046,0.301875829697,0.0690500736237,29.5709559917
98,0.334453105927,0.275582790375,0.300614118576,0.0679550170898,29.5752949715
99,0.340209960938,0.277749061584,0.297862052917,0.0689580440521,29.9252660275
