step,run,get,set,free,run_up_to_step
0,0.00675582885742,0.00760507583618,0.00785207748413,0.000750064849854,0.00731015205383
1,0.00551891326904,0.00873994827271,0.00803208351135,0.000838994979858,0.00814700126648
2,0.00506496429443,0.00695300102234,0.0076539516449,0.000777006149292,0.00886201858521
3,0.00476503372192,0.00705695152283,0.00759315490723,0.00072193145752,0.00999212265015
4,0.00501823425293,0.00701379776001,0.00779414176941,0.00070595741272,0.0110051631927
5,0.00470304489136,0.00713086128235,0.0077919960022,0.000741004943848,0.0121529102325
6,0.00491404533386,0.00700688362122,0.00791096687317,0.000895977020264,0.0131769180298
7,0.00472807884216,0.00725102424622,0.00796604156494,0.000725984573364,0.0145461559296
8,0.00482082366943,0.00697803497314,0.00780987739563,0.000811100006104,0.0152781009674
9,0.00463700294495,0.00713491439819,0.00774502754211,0.000745058059692,0.0164568424225
10,0.00488471984863,0.00700712203979,0.00771307945251,0.000792980194092,0.0173881053925
11,0.00498104095459,0.00705003738403,0.00771689414978,0.000820875167847,0.01877784729
12,0.00538301467896,0.00788283348083,0.00833201408386,0.000826120376587,0.0230441093445
13,0.00524234771729,0.00785517692566,0.0084400177002,0.000940084457397,0.0232529640198
14,0.00542211532593,0.0076699256897,0.0082221031189,0.000890016555786,0.0226001739502
15,0.00497817993164,0.00763607025146,0.00889110565186,0.000983953475952,0.0245661735535
16,0.00503706932068,0.00778293609619,0.00854706764221,0.000996112823486,0.0251138210297
17,0.00484204292297,0.00786399841309,0.00856900215149,0.000962018966675,0.02681183815
18,0.00555300712585,0.0079710483551,0.00851893424988,0.00143003463745,0.0276870727539
19,0.00556612014771,0.00800800323486,0.00879192352295,0.00116300582886,0.0286591053009
20,0.00489091873169,0.00767707824707,0.00848007202148,0.000970840454102,0.029639005661
21,0.00576686859131,0.00805306434631,0.00831007957458,0.000944137573242,0.0311269760132
22,0.00550389289856,0.00861310958862,0.00917291641235,0.000916957855225,0.0341510772705
23,0.00586533546448,0.00838899612427,0.00904607772827,0.00121998786926,0.0382130146027
24,0.0049889087677,0.00829386711121,0.00846791267395,0.00109791755676,0.0352401733398
25,0.00512075424194,0.00799894332886,0.00839304924011,0.000994920730591,0.0360980033875
26,0.0050687789917,0.00789213180542,0.0083441734314,0.00101900100708,0.036602973938
27,0.00497722625732,0.00781202316284,0.00833296775818,0.000949859619141,0.038675069809
28,0.00489211082458,0.00760507583618,0.00943899154663,0.000998973846436,0.0391039848328
29,0.00523805618286,0.00911498069763,0.009122133255,0.00106596946716,0.0470330715179
30,0.00605297088623,0.00859594345093,0.00904703140259,0.00111889839172,0.0450608730316
31,0.00485801696777,0.00833606719971,0.00867199897766,0.00114297866821,0.042405128479
32,0.00485491752625,0.00834393501282,0.00846791267395,0.000998973846436,0.0436780452728
33,0.00495290756226,0.00809502601624,0.00934195518494,0.00104093551636,0.044527053833
34,0.00507092475891,0.00785493850708,0.00835514068604,0.00103402137756,0.0493497848511
35,0.00497078895569,0.00877785682678,0.00923705101013,0.00121903419495,0.117873907089
36,0.00509119033813,0.00845098495483,0.00847411155701,0.00103497505188,0.0483038425446
37,0.00499391555786,0.00805592536926,0.00939702987671,0.00111198425293,0.049388885498
38,0.00527000427246,0.00800704956055,0.00838303565979,0.000873804092407,0.0546379089355
39,0.00507807731628,0.0076060295105,0.0081160068512,0.000792980194092,0.0509271621704
40,0.0082688331604,0.00743985176086,0.00814700126648,0.000849962234497,0.0540060997009
41,0.00505781173706,0.00904488563538,0.00926208496094,0.00121808052063,0.116410970688
42,0.0045108795166,0.00880312919617,0.0093150138855,0.00122499465942,0.0586938858032
43,0.00469899177551,0.00853800773621,0.00903391838074,0.00118899345398,0.0611720085144
44,0.00450682640076,0.00832986831665,0.00870800018311,0.00101399421692,0.0597620010376
45,0.00446224212646,0.00827598571777,0.00853514671326,0.000972986221313,0.060348033905
46,0.00462818145752,0.00775003433228,0.00850701332092,0.000867128372192,0.0622448921204
47,0.00458788871765,0.00897598266602,0.00914406776428,0.00132703781128,0.123197078705
48,0.00439095497131,0.00841593742371,0.00887012481689,0.00113892555237,0.0640861988068
49,0.00453591346741,0.00812387466431,0.00835204124451,0.00107216835022,0.0653538703918
50,0.00470614433289,0.00746083259583,0.00813007354736,0.000842094421387,0.0655879974365
51,0.00464987754822,0.00756192207336,0.00803017616272,0.00080418586731,0.0667150020599
52,0.00416111946106,0.00866413116455,0.00861001014709,0.00102519989014,0.123554944992
53,0.00404024124146,0.0080931186676,0.00845694541931,0.000946044921875,0.0670471191406
54,0.00427913665771,0.00784611701965,0.00833106040955,0.000908136367798,0.0684299468994
55,0.0043957233429,0.00771617889404,0.0082380771637,0.000963926315308,0.0689871311188
56,0.00427603721619,0.00765585899353,0.00800514221191,0.00088095664978,0.0697190761566
57,0.00448417663574,0.00716018676758,0.00784301757812,0.000758171081543,0.0708501338959
58,0.00423216819763,0.00826382637024,0.0087308883667,0.00103807449341,0.133701086044
59,0.00475478172302,0.00877213478088,0.00884008407593,0.00105214118958,0.0815870761871
60,0.00454878807068,0.00786685943604,0.00860619544983,0.000946044921875,0.0786390304565
61,0.0046968460083,0.00766706466675,0.00815320014954,0.000849962234497,0.0792140960693
62,0.00485587120056,0.00760698318481,0.00805521011353,0.000808954238892,0.0794219970703
63,0.102823257446,0.00786590576172,0.0085620880127,0.00103378295898,0.148298025131
64,0.00461792945862,0.00803399085999,0.00869107246399,0.000965118408203,0.0823149681091
65,0.0050847530365,0.00869107246399,0.00881195068359,0.000986814498901,0.0831789970398
66,0.00476694107056,0.00797009468079,0.00837802886963,0.000856876373291,0.0903170108795
67,0.00457715988159,0.00766706466675,0.00833082199097,0.00092601776123,0.0838570594788
68,0.00451302528381,0.00773906707764,0.00955605506897,0.00125312805176,0.0885369777679
69,0.0045211315155,0.0080361366272,0.00890803337097,0.000988960266113,0.0869200229645
70,0.00490999221802,0.0080029964447,0.00852584838867,0.000951051712036,0.0882239341736
71,0.00455784797668,0.00776696205139,0.008465051651,0.000916004180908,0.0886199474335
72,0.0046329498291,0.00776386260986,0.00826716423035,0.000936031341553,0.0900371074677
73,0.00448703765869,0.00859785079956,0.00896406173706,0.00112795829773,0.152628183365
74,0.00453519821167,0.00794386863708,0.00882983207703,0.00109481811523,0.0982949733734
75,0.00493788719177,0.00800609588623,0.00852108001709,0.000946998596191,0.0953118801117
76,0.00458097457886,0.00777101516724,0.00848698616028,0.000895977020264,0.0931589603424
77,0.0043568611145,0.00774812698364,0.00833511352539,0.000848054885864,0.0960211753845
78,0.00440406799316,0.00742506980896,0.00813007354736,0.000830888748169,0.0966529846191
79,0.00458765029907,0.00836801528931,0.00887489318848,0.00108909606934,0.175944805145
80,0.00464677810669,0.0081160068512,0.00846719741821,0.00111699104309,0.0999510288239
81,0.00472211837769,0.00788402557373,0.00801801681519,0.00086498260498,0.100469112396
82,0.00422191619873,0.00716185569763,0.00781297683716,0.000823974609375,0.101073980331
83,0.00420784950256,0.00794911384583,0.00838994979858,0.000929832458496,0.146172046661
84,0.00420522689819,0.00752305984497,0.00812697410583,0.000816822052002,0.100182056427
85,0.00418186187744,0.00712394714355,0.00795102119446,0.000837087631226,0.0998060703278
86,0.00417304039001,0.00709414482117,0.00761795043945,0.000730037689209,0.101758003235
87,0.00412201881409,0.00787210464478,0.00820899009705,0.000913143157959,0.149453878403
88,0.00420999526978,0.0076630115509,0.00827407836914,0.00112295150757,0.103864908218
89,0.00697708129883,0.00785899162292,0.00843787193298,0.00101280212402,0.114286184311
90,0.00455904006958,0.00751709938049,0.00793886184692,0.000802993774414,0.110284090042
91,0.00453281402588,0.00845098495483,0.00850796699524,0.00109887123108,0.162220954895
92,0.00469875335693,0.00791907310486,0.00905799865723,0.00114297866821,0.113626003265
93,0.00473403930664,0.00793218612671,0.0082700252533,0.000993967056274,0.113900899887
94,0.00443506240845,0.0075249671936,0.0080828666687,0.000875949859619,0.114755868912
95,0.00454211235046,0.00848793983459,0.00904703140259,0.00120806694031,0.114104986191
96,0.00466418266296,0.00843405723572,0.00886297225952,0.000997066497803,0.122051000595
97,0.00457787513733,0.00777411460876,0.00801992416382,0.000893115997314,0.12588095665
98,0.00452399253845,0.00739002227783,0.0082688331604,0.000869035720825,0.117957115173
99,0.00455975532532,0.00727510452271,0.00929307937622,0.00105309486389,0.121172904968
