step,run,get,set,free,run_up_to_step
0,0.068675994873,0.00695586204529,0.00654602050781,0.000874042510986,0.0708420276642
1,0.0221500396729,0.00585985183716,0.00684905052185,0.000921964645386,0.0776281356812
2,0.0263011455536,0.0061628818512,0.00678491592407,0.000894784927368,0.117439031601
3,0.0184500217438,0.00628805160522,0.00701689720154,0.00116109848022,0.0837872028351
4,0.0176520347595,0.00642395019531,0.0071120262146,0.000970840454102,0.0924670696259
5,0.0180921554565,0.00654101371765,0.00683808326721,0.000963926315308,0.095202922821
6,0.0174479484558,0.00649690628052,0.00683784484863,0.000950813293457,0.0944509506226
7,0.0167238712311,0.00613498687744,0.00686502456665,0.000959873199463,0.0949320793152
8,0.0368509292603,0.00628805160522,0.00689005851746,0.00100493431091,0.0981349945068
9,0.0163769721985,0.00652003288269,0.00683617591858,0.000970125198364,0.10608291626
10,0.01664686203,0.00659012794495,0.0069899559021,0.00100088119507,0.119888067245
11,0.0162470340729,0.00648593902588,0.00673007965088,0.000958919525146,0.101073980331
12,0.0170862674713,0.00641512870789,0.00683999061584,0.0010290145874,0.104866027832
13,0.016578912735,0.00607800483704,0.00690317153931,0.0010712146759,0.11579990387
14,0.016040802002,0.00627708435059,0.00757098197937,0.00145483016968,0.11909198761
15,0.0157778263092,0.00637483596802,0.00689196586609,0.00110101699829,0.14259314537
16,0.0170831680298,0.00642108917236,0.0068838596344,0.00114297866821,0.123553037643
17,0.0166218280792,0.00673317909241,0.00707316398621,0.00118088722229,0.130331039429
18,0.0169479846954,0.00659990310669,0.00704503059387,0.00116419792175,0.124302148819
19,0.0161969661713,0.0066180229187,0.00706219673157,0.00122594833374,0.124119997025
20,0.0169923305511,0.00665593147278,0.00712203979492,0.00122094154358,0.135158061981
21,0.0142750740051,0.00688910484314,0.00696301460266,0.00116300582886,0.14154791832
22,0.0141217708588,0.00693488121033,0.00683999061584,0.00112295150757,0.13590502739
23,0.0137066841125,0.00634002685547,0.00673294067383,0.00111508369446,0.132694959641
24,0.0136840343475,0.00662708282471,0.00721001625061,0.00129103660583,0.175389051437
25,0.0143971443176,0.00648593902588,0.00705718994141,0.00128316879272,0.186165809631
26,0.0136787891388,0.00667691230774,0.00692987442017,0.00117516517639,0.149986982346
27,0.0142347812653,0.00671195983887,0.00715708732605,0.00126504898071,0.152836084366
28,0.0148859024048,0.00684309005737,0.00674390792847,0.00110006332397,0.152697086334
29,0.0149309635162,0.0070948600769,0.00715899467468,0.00135707855225,0.181795120239
30,0.0140478610992,0.00660014152527,0.00682997703552,0.00113081932068,0.157107114792
31,0.0149760246277,0.00644302368164,0.00683999061584,0.00126004219055,0.165513038635
32,0.0154368877411,0.0062210559845,0.00797486305237,0.0015549659729,0.160756826401
33,0.0141906738281,0.00656604766846,0.00698494911194,0.00125694274902,0.166226148605
34,0.0145888328552,0.00668811798096,0.0070161819458,0.00133299827576,0.165849924088
35,0.0157210826874,0.00648808479309,0.00719499588013,0.00126814842224,0.170753955841
36,0.0145001411438,0.00650501251221,0.00685787200928,0.00123715400696,0.170288085938
37,0.0143258571625,0.00656604766846,0.00789093971252,0.00169706344604,0.204905033112
38,0.0149369239807,0.00681519508362,0.00731205940247,0.00134706497192,0.183028936386
39,0.0149438381195,0.00689387321472,0.00732898712158,0.00141191482544,0.188719987869
40,0.0135021209717,0.0066819190979,0.00708889961243,0.001296043396,0.186755180359
41,0.0143501758575,0.00723505020142,0.00759291648865,0.00168204307556,0.189583063126
42,0.0138230323792,0.00675201416016,0.00767111778259,0.00171494483948,0.189732074738
43,0.0134637355804,0.00661301612854,0.00704002380371,0.00129914283752,0.193381071091
44,0.0139541625977,0.00704407691956,0.00721788406372,0.00141191482544,0.194396972656
45,0.0139758586884,0.00691103935242,0.00687003135681,0.0012321472168,0.199796915054
46,0.0139119625092,0.00642490386963,0.00669717788696,0.00116586685181,0.195463180542
47,0.0141530036926,0.00651097297668,0.00733304023743,0.00143480300903,0.316824913025
48,0.0140521526337,0.0065701007843,0.00693202018738,0.00133085250854,0.208528995514
49,0.0139203071594,0.00642991065979,0.00706601142883,0.00128602981567,0.237284898758
50,0.0136561393738,0.00643110275269,0.00680303573608,0.00128102302551,0.214046955109
51,0.0135538578033,0.0064799785614,0.00734281539917,0.0014328956604,0.268366098404
52,0.0140581130981,0.00672292709351,0.00697302818298,0.00136494636536,0.216935873032
53,0.0142350196838,0.00665402412415,0.00692486763,0.00145983695984,0.254472970963
54,0.0158381462097,0.00721597671509,0.00737404823303,0.00148582458496,0.214723110199
55,0.0147969722748,0.00685501098633,0.00713801383972,0.00137281417847,0.279820203781
56,0.0130791664124,0.00668907165527,0.0069899559021,0.00135493278503,0.234499931335
57,0.0126750469208,0.00681519508362,0.00719094276428,0.00146007537842,0.22300195694
58,0.0130920410156,0.00693297386169,0.00752091407776,0.00139093399048,0.235860109329
59,0.0126688480377,0.00658893585205,0.00713801383972,0.00139498710632,0.302356004715
60,0.013081073761,0.00710105895996,0.00721597671509,0.00147700309753,0.237937927246
61,0.0130760669708,0.00683999061584,0.00710582733154,0.00139284133911,0.251305103302
62,0.0129430294037,0.00688695907593,0.00684809684753,0.00132298469543,0.252174139023
63,0.0132148265839,0.00672101974487,0.00735998153687,0.00150799751282,0.307875871658
64,0.0137269496918,0.00699019432068,0.00726795196533,0.00156092643738,0.260504007339
65,0.0132517814636,0.00668692588806,0.00694489479065,0.00138807296753,0.252867937088
66,0.013158082962,0.00680494308472,0.0071120262146,0.00165176391602,0.256711959839
67,0.0138258934021,0.00699496269226,0.00738310813904,0.00150513648987,0.31303191185
68,0.0138120651245,0.00692200660706,0.00701093673706,0.00139999389648,0.293483018875
69,0.0125210285187,0.00684309005737,0.00692296028137,0.00139689445496,0.255043029785
70,0.0126810073853,0.00724697113037,0.00753283500671,0.00152897834778,0.32853603363
71,0.0151832103729,0.00670099258423,0.00711607933044,0.0016930103302,0.272346019745
72,0.0132331848145,0.00696992874146,0.00717210769653,0.00153207778931,0.271601915359
73,0.0141897201538,0.00664806365967,0.00693702697754,0.00146293640137,0.285163879395
74,0.0123648643494,0.00671601295471,0.00796484947205,0.00163006782532,0.284981966019
75,0.0131511688232,0.00701594352722,0.00708484649658,0.00143194198608,0.292344093323
76,0.0132789611816,0.00687289237976,0.00724601745605,0.00161099433899,0.283038854599
77,0.0130081176758,0.0065610408783,0.00675106048584,0.00136709213257,0.27746295929
78,0.0132286548615,0.00707387924194,0.00785207748413,0.00164294242859,0.351198196411
79,0.0125257968903,0.00693106651306,0.00703692436218,0.00165486335754,0.291438102722
80,0.0132021903992,0.00688719749451,0.00704383850098,0.00146913528442,0.298490047455
81,0.013729095459,0.00653791427612,0.00823879241943,0.00173711776733,0.306150913239
82,0.0130250453949,0.00680303573608,0.00716090202332,0.00148010253906,0.296242952347
83,0.0126011371613,0.0068531036377,0.00733780860901,0.00175499916077,0.307350158691
84,0.013237953186,0.00691294670105,0.00711107254028,0.00141000747681,0.308486938477
85,0.0127532482147,0.00749397277832,0.00749492645264,0.00157999992371,0.375863075256
86,0.0126240253448,0.00705099105835,0.00735092163086,0.00156688690186,0.321683883667
87,0.0131230354309,0.00706005096436,0.00773620605469,0.00151491165161,0.304100990295
88,0.0125060081482,0.00685596466064,0.00769281387329,0.00162100791931,0.50485086441
89,0.0125999450684,0.00651597976685,0.0072181224823,0.00147700309753,0.321870803833
90,0.014671087265,0.00711297988892,0.00728797912598,0.00154089927673,0.318331956863
91,0.0563781261444,0.00738286972046,0.00729012489319,0.00145387649536,0.328931093216
92,0.0133628845215,0.00679087638855,0.0075249671936,0.00151610374451,0.330123186111
93,0.0130362510681,0.00668501853943,0.00745296478271,0.00164294242859,0.325860977173
94,0.0130801200867,0.00686097145081,0.00711798667908,0.00147008895874,0.318742036819
95,0.01291680336,0.00700211524963,0.00773000717163,0.00157904624939,0.395045995712
96,0.013649225235,0.0070469379425,0.00720500946045,0.00150418281555,0.345340967178
97,0.0130009651184,0.00700402259827,0.00741410255432,0.0015869140625,0.331971168518
98,0.0126481056213,0.00728607177734,0.00756597518921,0.00161099433899,0.402720212936
99,0.0131742954254,0.00691294670105,0.00746202468872,0.00162100791931,0.338495016098
