step,run,get,set,free,run_up_to_step
0,0.0135691165924,0.00231385231018,0.00211596488953,0.000280857086182,0.0148639678955
1,0.0062780380249,0.00205707550049,0.00212979316711,0.000288009643555,0.0182330608368
2,0.00495910644531,0.00211095809937,0.00208401679993,0.000280141830444,0.0177400112152
3,0.00518393516541,0.00213503837585,0.0020968914032,0.000285863876343,0.0197169780731
4,0.004469871521,0.00207281112671,0.00206780433655,0.000280857086182,0.0216610431671
5,0.00476098060608,0.00206208229065,0.00214791297913,0.000288009643555,0.0651209354401
6,0.00428199768066,0.00205087661743,0.00210905075073,0.000281810760498,0.0349650382996
7,0.00431799888611,0.00204586982727,0.00218820571899,0.000284910202026,0.0329248905182
8,0.00404000282288,0.00203013420105,0.00216794013977,0.000285148620605,0.0226550102234
9,0.00410199165344,0.0020809173584,0.00217509269714,0.000282049179077,0.0231549739838
10,0.00414299964905,0.0021550655365,0.00215697288513,0.000287055969238,0.0254240036011
11,0.0043740272522,0.00212788581848,0.00213313102722,0.000286102294922,0.0272700786591
12,0.00447797775269,0.00204205513,0.00236296653748,0.000369071960449,0.0271000862122
13,0.00486397743225,0.00208401679993,0.00215601921082,0.000285863876343,0.0295917987823
14,0.00508689880371,0.00223183631897,0.00219702720642,0.000293016433716,0.0293538570404
15,0.00433707237244,0.00213503837585,0.00216579437256,0.000284910202026,0.0308840274811
16,0.00409603118896,0.00202894210815,0.0021641254425,0.000281095504761,0.0297219753265
17,0.00412702560425,0.00202083587646,0.00209879875183,0.000282049179077,0.0306890010834
18,0.00410199165344,0.00196290016174,0.00213003158569,0.00028395652771,0.0313358306885
19,0.00419998168945,0.00198483467102,0.00250601768494,0.000380039215088,0.0486149787903
20,0.0044219493866,0.00224709510803,0.00218296051025,0.000290870666504,0.0357549190521
21,0.00374388694763,0.00218200683594,0.00227403640747,0.00030517578125,0.0356340408325
22,0.00457191467285,0.00200510025024,0.00215601921082,0.000291109085083,0.0384140014648
23,0.00376915931702,0.0020580291748,0.00220012664795,0.000293016433716,0.0393979549408
24,0.00363516807556,0.0020158290863,0.00216817855835,0.000285148620605,0.0393960475922
25,0.00361800193787,0.00201010704041,0.00208282470703,0.000293016433716,0.0377612113953
26,0.00362682342529,0.00231599807739,0.00219011306763,0.000297069549561,0.0813550949097
27,0.00359892845154,0.00221300125122,0.00213408470154,0.00029993057251,0.0422639846802
28,0.00400304794312,0.00215291976929,0.0022828578949,0.000296831130981,0.0432770252228
29,0.003662109375,0.00197887420654,0.00208902359009,0.000287055969238,0.0443389415741
30,0.00392389297485,0.00204610824585,0.00212597846985,0.000293016433716,0.046089887619
31,0.00428819656372,0.00195813179016,0.00209093093872,0.000282049179077,0.0456330776215
32,0.00390481948853,0.0021390914917,0.00274586677551,0.000369071960449,0.0457360744476
33,0.00372099876404,0.00220203399658,0.00226306915283,0.000292062759399,0.046984910965
34,0.00356101989746,0.00223803520203,0.00209999084473,0.000288963317871,0.0457708835602
35,0.00424909591675,0.00206613540649,0.00220108032227,0.000291109085083,0.0463421344757
36,0.00365591049194,0.0022280216217,0.00220203399658,0.000298976898193,0.047721862793
37,0.00388598442078,0.002032995224,0.00226783752441,0.000298976898193,0.0516769886017
38,0.00400900840759,0.00202608108521,0.00261998176575,0.000375986099243,0.0496628284454
39,0.00370597839355,0.00226998329163,0.00219082832336,0.000296115875244,0.0561380386353
40,0.00393724441528,0.00213098526001,0.00234699249268,0.000296115875244,0.0850601196289
41,0.00367021560669,0.00222182273865,0.00214719772339,0.000290870666504,0.054780960083
42,0.00367093086243,0.00215411186218,0.00209784507751,0.00029182434082,0.0525670051575
43,0.00430488586426,0.00199913978577,0.00227499008179,0.000290870666504,0.0535390377045
44,0.00364398956299,0.00208520889282,0.00209808349609,0.000283002853394,0.0558688640594
45,0.00423884391785,0.00284194946289,0.00231504440308,0.000308990478516,0.118049144745
46,0.00355672836304,0.00232291221619,0.00235390663147,0.000308036804199,0.0598590373993
47,0.00388622283936,0.00237393379211,0.00239086151123,0.000303030014038,0.0612251758575
48,0.0035879611969,0.00214600563049,0.00216698646545,0.000287055969238,0.0587270259857
49,0.00388193130493,0.00206279754639,0.00211501121521,0.000293970108032,0.0624740123749
50,0.00356984138489,0.00203585624695,0.00227499008179,0.000311136245728,0.0592260360718
51,0.00359487533569,0.00249290466309,0.0022280216217,0.000300884246826,0.132605075836
52,0.00449800491333,0.00256419181824,0.00230717658997,0.000295877456665,0.0620009899139
53,0.00390982627869,0.00237584114075,0.00234603881836,0.000302791595459,0.0750851631165
54,0.00367832183838,0.00209403038025,0.0020751953125,0.000286102294922,0.0672290325165
55,0.00397181510925,0.00210809707642,0.00217580795288,0.000288963317871,0.0686609745026
56,0.00352883338928,0.00193190574646,0.00284600257874,0.000385999679565,0.0703430175781
57,0.00375199317932,0.0025851726532,0.0023341178894,0.000296831130981,0.071359872818
58,0.00350999832153,0.00233888626099,0.00224804878235,0.000292062759399,0.0671792030334
59,0.00335001945496,0.00221991539001,0.00216507911682,0.000288009643555,0.0676279067993
60,0.00342893600464,0.00194001197815,0.00212383270264,0.000291109085083,0.0707161426544
61,0.00359916687012,0.00201296806335,0.00249886512756,0.000385999679565,0.0739459991455
62,0.00370192527771,0.00231909751892,0.00222706794739,0.000294923782349,0.0764219760895
63,0.00371122360229,0.00224804878235,0.00222611427307,0.000298976898193,0.0726401805878
64,0.00361490249634,0.00208187103271,0.00210809707642,0.000288963317871,0.076779127121
65,0.0035400390625,0.00208687782288,0.00209307670593,0.000286102294922,0.0714828968048
66,0.00348210334778,0.00211000442505,0.00222587585449,0.000291109085083,0.0723080635071
67,0.00375390052795,0.00259208679199,0.00246214866638,0.000319004058838,0.145941019058
68,0.00349903106689,0.00229501724243,0.00235915184021,0.000300168991089,0.0822710990906
69,0.0036289691925,0.0022919178009,0.00232100486755,0.000309944152832,0.0801749229431
70,0.00342679023743,0.00215291976929,0.00237798690796,0.000301837921143,0.0767760276794
71,0.05406498909,0.0025269985199,0.00237989425659,0.000307083129883,0.0826148986816
72,0.00482797622681,0.0026068687439,0.00234198570251,0.00029993057251,0.081689119339
73,0.00344514846802,0.00219416618347,0.00220394134521,0.000292062759399,0.0808799266815
74,0.00364589691162,0.0022439956665,0.00228500366211,0.000301122665405,0.0856511592865
75,0.00368499755859,0.00218296051025,0.0022292137146,0.000296831130981,0.0806529521942
76,0.00346922874451,0.00242280960083,0.00230503082275,0.000303983688354,0.181905984879
77,0.00365090370178,0.00237202644348,0.00226783752441,0.000318050384521,0.0897810459137
78,0.00344085693359,0.0022931098938,0.00226998329163,0.000296831130981,0.0852899551392
79,0.00341892242432,0.00213694572449,0.00221419334412,0.000288963317871,0.0841541290283
80,0.00338697433472,0.00210905075073,0.00267910957336,0.000399827957153,0.0865960121155
81,0.00385713577271,0.00248312950134,0.00233793258667,0.000298976898193,0.0944890975952
82,0.0037260055542,0.00231313705444,0.00238490104675,0.000310182571411,0.0901010036469
83,0.00335693359375,0.00222492218018,0.00217604637146,0.00029182434082,0.0943849086761
84,0.00371193885803,0.00221586227417,0.00234794616699,0.000303983688354,0.0954978466034
85,0.00344395637512,0.00248694419861,0.00229597091675,0.000306129455566,0.157156944275
86,0.0034339427948,0.00239896774292,0.00235199928284,0.000304937362671,0.092435836792
87,0.00370001792908,0.00239396095276,0.00237417221069,0.000308990478516,0.0920250415802
88,0.00341296195984,0.0022029876709,0.00224804878235,0.000311136245728,0.099809885025
89,0.00360012054443,0.00273513793945,0.00237107276917,0.000324010848999,0.155911922455
90,0.00380611419678,0.00244903564453,0.0022919178009,0.00030517578125,0.101945877075
91,0.00341296195984,0.0022828578949,0.00229501724243,0.000294923782349,0.0943169593811
92,0.00341486930847,0.00207495689392,0.00212907791138,0.000290155410767,0.0951809883118
93,0.00351977348328,0.0026969909668,0.00237798690796,0.00031304359436,0.152997016907
94,0.00370311737061,0.00248193740845,0.00237798690796,0.000305891036987,0.107080936432
95,0.00374913215637,0.00246715545654,0.00217294692993,0.000294923782349,0.103894948959
96,0.00353503227234,0.00223398208618,0.00217390060425,0.000288963317871,0.106408119202
97,0.00360107421875,0.00201416015625,0.00269293785095,0.000381946563721,0.106432914734
98,0.00341796875,0.00241208076477,0.00229001045227,0.000311136245728,0.103275775909
99,0.00439310073853,0.00251197814941,0.00230193138123,0.000296115875244,0.102218151093
