step,run,get,set,free,run_up_to_step
0,3.0233399868,11.4759378433,11.8825788498,1.79135107994,3.01911401749
1,2.92420506477,11.5150392056,11.9765429497,1.89902901649,3.18076491356
2,2.91014885902,13.5475912094,18.3003840446,2.36387515068,3.64666795731
3,4.3649327755,15.9236068726,18.121505022,2.364798069,6.53078985214
4,5.18379092216,16.4952499866,17.8224158287,2.1340379715,7.30091404915
5,4.79348397255,16.5862660408,17.0844659805,2.29325890541,7.37891101837
6,3.13441300392,11.7750039101,11.8344871998,1.79632592201,7.67722010612
7,2.94995379448,11.0525169373,13.1847212315,2.02128696442,7.32965517044
8,4.71262907982,16.4769489765,18.0020439625,2.29697704315,10.364387989
9,4.57134318352,15.4074258804,14.9805071354,2.08090996742,12.5719048977
10,4.20411872864,15.7724888325,16.906719923,2.29238009453,11.2334139347
11,4.35538172722,15.5989198685,16.844824791,2.31132316589,11.7295911312
12,4.74867606163,16.8363208771,18.1281318665,2.34152793884,18.3555791378
13,4.82544207573,16.4005010128,17.2637009621,2.31045389175,19.2853288651
14,4.73514103889,15.6633210182,17.4289360046,2.29378008842,19.1032321453
15,4.50601816177,16.2717671394,18.0530240536,2.38696217537,17.3892610073
16,4.43092179298,17.0595312119,18.3809559345,2.30874896049,18.2849411964
17,4.369784832,17.2718510628,18.0907840729,2.32832407951,18.961578846
18,4.63552093506,17.4729950428,18.5617699623,2.2927479744,23.2415409088
19,4.36404585838,17.6867260933,18.0282268524,2.35442185402,23.2830319405
20,4.6432890892,16.2595698833,17.8145070076,2.37121105194,23.6226408482
21,4.40115380287,16.3182480335,18.0762460232,2.4060549736,24.3146231174
22,4.449395895,17.5792851448,18.3126280308,2.25774693489,24.8465199471
23,4.36322808266,17.5225708485,18.4830441475,2.25302100182,24.98269701
24,4.34076595306,17.1623258591,18.1864008904,2.34916520119,29.1287908554
25,4.56396389008,17.4597671032,18.1746711731,2.30496096611,29.7726061344
26,4.41076111794,17.2813770771,18.474891901,2.32931113243,29.033673048
27,4.36484217644,17.4984748363,17.9787590504,2.39282202721,30.25801301
28,4.42105793953,17.5680048466,18.5906147957,2.30281686783,30.7028150558
29,4.348331213,17.5971009731,18.0766000748,2.33539104462,31.3577980995
30,4.48176980019,17.7021100521,18.2838618755,2.39317798615,34.9791119099
31,4.34864497185,17.1482889652,18.4669878483,2.37520098686,35.4348437786
32,4.33069396019,17.5966820717,18.5947871208,2.33432197571,35.6144018173
33,4.37457919121,17.3292839527,18.1387281418,2.39862918854,36.1726799011
34,4.78275799751,17.3787992001,18.4618520737,2.48816204071,36.5012249947
35,4.53733205795,17.4420309067,18.3802540302,2.39858078957,38.32198596
36,4.11462688446,18.0021979809,18.084592104,2.3444750309,41.4155170918
37,4.30066108704,16.5714309216,18.2865748405,2.33707499504,41.3097629547
38,4.30614519119,17.1907348633,18.4391329288,2.33463215828,41.7519049644
39,4.28061509132,17.5152790546,18.4188001156,2.35382795334,41.8408639431
40,4.7741060257,16.5715918541,17.7981040478,2.29846096039,46.8005402088
41,4.92913198471,12.8671591282,15.3174939156,2.39295101166,49.0113868713
42,4.72880077362,15.4449498653,16.6786849499,2.05217480659,50.4998381138
43,5.00538110733,14.6837000847,16.8873150349,2.33393287659,53.3763830662
44,5.03206706047,14.464703083,14.7774529457,2.352602005,53.452324152
45,5.0129430294,13.5302190781,16.5651810169,2.33504104614,49.5644080639
46,5.0091547966,15.8339459896,16.2063081264,2.34293007851,49.2731881142
47,5.13787698746,14.546612978,17.3760371208,2.34381985664,50.73351717
48,5.27145385742,16.1177208424,17.6882081032,2.26279592514,60.6778831482
49,4.944658041,15.9576430321,17.1812109947,2.33038806915,60.7715709209
50,4.94754600525,15.6444718838,17.2042160034,2.34944391251,61.4197108746
51,4.64617395401,15.9802160263,16.6777539253,2.31175088882,62.0947599411
52,5.1840569973,16.2070999146,17.8139381409,2.34814095497,59.7209851742
53,5.11227178574,15.5800909996,17.256565094,2.21142292023,58.48990798
54,3.70765423775,14.0942809582,16.0378038883,2.16112089157,52.2655749321
55,3.23110222816,14.901695013,16.9085741043,2.2007188797,56.0807318687
56,4.28513908386,15.4550690651,17.2680981159,2.2600979805,60.219794035
57,4.34724593163,15.770925045,17.0115351677,2.09192299843,60.8379619122
58,4.70426106453,16.4400010109,17.911755085,2.31702208519,65.3149850368
59,4.96089911461,16.354820013,17.688863039,2.34533691406,73.1899461746
60,5.14478898048,16.4575970173,17.9895219803,2.31191110611,76.6575450897
61,4.56614613533,16.3893129826,17.8896300793,2.33662104607,75.850178957
62,5.12229514122,16.4475810528,17.9553740025,2.34118008614,78.9316749573
63,4.89906191826,16.3393518925,17.7019309998,2.35675597191,78.6029100418
64,4.94016098976,16.407253027,17.7357580662,2.32360315323,79.9861478806
65,5.14650511742,16.3501870632,17.6816139221,2.35110998154,80.831870079
66,5.1780602932,16.4206531048,18.0276639462,2.33992314339,85.0459530354
67,5.16155910492,16.3560400009,17.8712308407,2.34191799164,85.4717168808
68,5.14771270752,16.4175958633,17.851940155,2.36123204231,85.841627121
69,5.12301397324,16.4451858997,17.6011090279,2.34789586067,86.9884419441
70,5.13947892189,16.4037368298,17.9697628021,2.35259389877,86.8627710342
71,4.94932818413,16.2939829826,17.8517560959,2.33779382706,86.9835219383
72,5.21477079391,15.9884541035,18.1070890427,2.41316509247,93.7679829597
73,5.1720328331,16.6056580544,17.7907829285,2.34087109566,92.6319749355
74,5.18045091629,16.4682340622,17.0514290333,2.32778286934,95.0297470093
75,5.1818959713,16.5060231686,18.1283090115,2.32984089851,93.4232108593
76,5.15323996544,16.5046370029,17.834706068,2.34818816185,94.216632843
77,5.15361380577,16.4817380905,18.0987970829,2.35694599152,94.5587301254
78,5.28933095932,16.5217049122,17.8263239861,2.30937099457,99.2384388447
79,5.18286085129,16.2344410419,17.9980959892,2.33796691895,99.786370039
80,5.14447808266,16.5317959785,17.860432148,2.322712183,99.7540650368
81,5.17633891106,16.1469831467,17.8024630547,2.36492490768,101.776420116
82,5.16811180115,16.4983620644,17.935049057,2.34066009521,100.884438038
83,5.36165809631,16.4950399399,17.8524649143,2.31728196144,101.726337194
84,5.15207982063,16.3325178623,18.0075058937,2.35366988182,106.652156115
85,4.78773784637,16.4763140678,17.8247289658,2.33559894562,106.722744226
86,4.80769491196,16.2410488129,17.8055238724,2.32631897926,108.027467966
87,5.14128422737,16.1340041161,17.9142029285,2.32162690163,107.938634157
88,5.11529898643,16.385010004,17.9414000511,2.31724405289,109.261757851
89,5.14321827888,16.3461899757,17.8383591175,2.36442518234,108.69532299
90,5.14160895348,16.3465180397,17.8946990967,2.35447096825,113.953185081
91,5.13467812538,16.3583180904,17.7980911732,2.33353114128,113.154487848
92,5.12246894836,16.3099322319,17.7692511082,2.31243991852,114.476693869
93,4.82495903969,16.1318221092,17.6921389103,2.31780600548,113.518264055
94,5.12747383118,16.3670721054,17.8421299458,2.32510495186,115.077749014
95,5.11924695969,16.1758401394,17.6867790222,2.31956100464,115.678648949
96,4.97884511948,16.2897379398,17.9212508202,2.31697010994,120.266516924
97,5.0630440712,16.1971530914,17.9344909191,2.34396004677,123.035908937
98,5.13845586777,16.3503880501,17.8647859097,2.34454298019,122.034120083
99,4.8521258831,16.2521691322,17.7261819839,2.3248000145,123.532141924
