step,run,get,set,free,run_up_to_step
0,0.0144009590149,0.0633759498596,0.0684499740601,0.00560593605042,0.0153169631958
1,0.0104291439056,0.0574259757996,0.0674180984497,0.00583982467651,0.0173358917236
2,0.0106589794159,0.0577490329742,0.0697410106659,0.00581002235413,0.0193619728088
3,0.0118660926819,0.0587208271027,0.0692050457001,0.00582098960876,0.0230910778046
4,0.0112330913544,0.0593318939209,0.0685701370239,0.00578093528748,0.0243020057678
5,0.0116910934448,0.0599269866943,0.0697219371796,0.00582003593445,0.0274999141693
6,0.0129280090332,0.0590150356293,0.0641040802002,0.00564908981323,0.0314269065857
7,0.0115041732788,0.0559730529785,0.0637359619141,0.00569200515747,0.0312170982361
8,0.0119841098785,0.0551741123199,0.0642828941345,0.00567817687988,0.0360190868378
9,0.0124497413635,0.0545210838318,0.0646641254425,0.0056779384613,0.0426568984985
10,0.0124089717865,0.0551450252533,0.0728950500488,0.00603294372559,0.0421190261841
11,0.0141019821167,0.0594329833984,0.0700781345367,0.00599598884583,0.0865249633789
12,0.0129818916321,0.0599761009216,0.0682530403137,0.00581908226013,0.0497479438782
13,0.0142149925232,0.0604507923126,0.069130897522,0.00583100318909,0.0937490463257
14,0.0131509304047,0.0586841106415,0.0689058303833,0.00600004196167,0.0553770065308
15,0.0146839618683,0.062117099762,0.0706820487976,0.0060338973999,0.060320854187
16,0.0125930309296,0.0594639778137,0.0701649188995,0.0059220790863,0.069797039032
17,0.0128879547119,0.0600080490112,0.069473028183,0.00608682632446,0.0685470104218
18,0.0125796794891,0.0597460269928,0.0697491168976,0.00587606430054,0.0727679729462
19,0.0130481719971,0.0650091171265,0.0754270553589,0.00851798057556,0.0754790306091
20,0.0811138153076,0.0595541000366,0.0698349475861,0.00762104988098,0.154529809952
21,0.0127899646759,0.0604829788208,0.0699729919434,0.00587010383606,0.151515960693
22,0.0128989219666,0.0593628883362,0.0649139881134,0.00574278831482,0.153077125549
23,0.011608839035,0.0560510158539,0.0694949626923,0.00574994087219,0.14839220047
24,0.0117540359497,0.0560641288757,0.0661010742188,0.00581908226013,0.150792121887
25,0.0120379924774,0.0555200576782,0.0722680091858,0.00606298446655,0.156549930573
26,0.0134139060974,0.0607600212097,0.0724189281464,0.00593900680542,0.174329042435
27,0.0131018161774,0.0600352287292,0.0709390640259,0.00599002838135,0.172348022461
28,0.0134041309357,0.0605981349945,0.0725829601288,0.00599384307861,0.182844877243
29,0.0123090744019,0.0620710849762,0.0731978416443,0.00582909584045,0.178223133087
30,0.0133321285248,0.0605020523071,0.072066783905,0.00605607032776,0.189610004425
31,0.0125980377197,0.0608739852905,0.0704200267792,0.00600790977478,0.189341068268
32,0.012729883194,0.0596899986267,0.0712399482727,0.00606393814087,0.189765930176
33,0.012188911438,0.0595998764038,0.0707240104675,0.00651121139526,0.288561105728
34,0.0130589008331,0.0598678588867,0.0704510211945,0.00600790977478,0.196527957916
35,0.0147550106049,0.0598459243774,0.0694918632507,0.00595784187317,0.202399015427
36,0.0109639167786,0.0572168827057,0.0678770542145,0.0058958530426,0.245975971222
37,0.0116567611694,0.056088924408,0.0655369758606,0.00578904151917,0.202003955841
38,0.012323141098,0.0559751987457,0.0718731880188,0.00645208358765,0.199526071548
39,0.0124540328979,0.0608961582184,0.0711231231689,0.00594592094421,0.224426031113
40,0.012571811676,0.0626509189606,0.0708739757538,0.0061309337616,0.218732833862
41,0.0115268230438,0.0616409778595,0.0712809562683,0.00600910186768,0.220761060715
42,0.0127599239349,0.0613820552826,0.0721611976624,0.00619292259216,0.233701944351
43,0.0121450424194,0.0610871315002,0.0742330551147,0.00622701644897,0.228631019592
44,0.0125663280487,0.0603301525116,0.0716919898987,0.00596809387207,0.232534885406
45,0.0116610527039,0.060809135437,0.0751938819885,0.00595498085022,0.235697031021
46,0.0129129886627,0.0623588562012,0.0788099765778,0.00637888908386,0.238716125488
47,0.0122618675232,0.0603029727936,0.0724718570709,0.00609803199768,0.254902839661
48,0.0124750137329,0.0608630180359,0.0721530914307,0.00597620010376,0.245396137238
49,0.0123519897461,0.0587201118469,0.0664050579071,0.00616192817688,0.332894086838
50,0.0114281177521,0.0565948486328,0.065985918045,0.0059380531311,0.24285697937
51,0.0111229419708,0.0566740036011,0.0658721923828,0.00579500198364,0.237002849579
52,0.0131778717041,0.06325507164,0.0759339332581,0.0063099861145,0.304691076279
53,0.0122570991516,0.060252904892,0.0726709365845,0.00607705116272,0.265789031982
54,0.012571811676,0.0604109764099,0.0710029602051,0.0060818195343,0.262153148651
55,0.014280796051,0.0648951530457,0.075110912323,0.00633597373962,0.325094223022
56,0.0121772289276,0.0626721382141,0.0728850364685,0.00618100166321,0.278815031052
57,0.0122032165527,0.0606031417847,0.0709638595581,0.00598812103271,0.280364990234
58,0.0118889808655,0.0636839866638,0.0757620334625,0.00645613670349,0.287346839905
59,0.0125668048859,0.0613160133362,0.0707800388336,0.00598216056824,0.283358097076
60,0.0518620014191,0.0633850097656,0.0718970298767,0.00614285469055,0.287884950638
61,0.0121998786926,0.0573499202728,0.0670440196991,0.00600981712341,0.282250165939
62,0.01185297966,0.0564579963684,0.067409992218,0.00587391853333,0.278944969177
63,0.00994110107422,0.0588960647583,0.0752007961273,0.00641703605652,0.316987991333
64,0.0105798244476,0.0607271194458,0.0717151165009,0.006098985672,0.308341026306
65,0.0102498531342,0.0602049827576,0.0719058513641,0.0060920715332,0.304147958755
66,0.00979924201965,0.0624132156372,0.0764219760895,0.00711107254028,0.351326942444
67,0.0108652114868,0.0609200000763,0.0725901126862,0.00604701042175,0.314105987549
68,0.0105831623077,0.0601449012756,0.0711438655853,0.00628304481506,0.317039012909
69,0.0105791091919,0.0633060932159,0.0719339847565,0.0060658454895,0.354971885681
70,0.0104579925537,0.0604848861694,0.0707900524139,0.00597906112671,0.321410179138
71,0.0106308460236,0.0599780082703,0.0690779685974,0.00633406639099,0.321413040161
72,0.0100247859955,0.0566470623016,0.0675611495972,0.00644302368164,0.349565982819
73,0.00983190536499,0.0547399520874,0.066703081131,0.00590991973877,0.314339876175
74,0.00959205627441,0.0560870170593,0.0727899074554,0.00621485710144,0.313643932343
75,0.0102500915527,0.0612599849701,0.0717058181763,0.0060019493103,0.390847921371
76,0.0105752944946,0.0608429908752,0.0704350471497,0.0060122013092,0.346406936646
77,0.0103511810303,0.0620980262756,0.0748918056488,0.00704503059387,0.34706401825
78,0.0107069015503,0.0612671375275,0.0720710754395,0.00599813461304,0.355720043182
79,0.0103049278259,0.0603229999542,0.0702378749847,0.00587105751038,0.352011919022
80,0.0104448795319,0.0620079040527,0.0722601413727,0.006028175354,0.430342912674
81,0.0104868412018,0.0609319210052,0.071946144104,0.00628709793091,0.360227108002
82,0.010822057724,0.0607750415802,0.066545009613,0.00582194328308,0.357158899307
83,0.00942587852478,0.057354927063,0.0671589374542,0.00594997406006,0.385773897171
84,0.00973129272461,0.054557800293,0.067626953125,0.00650000572205,0.352607011795
85,0.0109407901764,0.0609331130981,0.0768539905548,0.0098979473114,0.374650001526
86,0.0110859870911,0.0621519088745,0.0727460384369,0.00614404678345,0.378236055374
87,0.0103781223297,0.0653200149536,0.0738801956177,0.00628113746643,0.381187915802
88,0.0507199764252,0.0631229877472,0.0736169815063,0.00617098808289,0.388260126114
89,0.0104598999023,0.063246011734,0.0731389522552,0.00804400444031,0.390478134155
90,0.0116529464722,0.0632698535919,0.0713338851929,0.00606298446655,0.464061021805
91,0.011027097702,0.0619020462036,0.0723698139191,0.00621008872986,0.4958589077
92,0.00957989692688,0.0609850883484,0.0731530189514,0.00581002235413,0.398880004883
93,0.0100228786469,0.0567059516907,0.0661959648132,0.00598192214966,0.372240066528
94,0.0100710391998,0.0582919120789,0.0681509971619,0.00597310066223,0.428453922272
95,0.0107998847961,0.0612030029297,0.0716869831085,0.00596809387207,0.422899007797
96,0.0101928710938,0.0625150203705,0.0722329616547,0.00609111785889,0.457457065582
97,0.0112400054932,0.0648610591888,0.0729401111603,0.00615906715393,0.42215514183
98,0.0107500553131,0.0607328414917,0.0732250213623,0.00622010231018,0.485919952393
99,0.0106790065765,0.0617320537567,0.0747239589691,0.00628304481506,0.464667081833
