step,run,get,set,free,run_up_to_step
0,1.98494911194,0.0843250751495,0.110496997833,0.0119569301605,2.00192594528
1,2.70472812653,0.107831954956,0.108438968658,0.0114300251007,4.31220698357
2,3.05591487885,0.0922012329102,0.113098144531,0.0123021602631,8.7739109993
3,2.91606497765,0.0938639640808,0.113473892212,0.0130870342255,9.56564903259
4,3.04226589203,0.0905778408051,0.119459867477,0.0130789279938,12.7188768387
5,2.49835801125,0.0872900485992,0.119400978088,0.012825012207,12.7308249474
6,2.27439332008,0.0941081047058,0.110466003418,0.0121760368347,16.9717381001
7,2.10222697258,0.090500831604,0.107296943665,0.011403799057,20.287938118
8,2.86045384407,0.0999188423157,0.115121126175,0.0131030082703,21.7796568871
9,3.25293779373,0.0996100902557,0.111435174942,0.0116209983826,24.6037251949
10,2.93724894524,0.0924308300018,0.109890937805,0.0119349956512,27.9460878372
11,3.83119297028,0.100013017654,0.115178108215,0.0122489929199,29.4581120014
12,3.17385435104,0.0957069396973,0.111618041992,0.0118207931519,33.174808979
13,3.3838031292,0.100750923157,0.125356912613,0.013797044754,35.7767179012
14,3.09318399429,0.0913360118866,0.110538005829,0.0117859840393,38.3937330246
15,2.95059800148,0.0979371070862,0.130309104919,0.0153999328613,39.6608309746
16,2.28472185135,0.0909039974213,0.111528158188,0.0121469497681,39.923032999
17,2.15710186958,0.102655172348,0.114418983459,0.012305021286,43.9075510502
18,2.41523075104,0.0907979011536,0.122838973999,0.013561964035,46.5887231827
19,2.26313924789,0.0959560871124,0.125221967697,0.0135669708252,49.7591078281
20,2.31658291817,0.0971548557281,0.119266033173,0.0136549472809,51.6259069443
21,3.68089199066,0.0935270786285,0.1310069561,0.0147099494934,55.7905888557
22,2.73804807663,0.0902919769287,0.114212989807,0.0130648612976,56.3339829445
23,2.61599802971,0.0910749435425,0.119000911713,0.0132591724396,58.0640878677
24,2.73224401474,0.0968360900879,0.112061977386,0.0119669437408,63.0567719936
25,2.37970995903,0.0912461280823,0.110580921173,0.0116760730743,61.6074090004
26,2.88296699524,0.0984408855438,0.108822107315,0.0120930671692,65.5578320026
27,1.9897069931,0.0916240215302,0.118726968765,0.0133078098297,64.4317250252
28,2.08092975616,0.0942380428314,0.121080160141,0.0149500370026,70.5951788425
29,2.5074660778,0.0989079475403,0.118077039719,0.0123579502106,77.7282831669
30,2.44824314117,0.0979831218719,0.117900848389,0.0135419368744,78.3968150616
31,3.53374886513,0.106606960297,0.119436979294,0.013916015625,77.3660178185
32,3.51676177979,0.10381102562,0.119652032852,0.0129280090332,76.4690191746
33,3.26234984398,0.0995600223541,0.115797042847,0.0129680633545,82.6443719864
34,1.96864700317,0.0947530269623,0.115094184875,0.0134789943695,86.3424441814
35,2.47988271713,0.100720882416,0.124253034592,0.0151488780975,85.7479059696
36,2.03561520576,0.097067117691,0.123188972473,0.0145959854126,87.8993880749
37,2.77442097664,0.105540990829,0.119794130325,0.0131411552429,87.6808559895
38,2.17110300064,0.0973558425903,0.117715835571,0.0127410888672,89.9547531605
39,2.17116808891,0.105892181396,0.116113901138,0.0128128528595,94.027215004
40,2.07263708115,0.102607011795,0.122391939163,0.0142660140991,97.9912941456
41,2.02236318588,0.104862928391,0.125715017319,0.0142450332642,97.2482428551
42,2.94357514381,0.102129936218,0.121844053268,0.0146899223328,103.68342495
43,3.01989603043,0.100358963013,0.115592002869,0.013601064682,120.841622829
44,2.25375270844,0.113476037979,0.132583141327,0.016294002533,122.677014112
45,2.38495206833,0.108473062515,0.125858068466,0.0147130489349,121.508267879
46,2.70833516121,0.10328912735,0.12742805481,0.0149891376495,123.426787853
47,2.1409881115,0.104029893875,0.120486974716,0.0135409832001,129.89841485
48,2.7013759613,0.106276988983,0.128396034241,0.0145490169525,136.082684994
49,2.79685020447,0.113102912903,0.127861976624,0.0146901607513,145.476439953
50,2.7634768486,0.104804992676,0.126909971237,0.0145819187164,143.899719954
51,2.67576003075,0.105657100677,0.127113103867,0.0150201320648,146.084219933
52,2.71585583687,0.103007078171,0.130640029907,0.0164220333099,153.819549799
53,2.67254471779,0.105040073395,0.12171792984,0.0139338970184,157.550727129
54,2.73257088661,0.105256080627,0.127892971039,0.0146088600159,165.612569094
55,2.35703206062,0.0982179641724,0.13375210762,0.0155780315399,172.141807079
56,2.75989985466,0.104903936386,0.116913080215,0.0135011672974,175.695521832
57,2.22449707985,0.0992119312286,0.124165058136,0.0134689807892,184.87592411
58,2.52160978317,0.117571115494,0.126509189606,0.0143690109253,191.165379047
59,2.76681375504,0.10333108902,0.122558116913,0.0147042274475,195.075984001
60,2.73081016541,0.114422082901,0.126297950745,0.0141332149506,200.340989828
61,2.77289772034,0.108923912048,0.128350973129,0.0150439739227,206.36250186
62,2.22941279411,0.100986003876,0.124461889267,0.0142710208893,213.331594944
63,2.35858535767,0.102329015732,0.125405073166,0.0150861740112,217.261949062
64,2.78638505936,0.098552942276,0.126041173935,0.0145909786224,226.232747078
65,2.84511590004,0.106462001801,0.124241113663,0.01424908638,229.464627981
66,2.77034091949,0.104350090027,0.123898983002,0.0145919322968,237.332035065
67,2.75338315964,0.10996222496,0.126662969589,0.0148541927338,241.803874969
68,2.74680113792,0.108424901962,0.121695041656,0.0142168998718,249.219346046
69,2.83241605759,0.102653980255,0.121510028839,0.0139660835266,266.556565046
70,2.38835406303,0.102498054504,0.121667146683,0.0139379501343,261.107367992
71,2.73962497711,0.106001853943,0.118633985519,0.0136349201202,266.958033085
72,2.76035094261,0.105316162109,0.123381853104,0.014151096344,282.513020992
73,2.78448724747,0.0973291397095,0.125059127808,0.0138280391693,288.718877077
74,2.85328698158,0.107585906982,0.129040002823,0.01393699646,297.222788095
75,2.5273399353,0.100626945496,0.123039960861,0.014328956604,312.500310898
76,2.79819512367,0.106129169464,0.123172044754,0.0145778656006,311.843804121
77,2.41898298264,0.104038000107,0.11576294899,0.0140430927277,333.627355099
78,2.34906768799,0.0994448661804,0.120584011078,0.0141851902008,329.26838994
79,2.79472112656,0.104674100876,0.116651058197,0.0138018131256,347.697076082
80,2.33689522743,0.0993630886078,0.122563123703,0.0141861438751,349.928238869
81,2.24181890488,0.0997347831726,0.12727189064,0.0161020755768,357.624744177
82,2.80139613152,0.106867074966,0.118278026581,0.0144238471985,373.132457972
83,2.80365014076,0.103403091431,0.126791000366,0.0141940116882,395.15209198
84,2.77604699135,0.106428861618,0.123407840729,0.0138008594513,392.588870049
85,2.34145712852,0.101165056229,0.122758865356,0.0143690109253,408.022401094
86,2.52811694145,0.102410078049,0.12199306488,0.0137460231781,410.804728985
87,2.73985123634,0.107263088226,0.123684167862,0.0133848190308,429.349148989
88,2.33621001244,0.103657960892,0.125328063965,0.01451587677,435.957894087
89,2.79224514961,0.106644153595,0.121718883514,0.014251947403,437.642677069
90,2.24142217636,0.101500988007,0.122782945633,0.014683008194,470.181769848
91,2.33979892731,0.106155872345,0.125948190689,0.0143568515778,450.345370054
92,2.30291986465,0.107496976852,0.123081922531,0.0138149261475,472.401683092
93,2.2887468338,0.10263800621,0.123381137848,0.0140478610992,480.228461027
94,2.26456522942,0.103307008743,0.132292985916,0.0154089927673,471.115181923
95,2.41715478897,0.1098279953,0.130972146988,0.014533996582,503.102073908
96,2.34997200966,0.107074022293,0.127979040146,0.0142290592194,510.796461105
97,2.28418493271,0.108780860901,0.124705791473,0.0145390033722,515.860727072
98,2.26469016075,0.104518890381,0.128487110138,0.0143268108368,534.698261976
99,2.32497692108,0.10862493515,0.121300935745,0.0137009620667,561.070513964
