step,run,get,set,free,run_up_to_step
0,0.0290970802307,0.00623297691345,0.00699710845947,0.000618934631348,0.0222039222717
1,0.0113620758057,0.0064811706543,0.00784015655518,0.000762939453125,0.0357301235199
2,0.00977897644043,0.00642609596252,0.00723886489868,0.00068998336792,0.0376918315887
3,0.00843906402588,0.00646209716797,0.00795912742615,0.00078296661377,0.0401849746704
4,0.00951290130615,0.00637102127075,0.00803303718567,0.000622987747192,0.0430250167847
5,0.00904273986816,0.00633192062378,0.0074508190155,0.000824928283691,0.0434539318085
6,0.00754904747009,0.00539803504944,0.00774693489075,0.000802993774414,0.0445809364319
7,0.00770211219788,0.00660991668701,0.0075089931488,0.000829935073853,0.0462169647217
8,0.00759315490723,0.00622797012329,0.00843906402588,0.000789880752563,0.0474209785461
9,0.0081729888916,0.00669407844543,0.00756502151489,0.000806093215942,0.0492050647736
10,0.00737500190735,0.0062849521637,0.00734996795654,0.00071382522583,0.0495839118958
11,0.00773596763611,0.0062198638916,0.00789213180542,0.000901937484741,0.0518629550934
12,0.0076789855957,0.00584006309509,0.00804901123047,0.000792026519775,0.0539388656616
13,0.00749278068542,0.00672793388367,0.00771284103394,0.000752925872803,0.0514891147614
14,0.0075900554657,0.00631713867188,0.00738906860352,0.000729084014893,0.0545079708099
15,0.00777912139893,0.00660109519958,0.00747895240784,0.000846862792969,0.0919151306152
16,0.00782895088196,0.00666785240173,0.00755000114441,0.000591993331909,0.0600709915161
17,0.00757074356079,0.00628709793091,0.0069899559021,0.000705003738403,0.0650720596313
18,0.00745320320129,0.00654888153076,0.00800013542175,0.000739097595215,0.0633659362793
19,0.00696992874146,0.00691699981689,0.00761198997498,0.000715970993042,0.112192869186
20,0.0074896812439,0.0063579082489,0.00746202468872,0.000802993774414,0.0543878078461
21,0.00727772712708,0.00417900085449,0.00736498832703,0.000581026077271,0.06977891922
22,0.00733113288879,0.00629281997681,0.0075159072876,0.000458002090454,0.0686140060425
23,0.00750303268433,0.00675988197327,0.00822687149048,0.000885009765625,0.0717928409576
24,0.0067400932312,0.00674605369568,0.00788807868958,0.000818014144897,0.070307970047
25,0.00673460960388,0.00681805610657,0.00712084770203,0.000789880752563,0.0728769302368
26,0.00612640380859,0.00693583488464,0.00820994377136,0.000946998596191,0.110037088394
27,0.00661087036133,0.00635695457458,0.00522184371948,0.000521898269653,0.076220035553
28,0.00627017021179,0.00656008720398,0.00782895088196,0.000787973403931,0.0822370052338
29,0.00671815872192,0.00601100921631,0.00859212875366,0.00111794471741,0.0665199756622
30,0.00686979293823,0.00614380836487,0.00786900520325,0.000836133956909,0.0836138725281
31,0.00676584243774,0.00700211524963,0.00770211219788,0.000900983810425,0.085303068161
32,0.00676894187927,0.00674796104431,0.00723385810852,0.000955104827881,0.0860018730164
33,0.00690698623657,0.00716209411621,0.00829100608826,0.000876903533936,0.124581098557
34,0.00694823265076,0.0064709186554,0.00795197486877,0.000900030136108,0.0857360363007
35,0.0059962272644,0.00666689872742,0.00755500793457,0.000740051269531,0.0767090320587
36,0.00628685951233,0.00694394111633,0.00777006149292,0.000915050506592,0.0897641181946
37,0.0428550243378,0.00722408294678,0.0079460144043,0.000797033309937,0.0925271511078
38,0.00685811042786,0.00658297538757,0.00764298439026,0.000584125518799,0.0950610637665
39,0.00574612617493,0.00687003135681,0.00788688659668,0.000787973403931,0.092059135437
40,0.00662994384766,0.0066659450531,0.00846004486084,0.000530004501343,0.0969657897949
41,0.00640296936035,0.00699210166931,0.00838708877563,0.00094199180603,0.144873857498
42,0.00707221031189,0.00671195983887,0.00809717178345,0.000904083251953,0.0875399112701
43,0.00482082366943,0.00522589683533,0.0081422328949,0.000850915908813,0.0978388786316
44,0.00690102577209,0.00697898864746,0.00860095024109,0.000964164733887,0.106221914291
45,0.00704503059387,0.00688791275024,0.00787711143494,0.000859975814819,0.106263875961
46,0.0070481300354,0.00711703300476,0.00783801078796,0.00109195709229,0.106804847717
47,0.00680208206177,0.00713491439819,0.0073618888855,0.000895977020264,0.106213092804
48,0.00613880157471,0.00643491744995,0.00787997245789,0.00103497505188,0.162659883499
49,0.00474190711975,0.00441288948059,0.00775694847107,0.00067400932312,0.111247062683
50,0.00712919235229,0.00697302818298,0.00738477706909,0.000778913497925,0.0774939060211
51,0.0063009262085,0.00688695907593,0.00815391540527,0.000813007354736,0.167385816574
52,0.00681304931641,0.0072238445282,0.00809192657471,0.000826120376587,0.112643003464
53,0.00673413276672,0.00482106208801,0.00702309608459,0.00103807449341,0.117988824844
54,0.00682401657104,0.0074770450592,0.00827598571777,0.000827789306641,0.119036912918
55,0.0067617893219,0.00707292556763,0.00856781005859,0.00110793113708,0.122483968735
56,0.00631713867188,0.00701189041138,0.0069580078125,0.000576972961426,0.0962359905243
57,0.00729012489319,0.00713801383972,0.00765705108643,0.000782012939453,0.117138147354
58,0.00668787956238,0.00718808174133,0.007887840271,0.000874996185303,0.177545070648
59,0.00655007362366,0.0062689781189,0.00787496566772,0.000813961029053,0.12779378891
60,0.00642776489258,0.00689792633057,0.00767302513123,0.000824928283691,0.128164052963
61,0.00633215904236,0.00730299949646,0.00800895690918,0.000645875930786,0.17767906189
62,0.00650000572205,0.00708079338074,0.00762891769409,0.00111103057861,0.10581111908
63,0.00601482391357,0.00449419021606,0.00766515731812,0.000854969024658,0.130243062973
64,0.00600814819336,0.0063591003418,0.00837516784668,0.000823974609375,0.135062932968
65,0.00675201416016,0.00622797012329,0.00764489173889,0.000786066055298,0.109085083008
66,0.00646305084229,0.00712490081787,0.00748801231384,0.000792980194092,0.137531042099
67,0.0063169002533,0.00596284866333,0.00795102119446,0.000695943832397,0.137159824371
68,0.00619387626648,0.00699210166931,0.00786590576172,0.000713109970093,0.179959058762
69,0.00446105003357,0.00480890274048,0.00780510902405,0.00083589553833,0.137522935867
70,0.00670719146729,0.00704097747803,0.00729203224182,0.000877857208252,0.146953105927
71,0.0064709186554,0.00716495513916,0.00782895088196,0.00101685523987,0.200563907623
72,0.00659108161926,0.0063259601593,0.00788283348083,0.000916004180908,0.136543989182
73,0.00639295578003,0.00715398788452,0.00785398483276,0.000591993331909,0.149332046509
74,0.00671124458313,0.00737190246582,0.00806379318237,0.00102186203003,0.150670051575
75,0.00673007965088,0.00710511207581,0.00784611701965,0.000939130783081,0.117131948471
76,0.0060887336731,0.00672698020935,0.00837206840515,0.00103783607483,0.15022611618
77,0.00583291053772,0.00491380691528,0.00802302360535,0.00067400932312,0.192250967026
78,0.00445008277893,0.0044059753418,0.00820899009705,0.000945091247559,0.15161895752
79,0.00609493255615,0.00702786445618,0.00799107551575,0.000883102416992,0.153198003769
80,0.0474679470062,0.00741410255432,0.00822114944458,0.000939130783081,0.164530992508
81,0.00654196739197,0.00707006454468,0.00668096542358,0.000654935836792,0.160403013229
82,0.00631618499756,0.00687313079834,0.0078980922699,0.00058388710022,0.140653133392
83,0.00660109519958,0.00704598426819,0.00578188896179,0.000679969787598,0.172595024109
84,0.00641894340515,0.00707483291626,0.00812005996704,0.000919818878174,0.165284872055
85,0.0063111782074,0.00670385360718,0.00756978988647,0.000701189041138,0.16711807251
86,0.00642609596252,0.00619792938232,0.00785994529724,0.000895023345947,0.138829946518
87,0.00646495819092,0.00484299659729,0.0081729888916,0.00098991394043,0.221338033676
88,0.00645112991333,0.00689005851746,0.00775408744812,0.000968933105469,0.155210018158
89,0.00666403770447,0.00666785240173,0.00786185264587,0.000890970230103,0.172641038895
90,0.00717997550964,0.00711607933044,0.00859689712524,0.000807046890259,0.211364984512
91,0.00451517105103,0.00506901741028,0.00818610191345,0.000711917877197,0.17258310318
92,0.00672197341919,0.00732111930847,0.00887703895569,0.000967979431152,0.178624153137
93,0.00510120391846,0.00679898262024,0.00796389579773,0.000972986221313,0.232944011688
94,0.00449824333191,0.00526285171509,0.00765895843506,0.00076699256897,0.181982040405
95,0.00686001777649,0.00716090202332,0.00823783874512,0.000946998596191,0.181900024414
96,0.00669693946838,0.00739789009094,0.00886392593384,0.00100207328796,0.241410017014
97,0.00541806221008,0.00709915161133,0.00804615020752,0.000914096832275,0.185693025589
98,0.00653409957886,0.00665593147278,0.00789308547974,0.000877141952515,0.189797878265
99,0.00633382797241,0.0073459148407,0.0081000328064,0.00102591514587,0.241402864456
