step,run,get,set,free,run_up_to_step
0,0.20409321785,0.0189049243927,0.022784948349,0.00205087661743,0.207139968872
1,0.194360971451,0.0189881324768,0.0221960544586,0.00198411941528,0.246803998947
2,0.192223787308,0.0201799869537,0.0232379436493,0.00206899642944,0.259974002838
3,0.185619115829,0.0184090137482,0.0221729278564,0.00197601318359,0.277833938599
4,0.179316043854,0.018896818161,0.023090839386,0.0020809173584,0.294830083847
5,0.20210981369,0.0195651054382,0.023185968399,0.00200700759888,0.315737009048
6,0.189646959305,0.0194580554962,0.0230569839478,0.00201392173767,0.329964876175
7,0.169836044312,0.0194969177246,0.0234639644623,0.00205206871033,0.343025922775
8,0.188586950302,0.0193209648132,0.0231339931488,0.00212383270264,0.406749010086
9,0.195381879807,0.020406961441,0.0237720012665,0.00213408470154,0.423356056213
10,0.201326131821,0.0198640823364,0.0233771800995,0.00211191177368,0.452435970306
11,0.18937587738,0.0198109149933,0.0225157737732,0.00253582000732,0.454602956772
12,0.203761100769,0.0196681022644,0.0239090919495,0.00219106674194,0.481965780258
13,0.199578046799,0.020859003067,0.0235350131989,0.00216317176819,0.493149995804
14,0.182698965073,0.0199239253998,0.0232870578766,0.0021698474884,0.508460044861
15,0.191123962402,0.0209181308746,0.0245859622955,0.00215816497803,0.52867603302
16,0.214337825775,0.0200598239899,0.0235149860382,0.00218510627747,0.551290988922
17,0.210572004318,0.0211629867554,0.0231840610504,0.00227403640747,0.566226959229
18,0.197489976883,0.019898891449,0.0231728553772,0.00226092338562,0.583228111267
19,0.191954135895,0.0209310054779,0.024227142334,0.00220584869385,0.599395990372
20,0.19469165802,0.0203499794006,0.02330493927,0.00213289260864,0.665671110153
21,0.186736106873,0.0196251869202,0.0226340293884,0.0021550655365,0.697130918503
22,0.230265855789,0.0199198722839,0.0238180160522,0.00226020812988,0.696582078934
23,0.187543153763,0.0201809406281,0.0234341621399,0.00222992897034,0.705253839493
24,0.194669723511,0.0196750164032,0.0231468677521,0.0022120475769,0.733107089996
25,0.20692896843,0.0200350284576,0.0246438980103,0.00240397453308,0.744469165802
26,0.222188949585,0.0205612182617,0.0241079330444,0.00226807594299,0.80867600441
27,0.19557595253,0.020416021347,0.0232779979706,0.00230002403259,0.768018960953
28,0.205012798309,0.0204770565033,0.0232088565826,0.00230097770691,0.806288957596
29,0.21003818512,0.0206291675568,0.0241241455078,0.00227999687195,0.82147693634
30,0.205296039581,0.0195639133453,0.0249269008636,0.00225400924683,0.845709085464
31,0.235667943954,0.0206408500671,0.0225241184235,0.00227999687195,0.847033977509
32,0.23029589653,0.0199680328369,0.0240797996521,0.00217008590698,0.993029117584
33,0.223396062851,0.0196101665497,0.022999048233,0.00223994255066,0.936810970306
34,0.191843986511,0.0194668769836,0.023745059967,0.00214695930481,0.939770936966
35,0.189337015152,0.0198628902435,0.0232989788055,0.0021960735321,0.999486923218
36,0.195887088776,0.0198249816895,0.0242929458618,0.00218987464905,0.998450040817
37,0.202375173569,0.0192651748657,0.0227241516113,0.00216197967529,1.01699280739
38,0.214275836945,0.0204081535339,0.0240018367767,0.00225186347961,1.03917193413
39,0.213330984116,0.0196878910065,0.0224750041962,0.00218105316162,1.04350280762
40,0.194324016571,0.0196471214294,0.0232241153717,0.00235795974731,1.05490112305
41,0.211765050888,0.0202558040619,0.0235760211945,0.00230193138123,1.1123008728
42,0.201689958572,0.0204999446869,0.0234370231628,0.00223302841187,1.12263011932
43,0.224721908569,0.0202269554138,0.0237858295441,0.00236201286316,1.1019411087
44,0.190613269806,0.0200629234314,0.0235280990601,0.00270485877991,1.19526290894
45,0.211593866348,0.0205891132355,0.0233070850372,0.00222706794739,1.23865509033
46,0.202220916748,0.0196080207825,0.0237329006195,0.00217604637146,1.20518994331
47,0.194067001343,0.0206069946289,0.0247020721436,0.00230193138123,1.27559018135
48,0.189787864685,0.0195338726044,0.0233860015869,0.00230503082275,1.28592300415
49,0.187524080276,0.0195000171661,0.0238471031189,0.00251889228821,1.24958992004
50,0.220542192459,0.0199201107025,0.0234570503235,0.00216698646545,1.28366088867
51,0.218482017517,0.0199308395386,0.0229032039642,0.00284385681152,1.28930497169
52,0.209250926971,0.0200679302216,0.0229790210724,0.0022931098938,1.34343695641
53,0.204226970673,0.019562959671,0.0228459835052,0.00213718414307,1.33408904076
54,0.229686021805,0.0212721824646,0.0237889289856,0.0025999546051,1.38232517242
55,0.216550111771,0.0198571681976,0.0245339870453,0.00221109390259,1.36731791496
56,0.206130981445,0.0201799869537,0.0231959819794,0.00272083282471,1.42986893654
57,0.190029859543,0.0205421447754,0.0235788822174,0.00230097770691,1.48023509979
58,0.24650478363,0.0204019546509,0.0238649845123,0.00305891036987,1.47399497032
59,0.218277931213,0.0200431346893,0.024710893631,0.00302195549011,1.47422099113
60,0.209710836411,0.0206708908081,0.0241379737854,0.00229787826538,1.55888199806
61,0.192060947418,0.0205180644989,0.0235161781311,0.00231695175171,1.52763581276
62,0.243528842926,0.0205099582672,0.02348279953,0.00289916992188,1.53152418137
63,0.195507049561,0.0198609828949,0.0231778621674,0.00224804878235,1.70403885841
64,0.220910787582,0.0199718475342,0.0233571529388,0.00261211395264,1.60312509537
65,0.205186128616,0.0198631286621,0.0235040187836,0.00254201889038,1.60173010826
66,0.229923009872,0.0202760696411,0.0231289863586,0.00224900245667,1.66963601112
67,0.216464042664,0.019758939743,0.0231440067291,0.00254702568054,1.63110780716
68,0.204918861389,0.0205290317535,0.0238859653473,0.0022349357605,1.71834897995
69,0.200978279114,0.0198440551758,0.0238411426544,0.00227189064026,1.73534607887
70,0.193279981613,0.0199289321899,0.0233449935913,0.0029559135437,1.7251598835
71,0.207889080048,0.0202379226685,0.0231308937073,0.00253200531006,1.78242397308
72,0.222845077515,0.019889831543,0.0236780643463,0.00287008285522,1.77524900436
73,0.209975242615,0.0208880901337,0.0236678123474,0.00302219390869,1.77177596092
74,0.193122148514,0.0204269886017,0.0229661464691,0.00224113464355,1.84778404236
75,0.206404209137,0.0199100971222,0.0235509872437,0.00287103652954,1.80692195892
76,0.229232788086,0.021420955658,0.0245778560638,0.00225186347961,1.82217407227
77,0.177331924438,0.0199689865112,0.0228362083435,0.00227093696594,1.89017295837
78,0.199605941772,0.0198910236359,0.0235359668732,0.00253391265869,1.85043883324
79,0.183766126633,0.0201299190521,0.02388215065,0.00222492218018,1.90520787239
80,0.188751935959,0.0199811458588,0.0229620933533,0.00215601921082,1.92943000793
81,0.214869976044,0.0208160877228,0.0249090194702,0.00290203094482,1.94146585464
82,0.180902957916,0.0203771591187,0.0238111019135,0.00219202041626,1.99254703522
83,0.179025888443,0.0197532176971,0.0245721340179,0.00279998779297,1.95743584633
84,0.16494011879,0.02055311203,0.0239479541779,0.00217986106873,2.00187110901
85,0.170990228653,0.0201780796051,0.022677898407,0.00280499458313,2.03405618668
86,0.180050849915,0.0202629566193,0.024453163147,0.00334095954895,1.9766998291
87,0.185820102692,0.0201230049133,0.0237619876862,0.00229001045227,2.00267195702
88,0.192779064178,0.0206620693207,0.0235459804535,0.00218605995178,2.02021408081
89,0.163298130035,0.0202980041504,0.0264401435852,0.00238704681396,2.07641601562
90,0.185458898544,0.019907951355,0.0235891342163,0.00253295898438,2.07881402969
91,0.189640045166,0.0208611488342,0.0261199474335,0.00274300575256,2.0491900444
92,0.169362068176,0.0205931663513,0.0249269008636,0.00233197212219,2.21774101257
93,0.171768903732,0.021152973175,0.0253570079803,0.00227522850037,2.13098311424
94,0.189209938049,0.0198450088501,0.0247390270233,0.00226402282715,2.19639492035
95,0.178879022598,0.0199129581451,0.0236179828644,0.00228095054626,2.15073204041
96,0.19633603096,0.0207087993622,0.0230300426483,0.00231885910034,2.16569399834
97,0.155098199844,0.0199370384216,0.0238499641418,0.00306391716003,2.18558287621
98,0.169794082642,0.0200521945953,0.0243990421295,0.00306987762451,2.24470305443
99,0.185829877853,0.0209600925446,0.0238540172577,0.00233101844788,2.27612900734
