step,run,get,set,free,run_up_to_step
0,108.617072105,0.375805139542,0.417373895645,0.0958259105682,107.825099945
1,65.6289138794,0.34438586235,0.3552069664,0.0713229179382,138.527296066
2,101.313480854,0.366693019867,0.431514024734,0.104110002518,170.105926037
3,108.924688816,0.285394906998,0.41916012764,0.0945570468903,223.42366004
4,92.639288187,0.277097940445,0.417865037918,0.10598897934,298.715135098
5,90.7628042698,0.350080966949,0.349615097046,0.108085155487,344.542835951
6,76.532941103,0.283831834793,0.442921161652,0.10795378685,403.71459198
7,68.0575993061,0.29212808609,0.363591909409,0.0804190635681,440.158821821
8,64.3966691494,0.353090047836,0.438133955002,0.103249073029,495.715986967
9,62.4705638885,0.284960031509,0.429686069489,0.102280139923,570.712328911
10,52.3267729282,0.438607931137,0.433497905731,0.103255033493,704.232802868
11,53.5049521923,0.394556999207,0.455996990204,0.113372087479,786.878246069
12,51.8502960205,0.429070949554,0.456003904343,0.138432979584,814.564399004
13,49.8551230431,0.324007034302,0.408987998962,0.0958979129791,848.720676899
14,47.113929987,0.344571113586,0.417299032211,0.0909199714661,838.141700983
15,45.6926198006,0.377026081085,0.387424945831,0.0823681354523,864.562504053
16,45.6073639393,0.324860095978,0.412428855896,0.113008022308,720.083249092
17,45.9421138763,0.339962005615,0.406628847122,0.0935668945312,764.601538897
18,44.4988567829,0.299190998077,0.368375062943,0.0868549346924,786.779958963
19,41.8022418022,0.328035116196,0.370260953903,0.0853259563446,821.938267946
20,43.666246891,0.329106092453,0.358993053436,0.0767221450806,874.03166604
21,41.5916340351,0.322160005569,0.414569854736,0.0958771705627,894.59532094
22,41.1011481285,0.346714019775,0.514564990997,0.139493942261,897.175948858
23,44.6088020802,0.408448934555,0.511684179306,0.12207698822,997.583508015
24,43.9861140251,0.411391973495,0.506264925003,0.171253919601,1001.59391403
25,42.6281168461,0.34651017189,0.507447957993,0.131026029587,1047.70334005
26,40.2386860847,0.355856895447,0.504132986069,0.2270591259,1079.08274221
27,41.187869072,0.434303998947,0.529823064804,0.127985954285,1092.58955193
28,40.6364290714,0.420038938522,0.555866956711,0.114571094513,1115.28590417
29,35.3320350647,0.327674865723,0.437861919403,0.0875399112701,1040.42993307
30,37.7400820255,0.342031955719,0.359371185303,0.0779511928558,1057.42572093
31,35.8027319908,0.372274160385,0.392637968063,0.08855509758,1110.95882797
32,35.9080350399,0.338259935379,0.393243074417,0.0792338848114,1108.72925186
33,37.0157270432,0.366502046585,0.415598869324,0.090283870697,1156.42817211
34,35.8606240749,0.337625980377,0.405078887939,0.0890018939972,1209.43146491
35,35.0187470913,0.349740028381,0.494369029999,0.118381023407,1277.02469897
36,35.5740721226,0.396787881851,0.425992965698,0.0892767906189,1207.45946789
37,34.3371040821,0.326381921768,0.620527982712,0.155205011368,1274.43343997
38,34.0267441273,0.33883690834,0.427757024765,0.0886528491974,1224.4221518
39,37.2768070698,0.364998817444,0.418265104294,0.0932791233063,1241.30942893
40,34.8592238426,0.34010219574,0.448914051056,0.106674909592,1228.44826889
41,33.2706689835,0.402152061462,0.418378829956,0.104721069336,1289.16392803
42,37.2731568813,0.399265050888,0.39696598053,0.0835769176483,1333.56380796
43,35.6985108852,0.378976821899,0.459986925125,0.100073814392,1295.05205202
44,35.3255717754,0.368926763535,0.493563890457,0.128746986389,1324.44335699
45,34.4217278957,0.353914022446,0.492301940918,0.123743772507,1390.222054
46,36.6178841591,0.307395935059,0.471822977066,0.101747989655,1452.85406899
47,36.6364738941,0.356878042221,0.397349119186,0.106400966644,1450.21620011
48,36.7926161289,0.405039072037,0.459367990494,0.112210035324,1450.46366596
49,35.4207010269,0.301666021347,0.414700984955,0.0866150856018,1414.51668692
50,33.9794478416,0.377303123474,0.422955036163,0.105491876602,1448.86365795
51,24.8208692074,0.405958890915,0.494292020798,0.115395069122,1590.24092793
52,16.3487429619,0.386788129807,0.417070865631,0.0794157981873,1669.64237213
53,11.5031380653,0.356324911118,0.440456867218,0.100485086441,1498.71254587
54,12.4133791924,0.321024894714,0.52433013916,0.155391931534,1592.98993611
55,11.3900797367,0.522505044937,0.547137975693,0.154000043869,1529.93245912
56,12.2967977524,0.413532018661,0.419749975204,0.0889658927917,1567.1184299
57,12.3156340122,0.504647016525,0.505008935928,0.140731811523,1591.69517899
58,11.6854801178,0.465148925781,0.415538787842,0.0870931148529,1619.82432604
59,11.5092759132,0.341558933258,0.435181856155,0.105498075485,1618.49586987
60,11.2581989765,0.426075935364,0.528542041779,0.0856029987335,1653.93936586
61,13.4691810608,0.394258975983,0.585913181305,0.169574975967,1812.81142497
62,10.9526789188,0.336646080017,0.449991941452,0.113318920135,1936.69942117
63,12.8278141022,0.36820101738,0.474850893021,0.112483978271,1972.69897103
64,12.6993470192,0.359917879105,0.380681991577,0.0827829837799,1916.76137209
65,12.2779579163,0.435312986374,0.3918800354,0.0969290733337,1775.61531115
66,12.7231478691,0.391864061356,0.42658495903,0.0965220928192,1938.72139406
67,11.2817459106,0.307744979858,0.398722171783,0.128842115402,2004.53696704
68,12.1642928123,0.49414896965,0.442867994308,0.151417016983,1812.7334609
69,11.3528852463,0.403771877289,0.437799930573,0.0968341827393,2009.80341887
70,12.5676481724,0.398514032364,0.5050740242,0.0932660102844,1862.29635215
71,11.8663918972,0.356710910797,0.508578062057,0.139379024506,2072.02927804
72,13.446680069,0.427258014679,0.600033998489,0.0950388908386,1970.75091505
73,11.7488851547,0.342001914978,0.428693056107,0.0829420089722,1996.72676396
74,12.3713040352,0.465761899948,0.450065135956,0.105009078979,2126.77178001
75,12.971157074,0.352291107178,0.474438905716,0.116876840591,1869.39528084
76,11.5938169956,0.322077989578,0.438388109207,0.105740070343,1919.651407
77,11.6663689613,0.366460084915,0.474188089371,0.118520021439,2166.43794298
78,12.2106978893,0.368636846542,0.574552059174,0.158832073212,1809.43862295
79,10.6315009594,0.300089836121,0.386901855469,0.0799689292908,1825.02353001
80,12.6201858521,0.36941409111,0.440786123276,0.0974390506744,1906.10860014
81,11.9901762009,0.338669061661,0.52300786972,0.145062923431,2308.18703389
82,11.5914750099,0.346570968628,0.471768140793,0.113957881927,1899.668571
83,12.8159511089,0.449337005615,0.411876916885,0.0943961143494,2027.08130717
84,11.3348088264,0.417246103287,0.487721920013,0.100568056107,1865.20476818
85,12.1014740467,0.345650196075,0.570533037186,0.085606098175,1938.43122196
86,11.0450119972,0.343276977539,0.445742845535,0.106971025467,1770.15490198
87,11.5995230675,0.375,0.418380022049,0.09539103508,1947.01113319
88,13.1203007698,0.399884939194,0.575664043427,0.167537927628,2284.707443
89,12.106908083,0.359751224518,0.56289100647,0.16642999649,2461.48874998
90,12.8122069836,0.405806064606,0.402659893036,0.0925071239471,1944.12072492
91,11.6917331219,0.28706908226,0.413666009903,0.107465028763,1969.32422018
92,11.7490489483,0.332092761993,0.442295074463,0.0886199474335,2013.43878293
93,11.0664937496,0.334452152252,0.414556026459,0.0962250232697,1866.5108099
94,12.2460610867,0.365723133087,0.460699796677,0.108407974243,1817.57898593
95,12.0694510937,0.302490949631,0.444173812866,0.0965111255646,2682.84176278
96,12.4357681274,0.391354084015,0.602239847183,0.165967941284,1963.4593389
97,11.3462588787,0.326176166534,0.452330827713,0.106278896332,2054.23821998
98,13.6973950863,0.334632873535,0.463979959488,0.132594108582,2068.32514811
99,11.380243063,0.341501951218,0.419538021088,0.0926330089569,1814.62580085
