step,run,get,set,free,run_up_to_step
0,0.0151619911194,0.00383901596069,0.00418281555176,0.000365972518921,0.0155742168427
1,0.0080943107605,0.0037579536438,0.00416207313538,0.000382900238037,0.0188989639282
2,0.00497913360596,0.00385689735413,0.00408387184143,0.000364065170288,0.0178689956665
3,0.00689196586609,0.00392913818359,0.0043261051178,0.000394105911255,0.0215768814087
4,0.00597381591797,0.00379300117493,0.00464200973511,0.000381946563721,0.0226399898529
5,0.00574469566345,0.00393104553223,0.00424098968506,0.000375032424927,0.0474298000336
6,0.00613307952881,0.00391793251038,0.00413393974304,0.00037407875061,0.0263071060181
7,0.0064971446991,0.00359201431274,0.00430703163147,0.000373125076294,0.0269520282745
8,0.00564503669739,0.00377321243286,0.00421810150146,0.000396966934204,0.0277581214905
9,0.00590991973877,0.00343585014343,0.00405406951904,0.000371932983398,0.0271849632263
10,0.0060350894928,0.00397181510925,0.00460410118103,0.000396013259888,0.0309569835663
11,0.00558686256409,0.00353002548218,0.00445508956909,0.000239849090576,0.0309989452362
12,0.00646090507507,0.0041139125824,0.00453090667725,0.000450134277344,0.0732672214508
13,0.00517892837524,0.00349187850952,0.00451898574829,0.000422954559326,0.0346660614014
14,0.00550985336304,0.00377702713013,0.00405502319336,0.00037407875061,0.0360169410706
15,0.00626015663147,0.00329208374023,0.00386786460876,0.000394105911255,0.0260498523712
16,0.00585079193115,0.00240898132324,0.00445294380188,0.000258922576904,0.0391960144043
17,0.00536894798279,0.00376105308533,0.00427603721619,0.000525951385498,0.0696120262146
18,0.00649690628052,0.00368118286133,0.0040910243988,0.000411033630371,0.0406138896942
19,0.00544905662537,0.00302815437317,0.00457811355591,0.000414133071899,0.0415968894958
20,0.0057258605957,0.00344109535217,0.00413990020752,0.000618934631348,0.0355179309845
21,0.0056848526001,0.00358295440674,0.00458288192749,0.000396013259888,0.043624162674
22,0.00518107414246,0.0034499168396,0.00438189506531,0.000333070755005,0.0462729930878
23,0.00504803657532,0.00314378738403,0.00431394577026,0.000443935394287,0.0785531997681
24,0.00562691688538,0.00354194641113,0.00466179847717,0.000486850738525,0.0379521846771
25,0.00428581237793,0.00231719017029,0.00304794311523,0.000384092330933,0.049339056015
26,0.00517201423645,0.00230503082275,0.00469207763672,0.00046181678772,0.0501530170441
27,0.00502514839172,0.00349283218384,0.00410389900208,0.000393152236938,0.0511600971222
28,0.0555348396301,0.00266098976135,0.00437188148499,0.000384092330933,0.0486240386963
29,0.00476217269897,0.0042781829834,0.00438404083252,0.000303030014038,0.0537838935852
30,0.00493788719177,0.00344395637512,0.00323009490967,0.000393152236938,0.055685043335
31,0.0051748752594,0.00229978561401,0.0045440196991,0.000402927398682,0.0584690570831
32,0.00519800186157,0.00366592407227,0.00436401367188,0.000368118286133,0.0492978096008
33,0.00535798072815,0.00261998176575,0.00251078605652,0.000240802764893,0.0565299987793
34,0.0059118270874,0.00391483306885,0.00442290306091,0.000499963760376,0.13773393631
35,0.00513792037964,0.00357389450073,0.00418615341187,0.000454902648926,0.0620620250702
36,0.00512790679932,0.00346803665161,0.00438594818115,0.000397205352783,0.0654680728912
37,0.00556612014771,0.00221300125122,0.00402593612671,0.000386953353882,0.0558738708496
38,0.00559687614441,0.00413990020752,0.00471901893616,0.000494956970215,0.112239837646
39,0.00529384613037,0.00251483917236,0.00445508956909,0.000477075576782,0.0675549507141
40,0.00481772422791,0.00398588180542,0.00460886955261,0.000593185424805,0.0704829692841
41,0.00379300117493,0.00257396697998,0.00427794456482,0.000452041625977,0.0723149776459
42,0.00526309013367,0.00401186943054,0.00263500213623,0.000370979309082,0.0711059570312
43,0.00524878501892,0.00423908233643,0.00435304641724,0.000509023666382,0.106916904449
44,0.00527000427246,0.00236105918884,0.00433087348938,0.000487089157104,0.0728468894958
45,0.00496792793274,0.00350093841553,0.00440120697021,0.000401973724365,0.0731279850006
46,0.00501108169556,0.00330209732056,0.00403690338135,0.000376224517822,0.0693919658661
47,0.00505113601685,0.00383305549622,0.0044379234314,0.000497102737427,0.130486011505
48,0.00512790679932,0.00414705276489,0.00436305999756,0.000422954559326,0.0785338878632
49,0.00381898880005,0.00232791900635,0.00305700302124,0.000252962112427,0.0798540115356
50,0.00396800041199,0.00232791900635,0.00270485877991,0.000283002853394,0.0813629627228
51,0.00520324707031,0.00378918647766,0.00399017333984,0.000494956970215,0.0830161571503
52,0.00481009483337,0.00258207321167,0.00476598739624,0.000524997711182,0.116079092026
53,0.00435090065002,0.00369787216187,0.00443315505981,0.000456094741821,0.0873591899872
54,0.00541090965271,0.00228786468506,0.00406503677368,0.000411033630371,0.0846860408783
55,0.00393509864807,0.00238513946533,0.00428795814514,0.000242948532104,0.0862472057343
56,0.00505805015564,0.00343203544617,0.00257015228271,0.000257968902588,0.0878570079803
57,0.00546908378601,0.00372099876404,0.00425505638123,0.000498056411743,0.152892827988
58,0.00540089607239,0.00394105911255,0.00434708595276,0.000488042831421,0.0901839733124
59,0.00389909744263,0.00234699249268,0.00406813621521,0.000427007675171,0.0911710262299
60,0.00503778457642,0.00353097915649,0.00439786911011,0.000439882278442,0.0923960208893
61,0.00438284873962,0.00360298156738,0.00439381599426,0.000531911849976,0.127056837082
62,0.0046751499176,0.00377702713013,0.0042769908905,0.000407218933105,0.0884699821472
63,0.00510191917419,0.00404405593872,0.00460290908813,0.000264167785645,0.1000020504
64,0.00479316711426,0.0038731098175,0.00259399414062,0.000286102294922,0.0953540802002
65,0.00511312484741,0.00411105155945,0.00429081916809,0.000444889068604,0.207373142242
66,0.00489902496338,0.00410199165344,0.00420784950256,0.000487089157104,0.101477861404
67,0.00481200218201,0.00385308265686,0.00262498855591,0.000286102294922,0.0997059345245
68,0.00465703010559,0.00342202186584,0.00415301322937,0.000417947769165,0.102503061295
69,0.00498104095459,0.00392818450928,0.00446605682373,0.000308990478516,0.15313911438
70,0.00359606742859,0.00243282318115,0.00262713432312,0.00025486946106,0.0903759002686
71,0.00517702102661,0.00362706184387,0.00452399253845,0.000425100326538,0.107038021088
72,0.00361299514771,0.00228095054626,0.00405311584473,0.000418901443481,0.104552984238
73,0.00454807281494,0.00418090820312,0.00456500053406,0.000499963760376,0.159100055695
74,0.0047390460968,0.0024881362915,0.00463008880615,0.000353097915649,0.111452817917
75,0.00524282455444,0.00365018844604,0.00401401519775,0.000395059585571,0.111854076385
76,0.00502920150757,0.00365710258484,0.00419902801514,0.000408172607422,0.113086938858
77,0.00482797622681,0.00267696380615,0.00458216667175,0.000468015670776,0.163633108139
78,0.00447082519531,0.00375509262085,0.00439286231995,0.000327825546265,0.115008831024
79,0.00379514694214,0.00388288497925,0.00417685508728,0.000419855117798,0.116939067841
80,0.0044641494751,0.00212001800537,0.00427007675171,0.00049090385437,0.118547916412
81,0.00330781936646,0.0026068687439,0.00434684753418,0.000483989715576,0.171088933945
82,0.00515294075012,0.0035240650177,0.00410795211792,0.000516891479492,0.121032953262
83,0.00505614280701,0.00365686416626,0.00420713424683,0.00042200088501,0.122069835663
84,0.00484681129456,0.0024402141571,0.00452208518982,0.000291109085083,0.120764017105
85,0.00505995750427,0.00419211387634,0.00457692146301,0.000453948974609,0.193143129349
86,0.00352215766907,0.00246500968933,0.00260496139526,0.000424146652222,0.109511852264
87,0.00506711006165,0.00354695320129,0.00459790229797,0.000433206558228,0.127743005753
88,0.00489783287048,0.00340294837952,0.00422787666321,0.000380992889404,0.128896951675
89,0.00486302375793,0.0041389465332,0.00445485115051,0.000485897064209,0.200330972672
90,0.00380110740662,0.00251078605652,0.00261306762695,0.000294923782349,0.127305984497
91,0.00464797019958,0.0023021697998,0.00438809394836,0.000398874282837,0.133262872696
92,0.00470399856567,0.00340914726257,0.00494384765625,0.00060510635376,0.134974956512
93,0.00456404685974,0.00383400917053,0.00421905517578,0.000418186187744,0.134869098663
94,0.00318694114685,0.002357006073,0.00251483917236,0.000249147415161,0.134243011475
95,0.00466704368591,0.00326013565063,0.00436902046204,0.000243902206421,0.130949020386
96,0.00490689277649,0.003821849823,0.00414109230042,0.000363111495972,0.136734962463
97,0.00348424911499,0.00371599197388,0.00476217269897,0.000545024871826,0.255120992661
98,0.00486993789673,0.00411415100098,0.00412082672119,0.000462055206299,0.141362905502
99,0.00401401519775,0.00236296653748,0.00458192825317,0.000416040420532,0.147310972214
