step,run,get,set,free,run_up_to_step
0,0.026162147522,0.00605201721191,0.00715303421021,0.000564098358154,0.0276470184326
1,0.0322489738464,0.00570797920227,0.00736618041992,0.000651121139526,0.0464518070221
2,0.0259079933167,0.00577211380005,0.00730490684509,0.00061297416687,0.0673279762268
3,0.0259480476379,0.00595998764038,0.00740909576416,0.000575065612793,0.0917789936066
4,0.0262258052826,0.00591111183167,0.00735807418823,0.000612020492554,0.112978935242
5,0.0257790088654,0.00572490692139,0.00710606575012,0.000591993331909,0.128060817719
6,0.0256018638611,0.00594711303711,0.00703310966492,0.000627994537354,0.149392843246
7,0.0257337093353,0.00565910339355,0.00739407539368,0.000606060028076,0.170758962631
8,0.0268850326538,0.00570487976074,0.00699591636658,0.000570774078369,0.193099975586
9,0.0262060165405,0.00554394721985,0.00801610946655,0.000658988952637,0.216490030289
10,0.0339801311493,0.00625491142273,0.00776410102844,0.000651121139526,0.271533966064
11,0.0341930389404,0.00619602203369,0.00754904747009,0.000779151916504,0.289785146713
12,0.0283401012421,0.00612902641296,0.00760698318481,0.000636100769043,0.312754869461
13,0.0274970531464,0.0060760974884,0.00741982460022,0.000561952590942,0.333773851395
14,0.0289599895477,0.00628900527954,0.00739002227783,0.000774145126343,0.381275177002
15,0.0295207500458,0.00625205039978,0.00737500190735,0.000659942626953,0.381885051727
16,0.0266389846802,0.00568580627441,0.00708794593811,0.000586032867432,0.403707027435
17,0.024934053421,0.00571703910828,0.00706100463867,0.000585079193115,0.394452095032
18,0.0258197784424,0.00574207305908,0.00727701187134,0.000639915466309,0.435821056366
19,0.0257151126862,0.0057590007782,0.00722813606262,0.000655889511108,0.425251960754
20,0.0254237651825,0.00573587417603,0.00698685646057,0.000568151473999,0.448145866394
21,0.0259470939636,0.00565409660339,0.00707721710205,0.000592947006226,0.476824998856
22,0.0261690616608,0.00561904907227,0.00725603103638,0.000692129135132,0.494181156158
23,0.0268571376801,0.00560784339905,0.007080078125,0.000576019287109,0.510823965073
24,0.025425195694,0.00565385818481,0.00730991363525,0.000591993331909,0.537478923798
25,0.0261390209198,0.00571393966675,0.00702905654907,0.000624895095825,0.58394408226
26,0.0255968570709,0.00554800033569,0.00729513168335,0.000735998153687,0.576588869095
27,0.0254347324371,0.00579786300659,0.00724101066589,0.000591993331909,0.596227884293
28,0.0255920886993,0.00576400756836,0.00706315040588,0.000612020492554,0.629193782806
29,0.0362050533295,0.0066659450531,0.00801110267639,0.000764846801758,0.658905029297
30,0.0282979011536,0.00631308555603,0.00770497322083,0.000662803649902,0.758429050446
31,0.0279960632324,0.00687503814697,0.00755286216736,0.000695943832397,0.772029876709
32,0.0285739898682,0.00645303726196,0.00777816772461,0.000671863555908,0.787636995316
33,0.0295991897583,0.0063362121582,0.00755882263184,0.000607013702393,0.873595952988
34,0.0252439975739,0.00562977790833,0.00726199150085,0.000625848770142,0.746800899506
35,0.0253241062164,0.00559186935425,0.00721311569214,0.000779867172241,0.789309024811
36,0.025239944458,0.0058708190918,0.00731992721558,0.000611066818237,0.804388999939
37,0.0250980854034,0.00555396080017,0.00707006454468,0.000622034072876,0.808980941772
38,0.0251710414886,0.00553488731384,0.00707387924194,0.00058913230896,0.832625865936
39,0.0254089832306,0.00577306747437,0.00722193717957,0.000606060028076,0.842077970505
40,0.0252709388733,0.00573801994324,0.00708603858948,0.000635862350464,0.898873090744
41,0.0254247188568,0.00573301315308,0.00700712203979,0.000612020492554,0.897691011429
42,0.0345859527588,0.00571203231812,0.00710391998291,0.000673055648804,0.927659034729
43,0.0255341529846,0.00574111938477,0.00781297683716,0.000678062438965,0.946016073227
44,0.0289928913116,0.00627708435059,0.00780892372131,0.000799894332886,1.10254001617
45,0.0283160209656,0.00630307197571,0.00764918327332,0.000679016113281,1.1252758503
46,0.0279641151428,0.00623202323914,0.00688815116882,0.000992774963379,1.12024307251
47,0.0279102325439,0.00617599487305,0.00707006454468,0.000677108764648,1.17930579185
48,0.0252559185028,0.00580310821533,0.00715899467468,0.000649929046631,1.03586697578
49,0.0252931118011,0.00575089454651,0.00705409049988,0.000626802444458,1.05881309509
50,0.0254998207092,0.00564980506897,0.00690793991089,0.000593900680542,1.07381892204
51,0.0253949165344,0.00572299957275,0.00720000267029,0.000629186630249,1.10390305519
52,0.0261380672455,0.005784034729,0.00716590881348,0.000648975372314,1.12145900726
53,0.0258808135986,0.00592994689941,0.00739288330078,0.000822067260742,1.46890592575
54,0.0253870487213,0.00581097602844,0.00721597671509,0.000589847564697,1.18909907341
55,0.0254950523376,0.00573992729187,0.00716304779053,0.000598907470703,1.18060588837
56,0.0248610973358,0.00561594963074,0.00797295570374,0.00067400932312,1.20330786705
57,0.0292408466339,0.00628614425659,0.00757503509521,0.000665903091431,1.41212296486
58,0.0298049449921,0.00659203529358,0.00764513015747,0.000655174255371,1.39474916458
59,0.0256578922272,0.00688600540161,0.00788688659668,0.000638008117676,1.4714038372
60,0.0254468917847,0.00578594207764,0.00731492042542,0.000615835189819,1.30191898346
61,0.0260891914368,0.00585603713989,0.00738406181335,0.000592947006226,1.31278300285
62,0.0248069763184,0.00585913658142,0.00739908218384,0.000655174255371,1.63550806046
63,0.024875164032,0.00579500198364,0.00735187530518,0.00062108039856,1.34832811356
64,0.0256772041321,0.00582790374756,0.00763201713562,0.000635862350464,1.36868476868
65,0.0261540412903,0.00580501556396,0.00736880302429,0.000602006912231,1.39005899429
66,0.0261240005493,0.0060179233551,0.00722098350525,0.000614881515503,1.41572213173
67,0.029602766037,0.00659704208374,0.00791907310486,0.000668048858643,1.43312883377
68,0.028913974762,0.00635886192322,0.00783610343933,0.000716924667358,1.69273304939
69,0.0259289741516,0.00560808181763,0.00721383094788,0.000740051269531,1.4957690239
70,0.0265362262726,0.00581908226013,0.00747299194336,0.00070595741272,1.52121710777
71,0.0419631004333,0.0058479309082,0.00745296478271,0.000654935836792,1.51829004288
72,0.0260798931122,0.00572204589844,0.0076220035553,0.000822067260742,1.54014897346
73,0.0264849662781,0.00576901435852,0.00734710693359,0.000648021697998,1.55836796761
74,0.0263900756836,0.00593709945679,0.00773501396179,0.00062108039856,1.58120894432
75,0.0259141921997,0.005784034729,0.00724601745605,0.000658988952637,1.60028481483
76,0.0260999202728,0.00582408905029,0.00770401954651,0.000638008117676,1.6283261776
77,0.0287289619446,0.00621294975281,0.00811815261841,0.000832080841064,1.89905309677
78,0.0272440910339,0.00664019584656,0.00818109512329,0.000684022903442,1.73080992699
79,0.0255398750305,0.00579905509949,0.00750112533569,0.000651836395264,1.72424912453
80,0.0257997512817,0.00585007667542,0.00719404220581,0.000602006912231,1.70442605019
81,0.025826215744,0.00593709945679,0.00738501548767,0.000601053237915,1.73075413704
82,0.0260760784149,0.005863904953,0.00723791122437,0.000638961791992,1.74214816093
83,0.0257678031921,0.00604701042175,0.00752806663513,0.000895977020264,2.18712806702
84,0.0260398387909,0.0058159828186,0.00739097595215,0.000608921051025,1.78965401649
85,0.0298550128937,0.00647306442261,0.00812792778015,0.000688076019287,1.83244204521
86,0.0279519557953,0.00631284713745,0.0075511932373,0.000805139541626,2.08294606209
87,0.0277581214905,0.00643396377563,0.00720405578613,0.000618934631348,2.10142588615
88,0.025945186615,0.00592613220215,0.00730395317078,0.000676870346069,1.87420916557
89,0.0254988670349,0.00584411621094,0.00725388526917,0.000611066818237,1.88965916634
90,0.0256671905518,0.00586605072021,0.00737690925598,0.000798940658569,2.33705615997
91,0.0259609222412,0.00592589378357,0.00744199752808,0.000662088394165,1.94296002388
92,0.0257730484009,0.00584292411804,0.00731086730957,0.000609874725342,1.95588707924
93,0.0261890888214,0.00591516494751,0.00743794441223,0.000668048858643,1.98786091805
94,0.0285081863403,0.00624394416809,0.00760293006897,0.000677108764648,2.23854088783
95,0.0288128852844,0.00627613067627,0.00852084159851,0.000894069671631,2.29794502258
96,0.0287280082703,0.00626921653748,0.00782108306885,0.00090503692627,2.35506486893
97,0.0254499912262,0.00585293769836,0.00726795196533,0.000627040863037,2.09115505219
98,0.0260229110718,0.00588393211365,0.00756311416626,0.000624895095825,2.08227491379
99,0.025416135788,0.00574207305908,0.00748896598816,0.000623941421509,2.09756493568
