step,run,get,set,free,run_up_to_step
0,0.00912499427795,0.00154113769531,0.00152707099915,0.000195980072021,0.00991010665894
1,0.00776171684265,0.00140309333801,0.00159478187561,0.000200033187866,0.0127320289612
2,0.00766205787659,0.00140118598938,0.0015070438385,0.00019907951355,0.0159039497375
3,0.0073561668396,0.0014820098877,0.00151491165161,0.000198125839233,0.0180950164795
4,0.00904703140259,0.00141191482544,0.0015561580658,0.000239133834839,0.020770072937
5,0.00749897956848,0.00143003463745,0.00152492523193,0.000251054763794,0.0235750675201
6,0.00824189186096,0.00142383575439,0.00149989128113,0.00023889541626,0.0271339416504
7,0.00750994682312,0.00141382217407,0.00169992446899,0.000236988067627,0.0295519828796
8,0.00723505020142,0.00146412849426,0.00158095359802,0.000205993652344,0.0328760147095
9,0.00681304931641,0.00140905380249,0.00154709815979,0.000200033187866,0.0347428321838
10,0.00645184516907,0.0014169216156,0.00152611732483,0.000200986862183,0.0370318889618
11,0.00676107406616,0.00163197517395,0.00156688690186,0.000211000442505,0.0863299369812
12,0.00702786445618,0.00142693519592,0.00156688690186,0.000207901000977,0.0439529418945
13,0.00693392753601,0.0014009475708,0.00156307220459,0.000207185745239,0.0460739135742
14,0.00693392753601,0.0014500617981,0.00164103507996,0.000234127044678,0.0488069057465
15,0.00691390037537,0.00143694877625,0.00155401229858,0.000205993652344,0.0516760349274
16,0.00672793388367,0.00137901306152,0.00156807899475,0.000201940536499,0.0529110431671
17,0.00655603408813,0.00152492523193,0.00157499313354,0.000205039978027,0.0897769927979
18,0.0065290927887,0.00135707855225,0.00158596038818,0.000200986862183,0.0591650009155
19,0.00684404373169,0.00138998031616,0.00154709815979,0.000212907791138,0.0630030632019
20,0.00714588165283,0.00142407417297,0.00160717964172,0.000241041183472,0.0664892196655
21,0.00705099105835,0.00138998031616,0.00154614448547,0.000208854675293,0.0682909488678
22,0.00694894790649,0.00139403343201,0.00168800354004,0.000262975692749,0.0705420970917
23,0.00705218315125,0.00147008895874,0.00151491165161,0.000208854675293,0.073704957962
24,0.00696086883545,0.00137305259705,0.00153398513794,0.000200033187866,0.0751399993896
25,0.0461099147797,0.00164389610291,0.00164198875427,0.000223875045776,0.077495098114
26,0.00711989402771,0.00140500068665,0.0015070438385,0.000211000442505,0.0822079181671
27,0.00708103179932,0.00161480903625,0.00155091285706,0.000220060348511,0.114444971085
28,0.00717091560364,0.00141286849976,0.00154185295105,0.000239133834839,0.0880110263824
29,0.00707697868347,0.00157690048218,0.00158596038818,0.000257968902588,0.113972902298
30,0.00728106498718,0.00140714645386,0.00157809257507,0.000213861465454,0.095654964447
31,0.00724601745605,0.00147891044617,0.00159001350403,0.000218152999878,0.1181640625
32,0.00721597671509,0.00145602226257,0.00153613090515,0.000211954116821,0.097088098526
33,0.0069751739502,0.00146794319153,0.00161194801331,0.000211000442505,0.127851963043
34,0.00697898864746,0.00139307975769,0.00156688690186,0.000208139419556,0.102558135986
35,0.00825500488281,0.00203013420105,0.00161385536194,0.000253915786743,0.143226146698
36,0.00731205940247,0.00143814086914,0.00161695480347,0.00022292137146,0.112555980682
37,0.00750494003296,0.00140786170959,0.00158286094666,0.00025200843811,0.110920190811
38,0.00744295120239,0.00144815444946,0.00161695480347,0.000230073928833,0.114923000336
39,0.00722908973694,0.00140905380249,0.00159811973572,0.000250816345215,0.117991924286
40,0.00733780860901,0.00144219398499,0.00154590606689,0.000231981277466,0.118664979935
41,0.0371921062469,0.00147700309753,0.00159907341003,0.00026798248291,0.124122858047
42,0.00752210617065,0.00143909454346,0.00155115127563,0.000218152999878,0.126096010208
43,0.00761890411377,0.00145196914673,0.00162696838379,0.000231981277466,0.158766031265
44,0.00736975669861,0.00147080421448,0.00155282020569,0.000255823135376,0.129260778427
45,0.00739097595215,0.00147914886475,0.00156593322754,0.000224113464355,0.156091928482
46,0.00824379920959,0.00142908096313,0.00155591964722,0.000221014022827,0.140730142593
47,0.00758981704712,0.00143003463745,0.00159907341003,0.000258922576904,0.139103889465
48,0.00773215293884,0.00140905380249,0.00152516365051,0.000272989273071,0.142237901688
49,0.00718212127686,0.00144004821777,0.00152087211609,0.000216007232666,0.167820930481
50,0.00739097595215,0.00142788887024,0.00168299674988,0.000296831130981,0.144670963287
51,0.0074200630188,0.00148701667786,0.00159406661987,0.000240087509155,0.149933099747
52,0.00754714012146,0.0014979839325,0.00171613693237,0.000310897827148,0.152027845383
53,0.00736427307129,0.00148510932922,0.00159287452698,0.000234842300415,0.155948162079
54,0.00730180740356,0.00154995918274,0.00165200233459,0.000238180160522,0.183034181595
55,0.00743412971497,0.00147795677185,0.00158095359802,0.000239849090576,0.162055969238
56,0.00730800628662,0.00144505500793,0.00159883499146,0.000241994857788,0.163969039917
57,0.0072181224823,0.00148391723633,0.00159311294556,0.000234127044678,0.190249204636
58,0.00701785087585,0.00142192840576,0.00157499313354,0.000226020812988,0.166068077087
59,0.00767302513123,0.00154089927673,0.00157403945923,0.000236988067627,0.20561504364
60,0.0198180675507,0.00146794319153,0.00159192085266,0.000250101089478,0.174942970276
61,0.00689721107483,0.00139498710632,0.00158095359802,0.000231027603149,0.179383993149
62,0.00744986534119,0.00142097473145,0.00155901908875,0.000218868255615,0.177397012711
63,0.0072078704834,0.00149703025818,0.00156593322754,0.000277042388916,0.211821079254
64,0.00732803344727,0.00140500068665,0.00152802467346,0.000224828720093,0.185199022293
65,0.00732398033142,0.00146293640137,0.00157308578491,0.000232934951782,0.215558767319
66,0.00696802139282,0.00143885612488,0.00154399871826,0.000233888626099,0.1859998703
67,0.00710511207581,0.00174593925476,0.00150299072266,0.000231027603149,0.196657896042
68,0.00753116607666,0.00161218643188,0.00163698196411,0.000246047973633,0.41700387001
69,0.00732707977295,0.0014820098877,0.00162315368652,0.000253915786743,0.201720952988
70,0.00682592391968,0.00144696235657,0.00156497955322,0.000241994857788,0.198980093002
71,0.00684189796448,0.00151205062866,0.00217294692993,0.000256061553955,0.231610059738
72,0.00706481933594,0.00144982337952,0.00158286094666,0.00025200843811,0.206841945648
73,0.00688791275024,0.00148606300354,0.00160002708435,0.000241994857788,0.212538003922
74,0.006667137146,0.00143885612488,0.0016040802002,0.000324964523315,0.208748102188
75,0.00680708885193,0.00145697593689,0.00156593322754,0.000258922576904,0.244141101837
76,0.00687408447266,0.00155901908875,0.00157904624939,0.000275850296021,0.225452899933
77,0.00645995140076,0.00139284133911,0.00161218643188,0.000236034393311,0.219446897507
78,0.0067400932312,0.00141501426697,0.00157999992371,0.000261068344116,0.247234106064
79,0.00685214996338,0.00140309333801,0.00163197517395,0.000262022018433,0.225803852081
80,0.00682902336121,0.00145101547241,0.00155305862427,0.000250101089478,0.230638027191
81,0.00665307044983,0.00145506858826,0.00153994560242,0.00025200843811,0.258125066757
82,0.00656604766846,0.00143003463745,0.0015389919281,0.000247955322266,0.232254981995
83,0.00645208358765,0.00142812728882,0.00155591964722,0.000249862670898,0.239813804626
84,0.00674724578857,0.00146794319153,0.00161790847778,0.00025486946106,0.497617959976
85,0.00658583641052,0.00157403945923,0.00165319442749,0.000261068344116,0.23731803894
86,0.00673198699951,0.00160884857178,0.00157403945923,0.000272035598755,0.248667001724
87,0.00659418106079,0.00147104263306,0.00159692764282,0.000277996063232,0.278509140015
88,0.00666499137878,0.00145602226257,0.00157499313354,0.000271797180176,0.252071857452
89,0.00642395019531,0.00142693519592,0.00155901908875,0.000259160995483,0.270552873611
90,0.00641012191772,0.00149297714233,0.00159406661987,0.000253915786743,0.279768943787
91,0.00651288032532,0.00142312049866,0.00155901908875,0.000272989273071,0.265528917313
92,0.00663638114929,0.00141882896423,0.00157499313354,0.000283002853394,0.262699842453
93,0.00619006156921,0.00146389007568,0.00156283378601,0.000256061553955,0.289818048477
94,0.00618696212769,0.00146412849426,0.00206398963928,0.000602960586548,0.266957044601
95,0.00631618499756,0.00140595436096,0.00160694122314,0.000271081924438,0.269257068634
96,0.00621891021729,0.00142407417297,0.0015721321106,0.000282049179077,0.301069974899
97,0.00640511512756,0.00138282775879,0.00160193443298,0.000246047973633,0.278023004532
98,0.00616216659546,0.00140500068665,0.00203394889832,0.000346899032593,0.273220062256
99,0.0060441493988,0.00146508216858,0.0015881061554,0.000272035598755,0.30867099762
