step,run,get,set,free,run_up_to_step
0,0.0462799072266,0.00291204452515,0.00316190719604,0.000287055969238,0.0465869903564
1,0.0338311195374,0.00271987915039,0.0029890537262,0.000298976898193,0.0704300403595
2,0.0310389995575,0.00270390510559,0.00313591957092,0.000297069549561,0.0915598869324
3,0.03049492836,0.00291681289673,0.00314211845398,0.000303983688354,0.143418073654
4,0.0250360965729,0.00275993347168,0.00333285331726,0.000309944152832,0.132775068283
5,0.0366401672363,0.00263381004333,0.00337600708008,0.000308036804199,0.152821063995
6,0.0254979133606,0.00280809402466,0.00334692001343,0.000300168991089,0.173101186752
7,0.0271458625793,0.00306797027588,0.00332283973694,0.000303983688354,0.193747997284
8,0.0258271694183,0.00269794464111,0.00317192077637,0.000357151031494,0.214579820633
9,0.0331192016602,0.00272703170776,0.00313806533813,0.00029993057251,0.22945690155
10,0.0204827785492,0.002601146698,0.00294709205627,0.000277996063232,0.240196943283
11,0.0245320796967,0.0027711391449,0.00299286842346,0.000295877456665,0.254046916962
12,0.0223939418793,0.00282621383667,0.00297594070435,0.000308036804199,0.292150020599
13,0.0216202735901,0.00268816947937,0.00314497947693,0.000295162200928,0.281934022903
14,0.0208578109741,0.00274801254272,0.00333404541016,0.00032114982605,0.450740098953
15,0.0231120586395,0.00270295143127,0.0034441947937,0.000283002853394,0.301159858704
16,0.0177791118622,0.00268006324768,0.00293397903442,0.000284910202026,0.308641910553
17,0.0172162055969,0.00260806083679,0.0031681060791,0.00031590461731,0.319597005844
18,0.0201749801636,0.0026228427887,0.00336408615112,0.000288009643555,0.348520994186
19,0.0193290710449,0.00282979011536,0.00334310531616,0.00028395652771,0.338467121124
20,0.0152082443237,0.00310015678406,0.00308394432068,0.000320911407471,0.37242102623
21,0.0149891376495,0.00277709960938,0.00313591957092,0.000288009643555,0.366398096085
22,0.018296957016,0.00316905975342,0.00337910652161,0.000297069549561,0.402397155762
23,0.0161118507385,0.00291395187378,0.00291395187378,0.000293970108032,0.386924982071
24,0.0159106254578,0.00264406204224,0.00331902503967,0.000349998474121,0.389219999313
25,0.0158748626709,0.00261688232422,0.00316095352173,0.000483989715576,0.401921987534
26,0.0163114070892,0.00281000137329,0.00310492515564,0.000405788421631,0.406789064407
27,0.0157589912415,0.0028920173645,0.0033700466156,0.000314950942993,0.423916816711
28,0.0146100521088,0.00277018547058,0.00335788726807,0.000298023223877,0.426625967026
29,0.0143268108368,0.0026490688324,0.00306797027588,0.000288009643555,0.560677051544
30,0.0147979259491,0.00286912918091,0.00315093994141,0.000300884246826,0.464261054993
31,0.0142571926117,0.0026319026947,0.00307416915894,0.000298023223877,0.490312099457
32,0.0136208534241,0.00278806686401,0.00342082977295,0.000300168991089,0.46485209465
33,0.0149230957031,0.00283193588257,0.00323510169983,0.000342130661011,0.497489929199
34,0.0143930912018,0.002610206604,0.00312399864197,0.000306129455566,0.481135845184
35,0.0142059326172,0.00281190872192,0.00311613082886,0.000288963317871,0.498560190201
36,0.0142390727997,0.00265789031982,0.00340795516968,0.000371932983398,0.501579999924
37,0.0155770778656,0.00312399864197,0.00345993041992,0.000316143035889,0.504085063934
38,0.013671875,0.0029718875885,0.00343418121338,0.000330209732056,0.519036054611
39,0.0161218643188,0.00300908088684,0.00376296043396,0.000370025634766,0.530134916306
40,0.0146749019623,0.0029718875885,0.00350093841553,0.000344038009644,0.545834064484
41,0.0153748989105,0.00287389755249,0.0033860206604,0.000301837921143,0.559297800064
42,0.0137510299683,0.00299096107483,0.00339818000793,0.00031304359436,0.56224489212
43,0.0139238834381,0.00329303741455,0.00370121002197,0.000344038009644,0.628027915955
44,0.0142178535461,0.00265097618103,0.00300693511963,0.000294923782349,0.598853111267
45,0.0213859081268,0.00272917747498,0.00305604934692,0.00035285949707,0.598946094513
46,0.0143539905548,0.0029239654541,0.00355005264282,0.000372171401978,0.602269172668
47,0.0147700309753,0.00274801254272,0.00315308570862,0.000327110290527,0.632399082184
48,0.0143568515778,0.00322508811951,0.00313997268677,0.000324964523315,0.614279985428
49,0.0139820575714,0.00275492668152,0.00322389602661,0.000301122665405,0.621910095215
50,0.0144009590149,0.00292801856995,0.00323081016541,0.000295162200928,0.643522024155
51,0.0142638683319,0.00289297103882,0.0035879611969,0.000321865081787,0.648591995239
52,0.0140371322632,0.00322198867798,0.00343704223633,0.000354051589966,0.651968002319
53,0.0142149925232,0.0028247833252,0.0034511089325,0.000354051589966,0.67652797699
54,0.0149159431458,0.00271320343018,0.00306701660156,0.000302076339722,0.667761087418
55,0.0138118267059,0.003173828125,0.00331521034241,0.000335931777954,0.699944972992
56,0.014053106308,0.00271677970886,0.00309205055237,0.000353097915649,0.687195062637
57,0.0143351554871,0.00268602371216,0.00321793556213,0.00031304359436,0.707025051117
58,0.0144579410553,0.00304007530212,0.00308799743652,0.000311851501465,0.707646846771
59,0.0141398906708,0.00269293785095,0.00308418273926,0.000310182571411,0.721335887909
60,0.0144629478455,0.00267601013184,0.00334000587463,0.000306844711304,0.754136800766
61,0.0145230293274,0.00312185287476,0.00326418876648,0.000303983688354,0.734853982925
62,0.0144081115723,0.00267505645752,0.00343012809753,0.000308990478516,0.739484071732
63,0.0142230987549,0.00281596183777,0.0032479763031,0.000298023223877,0.769316911697
64,0.0139060020447,0.00263619422913,0.00325512886047,0.000309944152832,0.76881814003
65,0.0143849849701,0.00274014472961,0.00324606895447,0.000320196151733,1.03500008583
66,0.0135462284088,0.003005027771,0.00313711166382,0.000308990478516,0.782983064651
67,0.0141723155975,0.00268602371216,0.00329780578613,0.000307083129883,0.8249168396
68,0.0143568515778,0.00260901451111,0.00305604934692,0.000336885452271,0.797427892685
69,0.014075756073,0.0026969909668,0.00305795669556,0.000303983688354,0.821457862854
70,0.013897895813,0.00269317626953,0.00317192077637,0.00032901763916,0.831661939621
71,0.0144100189209,0.00308203697205,0.00369811058044,0.000495910644531,0.871794939041
72,0.0140190124512,0.00301194190979,0.00365591049194,0.000419139862061,0.820368051529
73,0.0157690048218,0.00305509567261,0.00344395637512,0.00032901763916,0.874753952026
74,0.0138449668884,0.00279593467712,0.00340294837952,0.000329971313477,0.848870992661
75,0.0147769451141,0.00301003456116,0.00335907936096,0.00032114982605,0.879795074463
76,0.0139408111572,0.00296401977539,0.0033540725708,0.000319004058838,0.861816883087
77,0.0144889354706,0.00288987159729,0.00339913368225,0.000325918197632,0.876222133636
78,0.0142278671265,0.00287508964539,0.00334596633911,0.000324010848999,0.868517875671
79,0.0139870643616,0.00264596939087,0.00301289558411,0.000313997268677,0.950466871262
80,0.014034986496,0.00285696983337,0.00328183174133,0.000515937805176,1.29335212708
81,0.0159931182861,0.00315713882446,0.00222206115723,0.000262022018433,1.03600096703
82,0.0146050453186,0.00293898582458,0.00350594520569,0.000377178192139,0.929605007172
83,0.0145008563995,0.00284910202026,0.00320410728455,0.000314950942993,0.941107034683
84,0.014062166214,0.00280380249023,0.00314497947693,0.00030517578125,0.980672121048
85,0.0149931907654,0.00265598297119,0.00335502624512,0.000312089920044,0.963832139969
86,0.01380610466,0.00302004814148,0.00299906730652,0.00031590461731,0.977648019791
87,0.0140500068665,0.00297808647156,0.00328707695007,0.000360012054443,1.32575201988
88,0.0143759250641,0.0028829574585,0.00334000587463,0.000356197357178,0.992456912994
89,0.0148282051086,0.00294208526611,0.00317406654358,0.000308990478516,1.00215291977
90,0.0141160488129,0.00267219543457,0.00318002700806,0.000318050384521,1.00418305397
91,0.0141899585724,0.00267910957336,0.0032479763031,0.000308036804199,1.02811694145
92,0.0146808624268,0.00285696983337,0.00311994552612,0.000314950942993,1.03450608253
93,0.014169216156,0.002760887146,0.00326418876648,0.000435829162598,1.04652404785
94,0.0142052173615,0.00287008285522,0.00331401824951,0.000316858291626,1.04997706413
95,0.0140700340271,0.00293898582458,0.00309205055237,0.000308036804199,1.06328582764
96,0.0149903297424,0.00289297103882,0.00319886207581,0.000310897827148,1.07344102859
97,0.0139560699463,0.00296497344971,0.00310802459717,0.000306844711304,1.07770299911
98,0.0140709877014,0.00262594223022,0.00308394432068,0.000302076339722,1.07891607285
99,0.0148148536682,0.00268888473511,0.00333380699158,0.000377893447876,1.11334896088
