step,run,get,set,free,run_up_to_step
0,3.4391682148,0.271019220352,0.309984922409,0.0331690311432,3.48268294334
1,3.53984117508,0.258189916611,0.317964076996,0.0335030555725,6.67055702209
2,3.50708079338,0.254137992859,0.316900014877,0.0333650112152,10.5856230259
3,3.52827620506,0.256045103073,0.330358028412,0.0365610122681,13.2746329308
4,4.12251734734,0.280699968338,0.326514959335,0.0368602275848,16.4130599499
5,3.61663198471,0.293879985809,0.328257083893,0.0354931354523,20.9991359711
6,3.75762271881,0.283673048019,0.334482192993,0.03826379776,23.1124470234
7,4.11273884773,0.285461902618,0.340517997742,0.0409879684448,27.0713899136
8,3.58966088295,0.267694950104,0.325167179108,0.0369601249695,30.5039489269
9,3.74793577194,0.276585102081,0.328659057617,0.0394830703735,32.4385259151
10,3.54765892029,0.274019002914,0.327123880386,0.0367870330811,37.3916361332
11,3.50273108482,0.271661043167,0.336097002029,0.038162946701,41.2480289936
12,3.43105196953,0.273162126541,0.343617200851,0.0392000675201,43.4233839512
13,3.54103922844,0.29816198349,0.364753961563,0.0399639606476,46.876543045
14,3.49936914444,0.287125825882,0.340445995331,0.0393090248108,48.8146419525
15,4.0433011055,0.31569314003,0.356204032898,0.0385930538177,53.2696270943
16,3.44611978531,0.285351991653,0.350406169891,0.0405061244965,56.6632399559
17,3.61933994293,0.292371034622,0.35927605629,0.0451040267944,61.6441609859
18,3.47275400162,0.294118881226,0.339601039886,0.0413110256195,64.9742741585
19,3.47651100159,0.299504041672,0.346961975098,0.0439989566803,66.0504961014
20,3.40758085251,0.294937133789,0.365563154221,0.0443689823151,70.7818210125
21,3.50243330002,0.332123994827,0.37057518959,0.0462899208069,73.3450989723
22,3.47262382507,0.311007022858,0.358106136322,0.0477020740509,78.4012799263
23,3.45555281639,0.308330059052,0.355534076691,0.0444309711456,78.5922429562
24,3.63245272636,0.318078994751,0.365096092224,0.0461921691895,83.9362380505
25,3.44736385345,0.301766872406,0.359087944031,0.0439140796661,85.3659238815
26,4.06170392036,0.324968099594,0.362832069397,0.0439789295197,91.2490370274
27,3.45403313637,0.303467988968,0.354945898056,0.0448069572449,92.1764578819
28,3.97425198555,0.319690942764,0.35272693634,0.0472249984741,97.6128060818
29,3.87154507637,0.323904037476,0.387286186218,0.0472178459167,101.943260908
30,3.40206694603,0.309036016464,0.358966827393,0.0446629524231,105.165085077
31,3.46857500076,0.315310001373,0.35896897316,0.0437488555908,105.761134863
32,3.42150497437,0.296015024185,0.3509349823,0.0478079319,109.085566044
33,3.40702319145,0.296168088913,0.339872121811,0.0423200130463,115.503437042
34,4.00962805748,0.298232078552,0.355951070786,0.0421080589294,117.616281986
35,3.46979284286,0.290192127228,0.360288858414,0.0430798530579,119.338845968
36,3.49448490143,0.311497926712,0.371309041977,0.0437240600586,124.389974833
37,4.07072782516,0.32662320137,0.361124038696,0.0429430007935,127.564045906
38,3.61001491547,0.291096925735,0.352779150009,0.0418350696564,131.296917915
39,3.440502882,0.292872905731,0.352603197098,0.0424880981445,131.828042984
40,3.90026283264,0.294955968857,0.341402053833,0.0403361320496,137.660750866
41,3.46907877922,0.294764995575,0.336443901062,0.0396118164062,139.31566906
42,3.45445609093,0.289699077606,0.33863401413,0.0407049655914,139.913964033
43,4.07707571983,0.317606925964,0.366755962372,0.0428531169891,145.764933825
44,4.04813504219,0.330090045929,0.359322786331,0.0446758270264,152.19287014
45,3.45397615433,0.2985060215,0.351102113724,0.0418629646301,154.480301857
46,3.48548936844,0.295531988144,0.339274168015,0.0404720306396,157.440051079
47,3.7409529686,0.298489093781,0.335430860519,0.0393059253693,158.954982042
48,3.45792222023,0.288721084595,0.340835094452,0.0404651165009,161.76362896
49,3.45818805695,0.30890583992,0.336032867432,0.0413410663605,164.698118925
50,3.46921420097,0.339375019073,0.387156963348,0.0458269119263,169.143857956
51,4.04532003403,0.322312116623,0.370362043381,0.0457808971405,174.854319096
52,3.42259812355,0.312870979309,0.371194839478,0.0433709621429,176.943678856
53,3.4710290432,0.305161952972,0.34992814064,0.0411739349365,177.205074072
54,3.58172798157,0.305324792862,0.358042955399,0.0443480014801,180.764886856
55,3.88471913338,0.30367898941,0.334520101547,0.0423011779785,184.584217072
56,3.45245575905,0.293409824371,0.423615932465,0.0481128692627,189.511894941
57,4.05822086334,0.335325956345,0.380185842514,0.0481858253479,193.186250925
58,3.46365690231,0.3321788311,0.389132022858,0.0521559715271,199.334274054
59,3.43510699272,0.32502913475,0.355692863464,0.0487279891968,199.464621782
60,3.43246102333,0.323384046555,0.355030059814,0.0456659793854,204.771728039
61,3.48525381088,0.317897081375,0.360643148422,0.0429599285126,208.261312962
62,3.4680378437,0.31172990799,0.344465970993,0.0442159175873,210.234323978
63,4.05250692368,0.393830060959,0.405622005463,0.0512108802795,214.396046162
64,3.6263320446,0.330960988998,0.410145998001,0.0463721752167,219.340688944
65,3.41984009743,0.31888794899,0.37245798111,0.0461249351501,221.16455102
66,3.99350309372,0.301227092743,0.344979047775,0.043016910553,220.697657108
67,3.48346805573,0.303236961365,0.350032091141,0.0423951148987,227.544910908
68,3.82434892654,0.29771900177,0.339134931564,0.041640996933,232.406399012
69,4.0657389164,0.301687002182,0.342524051666,0.0403521060944,233.481004
70,3.52197694778,0.354182004929,0.391371011734,0.0509679317474,240.590079069
71,3.43378686905,0.347774982452,0.39275598526,0.047199010849,242.3530581
72,3.45013308525,0.344496965408,0.388211011887,0.0441751480103,244.156069994
73,3.4679210186,0.310310125351,0.349768877029,0.042053937912,249.389722109
74,3.4774980545,0.314085006714,0.355660200119,0.0427308082581,249.901998997
75,3.42219519615,0.295811891556,0.348283052444,0.0419459342957,254.746097088
76,3.46855711937,0.293730020523,0.351953029633,0.0405080318451,257.662206173
77,3.62406492233,0.364299058914,0.392670869827,0.0453448295593,264.342261076
78,3.97462320328,0.322593927383,0.37454199791,0.0480899810791,261.801352978
79,4.02260303497,0.31099820137,0.345723867416,0.0422539710999,267.744781971
80,4.0190050602,0.328891992569,0.344357013702,0.0433330535889,270.78898716
81,3.45381903648,0.298512220383,0.340281963348,0.0404360294342,271.321102142
82,3.42676687241,0.293054819107,0.345056056976,0.0399148464203,277.203735113
83,3.46375489235,0.359074115753,0.413856983185,0.045835018158,281.597324848
84,3.4586019516,0.326740026474,0.373982906342,0.0461859703064,284.342041016
85,3.7556951046,0.306087017059,0.348989963531,0.0439319610596,285.079619884
86,3.44261884689,0.295392990112,0.354295015335,0.0440738201141,294.032549858
87,3.41711997986,0.311713933945,0.336723089218,0.0430541038513,294.053671122
88,3.70047688484,0.293887853622,0.33952498436,0.0402648448944,296.340435028
89,3.43273901939,0.403901100159,0.435106992722,0.0596499443054,303.440761089
90,3.48384189606,0.350475788116,0.408934831619,0.0508890151978,308.37570405
91,3.84441614151,0.352009057999,0.425106048584,0.0521070957184,309.361571074
92,4.03464007378,0.362332105637,0.380468845367,0.0448050498962,311.191837072
93,4.04011702538,0.307071208954,0.367422103882,0.0423700809479,313.693296909
94,3.99400687218,0.30793094635,0.345272064209,0.0418689250946,317.758537054
95,3.46122193336,0.299077987671,0.33295416832,0.0410399436951,320.132586956
96,3.43977117538,0.382963180542,0.414800882339,0.0521280765533,327.154539108
97,3.48681807518,0.35010099411,0.400380134583,0.0457019805908,328.105085135
98,3.83479309082,0.330014944077,0.37978219986,0.0444910526276,330.590384007
99,3.44587492943,0.29927110672,0.372167825699,0.0444490909576,336.220875025
