step,run,get,set,free,run_up_to_step
0,0.00749611854553,0.00578093528748,0.00574803352356,0.000515937805176,0.00731205940247
1,0.00575876235962,0.00542187690735,0.00586485862732,0.00052285194397,0.00801491737366
2,0.0056459903717,0.00516605377197,0.00568890571594,0.000525951385498,0.00886011123657
3,0.00567388534546,0.00513792037964,0.00565004348755,0.000509023666382,0.00985217094421
4,0.00594592094421,0.00532102584839,0.0057110786438,0.000531911849976,0.0107369422913
5,0.00585079193115,0.00505900382996,0.00594401359558,0.000529050827026,0.0118548870087
6,0.00585103034973,0.00504899024963,0.00572395324707,0.000526905059814,0.0127689838409
7,0.00611710548401,0.00536513328552,0.00568509101868,0.000515937805176,0.0138211250305
8,0.00597596168518,0.00537991523743,0.00547909736633,0.000504970550537,0.0148210525513
9,0.00578498840332,0.00535416603088,0.0056049823761,0.000507831573486,0.0158109664917
10,0.00576591491699,0.00517702102661,0.00577712059021,0.000603199005127,0.0269920825958
11,0.00614500045776,0.00560712814331,0.00589108467102,0.000787019729614,0.0176589488983
12,0.00611305236816,0.00551390647888,0.006098985672,0.000595808029175,0.0182640552521
13,0.00676703453064,0.00539898872375,0.00624895095825,0.000631093978882,0.0197470188141
14,0.00604891777039,0.00549507141113,0.00598311424255,0.000616073608398,0.0220720767975
15,0.00556492805481,0.00543594360352,0.0064070224762,0.000684022903442,0.0741469860077
16,0.00555896759033,0.00542807579041,0.00564098358154,0.000515937805176,0.0227148532867
17,0.00567197799683,0.00540995597839,0.00578498840332,0.000514030456543,0.0228850841522
18,0.00562477111816,0.00537300109863,0.00557994842529,0.000560998916626,0.0241410732269
19,0.0060498714447,0.00563597679138,0.00595593452454,0.000574111938477,0.026181936264
20,0.00600099563599,0.00521087646484,0.00571918487549,0.000545978546143,0.0260591506958
21,0.00604391098022,0.00528597831726,0.00586605072021,0.000543832778931,0.0267078876495
22,0.00612330436707,0.00554800033569,0.00586199760437,0.000549077987671,0.0286250114441
23,0.0061571598053,0.00533008575439,0.00602602958679,0.000590085983276,0.0589230060577
24,0.00618815422058,0.00539779663086,0.00607514381409,0.00056791305542,0.0299999713898
25,0.00630879402161,0.00550389289856,0.00623798370361,0.000577926635742,0.0306079387665
26,0.00581789016724,0.00565791130066,0.0058810710907,0.000580787658691,0.0317897796631
27,0.00591897964478,0.00571799278259,0.0057680606842,0.000581979751587,0.0334467887878
28,0.00598907470703,0.00542092323303,0.00551509857178,0.000546932220459,0.0339248180389
29,0.00612282752991,0.00533103942871,0.00569987297058,0.00053596496582,0.0344281196594
30,0.00591778755188,0.00533986091614,0.00562882423401,0.000539064407349,0.0358300209045
31,0.00613284111023,0.00542402267456,0.00584197044373,0.000808000564575,0.0368070602417
32,0.00633430480957,0.00530385971069,0.00574207305908,0.000576019287109,0.0379128456116
33,0.00621390342712,0.00541591644287,0.00556993484497,0.000519037246704,0.0389549732208
34,0.00602316856384,0.00540804862976,0.00573396682739,0.000560998916626,0.0392138957977
35,0.00611186027527,0.00521087646484,0.00579404830933,0.000509023666382,0.0398659706116
36,0.00576114654541,0.00517797470093,0.00628018379211,0.00062894821167,0.0427820682526
37,0.00569009780884,0.00596189498901,0.00609397888184,0.000611066818237,0.0420799255371
38,0.00575685501099,0.00578308105469,0.00609302520752,0.000609159469604,0.0440590381622
39,0.00634598731995,0.00564384460449,0.00567889213562,0.000785827636719,0.0438590049744
40,0.00575399398804,0.00545597076416,0.00579118728638,0.000555038452148,0.0453791618347
41,0.0063533782959,0.00543999671936,0.00588202476501,0.000559091567993,0.0453591346741
42,0.00588893890381,0.00544190406799,0.00578093528748,0.000557899475098,0.0473308563232
43,0.00612378120422,0.00539088249207,0.0060830116272,0.000623941421509,0.0487389564514
44,0.00610399246216,0.00583505630493,0.00628209114075,0.000668048858643,0.0483589172363
45,0.00571012496948,0.00588202476501,0.00590896606445,0.000612020492554,0.0502038002014
46,0.00594902038574,0.00562214851379,0.00601005554199,0.000573873519897,0.0509440898895
47,0.00644397735596,0.00581502914429,0.00610899925232,0.00060510635376,0.0514769554138
48,0.0057270526886,0.0055251121521,0.00559687614441,0.000523090362549,0.0523190498352
49,0.00577592849731,0.00541996955872,0.00611305236816,0.000587940216064,0.0529320240021
50,0.00583004951477,0.00592708587646,0.00612092018127,0.000655889511108,0.0541670322418
51,0.0057909488678,0.00581622123718,0.0060019493103,0.000633001327515,0.0559110641479
52,0.00622296333313,0.00553297996521,0.00586676597595,0.000784158706665,0.0567870140076
53,0.00608587265015,0.0055980682373,0.00567007064819,0.000556945800781,0.0569350719452
54,0.00606799125671,0.00529313087463,0.00548410415649,0.000542163848877,0.0577440261841
55,0.00643920898438,0.00591111183167,0.00633907318115,0.000676870346069,0.0590238571167
56,0.00592017173767,0.0058798789978,0.00600600242615,0.000784873962402,0.0603020191193
57,0.00559520721436,0.00572299957275,0.00590491294861,0.000602006912231,0.0609169006348
58,0.00587511062622,0.00556087493896,0.00577592849731,0.000593185424805,0.0615649223328
59,0.00609016418457,0.00555086135864,0.00549983978271,0.000566005706787,0.0630640983582
60,0.00603699684143,0.00539994239807,0.00573587417603,0.000509023666382,0.0632848739624
61,0.00631403923035,0.00616598129272,0.00612211227417,0.000710964202881,0.126129865646
62,0.0056459903717,0.00562691688538,0.00560402870178,0.00055193901062,0.0659151077271
63,0.00569891929626,0.00562000274658,0.00587916374207,0.000557899475098,0.0663361549377
64,0.00589203834534,0.00573801994324,0.00584101676941,0.000539064407349,0.0674300193787
65,0.00598001480103,0.00537300109863,0.00556802749634,0.000523090362549,0.0684180259705
66,0.00608325004578,0.00533699989319,0.00560593605042,0.00050687789917,0.0693409442902
67,0.00592613220215,0.00577020645142,0.00598812103271,0.000561952590942,0.132209062576
68,0.00561904907227,0.00581097602844,0.00571703910828,0.000540018081665,0.0710160732269
69,0.00626611709595,0.00589513778687,0.0060830116272,0.000617027282715,0.0721468925476
70,0.0057590007782,0.00556492805481,0.00556182861328,0.000539064407349,0.0727970600128
71,0.006108045578,0.00536108016968,0.00570392608643,0.000549077987671,0.0729250907898
72,0.00622391700745,0.00556206703186,0.00614595413208,0.000612020492554,0.0742290019989
73,0.00586605072021,0.00580310821533,0.00618600845337,0.000698089599609,0.0754020214081
74,0.00590181350708,0.00560212135315,0.00588917732239,0.00054407119751,0.0766940116882
75,0.00598406791687,0.00567007064819,0.00582003593445,0.000576019287109,0.07750415802
76,0.00663709640503,0.00572609901428,0.00595307350159,0.000653028488159,0.0790231227875
77,0.00638604164124,0.00653696060181,0.00671100616455,0.000880002975464,0.0792198181152
78,0.00638604164124,0.00567317008972,0.00578904151917,0.000623941421509,0.0816459655762
79,0.00624203681946,0.00594711303711,0.00641107559204,0.000710964202881,0.0823440551758
80,0.00623798370361,0.00567293167114,0.00839591026306,0.000657081604004,0.0831029415131
81,0.00610613822937,0.00553297996521,0.00579214096069,0.000572919845581,0.083379983902
82,0.00637674331665,0.00631284713745,0.00687503814697,0.000951051712036,0.0842850208282
83,0.00590991973877,0.00588703155518,0.00605392456055,0.000632047653198,0.0856020450592
84,0.00612092018127,0.00563883781433,0.0057578086853,0.000571012496948,0.088173866272
85,0.00616693496704,0.0054349899292,0.00569486618042,0.000532150268555,0.0877981185913
86,0.00628113746643,0.00534510612488,0.00585985183716,0.000566959381104,0.0882141590118
87,0.00622010231018,0.00604701042175,0.00608110427856,0.000638961791992,0.144397974014
88,0.00599217414856,0.00570392608643,0.00620198249817,0.000549793243408,0.0905079841614
89,0.00618386268616,0.00566911697388,0.00587511062622,0.000608921051025,0.0917420387268
90,0.00588393211365,0.00538182258606,0.0056939125061,0.000568866729736,0.0914330482483
91,0.00629234313965,0.00518703460693,0.00574803352356,0.000537157058716,0.091658115387
92,0.0058159828186,0.00587010383606,0.0059220790863,0.000637054443359,0.150538921356
93,0.00593400001526,0.00591492652893,0.0059928894043,0.000637054443359,0.0952739715576
94,0.00588893890381,0.00544095039368,0.00583505630493,0.000567197799683,0.095605134964
95,0.00604605674744,0.00542497634888,0.00579810142517,0.000580072402954,0.0964560508728
96,0.049852848053,0.00585603713989,0.00592994689941,0.000671863555908,0.0967810153961
97,0.00616073608398,0.00576782226562,0.00591993331909,0.000815868377686,0.098965883255
98,0.00655102729797,0.0057110786438,0.00598001480103,0.00074291229248,0.102520942688
99,0.00630712509155,0.00553202629089,0.00590109825134,0.000579833984375,0.10327911377
