step,run,get,set,free,run_up_to_step
0,0.00790905952454,0.000930070877075,0.000976085662842,0.000119924545288,0.00872206687927
1,0.00704503059387,0.000964164733887,0.000828981399536,0.000109910964966,0.0121071338654
2,0.00802493095398,0.000886917114258,0.000931024551392,0.000121831893921,0.0178308486938
3,0.007972240448,0.000879049301147,0.000909090042114,0.000134944915771,0.021301984787
4,0.00795578956604,0.000944137573242,0.00088095664978,0.00011420249939,0.0261359214783
5,0.0101549625397,0.000921964645386,0.00109195709229,0.000143051147461,0.0304679870605
6,0.00791907310486,0.000999927520752,0.000903129577637,0.000156879425049,0.0367150306702
7,0.00663900375366,0.000936031341553,0.000910043716431,0.000139951705933,0.0405020713806
8,0.00686693191528,0.000858068466187,0.000842094421387,0.000117063522339,0.0449681282043
9,0.00599908828735,0.000869035720825,0.000933885574341,0.000117778778076,0.0458290576935
10,0.0070378780365,0.000907897949219,0.000869989395142,0.000109910964966,0.0780029296875
11,0.00782179832458,0.000905990600586,0.000868797302246,0.000118017196655,0.0587811470032
12,0.00709986686707,0.000888109207153,0.000868082046509,0.000118970870972,0.0612750053406
13,0.00702571868896,0.000830888748169,0.000911951065063,0.000112056732178,0.0636930465698
14,0.00639796257019,0.000895977020264,0.000857830047607,0.000114917755127,0.0655109882355
15,0.00662803649902,0.000843048095703,0.000849962234497,0.000109910964966,0.0688579082489
16,0.00615620613098,0.000808000564575,0.000858068466187,0.000113010406494,0.0945210456848
17,0.00637316703796,0.000858068466187,0.000901222229004,0.000108957290649,0.0745840072632
18,0.00634622573853,0.000933885574341,0.000810146331787,0.000109195709229,0.105678081512
19,0.00633502006531,0.000836849212646,0.00100779533386,0.000138998031616,0.080671787262
20,0.00786185264587,0.000905990600586,0.000871181488037,0.000113010406494,0.128246068954
21,0.00831007957458,0.00086498260498,0.00094199180603,0.000120878219604,0.0980768203735
22,0.00723624229431,0.000869989395142,0.000972032546997,0.000144958496094,0.103069067001
23,0.00588202476501,0.000823974609375,0.00081205368042,0.000115156173706,0.0983600616455
24,0.00578022003174,0.00082802772522,0.000885963439941,0.000133037567139,0.102988004684
25,0.00598978996277,0.000844955444336,0.000918865203857,0.000133037567139,0.105934143066
26,0.00606298446655,0.000833034515381,0.000850915908813,0.000110864639282,0.110469102859
27,0.00647807121277,0.000905990600586,0.000857830047607,0.000118017196655,0.14060997963
28,0.00597023963928,0.000821113586426,0.000893831253052,0.000118017196655,0.132332086563
29,0.00596690177917,0.000816822052002,0.000859022140503,0.000113010406494,0.137609004974
30,0.00601625442505,0.000842094421387,0.000862836837769,0.000111103057861,0.132080078125
31,0.00581908226013,0.000818014144897,0.000836133956909,0.000112056732178,0.135296106339
32,0.00580501556396,0.000831127166748,0.00116896629333,0.0001540184021,0.14054608345
33,0.00863194465637,0.00102090835571,0.000970125198364,0.000126123428345,0.172539949417
34,0.00679993629456,0.000947952270508,0.000963926315308,0.000128030776978,0.165147066116
35,0.00659513473511,0.000875949859619,0.000871896743774,0.000139951705933,0.167929887772
36,0.00785708427429,0.000895977020264,0.000974893569946,0.000121831893921,0.61789393425
37,0.00752711296082,0.000887870788574,0.00098991394043,0.000118970870972,0.186307907104
38,0.00741410255432,0.000874996185303,0.000970125198364,0.000120878219604,0.180955171585
39,0.00745987892151,0.000915050506592,0.000921010971069,0.000117063522339,0.189234018326
40,0.0077018737793,0.000860929489136,0.00094199180603,0.000114917755127,0.192816019058
41,0.00766181945801,0.000919818878174,0.00096607208252,0.000118017196655,0.235543966293
42,0.00748181343079,0.000908851623535,0.0010039806366,0.000120162963867,0.213639974594
43,0.00753498077393,0.000877857208252,0.000903129577637,0.000113010406494,0.268896102905
44,0.00760507583618,0.000880002975464,0.00090503692627,0.000117063522339,0.216372013092
45,0.00875306129456,0.0011088848114,0.00100493431091,0.000144958496094,0.235181093216
46,0.00700974464417,0.000962972640991,0.000974893569946,0.000124931335449,0.222790002823
47,0.00659394264221,0.000912189483643,0.000921010971069,0.000121116638184,0.226759910583
48,0.00794410705566,0.000969171524048,0.00100588798523,0.000130176544189,0.260513067245
49,0.00768828392029,0.000942945480347,0.000965118408203,0.000117063522339,0.235551118851
50,0.00747895240784,0.00087308883667,0.000927925109863,0.000121116638184,0.239716053009
51,0.0076220035553,0.000858068466187,0.000885009765625,0.00011420249939,0.248315811157
52,0.00715279579163,0.000833034515381,0.00091290473938,0.000110864639282,0.247164011002
53,0.00633597373962,0.000805854797363,0.000821113586426,0.000112056732178,0.226454019547
54,0.00589299201965,0.000813007354736,0.00080418586731,0.000109195709229,0.22424197197
55,0.0062358379364,0.000848054885864,0.000856876373291,0.000110149383545,0.595877885818
56,0.00635409355164,0.000822067260742,0.000909090042114,0.00011682510376,0.232767820358
57,0.00747179985046,0.000877141952515,0.00100302696228,0.000124931335449,0.271852970123
58,0.00740909576416,0.000949859619141,0.000859975814819,0.0001220703125,0.296954154968
59,0.00648307800293,0.000844955444336,0.000876903533936,0.000118970870972,0.267400026321
60,0.00718784332275,0.000844955444336,0.000916957855225,0.000117063522339,0.302175998688
61,0.00777697563171,0.00086498260498,0.00094199180603,0.000121116638184,0.289294958115
62,0.00795078277588,0.000928163528442,0.000952005386353,0.000116109848022,0.789474010468
63,0.00787401199341,0.000943183898926,0.000974178314209,0.000117063522339,0.299140930176
64,0.00781512260437,0.000947952270508,0.000876903533936,0.000118970870972,0.308140039444
65,0.00743293762207,0.000902891159058,0.000942945480347,0.000114917755127,0.309597015381
66,0.00733089447021,0.00084400177002,0.000863075256348,0.00011682510376,0.317275047302
67,0.00606894493103,0.00080394744873,0.000863075256348,0.000118970870972,0.323781013489
68,0.00605082511902,0.000824928283691,0.000903844833374,0.000130891799927,0.290086984634
69,0.00585198402405,0.000854969024658,0.000840902328491,0.000118017196655,0.323364973068
70,0.00615525245667,0.000858068466187,0.000905990600586,0.000113964080811,0.296701908112
71,0.00624203681946,0.000826120376587,0.00088095664978,0.000113010406494,0.297976016998
72,0.006343126297,0.000816106796265,0.000869989395142,0.000115871429443,0.345356941223
73,0.00915193557739,0.00105810165405,0.00106501579285,0.000144004821777,0.327203035355
74,0.00941610336304,0.00108408927917,0.000949859619141,0.000130891799927,0.385413885117
75,0.00662994384766,0.000900030136108,0.0010039806366,0.000126838684082,0.408018827438
76,0.00729203224182,0.00107288360596,0.000996828079224,0.0001220703125,0.858264923096
77,0.00777101516724,0.000983953475952,0.00092887878418,0.000115871429443,0.388201951981
78,0.00795912742615,0.000916957855225,0.000956058502197,0.000120162963867,0.385159015656
79,0.00717902183533,0.00086498260498,0.000900983810425,0.000113964080811,0.418225765228
80,0.00744605064392,0.000866889953613,0.000918865203857,0.000113964080811,0.378962039948
81,0.00717711448669,0.000850915908813,0.00085186958313,0.000155925750732,0.371820926666
82,0.00642609596252,0.000797986984253,0.000925064086914,0.000124931335449,0.346662998199
83,0.00840401649475,0.00105500221252,0.000980138778687,0.000130891799927,0.412352085114
84,0.0071063041687,0.000953912734985,0.000981092453003,0.0001540184021,0.462546110153
85,0.00639700889587,0.00092601776123,0.000914096832275,0.000115156173706,0.3928129673
86,0.00611805915833,0.000821113586426,0.00084400177002,0.000109910964966,0.386601924896
87,0.00620222091675,0.000838994979858,0.000837087631226,0.000109910964966,0.34706902504
88,0.00637078285217,0.000788927078247,0.000815868377686,0.000108957290649,0.35439991951
89,0.00731325149536,0.000852108001709,0.000952959060669,0.0001220703125,0.87168598175
90,0.00733709335327,0.000911951065063,0.000935077667236,0.000117778778076,0.420623064041
91,0.00732684135437,0.00095796585083,0.000907182693481,0.000117063522339,0.429485082626
92,0.0090537071228,0.00104904174805,0.00113010406494,0.000126838684082,0.468746185303
93,0.00680088996887,0.000967979431152,0.000957012176514,0.000128030776978,0.447479009628
94,0.00689697265625,0.000893831253052,0.000898838043213,0.000119924545288,0.436985969543
95,0.00716090202332,0.000858068466187,0.000918865203857,0.00011682510376,0.449056863785
96,0.00765371322632,0.000922918319702,0.00096607208252,0.000119924545288,1.04652380943
97,0.00725388526917,0.00084400177002,0.000967025756836,0.000115871429443,0.502170085907
98,0.00764131546021,0.00090217590332,0.000943899154663,0.000118970870972,0.459814071655
99,0.00749397277832,0.000859022140503,0.000921964645386,0.000121116638184,0.469201087952
