step,run,get,set,free,run_up_to_step
0,5.98691797256,0.171816110611,0.197307109833,0.0422248840332,5.99558591843
1,1.13293290138,0.173871040344,0.204399108887,0.0423519611359,6.30738592148
2,0.885586023331,0.180390834808,0.200814008713,0.0412580966949,6.48565196991
3,0.801975011826,0.178445100784,0.203907012939,0.0415618419647,6.70024895668
4,0.951294898987,0.18154501915,0.19758105278,0.0422821044922,6.55836606026
5,0.821549892426,0.176992893219,0.203855037689,0.0432481765747,6.65332794189
6,0.858406066895,0.179517030716,0.233645915985,0.0425791740417,6.80099987984
7,0.74375295639,0.18230509758,0.205492973328,0.0424251556396,6.86161112785
8,0.835018873215,0.179333925247,0.202204942703,0.0422260761261,7.13053917885
9,0.792071819305,0.181953907013,0.202118873596,0.0434060096741,7.2560608387
10,0.820242166519,0.179449081421,0.206595897675,0.0437109470367,7.54249405861
11,0.756374120712,0.189309120178,0.206950902939,0.0421199798584,7.54806208611
12,0.731432914734,0.181710958481,0.209918022156,0.0419230461121,7.65264010429
13,0.728496074677,0.180885791779,0.201308012009,0.0435030460358,7.82838177681
14,0.781203746796,0.18129491806,0.208982944489,0.0427529811859,7.79683303833
15,0.779096126556,0.180235147476,0.231568098068,0.043555021286,7.97522187233
16,0.772238969803,0.180160999298,0.209755182266,0.0419690608978,7.9648900032
17,0.729092359543,0.217919826508,0.207409143448,0.0424258708954,8.08822798729
18,0.721290826797,0.179003953934,0.205453872681,0.0422871112823,7.94945001602
19,0.722317934036,0.183526992798,0.241384029388,0.0419130325317,8.05269098282
20,0.734371900558,0.188184976578,0.203032016754,0.0434701442719,8.72644209862
21,0.776163101196,0.180553913116,0.202920198441,0.0439748764038,8.58388400078
22,0.828344106674,0.181910991669,0.239670991898,0.0434129238129,8.82175111771
23,0.771584033966,0.182881116867,0.207762956619,0.0430181026459,8.77168703079
24,0.60960817337,0.181520938873,0.207129955292,0.0429961681366,8.85482788086
25,0.570986270905,0.181162118912,0.20795416832,0.0436379909515,8.85791110992
26,0.569199800491,0.212173938751,0.241964101791,0.0425779819489,9.16359496117
27,0.608789205551,0.185451030731,0.208447933197,0.0439319610596,9.34762883186
28,0.576000213623,0.181562900543,0.204069852829,0.0421769618988,9.32970619202
29,0.570159912109,0.182142019272,0.204383134842,0.0447859764099,9.37145709991
30,0.626175880432,0.180213928223,0.203307151794,0.0423340797424,9.33159899712
31,0.624576091766,0.180958032608,0.244011878967,0.0420398712158,9.54985618591
32,0.658600091934,0.180603981018,0.207325935364,0.0426111221313,9.83821392059
33,0.65577173233,0.180556774139,0.201456069946,0.0432081222534,9.84137201309
34,0.630207300186,0.179513931274,0.199594974518,0.0444569587708,10.0982999802
35,0.628973007202,0.187670946121,0.207914113998,0.0422959327698,10.0818560123
36,0.631485939026,0.181241035461,0.231965065002,0.0433502197266,10.1568939686
37,0.63338804245,0.182733774185,0.257688045502,0.0427510738373,10.3530960083
38,0.642274856567,0.181716918945,0.21022105217,0.0448241233826,10.4416680336
39,0.667142152786,0.181472063065,0.205749034882,0.0441720485687,10.5163030624
40,0.631491184235,0.221457004547,0.208890914917,0.0442428588867,10.5541090965
41,0.66079211235,0.18385887146,0.210312128067,0.0443148612976,10.739467144
42,0.574728727341,0.216859102249,0.20534992218,0.0428428649902,10.8168058395
43,0.59717798233,0.180701971054,0.205768108368,0.0420207977295,10.877245903
44,0.600563287735,0.181283950806,0.20103096962,0.0434551239014,11.1634390354
45,0.575067996979,0.181731939316,0.20849108696,0.0436508655548,11.2980918884
46,0.568281888962,0.183623075485,0.210444927216,0.0445311069489,11.5019159317
47,0.569220066071,0.184755802155,0.210365056992,0.0437529087067,11.367716074
48,0.569142818451,0.182358980179,0.242115020752,0.0433390140533,11.5741708279
49,0.607681751251,0.182573080063,0.206707954407,0.0441410541534,11.7433428764
50,0.572374105453,0.181330919266,0.204808950424,0.0428278446198,11.6867480278
51,0.612860202789,0.175741910934,0.204494953156,0.042534828186,11.7588019371
52,0.578893184662,0.183770895004,0.211327075958,0.0423419475555,11.6608829498
53,0.578413963318,0.183912038803,0.210180997849,0.0441079139709,12.1509029865
54,0.607872009277,0.181762218475,0.24200797081,0.0439040660858,12.10850811
55,0.573873996735,0.183650016785,0.247263908386,0.0440089702606,12.2937569618
56,0.621661901474,0.185194969177,0.208247900009,0.0443000793457,12.4548139572
57,0.56541800499,0.183713912964,0.204128026962,0.0434589385986,12.6372468472
58,0.586085796356,0.179641008377,0.204293966293,0.0764219760895,12.7240900993
59,0.497624874115,0.180552005768,0.217164993286,0.0440421104431,12.6626369953
60,0.549103021622,0.229511022568,0.206675052643,0.0434219837189,12.7821099758
61,0.497042179108,0.181280851364,0.209517002106,0.0437028408051,12.8581051826
62,0.485175848007,0.180405855179,0.202631950378,0.0428371429443,13.0206720829
63,0.54014134407,0.179459095001,0.206155061722,0.0424151420593,12.8568799496
64,0.488207817078,0.169785022736,0.208425045013,0.043671131134,13.0186369419
65,0.509354829788,0.178378105164,0.209873914719,0.042811870575,13.1293008327
66,0.524056911469,0.180780887604,0.206863164902,0.0435190200806,13.1978111267
67,0.513451814651,0.180073976517,0.208163976669,0.0438070297241,13.3845620155
68,0.49325633049,0.180066108704,0.204750061035,0.0433859825134,13.5884289742
69,0.518774271011,0.183808088303,0.210824966431,0.0434880256653,13.9800429344
70,0.48836517334,0.180606842041,0.214504003525,0.0453310012817,13.8781549931
71,0.488547801971,0.19326710701,0.205492019653,0.0435490608215,14.0548129082
72,0.487362146378,0.181054115295,0.211159944534,0.0559830665588,14.1938521862
73,0.48637676239,0.181801080704,0.206753969193,0.0427420139313,14.1289129257
74,0.488252878189,0.217081069946,0.203917980194,0.0430030822754,14.1302068233
75,0.487575769424,0.179699897766,0.23531293869,0.0422329902649,14.0688610077
76,0.490162849426,0.185482025146,0.206264019012,0.0442278385162,14.4549090862
77,0.489399194717,0.197952985764,0.216022014618,0.0471110343933,14.4208590984
78,0.50901222229,0.211870908737,0.204607963562,0.0424110889435,14.3073139191
79,0.582493066788,0.183809995651,0.209057092667,0.0448608398438,14.7783129215
80,0.531419038773,0.180778026581,0.207856893539,0.0430588722229,14.968266964
81,0.525793075562,0.183068037033,0.211307048798,0.0432980060577,15.2702479362
82,0.501579046249,0.184443950653,0.207227945328,0.0432331562042,15.2448310852
83,0.491396903992,0.184504985809,0.207365036011,0.0453951358795,15.3386878967
84,0.497264146805,0.180915117264,0.203505039215,0.0418071746826,15.3624851704
85,0.527554988861,0.183955192566,0.205712080002,0.0444030761719,15.2904279232
86,0.495650053024,0.184240102768,0.212829113007,0.0437200069427,15.5723791122
87,0.494498729706,0.181444883347,0.21190905571,0.0809879302979,15.6335999966
88,0.524863958359,0.180953979492,0.208800077438,0.0442111492157,15.7717001438
89,0.544210910797,0.180588960648,0.212836027145,0.0440821647644,15.7040560246
90,0.499301195145,0.187609910965,0.202017068863,0.041580915451,16.0520370007
91,0.536966085434,0.184345006943,0.212746143341,0.0906779766083,15.9901349545
92,0.500797986984,0.182749986649,0.210237026215,0.0434801578522,16.5705728531
93,0.531336069107,0.18555688858,0.211760044098,0.0445959568024,16.6775240898
94,0.499103069305,0.183046102524,0.208425045013,0.0444691181183,16.8074989319
95,0.472726106644,0.185095071793,0.204889059067,0.0445158481598,16.7554719448
96,0.530884742737,0.17942404747,0.206408023834,0.0688199996948,16.6617541313
97,0.499888896942,0.195845127106,0.207498788834,0.0443630218506,17.179997921
98,0.531245946884,0.183511018753,0.209172010422,0.0434679985046,16.9907450676
99,0.512537956238,0.184996843338,0.205456972122,0.0435478687286,17.2278289795
