step,run,get,set,free,run_up_to_step
0,0.0524849891663,0.00543308258057,0.00531005859375,0.000712871551514,0.0807118415833
1,0.0227611064911,0.00500702857971,0.00535678863525,0.000701189041138,0.0599608421326
2,0.0202701091766,0.00501990318298,0.00570607185364,0.000808000564575,0.0897719860077
3,0.018828868866,0.00501012802124,0.00550723075867,0.000771045684814,0.0652170181274
4,0.0190987586975,0.00535798072815,0.00557804107666,0.000774145126343,0.0724267959595
5,0.048232793808,0.0052649974823,0.0054919719696,0.000716924667358,0.0821719169617
6,0.0173001289368,0.00500011444092,0.0056140422821,0.000833034515381,0.0796959400177
7,0.0181732177734,0.00534200668335,0.00575280189514,0.000787973403931,0.0850508213043
8,0.0175611972809,0.00496888160706,0.00570583343506,0.00086498260498,0.0887980461121
9,0.0175659656525,0.00517296791077,0.00593495368958,0.000875949859619,0.0923359394073
10,0.0179409980774,0.00529384613037,0.00564312934875,0.000777959823608,0.0927460193634
11,0.017881155014,0.00527095794678,0.00615191459656,0.000838041305542,0.0987000465393
12,0.0168869495392,0.00497794151306,0.00562810897827,0.000802040100098,0.0927920341492
13,0.0163578987122,0.00500988960266,0.0058069229126,0.000838994979858,0.100290060043
14,0.0169730186462,0.00521516799927,0.00576210021973,0.000887870788574,0.102138996124
15,0.0171580314636,0.00527381896973,0.00549006462097,0.000849962234497,0.10401391983
16,0.0167520046234,0.00531816482544,0.00578212738037,0.000818014144897,0.104970932007
17,0.0169868469238,0.00531792640686,0.00610780715942,0.000983953475952,0.117177963257
18,0.0164830684662,0.00514197349548,0.00583815574646,0.000915050506592,0.114879131317
19,0.0188727378845,0.00576901435852,0.00617790222168,0.000981092453003,0.131559848785
20,0.0174729824066,0.00547099113464,0.00606989860535,0.00089693069458,0.128791093826
21,0.0173358917236,0.00536513328552,0.00614500045776,0.00089693069458,0.131943941116
22,0.0174200534821,0.00564408302307,0.00600814819336,0.000931024551392,0.137390851974
23,0.0171127319336,0.00525999069214,0.00556993484497,0.000884056091309,0.133103132248
24,0.0158438682556,0.00500297546387,0.00591087341309,0.000891923904419,0.132401943207
25,0.0154740810394,0.00507998466492,0.00558805465698,0.000782012939453,0.138122081757
26,0.0158629417419,0.00564789772034,0.00601506233215,0.000969171524048,0.192388772964
27,0.0165071487427,0.00544309616089,0.00587916374207,0.00103616714478,0.145190954208
28,0.0156397819519,0.00543999671936,0.00599503517151,0.00104403495789,0.14649105072
29,0.0155236721039,0.00549697875977,0.00601100921631,0.000988960266113,0.191229104996
30,0.0157291889191,0.00584888458252,0.006343126297,0.00113296508789,0.207813024521
31,0.0155749320984,0.00521993637085,0.00548815727234,0.000929117202759,0.161375999451
32,0.0149462223053,0.00511503219604,0.00551915168762,0.000946998596191,0.153838157654
33,0.0157339572906,0.00535202026367,0.00583505630493,0.000928163528442,0.165957927704
34,0.0160000324249,0.00583410263062,0.00615000724792,0.001305103302,2.00763678551
35,0.0150260925293,0.00530099868774,0.00582695007324,0.00105214118958,0.18221783638
36,0.0155310630798,0.0052170753479,0.00588417053223,0.00102996826172,0.169888019562
37,0.0163197517395,0.00507116317749,0.0053608417511,0.000859022140503,0.170219182968
38,0.0163431167603,0.00596308708191,0.00625991821289,0.00112104415894,0.276662111282
39,0.0151119232178,0.0054190158844,0.0058650970459,0.00101804733276,0.174648046494
40,0.0150961875916,0.0051851272583,0.00549483299255,0.000958919525146,0.17952299118
41,0.0153791904449,0.0049159526825,0.00639009475708,0.00118803977966,0.186354160309
42,0.0150158405304,0.00520014762878,0.00586795806885,0.00120711326599,1.13881111145
43,0.0154800415039,0.00517296791077,0.00569581985474,0.001051902771,0.191936016083
44,0.0149710178375,0.00504684448242,0.00562787055969,0.00114798545837,0.191112041473
45,0.0155999660492,0.00530695915222,0.00556492805481,0.000952959060669,0.205428123474
46,0.0153000354767,0.0053870677948,0.00586009025574,0.00108098983765,2.10357117653
47,0.0151741504669,0.00546884536743,0.00604009628296,0.001060962677,0.204028129578
48,0.0151588916779,0.00507521629333,0.00562906265259,0.0010781288147,0.202284097672
49,0.0154891014099,0.00540494918823,0.00590205192566,0.00107502937317,0.208029031754
50,0.0154559612274,0.00559210777283,0.00615501403809,0.00119590759277,0.274613857269
51,0.0154638290405,0.00536823272705,0.00621390342712,0.00122499465942,0.223894834518
52,0.015634059906,0.0054178237915,0.00572609901428,0.00101518630981,0.246696949005
53,0.0149590969086,0.0051531791687,0.0059609413147,0.0011899471283,0.219815969467
54,0.0154316425323,0.0053288936615,0.00589299201965,0.00116586685181,0.233327865601
55,0.0156660079956,0.00541090965271,0.00587201118469,0.00118803977966,0.237802028656
56,0.0156247615814,0.00525903701782,0.00644111633301,0.00127387046814,0.238719940186
57,0.0155010223389,0.00562691688538,0.00604820251465,0.0011899471283,0.242619991302
58,0.0151450634003,0.00541114807129,0.00591802597046,0.00112891197205,0.240831136703
59,0.0149259567261,0.00530385971069,0.00561690330505,0.00098991394043,0.244827985764
60,0.0157680511475,0.00594115257263,0.00611090660095,0.00121593475342,0.3262758255
61,0.0150470733643,0.0055558681488,0.00597906112671,0.00111985206604,0.249574899673
62,0.0156800746918,0.00551509857178,0.00600504875183,0.00106191635132,0.29959321022
63,0.0151658058167,0.00531101226807,0.00568199157715,0.00111508369446,0.30242395401
64,0.0154349803925,0.00572609901428,0.00622892379761,0.00127196311951,0.359481096268
65,0.01491522789,0.00546503067017,0.00600695610046,0.00119400024414,0.2670378685
66,0.0151381492615,0.00535988807678,0.00573396682739,0.00103807449341,0.269777059555
67,0.0151948928833,0.0059220790863,0.00643682479858,0.00126981735229,4.24665093422
68,0.0146052837372,0.00531005859375,0.00576996803284,0.00107288360596,0.266807079315
69,0.015328168869,0.00561904907227,0.00589799880981,0.00120401382446,0.277850151062
70,0.0729999542236,0.00598812103271,0.00663208961487,0.00135588645935,0.314160823822
71,0.0149891376495,0.0057258605957,0.00618314743042,0.00127410888672,0.314152002335
72,0.0148649215698,0.00562691688538,0.00636100769043,0.0013120174408,0.288537979126
73,0.014839887619,0.00534701347351,0.00580596923828,0.00116014480591,0.288773059845
74,0.0151748657227,0.00587296485901,0.00624918937683,0.00126004219055,1.17159199715
75,0.0149757862091,0.0057430267334,0.00612711906433,0.00129294395447,0.292945861816
76,0.014454126358,0.00535202026367,0.0058810710907,0.00108194351196,0.321196079254
77,0.0150473117828,0.00600290298462,0.0066819190979,0.00146794319153,1.16339278221
78,0.0150048732758,0.00551605224609,0.00604510307312,0.0012321472168,0.309096813202
79,0.0144100189209,0.00522994995117,0.00557589530945,0.00105905532837,0.297035932541
80,0.015655040741,0.00607800483704,0.0068039894104,0.00141406059265,0.368734836578
81,0.0162107944489,0.00597906112671,0.0063648223877,0.00138092041016,0.345569849014
82,0.0144729614258,0.00554490089417,0.00589203834534,0.00129199028015,0.30771112442
83,0.0143768787384,0.00545692443848,0.0062038898468,0.00157594680786,0.346461057663
84,0.0146460533142,0.00548887252808,0.00594902038574,0.00127100944519,0.33501791954
85,0.0145559310913,0.00566697120667,0.00602221488953,0.00124287605286,0.313492059708
86,0.0154569149017,0.00587606430054,0.0062460899353,0.00127387046814,0.373291969299
87,0.014643907547,0.00543308258057,0.0059061050415,0.00119709968567,0.325060129166
88,0.0146241188049,0.00549793243408,0.00754809379578,0.00173306465149,0.322265863419
89,0.055447101593,0.00599503517151,0.0060510635376,0.00121998786926,0.330836057663
90,0.0149421691895,0.00556492805481,0.00589394569397,0.00124192237854,0.344469070435
91,0.0142941474915,0.00530195236206,0.00593614578247,0.0012001991272,0.336827993393
92,0.014524936676,0.0053288936615,0.00580096244812,0.0013279914856,0.339682102203
93,0.0168700218201,0.00583004951477,0.00619792938232,0.00133514404297,0.440315961838
94,0.0145621299744,0.00548315048218,0.00591206550598,0.0012640953064,0.346956014633
95,0.0147380828857,0.00539612770081,0.00580501556396,0.00119090080261,0.352595806122
96,0.0149037837982,0.00579285621643,0.00602388381958,0.00123381614685,0.456155061722
97,0.0144188404083,0.00533008575439,0.00593018531799,0.00130105018616,0.350618124008
98,0.0145387649536,0.0052649974823,0.00568699836731,0.00118088722229,0.384235143661
99,0.014310836792,0.00551104545593,0.0058708190918,0.00117015838623,0.582435131073
