step,run,get,set,free,run_up_to_step
0,6.98071789742,0.584472894669,0.648681163788,0.0975408554077,6.78864789009
1,2.15139937401,0.500503778458,0.623558044434,0.0930769443512,7.84128785133
2,1.74527382851,0.461934089661,0.639058113098,0.148497104645,9.24043822289
3,1.65882992744,0.474489927292,0.452393054962,0.0676169395447,10.043856144
4,1.54953694344,0.53161406517,0.679020881653,0.0922119617462,10.163711071
5,1.37269496918,0.499319076538,0.539475917816,0.0759179592133,11.1335279942
6,1.43028998375,0.534717082977,0.718451023102,0.150487184525,13.4660820961
7,1.57737088203,0.594331979752,0.633059024811,0.0909459590912,16.2008450031
8,1.44401216507,0.731625080109,0.570441007614,0.139847993851,15.8305749893
9,1.45154500008,0.496198892593,0.598096132278,0.139783859253,16.8026940823
10,1.52961778641,0.761963129044,0.614911079407,0.119541168213,18.0086510181
11,1.48817014694,0.518409013748,0.579851865768,0.135324954987,19.2276859283
12,1.40962481499,0.621972084045,0.695316791534,0.1673848629,21.1469409466
13,2.4103140831,0.608217000961,0.672199010849,0.0998318195343,21.8208799362
14,1.43758702278,0.522329092026,0.604693889618,0.0777051448822,23.7518501282
15,1.5395758152,0.591547966003,0.683641195297,0.088320016861,24.9642269611
16,1.4736828804,0.591048955917,0.509230852127,0.0699231624603,25.767157793
17,1.64004206657,0.689003229141,0.694525003433,0.0971138477325,28.5964019299
18,1.77513933182,0.803808927536,0.684658050537,0.10024189949,29.518903017
19,1.71913790703,0.593630075455,0.66634106636,0.185227870941,31.8202009201
20,1.32834815979,0.556002140045,0.920329809189,0.149955034256,32.8628640175
21,1.64551210403,0.701818943024,0.617727994919,0.229693889618,33.6086411476
22,1.48717308044,0.708669185638,0.599129915237,0.109299182892,34.804058075
23,1.6257250309,0.700543880463,0.625482082367,0.120015144348,37.0251429081
24,1.66867899895,0.701058864594,0.745364189148,0.104088068008,37.0894768238
25,1.3322031498,0.578414916992,0.660560846329,0.0977509021759,38.7240478992
26,1.70695090294,0.697786808014,0.741407155991,0.132636070251,39.5885651112
27,1.50287914276,0.699169158936,0.740561008453,0.196046829224,40.1347219944
28,1.17256379128,0.549553155899,0.7597219944,0.0984241962433,38.5096199512
29,1.21031785011,0.533637046814,0.515645980835,0.0728180408478,35.4281108379
30,1.16900014877,0.504544019699,0.623721122742,0.104087114334,37.6018569469
31,1.12794995308,0.70819401741,0.606703042984,0.0918741226196,39.8366451263
32,1.19631195068,0.572665929794,0.644768953323,0.0870461463928,38.9273769855
33,1.18971419334,0.804515838623,0.607432126999,0.100605010986,40.6387009621
34,1.23329210281,0.618941783905,0.701531171799,0.203686952591,44.5483338833
35,1.32834625244,0.650446891785,0.786535024643,0.151390075684,46.9971561432
36,1.11015081406,0.503973007202,0.617803096771,0.136327028275,49.0879380703
37,1.43017482758,0.618337154388,0.575513124466,0.141539096832,47.8349468708
38,1.30408501625,0.644753932953,0.730616807938,0.189518928528,51.4946119785
39,1.45716118813,0.808648109436,0.739687919617,0.152678012848,53.1610629559
40,1.37481307983,0.651572942734,0.662531137466,0.0960209369659,53.3457970619
41,1.17782688141,0.616492033005,0.743180036545,0.245827198029,53.3198311329
42,1.1007130146,0.666167974472,0.625473022461,0.127924919128,54.8975479603
43,1.12074613571,0.749713897705,0.757281064987,0.107557058334,57.5622429848
44,1.08150792122,0.763002157211,0.815655946732,0.202274084091,57.828179121
45,0.819114208221,0.60323381424,1.03258109093,0.244709014893,59.093585968
46,0.824355840683,0.584719896317,0.604635953903,0.130156040192,59.7257339954
47,0.92337012291,0.6268658638,0.622653961182,0.0833659172058,59.8670330048
48,0.97821688652,0.732789039612,0.708229064941,0.130455970764,58.5003929138
49,0.985328912735,0.730404138565,0.746026992798,0.22014093399,59.2457649708
50,0.780097007751,0.57811498642,0.594480037689,0.135093927383,56.2498450279
51,0.793209075928,0.620867967606,0.748588085175,0.124865055084,51.7977249622
52,0.819575309753,0.633955955505,0.555469989777,0.0952219963074,52.559994936
53,0.900889158249,0.67063498497,0.687626123428,0.132644891739,58.1758418083
54,0.835766077042,0.637570858002,0.930611133575,0.112823963165,56.0538229942
55,0.799685001373,0.53674197197,0.711014986038,0.197250843048,61.5063350201
56,0.931369781494,0.90390086174,0.566874980927,0.0994999408722,62.6309409142
57,0.802511930466,0.94784283638,0.603557109833,0.101571083069,61.0660419464
58,0.94447684288,0.590310096741,0.729238986969,0.0998220443726,63.2004041672
59,0.865452051163,0.550014972687,0.822041988373,0.147668123245,67.1882359982
60,0.72198009491,0.521132946014,0.72203707695,0.195103168488,67.1584699154
61,0.844154834747,0.715188026428,0.748826980591,0.106187105179,70.9223780632
62,0.827092170715,0.874828100204,0.70654296875,0.096834897995,70.1715390682
63,0.935198068619,0.638433933258,0.686316013336,0.101064920425,70.2776451111
64,0.751329898834,0.579261064529,0.571682929993,0.0873379707336,68.7491149902
65,0.773129940033,0.588708162308,0.59569811821,0.0812947750092,59.7256169319
66,2.100014925,0.690130233765,0.952100038528,0.133397102356,64.5608999729
67,1.47030091286,0.601395130157,0.640115022659,0.184407949448,67.3523640633
68,1.76835298538,0.68624997139,0.724230051041,0.161736011505,68.2690439224
69,1.4107940197,0.545506954193,0.662899971008,0.137704849243,72.8337180614
70,1.65928196907,0.640965938568,0.686908960342,0.137876033783,73.2946929932
71,1.48406004906,0.617995977402,0.576164007187,0.0856580734253,76.8136482239
72,1.24781417847,0.574361085892,0.738632917404,0.185053110123,81.5162658691
73,1.7768099308,0.695081949234,0.734536886215,0.216953992844,84.0541849136
74,1.63391280174,0.670742988586,0.618402004242,0.0897390842438,82.5935628414
75,1.66966795921,0.768025159836,0.791125059128,0.0894482135773,87.233659029
76,1.7211689949,0.708207845688,0.648406028748,0.138005018234,88.7802829742
77,1.50624799728,0.698135137558,0.607002019882,0.135728120804,89.5291011333
78,1.33132696152,0.588871002197,0.579931974411,0.163004875183,80.3564219475
79,2.21931505203,0.619993925095,0.662287950516,0.0867848396301,74.9498839378
80,1.45711326599,0.662580013275,0.652505159378,0.091598033905,84.2934219837
81,1.19206500053,0.601942062378,0.827676057816,0.179077863693,83.2536978722
82,1.47198605537,0.686928033829,0.672391891479,0.125488996506,89.4918351173
83,1.58264923096,0.733291149139,0.698507070541,0.111690044403,91.6981680393
84,1.75171995163,0.754708051682,0.829504966736,0.110780954361,94.4298629761
85,1.5132598877,0.780783891678,0.758452892303,0.345645904541,101.781656981
86,1.50121021271,0.7950091362,0.609363079071,0.0930209159851,104.003030062
87,1.51548814774,0.731990098953,0.716679096222,0.102001190186,104.850297213
88,1.64337015152,0.805793046951,0.83728313446,0.130298852921,102.627686024
89,1.38792204857,0.703681945801,0.621666908264,0.103642225266,104.179205894
90,1.27303123474,0.574928045273,0.607007980347,0.0911228656769,98.8234381676
91,1.27948832512,0.561728000641,0.549826860428,0.13289809227,86.9620759487
92,1.15632414818,0.835102081299,0.640634059906,0.0828261375427,92.4370419979
93,1.06425499916,0.824466228485,0.694801092148,0.128851890564,89.4042930603
94,1.13918280602,0.64214682579,0.707630872726,0.136749982834,97.9197349548
95,1.32569098473,0.762651205063,0.655859947205,0.126394033432,103.724331141
96,1.62718868256,0.796277999878,0.75864315033,0.36376619339,110.314646959
97,1.18955087662,0.651012182236,0.791866064072,0.105934143066,113.047873974
98,1.45946598053,0.764436006546,0.666460037231,0.0899739265442,114.318830013
99,1.48062777519,0.708860874176,0.748018980026,0.122487068176,112.655112028
