step,run,get,set,free,run_up_to_step
0,0.252869844437,0.0120799541473,0.0137419700623,0.00262689590454,0.260348081589
1,0.0696032047272,0.0120348930359,0.0136260986328,0.0025200843811,0.27376294136
2,0.056736946106,0.0120930671692,0.0137631893158,0.00258016586304,0.571542024612
3,0.0619721412659,0.012717962265,0.0146470069885,0.00300979614258,0.293843984604
4,0.0525391101837,0.0120890140533,0.0132710933685,0.00265622138977,0.28209400177
5,0.0585322380066,0.0130558013916,0.0142419338226,0.00278210639954,0.307314872742
6,0.0556609630585,0.0119218826294,0.0144999027252,0.00300192832947,0.285148859024
7,0.0545771121979,0.0126640796661,0.0136778354645,0.00275993347168,0.29421710968
8,0.0499429702759,0.0123047828674,0.0149137973785,0.00321507453918,0.296329021454
9,0.0484311580658,0.0121259689331,0.0138659477234,0.00290703773499,2.4701859951
10,0.0489070415497,0.0120220184326,0.0142459869385,0.00309801101685,0.367757081985
11,0.0542030334473,0.0121929645538,0.0131349563599,0.00261187553406,0.336469888687
12,0.0507543087006,0.0119380950928,0.0150120258331,0.00338411331177,0.346251010895
13,0.0570070743561,0.0132601261139,0.0146601200104,0.00320601463318,0.392464876175
14,0.0537970066071,0.0132172107697,0.0146560668945,0.00317287445068,0.392786026001
15,0.0512537956238,0.012414932251,0.0142469406128,0.00295305252075,0.362102031708
16,0.0478339195251,0.0122909545898,0.0138659477234,0.00287914276123,0.41245007515
17,0.0503282546997,0.0130639076233,0.0138850212097,0.00295805931091,0.378007173538
18,0.0549139976501,0.0128481388092,0.0135772228241,0.0029079914093,0.382801055908
19,0.0541729927063,0.0130071640015,0.0146250724792,0.00332498550415,0.450675964355
20,0.0578711032867,0.0137560367584,0.0147750377655,0.00320982933044,0.433182954788
21,0.0445249080658,0.0130319595337,0.014876127243,0.00322294235229,0.454674005508
22,0.0416398048401,0.0128381252289,0.0137059688568,0.00281596183777,0.421322107315
23,0.0424289703369,0.012717962265,0.0147049427032,0.00334692001343,0.429993867874
24,0.0452356338501,0.0159537792206,0.015233039856,0.00332379341125,0.450563907623
25,0.0476880073547,0.0137541294098,0.0151350498199,0.00357985496521,0.440795898438
26,0.0428729057312,0.0128140449524,0.0146100521088,0.00311684608459,0.506561994553
27,0.0479321479797,0.0130739212036,0.0150549411774,0.00330591201782,0.521138906479
28,0.0475108623505,0.0130870342255,0.0147271156311,0.00329089164734,0.485591888428
29,0.044486284256,0.0131599903107,0.0143899917603,0.00305485725403,0.467014074326
30,0.0443768501282,0.0133988857269,0.014673948288,0.02357006073,0.485822916031
31,0.0460610389709,0.0131449699402,0.0147778987885,0.00338006019592,0.485819816589
32,0.0437679290771,0.0121991634369,0.0138099193573,0.00304508209229,0.496917009354
33,0.0439019203186,0.012531042099,0.0150709152222,0.00342202186584,0.728458166122
34,0.0451939105988,0.0125889778137,0.0137419700623,0.00313282012939,0.563895940781
35,0.0429139137268,0.0120580196381,0.0133731365204,0.00297594070435,0.529819965363
36,0.0432679653168,0.0155539512634,0.0137050151825,0.00325179100037,0.569446086884
37,0.0464060306549,0.0129351615906,0.0142250061035,0.00322508811951,0.561854124069
38,0.0450043678284,0.0124659538269,0.0147018432617,0.00324892997742,0.568438053131
39,0.0438799858093,0.012463092804,0.0153880119324,0.0035982131958,0.607835054398
40,0.0429990291595,0.013524055481,0.014878988266,0.00332498550415,0.584856987
41,0.0431010723114,0.0130951404572,0.0140118598938,0.00301194190979,0.603964090347
42,0.0404069423676,0.0124750137329,0.0142970085144,0.00341415405273,0.571825027466
43,0.0417432785034,0.0125389099121,0.0147500038147,0.00319814682007,0.579060792923
44,0.0446770191193,0.0133991241455,0.0148289203644,0.00333213806152,0.60388302803
45,0.0437819957733,0.0133719444275,0.0147440433502,0.00328898429871,0.690228223801
46,0.0441250801086,0.0134229660034,0.0146667957306,0.00333905220032,0.66859292984
47,0.0430569648743,0.012787103653,0.014496088028,0.00325489044189,0.668401002884
48,0.0429737567902,0.0132520198822,0.0150430202484,0.00334882736206,0.701274871826
49,0.0439982414246,0.0132241249084,0.014044046402,0.00379514694214,0.643154144287
50,0.0455539226532,0.0137009620667,0.0146670341492,0.00343012809753,0.666896104813
51,0.0422520637512,0.0135791301727,0.0146110057831,0.00333499908447,0.774595975876
52,0.0414698123932,0.0128488540649,0.0139009952545,0.00315403938293,0.639325141907
53,0.0415120124817,0.0127301216125,0.014298915863,0.00311899185181,0.656342983246
54,0.0775837898254,0.0140459537506,0.0157251358032,0.00358700752258,0.704770088196
55,0.0449979305267,0.0131731033325,0.0354969501495,0.00366401672363,0.679747104645
56,0.0624840259552,0.0136349201202,0.0146179199219,0.00339508056641,0.688118934631
57,0.0380637645721,0.0130369663239,0.0138599872589,0.00317096710205,0.799906015396
58,0.0400149822235,0.0131759643555,0.0144419670105,0.00325298309326,0.737012863159
59,0.0438377857208,0.013011932373,0.0146839618683,0.00334095954895,0.749810934067
60,0.0424058437347,0.013514995575,0.0146520137787,0.00383806228638,0.792970180511
61,0.0399188995361,0.0134150981903,0.0148129463196,0.00322008132935,0.769845962524
62,0.0397028923035,0.0131628513336,0.014200925827,0.00369811058044,0.79669380188
63,0.0363640785217,0.0128750801086,0.0138509273529,0.00309109687805,2.18824195862
64,0.039913892746,0.0128848552704,0.0144240856171,0.00342202186584,0.739462137222
65,0.0421969890594,0.0133180618286,0.0142538547516,0.00330305099487,0.812477111816
66,0.0432090759277,0.0148010253906,0.0159981250763,0.00383186340332,1.33082985878
67,0.042218208313,0.0130100250244,0.0155460834503,0.00363898277283,0.7825050354
68,0.0400269031525,0.0125198364258,0.0141878128052,0.00344109535217,0.783586978912
69,0.0403881072998,0.0135979652405,0.0150520801544,0.0033118724823,0.887881994247
70,0.0379807949066,0.0128419399261,0.0142080783844,0.00321102142334,0.780341148376
71,0.0434722900391,0.0135610103607,0.0149071216583,0.00400018692017,0.860861063004
72,0.0422859191895,0.014032125473,0.0149331092834,0.0040590763092,0.920227050781
73,0.0409729480743,0.0135788917542,0.0148730278015,0.00387692451477,0.853736162186
74,0.0404181480408,0.0136539936066,0.0145840644836,0.00372505187988,0.820738077164
75,0.0363266468048,0.0125699043274,0.0139849185944,0.00319314002991,0.853868961334
76,0.0415599346161,0.013160943985,0.0139501094818,0.00387215614319,0.876003026962
77,0.0515260696411,0.0132939815521,0.0156400203705,0.00363087654114,0.889508008957
78,0.0422050952911,0.0138359069824,0.015114068985,0.00345301628113,0.872209072113
79,0.0414459705353,0.0133719444275,0.0152258872986,0.00336217880249,0.899988174438
80,0.0368249416351,0.0126399993896,0.0157718658447,0.00363278388977,0.817981004715
81,0.0452919006348,0.0142941474915,0.0151271820068,0.00353908538818,0.899743080139
82,0.0406799316406,0.0135638713837,0.0144460201263,0.00348782539368,0.947802066803
83,0.038134098053,0.0135700702667,0.0157129764557,0.00345802307129,1.03663992882
84,0.0365259647369,0.0124361515045,0.0137629508972,0.00305008888245,0.877195119858
85,0.0387630462646,0.0130140781403,0.0142130851746,0.00329089164734,0.927716016769
86,0.0389852523804,0.0132491588593,0.0146231651306,0.00323605537415,0.999233961105
87,0.0392439365387,0.0130770206451,0.0143818855286,0.00322508811951,0.931897163391
88,0.0361778736115,0.0124049186707,0.0145671367645,0.00329399108887,0.896567106247
89,0.0409789085388,0.0137391090393,0.0153031349182,0.00347781181335,1.02394986153
90,0.0426549911499,0.0137329101562,0.0149300098419,0.00361514091492,0.998328924179
91,0.043078660965,0.014680147171,0.0148501396179,0.00323796272278,0.995028972626
92,0.0408449172974,0.0138239860535,0.0151450634003,0.00379514694214,0.977803945541
93,0.0409998893738,0.0131051540375,0.0144181251526,0.00319695472717,0.974248886108
94,0.0440990924835,0.0141451358795,0.014289855957,0.00318598747253,7.14847207069
95,0.041335105896,0.0137400627136,0.0142991542816,0.00318598747253,1.0045170784
96,0.199939966202,0.0141088962555,0.0153410434723,0.00368905067444,1.14092516899
97,0.042943239212,0.0133781433105,0.0150561332703,0.00340700149536,1.01523590088
98,0.0413081645966,0.0136988162994,0.015683889389,0.00360488891602,1.01905798912
99,0.0443210601807,0.01402592659,0.0160150527954,0.00374484062195,1.70710992813
