step,run,get,set,free,run_up_to_step
0,1.30325984955,0.0907471179962,0.104901790619,0.0251078605652,1.26252198219
1,1.18636775017,0.0921428203583,0.103543043137,0.0259649753571,2.18066000938
2,1.31236886978,0.0919680595398,0.103155136108,0.0352749824524,2.96261787415
3,0.976363182068,0.0866341590881,0.105306148529,0.022775888443,2.8784570694
4,0.941733837128,0.0931630134583,0.17204117775,0.053395986557,3.67788720131
5,0.920706987381,0.128278970718,0.0993769168854,0.0221228599548,4.74438381195
6,0.864201068878,0.139250993729,0.0904629230499,0.0205090045929,6.37685704231
7,0.895987033844,0.0973339080811,0.0909140110016,0.0200169086456,8.48511219025
8,0.966378211975,0.0922179222107,0.130735874176,0.0361878871918,11.0457630157
9,0.703156709671,0.115797042847,0.138711929321,0.0292661190033,12.6088039875
10,0.693675041199,0.100589990616,0.106378078461,0.0227949619293,14.2642979622
11,0.727787971497,0.0970368385315,0.11871099472,0.0368428230286,16.9505901337
12,0.816817998886,0.164262056351,0.132724046707,0.0418798923492,18.3372728825
13,0.667438030243,0.0989339351654,0.143451929092,0.0468518733978,21.3777492046
14,0.761400938034,0.115365028381,0.121109962463,0.0334260463715,24.3559498787
15,0.995941162109,0.0996670722961,0.116385936737,0.0374450683594,27.8089020252
16,0.832631826401,0.0967869758606,0.10863494873,0.0264408588409,24.75385499
17,0.90037894249,0.108188867569,0.106450080872,0.0265250205994,27.1162919998
18,0.800483942032,0.0892479419708,0.101714849472,0.0242609977722,29.2428309917
19,0.833682060242,0.108512878418,0.0968449115753,0.0238130092621,31.0845320225
20,0.934180021286,0.0980350971222,0.114461898804,0.0296688079834,32.4290759563
21,0.955812215805,0.114915132523,0.104776859283,0.0253031253815,36.0076301098
22,0.825126886368,0.0872402191162,0.119472026825,0.0397939682007,35.9676258564
23,0.944742918015,0.0958609580994,0.116232872009,0.0285840034485,37.9633948803
24,1.08657097816,0.100286006927,0.107347011566,0.0267560482025,41.8741910458
25,0.961360216141,0.0941770076752,0.118041992188,0.0334830284119,41.3567979336
26,0.960678815842,0.0954439640045,0.110407114029,0.0283660888672,43.5098869801
27,0.970606088638,0.101020097733,0.0964069366455,0.0235688686371,44.1451160908
28,0.940835952759,0.0903570652008,0.112509012222,0.0469260215759,47.0762109756
29,0.824103832245,0.0938711166382,0.123307943344,0.0354249477386,49.0405709743
30,1.23382091522,0.0973129272461,0.13324713707,0.043084859848,50.6580400467
31,0.923573255539,0.0862579345703,0.118455886841,0.0477678775787,55.005092144
32,1.10147714615,0.106045007706,0.111212968826,0.0346219539642,53.42136693
33,1.06248402596,0.0931348800659,0.106491088867,0.0240550041199,56.4018449783
34,1.18442797661,0.148464918137,0.109930038452,0.0250101089478,57.8407139778
35,0.941656827927,0.104524850845,0.123215198517,0.0381669998169,58.9775760174
36,1.12562322617,0.117326974869,0.11572599411,0.0298380851746,59.9403669834
37,0.897976160049,0.103192806244,0.12761592865,0.0239679813385,59.5151031017
38,0.916426897049,0.103012084961,0.108201980591,0.0243008136749,62.9472548962
39,0.892174959183,0.113030910492,0.104770183563,0.0259349346161,64.7788178921
40,1.03384900093,0.156899929047,0.0940289497375,0.0203671455383,70.0824768543
41,1.00419306755,0.10942196846,0.126462936401,0.0354609489441,70.2587981224
42,0.957754850388,0.107450008392,0.0997321605682,0.0235550403595,72.7406251431
43,0.864028215408,0.102238893509,0.14028096199,0.0270080566406,74.9182670116
44,0.896074771881,0.103967189789,0.112226963043,0.02876496315,75.0838370323
45,0.831363916397,0.0881679058075,0.108000993729,0.0269939899445,76.8349981308
46,0.92998290062,0.144383907318,0.110951185226,0.029678106308,78.656717062
47,0.896849870682,0.109464883804,0.093003988266,0.0203061103821,83.065212965
48,1.01108694077,0.106810092926,0.107197999954,0.0279941558838,86.1539959908
49,0.768903970718,0.0910210609436,0.105025053024,0.025682926178,83.740637064
50,1.01037716866,0.0798618793488,0.103893995285,0.0252850055695,83.2588038445
51,0.772770166397,0.100538015366,0.10754108429,0.028214931488,85.4910418987
52,0.863479137421,0.0894768238068,0.102826118469,0.0342118740082,86.5938680172
53,0.935479879379,0.0890522003174,0.0966160297394,0.0224499702454,87.4893600941
54,0.903333902359,0.0910401344299,0.0956838130951,0.020781993866,88.6625449657
55,0.787839889526,0.123966932297,0.112034082413,0.0336921215057,80.2934808731
56,0.845846891403,0.0860719680786,0.123103141785,0.0259349346161,83.259968996
57,0.715737819672,0.0848050117493,0.092052936554,0.0200328826904,85.4029200077
58,0.789183855057,0.119745969772,0.123162031174,0.0210049152374,87.769808054
59,0.80814409256,0.0847401618958,0.0947020053864,0.0227608680725,89.6349010468
60,0.802050113678,0.0900361537933,0.109438180923,0.0212399959564,92.4609529972
61,0.813484191895,0.0848879814148,0.0922040939331,0.0203189849854,94.4745769501
62,0.850020885468,0.0966429710388,0.094300031662,0.0348179340363,96.2630040646
63,0.872653722763,0.0873169898987,0.0924699306488,0.0203619003296,99.0946118832
64,0.878751993179,0.0867650508881,0.0942769050598,0.0237860679626,100.994659185
65,0.749085903168,0.0841000080109,0.0910451412201,0.020082950592,109.033954144
66,0.846812009811,0.0784459114075,0.100410938263,0.0203881263733,109.553232193
67,0.78283905983,0.0849049091339,0.103012084961,0.0258059501648,110.935721874
68,0.762814998627,0.0868289470673,0.0897331237793,0.0209929943085,109.032033205
69,0.791443109512,0.0785191059113,0.0853638648987,0.0187470912933,113.544134855
70,0.736904859543,0.0794458389282,0.135614871979,0.0202970504761,104.170533895
71,0.72266125679,0.0797209739685,0.0855810642242,0.0186409950256,108.297220945
72,0.724756002426,0.0787279605865,0.0924651622772,0.022166967392,107.740455151
73,0.634496927261,0.0787608623505,0.0866451263428,0.0184359550476,110.671828985
74,0.63134598732,0.115061998367,0.0857620239258,0.0191810131073,112.535003901
75,0.64972281456,0.0769968032837,0.0855510234833,0.0187230110168,115.137408018
76,0.625893115997,0.0754930973053,0.0840320587158,0.0180959701538,118.434352875
77,0.631068706512,0.076828956604,0.0890169143677,0.0178818702698,118.01951313
78,0.565447092056,0.0775189399719,0.0860002040863,0.0188798904419,121.447583914
79,0.583976984024,0.0822989940643,0.0897669792175,0.0188248157501,125.226128101
80,0.623111009598,0.0785570144653,0.0872189998627,0.0188970565796,126.405026913
81,0.623318910599,0.0781528949738,0.0976819992065,0.0202949047089,128.624588966
82,0.563094854355,0.0773561000824,0.0884580612183,0.0197129249573,131.399322033
83,0.619395971298,0.0790190696716,0.0911059379578,0.0212359428406,133.560615063
84,0.647251844406,0.0791051387787,0.0851180553436,0.0178420543671,134.686066866
85,0.618524074554,0.076493024826,0.0861971378326,0.0186638832092,138.128955126
86,0.544383764267,0.0793290138245,0.0884737968445,0.0192542076111,138.092132092
87,0.543927192688,0.0795621871948,0.0854918956757,0.0193588733673,138.761183977
88,0.47492980957,0.0774190425873,0.087375164032,0.0187599658966,142.011369944
89,0.390422105789,0.0792248249054,0.0885469913483,0.0193600654602,144.983265162
90,0.387092113495,0.0845320224762,0.0849850177765,0.0186040401459,143.733990908
91,0.388260126114,0.0783898830414,0.0876669883728,0.018828868866,147.333055973
92,0.39028096199,0.0799551010132,0.0886218547821,0.0199749469757,149.258630991
93,0.392893075943,0.0780742168427,0.0850880146027,0.0186610221863,152.349049091
94,0.394787073135,0.0775129795074,0.0860919952393,0.0191030502319,153.995193005
95,0.32279920578,0.0754220485687,0.0857050418854,0.0180368423462,156.730396032
96,0.309608221054,0.0791640281677,0.0872120857239,0.0230078697205,159.67692709
97,0.318901062012,0.0790240764618,0.0868158340454,0.0197420120239,160.679129839
98,0.362684965134,0.076103925705,0.0848100185394,0.0184791088104,159.744760036
99,0.308471918106,0.0804500579834,0.119211912155,0.0186340808868,162.29399395
