step,run,get,set,free,run_up_to_step
0,0.405833959579,0.247478961945,0.275718927383,0.0755569934845,0.417567014694
1,0.271771669388,0.233772039413,0.26637005806,0.0670359134674,0.442235946655
2,0.275487184525,0.228693962097,0.268386125565,0.0663540363312,0.485327005386
3,0.2900390625,0.229551076889,0.246004104614,0.0612390041351,0.521889209747
4,0.272683143616,0.231827020645,0.254803180695,0.0642778873444,0.599045038223
5,0.295740842819,0.241179943085,0.25542807579,0.0661580562592,0.633340835571
6,0.291399002075,0.227305173874,0.25733089447,0.0679929256439,0.710247993469
7,0.270508050919,0.231827974319,0.258934020996,0.0630688667297,0.834352016449
8,0.274021148682,0.226847171783,0.252838134766,0.0641198158264,0.818546056747
9,0.271654129028,0.25676202774,0.270686864853,0.0757741928101,1.02099108696
10,0.489566087723,0.229562044144,0.287508964539,0.0720388889313,1.12891507149
11,0.275029182434,0.228949069977,0.261607170105,0.0908970832825,1.1685988903
12,0.278250932693,0.23725605011,0.265000104904,0.0701239109039,1.22607207298
13,0.278667926788,0.233926057816,0.293431043625,0.0684430599213,1.26974201202
14,0.270908117294,0.235687971115,0.262969970703,0.0882289409637,1.34004998207
15,0.285298109055,0.270203113556,0.275277137756,0.0723140239716,1.42750906944
16,0.276689767838,0.270375013351,0.282226085663,0.073399066925,1.45659303665
17,0.276390075684,0.246145963669,0.272989034653,0.069757938385,1.621778965
18,0.301531076431,0.239485025406,0.27280497551,0.0736718177795,1.57422685623
19,0.281096220016,0.236881017685,0.269134044647,0.0670189857483,1.64063692093
20,0.473526954651,0.23289513588,0.266312837601,0.0679020881653,1.91109609604
21,0.275747299194,0.235099077225,0.263303995132,0.0641839504242,1.91462016106
22,0.276583194733,0.232974052429,0.278756856918,0.0701589584351,1.95746517181
23,0.274323940277,0.233716964722,0.285681962967,0.0843899250031,2.0351588726
24,0.271204948425,0.247011184692,0.260084867477,0.069030046463,2.06940603256
25,0.274547100067,0.23973608017,0.269016981125,0.0682189464569,2.15195798874
26,0.287042140961,0.242074012756,0.270751953125,0.0713040828705,2.20263910294
27,0.318566799164,0.237230062485,0.278290987015,0.0710861682892,2.24685406685
28,0.285392045975,0.266683101654,0.269333839417,0.0692028999329,2.41681599617
29,0.27478313446,0.239229917526,0.274087190628,0.0689511299133,2.35358381271
30,0.478576183319,0.239104032516,0.264120101929,0.0666851997375,2.6264359951
31,0.29092502594,0.244504928589,0.285208940506,0.0710828304291,2.75413298607
32,0.29136300087,0.241255998611,0.266211986542,0.0684130191803,2.72703289986
33,0.285006046295,0.241829872131,0.266211986542,0.069678068161,2.83216285706
34,0.28093290329,0.243894815445,0.270530939102,0.068696975708,2.93994402885
35,0.275707960129,0.238426208496,0.275964021683,0.0702950954437,2.91127705574
36,0.275676965714,0.241892814636,0.27706193924,0.0707578659058,2.96354198456
37,0.284825801849,0.304172039032,0.270914077759,0.0693719387054,3.07542109489
38,0.272047042847,0.224186897278,0.252756118774,0.0684418678284,3.01489806175
39,0.277209997177,0.235239028931,0.261724948883,0.0645041465759,3.16729807854
40,0.481762886047,0.237821817398,0.264461040497,0.0669329166412,3.33046483994
41,0.269297838211,0.22838306427,0.261044979095,0.067095041275,3.39417099953
42,0.274743080139,0.241417884827,0.262846946716,0.0671620368958,3.45967102051
43,0.288334131241,0.271363973618,0.269413948059,0.0723969936371,3.54048299789
44,0.298043012619,0.237467050552,0.27176618576,0.0704028606415,3.59023785591
45,0.276593208313,0.241590976715,0.270781040192,0.0716199874878,10.1839339733
46,0.279846191406,0.239493846893,0.271641016006,0.0710670948029,3.7722158432
47,0.283941984177,0.246831893921,0.267951965332,0.0715978145599,3.80899190903
48,0.280063152313,0.247516870499,0.281954050064,0.070319890976,3.9044919014
49,0.277572870255,0.245028018951,0.274796009064,0.0718231201172,4.06533694267
50,0.485758781433,0.246053934097,0.274974107742,0.0737009048462,4.20149707794
51,0.276229858398,0.233814954758,0.297163009644,0.0695879459381,10.7609488964
52,0.279824972153,0.228821992874,0.27037191391,0.0732979774475,4.23878002167
53,0.281424999237,0.253134965897,0.270425081253,0.0744721889496,4.27844285965
54,0.276930809021,0.24014878273,0.293150186539,0.0736570358276,4.45982909203
55,0.277502059937,0.252043008804,0.279342889786,0.0729010105133,9.76304316521
56,0.282197952271,0.237596988678,0.276354074478,0.0780169963837,4.51711297035
57,0.279512166977,0.245357036591,0.275193929672,0.071671962738,4.60242390633
58,0.278338193893,0.236796140671,0.266273021698,0.0694010257721,4.61913084984
59,0.279506206512,0.248240947723,0.272239923477,0.0713610649109,4.81714582443
60,0.484572887421,0.248256206512,0.278599023819,0.0824840068817,4.96861791611
61,0.268708944321,0.236142158508,0.268163919449,0.0677700042725,4.94659590721
62,0.269491910934,0.238780021667,0.262465000153,0.0632240772247,5.02981209755
63,0.274426937103,0.241837978363,0.28035902977,0.0704660415649,5.1537861824
64,0.28157377243,0.237107992172,0.257797956467,0.0649139881134,5.17105793953
65,0.275510072708,0.24195098877,0.25745511055,0.0721490383148,5.20397305489
66,0.287318944931,0.239087104797,0.269057035446,0.0734639167786,5.28670787811
67,0.277060985565,0.237659931183,0.261861085892,0.0666220188141,5.24645996094
68,0.285973072052,0.234809875488,0.264456987381,0.0700030326843,5.35267996788
69,0.273411989212,0.248605012894,0.269950151443,0.0696630477905,5.5096540451
70,0.478964805603,0.23002910614,0.269831895828,0.0657389163971,5.59502291679
71,0.270313978195,0.234931945801,0.266560077667,0.0675759315491,5.70380592346
72,0.275600194931,0.238722801208,0.280114889145,0.0669159889221,5.72966885567
73,0.275368928909,0.247523784637,0.257416963577,0.0653669834137,7.2925131321
74,0.282643795013,0.233547925949,0.272014856339,0.0773141384125,5.84170794487
75,0.282536268234,0.236793994904,0.270076036453,0.0689840316772,5.88942503929
76,0.278522968292,0.244632005692,0.266235113144,0.0689690113068,6.03747606277
77,0.27903175354,0.244078874588,0.275443077087,0.0704100131989,6.09618997574
78,0.287220001221,0.250502109528,0.272326946259,0.0714790821075,6.13679790497
79,0.283739328384,0.247784137726,0.276043176651,0.0738189220428,6.35163903236
80,0.477230072021,0.24205493927,0.263275146484,0.074501991272,6.48236179352
81,0.274406194687,0.245004892349,0.264024972916,0.0677850246429,6.47556209564
82,0.270540952682,0.233709812164,0.255839824677,0.0688190460205,6.43591189384
83,0.269926071167,0.229223012924,0.263856172562,0.0657780170441,6.43192100525
84,0.270848989487,0.234822034836,0.259160041809,0.06582903862,13.0726881027
85,0.273903131485,0.229476928711,0.300806045532,0.0677139759064,7.13337802887
86,0.269707202911,0.230396986008,0.250820159912,0.0722749233246,6.66221380234
87,0.269258022308,0.232320070267,0.272176980972,0.0722751617432,14.3460659981
88,0.2804210186,0.239956855774,0.277943134308,0.0697529315948,6.79698705673
89,0.288077831268,0.244199991226,0.272812843323,0.0692749023438,6.94880986214
90,0.475693941116,0.240453004837,0.266085863113,0.0678441524506,7.10499405861
91,0.277287244797,0.232980012894,0.278755903244,0.0684630870819,7.12843704224
92,0.27495598793,0.236303091049,0.263035058975,0.0653648376465,7.21354603767
93,0.276320934296,0.241730928421,0.257911205292,0.0720958709717,7.26895308495
94,0.272172212601,0.235518217087,0.258316993713,0.0655570030212,7.37949490547
95,0.279830217361,0.233547210693,0.266931056976,0.0719900131226,7.46296095848
96,0.277785778046,0.234843015671,0.264178991318,0.0676119327545,7.49689888954
97,0.270567178726,0.246553897858,0.267317056656,0.0657939910889,7.38285899162
98,0.273159980774,0.234348058701,0.269218921661,0.0657799243927,7.60094308853
99,0.274328947067,0.231014966965,0.26478099823,0.0730831623077,7.50837421417
