step,run,get,set,free,run_up_to_step
0,0.00666189193726,0.00756216049194,0.00760507583618,0.000869035720825,0.00732517242432
1,0.00556206703186,0.00708293914795,0.00772905349731,0.000824213027954,0.00802111625671
2,0.00520086288452,0.00717902183533,0.00774598121643,0.000764131546021,0.00938892364502
3,0.00542593002319,0.00758290290833,0.00785303115845,0.000787019729614,0.0252459049225
4,0.00538492202759,0.00752019882202,0.00789189338684,0.000776052474976,0.0122780799866
5,0.00595116615295,0.00743007659912,0.007728099823,0.000795125961304,0.0126559734344
6,0.00509023666382,0.00731515884399,0.0079460144043,0.00081992149353,0.0147659778595
7,0.00519204139709,0.00707197189331,0.00785493850708,0.000828981399536,0.0333979129791
8,0.00530195236206,0.00728178024292,0.00778388977051,0.000785827636719,0.0167520046234
9,0.00515985488892,0.00725793838501,0.00792384147644,0.000854969024658,0.0179290771484
10,0.00567817687988,0.00739598274231,0.00791192054749,0.000893115997314,0.0185339450836
11,0.00558090209961,0.00724291801453,0.00787496566772,0.000866174697876,0.0206999778748
12,0.00483465194702,0.00732898712158,0.00810694694519,0.000795125961304,0.0208311080933
13,0.00509786605835,0.00738501548767,0.00803804397583,0.000802040100098,0.0217959880829
14,0.00446677207947,0.00696086883545,0.00775098800659,0.000834941864014,0.0222280025482
15,0.00458717346191,0.00700998306274,0.00797414779663,0.000823020935059,0.0345969200134
16,0.00445628166199,0.00696110725403,0.00762701034546,0.000728130340576,0.023952960968
17,0.00510621070862,0.0072169303894,0.00784516334534,0.000746965408325,0.0254180431366
18,0.00454807281494,0.00719404220581,0.00788712501526,0.00075101852417,0.0261950492859
19,0.00488901138306,0.00749802589417,0.00773501396179,0.000829935073853,0.0271148681641
20,0.00499391555786,0.00716614723206,0.00753688812256,0.000733852386475,0.0284321308136
21,0.00514388084412,0.00710701942444,0.00769209861755,0.000752925872803,0.0295329093933
22,0.00503087043762,0.00720906257629,0.00735521316528,0.000732183456421,0.0306811332703
23,0.00460386276245,0.00717997550964,0.00915503501892,0.00114297866821,0.0382959842682
24,0.00554800033569,0.00782608985901,0.00852704048157,0.000895023345947,0.0368061065674
25,0.00514817237854,0.00788116455078,0.00811815261841,0.00093412399292,0.0386641025543
26,0.00510692596436,0.00758218765259,0.00795292854309,0.000952005386353,0.0364909172058
27,0.00520706176758,0.0074770450592,0.00800204277039,0.000838994979858,0.0379638671875
28,0.00506615638733,0.00731301307678,0.00803112983704,0.00082802772522,0.038969039917
29,0.00495886802673,0.00793814659119,0.00839805603027,0.000900983810425,0.0406899452209
30,0.00532722473145,0.00830411911011,0.00874304771423,0.00106692314148,0.0423879623413
31,0.00522994995117,0.00793695449829,0.00865602493286,0.000976085662842,0.0440299510956
32,0.00595188140869,0.00804591178894,0.00865292549133,0.000962972640991,0.0454869270325
33,0.00534987449646,0.00805616378784,0.00881910324097,0.00102090835571,0.0465447902679
34,0.00638794898987,0.00813412666321,0.00864291191101,0.000893831253052,0.0513551235199
35,0.00544905662537,0.00760102272034,0.00802087783813,0.00088095664978,0.0470750331879
36,0.00501608848572,0.00741100311279,0.0105521678925,0.000885963439941,0.0474359989166
37,0.00522375106812,0.00798392295837,0.00838708877563,0.00123500823975,0.0490410327911
38,0.00518488883972,0.00797295570374,0.00834012031555,0.000963926315308,0.0508768558502
39,0.00505781173706,0.00757789611816,0.00813293457031,0.00086522102356,0.0516891479492
40,0.00746178627014,0.0076379776001,0.00803685188293,0.000907897949219,0.054486989975
41,0.00511503219604,0.00750994682312,0.00794911384583,0.00080394744873,0.055547952652
42,0.00461506843567,0.00732207298279,0.00930500030518,0.000945091247559,0.0565400123596
43,0.00499701499939,0.0082471370697,0.00877499580383,0.00102090835571,0.0612578392029
44,0.00475287437439,0.00796389579773,0.00867986679077,0.000990867614746,0.0585238933563
45,0.00457000732422,0.00793886184692,0.00829386711121,0.000972986221313,0.0612020492554
46,0.00468707084656,0.00760984420776,0.00832605361938,0.000863790512085,0.0611171722412
47,0.00462293624878,0.0076220035553,0.00804018974304,0.000842094421387,0.0623478889465
48,0.00453615188599,0.00731110572815,0.00927996635437,0.000988006591797,0.0637059211731
49,0.00452089309692,0.00814199447632,0.00859618186951,0.00111699104309,0.0654680728912
50,0.00466585159302,0.00804901123047,0.00849890708923,0.00101590156555,0.065927028656
51,0.00472187995911,0.00825309753418,0.00861501693726,0.00100302696228,0.0672857761383
52,0.00416994094849,0.00747990608215,0.00777101516724,0.000798940658569,0.0679500102997
53,0.00415873527527,0.00749897956848,0.00791001319885,0.000902891159058,0.0685119628906
54,0.00413107872009,0.00788807868958,0.0080897808075,0.000876188278198,0.124056816101
55,0.00416684150696,0.00775098800659,0.0081729888916,0.000878095626831,0.0692429542542
56,0.00418019294739,0.00757598876953,0.00790309906006,0.000818967819214,0.070405960083
57,0.00431084632874,0.00752520561218,0.00829601287842,0.000985860824585,0.0713839530945
58,0.00411224365234,0.00735402107239,0.00778412818909,0.000792980194092,0.0720241069794
59,0.00434303283691,0.00712108612061,0.00755786895752,0.000738859176636,0.0727310180664
60,0.0049421787262,0.00819301605225,0.00923681259155,0.00124001502991,0.149956941605
61,0.00487613677979,0.00824999809265,0.00862193107605,0.00106382369995,0.0825860500336
62,0.00466704368591,0.0081729888916,0.00859689712524,0.00103402137756,0.0793690681458
63,0.00449204444885,0.00791692733765,0.00841093063354,0.000941038131714,0.0809090137482
64,0.00473308563232,0.00782704353333,0.00793099403381,0.000952959060669,0.0822548866272
65,0.00453090667725,0.00863599777222,0.00918388366699,0.00120615959167,0.15513920784
66,0.0044150352478,0.00754809379578,0.00836515426636,0.00106191635132,0.163529872894
67,0.00479102134705,0.00750422477722,0.00816202163696,0.000940799713135,0.0838429927826
68,0.00449204444885,0.00748610496521,0.00910687446594,0.000963926315308,0.0853629112244
69,0.00481414794922,0.00759410858154,0.00812292098999,0.000891208648682,0.0931169986725
70,0.00460195541382,0.00842690467834,0.00892114639282,0.00100708007812,0.0876431465149
71,0.00453495979309,0.00783491134644,0.00827717781067,0.00100898742676,0.0892908573151
72,0.00492906570435,0.00781607627869,0.00840401649475,0.000930070877075,0.090194940567
73,0.00455784797668,0.00776195526123,0.00823402404785,0.000895977020264,0.0909631252289
74,0.00464200973511,0.00767588615417,0.00820302963257,0.000882148742676,0.0929250717163
75,0.00486087799072,0.00773501396179,0.00797510147095,0.000845909118652,0.0928781032562
76,0.00469398498535,0.0078809261322,0.00853681564331,0.00103783607483,0.172549962997
77,0.00468683242798,0.00811100006104,0.00840497016907,0.000974178314209,0.100896835327
78,0.00487089157104,0.0077269077301,0.00821995735168,0.00089693069458,0.1012570858
79,0.00465297698975,0.00771808624268,0.00810098648071,0.000856876373291,0.0969560146332
80,0.00458383560181,0.00816798210144,0.00903487205505,0.00114989280701,0.161751031876
81,0.0046489238739,0.00810217857361,0.00855898857117,0.00107502937317,0.100701093674
82,0.00456190109253,0.00788807868958,0.00844502449036,0.000908851623535,0.101795911789
83,0.00479817390442,0.0078341960907,0.00828313827515,0.000876903533936,0.10283613205
84,0.00471901893616,0.00731492042542,0.00777912139893,0.000785827636719,0.102989912033
85,0.00417494773865,0.00749206542969,0.00808095932007,0.000894069671631,0.165730953217
86,0.00430583953857,0.0076630115509,0.00785613059998,0.000813007354736,0.101410865784
87,0.00421977043152,0.0073709487915,0.00770688056946,0.000771999359131,0.102511882782
88,0.00433087348938,0.00708198547363,0.00745987892151,0.000775098800659,0.104073047638
89,0.00434517860413,0.00790905952454,0.00822591781616,0.000944852828979,0.151816129684
90,0.00431084632874,0.00757598876953,0.00799083709717,0.000853776931763,0.106544971466
91,0.00433087348938,0.0073230266571,0.00767493247986,0.000809907913208,0.108592987061
92,0.00515794754028,0.00759100914001,0.00833201408386,0.000818967819214,0.117995023727
93,0.00474905967712,0.00721192359924,0.010370016098,0.00105905532837,0.117488145828
94,0.0052011013031,0.00839781761169,0.00881600379944,0.00105094909668,0.125422000885
95,0.00454711914062,0.00789308547974,0.00860595703125,0.000972986221313,0.115679979324
96,0.00488090515137,0.00777196884155,0.00809907913208,0.000919103622437,0.116201877594
97,0.00467205047607,0.00749015808105,0.00801706314087,0.000829219818115,0.117912054062
98,0.00462913513184,0.00810098648071,0.00873184204102,0.00118684768677,0.183553934097
99,0.00467705726624,0.0082151889801,0.00866603851318,0.00111699104309,0.120728969574
