step,run,get,set,free,run_up_to_step
0,0.0126302242279,0.00248384475708,0.00208282470703,0.000296115875244,0.014190196991
1,0.00788021087646,0.00212287902832,0.00218105316162,0.000298023223877,0.0166759490967
2,0.00675415992737,0.00227499008179,0.00218200683594,0.000302076339722,0.0192091464996
3,0.00596809387207,0.00210809707642,0.00210309028625,0.000300884246826,0.0189270973206
4,0.00590872764587,0.00216794013977,0.00225305557251,0.000298023223877,0.0209078788757
5,0.00679397583008,0.0021870136261,0.00229787826538,0.000382900238037,0.0223071575165
6,0.00557804107666,0.00215792655945,0.00219798088074,0.000303983688354,0.02330493927
7,0.00554299354553,0.00214695930481,0.00221705436707,0.000298023223877,0.0234880447388
8,0.0048999786377,0.00213408470154,0.00220203399658,0.000297069549561,0.0228118896484
9,0.00536394119263,0.00211095809937,0.00209283828735,0.000307083129883,0.0267648696899
10,0.00445890426636,0.00213503837585,0.00211906433105,0.000303030014038,0.0267581939697
11,0.0045759677887,0.00214886665344,0.00230288505554,0.000370979309082,0.0273399353027
12,0.00443696975708,0.00219011306763,0.00222682952881,0.000316143035889,0.0269069671631
13,0.0040910243988,0.00212502479553,0.00223994255066,0.000301122665405,0.0297820568085
14,0.00402879714966,0.00216293334961,0.0021960735321,0.000301122665405,0.0305571556091
15,0.00417423248291,0.00215578079224,0.0022120475769,0.000313997268677,0.0315320491791
16,0.00355768203735,0.00206685066223,0.00210309028625,0.000298976898193,0.0295147895813
17,0.00334191322327,0.00216603279114,0.00220513343811,0.00030517578125,0.073942899704
18,0.00325393676758,0.00205397605896,0.00226712226868,0.000313997268677,0.031219959259
19,0.0033860206604,0.00219893455505,0.00226879119873,0.000311851501465,0.0350728034973
20,0.00325512886047,0.00218105316162,0.00228214263916,0.000298976898193,0.0358300209045
21,0.00359797477722,0.00224208831787,0.00223898887634,0.000307083129883,0.0367980003357
22,0.0032331943512,0.00213813781738,0.00222110748291,0.000296831130981,0.0343379974365
23,0.00348711013794,0.00231194496155,0.00242400169373,0.000309944152832,0.112509012222
24,0.00319170951843,0.00220990180969,0.00231790542603,0.000323057174683,0.0362379550934
25,0.00324392318726,0.0023500919342,0.00226902961731,0.000319004058838,0.0403711795807
26,0.00345396995544,0.00214910507202,0.00227093696594,0.000317811965942,0.0376539230347
27,0.00299191474915,0.00225901603699,0.00222992897034,0.000310182571411,0.0383520126343
28,0.00297594070435,0.0020968914032,0.00256180763245,0.000380992889404,0.0390870571136
29,0.00317788124084,0.00237798690796,0.00235509872437,0.000318050384521,0.0437350273132
30,0.00329995155334,0.00234699249268,0.0022120475769,0.000310897827148,0.047150850296
31,0.00298094749451,0.00222301483154,0.0023729801178,0.000323057174683,0.0413739681244
32,0.00320482254028,0.00229787826538,0.00217390060425,0.000303983688354,0.046530008316
33,0.00330114364624,0.00198698043823,0.00214600563049,0.000308036804199,0.0463697910309
34,0.00309300422668,0.00234699249268,0.0028920173645,0.000477075576782,0.103846073151
35,0.00306987762451,0.00237679481506,0.002357006073,0.000311851501465,0.0452291965485
36,0.0030210018158,0.00231003761292,0.0022509098053,0.000309944152832,0.0456731319427
37,0.00332999229431,0.00223588943481,0.00219106674194,0.000304937362671,0.0504651069641
38,0.00318622589111,0.00217390060425,0.00271797180176,0.000381946563721,0.0495269298553
39,0.00388789176941,0.00246286392212,0.00233888626099,0.000313997268677,0.0543179512024
40,0.0093080997467,0.00233912467957,0.00233602523804,0.000310182571411,0.0600960254669
41,0.0174748897552,0.0022509098053,0.00233006477356,0.000307083129883,0.0610558986664
42,0.00584387779236,0.00209999084473,0.00222396850586,0.000302076339722,0.0588908195496
43,0.00553798675537,0.00261616706848,0.00233793258667,0.000329971313477,0.0598208904266
44,0.00511598587036,0.00251412391663,0.00240302085876,0.000322103500366,0.0669140815735
45,0.00470304489136,0.00247693061829,0.00228309631348,0.000319004058838,0.0675909519196
46,0.00527882575989,0.00235295295715,0.00231099128723,0.000310897827148,0.0681159496307
47,0.00412797927856,0.00225710868835,0.00222396850586,0.000308990478516,0.0684189796448
48,0.003821849823,0.00201106071472,0.00284314155579,0.000385046005249,0.0700259208679
49,0.00413775444031,0.00265407562256,0.00227499008179,0.000326156616211,0.0714809894562
50,0.00376772880554,0.00249600410461,0.00236201286316,0.000306844711304,0.0654480457306
51,0.00317811965942,0.00234007835388,0.00231194496155,0.000309944152832,0.0655360221863
52,0.00335597991943,0.00216603279114,0.00226306915283,0.000302076339722,0.0688621997833
53,0.00364661216736,0.00276398658752,0.00264096260071,0.000342845916748,0.147302150726
54,0.00345182418823,0.00230503082275,0.00227189064026,0.000319004058838,0.0751008987427
55,0.00322890281677,0.00223302841187,0.00222897529602,0.000310897827148,0.07395195961
56,0.00353217124939,0.00229287147522,0.00219392776489,0.000310897827148,0.0757482051849
57,0.00334978103638,0.00213003158569,0.00245189666748,0.000331878662109,0.0709660053253
58,0.00321316719055,0.00211596488953,0.00224709510803,0.000302791595459,0.0708949565887
59,0.00297808647156,0.00226593017578,0.00243711471558,0.000324964523315,0.149272918701
60,0.00346779823303,0.00237703323364,0.00230693817139,0.000312805175781,0.0802948474884
61,0.00330281257629,0.00225305557251,0.00224900245667,0.000315189361572,0.0760850906372
62,0.00314903259277,0.00208520889282,0.00299310684204,0.000437021255493,0.0815880298615
63,0.00308394432068,0.00233292579651,0.00249099731445,0.000330924987793,0.0836651325226
64,0.00335311889648,0.00231194496155,0.00236701965332,0.000319004058838,0.0841040611267
65,0.00312900543213,0.00220584869385,0.00211811065674,0.000308990478516,0.0774488449097
66,0.00316405296326,0.00224685668945,0.00230693817139,0.000316143035889,0.0892670154572
67,0.00319290161133,0.00251817703247,0.00243282318115,0.000330924987793,0.145593166351
68,0.00330185890198,0.0024209022522,0.00239086151123,0.000338077545166,0.0874700546265
69,0.00328779220581,0.00240898132324,0.00235986709595,0.000319004058838,0.0813939571381
70,0.00384998321533,0.0023992061615,0.00249195098877,0.000335931777954,0.105078935623
71,0.0563960075378,0.00280904769897,0.00253891944885,0.000341892242432,0.0987069606781
72,0.00331711769104,0.00245714187622,0.00229787826538,0.000322103500366,0.087984085083
73,0.00320911407471,0.00236201286316,0.00231385231018,0.000310897827148,0.088721036911
74,0.00308108329773,0.00223898887634,0.00219392776489,0.000308036804199,0.0879640579224
75,0.00779318809509,0.00213408470154,0.00230503082275,0.000306844711304,0.0886099338531
76,0.0055890083313,0.00237011909485,0.00237321853638,0.000325918197632,0.159363985062
77,0.00519919395447,0.00236797332764,0.002366065979,0.000327110290527,0.0993461608887
78,0.00437211990356,0.0023181438446,0.00222492218018,0.000334024429321,0.0956192016602
79,0.00423002243042,0.00223994255066,0.00289702415466,0.000447988510132,0.101639986038
80,0.0041036605835,0.00245690345764,0.00243997573853,0.000331878662109,0.100676059723
81,0.00389289855957,0.0023500919342,0.00220203399658,0.000314950942993,0.094673871994
82,0.0291378498077,0.00222110748291,0.00234484672546,0.00031304359436,0.101891040802
83,0.00356221199036,0.00221490859985,0.00220108032227,0.00031304359436,0.0961811542511
84,0.00371217727661,0.00273990631104,0.00261402130127,0.000335931777954,0.173665046692
85,0.00362420082092,0.00251698493958,0.00247812271118,0.000330924987793,0.103887081146
86,0.00358104705811,0.00227189064026,0.00233912467957,0.00031304359436,0.107852935791
87,0.00401973724365,0.00282001495361,0.00246787071228,0.000344038009644,0.104000091553
88,0.0033221244812,0.00258111953735,0.00253701210022,0.000348091125488,0.105839967728
89,0.0038537979126,0.00237512588501,0.00243306159973,0.000323057174683,0.114769935608
90,0.00307703018188,0.00213003158569,0.00217700004578,0.000304937362671,0.102133989334
91,0.00316715240479,0.00256705284119,0.00242900848389,0.000332832336426,0.15980219841
92,0.00325798988342,0.00247406959534,0.00240111351013,0.000324010848999,0.106208086014
93,0.0030210018158,0.00218200683594,0.0021231174469,0.000308036804199,0.113131999969
94,0.00322794914246,0.00216817855835,0.00217318534851,0.000308990478516,0.113554954529
95,0.00325298309326,0.00270199775696,0.00234913825989,0.000340938568115,0.162867069244
96,0.0029571056366,0.00239706039429,0.00221681594849,0.000314950942993,0.115975856781
97,0.00312399864197,0.00228404998779,0.00225496292114,0.000313997268677,0.11275601387
98,0.00301313400269,0.00210022926331,0.00221180915833,0.000323057174683,0.108573913574
99,0.00319600105286,0.00262904167175,0.00241088867188,0.000344038009644,0.298047065735
