step,run,get,set,free,run_up_to_step
0,0.0714340209961,0.10587978363,0.122413873672,0.0102219581604,0.0740351676941
1,0.0282773971558,0.0960459709167,0.1169090271,0.0101890563965,0.131443977356
2,0.0284030437469,0.0974910259247,0.120174884796,0.0102140903473,0.094092130661
3,0.0284230709076,0.0982701778412,0.112674951553,0.0101399421692,0.107952833176
4,0.0298101902008,0.0968298912048,0.118087053299,0.00942206382751,0.119475126266
5,0.076817035675,0.101020097733,0.117067813873,0.0102550983429,0.18066906929
6,0.03688621521,0.0970230102539,0.11698102951,0.0101139545441,0.196382045746
7,0.0357599258423,0.097244977951,0.1170129776,0.0101480484009,0.269909858704
8,0.0357239246368,0.0967009067535,0.115916013718,0.010223865509,0.22399187088
9,0.0351400375366,0.0961978435516,0.122287034988,0.0104329586029,0.242120027542
10,0.0346429347992,0.0967509746552,0.113929986954,0.0101320743561,0.25003194809
11,0.0344378948212,0.0964999198914,0.117760896683,0.0103161334991,0.32138800621
12,0.0348491668701,0.0977611541748,0.115862131119,0.0102269649506,0.270843982697
13,0.034138917923,0.0979931354523,0.117344141006,0.0150229930878,0.289639949799
14,0.0342671871185,0.098867893219,0.116197824478,0.0104420185089,0.380084991455
15,0.0340628623962,0.0972149372101,0.116287231445,0.0102031230927,0.308579921722
16,0.034108877182,0.0982100963593,0.120240926743,0.0104269981384,0.326763153076
17,0.0740971565247,0.0973989963531,0.115125894547,0.0149660110474,0.370028972626
18,0.0391938686371,0.0955169200897,0.115499973297,0.0103220939636,0.475651025772
19,0.0358910560608,0.096410036087,0.114932060242,0.0106489658356,0.396125078201
20,0.0358500480652,0.0985779762268,0.119150876999,0.0144510269165,0.412225961685
21,0.0343651771545,0.0980730056763,0.117062091827,0.0104138851166,0.523713111877
22,0.034866809845,0.0967860221863,0.117480993271,0.0102632045746,0.436998844147
23,0.0347111225128,0.0981779098511,0.117579936981,0.0103578567505,0.454031944275
24,0.0346801280975,0.0969491004944,0.118808984756,0.0103499889374,0.462646961212
25,0.0339818000793,0.096036195755,0.115409851074,0.0102989673615,0.539490938187
26,0.0342328548431,0.0965979099274,0.118098020554,0.0103840827942,0.489407062531
27,0.0339119434357,0.096620798111,0.117668867111,0.014683008194,0.499083995819
28,0.0338912010193,0.100215911865,0.117994070053,0.0147819519043,0.57519197464
29,0.0364751815796,0.101383924484,0.115803956985,0.0145869255066,0.536052942276
30,0.0342509746552,0.0977141857147,0.116465091705,0.0138080120087,0.551744937897
31,0.0342268943787,0.0976350307465,0.117030858994,0.0104241371155,0.571016073227
32,0.0345892906189,0.0971639156342,0.116581916809,0.0102610588074,0.580712795258
33,0.0335021018982,0.0973958969116,0.118395090103,0.0152940750122,0.606827974319
34,0.0338318347931,0.0971848964691,0.116657972336,0.0106041431427,0.603113889694
35,0.0328967571259,0.0968940258026,0.118504047394,0.0106558799744,0.690290927887
36,0.0344412326813,0.0983669757843,0.117941856384,0.010155916214,0.631582021713
37,0.0335612297058,0.0976068973541,0.116386890411,0.0102231502533,0.637472867966
38,0.0342741012573,0.097382068634,0.114531040192,0.0102279186249,0.725103855133
39,0.0333030223846,0.096207857132,0.114407062531,0.0101499557495,0.66474199295
40,0.0344698429108,0.097785949707,0.127351999283,0.0109090805054,0.676681995392
41,0.0337080955505,0.101207017899,0.116180896759,0.0140450000763,0.695719003677
42,0.0339939594269,0.0978639125824,0.117640018463,0.010351896286,0.71189904213
43,0.0343191623688,0.0967497825623,0.115947008133,0.0101509094238,0.725169181824
44,0.0334448814392,0.100696086884,0.120526075363,0.0103809833527,0.744545936584
45,0.0315160751343,0.0975561141968,0.119245052338,0.0103759765625,0.833065032959
46,0.0318150520325,0.0997250080109,0.117444992065,0.0148189067841,0.769102811813
47,0.0322577953339,0.0982010364532,0.116829872131,0.014564037323,0.840237140656
48,0.0335578918457,0.0995900630951,0.11650800705,0.0148119926453,0.945930957794
49,0.0335879325867,0.0981199741364,0.123981952667,0.010409116745,0.84120798111
50,0.0336990356445,0.0990810394287,0.117503166199,0.0126957893372,0.822237014771
51,0.0337538719177,0.098865032196,0.116861104965,0.0145580768585,0.820297002792
52,0.0335710048676,0.0985209941864,0.114795923233,0.0104150772095,0.832333803177
53,0.0347690582275,0.102630138397,0.11708688736,0.014867067337,0.852736949921
54,0.0362892150879,0.0984039306641,0.118350028992,0.0145080089569,0.861783981323
55,0.0335021018982,0.100960016251,0.120327949524,0.0104081630707,0.990725040436
56,0.033328294754,0.0983378887177,0.114282846451,0.0145399570465,0.893445014954
57,0.0320291519165,0.0973348617554,0.12314581871,0.0152909755707,0.90828204155
58,0.0379278659821,0.0996510982513,0.119745969772,0.0156610012054,1.03999686241
59,0.0314168930054,0.098228931427,0.116808176041,0.0147578716278,0.967673063278
60,0.0318849086761,0.0993521213531,0.11882519722,0.0105459690094,0.950366020203
61,0.0335600376129,0.0991699695587,0.118223190308,0.0106909275055,1.08240389824
62,0.0337538719177,0.100654125214,0.118520021439,0.0131750106812,0.973566055298
63,0.0335938930511,0.0992929935455,0.116827011108,0.0148811340332,0.98660492897
64,0.0339179039001,0.0987870693207,0.122503042221,0.0166840553284,1.00614190102
65,0.0337421894073,0.099436044693,0.118988990784,0.0145750045776,1.03212881088
66,0.0331211090088,0.0980989933014,0.119324922562,0.0144469738007,1.058989048
67,0.0348501205444,0.104750871658,0.116940021515,0.0147640705109,1.0803899765
68,0.0343899726868,0.0985548496246,0.116997003555,0.0104200839996,1.04712295532
69,0.0319170951843,0.103289842606,0.115859031677,0.0102429389954,1.0763759613
70,0.0318651199341,0.098680973053,0.116221904755,0.0149199962616,1.12024998665
71,0.0332641601562,0.102200984955,0.118453979492,0.0143039226532,1.22727513313
72,0.0319209098816,0.0961089134216,0.115927934647,0.0139219760895,1.09956216812
73,0.0330059528351,0.103324890137,0.117545843124,0.0104060173035,1.12778496742
74,0.0339901447296,0.0976529121399,0.118606805801,0.012314081192,1.28224492073
75,0.0337789058685,0.100116014481,0.118124961853,0.0104639530182,1.14871382713
76,0.0341641902924,0.0986559391022,0.11833691597,0.0104289054871,1.26293992996
77,0.0343341827393,0.102860927582,0.121155023575,0.014711856842,1.2938477993
78,0.0337779521942,0.10011100769,0.120684862137,0.013612985611,1.19353890419
79,0.0357539653778,0.0980820655823,0.11962389946,0.0146181583405,1.19628405571
80,0.0314931869507,0.0979738235474,0.121320962906,0.0167889595032,1.2161090374
81,0.0323240756989,0.0982909202576,0.125116109848,0.0105140209198,1.23383903503
82,0.0318570137024,0.0995628833771,0.117152929306,0.0103969573975,1.28484487534
83,0.031800031662,0.0996129512787,0.119094133377,0.0147390365601,1.24177598953
84,0.032203912735,0.0980708599091,0.121029853821,0.01305103302,1.31440711021
85,0.0320510864258,0.0989179611206,0.1160800457,0.0104479789734,1.28380703926
86,0.0329978466034,0.101377010345,0.119479894638,0.0103788375854,1.30486106873
87,0.0318071842194,0.0986139774323,0.120904922485,0.0152289867401,1.44739580154
88,0.032744884491,0.0975379943848,0.116626977921,0.0104658603668,1.32210588455
89,0.0330111980438,0.0987060070038,0.121268987656,0.0150499343872,1.44462680817
90,0.0340719223022,0.101162910461,0.117569923401,0.0139999389648,1.51264381409
91,0.0323717594147,0.0978009700775,0.119471073151,0.0152819156647,1.38081908226
92,0.032998085022,0.101059913635,0.11870598793,0.0134010314941,1.4260969162
93,0.0331509113312,0.0998339653015,0.118188858032,0.0105950832367,1.51095700264
94,0.032045841217,0.0983870029449,0.117074012756,0.0146770477295,1.40528798103
95,0.0320649147034,0.0983538627625,0.118467092514,0.0150370597839,1.53915786743
96,0.0325570106506,0.0986490249634,0.119860172272,0.0139830112457,1.60209608078
97,0.0318722724915,0.0990641117096,0.117398023605,0.0103890895844,1.44553613663
98,0.0320370197296,0.0987660884857,0.121519088745,0.0153179168701,1.51163697243
99,0.03449010849,0.10233092308,0.119304895401,0.015251159668,1.6607940197
