step,run,get,set,free,run_up_to_step
0,52.1174271107,0.314369916916,0.359183073044,0.0988149642944,51.9566380978
1,39.1890130043,0.323206186295,0.382166862488,0.0873191356659,59.7521049976
2,35.4791719913,0.335145950317,0.38539481163,0.0873408317566,61.8572700024
3,34.9020550251,0.321687936783,0.406934976578,0.0937647819519,62.5781559944
4,32.1145789623,0.333802223206,0.391996860504,0.0874300003052,68.3630170822
5,32.1333062649,0.320070028305,0.387624025345,0.0939600467682,72.3599750996
6,34.9267199039,0.332844018936,0.399903059006,0.0924601554871,71.4657948017
7,32.5481727123,0.311405897141,0.395056009293,0.0951120853424,72.8658800125
8,40.5791931152,0.30973482132,0.385961055756,0.0872859954834,74.8790838718
9,31.6042511463,0.316344976425,0.401698827744,0.0915591716766,77.8492879868
10,34.4914820194,0.305847167969,0.390782833099,0.0918140411377,80.210062027
11,38.1717131138,0.317553043365,0.382447004318,0.096451997757,81.1581478119
12,32.40553689,0.311439990997,0.389126062393,0.0936858654022,82.2788178921
13,36.8422050476,0.317714929581,0.392657995224,0.092747926712,86.2209708691
14,34.513833046,0.329745054245,0.381010055542,0.0918371677399,87.5155668259
15,32.122396946,0.322762012482,0.393663883209,0.095577955246,89.1044831276
16,44.7440700531,0.319839000702,0.369525909424,0.0876832008362,90.5604171753
17,31.7193348408,0.306549072266,0.366288900375,0.0992419719696,98.5947289467
18,32.3612248898,0.309484958649,0.381561994553,0.0933158397675,100.261430979
19,37.6906309128,0.30912899971,0.384914875031,0.0913860797882,101.306267977
20,42.4405281544,0.306370973587,0.394304037094,0.0914528369904,103.11659503
21,41.3933298588,0.31253695488,0.389316797256,0.0928380489349,106.516723156
22,45.5015716553,0.307055950165,0.380795001984,0.0930330753326,108.09104681
23,43.7574789524,0.319621086121,0.378038883209,0.09596991539,109.503125906
24,40.7697920799,0.331074953079,0.378374814987,0.0872621536255,111.024534941
25,29.560210228,0.324345827103,0.38232088089,0.0962121486664,115.513705015
26,39.0089108944,0.322843790054,0.370778083801,0.0974390506744,118.407519102
27,41.2717962265,0.320426940918,0.368629932404,0.0885288715363,118.397362947
28,43.4862289429,0.314957141876,0.371286869049,0.0880599021912,119.469858885
29,36.8649561405,0.30918097496,0.376445055008,0.0978298187256,127.252943993
30,43.4107480049,0.317992925644,0.375724077225,0.0878100395203,129.553715944
31,32.0572478771,0.315944910049,0.371325969696,0.0868887901306,130.524347067
32,32.219493866,0.325055837631,0.371678113937,0.105534076691,132.515357971
33,35.4992098808,0.323611974716,0.369616031647,0.103964805603,135.749023914
34,35.5136537552,0.319530010223,0.378832817078,0.0899119377136,136.992530107
35,41.2825632095,0.322757005692,0.383740901947,0.0955259799957,138.903028011
36,39.4976139069,0.327134132385,0.390173196793,0.0948150157928,140.024003983
37,32.085308075,0.31941986084,0.390218019485,0.0929269790649,143.851513863
38,29.3817486763,0.307395935059,0.382004976273,0.0944728851318,145.559605122
39,35.0035390854,0.311919927597,0.387306213379,0.0952899456024,146.669407129
40,38.8003940582,0.322799921036,0.385921001434,0.093414068222,149.028496027
41,36.9922537804,0.325133085251,0.391817092896,0.0931558609009,157.215615988
42,34.7038428783,0.311896085739,0.373477220535,0.0895988941193,158.024494171
43,43.7505509853,0.33535695076,0.387542963028,0.09410405159,159.411832809
44,31.9282999039,0.317623853683,0.374498844147,0.0891389846802,160.496894121
45,35.0267066956,0.323630094528,0.374364852905,0.100414991379,164.466775894
46,37.0146410465,0.321298122406,0.370318889618,0.0885491371155,165.510473013
47,34.7822158337,0.328207969666,0.372518062592,0.0894470214844,167.954674006
48,32.6880972385,0.326519012451,0.374615907669,0.088672876358,168.686179161
49,42.6746580601,0.314838886261,0.389194965363,0.0903379917145,172.857259989
50,41.7347810268,0.327209949493,0.3729429245,0.0981559753418,173.772721052
51,39.7736182213,0.315248012543,0.384209156036,0.0935339927673,175.624835014
52,40.9203879833,0.328274011612,0.375725030899,0.0901100635529,177.413379908
53,35.8967993259,0.313099861145,0.383260965347,0.0888268947601,185.512968063
54,36.6376991272,0.319161891937,0.388320207596,0.0893621444702,186.190928936
55,35.3158659935,0.317638158798,0.374672174454,0.102543115616,188.261309862
56,40.4015381336,0.312065839767,0.388094902039,0.0920150279999,188.485408068
57,35.0471849442,0.308449029922,0.38250207901,0.0945930480957,192.688524961
58,34.7707469463,0.322974920273,0.386010169983,0.0975668430328,194.075796127
59,39.2009072304,0.33021903038,0.404238939285,0.0969820022583,197.450440884
60,35.2432579994,0.315267801285,0.389715909958,0.0891048908234,198.949323893
61,38.6447429657,0.33199095726,0.37140917778,0.088014125824,200.496855974
62,37.0172400475,0.308095932007,0.369917869568,0.0891759395599,202.18594408
63,44.7271990776,0.329002857208,0.387284994125,0.0963459014893,203.955278873
64,35.5588519573,0.312435865402,0.397052049637,0.0926139354706,205.065866947
65,37.0144100189,0.310052871704,0.374537944794,0.0905292034149,213.724615812
66,31.6547341347,0.314029932022,0.39138507843,0.0947761535645,214.717878103
67,35.0029351711,0.323103904724,0.382378101349,0.0969109535217,215.783814907
68,34.8971018791,0.321662902832,0.396744966507,0.0954730510712,217.32830596
69,41.9716989994,0.3294069767,0.378333091736,0.0973539352417,221.742398977
70,37.7876312733,0.330538988113,0.398535966873,0.0953259468079,223.174497128
71,37.8792059422,0.328883171082,0.390622138977,0.0953660011292,223.649153948
72,35.5967988968,0.311313867569,0.386297941208,0.0903611183167,225.967431068
73,34.5793790817,0.330780029297,0.386875867844,0.0919690132141,229.051136971
74,34.5244860649,0.322924852371,0.372318983078,0.0897130966187,232.316248894
75,37.8599319458,0.316504955292,0.381589174271,0.0953869819641,232.478096008
76,35.4428210258,0.327865123749,0.374780893326,0.0948488712311,234.460736036
77,35.1572060585,0.327301025391,0.388528108597,0.0928540229797,241.774436951
78,31.5933609009,0.327154874802,0.371433973312,0.0898911952972,242.861629009
79,34.9444351196,0.320471048355,0.380473852158,0.0976459980011,246.072549105
80,43.0272881985,0.316552877426,0.39032292366,0.092386007309,245.511998177
81,32.8200991154,0.329833984375,0.382345914841,0.0901989936829,250.076659203
82,32.7493209839,0.33868598938,0.384684085846,0.0942261219025,252.332002878
83,37.8815822601,0.331889867783,0.425863981247,0.091609954834,252.942739964
84,37.8158562183,0.343772888184,0.385230064392,0.0905430316925,256.387912989
85,36.12723279,0.310356140137,0.381734132767,0.0908648967743,260.915882111
86,36.0893411636,0.311290025711,0.385265827179,0.0901548862457,260.391546011
87,36.8487548828,0.320802927017,0.394195079803,0.0932340621948,263.378175974
88,36.7961361408,0.321398973465,0.397064208984,0.0944108963013,261.565562963
89,37.8902378082,0.313925981522,0.382051944733,0.0920360088348,271.273478031
90,36.5696377754,0.334841012955,0.389036893845,0.0932250022888,271.942209005
91,41.3142898083,0.322803974152,0.3733959198,0.096195936203,273.780716896
92,35.0979788303,0.334680080414,0.379430055618,0.0907869338989,275.891974926
93,43.7790057659,0.314538002014,0.402115106583,0.0955219268799,279.154623032
94,37.425082922,0.322619915009,0.373337030411,0.102876186371,279.776117086
95,35.0321569443,0.320977926254,0.384151935577,0.09077501297,280.381973982
96,37.1381146908,0.318222045898,0.386905908585,0.0938980579376,283.192278147
97,34.5439209938,0.343263149261,0.390362977982,0.096006155014,288.182116985
98,38.0159239769,0.328010797501,0.396306037903,0.0945630073547,289.42098403
99,34.0855977535,0.324414014816,0.372813940048,0.0887508392334,289.819033146
