step,run,get,set,free,run_up_to_step
0,0.0249910354614,0.00526404380798,0.00610303878784,0.00049901008606,0.0296370983124
1,0.01819896698,0.00547289848328,0.00665688514709,0.000554084777832,0.0363450050354
2,0.0203528404236,0.00570297241211,0.00661993026733,0.000566959381104,0.0441570281982
3,0.0209312438965,0.00569081306458,0.00677394866943,0.000533819198608,0.0483570098877
4,0.0218439102173,0.00580191612244,0.00654196739197,0.000585079193115,0.054680109024
5,0.0204491615295,0.00559306144714,0.0063591003418,0.00053596496582,0.0638680458069
6,0.0205240249634,0.00557112693787,0.0064070224762,0.000566005706787,0.0757510662079
7,0.0219650268555,0.00574398040771,0.0065701007843,0.000596046447754,0.121507883072
8,0.0211751461029,0.0056209564209,0.0065131187439,0.000692844390869,0.0809459686279
9,0.0205388069153,0.00543403625488,0.00677585601807,0.000570058822632,0.0986850261688
10,0.0220477581024,0.00570297241211,0.00662994384766,0.000602960586548,0.12322306633
11,0.0223119258881,0.00564098358154,0.00665187835693,0.000584125518799,0.103325128555
12,0.020162820816,0.00560593605042,0.0063259601593,0.000555992126465,0.108957052231
13,0.0203850269318,0.00541210174561,0.0067081451416,0.000699996948242,0.116786003113
14,0.0209379196167,0.00564289093018,0.00667810440063,0.000601053237915,0.121573209763
15,0.0223250389099,0.00568699836731,0.00649785995483,0.000588178634644,0.131973981857
16,0.0198156833649,0.00546503067017,0.00671911239624,0.00067400932312,0.134506940842
17,0.0210208892822,0.00574898719788,0.00657296180725,0.000616073608398,0.138947963715
18,0.0220358371735,0.00564289093018,0.0065770149231,0.000556945800781,0.144304037094
19,0.020085811615,0.00553011894226,0.0064959526062,0.000597953796387,0.151476860046
20,0.0212349891663,0.00585389137268,0.00664901733398,0.00059986114502,0.19636797905
21,0.0219538211823,0.00584697723389,0.0065610408783,0.000619888305664,0.167002916336
22,0.0210599899292,0.00564408302307,0.00648808479309,0.000581979751587,0.175685882568
23,0.0200688838959,0.00591397285461,0.00644493103027,0.000645875930786,0.215549945831
24,0.0221388339996,0.00573396682739,0.00664210319519,0.000594139099121,0.184763908386
25,0.0210041999817,0.00536918640137,0.00650691986084,0.000685930252075,0.176331996918
26,0.0209980010986,0.0059609413147,0.00688314437866,0.000776052474976,0.218878030777
27,0.0226612091064,0.00585198402405,0.00682210922241,0.000614881515503,0.184760093689
28,0.0219218730927,0.00581121444702,0.00656294822693,0.000648975372314,0.193267822266
29,0.0230300426483,0.00572490692139,0.00692510604858,0.000700950622559,0.200092077255
30,0.0190572738647,0.00589394569397,0.00665402412415,0.000623941421509,0.19441819191
31,0.021115064621,0.00567698478699,0.00672292709351,0.000594139099121,0.237967014313
32,0.0226540565491,0.00559306144714,0.00716018676758,0.00071907043457,0.261482000351
33,0.0198199748993,0.00601482391357,0.00676393508911,0.000602960586548,0.267456054688
34,0.0211200714111,0.0057270526886,0.00677084922791,0.000657796859741,0.273216962814
35,0.0222141742706,0.00549387931824,0.00693678855896,0.000710010528564,0.269679069519
36,0.0201590061188,0.00602698326111,0.00702500343323,0.000658988952637,0.281178951263
37,0.0250890254974,0.00581812858582,0.00672698020935,0.000638008117676,0.262589931488
38,0.0216820240021,0.00569796562195,0.00712299346924,0.000771999359131,0.29557800293
39,0.0203540325165,0.00587797164917,0.00667381286621,0.000656127929688,0.302273988724
40,0.0205540657043,0.0058228969574,0.00664091110229,0.000651121139526,0.251322984695
41,0.0221059322357,0.00559902191162,0.00702404975891,0.000739097595215,0.316915035248
42,0.0217461585999,0.00586199760437,0.00681209564209,0.000648021697998,0.335871934891
43,0.0213060379028,0.00576019287109,0.00667405128479,0.000624895095825,0.268290996552
44,0.0227103233337,0.00603699684143,0.00675916671753,0.000659942626953,0.344648838043
45,0.0221621990204,0.00584006309509,0.0065438747406,0.000621795654297,0.288367033005
46,0.0212478637695,0.0055570602417,0.00704002380371,0.000688076019287,0.370760917664
47,0.0213980674744,0.00606083869934,0.00661706924438,0.000633955001831,0.361451148987
48,0.0208139419556,0.00552892684937,0.00649094581604,0.000593900680542,0.364456892014
49,0.0226819515228,0.00586915016174,0.00669693946838,0.000655889511108,0.440492153168
50,0.0202240943909,0.00569581985474,0.00655889511108,0.000606060028076,0.36199092865
51,0.0218548774719,0.00602388381958,0.00682091712952,0.000755071640015,0.426321029663
52,0.0219752788544,0.00570201873779,0.00667691230774,0.000616073608398,0.348952054977
53,0.0205380916595,0.0055558681488,0.00643110275269,0.000585079193115,0.308830022812
54,0.0253391265869,0.00600290298462,0.00686693191528,0.000648975372314,0.422697782516
55,0.022255897522,0.00575399398804,0.00651383399963,0.000612020492554,0.380034208298
56,0.0206849575043,0.00601601600647,0.00659608840942,0.000641107559204,0.432774066925
57,0.0192248821259,0.00572490692139,0.00658679008484,0.000606060028076,0.388201951981
58,0.0231251716614,0.0055558681488,0.00697612762451,0.000693082809448,0.413182020187
59,0.0215518474579,0.005784034729,0.00674700737,0.000863075256348,0.343670845032
60,0.0208992958069,0.00579786300659,0.00656485557556,0.000595092773438,0.334697961807
61,0.0226020812988,0.0062198638916,0.00695896148682,0.00078010559082,0.461052179337
62,0.0203368663788,0.00572896003723,0.00668501853943,0.000686883926392,0.422456979752
63,0.0212948322296,0.00560188293457,0.00650382041931,0.000606060028076,0.370983123779
64,0.0210616588593,0.00586795806885,0.00680804252625,0.000661849975586,0.428517103195
65,0.0207760334015,0.00586605072021,0.00692582130432,0.000695943832397,0.382783174515
66,0.0205092430115,0.00553703308105,0.00639295578003,0.000607013702393,0.404485940933
67,0.0187342166901,0.00550699234009,0.0065290927887,0.000654935836792,0.347114086151
68,0.0217096805573,0.00565600395203,0.00660610198975,0.000606060028076,0.463225841522
69,0.0207231044769,0.00576281547546,0.00674986839294,0.000648975372314,0.50559091568
70,0.0183799266815,0.00544309616089,0.00615811347961,0.000553131103516,0.381783008575
71,0.0256907939911,0.00609183311462,0.0071280002594,0.000751972198486,0.487901926041
72,0.0196919441223,0.0061891078949,0.0066659450531,0.000649929046631,0.413285017014
73,0.0202691555023,0.00564694404602,0.00659394264221,0.000750064849854,0.435864925385
74,0.0210337638855,0.00590896606445,0.00685119628906,0.000708103179932,0.525642871857
75,0.0223071575165,0.00569701194763,0.00669312477112,0.000641107559204,0.543832063675
76,0.0217950344086,0.00580883026123,0.00680994987488,0.000669956207275,1.16502714157
77,0.020849943161,0.00558710098267,0.00659704208374,0.000635862350464,0.556995868683
78,0.022940158844,0.00590395927429,0.00666499137878,0.000657081604004,0.601953983307
79,0.0205149650574,0.00569081306458,0.00654721260071,0.000602006912231,0.488803863525
80,0.0196490287781,0.0056529045105,0.00626587867737,0.000778913497925,0.570015192032
81,0.0191910266876,0.00526094436646,0.00616121292114,0.000540971755981,0.451834917068
82,0.0186462402344,0.00569701194763,0.00630402565002,0.000762224197388,0.57506108284
83,0.0202422142029,0.00533199310303,0.00621008872986,0.000741004943848,0.484204053879
84,0.0189089775085,0.00563979148865,0.00654482841492,0.000624895095825,0.538713216782
85,0.0206680297852,0.00576400756836,0.00737619400024,0.000679969787598,0.445797920227
86,0.0199739933014,0.00518608093262,0.00591993331909,0.00070595741272,0.565838098526
87,0.0185668468475,0.00549483299255,0.00644397735596,0.000822067260742,0.727744817734
88,0.0255630016327,0.00570511817932,0.00674080848694,0.000617027282715,0.627199888229
89,0.0197730064392,0.00535011291504,0.00644302368164,0.00067400932312,0.626673936844
90,0.0205938816071,0.00557899475098,0.00662708282471,0.000603914260864,0.656683921814
91,0.0187909603119,0.00530409812927,0.00624418258667,0.000677108764648,0.64827299118
92,0.0223791599274,0.00568294525146,0.00655603408813,0.000634908676147,0.617441177368
93,0.0216991901398,0.00576186180115,0.00667810440063,0.000643014907837,0.622646093369
94,0.0208921432495,0.00550103187561,0.00603914260864,0.000598192214966,0.60374212265
95,0.0207479000092,0.00576496124268,0.00675296783447,0.000611782073975,0.617518901825
96,0.0225119590759,0.00557017326355,0.00637412071228,0.000536918640137,0.644559860229
97,0.0212299823761,0.00571990013123,0.00669598579407,0.000671148300171,0.682241916656
98,0.021623134613,0.00565981864929,0.00657916069031,0.00059700012207,0.626019954681
99,0.0208778381348,0.00567388534546,0.00667881965637,0.000746011734009,0.68418097496
