step,run,get,set,free,run_up_to_step
0,1.17022013664,12.9005060196,12.1000669003,3.35697984695,1.15425801277
1,1.70965719223,12.5153279305,12.078920126,3.15796709061,1.70398187637
2,1.56041002274,12.4564669132,11.8617699146,3.41010189056,2.00699591637
3,1.50294804573,12.2524950504,12.0472490788,3.14217686653,2.43768596649
4,1.26130080223,12.5443861485,11.9391341209,3.22560715675,3.09397697449
5,1.52546787262,12.1967549324,12.1363360882,3.18613600731,3.39663696289
6,1.49486207962,12.0395410061,12.026761055,3.18841505051,3.8623380661
7,1.36983299255,12.3761410713,11.8024830818,3.22634482384,4.10411691666
8,1.40244698524,12.3643729687,11.9169778824,3.18988180161,4.87758398056
9,1.4031431675,12.3679909706,11.8940489292,3.25482082367,5.08052110672
10,1.32451105118,12.3047499657,11.881978035,3.23550081253,5.5638730526
11,1.37125921249,12.2742319107,12.0972290039,3.13929009438,5.9572789669
12,1.42008161545,12.3185899258,11.9331760406,3.19212508202,6.51703119278
13,1.44452404976,12.2568831444,11.9936079979,3.14298319817,7.15017104149
14,1.52788305283,12.3161070347,12.0807650089,3.2234017849,7.50108098984
15,1.3988070488,12.6951708794,12.2104160786,3.19350194931,7.92119908333
16,1.47986721992,12.2672078609,12.1010320187,3.26627588272,8.21429300308
17,1.35489797592,12.5023291111,12.204657793,3.12430906296,8.65792918205
18,1.39098310471,12.3922359943,12.2488639355,3.26490187645,9.06266498566
19,1.39941215515,12.2901358604,12.1573748589,3.09773206711,9.59137582779
20,11.2267520428,11.5680379868,12.0313601494,3.00532579422,20.7261350155
21,1.25547075272,11.1009061337,11.280826807,2.73270082474,20.4746439457
22,1.17424988747,11.4530520439,10.7936909199,3.04189777374,20.7911100388
23,1.272990942,11.0137178898,11.1797680855,3.11598992348,21.1201310158
24,1.22521996498,11.0376460552,10.8555779457,2.89249897003,20.616147995
25,1.17064189911,11.0575509071,11.1465120316,2.99097919464,21.4427092075
26,1.24561071396,11.4878811836,10.9493601322,2.76870203018,22.2899470329
27,1.21567392349,11.1980659962,10.9475069046,2.6811029911,22.9657931328
28,1.22335195541,11.0272359848,11.2091040611,2.77106118202,23.3407330513
29,1.2246696949,11.5683128834,10.7434239388,2.70052886009,22.502040863
30,1.17374491692,10.8603470325,10.6447679996,2.58754611015,23.6468889713
31,1.16196417809,10.9593298435,10.5495800972,2.6238720417,23.7074079514
32,1.14602780342,10.9038848877,10.8109149933,2.64622211456,25.035007
33,1.14316177368,10.7950639725,10.6414480209,2.6073281765,25.2314469814
34,1.15261387825,10.798486948,11.0178799629,2.60496711731,25.0736839771
35,1.22040200233,11.1194138527,10.6540689468,2.62722992897,26.2111570835
36,1.15787100792,10.7984890938,10.5687060356,2.66433596611,26.1784060001
37,1.13778281212,10.8290979862,10.6213641167,2.62021017075,26.393789053
38,1.16915988922,10.8604519367,10.955862999,2.60210299492,27.6556558609
39,1.23398685455,11.0113990307,11.2420010567,2.64820289612,26.9819579124
40,1.11748623848,11.3151857853,10.6476180553,2.7648768425,27.036575079
41,1.15200591087,10.742305994,11.0350389481,2.65917897224,29.6363730431
42,1.13727426529,11.1340529919,11.0222988129,2.61752104759,28.0521709919
43,1.25892090797,11.0414259434,11.2736268044,2.65859103203,28.6658840179
44,1.25248408318,10.9986801147,11.0562720299,2.89546704292,28.6769499779
45,1.09719610214,11.3422148228,10.5646100044,2.61437106133,29.5621898174
46,1.12937092781,10.8387608528,10.551251173,2.67025399208,31.0656359196
47,1.13521695137,10.9652810097,10.7893800735,2.78280901909,31.4920539856
48,1.17476081848,10.7880330086,10.5907580853,2.67349696159,31.2341868877
49,1.13783478737,10.7924361229,10.6058039665,2.66009092331,31.524461031
50,1.13686585426,10.8020761013,10.7501981258,2.94121098518,32.4406280518
51,1.13141679764,11.461263895,11.1215059757,2.59995698929,31.8883039951
52,1.10632896423,11.0160908699,10.616050005,2.64762306213,33.3399720192
53,1.1528069973,10.8050670624,11.0182960033,2.64660692215,33.1097829342
54,1.25987386703,10.9375379086,10.6794939041,2.73382902145,33.043735981
55,1.12908911705,10.8991658688,10.659334898,2.68893313408,33.8438129425
56,1.12325882912,10.8991677761,11.1500980854,2.70140790939,35.1763861179
57,1.09442400932,10.9535639286,10.7875380516,2.78991103172,34.885103941
58,1.10780525208,11.5281968117,10.6987850666,2.70257902145,35.6408698559
59,1.16811490059,10.9359920025,10.9166522026,2.88882398605,35.5718679428
60,1.14737582207,11.3102030754,10.7763259411,2.71546077728,35.8677949905
61,1.08762598038,10.9292578697,10.7135910988,2.69900608063,36.1655480862
62,1.09137392044,10.9412848949,10.7157239914,2.69687318802,36.3515901566
63,1.12583112717,10.9490468502,10.5542230606,2.61706805229,37.464070797
64,0.886852025986,10.9849479198,10.9391329288,3.00990390778,37.9896910191
65,0.949991941452,10.932131052,10.6584668159,2.76729989052,38.3079650402
66,0.927205085754,11.0608930588,10.4759750366,2.5848839283,37.8541128635
67,0.867150783539,10.6864209175,10.4977490902,2.6550321579,38.6838080883
68,0.898665189743,11.0282709599,11.1858849525,2.8758699894,39.5256078243
69,0.854137182236,10.7686309814,10.4026958942,2.55518293381,39.2059772015
70,0.893033742905,10.6987121105,10.4417359829,2.58692312241,40.060185194
71,0.898277044296,10.7385120392,10.4242069721,2.58259677887,40.9801020622
72,0.824943780899,10.6617519855,10.7594470978,2.67566680908,40.8210589886
73,0.849196910858,10.834841013,10.6208918095,2.60808396339,42.53606987
74,0.873625040054,10.9287748337,10.7466938496,2.60851287842,41.8864469528
75,0.88106918335,10.8882761002,10.6629052162,2.63850903511,42.5479569435
76,0.880151987076,10.7815079689,10.6409277916,2.68111991882,44.3547101021
77,0.869246006012,10.7185959816,10.641343832,2.62740182877,44.0499651432
78,0.822480201721,10.8651649952,10.6424500942,2.69856715202,43.2184128761
79,0.855597019196,10.8253779411,10.6020610332,2.71566700935,44.1574888229
80,0.875576972961,10.7937870026,10.7459690571,2.64210605621,44.3629059792
81,0.861018896103,10.9348061085,10.7356660366,2.63926815987,45.4327909946
82,0.892224788666,11.1303298473,10.5924630165,2.62818098068,44.6568610668
83,0.89071393013,10.8700809479,10.5752751827,2.64079093933,45.5685551167
84,0.867923974991,10.8517699242,10.6542589664,2.65377688408,46.3720939159
85,0.866873025894,10.7978599072,10.7130119801,2.74029588699,47.4742531776
86,0.910692214966,11.88321805,10.9801330566,2.79161500931,48.859336853
87,0.884927749634,11.2588760853,10.9976620674,2.7849650383,49.4053258896
88,0.87956905365,11.2481069565,11.0693149567,2.79947090149,49.0486049652
89,0.925600290298,11.19094491,11.033539772,2.90390205383,50.9286949635
90,0.926261901855,11.1281859875,11.0313670635,2.79402804375,50.8676629066
91,0.903671979904,11.1506779194,10.9736051559,2.79899406433,50.550620079
92,0.854102134705,11.2225689888,10.9181630611,2.74922704697,51.353413105
93,0.917532205582,11.218444109,10.9272098541,2.78859400749,51.3017299175
94,0.913757801056,11.1957759857,10.9708199501,2.77289104462,51.2579388618
95,0.918872833252,11.231648922,11.0047190189,2.7743229866,52.3359770775
96,0.89809513092,11.2554588318,10.9667489529,2.79831981659,52.5037710667
97,0.946444034576,11.1953270435,10.9703848362,2.75829386711,53.3948690891
98,0.887818813324,11.331674099,10.9850862026,2.77764105797,53.7524759769
99,0.91245007515,11.2285897732,10.9511239529,2.81441402435,54.0484030247
