step,run,get,set,free,run_up_to_step
0,0.119018793106,0.0119240283966,0.0129370689392,0.00109505653381,0.119210958481
1,0.0753588676453,0.010715007782,0.0134000778198,0.00117588043213,0.185371160507
2,0.0772023200989,0.0109770298004,0.0129389762878,0.00112199783325,0.243544101715
3,0.0577518939972,0.0108358860016,0.0135340690613,0.00109577178955,0.27613401413
4,0.0579080581665,0.0109329223633,0.0126712322235,0.00113606452942,0.364603996277
5,0.051600933075,0.010143995285,0.0119588375092,0.00106811523438,0.37492609024
6,0.0501029491425,0.0103099346161,0.0123701095581,0.00107479095459,0.402809143066
7,0.0469927787781,0.0106949806213,0.0119500160217,0.00112295150757,0.421762943268
8,0.0425620079041,0.0103468894958,0.0127189159393,0.00137591362,0.427936792374
9,0.0392639636993,0.0109648704529,0.012216091156,0.00117301940918,0.448348045349
10,0.0380840301514,0.0106151103973,0.0134320259094,0.00141000747681,0.474786043167
11,0.0407481193542,0.0107800960541,0.0125489234924,0.0012309551239,0.510237932205
12,0.0385699272156,0.0105760097504,0.0123851299286,0.00108695030212,0.537201881409
13,0.0338499546051,0.0107400417328,0.0128419399261,0.00106978416443,0.558033943176
14,0.0399551391602,0.0106201171875,0.0121779441833,0.00107979774475,0.623562097549
15,0.0418980121613,0.0103890895844,0.012277841568,0.00110507011414,0.639863967896
16,0.0356938838959,0.0107769966125,0.0127239227295,0.00117015838623,0.637161016464
17,0.0410759449005,0.0104207992554,0.0119349956512,0.00110197067261,0.66030216217
18,0.0460271835327,0.0107190608978,0.0122818946838,0.00115704536438,0.686887025833
19,0.0383808612823,0.010596036911,0.0124909877777,0.00114798545837,0.715569972992
20,0.0400960445404,0.0107579231262,0.0130932331085,0.00111818313599,0.735837221146
21,0.0418779850006,0.011656999588,0.013237953186,0.00125193595886,0.761610984802
22,0.0368211269379,0.0109000205994,0.0127830505371,0.00112509727478,0.781471014023
23,0.0435202121735,0.0110349655151,0.0138981342316,0.00119495391846,0.806993961334
24,0.0426151752472,0.0114200115204,0.0125720500946,0.00106287002563,0.841237068176
25,0.0438709259033,0.0107269287109,0.0121018886566,0.00114703178406,0.903276920319
26,0.0408010482788,0.011656999588,0.0123679637909,0.00116801261902,0.927843809128
27,0.0426177978516,0.0102920532227,0.0124540328979,0.00107979774475,0.923087835312
28,0.0430910587311,0.0104460716248,0.0122919082642,0.00159883499146,1.19252991676
29,0.0454967021942,0.0104141235352,0.0124950408936,0.00110006332397,0.986789941788
30,0.0426139831543,0.010724067688,0.0124070644379,0.00108695030212,1.014772892
31,0.0417549610138,0.0103330612183,0.0124690532684,0.00109100341797,1.02295804024
32,0.0439927577972,0.0101461410522,0.0127530097961,0.00107192993164,1.04739689827
33,0.0425796508789,0.0103709697723,0.0116860866547,0.00108504295349,1.08967590332
34,0.044361114502,0.0106580257416,0.0126271247864,0.00108313560486,1.10744905472
35,0.0433740615845,0.010085105896,0.0122191905975,0.00139093399048,1.11813592911
36,0.04509806633,0.0108509063721,0.0126559734344,0.00107884407043,1.16253495216
37,0.0427031517029,0.010488986969,0.0118520259857,0.00108909606934,1.19681191444
38,0.0414109230042,0.0104219913483,0.012130022049,0.00110507011414,1.21052598953
39,0.0435450077057,0.0103831291199,0.0124130249023,0.00109505653381,1.23805594444
40,0.0423970222473,0.0104200839996,0.0120799541473,0.00110697746277,1.26165294647
41,0.0381529331207,0.0104198455811,0.0125000476837,0.00108599662781,1.27550292015
42,0.0438928604126,0.0103821754456,0.0129010677338,0.00112199783325,1.34696793556
43,0.395364999771,0.0109579563141,0.0126700401306,0.00119090080261,1.32375001907
44,0.0381512641907,0.0107991695404,0.0127639770508,0.00111508369446,1.36705589294
45,0.0434892177582,0.0102398395538,0.0126440525055,0.00112009048462,1.38768696785
46,0.0431869029999,0.0108640193939,0.0130832195282,0.00111603736877,1.40875697136
47,0.0445840358734,0.0115821361542,0.0129389762878,0.00111699104309,1.44015216827
48,0.0456409454346,0.0114510059357,0.0128998756409,0.00111818313599,1.46791315079
49,0.048684835434,0.012228012085,0.0128099918365,0.00117897987366,1.52328586578
50,0.0345928668976,0.0107660293579,0.0126359462738,0.00125312805176,1.76776599884
51,0.0501389503479,0.0106198787689,0.0125141143799,0.00155901908875,1.55601191521
52,0.0486590862274,0.0103359222412,0.0122978687286,0.00138902664185,1.57009983063
53,0.0569620132446,0.0101490020752,0.0119760036469,0.00115919113159,1.57436299324
54,0.0459578037262,0.010162115097,0.0121200084686,0.00129699707031,1.63807296753
55,0.0440151691437,0.0103800296783,0.0118639469147,0.00115895271301,1.66904592514
56,0.0461399555206,0.0105199813843,0.012745141983,0.00109601020813,1.66172099113
57,0.0449168682098,0.0109958648682,0.0136890411377,0.00152492523193,1.711124897
58,0.0487151145935,0.0116610527039,0.0136179924011,0.00112700462341,1.75085496902
59,0.0423951148987,0.0111031532288,0.0126647949219,0.00111103057861,1.74617886543
60,0.0434620380402,0.0112130641937,0.0124840736389,0.00108814239502,1.74169898033
61,0.0420153141022,0.0103960037231,0.0157351493835,0.00146389007568,1.79616308212
62,0.0450162887573,0.0119028091431,0.00744080543518,0.000770807266235,1.9068300724
63,0.0439560413361,0.0102820396423,0.013267993927,0.00141406059265,1.90769600868
64,0.043799161911,0.010899066925,0.0124619007111,0.00127506256104,1.92458200455
65,0.0425631999969,0.0103240013123,0.0123460292816,0.00125098228455,1.90268111229
66,0.0449850559235,0.0102891921997,0.0128262042999,0.0013210773468,1.94749808311
67,0.0436947345734,0.0103619098663,0.0121619701385,0.00128221511841,2.06331801414
68,0.0429627895355,0.010320186615,0.0122060775757,0.00108098983765,1.99464082718
69,0.0414779186249,0.010941028595,0.012332201004,0.00112581253052,1.9910068512
70,0.0418148040771,0.0105049610138,0.0132639408112,0.00129985809326,2.03483986855
71,0.0435800552368,0.0104939937592,0.0121409893036,0.00119686126709,2.07010102272
72,0.043331861496,0.0110039710999,0.0121629238129,0.00111222267151,2.07963895798
73,0.0449588298798,0.010372877121,0.0136458873749,0.00140690803528,2.14625716209
74,0.0437769889832,0.0107688903809,0.0119459629059,0.00107312202454,2.15935015678
75,0.0449531078339,0.0108671188354,0.0120060443878,0.00109195709229,2.23372507095
76,0.0412788391113,0.0103149414062,0.0125119686127,0.00133609771729,2.22063302994
77,0.0438041687012,0.0113701820374,0.0123069286346,0.00134301185608,2.21767878532
78,0.0435111522675,0.0106918811798,0.0128111839294,0.00111985206604,2.24766802788
79,0.0430729389191,0.0105180740356,0.0121221542358,0.00108599662781,2.25754499435
80,0.0447080135345,0.0108170509338,0.0127549171448,0.00116991996765,2.29996800423
81,0.0447609424591,0.0121052265167,0.0125329494476,0.00109696388245,2.33333802223
82,0.0433621406555,0.0110309123993,0.01544713974,0.00162792205811,2.30663585663
83,0.041579246521,0.0103578567505,0.0124611854553,0.00110387802124,2.40967392921
84,0.0428500175476,0.0106041431427,0.0123820304871,0.00112581253052,2.4170999527
85,0.0428092479706,0.0108458995819,0.0128469467163,0.00111413002014,2.4669649601
86,0.0438470840454,0.0102620124817,0.0125830173492,0.00108313560486,2.48702692986
87,0.0454139709473,0.0108621120453,0.0126841068268,0.00118803977966,2.49813294411
88,0.0443778038025,0.0110719203949,0.0123620033264,0.00115585327148,3.11725902557
89,0.0357389450073,0.0104851722717,0.0125551223755,0.0010941028595,2.59146499634
90,0.050274848938,0.0110349655151,0.0129020214081,0.00109887123108,2.59254598618
91,0.0493559837341,0.0109670162201,0.0135979652405,0.00113201141357,2.60519099236
92,0.0500078201294,0.011677980423,0.0133600234985,0.00118494033813,2.69020485878
93,0.0483329296112,0.0112750530243,0.0143280029297,0.00151610374451,2.72351908684
94,0.0328171253204,0.00701308250427,0.0129299163818,0.00116491317749,2.45423603058
95,0.0474150180817,0.0124731063843,0.0129818916321,0.0011739730835,2.79441595078
96,0.0467479228973,0.0111680030823,0.0131158828735,0.00133085250854,2.81803703308
97,0.0502738952637,0.0108649730682,0.0124750137329,0.00128602981567,2.84794092178
98,0.0444939136505,0.0115551948547,0.0134449005127,0.00115704536438,2.897564888
99,0.0467579364777,0.0121049880981,0.0128440856934,0.00156617164612,3.33951592445
