step,run,get,set,free,run_up_to_step
0,0.00783610343933,0.00650000572205,0.00802302360535,0.000941038131714,0.0082790851593
1,0.00707721710205,0.00753784179688,0.00691699981689,0.000637054443359,0.00971412658691
2,0.0061206817627,0.00516700744629,0.00565195083618,0.000650882720947,0.00860095024109
3,0.00729012489319,0.00752210617065,0.00560593605042,0.000561952590942,0.00974607467651
4,0.00649189949036,0.00634288787842,0.00818419456482,0.00103807449341,0.013888835907
5,0.00635313987732,0.00530505180359,0.00845098495483,0.000802040100098,0.0156478881836
6,0.00693225860596,0.00560402870178,0.00919389724731,0.00108504295349,0.0166471004486
7,0.00640392303467,0.00556087493896,0.00941801071167,0.0010199546814,0.0139429569244
8,0.0060122013092,0.0054669380188,0.00847792625427,0.000820159912109,0.0151081085205
9,0.00642085075378,0.00727510452271,0.0080680847168,0.00109386444092,0.031613111496
10,0.00529003143311,0.00769782066345,0.00552606582642,0.000649213790894,0.020721912384
11,0.00603413581848,0.00770783424377,0.00855493545532,0.000604867935181,0.0220282077789
12,0.00647902488708,0.00671815872192,0.00666403770447,0.000753164291382,0.0234580039978
13,0.00450801849365,0.00566005706787,0.0055091381073,0.000616073608398,0.0190179347992
14,0.00498390197754,0.00744891166687,0.00834798812866,0.00111413002014,0.0201032161713
15,0.00616121292114,0.00629615783691,0.00833296775818,0.000923871994019,0.0275912284851
16,0.00543403625488,0.00762581825256,0.00838899612427,0.00100302696228,0.0290861129761
17,0.00566005706787,0.00777101516724,0.00845503807068,0.000665903091431,0.029449224472
18,0.00588989257812,0.00592708587646,0.0092601776123,0.000963926315308,0.0329821109772
19,0.00571870803833,0.00820684432983,0.00936007499695,0.00115609169006,0.0350818634033
20,0.0139539241791,0.00820589065552,0.00589203834534,0.000648021697998,0.0466129779816
21,0.00736594200134,0.00875806808472,0.00921583175659,0.000931024551392,0.0480110645294
22,0.058825969696,0.00847601890564,0.00798916816711,0.000723838806152,0.0462329387665
23,0.00736904144287,0.00854396820068,0.00950479507446,0.00107502937317,0.0485148429871
24,0.00537991523743,0.00563597679138,0.0097599029541,0.0010199546814,0.0473530292511
25,0.00741696357727,0.00813293457031,0.00867700576782,0.000754833221436,0.0510029792786
26,0.00536823272705,0.00762701034546,0.00713992118835,0.000830888748169,0.049800157547
27,0.00667715072632,0.0081889629364,0.00789093971252,0.000897884368896,0.0379459857941
28,0.00691032409668,0.00699305534363,0.00864696502686,0.00115394592285,0.0532639026642
29,0.00667309761047,0.00761008262634,0.00720715522766,0.000898122787476,0.214410066605
30,0.00641393661499,0.00635194778442,0.00627493858337,0.000744104385376,0.0409770011902
31,0.00650978088379,0.00695490837097,0.00662803649902,0.000770807266235,0.0437700748444
32,0.00485277175903,0.0061628818512,0.00621199607849,0.000547885894775,0.0471751689911
33,0.004802942276,0.00606417655945,0.00578689575195,0.000590085983276,0.0493040084839
34,0.00442981719971,0.00503206253052,0.00615406036377,0.000635862350464,0.046541929245
35,0.00499725341797,0.0066499710083,0.0067880153656,0.000606060028076,1.394302845
36,0.00469899177551,0.00673699378967,0.00695109367371,0.000795841217041,0.0533308982849
37,0.00628304481506,0.00555515289307,0.00944590568542,0.000923156738281,0.0510129928589
38,0.00600004196167,0.00845503807068,0.00938200950623,0.00103116035461,0.0711488723755
39,0.00425624847412,0.00785207748413,0.00894498825073,0.000710964202881,0.0685279369354
40,0.00609588623047,0.00822114944458,0.00545811653137,0.000832080841064,0.0740368366241
41,0.00620794296265,0.00840401649475,0.00943493843079,0.001060962677,0.138437986374
42,0.00518202781677,0.00865912437439,0.00949692726135,0.00116395950317,0.0756230354309
43,0.00576972961426,0.00784397125244,0.00921392440796,0.000914096832275,0.0772030353546
44,0.00671601295471,0.00826096534729,0.00909805297852,0.000868082046509,0.0804719924927
45,0.00559282302856,0.00766205787659,0.00930118560791,0.00094199180603,0.0825679302216
46,0.00547409057617,0.00867486000061,0.00953006744385,0.00105905532837,0.129721164703
47,0.0060498714447,0.00853395462036,0.010066986084,0.00078821182251,0.0653488636017
48,0.00596594810486,0.00915813446045,0.00906896591187,0.00102496147156,0.0659449100494
49,0.00582194328308,0.00780701637268,0.0094690322876,0.001060962677,0.0885000228882
50,0.00459218025208,0.00613498687744,0.00650000572205,0.000662803649902,0.0682420730591
51,0.0046591758728,0.00619697570801,0.00750613212585,0.000787973403931,0.0610520839691
52,0.0048508644104,0.00691914558411,0.00739693641663,0.00115704536438,0.0700027942657
53,0.00482702255249,0.00653910636902,0.00611305236816,0.000592947006226,0.0678489208221
54,0.00505709648132,0.00610899925232,0.00646686553955,0.000662088394165,0.0718259811401
55,0.0049991607666,0.00608420372009,0.00600004196167,0.000584840774536,0.0688230991364
56,0.00479698181152,0.00597596168518,0.00769114494324,0.000845193862915,0.0734338760376
57,0.00485110282898,0.00706696510315,0.00678300857544,0.000716209411621,0.0695669651031
58,0.00478482246399,0.00662684440613,0.00688695907593,0.000725030899048,0.0766689777374
59,0.00442886352539,0.00549411773682,0.00657391548157,0.000716924667358,0.073704957962
60,0.00398683547974,0.00634098052979,0.00618481636047,0.000643968582153,0.0793871879578
61,0.00407004356384,0.00722885131836,0.00716114044189,0.000761985778809,0.128901004791
62,0.00408506393433,0.00660800933838,0.00653409957886,0.000761985778809,0.133078813553
63,0.00416493415833,0.00647902488708,0.00656390190125,0.000679969787598,0.0835750102997
64,0.00512194633484,0.00526905059814,0.00559186935425,0.000574827194214,0.0830881595612
65,0.00511193275452,0.00601601600647,0.00602698326111,0.000635862350464,0.0845069885254
66,0.00561594963074,0.00540399551392,0.00876402854919,0.00095009803772,0.0863380432129
67,0.00395274162292,0.00631499290466,0.00676202774048,0.000669956207275,0.0847198963165
68,0.00570583343506,0.006511926651,0.00619006156921,0.000655889511108,0.0886590480804
69,0.00368094444275,0.00582599639893,0.00618386268616,0.00066089630127,0.0826768875122
70,0.00422692298889,0.0059380531311,0.00644898414612,0.000588893890381,0.090026140213
71,0.00404620170593,0.00704097747803,0.00669693946838,0.000645160675049,0.139672040939
72,0.00439310073853,0.00666904449463,0.00662994384766,0.000865936279297,0.0926020145416
73,0.0049159526825,0.0055570602417,0.00648403167725,0.00084400177002,0.0944170951843
74,0.00405621528625,0.00538802146912,0.00657415390015,0.000603914260864,0.095263004303
75,0.00665402412415,0.00691390037537,0.00771713256836,0.00112295150757,0.0979101657867
76,0.0043728351593,0.0064959526062,0.00663089752197,0.000601053237915,0.0985269546509
77,0.00376296043396,0.00662302970886,0.00665688514709,0.000613927841187,0.100289106369
78,0.00410103797913,0.00611996650696,0.0062460899353,0.00065016746521,0.0993950366974
79,0.00418996810913,0.00593781471252,0.0063271522522,0.000637054443359,0.0978939533234
80,0.00442790985107,0.00671887397766,0.00705194473267,0.00103497505188,0.233174085617
81,0.00410580635071,0.00675296783447,0.00652813911438,0.000749111175537,0.102718114853
82,0.00406885147095,0.00649213790894,0.00631999969482,0.000576972961426,0.105098009109
83,0.00455904006958,0.00532007217407,0.00646018981934,0.000593900680542,0.104751110077
84,0.00426626205444,0.00671815872192,0.00676703453064,0.000816106796265,1.13719892502
85,0.00533604621887,0.00896000862122,0.00935697555542,0.00110220909119,0.142273902893
86,0.00523591041565,0.00855684280396,0.00860810279846,0.00100517272949,0.13617515564
87,0.00512194633484,0.00845813751221,0.00855302810669,0.00064492225647,0.146553993225
88,0.00534296035767,0.00958895683289,0.00964498519897,0.000958204269409,0.194828987122
89,0.00495791435242,0.00889182090759,0.0093138217926,0.000692129135132,0.149174928665
90,0.00540995597839,0.00590395927429,0.00963115692139,0.00129890441895,0.145604133606
91,0.00505185127258,0.00708317756653,0.00896215438843,0.00130295753479,0.149121999741
92,0.00476408004761,0.00809788703918,0.0091769695282,0.000868082046509,0.15123295784
93,0.00526881217957,0.00884199142456,0.00923204421997,0.00121998786926,0.153021812439
94,0.004958152771,0.00872588157654,0.00848507881165,0.000730037689209,0.155902147293
95,0.00625205039978,0.00823593139648,0.00914311408997,0.00113606452942,0.156843185425
96,0.00688409805298,0.0082380771637,0.00870013237,0.000935077667236,0.163240909576
97,0.00646615028381,0.00899887084961,0.00909399986267,0.000821828842163,0.220428943634
98,0.00542712211609,0.00574612617493,0.00874090194702,0.000996828079224,0.158064126968
99,0.00633692741394,0.00838613510132,0.00861310958862,0.00075888633728,0.155314922333
