step,run,get,set,free,run_up_to_step
0,0.00798606872559,0.0360682010651,0.0323941707611,0.00634694099426,0.00957798957825
1,0.00742602348328,0.0328409671783,0.0345320701599,0.00714588165283,0.0101721286774
2,0.00622200965881,0.0333268642426,0.0353791713715,0.00657200813293,0.0106971263885
3,0.00615191459656,0.032054901123,0.0370450019836,0.00693488121033,0.0124790668488
4,0.00702691078186,0.0328731536865,0.0338008403778,0.00688505172729,0.0319669246674
5,0.00674510002136,0.0300040245056,0.0342421531677,0.00654411315918,0.0134470462799
6,0.00662302970886,0.03293800354,0.0346579551697,0.00846314430237,0.0154891014099
7,0.00645709037781,0.0319550037384,0.0300500392914,0.00660490989685,0.0161101818085
8,0.00656485557556,0.03040599823,0.032280921936,0.00682497024536,0.0171608924866
9,0.00818204879761,0.0316731929779,0.0326509475708,0.00644183158875,0.0183770656586
10,0.0074770450592,0.0308859348297,0.037328004837,0.00772786140442,0.0194458961487
11,0.00722074508667,0.0323569774628,0.0313930511475,0.00643610954285,0.0203678607941
12,0.00728297233582,0.032840013504,0.0329761505127,0.00670194625854,0.0213308334351
13,0.00753378868103,0.0314040184021,0.0310201644897,0.00647592544556,0.0219628810883
14,0.00722193717957,0.0337910652161,0.0318520069122,0.00664901733398,0.0228559970856
15,0.00632905960083,0.0290739536285,0.0324370861053,0.0064549446106,0.0306890010834
16,0.00691294670105,0.0322589874268,0.0312740802765,0.00632095336914,0.0241918563843
17,0.00690674781799,0.0301370620728,0.0326199531555,0.00637102127075,0.0265090465546
18,0.00722789764404,0.0310127735138,0.0322918891907,0.0070629119873,0.0261199474335
19,0.00638294219971,0.030641078949,0.0317180156708,0.00651407241821,0.0295889377594
20,0.00724005699158,0.0312669277191,0.0307438373566,0.00631499290466,0.0283238887787
21,0.00642704963684,0.0299909114838,0.0332958698273,0.00667691230774,0.0306630134583
22,0.00680899620056,0.0322599411011,0.0324239730835,0.0063910484314,0.0312440395355
23,0.0062689781189,0.0296120643616,0.0321230888367,0.00640392303467,0.0333149433136
24,0.00759410858154,0.0328350067139,0.0351169109344,0.00665688514709,0.0340209007263
25,0.00722789764404,0.0325658321381,0.0344259738922,0.00657987594604,0.0350139141083
26,0.00744485855103,0.031044960022,0.0344359874725,0.00669097900391,0.0361840724945
27,0.00703430175781,0.0328049659729,0.0347211360931,0.00663995742798,0.0367660522461
28,0.00832295417786,0.0323090553284,0.0373148918152,0.00824999809265,0.0374839305878
29,0.00765013694763,0.0355689525604,0.0323340892792,0.00784492492676,0.044694185257
30,0.00712490081787,0.0321340560913,0.0351657867432,0.0066089630127,0.0432510375977
31,0.00781321525574,0.0328590869904,0.0331170558929,0.00810885429382,0.0417788028717
32,0.00727677345276,0.0367980003357,0.0392260551453,0.00784707069397,0.0418930053711
33,0.00692367553711,0.0301530361176,0.0345311164856,0.00737380981445,0.0429229736328
34,0.00686097145081,0.0322868824005,0.0354061126709,0.0068027973175,0.0435700416565
35,0.0533971786499,0.0375671386719,0.0328040122986,0.00679397583008,0.0446510314941
36,0.00714588165283,0.0331840515137,0.0363039970398,0.00684714317322,0.0457918643951
37,0.00719785690308,0.0361099243164,0.0342071056366,0.00683093070984,0.0461280345917
38,0.00740504264832,0.0310769081116,0.0320920944214,0.00760197639465,0.0466051101685
39,0.00764989852905,0.0316619873047,0.0417809486389,0.00705409049988,0.0525939464569
40,0.00669693946838,0.0336060523987,0.031347990036,0.00661706924438,0.0523829460144
41,0.00676608085632,0.031721830368,0.0425019264221,0.00880599021912,0.0511929988861
42,0.00761604309082,0.0352129936218,0.0353260040283,0.00709891319275,0.0757520198822
43,0.00817108154297,0.0336291790009,0.0334069728851,0.00680685043335,0.0611200332642
44,0.00706791877747,0.0328109264374,0.0340089797974,0.00687694549561,0.0621280670166
45,0.00673079490662,0.0325319766998,0.0347170829773,0.00753879547119,0.0551929473877
46,0.00637316703796,0.0305790901184,0.0334239006042,0.00644302368164,0.0558059215546
47,0.00675511360168,0.030935049057,0.0354759693146,0.00744080543518,0.129334926605
48,0.00719809532166,0.0305819511414,0.0342979431152,0.00653505325317,0.0640208721161
49,0.00737500190735,0.0315098762512,0.0308420658112,0.00680708885193,0.0574932098389
50,0.00728893280029,0.0344460010529,0.0333609580994,0.0069260597229,0.0572838783264
51,0.00772094726562,0.0335988998413,0.0352520942688,0.00730991363525,0.0632538795471
52,0.00794816017151,0.0329260826111,0.0346119403839,0.00700497627258,0.203868865967
53,0.00669813156128,0.0361139774323,0.0325360298157,0.00628614425659,0.0679378509521
54,0.00703907012939,0.0330250263214,0.0309619903564,0.00617694854736,0.0608050823212
55,0.00650405883789,0.0314390659332,0.0317242145538,0.00627589225769,0.0620160102844
56,0.00707197189331,0.0308980941772,0.0321819782257,0.00644016265869,0.0639679431915
57,0.00720906257629,0.0317800045013,0.0331118106842,0.00753784179688,0.0629889965057
58,0.00782704353333,0.0328052043915,0.0357298851013,0.00711417198181,0.164108991623
59,0.00709366798401,0.0322840213776,0.0329270362854,0.00754284858704,0.0681488513947
60,0.00735092163086,0.0315480232239,0.0322690010071,0.00640106201172,0.0733869075775
61,0.00676321983337,0.0330979824066,0.034677028656,0.00642013549805,0.0706989765167
62,0.00758075714111,0.0351870059967,0.0383470058441,0.00712609291077,0.0698668956757
63,0.0076048374176,0.0318398475647,0.0403199195862,0.00734496116638,0.1864798069
64,0.00700402259827,0.0332951545715,0.0324308872223,0.00669503211975,0.0748870372772
65,0.0070960521698,0.0328578948975,0.0331919193268,0.00726699829102,0.082190990448
66,0.00745892524719,0.034551858902,0.0366830825806,0.00765800476074,0.076514005661
67,0.00766324996948,0.032840013504,0.0339860916138,0.00715303421021,0.0792729854584
68,0.00714612007141,0.0344588756561,0.0363738536835,0.00722002983093,0.153138875961
69,0.00761294364929,0.032487154007,0.0336949825287,0.00680494308472,0.0863358974457
70,0.00781679153442,0.0334429740906,0.03165102005,0.00722694396973,0.0810070037842
71,0.00753307342529,0.0334889888763,0.0343639850616,0.00682806968689,0.0816459655762
72,0.00692200660706,0.0349171161652,0.0366170406342,0.00802683830261,0.0838279724121
73,0.00752091407776,0.0312690734863,0.0345029830933,0.00689291954041,0.0923981666565
74,0.0073869228363,0.0345871448517,0.037750005722,0.00750803947449,0.0858368873596
75,0.0087468624115,0.0318620204926,0.0362000465393,0.00748610496521,0.126134157181
76,0.00703096389771,0.0345032215118,0.0362219810486,0.00690889358521,0.0878548622131
77,0.00798201560974,0.0330882072449,0.0333361625671,0.00688099861145,0.170270204544
78,0.00756692886353,0.0345890522003,0.033961057663,0.00698018074036,0.0910940170288
79,0.00810575485229,0.0306379795074,0.0357458591461,0.00997805595398,0.092188835144
80,0.0071587562561,0.0323760509491,0.0346078872681,0.00708913803101,0.0936191082001
81,0.00770878791809,0.0336852073669,0.032035112381,0.00729298591614,0.102436065674
82,0.00738382339478,0.0360209941864,0.0353899002075,0.00738096237183,0.181192874908
83,0.00771403312683,0.0335080623627,0.0358080863953,0.00753211975098,0.0952548980713
84,0.00705885887146,0.0360159873962,0.036022901535,0.00690913200378,0.0962581634521
85,0.00759482383728,0.035227060318,0.0332980155945,0.00729703903198,0.099053144455
86,0.00716400146484,0.0325300693512,0.0369801521301,0.00864386558533,0.0992529392242
87,0.00760626792908,0.0347950458527,0.0338628292084,0.00687289237976,0.184213876724
88,0.00944590568542,0.0415499210358,0.0476620197296,0.00936698913574,0.119278907776
89,0.0101752281189,0.042289018631,0.0486521720886,0.009850025177,0.121346950531
90,0.0098991394043,0.0509359836578,0.0543839931488,0.0105888843536,0.119337081909
91,0.0103330612183,0.045618057251,0.0633380413055,0.0121819972992,0.129290103912
92,0.0106489658356,0.0490210056305,0.0513288974762,0.0083749294281,0.268682956696
93,0.00765228271484,0.036777973175,0.0344851016998,0.00704216957092,0.106530189514
94,0.00806379318237,0.036297082901,0.0327200889587,0.00689601898193,0.106995105743
95,0.00827217102051,0.0378320217133,0.0335810184479,0.00812816619873,0.116727113724
96,0.0075352191925,0.032087802887,0.037379026413,0.00754809379578,0.200048923492
97,0.00848197937012,0.040030002594,0.039589881897,0.00733494758606,0.122241973877
98,0.00735211372375,0.0317411422729,0.0353989601135,0.00769090652466,0.127459049225
99,0.00718784332275,0.0323231220245,0.0320589542389,0.00666880607605,0.111049175262
