step,run,get,set,free,run_up_to_step
0,0.234882116318,0.0128309726715,0.012640953064,0.00228095054626,0.240749835968
1,0.124480009079,0.0118598937988,0.0129251480103,0.00244688987732,0.285109996796
2,0.100299119949,0.0117249488831,0.0128169059753,0.00251317024231,0.339280128479
3,0.0838952064514,0.0120007991791,0.0136029720306,0.00285696983337,0.385506868362
4,0.0741469860077,0.0120589733124,0.0133180618286,0.00301885604858,0.338857889175
5,0.0744121074677,0.0122339725494,0.0129051208496,0.0027220249176,0.367169141769
6,0.0799520015717,0.0119550228119,0.0138890743256,0.00322699546814,0.366362094879
7,0.0821809768677,0.0120320320129,0.0140130519867,0.0271189212799,0.385282039642
8,0.0813150405884,0.0115730762482,0.0132942199707,0.00295186042786,0.38466501236
9,0.09632396698,0.0123090744019,0.0143048763275,0.00286793708801,0.394623041153
10,0.0532517433167,0.0120849609375,0.0134389400482,0.00307011604309,0.402693986893
11,0.0639748573303,0.0123219490051,0.0127630233765,0.00276803970337,0.415850162506
12,0.0571630001068,0.0121209621429,0.0142660140991,0.00285983085632,0.47563791275
13,0.057156085968,0.0122048854828,0.0135860443115,0.00310206413269,0.451349020004
14,0.0556862354279,0.0118288993835,0.0131049156189,0.00281405448914,0.429292917252
15,0.092383146286,0.0134811401367,0.0141160488129,0.00307488441467,0.46321606636
16,0.0369830131531,0.0120680332184,0.0136079788208,0.00312495231628,0.466142177582
17,0.0378401279449,0.0127341747284,0.0134551525116,0.00325512886047,0.524287939072
18,0.0366520881653,0.0124650001526,0.0133512020111,0.00285911560059,0.534792900085
19,0.0468142032623,0.0121281147003,0.0130050182343,0.00284910202026,0.512053012848
20,0.0418879985809,0.0121619701385,0.0142238140106,0.00331902503967,0.527850866318
21,0.0358719825745,0.0127050876617,0.0136978626251,0.00308895111084,0.539634943008
22,0.0358440876007,0.012375831604,0.0140240192413,0.0029239654541,0.549347877502
23,0.0371928215027,0.0127329826355,0.0133428573608,0.00296592712402,0.556639909744
24,0.0307621955872,0.0129590034485,0.0132501125336,0.00283694267273,0.688008785248
25,0.0299892425537,0.0125489234924,0.0133471488953,0.0029468536377,0.600363969803
26,0.048985004425,0.0123519897461,0.0145151615143,0.00338983535767,0.649852991104
27,0.036691904068,0.0117790699005,0.0135550498962,0.00314784049988,0.735384941101
28,0.0546300411224,0.0125548839569,0.0129370689392,0.00294899940491,0.630702018738
29,0.0465030670166,0.0120890140533,0.0130050182343,0.00284290313721,0.694600105286
30,0.0307490825653,0.0123801231384,0.0128951072693,0.00290298461914,0.690967082977
31,0.0373549461365,0.0119891166687,0.0136969089508,0.00354099273682,0.724462985992
32,0.0297131538391,0.0118520259857,0.0130188465118,0.00297093391418,0.755687952042
33,0.0308151245117,0.0124790668488,0.0132730007172,0.00315189361572,0.765025138855
34,0.0295588970184,0.012228012085,0.0134770870209,0.00307512283325,0.823384046555
35,0.0294539928436,0.012188911438,0.0131771564484,0.00296807289124,0.828809022903
36,0.0297069549561,0.0127549171448,0.0134301185608,0.00309205055237,0.863548994064
37,0.0310609340668,0.0126650333405,0.0128591060638,0.00297689437866,0.821959972382
38,0.0309648513794,0.0127210617065,0.0129170417786,0.0028178691864,0.863795995712
39,0.0308561325073,0.0122289657593,0.0133378505707,0.00300002098083,0.895232915878
40,0.16014790535,0.0124328136444,0.0130851268768,0.00288701057434,1.02060699463
41,0.0958268642426,0.0122399330139,0.0128221511841,0.00279402732849,1.08978390694
42,0.092129945755,0.0122759342194,0.0137410163879,0.00333499908447,1.07983779907
43,0.0623061656952,0.0121800899506,0.0127918720245,0.00282502174377,1.12035393715
44,0.10039973259,0.0131080150604,0.0129370689392,0.00283098220825,1.08440709114
45,0.062105178833,0.0122950077057,0.0128991603851,0.00282788276672,1.1383459568
46,0.0507221221924,0.0117461681366,0.0127489566803,0.00292301177979,1.10835909843
47,0.0499970912933,0.0127239227295,0.0132241249084,0.00310802459717,1.19401192665
48,0.0572218894958,0.0126211643219,0.0132429599762,0.00319004058838,1.12458205223
49,0.0569648742676,0.0125868320465,0.0135531425476,0.00308609008789,1.23619914055
50,0.0440287590027,0.0124990940094,0.0127739906311,0.00286102294922,1.14841794968
51,0.0547149181366,0.0129289627075,0.0144791603088,0.00291299819946,1.38243699074
52,0.0363187789917,0.0125639438629,0.0138120651245,0.00318789482117,1.12640309334
53,0.0420858860016,0.037425994873,0.0135581493378,0.00313091278076,1.16847395897
54,0.043790102005,0.0124530792236,0.0137989521027,0.0032320022583,1.19102191925
55,0.0359950065613,0.0125579833984,0.0135111808777,0.00342488288879,1.16467213631
56,0.036162853241,0.0124051570892,0.013836145401,0.00317811965942,1.25677704811
57,0.0384151935577,0.0126669406891,0.0130679607391,0.00316500663757,1.15358710289
58,0.0491330623627,0.0124320983887,0.0132467746735,0.00295686721802,1.22377300262
59,0.050882101059,0.0130701065063,0.0134568214417,0.00312805175781,1.1895198822
60,0.0313110351562,0.0126760005951,0.0131559371948,0.00291395187378,1.19223713875
61,0.0369899272919,0.0130491256714,0.0133390426636,0.00304794311523,1.21013402939
62,0.0353538990021,0.0148820877075,0.0131938457489,0.0029149055481,1.2855951786
63,0.0312111377716,0.012531042099,0.0128619670868,0.00285291671753,1.24234008789
64,0.0296010971069,0.0128300189972,0.0139629840851,0.00288200378418,1.23856091499
65,0.0315411090851,0.0134310722351,0.0132739543915,0.00314998626709,1.21433401108
66,0.0310409069061,0.0131449699402,0.0130441188812,0.0029149055481,1.23714709282
67,0.0297009944916,0.0119020938873,0.0131950378418,0.00306296348572,1.2236931324
68,0.0312829017639,0.0131590366364,0.0139229297638,0.00309300422668,1.29971408844
69,0.0307140350342,0.0134160518646,0.0127129554749,0.00295686721802,1.25555896759
70,0.0297617912292,0.0124969482422,0.0131099224091,0.00321412086487,1.26178312302
71,0.0315523147583,0.0121231079102,0.0126459598541,0.00282788276672,1.25825715065
72,0.0299162864685,0.0121760368347,0.0127329826355,0.00299596786499,1.29228115082
73,0.0299551486969,0.0131678581238,0.0125379562378,0.00278806686401,1.29015994072
74,0.031405210495,0.0136799812317,0.0138709545135,0.00333499908447,1.66856813431
75,0.107912063599,0.0131509304047,0.0131959915161,0.00296711921692,1.37604498863
76,0.0512268543243,0.0128722190857,0.0133490562439,0.00335288047791,1.46914792061
77,0.0693960189819,0.0132169723511,0.0131719112396,0.00288510322571,1.38739609718
78,0.0619277954102,0.0124571323395,0.0143859386444,0.00289797782898,1.51656103134
79,0.056056022644,0.0136749744415,0.0135681629181,0.00343585014343,1.42625808716
80,0.0573461055756,0.0127398967743,0.0138211250305,0.00350904464722,1.54820489883
81,0.0674681663513,0.0131599903107,0.0139710903168,0.00291013717651,1.756690979
82,0.0390939712524,0.0123860836029,0.013927936554,0.00327181816101,1.60010290146
83,0.0376651287079,0.0136690139771,0.0136041641235,0.00313901901245,1.53524398804
84,0.0417730808258,0.0125670433044,0.0139379501343,0.00418400764465,1.69173908234
85,0.0433049201965,0.0134589672089,0.0137360095978,0.00311493873596,1.65467190742
86,0.0428562164307,0.0129659175873,0.0134098529816,0.0029730796814,1.6807410717
87,0.0492799282074,0.0133578777313,0.0140008926392,0.00324177742004,1.62454485893
88,0.0459070205688,0.0131289958954,0.0132460594177,0.00294589996338,1.66381287575
89,0.0356149673462,0.0125851631165,0.0134150981903,0.00305390357971,1.64868497849
90,0.034904718399,0.0125710964203,0.0131070613861,0.00291895866394,1.64106106758
91,0.031069278717,0.0134661197662,0.0137548446655,0.00313091278076,1.65906095505
92,0.0311579704285,0.0135498046875,0.0133249759674,0.00308799743652,1.64710307121
93,0.0363616943359,0.0131139755249,0.0135650634766,0.00316786766052,1.66690516472
94,0.0297808647156,0.0132329463959,0.0130648612976,0.00293898582458,1.66866493225
95,0.0351910591125,0.0125489234924,0.0142929553986,0.00325894355774,1.8758559227
96,0.0500597953796,0.0128149986267,0.0132570266724,0.0029239654541,1.66877794266
97,0.0362141132355,0.0126669406891,0.0132689476013,0.00291895866394,1.74324798584
98,0.0312101840973,0.0128688812256,0.0130858421326,0.00301599502563,1.68833184242
99,0.0459048748016,0.0124561786652,0.0136370658875,0.0032651424408,1.76398420334
